"diffSecs","level","azimuth.mean","azimuth.absolute.deviation","azimuth.standard.deviation","azimuth.max.deviation","pitch.mean","pitch.absolute.deviation","pitch.standard.deviation","pitch.max.deviation","roll.mean","roll.absolute.deviation","roll.standard.deviation","roll.max.deviation","time"
0,49,26.8571434020996,3.97201180458069,4.41731309890747,7.15714263916016,-102.414283752441,1.05306112766266,1.14374959468842,2.01428556442261,-53.173469543457,0.680383026599884,0.770045280456543,1.17347037792206,2011-12-30 14:00:02
1.0619250535965,14,33.8357162475586,1.13571417331696,1.28597211837769,2.7642867565155,-102.97142791748,0.751021027565002,0.800383150577545,1.27142608165741,-54.75,0.992857038974762,1.04591023921967,1.54999816417694,2011-12-30 14:00:03
1.0056916475296,45,34.1577796936035,0.448790311813354,0.565091788768768,1.94222366809845,-101.217781066895,0.164839491248131,0.216321885585785,0.482224345207214,-56.6666679382324,0.179259225726128,0.227058544754982,0.533333480358124,2011-12-30 14:00:04
1.01062500476837,36,34.2750015258789,0.370833277702332,0.446203231811523,1.12500071525574,-99.6388931274414,1.05246877670288,1.12873482704163,1.93888604640961,-58.538890838623,1.44753086566925,1.49671459197998,2.1611111164093,2011-12-30 14:00:05
1.00353837013245,47,30.3574466705322,2.72068810462952,3.0581419467926,5.25744676589966,-96.7680892944336,1.66627466678619,2.50931119918823,7.56808233261108,-60.6319160461426,1.38985955715179,1.91101014614105,4.16808700561523,2011-12-30 14:00:06
1.00733995437622,43,50.0302314758301,8.81135749816895,9.7212438583374,17.7302341461182,-87.7860488891602,2.08674955368042,2.41983866691589,4.61395406723022,-46.5953483581543,6.03115224838257,7.19460248947144,17.304651260376,2011-12-30 14:00:07
1.00776338577271,7,56.5142860412598,1.80816352367401,2.03500008583069,3.31428575515747,-88.1428604125977,1.83265376091003,2.0583336353302,3.25714325904846,-42.1571426391602,1.13877511024475,1.27487456798553,2.14285612106323,2011-12-30 14:00:08
1.00221335887909,43,54.3581390380859,0.399026393890381,0.480422288179398,0.941859126091003,-90.9093017578125,0.131746008992195,0.162557542324066,0.409304052591324,-44.2441864013672,0.178041934967041,0.20035120844841,0.355815440416336,2011-12-30 14:00:09
1.01961505413055,46,53.760871887207,0.497353315353394,0.595810770988464,1.43913042545319,-91.0434799194336,0.112476639449596,0.132947325706482,0.256523638963699,-44.1869583129883,0.135538429021835,0.180107027292252,0.486956298351288,2011-12-30 14:00:10
1.05731499195099,33,54.1424255371094,0.221120148897171,0.267457395792007,0.657573938369751,-90.9181823730469,0.0947643965482712,0.121739409863949,0.218178495764732,-44.1787872314453,0.111477755010128,0.127344533801079,0.221212670207024,2011-12-30 14:00:11
1.01516830921173,48,53.15625,0.471614688634872,0.572606086730957,1.24375081062317,-91.2937545776367,0.199478819966316,0.264107048511505,0.593747913837433,-44.127082824707,0.15434005856514,0.184548631310463,0.427083343267441,2011-12-30 14:00:12
1.30114495754242,42,52.4119071960449,0.298752814531326,0.360688775777817,0.711905181407928,-91.5785751342773,0.115986533463001,0.143984198570251,0.321428924798965,-44.2976188659668,0.0937638953328133,0.122451350092888,0.297619581222534,2011-12-30 14:00:13
1.02037167549133,44,53.1636390686035,0.48677659034729,0.569725036621094,0.963636577129364,-91.5477294921875,0.0996901392936707,0.125206768512726,0.35227358341217,-44.1863632202148,0.110329858958721,0.135831817984581,0.313635468482971,2011-12-30 14:00:14
1.01797330379486,45,53.7244453430176,0.301629722118378,0.350970596075058,0.675556242465973,-91.4888916015625,0.149628609418869,0.176662668585777,0.411111116409302,-44.3400001525879,0.162666872143745,0.185472398996353,0.439999312162399,2011-12-30 14:00:15
1.01796996593475,39,53.2897453308105,0.209467396140099,0.255999624729156,0.510254979133606,-91.461540222168,0.118342325091362,0.144320070743561,0.361541152000427,-44.3615379333496,0.110848262906075,0.12932825088501,0.26153701543808,2011-12-30 14:00:16
1.00348663330078,38,53.2236862182617,0.23698028922081,0.293288290500641,0.62368243932724,-91.4894714355469,0.0822704881429672,0.111895501613617,0.310528814792633,-44.3921051025391,0.165789857506752,0.251711457967758,0.907893240451813,2011-12-30 14:00:17
1.00606334209442,37,40.0729751586914,5.0391526222229,5.80492115020752,12.2270259857178,-72.0324325561523,11.3773565292358,12.4680805206299,19.7675685882568,-51.7864875793457,3.00672006607056,3.37391924858093,6.2864875793457,2011-12-30 14:00:18
1.12395167350769,42,36.5619049072266,0.519501388072968,0.672575950622559,1.43809425830841,-66.7904739379883,4.93718814849854,5.52224111557007,10.4095268249512,-55.7214279174805,0.867347061634064,1.02412247657776,2.07857012748718,2011-12-30 14:00:19
1.06153333187103,41,45.0268287658691,3.3539559841156,3.95875239372253,7.22683000564575,-81.2170791625977,2.06460475921631,2.30301022529602,3.48292899131775,-39.7390251159668,10.8185606002808,11.620080947876,20.8390254974365,2011-12-30 14:00:20
1.02646827697754,37,40.19189453125,0.132650777697563,0.171445459127426,0.508107781410217,-84.0999984741211,0.210811361670494,0.272128462791443,0.60000342130661,-18.1702709197998,0.300365269184113,0.374789953231812,1.02973020076752,2011-12-30 14:00:21
1.01619493961334,39,40.6794891357422,0.280604869127274,0.322791993618011,0.620511472225189,-84.7410278320312,0.114793255925179,0.140909537672997,0.341026097536087,-19.1923084259033,0.131755635142326,0.170044749975204,0.407692283391953,2011-12-30 14:00:22
1.01152670383453,34,40.8823547363281,0.407612532377243,0.487171083688736,0.917645394802094,-84.8205871582031,0.126469999551773,0.154880091547966,0.320589631795883,-19.1558837890625,0.097059078514576,0.116798624396324,0.25588321685791,2011-12-30 14:00:23
1.00065505504608,38,40.6684226989746,0.108586736023426,0.143463209271431,0.431580305099487,-84.8789520263672,0.0709130465984344,0.0950273424386978,0.221049264073372,-19.1815795898438,0.0969532057642937,0.12108151614666,0.281579911708832,2011-12-30 14:00:24
1.01327335834503,38,40.6921081542969,0.140719771385193,0.179738953709602,0.407896041870117,-84.8421096801758,0.0908575728535652,0.113858409225941,0.357896715402603,-19.163158416748,0.107756562530994,0.13062846660614,0.263158798217773,2011-12-30 14:00:25
1.00866329669952,38,40.7552642822266,0.200276613235474,0.250995248556137,0.644737422466278,-84.7105255126953,0.156787201762199,0.180335700511932,0.310526609420776,-19.3631591796875,0.205262884497643,0.25486946105957,0.53684139251709,2011-12-30 14:00:26
1.0011283159256,38,40.7105255126953,0.158448234200478,0.201036036014557,0.489473938941956,-84.4289474487305,0.15969429910183,0.191816166043282,0.428948253393173,-20.2526321411133,0.186980590224266,0.216110199689865,0.447368919849396,2011-12-30 14:00:27
1.01557672023773,37,40.721622467041,0.242658361792564,0.305918902158737,0.721622169017792,-84.3810806274414,0.0927672758698463,0.111105881631374,0.281084209680557,-20.3999996185303,0.183783799409866,0.231329873204231,0.599999129772186,2011-12-30 14:00:28
1.01101994514465,28,40.8857154846191,0.166326880455017,0.199489295482635,0.485713422298431,-84.707145690918,0.123469643294811,0.157952949404716,0.407141268253326,-19.8964290618896,0.133418038487434,0.176234662532806,0.496429175138474,2011-12-30 14:00:29
1.09084498882294,35,41.1542854309082,0.328652530908585,0.481867074966431,1.35428714752197,-84.6628570556641,0.148246422410011,0.194327667355537,0.437140315771103,-19.6628570556641,0.337306141853333,0.503181636333466,1.56285727024078,2011-12-30 14:00:30
1.39956665039062,4,40.4750022888184,0.562500476837158,0.653357267379761,1.12500095367432,-85.1500015258789,0.100002288818359,0.111805103719234,0.150001525878906,-19.6499996185303,1.12499976158142,1.31244015693665,2.24999952316284,2011-12-30 14:00:32
1.01620995998383,47,41.2702140808105,0.209596768021584,0.260044932365417,0.629788100719452,-84.6872329711914,0.184337913990021,0.226553305983543,0.512768983840942,-20.0106391906738,0.208420127630234,0.252842515707016,0.589361608028412,2011-12-30 14:00:33
1.15100336074829,13,41.2538452148438,0.265088766813278,0.310373216867447,0.546152532100677,-85.2153854370117,0.0804734975099564,0.102629169821739,0.21538719534874,-19.9153842926025,0.139644965529442,0.179083779454231,0.31538450717926,2011-12-30 14:00:34
1.12468004226685,45,41.5244445800781,0.267062067985535,0.328738868236542,0.775554239749908,-85.3311157226562,0.0964924842119217,0.117040276527405,0.2688849568367,-20.1511116027832,0.121185466647148,0.143948122859001,0.251111894845963,2011-12-30 14:00:35
1.00632834434509,34,41.1235313415527,0.152594715356827,0.204448580741882,0.57647043466568,-85.5029449462891,0.0631484836339951,0.0856985598802567,0.197062999010086,-20.0382347106934,0.0961938723921776,0.116353161633015,0.238234519958496,2011-12-30 14:00:36
1.02939164638519,34,45.4882354736328,4.45155668258667,4.69203090667725,6.51176404953003,-85,0.629410982131958,0.694091975688934,1.19999825954437,-30.5588245391846,11.5515575408936,12.2082452774048,17.241174697876,2011-12-30 14:00:37
1.00547170639038,16,52.1124992370605,0.190625071525574,0.226039484143257,0.412499904632568,-84.2937545776367,0.0718753337860107,0.0966230928897858,0.193753719329834,-49.3687515258789,0.692969024181366,0.833455920219421,1.66875028610229,2011-12-30 14:00:38
1.14886999130249,43,51.927906036377,0.100919350981712,0.124500378966331,0.272092938423157,-84.4767456054688,0.0828547775745392,0.105294696986675,0.276740491390228,-50.0906982421875,0.114008061587811,0.144373491406441,0.29069909453392,2011-12-30 14:00:39
1.01596832275391,45,51.9466667175293,0.151703834533691,0.180862203240395,0.353331834077835,-84.4755554199219,0.11160384118557,0.130222156643867,0.275552034378052,-50.1244468688965,0.119308397173882,0.140088155865669,0.275556355714798,2011-12-30 14:00:40
1.0205066204071,23,51.982608795166,0.128544196486473,0.188015043735504,0.582608103752136,-84.5391311645508,0.106993645429611,0.127651289105415,0.260872215032578,-50.0217399597168,0.104726374149323,0.128389939665794,0.27825927734375,2011-12-30 14:00:41
1.30979669094086,31,51.7032279968262,0.332154095172882,0.364987075328827,0.696775019168854,-84.6451644897461,0.0840812921524048,0.101088337600231,0.25483974814415,-50.2548408508301,0.120498910546303,0.143321305513382,0.354837983846664,2011-12-30 14:00:43
