"diffSecs","latitude","longitude","altitude","time"
0.674000024795532,42.53825961,-70.98815456,2.59999990463257,2012-03-01 20:00:00
0.791000127792358,42.53812587,-70.9882079,3,2012-03-01 20:00:01
1.00099992752075,42.53804087,-70.98826859,3.20000004768372,2012-03-01 20:00:02
0.886999845504761,42.53793326,-70.98833567,2.5,2012-03-01 20:00:03
1.00800013542175,42.53783368,-70.98843386,1.20000004768372,2012-03-01 20:00:04
1.01600003242493,42.53770869,-70.98850306,0.899999976158142,2012-03-01 20:00:05
1.18499994277954,42.53757377,-70.98856547,1.5,2012-03-01 20:00:06
0.79200005531311,42.5374495,-70.98860463,1.29999995231628,2012-03-01 20:00:07
1.01799988746643,42.53732013,-70.98868636,1.5,2012-03-01 20:00:08
0.982000112533569,42.53719025,-70.98875913,2.90000009536743,2012-03-01 20:00:09
1.01199984550476,42.53707303,-70.98884502,3.59999990463257,2012-03-01 20:00:10
1.01200008392334,42.53692497,-70.98891867,5.80000019073486,2012-03-01 20:00:11
0.996999979019165,42.53680854,-70.98898868,6.40000009536743,2012-03-01 20:00:12
1,42.5366822,-70.98904572,5.69999980926514,2012-03-01 20:00:13
1.1800000667572,42.5365437,-70.98910874,5.5,2012-03-01 20:00:14
0.799000024795532,42.53640612,-70.98916999,5.80000019073486,2012-03-01 20:00:15
1.00999999046326,42.53624845,-70.98923993,5.90000009536743,2012-03-01 20:00:16
0.991999864578247,42.53611629,-70.98927632,7,2012-03-01 20:00:17
1.0090000629425,42.53595739,-70.98933536,7.30000019073486,2012-03-01 20:00:18
1.06200003623962,42.53583274,-70.98941486,7.90000009536743,2012-03-01 20:00:19
0.994999885559082,42.53568266,-70.98948719,9.19999980926514,2012-03-01 20:00:20
0.946000099182129,42.53554797,-70.98957994,9.89999961853027,2012-03-01 20:00:21
0.98799991607666,42.53539775,-70.98963393,10.1999998092651,2012-03-01 20:00:22
1.00400018692017,42.53524833,-70.98970711,9.60000038146973,2012-03-01 20:00:23
1.0149998664856,42.53510979,-70.98976493,9.39999961853027,2012-03-01 20:00:24
0.983000040054321,42.53497691,-70.98983434,10.3999996185303,2012-03-01 20:00:25
0.999000072479248,42.53484462,-70.98991402,10.3999996185303,2012-03-01 20:00:26
0.995999813079834,42.53472006,-70.98999419,10.1000003814697,2012-03-01 20:00:27
0.067000150680542,42.53457736,-70.9900581,9.39999961853027,2012-03-01 20:00:27
1.00600004196167,42.53444754,-70.9901346,9,2012-03-01 20:00:28
0.986999988555908,42.53431585,-70.99022902,9.39999961853027,2012-03-01 20:00:29
1.0460000038147,42.53417446,-70.99029662,10,2012-03-01 20:00:30
0.954999923706055,42.53405919,-70.99036344,9.5,2012-03-01 20:00:31
1.01300001144409,42.53393724,-70.99042282,9.5,2012-03-01 20:00:32
1.01600003242493,42.53380938,-70.99048211,9.10000038146973,2012-03-01 20:00:33
0.986999988555908,42.53368587,-70.99055829,9,2012-03-01 20:00:34
0.991999864578247,42.53357963,-70.99062715,7.90000009536743,2012-03-01 20:00:35
1.10500001907349,42.53345499,-70.99070599,9,2012-03-01 20:00:36
0.906000137329102,42.53333897,-70.99077372,8.69999980926514,2012-03-01 20:00:37
0.990000009536743,42.53323032,-70.99085988,9.89999961853027,2012-03-01 20:00:38
0.996000051498413,42.53308411,-70.99093888,9.10000038146973,2012-03-01 20:00:39
0.997999906539917,42.53296704,-70.99102182,8.80000019073486,2012-03-01 20:00:40
1.01999998092651,42.53282109,-70.99110375,9.69999980926514,2012-03-01 20:00:41
0.982000112533569,42.5326955,-70.99118319,10.6000003814697,2012-03-01 20:00:42
1.00299978256226,42.53257359,-70.99126332,11.6999998092651,2012-03-01 20:00:43
1.19600009918213,42.53244496,-70.99136126,12.3999996185303,2012-03-01 20:00:44
0.802999973297119,42.53230942,-70.99143854,12.5,2012-03-01 20:00:45
0.992000102996826,42.53217476,-70.99151986,12.3999996185303,2012-03-01 20:00:46
1.06099987030029,42.5320159,-70.99156644,12,2012-03-01 20:00:47
0.960999965667725,42.5318674,-70.99166012,12.1999998092651,2012-03-01 20:00:48
1.05200004577637,42.53173589,-70.99174219,11.3999996185303,2012-03-01 20:00:49
0.92900013923645,42.53162109,-70.99182253,11.1000003814697,2012-03-01 20:00:50
0.995999813079834,42.5314948,-70.99191085,11.1000003814697,2012-03-01 20:00:51
1.19099998474121,42.53144326,-70.99194309,11.1000003814697,2012-03-01 20:00:52
0.837000131607056,42.53131722,-70.99204032,11.3999996185303,2012-03-01 20:00:53
0.976000070571899,42.53121219,-70.99211339,11,2012-03-01 20:00:54
1.07200002670288,42.5310933,-70.99219485,11.1000003814697,2012-03-01 20:00:55
0.932999849319458,42.53095971,-70.99226153,11,2012-03-01 20:00:56
0.996000051498413,42.53083579,-70.99233857,10.8999996185303,2012-03-01 20:00:57
1.15499997138977,42.53070174,-70.99243196,11,2012-03-01 20:00:58
0.865000009536743,42.53056672,-70.9925154,11.1999998092651,2012-03-01 20:00:59
0.980000019073486,42.53041669,-70.99259571,10.3000001907349,2012-03-01 20:01:00
1.00200009346008,42.53021236,-70.99271295,11.1999998092651,2012-03-01 20:01:01
0.996999979019165,42.53012225,-70.99276034,13,2012-03-01 20:01:02
1.00499987602234,42.53001758,-70.99283503,13.8000001907349,2012-03-01 20:01:03
0.996000051498413,42.52992291,-70.99287466,14,2012-03-01 20:01:04
0.996999979019165,42.52981759,-70.99291259,12.5,2012-03-01 20:01:05
1.01699995994568,42.5297468,-70.99298584,12.1999998092651,2012-03-01 20:01:06
0.980000019073486,42.52963298,-70.99305743,11.3000001907349,2012-03-01 20:01:07
1,42.52953765,-70.99311643,10.3000001907349,2012-03-01 20:01:08
1.02099990844727,42.52946295,-70.99317459,9.89999961853027,2012-03-01 20:01:09
1.10500001907349,42.52932817,-70.99324632,10.1999998092651,2012-03-01 20:01:10
0.896000146865845,42.52920123,-70.99330465,10,2012-03-01 20:01:11
0.986999988555908,42.5291594,-70.99333121,10,2012-03-01 20:01:12
0.996000051498413,42.52904799,-70.99339521,9.60000038146973,2012-03-01 20:01:13
1.00300002098083,42.52891167,-70.9934499,9.19999980926514,2012-03-01 20:01:14
1.00499987602234,42.52878024,-70.99354206,9.60000038146973,2012-03-01 20:01:15
1.00200009346008,42.52867603,-70.99360417,9.60000038146973,2012-03-01 20:01:16
1.01699995994568,42.52854265,-70.99368895,9.39999961853027,2012-03-01 20:01:17
0.980000019073486,42.52841763,-70.99376275,9.39999961853027,2012-03-01 20:01:18
0.990999937057495,42.52829871,-70.99384749,9.39999961853027,2012-03-01 20:01:19
1.12199997901917,42.52818817,-70.99394217,9.60000038146973,2012-03-01 20:01:20
0.878000020980835,42.52806004,-70.99398772,9.39999961853027,2012-03-01 20:01:21
1.02099990844727,42.52793287,-70.99404766,9.30000019073486,2012-03-01 20:01:22
1.1800000667572,42.52777522,-70.99417656,9.30000019073486,2012-03-01 20:01:23
0.801000118255615,42.5276586,-70.99426994,9.19999980926514,2012-03-01 20:01:24
1.01799988746643,42.52755536,-70.99431135,9.10000038146973,2012-03-01 20:01:25
0.985000133514404,42.52742048,-70.994382,9.10000038146973,2012-03-01 20:01:26
1.00299978256226,42.5272611,-70.99444577,9.10000038146973,2012-03-01 20:01:27
1.01400017738342,42.52713111,-70.99452449,9,2012-03-01 20:01:28
0.978999853134155,42.52700603,-70.99459694,9,2012-03-01 20:01:29
1.00300002098083,42.52687247,-70.99469935,8.89999961853027,2012-03-01 20:01:30
1.00200009346008,42.52674006,-70.99479415,8.80000019073486,2012-03-01 20:01:31
1.00699996948242,42.52660171,-70.99487299,8.80000019073486,2012-03-01 20:01:32
1.00699996948242,42.52647551,-70.99494038,8.80000019073486,2012-03-01 20:01:33
0.986000061035156,42.52632509,-70.99505163,8.69999980926514,2012-03-01 20:01:34
0.993000030517578,42.5261778,-70.99515482,8.69999980926514,2012-03-01 20:01:35
1.01999998092651,42.52603783,-70.99522826,8.60000038146973,2012-03-01 20:01:36
0.98799991607666,42.5258978,-70.99530856,8.60000038146973,2012-03-01 20:01:37
1.00099992752075,42.52574637,-70.99537705,8.5,2012-03-01 20:01:38
1.02700018882751,42.52560113,-70.9954357,8.39999961853027,2012-03-01 20:01:39
0.970999956130981,42.52546048,-70.99553016,8.5,2012-03-01 20:01:40
1.0220000743866,42.52531582,-70.99561012,8.5,2012-03-01 20:01:41
0.984999895095825,42.52516192,-70.9956859,8.39999961853027,2012-03-01 20:01:42
1.04200005531311,42.52496202,-70.99576368,8.69999980926514,2012-03-01 20:01:43
0.958999872207642,42.52481431,-70.9958626,8.89999961853027,2012-03-01 20:01:44
1.01900005340576,42.52469665,-70.99590147,8.5,2012-03-01 20:01:45
0.973999977111816,42.52454938,-70.99598733,8.60000038146973,2012-03-01 20:01:46
1.03500008583069,42.52442807,-70.9960967,8.69999980926514,2012-03-01 20:01:47
0.96399998664856,42.52427019,-70.99614842,9.89999961853027,2012-03-01 20:01:48
1.00099992752075,42.52411634,-70.9962214,10,2012-03-01 20:01:49
0.996000051498413,42.52393618,-70.99627408,9.69999980926514,2012-03-01 20:01:50
1.00799989700317,42.52378123,-70.9963516,10.3000001907349,2012-03-01 20:01:51
1.00200009346008,42.52362516,-70.99642512,10.6000003814697,2012-03-01 20:01:52
0.98799991607666,42.52347278,-70.99653089,9.89999961853027,2012-03-01 20:01:53
1.01100015640259,42.52331083,-70.99661867,10.8000001907349,2012-03-01 20:01:54
1.11500000953674,42.52314528,-70.99666981,10,2012-03-01 20:01:55
0.880999803543091,42.5229917,-70.99673489,9.69999980926514,2012-03-01 20:01:56
1.00600004196167,42.52281539,-70.99682959,9.30000019073486,2012-03-01 20:01:57
1.00800013542175,42.52264985,-70.99693202,9.30000019073486,2012-03-01 20:01:58
0.983000040054321,42.52250205,-70.99702325,9,2012-03-01 20:01:59
0.994999885559082,42.52231629,-70.99711796,8.60000038146973,2012-03-01 20:02:00
1.01200008392334,42.52214883,-70.99721526,7.59999990463257,2012-03-01 20:02:01
1.09699988365173,42.52198089,-70.99732597,7.90000009536743,2012-03-01 20:02:02
0.934999942779541,42.52183033,-70.99743754,8.19999980926514,2012-03-01 20:02:03
0.962000131607056,42.52167834,-70.99753933,9.19999980926514,2012-03-01 20:02:04
1.04699993133545,42.52152488,-70.9976486,9.19999980926514,2012-03-01 20:02:05
0.962000131607056,42.52138821,-70.99775822,9.19999980926514,2012-03-01 20:02:06
0.994999885559082,42.52124351,-70.99786079,9.30000019073486,2012-03-01 20:02:07
1.00099992752075,42.5211157,-70.99796542,9.30000019073486,2012-03-01 20:02:08
1.2810001373291,42.52096848,-70.99806207,8.89999961853027,2012-03-01 20:02:09
0.70799994468689,42.52082625,-70.99817096,8.80000019073486,2012-03-01 20:02:10
1.00699996948242,42.52068289,-70.99828863,9,2012-03-01 20:02:11
1.10400009155273,42.52056556,-70.99840482,9.89999961853027,2012-03-01 20:02:12
0.898000001907349,42.52043326,-70.99850508,10,2012-03-01 20:02:13
1.01099991798401,42.52029732,-70.99861293,9.89999961853027,2012-03-01 20:02:14
0.982000112533569,42.52016936,-70.99873443,9.60000038146973,2012-03-01 20:02:15
1.00499987602234,42.52002803,-70.9988455,9.69999980926514,2012-03-01 20:02:16
0.995000123977661,42.51990107,-70.99896017,9.10000038146973,2012-03-01 20:02:17
1.00799989700317,42.51975741,-70.99907454,10.1000003814697,2012-03-01 20:02:18
0.992000102996826,42.519622,-70.99921318,10.1000003814697,2012-03-01 20:02:19
1.06599998474121,42.51948504,-70.99928681,9.80000019073486,2012-03-01 20:02:20
0.940999984741211,42.51934059,-70.99937612,9.39999961853027,2012-03-01 20:02:21
1.35199999809265,42.51919138,-70.9994818,9.80000019073486,2012-03-01 20:02:22
1.00600004196167,42.51904186,-70.999624,8.69999980926514,2012-03-01 20:02:23
1.00399994850159,42.51890754,-70.99976388,8.80000019073486,2012-03-01 20:02:24
1.01699995994568,42.51874918,-70.99987119,10,2012-03-01 20:02:25
0.974999904632568,42.51859061,-70.99999828,9.30000019073486,2012-03-01 20:02:26
1.00999999046326,42.51846032,-71.00011782,9.80000019073486,2012-03-01 20:02:27
0.994000196456909,42.51830789,-71.00023316,10.6000003814697,2012-03-01 20:02:28
1.02699995040894,42.51816107,-71.00033728,12.1000003814697,2012-03-01 20:02:29
0.986000061035156,42.5180365,-71.00045171,12.1000003814697,2012-03-01 20:02:30
1.12799978256226,42.51789296,-71.00057806,11.8999996185303,2012-03-01 20:02:31
0.851999998092651,42.51775339,-71.00068921,11.8999996185303,2012-03-01 20:02:32
1.00200009346008,42.51760811,-71.00079787,11.8999996185303,2012-03-01 20:02:33
1.01300001144409,42.51747219,-71.00091896,12,2012-03-01 20:02:34
0.986999988555908,42.51732773,-71.00102456,11.5,2012-03-01 20:02:35
1.13800001144409,42.51718778,-71.00114282,12.3000001907349,2012-03-01 20:02:36
0.869999885559082,42.51705188,-71.00124465,12.3999996185303,2012-03-01 20:02:37
0.996000051498413,42.51695053,-71.00133085,11.8999996185303,2012-03-01 20:02:38
0.99399995803833,42.51684025,-71.00140402,11.6000003814697,2012-03-01 20:02:39
1.01700019836426,42.5167317,-71.0015068,11,2012-03-01 20:02:40
0.982999801635742,42.51661424,-71.00161358,12.1000003814697,2012-03-01 20:02:41
1.01200008392334,42.51648289,-71.0017123,13,2012-03-01 20:02:42
1.00500011444092,42.5163765,-71.00180679,14.3000001907349,2012-03-01 20:02:43
1.04099988937378,42.51624621,-71.00189966,13.1000003814697,2012-03-01 20:02:44
0.960000038146973,42.51614634,-71.00201108,13.3999996185303,2012-03-01 20:02:45
1.00300002098083,42.51602307,-71.00209855,14.1000003814697,2012-03-01 20:02:46
0.978999853134155,42.51590064,-71.00219332,14,2012-03-01 20:02:47
1.02400016784668,42.51576986,-71.00230052,13.6999998092651,2012-03-01 20:02:48
0.980000019073486,42.51564928,-71.00240264,14.1000003814697,2012-03-01 20:02:49
0.998999834060669,42.51551475,-71.00251554,13.8000001907349,2012-03-01 20:02:50
1.02400016784668,42.51538662,-71.00262667,13.8000001907349,2012-03-01 20:02:51
0.977999925613403,42.51526524,-71.0027305,14.1000003814697,2012-03-01 20:02:52
1.00300002098083,42.51513712,-71.00284238,13.8999996185303,2012-03-01 20:02:53
0.994999885559082,42.5150062,-71.00297393,13.6000003814697,2012-03-01 20:02:54
1.07400012016296,42.51487796,-71.00307243,13.1999998092651,2012-03-01 20:02:55
0.944000005722046,42.51475619,-71.00319493,13.1000003814697,2012-03-01 20:02:56
0.98199987411499,42.5146296,-71.00332217,13.1999998092651,2012-03-01 20:02:57
1.00400018692017,42.51450749,-71.00344049,13.1000003814697,2012-03-01 20:02:58
1.03600001335144,42.51438533,-71.003557,13,2012-03-01 20:02:59
0.995999813079834,42.51426713,-71.00367247,12.8999996185303,2012-03-01 20:03:00
0.970999956130981,42.51414557,-71.00378975,12.8000001907349,2012-03-01 20:03:01
1.01300001144409,42.51404286,-71.00396739,12.8000001907349,2012-03-01 20:03:02
0.982000112533569,42.51399402,-71.00417838,12.6000003814697,2012-03-01 20:03:03
1.00099992752075,42.51389203,-71.00434832,12.6000003814697,2012-03-01 20:03:04
0.996999979019165,42.51378492,-71.00450917,13,2012-03-01 20:03:05
1.00300002098083,42.51368247,-71.00467476,13,2012-03-01 20:03:06
1.02600002288818,42.51360057,-71.00485655,13.1999998092651,2012-03-01 20:03:07
1.50999999046326,42.51350536,-71.00502896,13.1999998092651,2012-03-01 20:03:09
0.467999935150146,42.51339983,-71.00518498,13.1999998092651,2012-03-01 20:03:09
1.03200006484985,42.5133145,-71.0053636,12.8999996185303,2012-03-01 20:03:10
0.960999965667725,42.51320194,-71.005505,12.8000001907349,2012-03-01 20:03:11
1.0090000629425,42.51311071,-71.00565024,12.6999998092651,2012-03-01 20:03:12
1.02300000190735,42.5130019,-71.00580625,13.6999998092651,2012-03-01 20:03:13
1.08100008964539,42.51290204,-71.00600677,14.1000003814697,2012-03-01 20:03:14
0.886999845504761,42.51280528,-71.00617692,14.1000003814697,2012-03-01 20:03:15
0.999000072479248,42.51272631,-71.00632598,14,2012-03-01 20:03:16
1.00500011444092,42.51263737,-71.00647927,13.8999996185303,2012-03-01 20:03:17
1.01599979400635,42.51254338,-71.00664564,13.8000001907349,2012-03-01 20:03:18
1.17000007629395,42.51244631,-71.00681477,13.6999998092651,2012-03-01 20:03:19
0.809000015258789,42.51230397,-71.00703888,12.8000001907349,2012-03-01 20:03:20
1.01300001144409,42.51220323,-71.00720727,12.6000003814697,2012-03-01 20:03:21
1.00399994850159,42.51210302,-71.0073779,13.1999998092651,2012-03-01 20:03:22
0.998000144958496,42.51201357,-71.0075386,12.8999996185303,2012-03-01 20:03:23
0.985999822616577,42.51188464,-71.00775185,13,2012-03-01 20:03:24
1.00800013542175,42.51178491,-71.00791796,13,2012-03-01 20:03:25
1.0019998550415,42.51169457,-71.00805622,13.1999998092651,2012-03-01 20:03:26
0.988000154495239,42.51160741,-71.00818726,14.3000001907349,2012-03-01 20:03:27
1.00999999046326,42.51151842,-71.00834017,14.5,2012-03-01 20:03:28
1.0149998664856,42.51139247,-71.00850715,13.8000001907349,2012-03-01 20:03:29
0.979000091552734,42.51130424,-71.00864818,13.8999996185303,2012-03-01 20:03:30
1.00200009346008,42.51120251,-71.00884118,13.8999996185303,2012-03-01 20:03:31
1.01999998092651,42.51108791,-71.00899523,13.3999996185303,2012-03-01 20:03:32
0.977999925613403,42.51098513,-71.00912268,13.1999998092651,2012-03-01 20:03:33
1.00699996948242,42.51088056,-71.0092755,13.3000001907349,2012-03-01 20:03:34
1.08999991416931,42.51078763,-71.00940905,13.3000001907349,2012-03-01 20:03:35
0.972000122070312,42.51066322,-71.00959392,14.3000001907349,2012-03-01 20:03:36
0.941999912261963,42.51056148,-71.009698,14.1000003814697,2012-03-01 20:03:37
0.99399995803833,42.51046659,-71.0098263,14.5,2012-03-01 20:03:38
0.999000072479248,42.51035974,-71.00996063,15.6999998092651,2012-03-01 20:03:39
1.0239999294281,42.51027766,-71.01010142,16.1000003814697,2012-03-01 20:03:40
1.21400022506714,42.51017209,-71.01025155,16.3999996185303,2012-03-01 20:03:42
0.764999866485596,42.51007103,-71.01039422,16.5,2012-03-01 20:03:42
1.01600003242493,42.50995356,-71.01059361,17.8999996185303,2012-03-01 20:03:43
0.976999998092651,42.50983594,-71.01072805,17.6000003814697,2012-03-01 20:03:44
1.00499987602234,42.5097129,-71.01089978,18.2000007629395,2012-03-01 20:03:45
1.00500011444092,42.50959235,-71.01103355,18.1000003814697,2012-03-01 20:03:46
1.25699996948242,42.50947079,-71.01118988,18,2012-03-01 20:03:48
0.733999967575073,42.50935575,-71.01134353,17.8999996185303,2012-03-01 20:03:48
1.00399994850159,42.50921822,-71.01149882,18.2999992370605,2012-03-01 20:03:49
0.993000030517578,42.50909521,-71.01165644,18.7000007629395,2012-03-01 20:03:50
1.02500009536743,42.50895384,-71.0118116,18.2999992370605,2012-03-01 20:03:51
0.974999904632568,42.50881629,-71.0119473,18.8999996185303,2012-03-01 20:03:52
1.0090000629425,42.50870073,-71.0120882,19,2012-03-01 20:03:53
0.993000030517578,42.50859853,-71.01224583,19.2000007629395,2012-03-01 20:03:54
1.04099988937378,42.50847458,-71.01239165,19.3999996185303,2012-03-01 20:03:55
0.963000059127808,42.50836287,-71.01252676,18.7999992370605,2012-03-01 20:03:56
0.995000123977661,42.50823646,-71.01262485,18.7000007629395,2012-03-01 20:03:57
1.29900002479553,42.50811112,-71.012738,18.6000003814697,2012-03-01 20:03:59
0.703999996185303,42.50797098,-71.01286608,18.7999992370605,2012-03-01 20:03:59
1.00399994850159,42.50784201,-71.01300048,18.6000003814697,2012-03-01 20:04:00
0.991999864578247,42.50768334,-71.01313012,17.8999996185303,2012-03-01 20:04:01
1.00999999046326,42.50752608,-71.01325304,16.7999992370605,2012-03-01 20:04:02
0.992000102996826,42.50738733,-71.01336845,17,2012-03-01 20:04:03
1.56599998474121,42.50727495,-71.01347702,19.3999996185303,2012-03-01 20:04:05
1.60999989509583,42.50711902,-71.01357996,18.7000007629395,2012-03-01 20:04:06
0.386000156402588,42.50698264,-71.01367347,18.7000007629395,2012-03-01 20:04:07
1.00600004196167,42.50684096,-71.01375659,18.6000003814697,2012-03-01 20:04:08
0.991999864578247,42.50669635,-71.01384691,18.7999992370605,2012-03-01 20:04:09
1.19000005722046,42.50652842,-71.01393204,18.7000007629395,2012-03-01 20:04:10
0.819999933242798,42.50635803,-71.0140137,18.2999992370605,2012-03-01 20:04:11
0.995000123977661,42.50620315,-71.01408043,18.2999992370605,2012-03-01 20:04:12
1.00300002098083,42.5060329,-71.0141678,18.6000003814697,2012-03-01 20:04:13
1.02499985694885,42.50586318,-71.01422671,18.7000007629395,2012-03-01 20:04:14
1.15700006484985,42.50570365,-71.01428198,18.6000003814697,2012-03-01 20:04:15
0.845999956130981,42.505528,-71.01433797,18.7999992370605,2012-03-01 20:04:16
0.967999935150146,42.50536583,-71.01438873,19.3999996185303,2012-03-01 20:04:17
1.02100014686584,42.50518784,-71.01441833,19.3999996185303,2012-03-01 20:04:18
0.978999853134155,42.50503222,-71.01446117,18.7000007629395,2012-03-01 20:04:19
1.00400018692017,42.50483175,-71.01447565,18.3999996185303,2012-03-01 20:04:20
0.990000009536743,42.50466076,-71.01450045,18.7000007629395,2012-03-01 20:04:21
1.02600002288818,42.50447639,-71.01453356,17.5,2012-03-01 20:04:22
0.978999853134155,42.50430361,-71.01456776,17.7000007629395,2012-03-01 20:04:23
1,42.50414036,-71.01459152,18,2012-03-01 20:04:24
1.03299999237061,42.50397432,-71.01459803,18.2000007629395,2012-03-01 20:04:25
1.26699995994568,42.50382232,-71.01458676,18,2012-03-01 20:04:26
0.712000131607056,42.50364664,-71.01461369,17.7000007629395,2012-03-01 20:04:27
0.990999937057495,42.50347458,-71.0146187,17.5,2012-03-01 20:04:28
1.27999997138977,42.5032855,-71.01462264,16.5,2012-03-01 20:04:29
0.71399998664856,42.50310982,-71.01462136,15.6000003814697,2012-03-01 20:04:30
0.996999979019165,42.50295158,-71.01463641,16.8999996185303,2012-03-01 20:04:31
1.26400017738342,42.50279313,-71.01464272,16.7999992370605,2012-03-01 20:04:32
0.748999834060669,42.50262705,-71.0146477,16.2999992370605,2012-03-01 20:04:33
0.991000175476074,42.50245545,-71.0146557,16.2999992370605,2012-03-01 20:04:34
1.05899977684021,42.502302,-71.01465327,14.6000003814697,2012-03-01 20:04:35
0.950000047683716,42.50210763,-71.01465677,14.8000001907349,2012-03-01 20:04:36
1.03700017929077,42.50196048,-71.01465453,14.3000001907349,2012-03-01 20:04:37
0.959999799728394,42.50182395,-71.01468231,13.8000001907349,2012-03-01 20:04:38
0.995000123977661,42.50163628,-71.01471091,14.1000003814697,2012-03-01 20:04:39
1.01999998092651,42.50146871,-71.01473179,14.5,2012-03-01 20:04:40
1.05399990081787,42.50131397,-71.01476771,15.1000003814697,2012-03-01 20:04:41
0.927999973297119,42.50116255,-71.01480461,15.5,2012-03-01 20:04:42
0.997000217437744,42.50099703,-71.01484412,15.6000003814697,2012-03-01 20:04:43
1.01699995994568,42.50082804,-71.01487126,15.1999998092651,2012-03-01 20:04:44
0.984999895095825,42.50064467,-71.01490618,15.1999998092651,2012-03-01 20:04:45
1.00099992752075,42.50047148,-71.01491813,14.6000003814697,2012-03-01 20:04:46
1.02300000190735,42.50031606,-71.01494335,13.6999998092651,2012-03-01 20:04:47
0.980000019073486,42.50014877,-71.01497669,14.3999996185303,2012-03-01 20:04:48
1.02300000190735,42.49996584,-71.0150398,14.6000003814697,2012-03-01 20:04:49
0.973000049591064,42.49977562,-71.01511466,14.1000003814697,2012-03-01 20:04:50
1.07999992370605,42.4996006,-71.01516212,14.5,2012-03-01 20:04:51
0.950000047683716,42.4994391,-71.01519162,13.6000003814697,2012-03-01 20:04:52
0.973999977111816,42.49925023,-71.01524035,13.3000001907349,2012-03-01 20:04:53
1.00300002098083,42.49907493,-71.0152463,13.3000001907349,2012-03-01 20:04:54
1.01400017738342,42.49890381,-71.01527383,12.1999998092651,2012-03-01 20:04:55
0.98199987411499,42.49873595,-71.01533572,12,2012-03-01 20:04:56
0.999000072479248,42.49856607,-71.01537906,11.8999996185303,2012-03-01 20:04:57
1.25899982452393,42.49838612,-71.01542248,11,2012-03-01 20:04:58
0.757000207901001,42.49822062,-71.01546447,11,2012-03-01 20:04:59
0.99399995803833,42.49803549,-71.01552386,10,2012-03-01 20:05:00
0.996999979019165,42.49784973,-71.01557802,9.80000019073486,2012-03-01 20:05:01
0.993000030517578,42.49769047,-71.01562463,9.60000038146973,2012-03-01 20:05:02
1.01799988746643,42.49749412,-71.01568282,9.39999961853027,2012-03-01 20:05:03
0.980000019073486,42.49731493,-71.01574105,8.80000019073486,2012-03-01 20:05:04
1.00399994850159,42.4971607,-71.01581711,8.60000038146973,2012-03-01 20:05:05
1.01500010490417,42.49699365,-71.01586979,8.60000038146973,2012-03-01 20:05:06
0.98199987411499,42.49683495,-71.01591634,8.80000019073486,2012-03-01 20:05:07
1.00600004196167,42.49665282,-71.01598235,8,2012-03-01 20:05:08
1.05299997329712,42.49646622,-71.01601543,7.90000009536743,2012-03-01 20:05:09
0.945000171661377,42.49629359,-71.01607277,7.09999990463257,2012-03-01 20:05:10
1.04399991035461,42.49610217,-71.01609771,6,2012-03-01 20:05:11
0.950999975204468,42.49590847,-71.01614171,5.40000009536743,2012-03-01 20:05:12
1.00200009346008,42.49574079,-71.01617202,5.09999990463257,2012-03-01 20:05:13
1.01699995994568,42.49555361,-71.01616101,3.70000004768372,2012-03-01 20:05:14
0.983000040054321,42.49535254,-71.01619065,4,2012-03-01 20:05:15
1.00399994850159,42.49518147,-71.01621053,4.80000019073486,2012-03-01 20:05:16
1.00099992752075,42.49499962,-71.01624602,4.09999990463257,2012-03-01 20:05:17
1.00300002098083,42.49483507,-71.01626431,4,2012-03-01 20:05:18
0.990000009536743,42.49466853,-71.01626744,2.90000009536743,2012-03-01 20:05:19
0.998000144958496,42.49452394,-71.01630005,2.79999995231628,2012-03-01 20:05:20
1.33899998664856,42.49435298,-71.01633354,3.29999995231628,2012-03-01 20:05:21
0.667999982833862,42.49419871,-71.01633423,3,2012-03-01 20:05:22
0.993000030517578,42.4940417,-71.01636713,2.79999995231628,2012-03-01 20:05:23
1.10999989509583,42.49391631,-71.01638224,3.09999990463257,2012-03-01 20:05:24
0.898999929428101,42.49378067,-71.01640267,2.20000004768372,2012-03-01 20:05:25
0.990000009536743,42.49364224,-71.01643076,1.5,2012-03-01 20:05:26
1.00800013542175,42.49349254,-71.01644412,2,2012-03-01 20:05:27
1.02999997138977,42.49336213,-71.01645161,1.89999997615814,2012-03-01 20:05:28
0.965999841690063,42.49321721,-71.01647983,2.20000004768372,2012-03-01 20:05:29
1.00400018692017,42.4930687,-71.01649692,2.59999990463257,2012-03-01 20:05:30
0.997999906539917,42.49293063,-71.01650497,4,2012-03-01 20:05:31
1.24600005149841,42.49279918,-71.0165329,3.79999995231628,2012-03-01 20:05:32
0.773000001907349,42.49266202,-71.01654812,4.69999980926514,2012-03-01 20:05:33
0.973999977111816,42.49253092,-71.01656078,5.5,2012-03-01 20:05:34
1.05599999427795,42.49240577,-71.01657334,4.90000009536743,2012-03-01 20:05:35
0.944000005722046,42.49228898,-71.01660147,5.5,2012-03-01 20:05:36
1.00799989700317,42.49216147,-71.01661681,5.5,2012-03-01 20:05:37
1.11600017547607,42.49204187,-71.01662834,5.80000019073486,2012-03-01 20:05:38
0.885999917984009,42.49192624,-71.01664231,5.90000009536743,2012-03-01 20:05:39
0.986999988555908,42.49180913,-71.01665104,5.90000009536743,2012-03-01 20:05:40
1.00399994850159,42.49168264,-71.01663405,5.5,2012-03-01 20:05:41
1.00999999046326,42.49155485,-71.01664805,5.40000009536743,2012-03-01 20:05:42
1.0090000629425,42.49143752,-71.01666329,5.69999980926514,2012-03-01 20:05:43
0.983000040054321,42.49129804,-71.01666021,5.09999990463257,2012-03-01 20:05:44
1.00699996948242,42.49116299,-71.01665176,5.19999980926514,2012-03-01 20:05:45
0.990000009536743,42.49104525,-71.01666055,4.30000019073486,2012-03-01 20:05:46
1.00999999046326,42.49092663,-71.01667756,4,2012-03-01 20:05:47
1.01699995994568,42.49078808,-71.01669279,2.90000009536743,2012-03-01 20:05:48
1.23099994659424,42.49063539,-71.0167029,1.89999997615814,2012-03-01 20:05:49
0.751000165939331,42.4904917,-71.01671415,1.20000004768372,2012-03-01 20:05:50
1.02099990844727,42.49035336,-71.01672939,1.10000002384186,2012-03-01 20:05:51
0.974999904632568,42.49021117,-71.01675769,0.899999976158142,2012-03-01 20:05:52
1.00400018692017,42.49006475,-71.01681523,0.100000001490116,2012-03-01 20:05:53
1.00799989700317,42.48991849,-71.01687444,-0.600000023841858,2012-03-01 20:05:54
0.983999967575073,42.48978171,-71.01691385,-0.699999988079071,2012-03-01 20:05:55
1.00200009346008,42.48963937,-71.01695528,-0.699999988079071,2012-03-01 20:05:56
1.03600001335144,42.48950049,-71.01700454,-0.800000011920929,2012-03-01 20:05:57
0.963000059127808,42.48936074,-71.01707082,-1,2012-03-01 20:05:58
1.00899982452393,42.48923484,-71.01712119,-1.10000002384186,2012-03-01 20:05:59
1.03500008583069,42.48910944,-71.01719792,-0.600000023841858,2012-03-01 20:06:00
0.957000017166138,42.48896571,-71.01725066,-0.5,2012-03-01 20:06:01
1.00600004196167,42.48885639,-71.01732224,-0.699999988079071,2012-03-01 20:06:02
1.17999982833862,42.48873589,-71.01738235,-0.899999976158142,2012-03-01 20:06:03
0.817000150680542,42.48860559,-71.01742052,-1.39999997615814,2012-03-01 20:06:04
1.02499985694885,42.48846274,-71.01747016,-1.5,2012-03-01 20:06:05
0.995000123977661,42.48831083,-71.01751722,-1.60000002384186,2012-03-01 20:06:06
0.974999904632568,42.48818749,-71.01758502,-1.5,2012-03-01 20:06:07
1.01600003242493,42.48807779,-71.01765548,-1.79999995231628,2012-03-01 20:06:08
0.983999967575073,42.4879838,-71.01769399,-1.89999997615814,2012-03-01 20:06:09
1.00600004196167,42.48785947,-71.0177522,-1.89999997615814,2012-03-01 20:06:10
0.990000009536743,42.48774973,-71.0178065,-1.70000004768372,2012-03-01 20:06:11
1.10899996757507,42.4876303,-71.01785821,-1.79999995231628,2012-03-01 20:06:12
0.910000085830688,42.48751378,-71.01791366,-1.79999995231628,2012-03-01 20:06:13
0.98199987411499,42.48740624,-71.01797654,-2.20000004768372,2012-03-01 20:06:14
1.00200009346008,42.48730811,-71.01804533,-2.20000004768372,2012-03-01 20:06:15
1.01900005340576,42.48717798,-71.01805672,-1.5,2012-03-01 20:06:16
0.984999895095825,42.48711071,-71.01808893,-1.60000002384186,2012-03-01 20:06:17
0.996999979019165,42.48706978,-71.01817726,-0.800000011920929,2012-03-01 20:06:18
1.03900003433228,42.4870357,-71.01822427,-0.800000011920929,2012-03-01 20:06:19
0.918999910354614,42.48696431,-71.01826893,-1,2012-03-01 20:06:20
0.991000175476074,42.48696097,-71.01833334,-0.899999976158142,2012-03-01 20:06:21
1.00899982452393,42.4869185,-71.01839543,-0.899999976158142,2012-03-01 20:06:22
0.999000072479248,42.48689262,-71.01847018,-1,2012-03-01 20:06:23
1.00200009346008,42.48690503,-71.01849608,-1.20000004768372,2012-03-01 20:06:24
0.990000009536743,42.48693056,-71.01847577,-1.29999995231628,2012-03-01 20:06:25
1.00799989700317,42.48692034,-71.01851668,-2,2012-03-01 20:06:26
1.9909999370575,42.48690446,-71.01853345,-2.40000009536743,2012-03-01 20:06:28
1,42.48689092,-71.01853659,-2.5,2012-03-01 20:06:29
1.29900002479553,42.4868986,-71.01845463,-3.40000009536743,2012-03-01 20:06:30
0.81000018119812,42.48688532,-71.01844552,-3.70000004768372,2012-03-01 20:06:31
0.909999847412109,42.4868879,-71.01841012,-3.79999995231628,2012-03-01 20:06:32
0.988000154495239,42.48685485,-71.01841293,-3.40000009536743,2012-03-01 20:06:33
1,42.48682194,-71.01843514,-3.40000009536743,2012-03-01 20:06:34
0.995999813079834,42.48681603,-71.01845772,-3.20000004768372,2012-03-01 20:06:35
1.00999999046326,42.4868122,-71.01847736,-3.29999995231628,2012-03-01 20:06:36
0.988000154495239,42.48680641,-71.01850425,-2.70000004768372,2012-03-01 20:06:37
1.02600002288818,42.48680427,-71.01853711,-2,2012-03-01 20:06:38
0.978999853134155,42.48680581,-71.0185575,-1.89999997615814,2012-03-01 20:06:39
1,42.48681955,-71.01857729,-1.70000004768372,2012-03-01 20:06:40
1.14300012588501,42.48682013,-71.01859036,-1.60000002384186,2012-03-01 20:06:41
0.855000019073486,42.48680255,-71.01860503,-1.70000004768372,2012-03-01 20:06:42
1.02799987792969,42.48681099,-71.01862355,-1.5,2012-03-01 20:06:43
0.98799991607666,42.4868367,-71.01859099,-1.60000002384186,2012-03-01 20:06:44
0.986000061035156,42.48684462,-71.01858689,-1.70000004768372,2012-03-01 20:06:45
1.12199997901917,42.48681833,-71.01862209,-1.89999997615814,2012-03-01 20:06:46
0.878000020980835,42.48683418,-71.01857817,-1.89999997615814,2012-03-01 20:06:47
1.00500011444092,42.48682747,-71.0185963,-2.09999990463257,2012-03-01 20:06:48
0.993000030517578,42.48682001,-71.0185967,-2.29999995231628,2012-03-01 20:06:49
1.00899982452393,42.48681733,-71.01859894,-2.29999995231628,2012-03-01 20:06:50
1.05299997329712,42.48680684,-71.01861543,-2.29999995231628,2012-03-01 20:06:51
0.945000171661377,42.48680749,-71.01860478,-2.29999995231628,2012-03-01 20:06:52
1.00600004196167,42.48681018,-71.01859652,-2.79999995231628,2012-03-01 20:06:53
1.01300001144409,42.4868026,-71.01859497,-2.70000004768372,2012-03-01 20:06:54
0.972999811172485,42.48680657,-71.01861711,-2.70000004768372,2012-03-01 20:06:55
0.996000051498413,42.48681004,-71.01861083,-2.79999995231628,2012-03-01 20:06:56
1.22099995613098,42.4868034,-71.01862206,-2.79999995231628,2012-03-01 20:06:57
0.788000106811523,42.48680425,-71.0186179,-2.90000009536743,2012-03-01 20:06:58
1.01199984550476,42.48680245,-71.01861656,-2.90000009536743,2012-03-01 20:06:59
1.06500005722046,42.48680574,-71.01861381,-3,2012-03-01 20:07:00
0.92300009727478,42.48679649,-71.01863081,-3,2012-03-01 20:07:01
1.02099990844727,42.48679883,-71.01864432,-3.40000009536743,2012-03-01 20:07:02
0.978000164031982,42.48681837,-71.01865173,-3.40000009536743,2012-03-01 20:07:03
0.995999813079834,42.48679764,-71.01863403,-3.40000009536743,2012-03-01 20:07:04
1.23600006103516,42.48689155,-71.0185725,-1.89999997615814,2012-03-01 20:07:05
0.763000011444092,42.48684637,-71.01856815,-2,2012-03-01 20:07:06
1.00300002098083,42.48681868,-71.01856213,-2,2012-03-01 20:07:07
1.01200008392334,42.48681446,-71.0185488,-2.09999990463257,2012-03-01 20:07:08
1.00599980354309,42.48679691,-71.01856554,-2.29999995231628,2012-03-01 20:07:09
1.14499998092651,42.48680229,-71.0185865,-2.09999990463257,2012-03-01 20:07:10
0.877000093460083,42.48679856,-71.01860586,-2.09999990463257,2012-03-01 20:07:11
0.982000112533569,42.48678523,-71.01861515,-2.5,2012-03-01 20:07:12
0.98199987411499,42.48678257,-71.01860135,-2.09999990463257,2012-03-01 20:07:13
1,42.48677299,-71.01855822,-4.09999990463257,2012-03-01 20:07:14
0.990000009536743,42.48675153,-71.01849143,-0.100000001490116,2012-03-01 20:07:15
1.2020001411438,42.48674654,-71.01848959,-0.100000001490116,2012-03-01 20:07:16
0.803999900817871,42.48675013,-71.01852746,-3.40000009536743,2012-03-01 20:07:17
0.993000030517578,42.48677656,-71.01856609,-3.29999995231628,2012-03-01 20:07:18
1.01199984550476,42.48676967,-71.01856783,-5.19999980926514,2012-03-01 20:07:19
1.02500009536743,42.48676993,-71.01857064,-5.19999980926514,2012-03-01 20:07:20
0.996000051498413,42.48677085,-71.01856626,-6.5,2012-03-01 20:07:21
0.970999956130981,42.48677079,-71.01856624,-6.5,2012-03-01 20:07:22
1.04800009727478,42.48678757,-71.01856606,-7.69999980926514,2012-03-01 20:07:23
0.977999925613403,42.48679854,-71.01856047,-7.80000019073486,2012-03-01 20:07:24
0.980000019073486,42.48682048,-71.01855455,-8.5,2012-03-01 20:07:25
1.00799989700317,42.48683011,-71.01855597,-8.80000019073486,2012-03-01 20:07:26
0.986000061035156,42.48685407,-71.01856595,-9.69999980926514,2012-03-01 20:07:27
1.01600003242493,42.48684822,-71.01854893,-9,2012-03-01 20:07:28
0.986000061035156,42.4868762,-71.01854466,-8,2012-03-01 20:07:29
1.00499987602234,42.48690201,-71.01853354,-8.39999961853027,2012-03-01 20:07:30
0.99399995803833,42.48691852,-71.0185399,-8.60000038146973,2012-03-01 20:07:31
1.01100015640259,42.48692272,-71.01853363,-8.5,2012-03-01 20:07:32
0.988999843597412,42.48693012,-71.01854298,-8.69999980926514,2012-03-01 20:07:33
1.0220000743866,42.48692967,-71.01854386,-8.80000019073486,2012-03-01 20:07:34
1.30100011825562,42.48692883,-71.01854524,-8.69999980926514,2012-03-01 20:07:35
0.680999994277954,42.48693612,-71.01854956,-8.69999980926514,2012-03-01 20:07:36
1.00399994850159,42.48693838,-71.01855171,-8.69999980926514,2012-03-01 20:07:37
1.08200001716614,42.48694227,-71.01855859,-8.69999980926514,2012-03-01 20:07:38
0.919999837875366,42.48694408,-71.01856773,-8.69999980926514,2012-03-01 20:07:39
1.00999999046326,42.48694728,-71.01857761,-8.80000019073486,2012-03-01 20:07:40
0.986999988555908,42.48694926,-71.01859812,-8.80000019073486,2012-03-01 20:07:41
1.01700019836426,42.48695108,-71.01860363,-8.80000019073486,2012-03-01 20:07:42
0.980000019073486,42.48695043,-71.01864925,-7.90000009536743,2012-03-01 20:07:43
1.00499987602234,42.48695697,-71.01868818,-6.90000009536743,2012-03-01 20:07:44
0.993000030517578,42.48696696,-71.01870618,-7,2012-03-01 20:07:45
1.00499987602234,42.48696542,-71.01868862,-7.19999980926514,2012-03-01 20:07:46
0.992000102996826,42.48696003,-71.01869853,-7,2012-03-01 20:07:47
1.01099991798401,42.48695245,-71.01868605,-7,2012-03-01 20:07:48
1.00999999046326,42.48694996,-71.01868631,-7,2012-03-01 20:07:49
1.00300002098083,42.48695106,-71.01868218,-7.5,2012-03-01 20:07:50
1.20300006866455,42.48693217,-71.01865959,-8.60000038146973,2012-03-01 20:07:51
0.780999898910522,42.48692789,-71.01866327,-8.69999980926514,2012-03-01 20:07:52
1.01800012588501,42.48693917,-71.01867861,-8.89999961853027,2012-03-01 20:07:53
1.08800005912781,42.48692789,-71.018667,-9.19999980926514,2012-03-01 20:07:54
0.896999835968018,42.48692215,-71.01865644,-9.39999961853027,2012-03-01 20:07:55
0.656000137329102,42.48692718,-71.01865661,-9.39999961853027,2012-03-01 20:07:55
0.990000009536743,42.48691753,-71.01863253,-9.89999961853027,2012-03-01 20:07:56
1.02699995040894,42.48691804,-71.01863175,-10.1000003814697,2012-03-01 20:07:57
0.973000049591064,42.48692089,-71.01863819,-10.1000003814697,2012-03-01 20:07:58
0.988999843597412,42.48692067,-71.01862644,-11.1000003814697,2012-03-01 20:07:59
1.02800011634827,42.48692714,-71.01862875,-11.3999996185303,2012-03-01 20:08:00
0.979000091552734,42.48692971,-71.01861049,-11.3999996185303,2012-03-01 20:08:01
1.00399994850159,42.48692816,-71.01861285,-11.3999996185303,2012-03-01 20:08:02
1.01699995994568,42.4869283,-71.01862163,-11,2012-03-01 20:08:03
1.07999992370605,42.48692984,-71.01862259,-11,2012-03-01 20:08:05
0.916000127792358,42.48693096,-71.01863221,-11.1000003814697,2012-03-01 20:08:05
0.983000040054321,42.48694339,-71.01862794,-11,2012-03-01 20:08:06
0.995999813079834,42.4869444,-71.01864835,-11.1999998092651,2012-03-01 20:08:07
1.01999998092651,42.48694905,-71.01864282,-11.6999998092651,2012-03-01 20:08:08
0.984000205993652,42.4869523,-71.01864466,-11.6999998092651,2012-03-01 20:08:09
0.99399995803833,42.48694278,-71.01865278,-11.6999998092651,2012-03-01 20:08:10
1.02600002288818,42.4869393,-71.01865624,-11.5,2012-03-01 20:08:11
0.978999853134155,42.48694081,-71.01865801,-11.5,2012-03-01 20:08:12
1,42.48692789,-71.01867743,-10.8999996185303,2012-03-01 20:08:13
1.28699994087219,42.48695126,-71.01864974,-10.1999998092651,2012-03-01 20:08:15
0.813000202178955,42.48692828,-71.0186417,-10,2012-03-01 20:08:16
0.912999868392944,42.4869214,-71.0186614,-9.89999961853027,2012-03-01 20:08:16
0.990000009536743,42.48688721,-71.0186777,-9.80000019073486,2012-03-01 20:08:17
1.0090000629425,42.48687735,-71.01867119,-9.69999980926514,2012-03-01 20:08:18
1.0019998550415,42.4868865,-71.0186699,-9.69999980926514,2012-03-01 20:08:19
0.987000226974487,42.48692531,-71.01866165,-9.39999961853027,2012-03-01 20:08:20
1.00499987602234,42.48690908,-71.01865401,-9.60000038146973,2012-03-01 20:08:21
1.02099990844727,42.48689481,-71.01866415,-9.5,2012-03-01 20:08:22
0.970000028610229,42.48689572,-71.01866747,-9.19999980926514,2012-03-01 20:08:23
1.00400018692017,42.48690814,-71.01868011,-8.89999961853027,2012-03-01 20:08:24
0.996999979019165,42.48689423,-71.01869968,-9,2012-03-01 20:08:25
1.00300002098083,42.48689377,-71.01870144,-8.89999961853027,2012-03-01 20:08:26
1.01999998092651,42.48691352,-71.01871848,-8.80000019073486,2012-03-01 20:08:27
0.980000019073486,42.48691484,-71.01872066,-8.5,2012-03-01 20:08:28
0.998999834060669,42.48692046,-71.01872798,-8.10000038146973,2012-03-01 20:08:29
1.01600003242493,42.48692073,-71.0187321,-8.30000019073486,2012-03-01 20:08:30
0.980000019073486,42.48692809,-71.01874011,-8.39999961853027,2012-03-01 20:08:31
1.00699996948242,42.48693078,-71.0187452,-8.30000019073486,2012-03-01 20:08:32
1.01699995994568,42.48693962,-71.01873879,-8.39999961853027,2012-03-01 20:08:33
0.979000091552734,42.48697445,-71.01872404,-8.19999980926514,2012-03-01 20:08:34
0.996999979019165,42.48703332,-71.01874342,-8,2012-03-01 20:08:35
0.999000072479248,42.4869178,-71.01880848,-7,2012-03-01 20:08:36
1.01099991798401,42.48701357,-71.01875944,-4.40000009536743,2012-03-01 20:08:37
1.02300000190735,42.48701547,-71.01876576,-4.5,2012-03-01 20:08:38
1.09899997711182,42.48699856,-71.0187543,-4.90000009536743,2012-03-01 20:08:40
0.868000030517578,42.48700122,-71.01875976,-4.90000009536743,2012-03-01 20:08:40
1,42.48700227,-71.01875378,-4.90000009536743,2012-03-01 20:08:41
1.00699996948242,42.48701217,-71.01876293,-4.80000019073486,2012-03-01 20:08:42
0.990999937057495,42.48702803,-71.01876109,-5.09999990463257,2012-03-01 20:08:43
1.29100012779236,42.48703959,-71.01880598,-5.80000019073486,2012-03-01 20:08:45
0.769999980926514,42.48704089,-71.01881277,-5.80000019073486,2012-03-01 20:08:45
0.976000070571899,42.48706901,-71.01881422,-6.90000009536743,2012-03-01 20:08:46
0.970999956130981,42.48707149,-71.0188194,-6.90000009536743,2012-03-01 20:08:47
1.00099992752075,42.48708552,-71.01883283,-6.80000019073486,2012-03-01 20:08:48
1.01099991798401,42.48706192,-71.01881144,-6.80000019073486,2012-03-01 20:08:49
0.982000112533569,42.48706148,-71.01880993,-6.80000019073486,2012-03-01 20:08:50
1.00500011444092,42.48707518,-71.01882206,-6.80000019073486,2012-03-01 20:08:51
1.02099990844727,42.48708267,-71.01882668,-6.80000019073486,2012-03-01 20:08:52
0.977999925613403,42.48707309,-71.01880981,-7.09999990463257,2012-03-01 20:08:53
1.00399994850159,42.48706435,-71.01880901,-7.09999990463257,2012-03-01 20:08:54
1.40400004386902,42.48706516,-71.0187978,-7.09999990463257,2012-03-01 20:08:56
0.594000101089478,42.4870521,-71.01877239,-7.09999990463257,2012-03-01 20:08:56
1.00600004196167,42.487053,-71.01877481,-7.30000019073486,2012-03-01 20:08:57
1.01300001144409,42.48705082,-71.01879403,-6.90000009536743,2012-03-01 20:08:58
1.02300000190735,42.48702522,-71.01876096,-6.59999990463257,2012-03-01 20:08:59
0.970999956130981,42.48701351,-71.018751,-6.30000019073486,2012-03-01 20:09:00
0.986000061035156,42.48701317,-71.01872538,-6.5,2012-03-01 20:09:01
1.00499987602234,42.4869929,-71.01870205,-6.59999990463257,2012-03-01 20:09:02
0.992000102996826,42.48698027,-71.0186757,-6.5,2012-03-01 20:09:03
1.01999998092651,42.48697546,-71.01867862,-6.40000009536743,2012-03-01 20:09:04
0.980000019073486,42.48696416,-71.01867664,-6,2012-03-01 20:09:05
1.04299998283386,42.48694502,-71.01868215,-6,2012-03-01 20:09:06
1.07299995422363,42.48693997,-71.0186751,-6.09999990463257,2012-03-01 20:09:08
0.891000032424927,42.48694726,-71.01867819,-6.69999980926514,2012-03-01 20:09:08
0.993000030517578,42.48695754,-71.01867848,-7.09999990463257,2012-03-01 20:09:09
1.00300002098083,42.48695455,-71.01867623,-7.09999990463257,2012-03-01 20:09:10
1.01299977302551,42.48695728,-71.01867087,-7.19999980926514,2012-03-01 20:09:11
0.986000061035156,42.48696292,-71.01868653,-7.19999980926514,2012-03-01 20:09:12
1.01300001144409,42.48694225,-71.01876262,-7.09999990463257,2012-03-01 20:09:13
0.982000112533569,42.48696211,-71.01872299,-6.80000019073486,2012-03-01 20:09:14
1.02499985694885,42.48695664,-71.01872866,-6.80000019073486,2012-03-01 20:09:15
0.981000185012817,42.48696155,-71.01872981,-6.69999980926514,2012-03-01 20:09:16
1,42.48695194,-71.01874107,-6.40000009536743,2012-03-01 20:09:17
0.994999885559082,42.48697438,-71.0186905,-6.30000019073486,2012-03-01 20:09:18
1.01799988746643,42.48697946,-71.01867366,-6.30000019073486,2012-03-01 20:09:19
0.987000226974487,42.48698115,-71.01867576,-6.40000009536743,2012-03-01 20:09:20
1.00299978256226,42.48699313,-71.01867634,-6.30000019073486,2012-03-01 20:09:21
1.01700019836426,42.48698897,-71.01870051,-6.09999990463257,2012-03-01 20:09:22
0.978999853134155,42.48698392,-71.01869728,-6.59999990463257,2012-03-01 20:09:23
0.999000072479248,42.48699247,-71.01867291,-5.59999990463257,2012-03-01 20:09:24
1.35699987411499,42.48700402,-71.01867101,-5.40000009536743,2012-03-01 20:09:26
0.640000104904175,42.48700714,-71.01863525,-5.5,2012-03-01 20:09:26
0.921000003814697,42.48701287,-71.01860769,-5.5,2012-03-01 20:09:27
0.990999937057495,42.48702583,-71.01861502,-5.59999990463257,2012-03-01 20:09:28
1.07200002670288,42.48703277,-71.01861087,-5.80000019073486,2012-03-01 20:09:29
0.926000118255615,42.4869985,-71.01859823,-5.5,2012-03-01 20:09:30
1.00899982452393,42.48699554,-71.01859669,-5.40000009536743,2012-03-01 20:09:31
0.991000175476074,42.48699417,-71.01859359,-5.40000009536743,2012-03-01 20:09:32
1.02600002288818,42.48699473,-71.01858796,-5.69999980926514,2012-03-01 20:09:33
1.18299984931946,42.48699353,-71.01858461,-5.69999980926514,2012-03-01 20:09:35
0.795000076293945,42.48699783,-71.01857377,-6.5,2012-03-01 20:09:35
1.02099990844727,42.4869917,-71.018577,-6.09999990463257,2012-03-01 20:09:36
0.979000091552734,42.48698768,-71.01859025,-6,2012-03-01 20:09:37
1.00099992752075,42.4869824,-71.01866485,-6,2012-03-01 20:09:38
0.996000051498413,42.4869782,-71.01867824,-6.09999990463257,2012-03-01 20:09:39
1.0460000038147,42.48697326,-71.01870044,-6,2012-03-01 20:09:40
1.00499987602234,42.48697414,-71.01871136,-6.09999990463257,2012-03-01 20:09:41
0.953000068664551,42.48697099,-71.01872079,-6.19999980926514,2012-03-01 20:09:42
1.01600003242493,42.48696875,-71.01872977,-6.19999980926514,2012-03-01 20:09:43
0.983999967575073,42.48696657,-71.01873797,-6.30000019073486,2012-03-01 20:09:44
0.998000144958496,42.48697516,-71.01875474,-6.40000009536743,2012-03-01 20:09:45
1.19899988174438,42.48696854,-71.01876923,-6,2012-03-01 20:09:47
0.814000129699707,42.4869638,-71.01877813,-6.09999990463257,2012-03-01 20:09:47
1.03399991989136,42.48693955,-71.01877461,-5.90000009536743,2012-03-01 20:09:48
0.955999851226807,42.48693852,-71.01876912,-6.09999990463257,2012-03-01 20:09:49
0.997000217437744,42.4869921,-71.01873622,-6,2012-03-01 20:09:50
1.00899982452393,42.48699148,-71.01874156,-6.09999990463257,2012-03-01 20:09:51
0.992000102996826,42.48700323,-71.0186939,-5.40000009536743,2012-03-01 20:09:52
1.00799989700317,42.48700421,-71.01870081,-5.59999990463257,2012-03-01 20:09:53
0.990000009536743,42.4870102,-71.01865984,-5.59999990463257,2012-03-01 20:09:54
1.01400017738342,42.48701101,-71.01866454,-5.59999990463257,2012-03-01 20:09:55
1.02899980545044,42.48701198,-71.018669,-5.19999980926514,2012-03-01 20:09:56
1.07800006866455,42.48703248,-71.01865865,-5.30000019073486,2012-03-01 20:09:57
0.895999908447266,42.48703751,-71.0186643,-5,2012-03-01 20:09:58
1.05599999427795,42.48699774,-71.01866138,-5.40000009536743,2012-03-01 20:09:59
0.930000066757202,42.48699954,-71.01866187,-5.40000009536743,2012-03-01 20:10:00
0.996999979019165,42.48699213,-71.01870265,-5.30000019073486,2012-03-01 20:10:01
0.996999979019165,42.48700921,-71.01868728,-5.30000019073486,2012-03-01 20:10:02
1.01600003242493,42.48701584,-71.01869755,-4.59999990463257,2012-03-01 20:10:03
0.986000061035156,42.48699773,-71.01871395,-4.59999990463257,2012-03-01 20:10:04
1.10699987411499,42.48699143,-71.01870581,-4.90000009536743,2012-03-01 20:10:05
0.909000158309937,42.48698996,-71.01870695,-4.90000009536743,2012-03-01 20:10:06
0.986999988555908,42.48699333,-71.01870549,-4.59999990463257,2012-03-01 20:10:07
1.01200008392334,42.48699204,-71.01870698,-4.59999990463257,2012-03-01 20:10:08
1.2759997844696,42.4869996,-71.01872429,-4.80000019073486,2012-03-01 20:10:10
0.717000007629395,42.48699507,-71.01871744,-5.09999990463257,2012-03-01 20:10:10
1.00200009346008,42.48696536,-71.01870127,-5.69999980926514,2012-03-01 20:10:11
1.00999999046326,42.48689724,-71.01867519,-5.59999990463257,2012-03-01 20:10:12
1.04999995231628,42.48688655,-71.01865957,-5.80000019073486,2012-03-01 20:10:13
0.95799994468689,42.4868814,-71.01867687,-5.59999990463257,2012-03-01 20:10:14
1.19900012016296,42.48686572,-71.01868625,-5.40000009536743,2012-03-01 20:10:16
0.779999971389771,42.48685798,-71.01868081,-5.40000009536743,2012-03-01 20:10:16
1.03600001335144,42.48685952,-71.01865601,-4.80000019073486,2012-03-01 20:10:17
0.964999914169312,42.48690647,-71.01864922,-6.59999990463257,2012-03-01 20:10:18
1.00400018692017,42.48691309,-71.01865964,-6.5,2012-03-01 20:10:19
1.01799988746643,42.48691242,-71.01867426,-6.5,2012-03-01 20:10:20
1.00999999046326,42.48691318,-71.01867418,-6.5,2012-03-01 20:10:21
0.967999935150146,42.48691393,-71.01867411,-6.5,2012-03-01 20:10:22
0.996999979019165,42.48690992,-71.01867308,-6.40000009536743,2012-03-01 20:10:23
1.23800015449524,42.48693058,-71.01865085,-7.19999980926514,2012-03-01 20:10:25
0.767999887466431,42.48693097,-71.0186489,-7.19999980926514,2012-03-01 20:10:25
0.991000175476074,42.48693588,-71.01866508,-7.09999990463257,2012-03-01 20:10:26
1.08199977874756,42.48701346,-71.01867528,-7.80000019073486,2012-03-01 20:10:27
0.932000160217285,42.48705538,-71.01867744,-6.69999980926514,2012-03-01 20:10:28
0.988999843597412,42.48700408,-71.01865857,-7,2012-03-01 20:10:29
1.00300002098083,42.48701423,-71.01861365,-7.5,2012-03-01 20:10:30
1.00100016593933,42.48700587,-71.01860852,-7.09999990463257,2012-03-01 20:10:31
1.00799989700317,42.48701835,-71.01860883,-6.40000009536743,2012-03-01 20:10:32
1,42.48699217,-71.01861141,-5.90000009536743,2012-03-01 20:10:33
1.23300004005432,42.48700003,-71.01860691,-5.80000019073486,2012-03-01 20:10:35
0.760999917984009,42.48700161,-71.01859923,-5.40000009536743,2012-03-01 20:10:35
1.03299999237061,42.48700934,-71.01857966,-5.40000009536743,2012-03-01 20:10:36
1.09700012207031,42.486994,-71.0185683,-5.30000019073486,2012-03-01 20:10:37
0.861000061035156,42.48699758,-71.01858084,-5.19999980926514,2012-03-01 20:10:38
1.00899982452393,42.48698705,-71.01857709,-4.90000009536743,2012-03-01 20:10:39
0.995000123977661,42.48698087,-71.01859598,-4.90000009536743,2012-03-01 20:10:40
1.01399993896484,42.4869864,-71.01858703,-5.69999980926514,2012-03-01 20:10:41
0.980999946594238,42.48695597,-71.01856719,-5.80000019073486,2012-03-01 20:10:42
1.16400003433228,42.48695486,-71.01859284,-4.80000019073486,2012-03-01 20:10:44
0.845999956130981,42.4869595,-71.01858717,-5.30000019073486,2012-03-01 20:10:44
1.00699996948242,42.48696213,-71.01861352,-5.80000019073486,2012-03-01 20:10:45
0.997000217437744,42.48696126,-71.01860591,-5.69999980926514,2012-03-01 20:10:46
1.01899981498718,42.48696197,-71.01860021,-5.80000019073486,2012-03-01 20:10:47
0.970999956130981,42.48696472,-71.01859129,-5.80000019073486,2012-03-01 20:10:48
1.0090000629425,42.48697761,-71.0185717,-5.80000019073486,2012-03-01 20:10:49
0.986000061035156,42.48698019,-71.01858015,-6,2012-03-01 20:10:50
1.01900005340576,42.48697253,-71.0185724,-5.90000009536743,2012-03-01 20:10:51
0.990999937057495,42.48697201,-71.01857905,-5.80000019073486,2012-03-01 20:10:52
1.13899993896484,42.48695985,-71.01858896,-6,2012-03-01 20:10:53
0.865000009536743,42.48695999,-71.01859314,-6.19999980926514,2012-03-01 20:10:54
1.00600004196167,42.48696101,-71.0186171,-6.19999980926514,2012-03-01 20:10:55
0.996000051498413,42.48696796,-71.01863051,-6.5,2012-03-01 20:10:56
0.984999895095825,42.48695042,-71.01862475,-6.59999990463257,2012-03-01 20:10:57
1.01699995994568,42.48694601,-71.01861729,-6.90000009536743,2012-03-01 20:10:58
1.04299998283386,42.48694468,-71.01862103,-6.90000009536743,2012-03-01 20:10:59
0.942000150680542,42.48694135,-71.01859655,-6.90000009536743,2012-03-01 20:11:00
0.996999979019165,42.48693908,-71.01859492,-6.90000009536743,2012-03-01 20:11:01
1.21099996566772,42.48693846,-71.01859639,-6.90000009536743,2012-03-01 20:11:03
0.796999931335449,42.48693328,-71.01858976,-6.90000009536743,2012-03-01 20:11:03
0.993000030517578,42.48692581,-71.01857644,-6.80000019073486,2012-03-01 20:11:04
1.05800008773804,42.48692203,-71.01857167,-6.80000019073486,2012-03-01 20:11:05
0.940000057220459,42.48691391,-71.01856119,-6.80000019073486,2012-03-01 20:11:06
1.01099991798401,42.48691178,-71.01855742,-6.80000019073486,2012-03-01 20:11:07
0.990000009536743,42.4869074,-71.01857987,-7,2012-03-01 20:11:08
1.01900005340576,42.48690505,-71.01860158,-7,2012-03-01 20:11:09
1.05299997329712,42.48692376,-71.01860512,-7.5,2012-03-01 20:11:10
0.983000040054321,42.48693092,-71.01860329,-7.59999990463257,2012-03-01 20:11:11
0.954999923706055,42.48692883,-71.01862307,-7.59999990463257,2012-03-01 20:11:12
1.00699996948242,42.48691222,-71.01863522,-7.5,2012-03-01 20:11:13
0.995000123977661,42.48691281,-71.01865778,-7.5,2012-03-01 20:11:14
0.99399995803833,42.48691324,-71.01866565,-7.5,2012-03-01 20:11:15
1.09200000762939,42.48690458,-71.01866402,-7.40000009536743,2012-03-01 20:11:16
0.911999940872192,42.48689263,-71.01866183,-7.40000009536743,2012-03-01 20:11:17
0.993000030517578,42.48686545,-71.0186901,-7.19999980926514,2012-03-01 20:11:18
1.0019998550415,42.48687122,-71.01867977,-7.5,2012-03-01 20:11:19
1.35700011253357,42.48687223,-71.01868338,-7.5,2012-03-01 20:11:21
0.997999906539917,42.48685628,-71.01868582,-7.19999980926514,2012-03-01 20:11:22
1.01100015640259,42.48688157,-71.01867623,-7.09999990463257,2012-03-01 20:11:23
0.988999843597412,42.48713677,-71.01861876,-6.69999980926514,2012-03-01 20:11:24
1.00400018692017,42.48714729,-71.01861633,-6.69999980926514,2012-03-01 20:11:25
1.117999792099,42.48710776,-71.01861713,-6.80000019073486,2012-03-01 20:11:26
0.88100004196167,42.4871071,-71.01859184,-7,2012-03-01 20:11:27
0.998000144958496,42.48711487,-71.01858868,-7,2012-03-01 20:11:28
1.02099990844727,42.48712534,-71.01856944,-7.19999980926514,2012-03-01 20:11:29
1.12199997901917,42.4871285,-71.01857662,-7.09999990463257,2012-03-01 20:11:30
0.904000043869019,42.48713611,-71.01857378,-7.09999990463257,2012-03-01 20:11:31
0.961999893188477,42.48702173,-71.01862981,-6.30000019073486,2012-03-01 20:11:32
0.998000144958496,42.48702323,-71.01860763,-6.19999980926514,2012-03-01 20:11:33
1.00099992752075,42.48700713,-71.01858407,-6.30000019073486,2012-03-01 20:11:34
0.990999937057495,42.48700957,-71.01857574,-6.30000019073486,2012-03-01 20:11:35
1.01900005340576,42.48698133,-71.0185739,-6.09999990463257,2012-03-01 20:11:36
0.983000040054321,42.48687676,-71.01857265,-6.30000019073486,2012-03-01 20:11:37
0.996000051498413,42.48684103,-71.01857647,-6.19999980926514,2012-03-01 20:11:38
1.00999999046326,42.48683817,-71.01858305,-6.19999980926514,2012-03-01 20:11:39
1.00300002098083,42.48681434,-71.01858534,-6.09999990463257,2012-03-01 20:11:40
0.991999864578247,42.48680766,-71.01860029,-6.19999980926514,2012-03-01 20:11:41
1.25699996948242,42.48679877,-71.0186003,-6.19999980926514,2012-03-01 20:11:42
1.007000207901,42.48678736,-71.01858195,-6.19999980926514,2012-03-01 20:11:43
0.742999792098999,42.48677793,-71.0185989,-6,2012-03-01 20:11:44
0.993000030517578,42.48678016,-71.01860752,-6,2012-03-01 20:11:45
1.00699996948242,42.48677259,-71.01861565,-6,2012-03-01 20:11:46
1.007000207901,42.48680114,-71.01859965,-6.09999990463257,2012-03-01 20:11:47
0.983999967575073,42.4868124,-71.0185887,-6.09999990463257,2012-03-01 20:11:48
0.998999834060669,42.48679565,-71.01859638,-6,2012-03-01 20:11:49
1.29700016975403,42.4868058,-71.01858216,-6.09999990463257,2012-03-01 20:11:50
0.707000017166138,42.48680351,-71.01859064,-6.09999990463257,2012-03-01 20:11:51
1,42.48682141,-71.01862301,-6.09999990463257,2012-03-01 20:11:52
1.18299984931946,42.48680761,-71.01862058,-6.19999980926514,2012-03-01 20:11:53
0.858000040054321,42.48678698,-71.01863405,-6.09999990463257,2012-03-01 20:11:54
0.96399998664856,42.48679368,-71.01864185,-6.19999980926514,2012-03-01 20:11:55
0.99399995803833,42.48675976,-71.01865424,-6.19999980926514,2012-03-01 20:11:56
1.09899997711182,42.48675472,-71.01864695,-6.09999990463257,2012-03-01 20:11:57
0.907999992370605,42.48678202,-71.01866911,-5.90000009536743,2012-03-01 20:11:58
1.17200016975403,42.48685973,-71.01867092,-5,2012-03-01 20:11:59
0.888000011444092,42.48683237,-71.01869109,-6.69999980926514,2012-03-01 20:12:00
0.95799994468689,42.48684746,-71.01871631,-6.80000019073486,2012-03-01 20:12:01
0.973000049591064,42.48687337,-71.01870026,-6.5,2012-03-01 20:12:02
1.00499987602234,42.4868792,-71.0186996,-6.69999980926514,2012-03-01 20:12:03
1.02100014686584,42.4868807,-71.01868428,-7,2012-03-01 20:12:04
1.05299997329712,42.48688654,-71.01867095,-7,2012-03-01 20:12:05
0.938999891281128,42.48688886,-71.01866852,-7.40000009536743,2012-03-01 20:12:06
1.00800013542175,42.48689133,-71.01866108,-7.59999990463257,2012-03-01 20:12:07
1.08399987220764,42.48688175,-71.0186664,-7.19999980926514,2012-03-01 20:12:08
0.89300012588501,42.48688708,-71.01864888,-7.30000019073486,2012-03-01 20:12:09
0.99399995803833,42.48688409,-71.01864572,-7.5,2012-03-01 20:12:10
1.00099992752075,42.48688918,-71.01866681,-7.69999980926514,2012-03-01 20:12:11
1.02500009536743,42.4868936,-71.0187057,-8.19999980926514,2012-03-01 20:12:12
1.00899982452393,42.48687743,-71.01868934,-8.5,2012-03-01 20:12:13
0.972000122070312,42.48688247,-71.01869648,-8.89999961853027,2012-03-01 20:12:14
1.29099988937378,42.48690705,-71.0186785,-7.30000019073486,2012-03-01 20:12:15
0.83899998664856,42.48691359,-71.01869516,-7.30000019073486,2012-03-01 20:12:16
0.64900016784668,42.48694105,-71.0186751,-7.40000009536743,2012-03-01 20:12:16
1.02300000190735,42.48693592,-71.0186387,-7.59999990463257,2012-03-01 20:12:18
0.964999914169312,42.48698212,-71.01859205,-8,2012-03-01 20:12:18
1.02500009536743,42.48695678,-71.01855715,-8.10000038146973,2012-03-01 20:12:20
0.391999959945679,42.48693931,-71.01856693,-8.10000038146973,2012-03-01 20:12:20
1.01399993896484,42.48689295,-71.018496,-7.40000009536743,2012-03-01 20:12:21
0.990999937057495,42.48690283,-71.01846367,-7.5,2012-03-01 20:12:22
0.991000175476074,42.48693157,-71.01842223,-7.80000019073486,2012-03-01 20:12:23
1.00099992752075,42.4869275,-71.01839052,-7.19999980926514,2012-03-01 20:12:24
2.11500000953674,42.48694076,-71.01832324,-7.30000019073486,2012-03-01 20:12:26
0.901000022888184,42.48697388,-71.01827824,-7.19999980926514,2012-03-01 20:12:27
0.986000061035156,42.48700311,-71.01823134,-7.30000019073486,2012-03-01 20:12:28
1,42.48701155,-71.01828062,-7.30000019073486,2012-03-01 20:12:29
1.09899997711182,42.48704975,-71.01828408,-7.40000009536743,2012-03-01 20:12:30
1.05900001525879,42.48703816,-71.01836171,-4.90000009536743,2012-03-01 20:12:31
0.842000007629395,42.48703053,-71.0182931,-4.40000009536743,2012-03-01 20:12:32
1.03399991989136,42.48699971,-71.01830144,-3.09999990463257,2012-03-01 20:12:33
0.960000038146973,42.48701057,-71.01831196,-3.09999990463257,2012-03-01 20:12:34
1.0019998550415,42.48698639,-71.01844795,-4.09999990463257,2012-03-01 20:12:35
0.998000144958496,42.48687502,-71.01844634,-5.59999990463257,2012-03-01 20:12:36
1.18899989128113,42.48688475,-71.01844588,-5.69999980926514,2012-03-01 20:12:37
0.819999933242798,42.4868727,-71.01845475,-5.59999990463257,2012-03-01 20:12:38
0.991000175476074,42.48686977,-71.0184516,-5.69999980926514,2012-03-01 20:12:39
1.02799987792969,42.4868816,-71.01844891,-5.59999990463257,2012-03-01 20:12:40
1.01500010490417,42.48688615,-71.01844473,-5.5,2012-03-01 20:12:41
0.958999872207642,42.48689767,-71.01847597,-5.30000019073486,2012-03-01 20:12:42
1.00100016593933,42.48690122,-71.01847456,-5.30000019073486,2012-03-01 20:12:43
1.00699996948242,42.4869095,-71.01848953,-5.30000019073486,2012-03-01 20:12:44
1.01300001144409,42.48692034,-71.01842629,-5.40000009536743,2012-03-01 20:12:45
0.978999853134155,42.48692416,-71.01842647,-5.30000019073486,2012-03-01 20:12:46
0.998000144958496,42.48693293,-71.0184478,-5.40000009536743,2012-03-01 20:12:47
1.0149998664856,42.48691852,-71.01849069,-5,2012-03-01 20:12:48
0.996000051498413,42.48692612,-71.01851055,-5.09999990463257,2012-03-01 20:12:49
0.990000009536743,42.48692865,-71.01849009,-4.40000009536743,2012-03-01 20:12:50
1.17700004577637,42.48690291,-71.01850142,-3.20000004768372,2012-03-01 20:12:51
0.835000038146973,42.48689944,-71.01849157,-3.09999990463257,2012-03-01 20:12:52
0.984999895095825,42.48690124,-71.01850066,-3.20000004768372,2012-03-01 20:12:53
1.00999999046326,42.48690294,-71.01851068,-3.29999995231628,2012-03-01 20:12:54
0.992000102996826,42.48690467,-71.0185205,-3.40000009536743,2012-03-01 20:12:55
1.11999988555908,42.48686251,-71.01849232,-3.40000009536743,2012-03-01 20:12:56
0.888999938964844,42.4868583,-71.01849325,-3.5,2012-03-01 20:12:57
1,42.48686308,-71.01847384,-3.59999990463257,2012-03-01 20:12:58
1.00400018692017,42.48689196,-71.01846745,-3.79999995231628,2012-03-01 20:12:59
0.985999822616577,42.48689862,-71.01847963,-3.79999995231628,2012-03-01 20:13:00
1.00100016593933,42.48688837,-71.01846434,-3.5,2012-03-01 20:13:01
1.00699996948242,42.48690644,-71.01848496,-4.19999980926514,2012-03-01 20:13:02
0.993000030517578,42.48689032,-71.01847654,-4.09999990463257,2012-03-01 20:13:03
1.00799989700317,42.48691071,-71.01846842,-3.79999995231628,2012-03-01 20:13:04
0.990999937057495,42.48691848,-71.01852174,-4.30000019073486,2012-03-01 20:13:05
