"diffSecs","latitude","longitude","altitude","time"
1017.34500002861,42.3741774025265,-70.9933020269876,0,2012-02-01 18:16:57
1.14400005340576,42.3742071363347,-70.9933181738879,0,2012-02-01 18:16:58
1.05099987983704,42.3742090310795,-70.9933212696724,0,2012-02-01 18:16:59
0.970999956130981,42.3742107076558,-70.9933181349772,0,2012-02-01 18:17:00
1.00300002098083,42.3742079668494,-70.9933185506419,0,2012-02-01 18:17:01
1.00600004196167,42.374202154942,-70.9933153380913,0,2012-02-01 18:17:02
1.00999999046326,42.3742109923662,-70.9933056247035,0,2012-02-01 18:17:03
1.0090000629425,42.3742159803742,-70.9933028073554,0,2012-02-01 18:17:04
1.00699996948242,42.3742095129589,-70.9933047926071,0,2012-02-01 18:17:05
1.0090000629425,42.3742179124545,-70.9933014701549,0,2012-02-01 18:17:06
1.00699996948242,42.374224967095,-70.9932904132956,0,2012-02-01 18:17:07
1.00699996948242,42.3742283458625,-70.9932832853233,0,2012-02-01 18:17:08
1.02699995040894,42.3742277894573,-70.9932874481918,0,2012-02-01 18:17:09
0.989000082015991,42.3742304283616,-70.9932952077459,0,2012-02-01 18:17:10
1.0239999294281,42.3742311109731,-70.9932969644932,0,2012-02-01 18:17:11
1.03299999237061,42.3742294327063,-70.9932930700083,0,2012-02-01 18:17:12
1.03600001335144,42.3742314970785,-70.9932863689545,0,2012-02-01 18:17:13
1.02100014686584,42.3742204037916,-70.9932831411451,0,2012-02-01 18:17:14
1.04399991035461,42.3742137464003,-70.9932786416653,0,2012-02-01 18:17:15
0.934999942779541,42.3742119394099,-70.993282035594,0,2012-02-01 18:17:16
1.00300002098083,42.3742064733466,-70.9932820100452,0,2012-02-01 18:17:17
1.0220000743866,42.3742042554986,-70.9932858769031,0,2012-02-01 18:17:18
0.996999979019165,42.3741960283762,-70.9932864403951,0,2012-02-01 18:17:19
1.00499987602234,42.3741920227793,-70.9932850084501,0,2012-02-01 18:17:20
1.01600003242493,42.3741936618084,-70.9932753963914,0,2012-02-01 18:17:21
1.00300002098083,42.3741943495229,-70.99325897424,0,2012-02-01 18:17:22
1.07599997520447,42.3741939915423,-70.9932519370462,0,2012-02-01 18:17:23
0.937999963760376,42.3741954792761,-70.9932523053695,0,2012-02-01 18:17:24
1.0090000629425,42.3741945097715,-70.9932513910094,0,2012-02-01 18:17:25
1.00600004196167,42.3741985335408,-70.9932451151091,0,2012-02-01 18:17:26
1.00799989700317,42.3742008802284,-70.9932501886331,0,2012-02-01 18:17:27
1.0090000629425,42.3742027123032,-70.9932570778875,0,2012-02-01 18:17:28
1.01699995994568,42.3742017638435,-70.9932615332511,0,2012-02-01 18:17:29
1.02300000190735,42.3742054224385,-70.9932590146807,0,2012-02-01 18:17:30
0.983000040054321,42.3742062761042,-70.9932601104105,0,2012-02-01 18:17:31
1.0090000629425,42.3742059296035,-70.9932672186296,0,2012-02-01 18:17:32
1.01999998092651,42.374203798716,-70.9932744285984,0,2012-02-01 18:17:33
0.999000072479248,42.3742022628711,-70.9932717246405,0,2012-02-01 18:17:34
1.00699996948242,42.3742016760073,-70.9932712954788,0,2012-02-01 18:17:35
1.00799989700317,42.3742002694694,-70.9932734151322,0,2012-02-01 18:17:36
1.01200008392334,42.3741981155062,-70.9932782975013,0,2012-02-01 18:17:37
1.0090000629425,42.3742028166656,-70.9932761171971,0,2012-02-01 18:17:38
1.03799986839294,42.3742057501418,-70.9932767305763,0,2012-02-01 18:17:39
0.976000070571899,42.3742058962563,-70.9932793021661,0,2012-02-01 18:17:40
1.00799989700317,42.3742096265836,-70.9932830114956,0,2012-02-01 18:17:41
1.00500011444092,42.3742125935004,-70.9932860073504,0,2012-02-01 18:17:42
1.00999999046326,42.3742140926077,-70.9932851492062,0,2012-02-01 18:17:43
1.02699995040894,42.3742159768046,-70.9932824484222,0,2012-02-01 18:17:44
0.989000082015991,42.374212715857,-70.9932853993334,0,2012-02-01 18:17:45
1607.14800000191,42.3740241833725,-70.9936624013831,0,2012-02-01 18:44:33
0.988999843597412,42.3740133136936,-70.9936532331309,0,2012-02-01 18:44:34
1.00600004196167,42.3740030268896,-70.9936499880698,0,2012-02-01 18:44:35
1.01100015640259,42.3740025778618,-70.9936567722971,0,2012-02-01 18:44:36
1.00599980354309,42.3739987633541,-70.9936456848016,0,2012-02-01 18:44:37
1.00600004196167,42.3740051351302,-70.9936524023748,0,2012-02-01 18:44:38
1.01100015640259,42.3740010143933,-70.9936489164868,0,2012-02-01 18:44:39
1.06699991226196,42.3740060115988,-70.9936543291467,0,2012-02-01 18:44:40
0.947000026702881,42.3740088762276,-70.993653880362,0,2012-02-01 18:44:41
1.00799989700317,42.3740132581198,-70.9936658323821,0,2012-02-01 18:44:42
1.00600004196167,42.3740182832245,-70.9936767313599,0,2012-02-01 18:44:43
1.00600004196167,42.3740195776857,-70.993680607289,0,2012-02-01 18:44:44
1.0090000629425,42.3740171293835,-70.9936798774904,0,2012-02-01 18:44:45
1.00699996948242,42.3740175940124,-70.9936762993761,0,2012-02-01 18:44:46
1.00799989700317,42.3740182574793,-70.9936772219613,0,2012-02-01 18:44:47
1.0090000629425,42.3740190043862,-70.9936750276034,0,2012-02-01 18:44:48
1.00499987602234,42.3740162336324,-70.9936740204772,0,2012-02-01 18:44:49
1.0090000629425,42.3740133606733,-70.9936741349929,0,2012-02-01 18:44:50
1.00800013542175,42.3740146323017,-70.9936716396027,0,2012-02-01 18:44:51
1.00699996948242,42.3740119379525,-70.9936665763324,0,2012-02-01 18:44:52
1.00799989700317,42.3740114182237,-70.9936628691554,0,2012-02-01 18:44:53
1.05599999427795,42.3740056266844,-70.9936457968938,-2.85583186149597,2012-02-01 18:44:54
0.960000038146973,42.3740056266844,-70.9936457968938,-2.85583186149597,2012-02-01 18:44:55
1.07599997520447,42.3740056266844,-70.9936457968938,-2.85583186149597,2012-02-01 18:44:56
0.990000009536743,42.3740056266844,-70.9936457968938,-2.85583186149597,2012-02-01 18:44:57
1.00500011444092,42.3740056266844,-70.9936457968938,-2.85583186149597,2012-02-01 18:44:58
1.00799989700317,42.3740056266844,-70.9936457968938,-2.85583186149597,2012-02-01 18:44:59
1.0090000629425,42.3740056266844,-70.9936457968938,-2.85583186149597,2012-02-01 18:45:00
1.00699996948242,42.3740056266844,-70.9936457968938,-2.85583186149597,2012-02-01 18:45:01
1.01399993896484,42.3740056266844,-70.9936457968938,-2.85583186149597,2012-02-01 18:45:02
1.00699996948242,42.3740056266844,-70.9936457968938,-2.85583186149597,2012-02-01 18:45:03
1.00600004196167,42.3740056266844,-70.9936457968938,-2.85583186149597,2012-02-01 18:45:04
2.01699995994568,42.3740056266844,-70.9936457968938,-2.85583186149597,2012-02-01 18:45:06
1.00500011444092,42.3740056266844,-70.9936457968938,-2.85583186149597,2012-02-01 18:45:07
1.00799989700317,42.3740056266844,-70.9936457968938,-2.85583186149597,2012-02-01 18:45:08
1.00500011444092,42.3740056266844,-70.9936457968938,-2.85583186149597,2012-02-01 18:45:09
1.00600004196167,42.3740056266844,-70.9936457968938,-2.85583186149597,2012-02-01 18:45:10
2.01699995994568,42.3740056266844,-70.9936457968938,-2.85583186149597,2012-02-01 18:45:12
1.00600004196167,42.3740056266844,-70.9936457968938,-2.85583186149597,2012-02-01 18:45:13
1.00599980354309,42.3740056266844,-70.9936457968938,-2.85583186149597,2012-02-01 18:45:14
1.00200009346008,42.3740056266844,-70.9936457968938,-2.85583186149597,2012-02-01 18:45:15
1.0090000629425,42.3740056266844,-70.9936457968938,-2.85583186149597,2012-02-01 18:45:16
2.01600003242493,42.3740056266844,-70.9936457968938,-2.85583186149597,2012-02-01 18:45:18
1.00799989700317,42.3740056266844,-70.9936457968938,-2.85583186149597,2012-02-01 18:45:19
1.00500011444092,42.3740056266844,-70.9936457968938,-2.85583186149597,2012-02-01 18:45:20
1.01099991798401,42.3740056266844,-70.9936457968938,-2.85583186149597,2012-02-01 18:45:21
1.00699996948242,42.3740056266844,-70.9936457968938,-2.85583186149597,2012-02-01 18:45:22
1.01300001144409,42.3740056266844,-70.9936457968938,-2.85583186149597,2012-02-01 18:45:23
1.00699996948242,42.3740056266844,-70.9936457968938,-2.85583186149597,2012-02-01 18:45:24
1.00399994850159,42.3740056266844,-70.9936457968938,-2.85583186149597,2012-02-01 18:45:25
1.00699996948242,42.3740056266844,-70.9936457968938,-2.85583186149597,2012-02-01 18:45:26
1.0090000629425,42.3740056266844,-70.9936457968938,-2.85583186149597,2012-02-01 18:45:27
1.00600004196167,42.3740056266844,-70.9936457968938,-2.85583186149597,2012-02-01 18:45:28
2.01500010490417,42.3740056266844,-70.9936457968938,-2.85583186149597,2012-02-01 18:45:30
1.00699996948242,42.3740056266844,-70.9936457968938,-2.85583186149597,2012-02-01 18:45:31
1.00599980354309,42.3740056266844,-70.9936457968938,-2.85583186149597,2012-02-01 18:45:32
1.00600004196167,42.3740056266844,-70.9936457968938,-2.85583186149597,2012-02-01 18:45:33
1.0090000629425,42.3740056266844,-70.9936457968938,-2.85583186149597,2012-02-01 18:45:34
1.00799989700317,42.3740056266844,-70.9936457968938,-2.85583186149597,2012-02-01 18:45:35
1.007000207901,42.3740056266844,-70.9936457968938,-2.85583186149597,2012-02-01 18:45:36
1.00899982452393,42.3740056266844,-70.9936457968938,-2.85583186149597,2012-02-01 18:45:37
1.00999999046326,42.3740056266844,-70.9936457968938,-2.85583186149597,2012-02-01 18:45:38
1.05599999427795,42.3740056266844,-70.9936457968938,-2.85583186149597,2012-02-01 18:45:39
1.01200008392334,42.3740056266844,-70.9936457968938,-2.85583186149597,2012-02-01 18:45:40
1.00399994850159,42.3740056266844,-70.9936457968938,-2.85583186149597,2012-02-01 18:45:41
1.00600004196167,42.3740056266844,-70.9936457968938,-2.85583186149597,2012-02-01 18:45:42
1.07500004768372,42.3740056266844,-70.9936457968938,-2.85583186149597,2012-02-01 18:45:43
0.983000040054321,42.3740056266844,-70.9936457968938,-2.85583186149597,2012-02-01 18:45:44
1.03900003433228,42.3740056266844,-70.9936457968938,-2.85583186149597,2012-02-01 18:45:45
0.932999849319458,42.3740056266844,-70.9936457968938,-2.85583186149597,2012-02-01 18:45:46
1.00800013542175,42.3740056266844,-70.9936457968938,-2.85583186149597,2012-02-01 18:45:47
1.00999999046326,42.3740056266844,-70.9936457968938,-2.85583186149597,2012-02-01 18:45:48
1.00799989700317,42.3740056266844,-70.9936457968938,-2.85583186149597,2012-02-01 18:45:49
1.00800013542175,42.3740056266844,-70.9936457968938,-2.85583186149597,2012-02-01 18:45:50
1.00799989700317,42.3740056266844,-70.9936457968938,-2.85583186149597,2012-02-01 18:45:51
1.00699996948242,42.3740056266844,-70.9936457968938,-2.85583186149597,2012-02-01 18:45:52
1.0090000629425,42.3740056266844,-70.9936457968938,-2.85583186149597,2012-02-01 18:45:53
1.00699996948242,42.3740056266844,-70.9936457968938,-2.85583186149597,2012-02-01 18:45:54
1.00699996948242,42.3740056266844,-70.9936457968938,-2.85583186149597,2012-02-01 18:45:55
1.01099991798401,42.3740056266844,-70.9936457968938,-2.85583186149597,2012-02-01 18:45:56
1.00600004196167,42.3740056266844,-70.9936457968938,-2.85583186149597,2012-02-01 18:45:57
1.00699996948242,42.3740056266844,-70.9936457968938,-2.85583186149597,2012-02-01 18:45:58
1.03900003433228,42.3740056266844,-70.9936457968938,-2.85583186149597,2012-02-01 18:45:59
1,42.3740056266844,-70.9936457968938,-2.85583186149597,2012-02-01 18:46:00
0.983999967575073,42.3740056266844,-70.9936457968938,-2.85583186149597,2012-02-01 18:46:01
1.00999999046326,42.3740056266844,-70.9936457968938,-2.85583186149597,2012-02-01 18:46:02
1.00600004196167,42.3740056266844,-70.9936457968938,-2.85583186149597,2012-02-01 18:46:03
1.00399994850159,42.3740056266844,-70.9936457968938,-2.85583186149597,2012-02-01 18:46:04
1.0090000629425,42.3740056266844,-70.9936457968938,-2.85583186149597,2012-02-01 18:46:05
1.00500011444092,42.3740056266844,-70.9936457968938,-2.85583186149597,2012-02-01 18:46:06
1.02099990844727,42.3740056266844,-70.9936457968938,-2.85583186149597,2012-02-01 18:46:07
0.992000102996826,42.3740056266844,-70.9936457968938,-2.85583186149597,2012-02-01 18:46:08
1.00799989700317,42.3740056266844,-70.9936457968938,-2.85583186149597,2012-02-01 18:46:09
1.0090000629425,42.3740056266844,-70.9936457968938,-2.85583186149597,2012-02-01 18:46:10
1.00699996948242,42.3740056266844,-70.9936457968938,-2.85583186149597,2012-02-01 18:46:11
1.02099990844727,42.3740056266844,-70.9936457968938,-2.85583186149597,2012-02-01 18:46:12
0.996999979019165,42.3740056266844,-70.9936457968938,-2.85583186149597,2012-02-01 18:46:13
1.00800013542175,42.3740056266844,-70.9936457968938,-2.85583186149597,2012-02-01 18:46:14
1.07999992370605,42.3740056266844,-70.9936457968938,-2.85583186149597,2012-02-01 18:46:15
0.986999988555908,42.3740056266844,-70.9936457968938,-2.85583186149597,2012-02-01 18:46:16
1.00600004196167,42.3740056266844,-70.9936457968938,-2.85583186149597,2012-02-01 18:46:17
1.0090000629425,42.3740056266844,-70.9936457968938,-2.85583186149597,2012-02-01 18:46:18
1.00499987602234,42.3740056266844,-70.9936457968938,-2.85583186149597,2012-02-01 18:46:19
1.00600004196167,42.3740056266844,-70.9936457968938,-2.85583186149597,2012-02-01 18:46:20
1.0090000629425,42.3740056266844,-70.9936457968938,-2.85583186149597,2012-02-01 18:46:22
1.00499987602234,42.3740056266844,-70.9936457968938,-2.85583186149597,2012-02-01 18:46:23
1.00800013542175,42.3740056266844,-70.9936457968938,-2.85583186149597,2012-02-01 18:46:24
1.0090000629425,42.3740056266844,-70.9936457968938,-2.85583186149597,2012-02-01 18:46:25
1.00999999046326,42.3740056266844,-70.9936457968938,-2.85583186149597,2012-02-01 18:46:26
1.00699996948242,42.3740056266844,-70.9936457968938,-2.85583186149597,2012-02-01 18:46:27
1.00699996948242,42.3740056266844,-70.9936457968938,-2.85583186149597,2012-02-01 18:46:28
1.00799989700317,42.3740056266844,-70.9936457968938,-2.85583186149597,2012-02-01 18:46:29
1.00800013542175,42.3740056266844,-70.9936457968938,-2.85583186149597,2012-02-01 18:46:30
1.00899982452393,42.3740056266844,-70.9936457968938,-2.85583186149597,2012-02-01 18:46:31
1.0090000629425,42.3740056266844,-70.9936457968938,-2.85583186149597,2012-02-01 18:46:32
1.00800013542175,42.3740056266844,-70.9936457968938,-2.85583186149597,2012-02-01 18:46:33
1.00599980354309,42.3740056266844,-70.9936457968938,-2.85583186149597,2012-02-01 18:46:34
1.00400018692017,42.3740056266844,-70.9936457968938,-2.85583186149597,2012-02-01 18:46:35
1.00999999046326,42.3740056266844,-70.9936457968938,-2.85583186149597,2012-02-01 18:46:36
1.00699996948242,42.3740056266844,-70.9936457968938,-2.85583186149597,2012-02-01 18:46:37
1.00699996948242,42.3740056266844,-70.9936457968938,-2.85583186149597,2012-02-01 18:46:38
1.00799989700317,42.3740056266844,-70.9936457968938,-2.85583186149597,2012-02-01 18:46:39
1.00800013542175,42.3740056266844,-70.9936457968938,-2.85583186149597,2012-02-01 18:46:40
1.00699996948242,42.3740056266844,-70.9936457968938,-2.85583186149597,2012-02-01 18:46:41
1.00499987602234,42.3740056266844,-70.9936457968938,-2.85583186149597,2012-02-01 18:46:42
1.00600004196167,42.3740056266844,-70.9936457968938,-2.85583186149597,2012-02-01 18:46:43
1.0090000629425,42.3740056266844,-70.9936457968938,-2.85583186149597,2012-02-01 18:46:44
1.01200008392334,42.3740056266844,-70.9936457968938,-2.85583186149597,2012-02-01 18:46:45
1.00600004196167,42.3740056266844,-70.9936457968938,-2.85583186149597,2012-02-01 18:46:46
1.08699989318848,42.3740056266844,-70.9936457968938,-2.85583186149597,2012-02-01 18:46:47
0.971999883651733,42.3740056266844,-70.9936457968938,-2.85583186149597,2012-02-01 18:46:48
1.0090000629425,42.3740056266844,-70.9936457968938,-2.85583186149597,2012-02-01 18:46:49
1.00399994850159,42.3740056266844,-70.9936457968938,-2.85583186149597,2012-02-01 18:46:50
1.00800013542175,42.3740056266844,-70.9936457968938,-2.85583186149597,2012-02-01 18:46:51
1.00799989700317,42.3740056266844,-70.9936457968938,-2.85583186149597,2012-02-01 18:46:52
1.00800013542175,42.3740056266844,-70.9936457968938,-2.85583186149597,2012-02-01 18:46:53
1.00999999046326,42.3740056266844,-70.9936457968938,-2.85583186149597,2012-02-01 18:46:54
1.00799989700317,42.3740056266844,-70.9936457968938,-2.85583186149597,2012-02-01 18:46:55
1.00699996948242,42.3740056266844,-70.9936457968938,-2.85583186149597,2012-02-01 18:46:56
1.01100015640259,42.3740056266844,-70.9936457968938,-2.85583186149597,2012-02-01 18:46:57
1.00699996948242,42.3740056266844,-70.9936457968938,-2.85583186149597,2012-02-01 18:46:58
1.00799989700317,42.3740056266844,-70.9936457968938,-2.85583186149597,2012-02-01 18:46:59
1.00999999046326,42.3740056266844,-70.9936457968938,-2.85583186149597,2012-02-01 18:47:00
1.00600004196167,42.3740056266844,-70.9936457968938,-2.85583186149597,2012-02-01 18:47:01
1.00699996948242,42.3740056266844,-70.9936457968938,-2.85583186149597,2012-02-01 18:47:02
1.00699996948242,42.3740056266844,-70.9936457968938,-2.85583186149597,2012-02-01 18:47:03
1.00600004196167,42.3740056266844,-70.9936457968938,-2.85583186149597,2012-02-01 18:47:04
2.12599992752075,42.3740056266844,-70.9936457968938,-2.85583186149597,2012-02-01 18:47:06
0.89900016784668,42.3740056266844,-70.9936457968938,-2.85583186149597,2012-02-01 18:47:07
1.00300002098083,42.3740056266844,-70.9936457968938,-2.85583186149597,2012-02-01 18:47:08
1.00899982452393,42.3740056266844,-70.9936457968938,-2.85583186149597,2012-02-01 18:47:09
1.00800013542175,42.3740056266844,-70.9936457968938,-2.85583186149597,2012-02-01 18:47:10
2.01799988746643,42.3740056266844,-70.9936457968938,-2.85583186149597,2012-02-01 18:47:12
1.01100015640259,42.3740056266844,-70.9936457968938,-2.85583186149597,2012-02-01 18:47:13
1.00399994850159,42.3740056266844,-70.9936457968938,-2.85583186149597,2012-02-01 18:47:14
1.00999999046326,42.3740056266844,-70.9936457968938,-2.85583186149597,2012-02-01 18:47:15
1.00799989700317,42.3740056266844,-70.9936457968938,-2.85583186149597,2012-02-01 18:47:16
2.01400017738342,42.3740056266844,-70.9936457968938,-2.85583186149597,2012-02-01 18:47:18
1.00799989700317,42.3740056266844,-70.9936457968938,-2.85583186149597,2012-02-01 18:47:19
1.0090000629425,42.3740056266844,-70.9936457968938,-2.85583186149597,2012-02-01 18:47:20
1.00600004196167,42.3740056266844,-70.9936457968938,-2.85583186149597,2012-02-01 18:47:21
1.00599980354309,42.3740056266844,-70.9936457968938,-2.85583186149597,2012-02-01 18:47:22
1.00800013542175,42.3740056266844,-70.9936457968938,-2.85583186149597,2012-02-01 18:47:23
1.0090000629425,42.3740056266844,-70.9936457968938,-2.85583186149597,2012-02-01 18:47:24
1.0699999332428,42.3740056266844,-70.9936457968938,-2.85583186149597,2012-02-01 18:47:25
0.947000026702881,42.3740056266844,-70.9936457968938,-2.85583186149597,2012-02-01 18:47:26
1.01999998092651,42.3740056266844,-70.9936457968938,-2.85583186149597,2012-02-01 18:47:27
0.994999885559082,42.3740056266844,-70.9936457968938,-2.85583186149597,2012-02-01 18:47:28
1.00699996948242,42.3740056266844,-70.9936457968938,-2.85583186149597,2012-02-01 18:47:29
1.00800013542175,42.3740056266844,-70.9936457968938,-2.85583186149597,2012-02-01 18:47:30
1.00999999046326,42.3740056266844,-70.9936457968938,-2.85583186149597,2012-02-01 18:47:31
1.02500009536743,42.3740056266844,-70.9936457968938,-2.85583186149597,2012-02-01 18:47:32
1.04599976539612,42.3740056266844,-70.9936457968938,-2.85583186149597,2012-02-01 18:47:33
0.946000099182129,42.3740056266844,-70.9936457968938,-2.85583186149597,2012-02-01 18:47:34
1.0090000629425,42.3740056266844,-70.9936457968938,-2.85583186149597,2012-02-01 18:47:35
1.00600004196167,42.3740056266844,-70.9936457968938,-2.85583186149597,2012-02-01 18:47:36
1.00899982452393,42.3740056266844,-70.9936457968938,-2.85583186149597,2012-02-01 18:47:37
1.0090000629425,42.3740056266844,-70.9936457968938,-2.85583186149597,2012-02-01 18:47:38
1.00800013542175,42.3740056266844,-70.9936457968938,-2.85583186149597,2012-02-01 18:47:39
1.01199984550476,42.3740056266844,-70.9936457968938,-2.85583186149597,2012-02-01 18:47:40
1.00600004196167,42.3740056266844,-70.9936457968938,-2.85583186149597,2012-02-01 18:47:41
1.0090000629425,42.3740056266844,-70.9936457968938,-2.85583186149597,2012-02-01 18:47:42
1.05599999427795,42.3740108689021,-70.993498646759,-1.09115839004517,2012-02-01 18:47:43
1.00699996948242,42.3740108689021,-70.993498646759,-1.09115839004517,2012-02-01 18:47:44
0.960999965667725,42.3740108689021,-70.993498646759,-1.09115839004517,2012-02-01 18:47:45
1.05599999427795,42.3740108689021,-70.993498646759,-1.09115839004517,2012-02-01 18:47:46
1.00699996948242,42.3740108689021,-70.993498646759,-1.09115839004517,2012-02-01 18:47:47
1.01800012588501,42.3740108689021,-70.993498646759,-1.09115839004517,2012-02-01 18:47:48
1.02199983596802,42.3740108689021,-70.993498646759,-1.09115839004517,2012-02-01 18:47:49
1.04400014877319,42.3740108689021,-70.993498646759,-1.09115839004517,2012-02-01 18:47:50
1.03199982643127,42.3740108689021,-70.993498646759,-1.09115839004517,2012-02-01 18:47:51
0.919000148773193,42.3740108689021,-70.993498646759,-1.09115839004517,2012-02-01 18:47:52
1.0090000629425,42.3740108689021,-70.993498646759,-1.09115839004517,2012-02-01 18:47:53
1.00599980354309,42.3740108689021,-70.993498646759,-1.09115839004517,2012-02-01 18:47:54
1.07300019264221,42.3740108689021,-70.993498646759,-1.09115839004517,2012-02-01 18:47:55
0.946999788284302,42.3740108689021,-70.993498646759,-1.09115839004517,2012-02-01 18:47:56
1.01100015640259,42.3740108689021,-70.993498646759,-1.09115839004517,2012-02-01 18:47:57
1.0019998550415,42.3740108689021,-70.993498646759,-1.09115839004517,2012-02-01 18:47:58
1.00500011444092,42.3740108689021,-70.993498646759,-1.09115839004517,2012-02-01 18:47:59
1.01099991798401,42.3740108689021,-70.993498646759,-1.09115839004517,2012-02-01 18:48:00
1.00699996948242,42.3740108689021,-70.993498646759,-1.09115839004517,2012-02-01 18:48:01
1.00500011444092,42.3740108689021,-70.993498646759,-1.09115839004517,2012-02-01 18:48:02
1.0090000629425,42.3740108689021,-70.993498646759,-1.09115839004517,2012-02-01 18:48:03
1.00699996948242,42.3740108689021,-70.993498646759,-1.09115839004517,2012-02-01 18:48:04
1.00699996948242,42.3740108689021,-70.993498646759,-1.09115839004517,2012-02-01 18:48:05
1.00699996948242,42.3740108689021,-70.993498646759,-1.09115839004517,2012-02-01 18:48:06
1.00999999046326,42.3740108689021,-70.993498646759,-1.09115839004517,2012-02-01 18:48:07
1.00699996948242,42.3740108689021,-70.993498646759,-1.09115839004517,2012-02-01 18:48:08
1.00699996948242,42.3740108689021,-70.993498646759,-1.09115839004517,2012-02-01 18:48:09
1.01100015640259,42.3740108689021,-70.993498646759,-1.09115839004517,2012-02-01 18:48:10
1.00899982452393,42.3740108689021,-70.993498646759,-1.09115839004517,2012-02-01 18:48:11
1.00500011444092,42.3740108689021,-70.993498646759,-1.09115839004517,2012-02-01 18:48:12
1.00799989700317,42.3740108689021,-70.993498646759,-1.09115839004517,2012-02-01 18:48:13
1.0090000629425,42.3740108689021,-70.993498646759,-1.09115839004517,2012-02-01 18:48:14
1.01200008392334,42.3740108689021,-70.993498646759,-1.09115839004517,2012-02-01 18:48:15
1.00399994850159,42.3740108689021,-70.993498646759,-1.09115839004517,2012-02-01 18:48:16
1.00500011444092,42.3740108689021,-70.993498646759,-1.09115839004517,2012-02-01 18:48:17
1.00999999046326,42.3740108689021,-70.993498646759,-1.09115839004517,2012-02-01 18:48:18
1.00599980354309,42.3740108689021,-70.993498646759,-1.09115839004517,2012-02-01 18:48:20
1.007000207901,42.3740108689021,-70.993498646759,-1.09115839004517,2012-02-01 18:48:21
1.00999999046326,42.3740108689021,-70.993498646759,-1.09115839004517,2012-02-01 18:48:22
1.01099991798401,42.3740108689021,-70.993498646759,-1.09115839004517,2012-02-01 18:48:23
1.00600004196167,42.3740108689021,-70.993498646759,-1.09115839004517,2012-02-01 18:48:24
1.00699996948242,42.3740108689021,-70.993498646759,-1.09115839004517,2012-02-01 18:48:25
1.00600004196167,42.3740108689021,-70.993498646759,-1.09115839004517,2012-02-01 18:48:26
1.00899982452393,42.3740108689021,-70.993498646759,-1.09115839004517,2012-02-01 18:48:27
1.00800013542175,42.3740108689021,-70.993498646759,-1.09115839004517,2012-02-01 18:48:28
1.00799989700317,42.3740108689021,-70.993498646759,-1.09115839004517,2012-02-01 18:48:29
1.00800013542175,42.3740108689021,-70.993498646759,-1.09115839004517,2012-02-01 18:48:30
1.00999999046326,42.3740108689021,-70.993498646759,-1.09115839004517,2012-02-01 18:48:31
1.00499987602234,42.3740108689021,-70.993498646759,-1.09115839004517,2012-02-01 18:48:32
1.00600004196167,42.3740108689021,-70.993498646759,-1.09115839004517,2012-02-01 18:48:33
1.0090000629425,42.3740108689021,-70.993498646759,-1.09115839004517,2012-02-01 18:48:34
1.00999999046326,42.3740108689021,-70.993498646759,-1.09115839004517,2012-02-01 18:48:35
1.00699996948242,42.3740108689021,-70.993498646759,-1.09115839004517,2012-02-01 18:48:36
1.00999999046326,42.3740108689021,-70.993498646759,-1.09115839004517,2012-02-01 18:48:37
1.0090000629425,42.3740108689021,-70.993498646759,-1.09115839004517,2012-02-01 18:48:38
1.05499982833862,42.3740108689021,-70.993498646759,-1.09115839004517,2012-02-01 18:48:39
1.007000207901,42.3740108689021,-70.993498646759,-1.09115839004517,2012-02-01 18:48:40
1.00799989700317,42.3740108689021,-70.993498646759,-1.09115839004517,2012-02-01 18:48:41
1.0090000629425,42.3740108689021,-70.993498646759,-1.09115839004517,2012-02-01 18:48:42
1.00499987602234,42.3740017503952,-70.9934939593322,-1.09867560863495,2012-02-01 18:48:43
1.00699996948242,42.3740009625791,-70.993494323217,-1.10257613658905,2012-02-01 18:48:44
1.007000207901,42.3740006099719,-70.9934937841425,-1.10446631908417,2012-02-01 18:48:45
1.00699996948242,42.3740006099719,-70.9934937841425,-1.10446631908417,2012-02-01 18:48:46
1.00899982452393,42.3740006099719,-70.9934937841425,-1.10446631908417,2012-02-01 18:48:47
1.00600004196167,42.3740006099719,-70.9934937841425,-1.10446631908417,2012-02-01 18:48:48
1.00600004196167,42.3740006099719,-70.9934937841425,-1.10446631908417,2012-02-01 18:48:49
1.00799989700317,42.3740006099719,-70.9934937841425,-1.10446631908417,2012-02-01 18:48:50
1.007000207901,42.3740006099719,-70.9934937841425,-1.10446631908417,2012-02-01 18:48:51
1.00899982452393,42.3740006099719,-70.9934937841425,-1.10446631908417,2012-02-01 18:48:52
1.00600004196167,42.3740006099719,-70.9934937841425,-1.10446631908417,2012-02-01 18:48:53
1.00999999046326,42.3740006099719,-70.9934937841425,-1.10446631908417,2012-02-01 18:48:54
1.00999999046326,42.3740006099719,-70.9934937841425,-1.10446631908417,2012-02-01 18:48:55
2.01800012588501,42.3740006099719,-70.9934937841425,-1.10446631908417,2012-02-01 18:48:57
1.00699996948242,42.3740006099719,-70.9934937841425,-1.10446631908417,2012-02-01 18:48:58
2.01799988746643,42.3740006099719,-70.9934937841425,-1.10446631908417,2012-02-01 18:49:00
1.00300002098083,42.3740006099719,-70.9934937841425,-1.10446631908417,2012-02-01 18:49:01
1.0090000629425,42.3740006099719,-70.9934937841425,-1.10446631908417,2012-02-01 18:49:02
1.11899995803833,42.3740006099719,-70.9934937841425,-1.10446631908417,2012-02-01 18:49:03
0.900000095367432,42.3740006099719,-70.9934937841425,-1.10446631908417,2012-02-01 18:49:04
2.01399993896484,42.3740006099719,-70.9934937841425,-1.10446631908417,2012-02-01 18:49:06
1.05900001525879,42.3740006099719,-70.9934937841425,-1.10446631908417,2012-02-01 18:49:07
0.956000089645386,42.3740006099719,-70.9934937841425,-1.10446631908417,2012-02-01 18:49:08
1.00599980354309,42.3740006099719,-70.9934937841425,-1.10446631908417,2012-02-01 18:49:09
1.00800013542175,42.3740006099719,-70.9934937841425,-1.10446631908417,2012-02-01 18:49:10
1.01199984550476,42.3740006099719,-70.9934937841425,-1.10446631908417,2012-02-01 18:49:11
1.00400018692017,42.3740006099719,-70.9934937841425,-1.10446631908417,2012-02-01 18:49:12
1.00699996948242,42.3740006099719,-70.9934937841425,-1.10446631908417,2012-02-01 18:49:13
1.00600004196167,42.3740006099719,-70.9934937841425,-1.10446631908417,2012-02-01 18:49:14
1.00799989700317,42.3740006099719,-70.9934937841425,-1.10446631908417,2012-02-01 18:49:15
1.03900003433228,42.3740006099719,-70.9934937841425,-1.10446631908417,2012-02-01 18:49:16
0.976000070571899,42.3740054401076,-70.9934813544566,-1.10888767242432,2012-02-01 18:49:17
1.00699996948242,42.37400554519,-70.993480896537,-1.1092015504837,2012-02-01 18:49:18
1.00799989700317,42.37400554519,-70.993480896537,-1.1092015504837,2012-02-01 18:49:19
1.00600004196167,42.37400554519,-70.993480896537,-1.1092015504837,2012-02-01 18:49:20
1.00600004196167,42.37400554519,-70.993480896537,-1.1092015504837,2012-02-01 18:49:21
1.00699996948242,42.37400554519,-70.993480896537,-1.1092015504837,2012-02-01 18:49:22
1.01099991798401,42.37400554519,-70.993480896537,-1.1092015504837,2012-02-01 18:49:23
1.00699996948242,42.37400554519,-70.993480896537,-1.1092015504837,2012-02-01 18:49:24
1.007000207901,42.37400554519,-70.993480896537,-1.1092015504837,2012-02-01 18:49:25
1.00799989700317,42.37400554519,-70.993480896537,-1.1092015504837,2012-02-01 18:49:26
1.00799989700317,42.37400554519,-70.993480896537,-1.1092015504837,2012-02-01 18:49:27
1.007000207901,42.37400554519,-70.993480896537,-1.1092015504837,2012-02-01 18:49:28
1.01099991798401,42.37400554519,-70.993480896537,-1.1092015504837,2012-02-01 18:49:29
1.00799989700317,42.37400554519,-70.993480896537,-1.1092015504837,2012-02-01 18:49:30
1.01100015640259,42.3740088961794,-70.9934744842768,-1.11986148357391,2012-02-01 18:49:31
1.03099989891052,42.3740088961794,-70.9934744842768,-1.11986148357391,2012-02-01 18:49:32
0.985000133514404,42.3740088961794,-70.9934744842768,-1.11986148357391,2012-02-01 18:49:33
1.00299978256226,42.3740088961794,-70.9934744842768,-1.11986148357391,2012-02-01 18:49:34
1.04500007629395,42.3740088961794,-70.9934744842768,-1.11986148357391,2012-02-01 18:49:35
0.972000122070312,42.3740088961794,-70.9934744842768,-1.11986148357391,2012-02-01 18:49:36
1.05399990081787,42.3740088961794,-70.9934744842768,-1.11986148357391,2012-02-01 18:49:37
1.0239999294281,42.3740088961794,-70.9934744842768,-1.11986148357391,2012-02-01 18:49:38
0.945000171661377,42.3740088961794,-70.9934744842768,-1.11986148357391,2012-02-01 18:49:39
1.13499999046326,42.3740088961794,-70.9934744842768,-1.11986148357391,2012-02-01 18:49:40
0.881999969482422,42.3740088961794,-70.9934744842768,-1.11986148357391,2012-02-01 18:49:41
1.00799989700317,42.3740088961794,-70.9934744842768,-1.11986148357391,2012-02-01 18:49:42
1.00600004196167,42.3740088961794,-70.9934744842768,-1.11986148357391,2012-02-01 18:49:43
1.00600004196167,42.3740088961794,-70.9934744842768,-1.11986148357391,2012-02-01 18:49:44
1.01200008392334,42.3740088961794,-70.9934744842768,-1.11986148357391,2012-02-01 18:49:45
1.0699999332428,42.3740088961794,-70.9934744842768,-1.11986148357391,2012-02-01 18:49:46
0.944000005722046,42.3740088961794,-70.9934744842768,-1.11986148357391,2012-02-01 18:49:47
1.00600004196167,42.3740088961794,-70.9934744842768,-1.11986148357391,2012-02-01 18:49:48
1.00599980354309,42.3740088961794,-70.9934744842768,-1.11986148357391,2012-02-01 18:49:49
1.0090000629425,42.3740088961794,-70.9934744842768,-1.11986148357391,2012-02-01 18:49:50
1.00600004196167,42.3740088961794,-70.9934744842768,-1.11986148357391,2012-02-01 18:49:51
1.00799989700317,42.3740088961794,-70.9934744842768,-1.11986148357391,2012-02-01 18:49:52
1.01300001144409,42.3740088961794,-70.9934744842768,-1.11986148357391,2012-02-01 18:49:53
1.08500003814697,42.3740088961794,-70.9934744842768,-1.11986148357391,2012-02-01 18:49:54
0.92900013923645,42.3740088961794,-70.9934744842768,-1.11986148357391,2012-02-01 18:49:55
1.00799989700317,42.3740088961794,-70.9934744842768,-1.11986148357391,2012-02-01 18:49:56
1.00699996948242,42.3740088961794,-70.9934744842768,-1.11986148357391,2012-02-01 18:49:57
1.00600004196167,42.3740088961794,-70.9934744842768,-1.11986148357391,2012-02-01 18:49:58
1.01799988746643,42.3740088961794,-70.9934744842768,-1.11986148357391,2012-02-01 18:49:59
1.00500011444092,42.3740088961794,-70.9934744842768,-1.11986148357391,2012-02-01 18:50:00
1.00600004196167,42.3740088961794,-70.9934744842768,-1.11986148357391,2012-02-01 18:50:01
1.01199984550476,42.3740088961794,-70.9934744842768,-1.11986148357391,2012-02-01 18:50:02
1.00800013542175,42.3740088961794,-70.9934744842768,-1.11986148357391,2012-02-01 18:50:03
1.00600004196167,42.3740088961794,-70.9934744842768,-1.11986148357391,2012-02-01 18:50:04
1.0149998664856,42.3740088961794,-70.9934744842768,-1.11986148357391,2012-02-01 18:50:05
1.00100016593933,42.3740088961794,-70.9934744842768,-1.11986148357391,2012-02-01 18:50:06
1.00699996948242,42.3740088961794,-70.9934744842768,-1.11986148357391,2012-02-01 18:50:07
1.00899982452393,42.3740088961794,-70.9934744842768,-1.11986148357391,2012-02-01 18:50:08
1.03000020980835,42.3740088961794,-70.9934744842768,-1.11986148357391,2012-02-01 18:50:09
0.984999895095825,42.3740088961794,-70.9934744842768,-1.11986148357391,2012-02-01 18:50:10
1.00699996948242,42.3740088961794,-70.9934744842768,-1.11986148357391,2012-02-01 18:50:11
1.0090000629425,42.3740088961794,-70.9934744842768,-1.11986148357391,2012-02-01 18:50:12
1.0090000629425,42.3740088961794,-70.9934744842768,-1.11986148357391,2012-02-01 18:50:13
1.00699996948242,42.3740088961794,-70.9934744842768,-1.11986148357391,2012-02-01 18:50:14
1.00600004196167,42.3740088961794,-70.9934744842768,-1.11986148357391,2012-02-01 18:50:15
1.01099991798401,42.3740088961794,-70.9934744842768,-1.11986148357391,2012-02-01 18:50:16
1.00799989700317,42.3740088961794,-70.9934744842768,-1.11986148357391,2012-02-01 18:50:17
1,42.3740114846699,-70.9934666897206,-1.10399043560028,2012-02-01 18:50:18
1.00800013542175,42.3740119853578,-70.9934663755576,-1.1040107011795,2012-02-01 18:50:19
1.01099991798401,42.3740119853578,-70.9934663755576,-1.1040107011795,2012-02-01 18:50:20
1.02900004386902,42.3740119853578,-70.9934663755576,-1.1040107011795,2012-02-01 18:50:22
0.989000082015991,42.3740119853578,-70.9934663755576,-1.1040107011795,2012-02-01 18:50:23
1.00499987602234,42.3740119853578,-70.9934663755576,-1.1040107011795,2012-02-01 18:50:24
1.00699996948242,42.3740119853578,-70.9934663755576,-1.1040107011795,2012-02-01 18:50:25
1.01100015640259,42.3740119853578,-70.9934663755576,-1.1040107011795,2012-02-01 18:50:26
1.05599999427795,42.3740119853578,-70.9934663755576,-1.1040107011795,2012-02-01 18:50:27
1.00699996948242,42.3740119853578,-70.9934663755576,-1.1040107011795,2012-02-01 18:50:28
1.00699996948242,42.3740119853578,-70.9934663755576,-1.1040107011795,2012-02-01 18:50:29
1.0090000629425,42.3740119853578,-70.9934663755576,-1.1040107011795,2012-02-01 18:50:30
1.00899982452393,42.3740119853578,-70.9934663755576,-1.1040107011795,2012-02-01 18:50:31
1.00500011444092,42.3740119853578,-70.9934663755576,-1.1040107011795,2012-02-01 18:50:32
1.00600004196167,42.3740119853578,-70.9934663755576,-1.1040107011795,2012-02-01 18:50:33
1.00799989700317,42.3740119853578,-70.9934663755576,-1.1040107011795,2012-02-01 18:50:34
1.00699996948242,42.3740119853578,-70.9934663755576,-1.1040107011795,2012-02-01 18:50:35
1.03800010681152,42.3740119853578,-70.9934663755576,-1.1040107011795,2012-02-01 18:50:36
0.973999977111816,42.374011481419,-70.9934653467373,-1.12590885162354,2012-02-01 18:50:37
1.00699996948242,42.3740107569203,-70.9934654515322,-1.12908244132996,2012-02-01 18:50:38
1.00699996948242,42.3739938078818,-70.9934580827655,-1.14970660209656,2012-02-01 18:50:39
1.01099991798401,42.3739740498998,-70.9934500390049,-1.17550659179688,2012-02-01 18:50:40
1.00400018692017,42.3739590118717,-70.9934444577179,-1.13943243026733,2012-02-01 18:50:41
1.00600004196167,42.37395921176,-70.9934448751513,0,2012-02-01 18:50:42
1.00999999046326,42.3739594263359,-70.9934450403448,0,2012-02-01 18:50:43
1.00299978256226,42.3739593952148,-70.9934450291975,0,2012-02-01 18:50:44
1.00500011444092,42.3739593158442,-70.9934450000237,0,2012-02-01 18:50:45
1.00500011444092,42.3739593158442,-70.9934450000237,0,2012-02-01 18:50:46
1.00799989700317,42.3739593158442,-70.9934450000237,0,2012-02-01 18:50:47
1.00799989700317,42.3739593158442,-70.9934450000237,-1.08087599277496,2012-02-01 18:50:48
1.00999999046326,42.3739593158442,-70.9934450000237,-1.08087599277496,2012-02-01 18:50:49
1.0090000629425,42.3739580960384,-70.993444558114,0,2012-02-01 18:50:50
1.0090000629425,42.3739579609424,-70.9934445096664,0,2012-02-01 18:50:51
1.00600004196167,42.3739577671028,-70.993444440372,0,2012-02-01 18:50:52
1.00899982452393,42.3739572915124,-70.9934442691291,-1.085618019104,2012-02-01 18:50:53
1.007000207901,42.3739572915124,-70.9934442691291,-1.085618019104,2012-02-01 18:50:54
1.00899982452393,42.3739561289669,-70.9934438484999,-1.09104740619659,2012-02-01 18:50:55
1.00600004196167,42.3739255924079,-70.993431398416,-1.19394910335541,2012-02-01 18:50:56
1.00500011444092,42.3739041000557,-70.9934227077085,-1.23539578914642,2012-02-01 18:50:57
1.00999999046326,42.3738776431065,-70.9934121956209,-1.34693384170532,2012-02-01 18:50:58
1.00899982452393,42.3738538358273,-70.993402540843,-1.43777871131897,2012-02-01 18:50:59
1.0090000629425,42.3738298814424,-70.9933928911225,-1.54575026035309,2012-02-01 18:51:00
1.01300001144409,42.3738124734415,-70.9933856819295,-1.63166391849518,2012-02-01 18:51:01
1.00699996948242,42.3738124734415,-70.9933856819295,-1.63166391849518,2012-02-01 18:51:02
1.00699996948242,42.3738124734415,-70.9933856819295,-1.63166391849518,2012-02-01 18:51:03
1.00600004196167,42.3738112276898,-70.993385231332,-1.63672363758087,2012-02-01 18:51:04
2.01399993896484,42.3738112276898,-70.993385231332,-1.63672363758087,2012-02-01 18:51:06
1.0530002117157,42.3738112276898,-70.993385231332,-1.63672363758087,2012-02-01 18:51:07
0.961999893188477,42.3738112276898,-70.993385231332,-1.63672363758087,2012-02-01 18:51:08
1.00300002098083,42.3738112276898,-70.993385231332,-1.63672363758087,2012-02-01 18:51:09
1.05999994277954,42.3738112276898,-70.993385231332,-1.63672363758087,2012-02-01 18:51:10
2.01500010490417,42.3738112276898,-70.993385231332,-1.63672363758087,2012-02-01 18:51:12
1.00699996948242,42.3738112276898,-70.993385231332,-1.63672363758087,2012-02-01 18:51:13
1.01300001144409,42.3738112276898,-70.993385231332,-1.63672363758087,2012-02-01 18:51:14
1.00300002098083,42.3738112276898,-70.993385231332,-1.63672363758087,2012-02-01 18:51:15
1.00799989700317,42.3738112276898,-70.993385231332,-1.63672363758087,2012-02-01 18:51:16
1.01100015640259,42.3738112276898,-70.993385231332,-1.63672363758087,2012-02-01 18:51:17
1.00999999046326,42.3738112276898,-70.993385231332,-1.63672363758087,2012-02-01 18:51:18
1.00299978256226,42.3738112276898,-70.993385231332,-1.63672363758087,2012-02-01 18:51:19
1.007000207901,42.3738112276898,-70.993385231332,-1.63672363758087,2012-02-01 18:51:20
1.00799989700317,42.3738112276898,-70.993385231332,-1.63672363758087,2012-02-01 18:51:21
1.0220000743866,42.3738112276898,-70.993385231332,-1.63672363758087,2012-02-01 18:51:22
0.997999906539917,42.3738112276898,-70.993385231332,-1.63672363758087,2012-02-01 18:51:23
1.11400008201599,42.3738112276898,-70.993385231332,-1.63672363758087,2012-02-01 18:51:24
0.898000001907349,42.3738112276898,-70.993385231332,-1.63672363758087,2012-02-01 18:51:25
1.00899982452393,42.3738112276898,-70.993385231332,-1.63672363758087,2012-02-01 18:51:26
1.01000022888184,42.3738112276898,-70.993385231332,-1.63672363758087,2012-02-01 18:51:27
1.01099991798401,42.3738112276898,-70.993385231332,-1.63672363758087,2012-02-01 18:51:28
1.0019998550415,42.3738112276898,-70.993385231332,-1.63672363758087,2012-02-01 18:51:29
1.007000207901,42.3738110363588,-70.9933850886586,-1.56840062141418,2012-02-01 18:51:30
1.00399994850159,42.3738110363588,-70.9933850886586,-1.56840062141418,2012-02-01 18:51:31
1.0090000629425,42.3738110363588,-70.9933850886586,-1.56840062141418,2012-02-01 18:51:32
1.00799989700317,42.3738110363588,-70.9933850886586,-1.56840062141418,2012-02-01 18:51:33
1.08699989318848,42.3738110363588,-70.9933850886586,-1.56840062141418,2012-02-01 18:51:34
1.01200008392334,42.3738110363588,-70.9933850886586,-1.56840062141418,2012-02-01 18:51:35
0.930000066757202,42.3738110363588,-70.9933850886586,-1.56840062141418,2012-02-01 18:51:36
1.01199984550476,42.3738110363588,-70.9933850886586,-1.56840062141418,2012-02-01 18:51:37
1.00600004196167,42.3738110363588,-70.9933850886586,-1.56840062141418,2012-02-01 18:51:38
1.00600004196167,42.3738110363588,-70.9933850886586,-1.56840062141418,2012-02-01 18:51:39
1.03500008583069,42.3738110363588,-70.9933850886586,-1.56840062141418,2012-02-01 18:51:40
0.99399995803833,42.3738110363588,-70.9933850886586,-1.56840062141418,2012-02-01 18:51:41
1.0460000038147,42.3738110363588,-70.9933850886586,-1.56840062141418,2012-02-01 18:51:42
1.03699994087219,42.3738110363588,-70.9933850886586,-1.56840062141418,2012-02-01 18:51:43
1.02300000190735,42.3738110363588,-70.9933850886586,-1.56840062141418,2012-02-01 18:51:44
0.910000085830688,42.3738110363588,-70.9933850886586,-1.56840062141418,2012-02-01 18:51:45
1.00699996948242,42.3738110363588,-70.9933850886586,-1.56840062141418,2012-02-01 18:51:46
1.00600004196167,42.3738110363588,-70.9933850886586,-1.56840062141418,2012-02-01 18:51:47
1.00699996948242,42.3738110363588,-70.9933850886586,-1.56840062141418,2012-02-01 18:51:48
1.00699996948242,42.3738110363588,-70.9933850886586,-1.56840062141418,2012-02-01 18:51:49
1.00799989700317,42.3738110363588,-70.9933850886586,-1.56840062141418,2012-02-01 18:51:50
1.00600004196167,42.3738110363588,-70.9933850886586,-1.56840062141418,2012-02-01 18:51:51
1.00800013542175,42.3738110363588,-70.9933850886586,-1.56840062141418,2012-02-01 18:51:52
1.05900001525879,42.3738110363588,-70.9933850886586,-1.56840062141418,2012-02-01 18:51:53
0.955999851226807,42.3738110363588,-70.9933850886586,-1.56840062141418,2012-02-01 18:51:54
1.00800013542175,42.3738110363588,-70.9933850886586,-1.56840062141418,2012-02-01 18:51:55
1.01099991798401,42.3738110363588,-70.9933850886586,-1.56840062141418,2012-02-01 18:51:56
1.01699995994568,42.3738110363588,-70.9933850886586,-1.56840062141418,2012-02-01 18:51:57
1.02800011634827,42.3738110363588,-70.9933850886586,-1.56840062141418,2012-02-01 18:51:58
0.973999977111816,42.3738110363588,-70.9933850886586,-1.56840062141418,2012-02-01 18:51:59
1.02900004386902,42.3738110363588,-70.9933850886586,-1.56840062141418,2012-02-01 18:52:00
0.986999988555908,42.3738110363588,-70.9933850886586,-1.56840062141418,2012-02-01 18:52:01
1.01199984550476,42.3738110363588,-70.9933850886586,-1.56840062141418,2012-02-01 18:52:02
1.00500011444092,42.3738110363588,-70.9933850886586,-1.56840062141418,2012-02-01 18:52:03
1.00600004196167,42.3738110363588,-70.9933850886586,-1.56840062141418,2012-02-01 18:52:04
1.00599980354309,42.3738110363588,-70.9933850886586,-1.56840062141418,2012-02-01 18:52:05
1.00800013542175,42.3738110363588,-70.9933850886586,-1.56840062141418,2012-02-01 18:52:06
1.00600004196167,42.3738110363588,-70.9933850886586,-1.56840062141418,2012-02-01 18:52:07
1.00799989700317,42.3738110363588,-70.9933850886586,-1.56840062141418,2012-02-01 18:52:08
1.00600004196167,42.3738110363588,-70.9933850886586,-1.56840062141418,2012-02-01 18:52:09
1.0090000629425,42.3738110363588,-70.9933850886586,-1.56840062141418,2012-02-01 18:52:10
1.00499987602234,42.3738110363588,-70.9933850886586,-1.56840062141418,2012-02-01 18:52:11
1.00999999046326,42.3738110363588,-70.9933850886586,-1.56840062141418,2012-02-01 18:52:12
1.00600004196167,42.3738110363588,-70.9933850886586,-1.56840062141418,2012-02-01 18:52:13
1.0090000629425,42.3738110363588,-70.9933850886586,-1.56840062141418,2012-02-01 18:52:14
1.06099987030029,42.3738110363588,-70.9933850886586,-1.56840062141418,2012-02-01 18:52:16
0.953999996185303,42.3738110363588,-70.9933850886586,-1.56840062141418,2012-02-01 18:52:16
1.00500011444092,42.3738110363588,-70.9933850886586,-1.56840062141418,2012-02-01 18:52:17
1.05699992179871,42.3738110363588,-70.9933850886586,-1.56840062141418,2012-02-01 18:52:19
1.0090000629425,42.3738110363588,-70.9933850886586,-1.56840062141418,2012-02-01 18:52:20
1.01999998092651,42.3738110363588,-70.9933850886586,-1.56840062141418,2012-02-01 18:52:21
0.995000123977661,42.3738110363588,-70.9933850886586,-1.56840062141418,2012-02-01 18:52:22
1.00999999046326,42.3738110363588,-70.9933850886586,-1.56840062141418,2012-02-01 18:52:23
1.00799989700317,42.3738110363588,-70.9933850886586,-1.56840062141418,2012-02-01 18:52:24
1.00999999046326,42.3738110363588,-70.9933850886586,-1.56840062141418,2012-02-01 18:52:25
1.0090000629425,42.3738110363588,-70.9933850886586,-1.56840062141418,2012-02-01 18:52:26
1.00699996948242,42.3738110363588,-70.9933850886586,-1.56840062141418,2012-02-01 18:52:27
1.00600004196167,42.3738110363588,-70.9933850886586,-1.56840062141418,2012-02-01 18:52:28
1.00699996948242,42.3738110363588,-70.9933850886586,-1.56840062141418,2012-02-01 18:52:29
1.01200008392334,42.3738110363588,-70.9933850886586,-1.56840062141418,2012-02-01 18:52:30
1.01099991798401,42.3738110363588,-70.9933850886586,-1.56840062141418,2012-02-01 18:52:31
1.00399994850159,42.3738110363588,-70.9933850886586,-1.56840062141418,2012-02-01 18:52:32
1.0090000629425,42.3738110363588,-70.9933850886586,-1.56840062141418,2012-02-01 18:52:33
1.00699996948242,42.3738110363588,-70.9933850886586,-1.56840062141418,2012-02-01 18:52:34
1.00600004196167,42.3738110363588,-70.9933850886586,-1.56840062141418,2012-02-01 18:52:35
1.00499987602234,42.3738110363588,-70.9933850886586,-1.56840062141418,2012-02-01 18:52:36
1.00800013542175,42.3738110363588,-70.9933850886586,-1.56840062141418,2012-02-01 18:52:37
1.00399994850159,42.3738110363588,-70.9933850886586,-1.56840062141418,2012-02-01 18:52:38
1.0090000629425,42.3738110363588,-70.9933850886586,-1.56840062141418,2012-02-01 18:52:39
1.00599980354309,42.3738110363588,-70.9933850886586,-1.56840062141418,2012-02-01 18:52:40
1.00800013542175,42.3738110363588,-70.9933850886586,-1.56840062141418,2012-02-01 18:52:41
1.00699996948242,42.3738110363588,-70.9933850886586,-1.56840062141418,2012-02-01 18:52:42
1.00699996948242,42.3738110363588,-70.9933850886586,-1.56840062141418,2012-02-01 18:52:43
1.00699996948242,42.3738110363588,-70.9933850886586,-1.56840062141418,2012-02-01 18:52:44
1.00699996948242,42.3738110363588,-70.9933850886586,-1.56840062141418,2012-02-01 18:52:45
1.01100015640259,42.3738110363588,-70.9933850886586,-1.56840062141418,2012-02-01 18:52:46
1.00600004196167,42.3738110363588,-70.9933850886586,-1.56840062141418,2012-02-01 18:52:47
1.00899982452393,42.3738110363588,-70.9933850886586,-1.56840062141418,2012-02-01 18:52:48
1.00800013542175,42.3738110363588,-70.9933850886586,-1.56840062141418,2012-02-01 18:52:49
1.0090000629425,42.3738110363588,-70.9933850886586,-1.56840062141418,2012-02-01 18:52:50
1.00599980354309,42.3738110363588,-70.9933850886586,-1.56840062141418,2012-02-01 18:52:51
1.0090000629425,42.3738110363588,-70.9933850886586,-1.56840062141418,2012-02-01 18:52:52
1.00999999046326,42.3738110363588,-70.9933850886586,-1.56840062141418,2012-02-01 18:52:53
1.00600004196167,42.3738110363588,-70.9933850886586,-1.56840062141418,2012-02-01 18:52:54
1.01099991798401,42.3738110363588,-70.9933850886586,-1.56840062141418,2012-02-01 18:52:55
1.01100015640259,42.3738110363588,-70.9933850886586,-1.56840062141418,2012-02-01 18:52:56
1.00699996948242,42.3738110363588,-70.9933850886586,-1.56840062141418,2012-02-01 18:52:57
1.00799989700317,42.3738110363588,-70.9933850886586,-1.56840062141418,2012-02-01 18:52:58
1.00800013542175,42.3738110363588,-70.9933850886586,-1.56840062141418,2012-02-01 18:52:59
1.01099991798401,42.3738110363588,-70.9933850886586,-1.56840062141418,2012-02-01 18:53:00
2.01699995994568,42.3738108506197,-70.9933848257707,-1.44913196563721,2012-02-01 18:53:02
1.00600004196167,42.3738108506197,-70.9933848257707,-1.44913196563721,2012-02-01 18:53:03
1.0090000629425,42.3738108506197,-70.9933848257707,-1.44913196563721,2012-02-01 18:53:04
2.00999999046326,42.3738108506197,-70.9933848257707,-1.44913196563721,2012-02-01 18:53:06
1.00899982452393,42.3738108506197,-70.9933848257707,-1.44913196563721,2012-02-01 18:53:07
1.05400013923645,42.3738108506197,-70.9933848257707,-1.44913196563721,2012-02-01 18:53:08
1.00799989700317,42.3738108506197,-70.9933848257707,-1.44913196563721,2012-02-01 18:53:09
1.18900012969971,42.3738108506197,-70.9933848257707,-1.44913196563721,2012-02-01 18:53:10
1.83899998664856,42.3738108506197,-70.9933848257707,-1.44913196563721,2012-02-01 18:53:12
1.00600004196167,42.3738108506197,-70.9933848257707,-1.44913196563721,2012-02-01 18:53:13
1.00999999046326,42.3738108506197,-70.9933848257707,-1.44913196563721,2012-02-01 18:53:14
1.01199984550476,42.3738108506197,-70.9933848257707,-1.44913196563721,2012-02-01 18:53:15
1.00600004196167,42.3738108506197,-70.9933848257707,-1.44913196563721,2012-02-01 18:53:16
1.01500010490417,42.3738108506197,-70.9933848257707,-1.44913196563721,2012-02-01 18:53:17
1.01099991798401,42.3738108506197,-70.9933848257707,-1.44913196563721,2012-02-01 18:53:18
1.00200009346008,42.3738108506197,-70.9933848257707,-1.44913196563721,2012-02-01 18:53:19
1.00300002098083,42.3738108506197,-70.9933848257707,-1.44913196563721,2012-02-01 18:53:20
1.00599980354309,42.3738108506197,-70.9933848257707,-1.44913196563721,2012-02-01 18:53:21
1.01100015640259,42.3738108506197,-70.9933848257707,-1.44913196563721,2012-02-01 18:53:22
1.00699996948242,42.3738108506197,-70.9933848257707,-1.44913196563721,2012-02-01 18:53:23
1.00499987602234,42.3738108506197,-70.9933848257707,-1.44913196563721,2012-02-01 18:53:24
1.01900005340576,42.3738108506197,-70.9933848257707,-1.44913196563721,2012-02-01 18:53:25
0.996000051498413,42.3738108506197,-70.9933848257707,-1.44913196563721,2012-02-01 18:53:26
1.01500010490417,42.3738108506197,-70.9933848257707,-1.44913196563721,2012-02-01 18:53:27
0.996999979019165,42.3738108506197,-70.9933848257707,-1.44913196563721,2012-02-01 18:53:28
1.01300001144409,42.3738144141396,-70.9933674398796,-1.30185508728027,2012-02-01 18:53:29
1.00799989700317,42.373814503834,-70.9933670125418,-1.2950404882431,2012-02-01 18:53:30
1.00699996948242,42.373814503834,-70.9933670125418,-1.2950404882431,2012-02-01 18:53:31
1.0770001411438,42.373814503834,-70.9933670125418,-1.2950404882431,2012-02-01 18:53:32
0.93399977684021,42.373814503834,-70.9933670125418,-1.2950404882431,2012-02-01 18:53:33
1.00999999046326,42.373814503834,-70.9933670125418,-1.2950404882431,2012-02-01 18:53:34
1.007000207901,42.373814503834,-70.9933670125418,-1.2950404882431,2012-02-01 18:53:35
1.00799989700317,42.373814503834,-70.9933670125418,-1.2950404882431,2012-02-01 18:53:36
1.00600004196167,42.373814503834,-70.9933670125418,-1.2950404882431,2012-02-01 18:53:37
1.00799989700317,42.373814503834,-70.9933670125418,-1.2950404882431,2012-02-01 18:53:38
1.00600004196167,42.373814503834,-70.9933670125418,-1.2950404882431,2012-02-01 18:53:39
1.00500011444092,42.373814503834,-70.9933670125418,-1.2950404882431,2012-02-01 18:53:40
1.01699995994568,42.373814503834,-70.9933670125418,-1.2950404882431,2012-02-01 18:53:41
0.997999906539917,42.373814503834,-70.9933670125418,-1.2950404882431,2012-02-01 18:53:42
1.00800013542175,42.373814503834,-70.9933670125418,-1.2950404882431,2012-02-01 18:53:43
1.01099991798401,42.373814503834,-70.9933670125418,-1.2950404882431,2012-02-01 18:53:44
1.00799989700317,42.373814503834,-70.9933670125418,-1.2950404882431,2012-02-01 18:53:45
1.04200005531311,42.373817097381,-70.9933544606687,-1.15065777301788,2012-02-01 18:53:46
1.0090000629425,42.373817097381,-70.9933544606687,-1.15065777301788,2012-02-01 18:53:47
0.979000091552734,42.373817097381,-70.9933544606687,-1.15065777301788,2012-02-01 18:53:48
1.00399994850159,42.373817097381,-70.9933544606687,-1.15065777301788,2012-02-01 18:53:49
1.00799989700317,42.373817097381,-70.9933544606687,-1.15065777301788,2012-02-01 18:53:50
1.00800013542175,42.373817097381,-70.9933544606687,-1.15065777301788,2012-02-01 18:53:51
1.00799989700317,42.373817097381,-70.9933544606687,-1.15065777301788,2012-02-01 18:53:52
1.00500011444092,42.373817097381,-70.9933544606687,-1.15065777301788,2012-02-01 18:53:53
1.00999999046326,42.373817097381,-70.9933544606687,-1.15065777301788,2012-02-01 18:53:54
1.00699996948242,42.373817097381,-70.9933544606687,-1.15065777301788,2012-02-01 18:53:55
1.08099985122681,42.373817097381,-70.9933544606687,-1.15065777301788,2012-02-01 18:53:56
0.937000036239624,42.3738144970734,-70.9933676270065,-1.07460379600525,2012-02-01 18:53:57
1.0090000629425,42.3738143508399,-70.9933683638794,-1.07116663455963,2012-02-01 18:53:58
1.00799989700317,42.3738143508399,-70.9933683638794,-1.07116663455963,2012-02-01 18:53:59
1.00999999046326,42.3738139541232,-70.9933703560989,-1.06382465362549,2012-02-01 18:54:00
1.01500010490417,42.3738136592038,-70.9933710279124,-1.06293499469757,2012-02-01 18:54:01
0.999000072479248,42.3738129404123,-70.9933711802907,-1.06489527225494,2012-02-01 18:54:02
1.00699996948242,42.3738128484503,-70.9933716442438,-1.06311631202698,2012-02-01 18:54:03
1.01099991798401,42.3738127049473,-70.9933723668254,-1.06073486804962,2012-02-01 18:54:04
1.00600004196167,42.3738125365375,-70.9933732101039,-1.05943644046783,2012-02-01 18:54:05
1.00699996948242,42.3738123840832,-70.9933739762749,-1.05718398094177,2012-02-01 18:54:06
1.00800013542175,42.373812005303,-70.9933745941347,-1.05768585205078,2012-02-01 18:54:07
1.00699996948242,42.373811938679,-70.9933749290577,-1.05684316158295,2012-02-01 18:54:08
1.00300002098083,42.3738118913302,-70.9933751663787,-1.05693519115448,2012-02-01 18:54:09
1.00899982452393,42.3738117488924,-70.9933758850781,-1.05433893203735,2012-02-01 18:54:10
1.00699996948242,42.3738117363446,-70.9933759565478,-1.05219662189484,2012-02-01 18:54:11
1.05599999427795,42.3738117363446,-70.9933759565478,-1.05219662189484,2012-02-01 18:54:12
1.007000207901,42.3738114956312,-70.9933771728154,-1.04702913761139,2012-02-01 18:54:14
1.00999999046326,42.3738114029591,-70.9933776419924,-1.04510891437531,2012-02-01 18:54:15
1.00699996948242,42.3738112114925,-70.9933786054758,-1.04304945468903,2012-02-01 18:54:16
1.00999999046326,42.3738112114925,-70.9933786054758,-1.04304945468903,2012-02-01 18:54:17
1.00399994850159,42.3738112114925,-70.9933786054758,-1.04304945468903,2012-02-01 18:54:18
1.0090000629425,42.3738112114925,-70.9933786054758,-1.04304945468903,2012-02-01 18:54:19
1.00799989700317,42.3738112114925,-70.9933786054758,-1.04304945468903,2012-02-01 18:54:20
1.01200008392334,42.3738109678867,-70.9933799008929,-1.01528072357178,2012-02-01 18:54:21
1.00300002098083,42.3738171393063,-70.9933828351173,-0.684883713722229,2012-02-01 18:54:22
1.01300001144409,42.3738215745208,-70.9933845024227,-0.442657291889191,2012-02-01 18:54:23
1.00600004196167,42.3738255414907,-70.9933861240275,-0.211468741297722,2012-02-01 18:54:24
1.00899982452393,42.3738300180823,-70.9933870035047,0.0319546349346638,2012-02-01 18:54:25
1.00300002098083,42.3738340084344,-70.9933881395099,0.245366141200066,2012-02-01 18:54:26
1.00699996948242,42.3738380423981,-70.9933902120003,0.483706712722778,2012-02-01 18:54:27
1.0090000629425,42.3738420447967,-70.9933920319371,0.699396133422852,2012-02-01 18:54:28
1.00600004196167,42.373846368739,-70.9933928211075,0.924919068813324,2012-02-01 18:54:29
1.0090000629425,42.3738488316295,-70.993394238596,1.05936932563782,2012-02-01 18:54:30
1.00799989700317,42.3738486621196,-70.993395093777,1.06321799755096,2012-02-01 18:54:31
1.0090000629425,42.3738486621196,-70.993395093777,1.06321799755096,2012-02-01 18:54:32
1.00499987602234,42.3738486621196,-70.993395093777,1.06321799755096,2012-02-01 18:54:33
1.01600003242493,42.3738486621196,-70.993395093777,1.06321799755096,2012-02-01 18:54:34
0.998000144958496,42.3738486621196,-70.993395093777,1.06321799755096,2012-02-01 18:54:35
1.00999999046326,42.3738486621196,-70.993395093777,1.06321799755096,2012-02-01 18:54:36
1.00499987602234,42.3738486621196,-70.993395093777,1.06321799755096,2012-02-01 18:54:37
1.00600004196167,42.3738486621196,-70.993395093777,1.06321799755096,2012-02-01 18:54:38
1.00799989700317,42.3738486621196,-70.993395093777,1.06321799755096,2012-02-01 18:54:39
1.00600004196167,42.3738486621196,-70.993395093777,1.06321799755096,2012-02-01 18:54:40
1.0090000629425,42.3738486621196,-70.993395093777,1.06321799755096,2012-02-01 18:54:41
1.01300001144409,42.3738486621196,-70.993395093777,1.06321799755096,2012-02-01 18:54:42
1.00399994850159,42.3738486621196,-70.993395093777,1.06321799755096,2012-02-01 18:54:43
1.00800013542175,42.3738486621196,-70.993395093777,1.06321799755096,2012-02-01 18:54:44
1.00599980354309,42.3738486621196,-70.993395093777,1.06321799755096,2012-02-01 18:54:45
1.00500011444092,42.3738486621196,-70.993395093777,1.06321799755096,2012-02-01 18:54:46
1.05900001525879,42.3738486621196,-70.993395093777,1.06321799755096,2012-02-01 18:54:47
0.953999996185303,42.3738486621196,-70.993395093777,1.06321799755096,2012-02-01 18:54:48
1.00699996948242,42.3738486621196,-70.993395093777,1.06321799755096,2012-02-01 18:54:49
1.01099991798401,42.3738486621196,-70.993395093777,1.06321799755096,2012-02-01 18:54:50
1.00500011444092,42.3738486621196,-70.993395093777,1.06321799755096,2012-02-01 18:54:51
1.13299989700317,42.3738486621196,-70.993395093777,1.06321799755096,2012-02-01 18:54:52
0.932000160217285,42.3738486621196,-70.993395093777,1.06321799755096,2012-02-01 18:54:53
1.00699996948242,42.3738486621196,-70.993395093777,1.06321799755096,2012-02-01 18:54:54
1.01300001144409,42.3738486621196,-70.993395093777,1.06321799755096,2012-02-01 18:54:55
1.00999999046326,42.3738486621196,-70.993395093777,1.06321799755096,2012-02-01 18:54:56
1.00600004196167,42.3738486621196,-70.993395093777,1.06321799755096,2012-02-01 18:54:57
1.00599980354309,42.3738486621196,-70.993395093777,1.06321799755096,2012-02-01 18:54:58
2.01699995994568,42.3738486621196,-70.993395093777,1.06321799755096,2012-02-01 18:55:00
1.00200009346008,42.3738486621196,-70.993395093777,1.06321799755096,2012-02-01 18:55:01
1.01200008392334,42.3738486621196,-70.993395093777,1.06321799755096,2012-02-01 18:55:02
1.00099992752075,42.3738486621196,-70.993395093777,1.06321799755096,2012-02-01 18:55:03
1.00699996948242,42.3738486621196,-70.993395093777,1.06321799755096,2012-02-01 18:55:04
2.01600003242493,42.3738486621196,-70.993395093777,1.06321799755096,2012-02-01 18:55:06
1.08500003814697,42.3738486621196,-70.993395093777,1.06321799755096,2012-02-01 18:55:07
0.928999900817871,42.3738486621196,-70.993395093777,1.06321799755096,2012-02-01 18:55:08
1.00699996948242,42.3738486621196,-70.993395093777,1.06321799755096,2012-02-01 18:55:09
1.00800013542175,42.3738486621196,-70.993395093777,1.06321799755096,2012-02-01 18:55:10
2.01399993896484,42.3738486621196,-70.993395093777,1.06321799755096,2012-02-01 18:55:12
1.00600004196167,42.3738486621196,-70.993395093777,1.06321799755096,2012-02-01 18:55:13
1.01200008392334,42.3738486621196,-70.993395093777,1.06321799755096,2012-02-01 18:55:14
1.00699996948242,42.3738486621196,-70.993395093777,1.06321799755096,2012-02-01 18:55:15
1.00499987602234,42.3738486621196,-70.993395093777,1.06321799755096,2012-02-01 18:55:16
1.01200008392334,42.3738486621196,-70.993395093777,1.06321799755096,2012-02-01 18:55:17
1.0090000629425,42.3738486621196,-70.993395093777,1.06321799755096,2012-02-01 18:55:18
1.00799989700317,42.3738486621196,-70.993395093777,1.06321799755096,2012-02-01 18:55:19
1.05599999427795,42.3738486621196,-70.993395093777,1.06321799755096,2012-02-01 18:55:20
0.962000131607056,42.3738486621196,-70.993395093777,1.06321799755096,2012-02-01 18:55:21
1.01099991798401,42.3738486621196,-70.993395093777,1.06321799755096,2012-02-01 18:55:22
1.00300002098083,42.3738486621196,-70.993395093777,1.06321799755096,2012-02-01 18:55:23
1.00699996948242,42.3738486621196,-70.993395093777,1.06321799755096,2012-02-01 18:55:24
1.03200006484985,42.3738486621196,-70.993395093777,1.06321799755096,2012-02-01 18:55:25
0.982999801635742,42.3738486621196,-70.993395093777,1.06321799755096,2012-02-01 18:55:26
1.00800013542175,42.3738486621196,-70.993395093777,1.06321799755096,2012-02-01 18:55:27
1.00999999046326,42.3738486621196,-70.993395093777,1.06321799755096,2012-02-01 18:55:28
1.0090000629425,42.3738486621196,-70.993395093777,1.06321799755096,2012-02-01 18:55:29
1.00300002098083,42.3738486621196,-70.993395093777,1.06321799755096,2012-02-01 18:55:30
1.00699996948242,42.3738486621196,-70.993395093777,1.06321799755096,2012-02-01 18:55:31
1.00799989700317,42.3738486621196,-70.993395093777,1.06321799755096,2012-02-01 18:55:32
1.00999999046326,42.3738486621196,-70.993395093777,1.06321799755096,2012-02-01 18:55:33
1.00500011444092,42.3738486621196,-70.993395093777,1.06321799755096,2012-02-01 18:55:34
1.06299996376038,42.3738486621196,-70.993395093777,1.06321799755096,2012-02-01 18:55:35
1.03399991989136,42.3738486621196,-70.993395093777,1.06321799755096,2012-02-01 18:55:36
0.924999952316284,42.3738486621196,-70.993395093777,1.06321799755096,2012-02-01 18:55:37
1.00999999046326,42.3738486621196,-70.993395093777,1.06321799755096,2012-02-01 18:55:38
1.04300022125244,42.3738486621196,-70.993395093777,1.06321799755096,2012-02-01 18:55:39
0.977999925613403,42.3738486621196,-70.993395093777,1.06321799755096,2012-02-01 18:55:40
1.0090000629425,42.3738486621196,-70.993395093777,1.06321799755096,2012-02-01 18:55:41
1.00599980354309,42.3738486621196,-70.993395093777,1.06321799755096,2012-02-01 18:55:42
1.01700019836426,42.3738486621196,-70.993395093777,1.06321799755096,2012-02-01 18:55:43
1.0019998550415,42.3738486621196,-70.993395093777,1.06321799755096,2012-02-01 18:55:44
1.00500011444092,42.3738486621196,-70.993395093777,1.06321799755096,2012-02-01 18:55:45
1.00600004196167,42.3738486621196,-70.993395093777,1.06321799755096,2012-02-01 18:55:46
1.00699996948242,42.3738486621196,-70.993395093777,1.06321799755096,2012-02-01 18:55:47
1.01099991798401,42.3738486621196,-70.993395093777,1.06321799755096,2012-02-01 18:55:48
1.00699996948242,42.3738486621196,-70.993395093777,1.06321799755096,2012-02-01 18:55:49
1.00600004196167,42.3738486621196,-70.993395093777,1.06321799755096,2012-02-01 18:55:50
1.06500005722046,42.3738486621196,-70.993395093777,1.06321799755096,2012-02-01 18:55:51
1.01199984550476,42.3738486621196,-70.993395093777,1.06321799755096,2012-02-01 18:55:52
0.949000120162964,42.3738486621196,-70.993395093777,1.06321799755096,2012-02-01 18:55:53
1.00600004196167,42.3738486621196,-70.993395093777,1.06321799755096,2012-02-01 18:55:54
1.01099991798401,42.3738486621196,-70.993395093777,1.06321799755096,2012-02-01 18:55:55
1.00699996948242,42.3738486621196,-70.993395093777,1.06321799755096,2012-02-01 18:55:56
1.00699996948242,42.3738486621196,-70.993395093777,1.06321799755096,2012-02-01 18:55:57
1.01200008392334,42.3738486621196,-70.993395093777,1.06321799755096,2012-02-01 18:55:58
1.00499987602234,42.3738486621196,-70.993395093777,1.06321799755096,2012-02-01 18:55:59
1.007000207901,42.3738486621196,-70.993395093777,1.06321799755096,2012-02-01 18:56:00
1.00699996948242,42.3738486621196,-70.993395093777,1.06321799755096,2012-02-01 18:56:01
1.00799989700317,42.3738486621196,-70.993395093777,1.06321799755096,2012-02-01 18:56:02
1.01200008392334,42.3738486621196,-70.993395093777,1.06321799755096,2012-02-01 18:56:03
1.00799989700317,42.3738486621196,-70.993395093777,1.06321799755096,2012-02-01 18:56:04
1.00600004196167,42.3738486621196,-70.993395093777,1.06321799755096,2012-02-01 18:56:05
1.0090000629425,42.3738486621196,-70.993395093777,1.06321799755096,2012-02-01 18:56:06
1.01099991798401,42.3738486621196,-70.993395093777,1.06321799755096,2012-02-01 18:56:07
1.0090000629425,42.3738486621196,-70.993395093777,1.06321799755096,2012-02-01 18:56:08
1.00999999046326,42.3738486621196,-70.993395093777,1.06321799755096,2012-02-01 18:56:09
1.00699996948242,42.3738486621196,-70.993395093777,1.06321799755096,2012-02-01 18:56:10
1.00999999046326,42.3738486621196,-70.993395093777,1.06321799755096,2012-02-01 18:56:11
1.00799989700317,42.3738486621196,-70.993395093777,1.06321799755096,2012-02-01 18:56:12
1.01200008392334,42.3738486621196,-70.993395093777,1.06321799755096,2012-02-01 18:56:13
1.00399994850159,42.3738486621196,-70.993395093777,1.06321799755096,2012-02-01 18:56:14
1.00600004196167,42.3738486621196,-70.993395093777,1.06321799755096,2012-02-01 18:56:15
1.0090000629425,42.3738486621196,-70.993395093777,1.06321799755096,2012-02-01 18:56:17
1.00600004196167,42.3738486621196,-70.993395093777,1.06321799755096,2012-02-01 18:56:18
1.00499987602234,42.3738486621196,-70.993395093777,1.06321799755096,2012-02-01 18:56:19
1.00800013542175,42.3738486621196,-70.993395093777,1.06321799755096,2012-02-01 18:56:20
1.00599980354309,42.3738486621196,-70.993395093777,1.06321799755096,2012-02-01 18:56:21
1.00600004196167,42.3738486621196,-70.993395093777,1.06321799755096,2012-02-01 18:56:22
1.0090000629425,42.3738486621196,-70.993395093777,1.06321799755096,2012-02-01 18:56:23
1.06900000572205,42.3738486621196,-70.993395093777,1.06321799755096,2012-02-01 18:56:24
0.953000068664551,42.3738486621196,-70.993395093777,1.06321799755096,2012-02-01 18:56:25
1.00799989700317,42.3738486621196,-70.993395093777,1.06321799755096,2012-02-01 18:56:26
1.00699996948242,42.3738486621196,-70.993395093777,1.06321799755096,2012-02-01 18:56:27
1.00999999046326,42.3738486621196,-70.993395093777,1.06321799755096,2012-02-01 18:56:28
1.00400018692017,42.3738486621196,-70.993395093777,1.06321799755096,2012-02-01 18:56:29
1.01099991798401,42.3738486621196,-70.993395093777,1.06321799755096,2012-02-01 18:56:30
1.00799989700317,42.3738486621196,-70.993395093777,1.06321799755096,2012-02-01 18:56:31
1.0090000629425,42.3738486621196,-70.993395093777,1.06321799755096,2012-02-01 18:56:32
1.00500011444092,42.3738486621196,-70.993395093777,1.06321799755096,2012-02-01 18:56:33
1.00799989700317,42.3738486621196,-70.993395093777,1.06321799755096,2012-02-01 18:56:34
1.00799989700317,42.3738486621196,-70.993395093777,1.06321799755096,2012-02-01 18:56:35
1.00999999046326,42.3738486621196,-70.993395093777,1.06321799755096,2012-02-01 18:56:36
1.00500011444092,42.3738486621196,-70.993395093777,1.06321799755096,2012-02-01 18:56:37
1.00699996948242,42.3738486621196,-70.993395093777,1.06321799755096,2012-02-01 18:56:38
1.00500011444092,42.3738486621196,-70.993395093777,1.06321799755096,2012-02-01 18:56:39
1.05799984931946,42.3738486621196,-70.993395093777,1.06321799755096,2012-02-01 18:56:40
1.00600004196167,42.3738486621196,-70.993395093777,1.06321799755096,2012-02-01 18:56:41
1.00800013542175,42.3738486621196,-70.993395093777,1.06321799755096,2012-02-01 18:56:42
1.00699996948242,42.3738486621196,-70.993395093777,1.06321799755096,2012-02-01 18:56:43
1.00600004196167,42.3738486621196,-70.993395093777,1.06321799755096,2012-02-01 18:56:44
1.00799989700317,42.3738486621196,-70.993395093777,1.06321799755096,2012-02-01 18:56:45
1.00699996948242,42.3738486621196,-70.993395093777,1.06321799755096,2012-02-01 18:56:46
1.00699996948242,42.3738486621196,-70.993395093777,1.06321799755096,2012-02-01 18:56:47
1.00600004196167,42.3738486621196,-70.993395093777,1.06321799755096,2012-02-01 18:56:48
1.00999999046326,42.3738486621196,-70.993395093777,1.06321799755096,2012-02-01 18:56:49
1.00500011444092,42.3738486621196,-70.993395093777,1.06321799755096,2012-02-01 18:56:50
1.00599980354309,42.3738486621196,-70.993395093777,1.06321799755096,2012-02-01 18:56:51
1.007000207901,42.3738486621196,-70.993395093777,1.06321799755096,2012-02-01 18:56:52
1.00599980354309,42.3738486621196,-70.993395093777,1.06321799755096,2012-02-01 18:56:53
1.00800013542175,42.3738486621196,-70.993395093777,1.06321799755096,2012-02-01 18:56:54
1.00799989700317,42.3738486621196,-70.993395093777,1.06321799755096,2012-02-01 18:56:55
1.00600004196167,42.3738486621196,-70.993395093777,1.06321799755096,2012-02-01 18:56:56
1.0090000629425,42.3738486621196,-70.993395093777,1.06321799755096,2012-02-01 18:56:57
1.0090000629425,42.3738486621196,-70.993395093777,1.06321799755096,2012-02-01 18:56:58
2.01699995994568,42.3738486621196,-70.993395093777,1.06321799755096,2012-02-01 18:57:00
1.00499987602234,42.3738486621196,-70.993395093777,1.06321799755096,2012-02-01 18:57:01
1.00600004196167,42.3738486621196,-70.993395093777,1.06321799755096,2012-02-01 18:57:02
1.01200008392334,42.3738486621196,-70.993395093777,1.06321799755096,2012-02-01 18:57:03
1.00899982452393,42.3738486621196,-70.993395093777,1.06321799755096,2012-02-01 18:57:04
2.01500010490417,42.3738486621196,-70.993395093777,1.06321799755096,2012-02-01 18:57:06
1.00699996948242,42.3738486621196,-70.993395093777,1.06321799755096,2012-02-01 18:57:07
1.00699996948242,42.3738486621196,-70.993395093777,1.06321799755096,2012-02-01 18:57:08
1.00999999046326,42.3738486621196,-70.993395093777,1.06321799755096,2012-02-01 18:57:09
1.00500011444092,42.3738486621196,-70.993395093777,1.06321799755096,2012-02-01 18:57:10
2.0149998664856,42.3738486621196,-70.993395093777,1.06321799755096,2012-02-01 18:57:12
1.00999999046326,42.3738486621196,-70.993395093777,1.06321799755096,2012-02-01 18:57:13
1.00800013542175,42.3738486621196,-70.993395093777,1.06321799755096,2012-02-01 18:57:14
1.00600004196167,42.3738486621196,-70.993395093777,1.06321799755096,2012-02-01 18:57:15
1.00799989700317,42.3738486621196,-70.993395093777,1.06321799755096,2012-02-01 18:57:16
1.01300001144409,42.3738486621196,-70.993395093777,1.06321799755096,2012-02-01 18:57:17
1,42.3738486621196,-70.993395093777,1.06321799755096,2012-02-01 18:57:18
1.01699995994568,42.3738486621196,-70.993395093777,1.06321799755096,2012-02-01 18:57:19
0.998000144958496,42.3738486621196,-70.993395093777,1.06321799755096,2012-02-01 18:57:20
1.00799989700317,42.3738486621196,-70.993395093777,1.06321799755096,2012-02-01 18:57:21
1.0789999961853,42.3738486621196,-70.993395093777,1.06321799755096,2012-02-01 18:57:22
0.937999963760376,42.3738486621196,-70.993395093777,1.06321799755096,2012-02-01 18:57:23
1.00500011444092,42.3738486621196,-70.993395093777,1.06321799755096,2012-02-01 18:57:24
1.00999999046326,42.3738486621196,-70.993395093777,1.06321799755096,2012-02-01 18:57:25
1.00799989700317,42.3738486621196,-70.993395093777,1.06321799755096,2012-02-01 18:57:26
1.01800012588501,42.3738486621196,-70.993395093777,1.06321799755096,2012-02-01 18:57:27
0.995999813079834,42.3738486621196,-70.993395093777,1.06321799755096,2012-02-01 18:57:28
1.007000207901,42.3738486621196,-70.993395093777,1.06321799755096,2012-02-01 18:57:29
1.00999999046326,42.3738486621196,-70.993395093777,1.06321799755096,2012-02-01 18:57:30
1.05399990081787,42.3738486621196,-70.993395093777,1.06321799755096,2012-02-01 18:57:31
1.03500008583069,42.3738486621196,-70.993395093777,1.06321799755096,2012-02-01 18:57:32
0.942999839782715,42.3738486621196,-70.993395093777,1.06321799755096,2012-02-01 18:57:33
0.996000051498413,42.3738486621196,-70.993395093777,1.06321799755096,2012-02-01 18:57:34
1.0550000667572,42.3738486621196,-70.993395093777,1.06321799755096,2012-02-01 18:57:35
1.0090000629425,42.3738486621196,-70.993395093777,1.06321799755096,2012-02-01 18:57:36
1.00899982452393,42.3738486621196,-70.993395093777,1.06321799755096,2012-02-01 18:57:37
1.0090000629425,42.3738486621196,-70.993395093777,1.06321799755096,2012-02-01 18:57:38
1.0090000629425,42.3738486621196,-70.993395093777,1.06321799755096,2012-02-01 18:57:39
1.02900004386902,42.3738486621196,-70.993395093777,1.06321799755096,2012-02-01 18:57:40
0.980999946594238,42.3738486621196,-70.993395093777,1.06321799755096,2012-02-01 18:57:41
1.0090000629425,42.3738486621196,-70.993395093777,1.06321799755096,2012-02-01 18:57:42
1.00599980354309,42.3738486621196,-70.993395093777,1.06321799755096,2012-02-01 18:57:43
1.00600004196167,42.3738486621196,-70.993395093777,1.06321799755096,2012-02-01 18:57:44
1.00500011444092,42.3738486621196,-70.993395093777,1.06321799755096,2012-02-01 18:57:45
1.00799989700317,42.3738486621196,-70.993395093777,1.06321799755096,2012-02-01 18:57:46
1.00699996948242,42.3738486621196,-70.993395093777,1.06321799755096,2012-02-01 18:57:47
1.0090000629425,42.3738486621196,-70.993395093777,1.06321799755096,2012-02-01 18:57:48
1.00999999046326,42.3738486621196,-70.993395093777,1.06321799755096,2012-02-01 18:57:49
1.00600004196167,42.3738486621196,-70.993395093777,1.06321799755096,2012-02-01 18:57:50
1.0090000629425,42.3738486621196,-70.993395093777,1.06321799755096,2012-02-01 18:57:51
1.00599980354309,42.3738486621196,-70.993395093777,1.06321799755096,2012-02-01 18:57:52
1.00800013542175,42.3738486621196,-70.993395093777,1.06321799755096,2012-02-01 18:57:53
1.00600004196167,42.3738486621196,-70.993395093777,1.06321799755096,2012-02-01 18:57:54
1.05200004577637,42.3738486621196,-70.993395093777,1.06321799755096,2012-02-01 18:57:55
0.962999820709229,42.3738486621196,-70.993395093777,1.06321799755096,2012-02-01 18:57:56
1.00800013542175,42.3738486621196,-70.993395093777,1.06321799755096,2012-02-01 18:57:57
1.00699996948242,42.3738486621196,-70.993395093777,1.06321799755096,2012-02-01 18:57:58
1.00699996948242,42.3738486621196,-70.993395093777,1.06321799755096,2012-02-01 18:57:59
1.00799989700317,42.3738486621196,-70.993395093777,1.06321799755096,2012-02-01 18:58:00
1.00800013542175,42.3738486621196,-70.993395093777,1.06321799755096,2012-02-01 18:58:01
1.00600004196167,42.3738486621196,-70.993395093777,1.06321799755096,2012-02-01 18:58:02
1.00899982452393,42.3738486621196,-70.993395093777,1.06321799755096,2012-02-01 18:58:03
1.00800013542175,42.3738486621196,-70.993395093777,1.06321799755096,2012-02-01 18:58:04
1.00799989700317,42.3738486621196,-70.993395093777,1.06321799755096,2012-02-01 18:58:05
1.0090000629425,42.3738486621196,-70.993395093777,1.06321799755096,2012-02-01 18:58:06
1.02600002288818,42.3738486621196,-70.993395093777,1.06321799755096,2012-02-01 18:58:07
0.99399995803833,42.3738486621196,-70.993395093777,1.06321799755096,2012-02-01 18:58:08
1.01099991798401,42.3738486621196,-70.993395093777,1.06321799755096,2012-02-01 18:58:09
1.0220000743866,42.3738486621196,-70.993395093777,1.06321799755096,2012-02-01 18:58:10
0.986999988555908,42.3738486621196,-70.993395093777,1.06321799755096,2012-02-01 18:58:11
1.01200008392334,42.3738486621196,-70.993395093777,1.06321799755096,2012-02-01 18:58:12
1.0090000629425,42.3738486621196,-70.993395093777,1.06321799755096,2012-02-01 18:58:13
1.01199984550476,42.3738486621196,-70.993395093777,1.06321799755096,2012-02-01 18:58:14
1.0090000629425,42.3738486621196,-70.993395093777,1.06321799755096,2012-02-01 18:58:16
1.00600004196167,42.3738486621196,-70.993395093777,1.06321799755096,2012-02-01 18:58:17
1.00899982452393,42.3738486621196,-70.993395093777,1.06321799755096,2012-02-01 18:58:18
1.0090000629425,42.3738486621196,-70.993395093777,1.06321799755096,2012-02-01 18:58:19
1.00800013542175,42.3738486621196,-70.993395093777,1.06321799755096,2012-02-01 18:58:20
1.00799989700317,42.3738486621196,-70.993395093777,1.06321799755096,2012-02-01 18:58:21
1.0220000743866,42.3738486621196,-70.993395093777,1.06321799755096,2012-02-01 18:58:22
0.994999885559082,42.3738486621196,-70.993395093777,1.06321799755096,2012-02-01 18:58:23
1.00800013542175,42.3738486621196,-70.993395093777,1.06321799755096,2012-02-01 18:58:24
1.00899982452393,42.3738486621196,-70.993395093777,1.06321799755096,2012-02-01 18:58:25
1.03299999237061,42.3738486621196,-70.993395093777,1.06321799755096,2012-02-01 18:58:26
0.986999988555908,42.3738486621196,-70.993395093777,1.06321799755096,2012-02-01 18:58:27
1.007000207901,42.3738486621196,-70.993395093777,1.06321799755096,2012-02-01 18:58:28
1.00699996948242,42.3738486621196,-70.993395093777,1.06321799755096,2012-02-01 18:58:29
1.00600004196167,42.3738486621196,-70.993395093777,1.06321799755096,2012-02-01 18:58:30
1.00799989700317,42.3738486621196,-70.993395093777,1.06321799755096,2012-02-01 18:58:31
1.00300002098083,42.3738486621196,-70.993395093777,1.06321799755096,2012-02-01 18:58:32
1.00799989700317,42.3738486621196,-70.993395093777,1.06321799755096,2012-02-01 18:58:33
1.0090000629425,42.3738486621196,-70.993395093777,1.06321799755096,2012-02-01 18:58:34
1.01099991798401,42.3738486621196,-70.993395093777,1.06321799755096,2012-02-01 18:58:35
1.007000207901,42.3738486621196,-70.993395093777,1.06321799755096,2012-02-01 18:58:36
1.00699996948242,42.3738486621196,-70.993395093777,1.06321799755096,2012-02-01 18:58:37
1.00899982452393,42.3738486621196,-70.993395093777,1.06321799755096,2012-02-01 18:58:38
1.01100015640259,42.3738486621196,-70.993395093777,1.06321799755096,2012-02-01 18:58:39
1.00899982452393,42.3738486621196,-70.993395093777,1.06321799755096,2012-02-01 18:58:40
1.00600004196167,42.3738486621196,-70.993395093777,1.06321799755096,2012-02-01 18:58:41
1.0090000629425,42.3738486621196,-70.993395093777,1.06321799755096,2012-02-01 18:58:42
1.0090000629425,42.3738486621196,-70.993395093777,1.06321799755096,2012-02-01 18:58:43
1.0090000629425,42.3738486621196,-70.993395093777,1.06321799755096,2012-02-01 18:58:44
1.00899982452393,42.3738486621196,-70.993395093777,1.06321799755096,2012-02-01 18:58:45
1.00999999046326,42.3738486621196,-70.993395093777,1.06321799755096,2012-02-01 18:58:46
1.00600004196167,42.3738486621196,-70.993395093777,1.06321799755096,2012-02-01 18:58:47
1.00600004196167,42.3738486621196,-70.993395093777,1.06321799755096,2012-02-01 18:58:48
1.01099991798401,42.3738486621196,-70.993395093777,1.06321799755096,2012-02-01 18:58:49
1.00699996948242,42.3738486621196,-70.993395093777,1.06321799755096,2012-02-01 18:58:50
1.00600004196167,42.3738486621196,-70.993395093777,1.06321799755096,2012-02-01 18:58:51
1.00699996948242,42.3738486621196,-70.993395093777,1.06321799755096,2012-02-01 18:58:52
1.00800013542175,42.3738486621196,-70.993395093777,1.06321799755096,2012-02-01 18:58:53
1.00799989700317,42.3738486621196,-70.993395093777,1.06321799755096,2012-02-01 18:58:54
1.00999999046326,42.3738486621196,-70.993395093777,1.06321799755096,2012-02-01 18:58:55
1.00500011444092,42.3738486621196,-70.993395093777,1.06321799755096,2012-02-01 18:58:56
1.01399993896484,42.3738486621196,-70.993395093777,1.06321799755096,2012-02-01 18:58:57
2.02600002288818,42.3738486621196,-70.993395093777,1.06321799755096,2012-02-01 18:58:59
0.990000009536743,42.3738486621196,-70.993395093777,1.06321799755096,2012-02-01 18:59:00
1.00999999046326,42.3738486621196,-70.993395093777,1.06321799755096,2012-02-01 18:59:01
1.0090000629425,42.3738486621196,-70.993395093777,1.06321799755096,2012-02-01 18:59:02
1.00399994850159,42.3738486621196,-70.993395093777,1.06321799755096,2012-02-01 18:59:03
1.00699996948242,42.3738486621196,-70.993395093777,1.06321799755096,2012-02-01 18:59:04
2.0090000629425,42.3738486621196,-70.993395093777,1.06321799755096,2012-02-01 18:59:06
1.06099987030029,42.3738486621196,-70.993395093777,1.06321799755096,2012-02-01 18:59:07
1.0090000629425,42.3738486621196,-70.993395093777,1.06321799755096,2012-02-01 18:59:08
1.00600004196167,42.3738486621196,-70.993395093777,1.06321799755096,2012-02-01 18:59:09
1.00799989700317,42.3738486621196,-70.993395093777,1.06321799755096,2012-02-01 18:59:10
1.00699996948242,42.3738486621196,-70.993395093777,1.06321799755096,2012-02-01 18:59:11
1.00200009346008,42.3738486621196,-70.993395093777,1.06321799755096,2012-02-01 18:59:12
1.0090000629425,42.3738486621196,-70.993395093777,1.06321799755096,2012-02-01 18:59:13
1.01699995994568,42.3738486621196,-70.993395093777,1.06321799755096,2012-02-01 18:59:14
1.00200009346008,42.3738486621196,-70.993395093777,1.06321799755096,2012-02-01 18:59:15
1.00999999046326,42.3738486621196,-70.993395093777,1.06321799755096,2012-02-01 18:59:16
0.997999906539917,42.3738486621196,-70.993395093777,1.06321799755096,2012-02-01 18:59:17
1.00799989700317,42.3738486621196,-70.993395093777,1.06321799755096,2012-02-01 18:59:18
1.007000207901,42.3738486621196,-70.993395093777,1.06321799755096,2012-02-01 18:59:19
1.00799989700317,42.3738486621196,-70.993395093777,1.06321799755096,2012-02-01 18:59:20
1.00699996948242,42.3738486621196,-70.993395093777,1.06321799755096,2012-02-01 18:59:21
1.00699996948242,42.3738486621196,-70.993395093777,1.06321799755096,2012-02-01 18:59:22
1.00800013542175,42.3738486621196,-70.993395093777,1.06321799755096,2012-02-01 18:59:23
1.0239999294281,42.3738486621196,-70.993395093777,1.06321799755096,2012-02-01 18:59:24
0.989000082015991,42.3738486621196,-70.993395093777,1.06321799755096,2012-02-01 18:59:25
1.00799989700317,42.3738486621196,-70.993395093777,1.06321799755096,2012-02-01 18:59:26
1.00699996948242,42.3738486621196,-70.993395093777,1.06321799755096,2012-02-01 18:59:27
1.0090000629425,42.3738486621196,-70.993395093777,1.06321799755096,2012-02-01 18:59:28
1.01399993896484,42.3738486621196,-70.993395093777,1.06321799755096,2012-02-01 18:59:29
1.00399994850159,42.3738486621196,-70.993395093777,1.06321799755096,2012-02-01 18:59:30
1.0090000629425,42.3738486621196,-70.993395093777,1.06321799755096,2012-02-01 18:59:31
1.04800009727478,42.3738486621196,-70.993395093777,1.06321799755096,2012-02-01 18:59:32
0.964999914169312,42.3738486621196,-70.993395093777,1.06321799755096,2012-02-01 18:59:33
1.01099991798401,42.3738486621196,-70.993395093777,1.06321799755096,2012-02-01 18:59:34
1.00800013542175,42.3738486621196,-70.993395093777,1.06321799755096,2012-02-01 18:59:35
1.0090000629425,42.3738486621196,-70.993395093777,1.06321799755096,2012-02-01 18:59:36
1.00799989700317,42.3738486621196,-70.993395093777,1.06321799755096,2012-02-01 18:59:37
1.00600004196167,42.3738486621196,-70.993395093777,1.06321799755096,2012-02-01 18:59:38
1.00799989700317,42.3738486621196,-70.993395093777,1.06321799755096,2012-02-01 18:59:39
1.00800013542175,42.3738486621196,-70.993395093777,1.06321799755096,2012-02-01 18:59:40
1.00699996948242,42.3738486621196,-70.993395093777,1.06321799755096,2012-02-01 18:59:41
1.00799989700317,42.3738486621196,-70.993395093777,1.06321799755096,2012-02-01 18:59:42
1.01400017738342,42.3738486621196,-70.993395093777,1.06321799755096,2012-02-01 18:59:43
1.04999995231628,42.3738486621196,-70.993395093777,1.06321799755096,2012-02-01 18:59:44
0.960000038146973,42.3738486621196,-70.993395093777,1.06321799755096,2012-02-01 18:59:45
1.00999999046326,42.3738486621196,-70.993395093777,1.06321799755096,2012-02-01 18:59:46
1.00300002098083,42.3738486621196,-70.993395093777,1.06321799755096,2012-02-01 18:59:47
1.00799989700317,42.3738486621196,-70.993395093777,1.06321799755096,2012-02-01 18:59:48
1.00699996948242,42.3738486621196,-70.993395093777,1.06321799755096,2012-02-01 18:59:49
1.00699996948242,42.3738486621196,-70.993395093777,1.06321799755096,2012-02-01 18:59:50
1.00800013542175,42.3738486621196,-70.993395093777,1.06321799755096,2012-02-01 18:59:51
1.00699996948242,42.3738486621196,-70.993395093777,1.06321799755096,2012-02-01 18:59:52
1.00600004196167,42.3738486621196,-70.993395093777,1.06321799755096,2012-02-01 18:59:53
1.00899982452393,42.3738486621196,-70.993395093777,1.06321799755096,2012-02-01 18:59:54
1.00999999046326,42.3738486621196,-70.993395093777,1.06321799755096,2012-02-01 18:59:55
1.00699996948242,42.3738486621196,-70.993395093777,1.06321799755096,2012-02-01 18:59:56
1.00800013542175,42.3738486621196,-70.993395093777,1.06321799755096,2012-02-01 18:59:57
1.10599994659424,42.3738486621196,-70.993395093777,1.06321799755096,2012-02-01 18:59:58
0.975000143051147,42.3738486621196,-70.993395093777,1.06321799755096,2012-02-01 18:59:59
