"diffSecs","level","azimuth.mean","azimuth.absolute.deviation","azimuth.standard.deviation","azimuth.max.deviation","pitch.mean","pitch.absolute.deviation","pitch.standard.deviation","pitch.max.deviation","roll.mean","roll.absolute.deviation","roll.standard.deviation","roll.max.deviation","time"
3.50799989700317,6,9.43333339691162,0.19999997317791,0.221108302474022,0.333333164453506,20.2666664123535,0.144444361329079,0.159860864281654,0.266666740179062,-19.7000007629395,0.0333334617316723,0.0577352456748486,0.100000381469727,2012-01-17 16:48:03
0.358000040054321,99,10.0848484039307,0.211692675948143,0.281899601221085,0.815151929855347,20.4161624908447,0.112519025802612,0.139049306511879,0.383839160203934,-19.929292678833,0.105132132768631,0.138718798756599,0.470706433057785,2012-01-17 16:48:03
0.522000074386597,99,10.0181818008423,0.12800732254982,0.161034271121025,0.581818342208862,20.4737377166748,0.159228682518005,0.202302783727646,0.52626234292984,-19.9707069396973,0.117987856268883,0.151258930563927,0.529292643070221,2012-01-17 16:48:04
1.00699996948242,68,9.83382415771484,0.352422177791595,0.431348890066147,1.03382349014282,20.4897060394287,0.180666118860245,0.230816841125488,0.489706248044968,-19.81764793396,0.142214119434357,0.1662218272686,0.317647367715836,2012-01-17 16:48:05
1.00899982452393,32,9.16562557220459,0.188671782612801,0.224456787109375,0.434375196695328,20.1937503814697,0.0949219912290573,0.124843589961529,0.306249558925629,-19.7875003814697,0.097656212747097,0.126860961318016,0.31249988079071,2012-01-17 16:48:06
1.00500011444092,44,9.91136360168457,0.314875960350037,0.382703214883804,0.811363399028778,20.2613639831543,0.135847046971321,0.16126748919487,0.361364394426346,-19.754545211792,0.154958605766296,0.180220186710358,0.354546189308167,2012-01-17 16:48:07
1.00999999046326,41,9.23902416229248,0.141344517469406,0.170905858278275,0.460975259542465,20.2073173522949,0.146579533815384,0.195548474788666,0.592683613300323,-19.7536582946777,0.103747688233852,0.123164534568787,0.253659039735794,2012-01-17 16:48:08
1.36700010299683,41,9.06097602844238,0.235098093748093,0.273975282907486,0.560975790023804,20.4365863800049,0.194883942604065,0.226054251194,0.463413834571838,-19.7829265594482,0.0834026709198952,0.105697065591812,0.282927453517914,2012-01-17 16:48:09
1.00099992752075,50,9.9660005569458,0.62992000579834,0.676641702651978,1.13400018215179,20.32200050354,0.153519660234451,0.182526603341103,0.478000730276108,-19.7360000610352,0.138879865407944,0.159699603915215,0.336000680923462,2012-01-17 16:48:10
1.01300001144409,44,9.35227298736572,0.273037284612656,0.307843446731567,0.547727644443512,20.2045459747314,0.0698348581790924,0.0952380374073982,0.20454615354538,-19.625,0.114773079752922,0.138375654816628,0.324999332427979,2012-01-17 16:48:11
1.12999987602234,39,9.24871826171875,0.142669409513474,0.187933191657066,0.44871798157692,20.1769237518311,0.0654834881424904,0.0799411088228226,0.176923751831055,-19.8025646209717,0.110716134309769,0.13678927719593,0.302564471960068,2012-01-17 16:48:12
1.01800012588501,44,9.60454559326172,0.354132264852524,0.392517864704132,0.704545140266418,20.629545211792,0.238636314868927,0.27681577205658,0.529545366764069,-19.6909103393555,0.0929754301905632,0.114451743662357,0.209089979529381,2012-01-17 16:48:13
1.01999998092651,49,9.40000057220459,0.195918440818787,0.23386724293232,0.400000184774399,20.2571430206299,0.146938756108284,0.189521476626396,0.542857825756073,-19.7510204315186,0.117451123893261,0.149996519088745,0.348979353904724,2012-01-17 16:48:14
1.00099992752075,35,9.26571464538574,0.123102121055126,0.152957305312157,0.334285885095596,20.2085723876953,0.0964899584650993,0.127327471971512,0.39142832159996,-19.7028579711914,0.106612361967564,0.14037860929966,0.397142678499222,2012-01-17 16:48:15
1.13199996948242,48,9.52708339691162,0.322135418653488,0.383915960788727,0.772916615009308,20.2250003814697,0.11041659116745,0.134629026055336,0.274999529123306,-19.7749996185303,0.129166722297668,0.166458189487457,0.375000923871994,2012-01-17 16:48:17
1.01400017738342,48,9.23124980926514,0.176041722297668,0.208322942256927,0.431250065565109,20.0791664123535,0.0902780145406723,0.115395098924637,0.279165893793106,-19.6916675567627,0.0940974429249763,0.118731826543808,0.208332419395447,2012-01-17 16:48:18
1.30299997329712,35,8.94571399688721,0.176816299557686,0.220833331346512,0.645714282989502,20.4285717010498,0.144489660859108,0.174963474273682,0.428571760654449,-19.7028579711914,0.072326734662056,0.0940692573785782,0.202857866883278,2012-01-17 16:48:19
1,49,9.45102024078369,0.25614321231842,0.30647599697113,0.54897940158844,20.2979602813721,0.0926280170679092,0.123700849711895,0.2979596555233,-19.7265319824219,0.147605255246162,0.178171634674072,0.373469322919846,2012-01-17 16:48:20
1,47,9.25957489013672,0.178361341357231,0.226593285799026,0.559574842453003,20.1638298034668,0.114712759852409,0.139032542705536,0.33616977930069,-19.6468086242676,0.0988686010241508,0.118233926594257,0.253190577030182,2012-01-17 16:48:21
1.34799981117249,42,9.25714302062988,0.116326630115509,0.139970868825912,0.25714299082756,20.2071437835693,0.0761905834078789,0.0960974097251892,0.207143515348434,-19.7761917114258,0.099773220717907,0.123074561357498,0.276191025972366,2012-01-17 16:48:22
1.00999999046326,51,9.38431358337402,0.334486782550812,0.410820573568344,0.815685927867889,20.3627452850342,0.177700608968735,0.202881902456284,0.362745553255081,-19.7431373596191,0.144252210855484,0.175180479884148,0.456863135099411,2012-01-17 16:48:23
1.01300001144409,49,9.20204067230225,0.259142100811005,0.331656247377396,0.70204097032547,20.2836742401123,0.158100783824921,0.190966293215752,0.416326940059662,-19.7489795684814,0.0968762189149857,0.112707585096359,0.251019895076752,2012-01-17 16:48:24
1.01100015640259,37,9.41891956329346,0.175164237618446,0.219135656952858,0.418919116258621,20.1783790588379,0.0990506410598755,0.11656154692173,0.221620708703995,-19.7378387451172,0.100365281105042,0.123794391751289,0.262161552906036,2012-01-17 16:48:25
1.01900005340576,35,9.53714275360107,0.154612302780151,0.200122475624084,0.562857270240784,20.1142864227295,0.0751023292541504,0.0930221900343895,0.214286535978317,-19.8257141113281,0.0651421919465065,0.0768773332238197,0.174285233020782,2012-01-17 16:48:26
1.0149998664856,47,9.37659549713135,0.28574013710022,0.30681112408638,0.523404657840729,20.1255321502686,0.129289552569389,0.155013024806976,0.325531214475632,-19.7574462890625,0.121864952147007,0.137986347079277,0.257447153329849,2012-01-17 16:48:27
1.0699999332428,28,9.11428642272949,0.192857101559639,0.216653615236282,0.41428616642952,20.2214279174805,0.184693738818169,0.220967203378677,0.478571891784668,-19.7071437835693,0.0948979705572128,0.116277284920216,0.207143381237984,2012-01-17 16:48:28
1.02100014686584,54,9.39444446563721,0.349999994039536,0.414736211299896,0.905555546283722,20.4018516540527,0.168998658657074,0.217298865318298,0.498147398233414,-19.7740745544434,0.120438829064369,0.140350118279457,0.325925886631012,2012-01-17 16:48:29
1.01300001144409,47,9.18085098266602,0.111362487077713,0.140876114368439,0.319148808717728,20.2085113525391,0.0679946467280388,0.0985637605190277,0.29148867726326,-19.7595748901367,0.10430058836937,0.124899111688137,0.259575009346008,2012-01-17 16:48:30
1.01099991798401,29,9.13793087005615,0.130558714270592,0.162764400243759,0.362068861722946,20.0793113708496,0.0877530127763748,0.112585447728634,0.220690503716469,-19.8482761383057,0.112008988857269,0.13801696896553,0.251724123954773,2012-01-17 16:48:31
1.00099992752075,51,9.50196075439453,0.265051871538162,0.309008657932281,0.698038876056671,20.2294120788574,0.120876476168633,0.147254690527916,0.329412549734116,-19.8196086883545,0.119568906724453,0.14821745455265,0.380392551422119,2012-01-17 16:48:32
1.01600003242493,50,8.98600006103516,0.182559907436371,0.209771260619164,0.414000421762466,20.3579998016357,0.268319994211197,0.307304590940475,0.64199960231781,-19.7119998931885,0.113920122385025,0.135114818811417,0.287999451160431,2012-01-17 16:48:33
1.00100016593933,41,9.53658580780029,0.354550838470459,0.41833359003067,0.836585700511932,20.3585376739502,0.124568246304989,0.148119047284126,0.358536869287491,-19.7195129394531,0.123379059135914,0.154950171709061,0.319513082504272,2012-01-17 16:48:34
1,49,9.45714282989502,0.237317740917206,0.278479844331741,0.557142496109009,20.2020416259766,0.0806330218911171,0.116915784776211,0.297958642244339,-19.6306133270264,0.12069995701313,0.148741945624352,0.36938738822937,2012-01-17 16:48:35
1.00599980354309,46,9.18913078308105,0.118997991085052,0.154958978295326,0.31086939573288,20.2391300201416,0.11379949003458,0.135899871587753,0.260869145393372,-19.7565231323242,0.126653954386711,0.146928057074547,0.343478202819824,2012-01-17 16:48:36
1.01400017738342,43,9.29534912109375,0.31065446138382,0.379076927900314,0.804651379585266,20.125581741333,0.0855600535869598,0.112256281077862,0.325580775737762,-19.6581401824951,0.101352378726006,0.12052733451128,0.258140444755554,2012-01-17 16:48:37
1.02699995040894,49,9.09183692932129,0.312453210353851,0.386948734521866,0.908163070678711,20.4306125640869,0.207080438733101,0.238365352153778,0.530613005161285,-19.6204090118408,0.0984592288732529,0.12285665422678,0.320407450199127,2012-01-17 16:48:39
1.00699996948242,47,9.2446813583374,0.177999153733253,0.226733058691025,0.655319511890411,20.2042560577393,0.0864645764231682,0.114775478839874,0.295744061470032,-19.7914905548096,0.0963331907987595,0.133416160941124,0.391490340232849,2012-01-17 16:48:40
1.0090000629425,41,9.3219518661499,0.220821067690849,0.268248379230499,0.578049182891846,20.1219520568848,0.0891139060258865,0.111557349562645,0.278047978878021,-19.7585372924805,0.117668114602566,0.146463334560394,0.358537524938583,2012-01-17 16:48:41
1.00099992752075,49,9.27142906188965,0.266472309827805,0.345229864120483,0.928571045398712,20.240816116333,0.109537743031979,0.142740488052368,0.359183460474014,-19.7122459411621,0.101207874715328,0.130356937646866,0.312245815992355,2012-01-17 16:48:42
1.02600002288818,44,9.19772720336914,0.152789235115051,0.187675595283508,0.497727662324905,20.1863632202148,0.0900828316807747,0.119831219315529,0.286364525556564,-19.7386360168457,0.0984503924846649,0.119117707014084,0.261363059282303,2012-01-17 16:48:43
1.04999995231628,48,8.98333358764648,0.173611029982567,0.225770279765129,0.58333295583725,20.5520839691162,0.216232746839523,0.250823348760605,0.452083557844162,-19.6499996185303,0.108333498239517,0.136930733919144,0.349999636411667,2012-01-17 16:48:44
1.0090000629425,28,9.26071453094482,0.130867451429367,0.187729462981224,0.739285588264465,20.2035713195801,0.0905612036585808,0.120954975485802,0.303572326898575,-19.6821441650391,0.121684029698372,0.141556859016418,0.317856580018997,2012-01-17 16:48:45
1.09899997711182,46,9.32826137542725,0.367296874523163,0.438209384679794,0.871738731861115,20.2173919677734,0.138563305139542,0.165902450680733,0.382608711719513,-19.6760864257812,0.144612729549408,0.178380280733109,0.523913443088531,2012-01-17 16:48:46
1.01600003242493,46,9.31956577301025,0.225519955158234,0.296075522899628,0.619565606117249,20.223913192749,0.089981235563755,0.114559307694435,0.276086270809174,-19.8347835540771,0.147825703024864,0.177197128534317,0.434783309698105,2012-01-17 16:48:47
1.0149998664856,46,9.1260871887207,0.259924292564392,0.303196549415588,0.573912680149078,20.1913051605225,0.163138151168823,0.20089590549469,0.491304010152817,-19.75,0.139130264520645,0.163852944970131,0.350000709295273,2012-01-17 16:48:48
1.0220000743866,45,9.0311107635498,0.190419808030128,0.233640059828758,0.568889141082764,20.3044452667236,0.187357813119888,0.212869837880135,0.395555973052979,-19.7555561065674,0.0869136229157448,0.102318704128265,0.25555619597435,2012-01-17 16:48:49
1.1949999332428,41,9.16585350036621,0.181320577859879,0.224814012646675,0.634146392345428,20.1146354675293,0.0931591242551804,0.113827265799046,0.285365074872971,-19.7097568511963,0.10410487651825,0.135799318552017,0.309757083654404,2012-01-17 16:48:50
1.00800013542175,53,9.40000057220459,0.324528366327286,0.368577092885971,0.70000034570694,20.1792449951172,0.129298999905586,0.162943094968796,0.420754671096802,-19.6754722595215,0.14667159318924,0.186229452490807,0.524528741836548,2012-01-17 16:48:51
1.00799989700317,46,9.31739139556885,0.145179659128189,0.186855390667915,0.482608735561371,19.9717388153076,0.108979307115078,0.131319493055344,0.371738940477371,-19.6521739959717,0.108695983886719,0.128095254302025,0.347825586795807,2012-01-17 16:48:52
1.29699993133545,39,9.22564125061035,0.178829848766327,0.224999159574509,0.52564138174057,19.9333343505859,0.210256338119507,0.262466818094254,0.666666686534882,-19.697437286377,0.100723378360271,0.12907400727272,0.297436743974686,2012-01-17 16:48:53
1.01000022888184,51,9.40196132659912,0.29311802983284,0.389313250780106,0.998039603233337,20.0039215087891,0.153940975666046,0.202882006764412,0.596078455448151,-19.7176475524902,0.123414039611816,0.150431886315346,0.382352918386459,2012-01-17 16:48:54
1.01099991798401,46,9.43478298187256,0.236483827233315,0.316377133131027,0.765216886997223,19.8304347991943,0.0982981026172638,0.117712579667568,0.2695651948452,-19.7173919677734,0.0812856107950211,0.100659608840942,0.217392012476921,2012-01-17 16:48:55
1.01799988746643,25,9.38800048828125,0.183359995484352,0.242189928889275,0.587999999523163,20.0360012054443,0.101440243422985,0.122898504137993,0.264000862836838,-19.6240005493164,0.0966402664780617,0.13350684940815,0.375999599695206,2012-01-17 16:48:56
1.01900005340576,46,9.28913021087646,0.169281750917435,0.208752259612083,0.489130467176437,19.9369564056396,0.103308029472828,0.127447515726089,0.336956351995468,-19.7304344177246,0.110964000225067,0.141220659017563,0.330435633659363,2012-01-17 16:48:57
1.00399994850159,47,8.78510665893555,0.178813964128494,0.203144118189812,0.385106027126312,20.2361698150635,0.335989147424698,0.370408356189728,0.736170649528503,-19.8893623352051,0.110094554722309,0.1340591609478,0.310638666152954,2012-01-17 16:48:58
1,36,9.15277767181396,0.422685176134109,0.495808094739914,0.847222030162811,20.0777778625488,0.154938474297523,0.200154349207878,0.477777749300003,-19.8277778625488,0.0879623740911484,0.107007183134556,0.27222216129303,2012-01-17 16:48:59
1.00800013542175,47,9.39361763000488,0.23549123108387,0.267696470022202,0.50638335943222,19.9106388092041,0.129560634493828,0.151915267109871,0.310638308525085,-19.6723403930664,0.114984437823296,0.145430028438568,0.327659130096436,2012-01-17 16:49:00
1.01399993896484,47,9.26808547973633,0.163150876760483,0.21148556470871,0.631915330886841,19.9659576416016,0.0942508801817894,0.130915895104408,0.434042185544968,-19.68723487854,0.129017740488052,0.161925852298737,0.387233257293701,2012-01-17 16:49:01
1.01799988746643,42,9.41428565979004,0.330612272024155,0.385802507400513,0.685714483261108,20.0785713195801,0.112925417721272,0.138934373855591,0.321427881717682,-19.728572845459,0.094557873904705,0.118091411888599,0.27142795920372,2012-01-17 16:49:02
1.01600003242493,49,9.27551078796387,0.274968832731247,0.33044844865799,0.675509929656982,20.2265300750732,0.177509441971779,0.221106365323067,0.573470115661621,-19.6979598999023,0.0964600369334221,0.123701207339764,0.302040249109268,2012-01-17 16:49:03
1.01600003242493,48,9.11041641235352,0.215885326266289,0.284487515687943,0.789583742618561,20.0500011444092,0.0979169309139252,0.120761655271053,0.349999397993088,-19.6791667938232,0.0901044383645058,0.117186568677425,0.420833110809326,2012-01-17 16:49:04
1.00500011444092,42,9.2857141494751,0.222448989748955,0.269542276859283,0.714285492897034,20.2023811340332,0.13594126701355,0.162551403045654,0.302381843328476,-19.75,0.0928571671247482,0.109653055667877,0.250000596046448,2012-01-17 16:49:05
1.01300001144409,49,9.12448978424072,0.255476832389832,0.299339771270752,0.675510227680206,20.1510200500488,0.172428384423256,0.199102625250816,0.448979675769806,-19.6530609130859,0.117534525692463,0.147221967577934,0.35306054353714,2012-01-17 16:49:06
1.01300001144409,48,9.16041660308838,0.198784649372101,0.236061036586761,0.539582908153534,20.0791664123535,0.1208336353302,0.160673722624779,0.520833551883698,-19.7708339691162,0.105555586516857,0.133788198232651,0.370834201574326,2012-01-17 16:49:07
1.01300001144409,38,9.07631587982178,0.204155057668686,0.237790405750275,0.423683881759644,20.2684211730957,0.243490159511566,0.301840931177139,0.6684210896492,-19.7763156890869,0.128947153687477,0.147673323750496,0.27631613612175,2012-01-17 16:49:08
1.00599980354309,48,9.14583396911621,0.262152701616287,0.292231529951096,0.554166257381439,20.0437507629395,0.142187789082527,0.201976135373116,0.656250655651093,-19.6333332061768,0.130555808544159,0.157233193516731,0.333332538604736,2012-01-17 16:49:09
1,48,9.13749980926514,0.150520712137222,0.193245261907578,0.562499642372131,20.0395832061768,0.106250286102295,0.123726390302181,0.260417550802231,-19.7062511444092,0.0914062932133675,0.119732849299908,0.306250929832458,2012-01-17 16:49:10
1.00800013542175,39,9.07692337036133,0.125838294625282,0.157645374536514,0.376923412084579,19.9179496765137,0.0845496132969856,0.108300879597664,0.317948520183563,-19.7435913085938,0.0892835333943367,0.11046501994133,0.34359085559845,2012-01-17 16:49:11
1.1470000743866,48,9.29166698455811,0.254861086606979,0.28345575928688,0.49166664481163,19.9729175567627,0.113802067935467,0.139552220702171,0.327084183692932,-19.7375011444092,0.127083301544189,0.153602510690689,0.362499922513962,2012-01-17 16:49:13
1.01099991798401,47,8.97872352600098,0.201086416840553,0.242273107171059,0.521276414394379,20.3234043121338,0.168582752346992,0.19916070997715,0.423404932022095,-19.7531909942627,0.120687901973724,0.144179180264473,0.353192269802094,2012-01-17 16:49:14
1.4449999332428,43,9.30930233001709,0.233639791607857,0.276029884815216,0.509302198886871,19.9395351409912,0.0897781476378441,0.105960577726364,0.260465651750565,-19.8069763183594,0.0788528695702553,0.106520466506481,0.206976875662804,2012-01-17 16:49:15
1.01399993896484,52,9.34807682037354,0.252071052789688,0.299673140048981,0.748076736927032,20.0192317962646,0.0945268869400024,0.114419229328632,0.319230198860168,-19.7576923370361,0.113757334649563,0.143240109086037,0.357693195343018,2012-01-17 16:49:16
1.01999998092651,49,9.05918407440186,0.166680514812469,0.204957291483879,0.540816485881805,19.9530620574951,0.0990421772003174,0.121389970183372,0.253060549497604,-19.6979598999023,0.0844650119543076,0.115157127380371,0.297960132360458,2012-01-17 16:49:17
1.01900005340576,43,9.19999980926514,0.255813986063004,0.332012891769409,0.899999976158142,20.0813961029053,0.236776560544968,0.259924471378326,0.418604165315628,-19.7558155059814,0.0885885059833527,0.106317423284054,0.255814611911774,2012-01-17 16:49:18
1.01300001144409,49,8.88163280487061,0.165681019425392,0.204713270068169,0.418367296457291,20.0387763977051,0.136610120534897,0.156252786517143,0.338775038719177,-19.7285709381104,0.124781414866447,0.142857149243355,0.271428138017654,2012-01-17 16:49:19
1,48,9.25625038146973,0.160416781902313,0.216896951198578,0.743749856948853,20.1437511444092,0.140104308724403,0.170668080449104,0.343749314546585,-19.6833343505859,0.105555802583694,0.13591268658638,0.283334165811539,2012-01-17 16:49:20
1.01399993896484,36,9.25,0.122222281992435,0.14624947309494,0.349999696016312,20.1222229003906,0.101852096617222,0.135628655552864,0.377777427434921,-19.6111106872559,0.102469317615032,0.136987030506134,0.311110377311707,2012-01-17 16:49:21
1.0090000629425,47,8.75319194793701,0.326935350894928,0.464415043592453,1.14680886268616,21.159574508667,0.328112125396729,0.36300128698349,0.759575068950653,-19.478723526001,0.145133525133133,0.168770477175713,0.321277260780334,2012-01-17 16:49:22
1.01699995994568,44,8.71136379241943,0.406301736831665,0.437563508749008,0.811363637447357,21.3159103393555,0.20516511797905,0.252211391925812,0.515908420085907,-19.5431823730469,0.166528984904289,0.203824386000633,0.443181812763214,2012-01-17 16:49:23
1.00300002098083,31,9.73225784301758,0.261186301708221,0.354134172201157,0.832257747650146,20.567741394043,0.134443432092667,0.183842673897743,0.532258212566376,-19.1838722229004,0.126326873898506,0.146125838160515,0.283871680498123,2012-01-17 16:49:24
1.01699995994568,55,9.64909076690674,0.291834622621536,0.361246675252914,0.750909507274628,21.1454544067383,0.14677706360817,0.197086304426193,0.645455181598663,-19.1690921783447,0.113454699516296,0.149997249245644,0.369090229272842,2012-01-17 16:49:25
1.14800000190735,44,9.625,0.259090840816498,0.329686492681503,0.724999606609344,21.0249996185303,0.104545652866364,0.12635637819767,0.275000840425491,-19.2250003814697,0.118181794881821,0.141622066497803,0.325000792741776,2012-01-17 16:49:26
1.0090000629425,51,9.67647075653076,0.167935371398926,0.206358030438423,0.476470977067947,20.9529418945312,0.118800595402718,0.149971216917038,0.452941328287125,-19.2823524475098,0.10841977596283,0.136777713894844,0.382353752851486,2012-01-17 16:49:27
1.00099992752075,44,9.35000038146973,0.177272796630859,0.214793771505356,0.450000017881393,20.9522724151611,0.28667351603508,0.318011254072189,0.647727131843567,-19.3272724151611,0.110743321478367,0.130320340394974,0.272727131843567,2012-01-17 16:49:28
1.01100015640259,49,9.33061218261719,0.238483980298042,0.274199396371841,0.630612730979919,20.883674621582,0.137025833129883,0.160797476768494,0.316326916217804,-19.2714290618896,0.096209853887558,0.116057500243187,0.271429061889648,2012-01-17 16:49:29
1.0220000743866,35,9.44571495056152,0.24865311384201,0.299850434064865,0.654285848140717,20.7142868041992,0.076734758913517,0.101820208132267,0.285713642835617,-19.3828582763672,0.0995912849903107,0.125323787331581,0.317143261432648,2012-01-17 16:49:30
1.00699996948242,47,9.42978763580322,0.261023014783859,0.321508973836899,0.87021279335022,20.7851066589355,0.0858305916190147,0.107145927846432,0.285106956958771,-19.3680858612061,0.134721159934998,0.155886232852936,0.368085533380508,2012-01-17 16:49:31
1.02499985694885,49,9.14489841461182,0.171928286552429,0.209041729569435,0.555101633071899,20.6816329956055,0.0985425189137459,0.128846615552902,0.418367177248001,-19.4244899749756,0.109620906412601,0.130196839570999,0.275510668754578,2012-01-17 16:49:32
1.01600003242493,34,9.28235340118408,0.228373795747757,0.26840552687645,0.517647087574005,21.0323524475098,0.240138664841652,0.267582565546036,0.532353401184082,-19.3999996185303,0.129411563277245,0.151463210582733,0.300000309944153,2012-01-17 16:49:33
1.00999999046326,50,9.29600048065186,0.315840065479279,0.370923221111298,0.604000329971313,20.8080005645752,0.0819194167852402,0.107405453920364,0.308000445365906,-19.3600006103516,0.119199514389038,0.146969169378281,0.340000241994858,2012-01-17 16:49:34
1.0090000629425,47,9.13404273986816,0.132639050483704,0.165383562445641,0.465957671403885,20.7212772369385,0.12992300093174,0.152895659208298,0.321277320384979,-19.4872341156006,0.127388119697571,0.157934948801994,0.412765383720398,2012-01-17 16:49:35
1.0149998664856,43,9.22325611114502,0.251703590154648,0.283530175685883,0.576744139194489,20.7813949584961,0.143753245472908,0.176866471767426,0.418604999780655,-19.5465126037598,0.189291626214981,0.217115089297295,0.453488022089005,2012-01-17 16:49:36
1.0090000629425,45,9.02444458007812,0.174913629889488,0.221264660358429,0.575555741786957,20.6577777862549,0.0894817858934402,0.106435239315033,0.257778704166412,-19.4755554199219,0.0893828198313713,0.107817925512791,0.224445089697838,2012-01-17 16:49:37
1.01800012588501,47,8.78297901153564,0.231507495045662,0.289768129587173,0.617021679878235,21.0638294219971,0.286464512348175,0.33097243309021,0.66383022069931,-19.4936180114746,0.0927117913961411,0.117426946759224,0.30638399720192,2012-01-17 16:49:38
1.00999999046326,35,9.15714263916016,0.279183655977249,0.359591633081436,0.857142806053162,20.7771434783936,0.183999985456467,0.213923513889313,0.42285743355751,-19.5914287567139,0.113633088767529,0.133890509605408,0.208572223782539,2012-01-17 16:49:40
1.00799989700317,49,9.08775520324707,0.242065742611885,0.325534164905548,1.01224505901337,20.6367359161377,0.109454698860645,0.132008090615273,0.363264888525009,-19.5612239837646,0.0910457074642181,0.110317729413509,0.261223614215851,2012-01-17 16:49:41
1.00500011444092,49,8.90816307067871,0.13960836827755,0.179382964968681,0.408163487911224,20.6775512695312,0.0927949622273445,0.112966418266296,0.277552008628845,-19.5244903564453,0.119783774018288,0.139285087585449,0.375509679317474,2012-01-17 16:49:42
1.0149998664856,38,9.10789489746094,0.188088566064835,0.234387844800949,0.592104971408844,20.6710529327393,0.133518308401108,0.16044020652771,0.428947359323502,-19.6315784454346,0.155678972601891,0.187932565808296,0.468421071767807,2012-01-17 16:49:43
1.01699995994568,38,8.99473667144775,0.252077519893646,0.314514964818954,0.705262839794159,21.0842113494873,0.310249328613281,0.352827906608582,0.684211254119873,-19.560525894165,0.108864568173885,0.132862433791161,0.360525876283646,2012-01-17 16:49:44
1.01800012588501,51,9.34117698669434,0.300115376710892,0.426649749279022,1.14117681980133,20.6647052764893,0.269665747880936,0.309853702783585,0.635294914245605,-19.4058837890625,0.155939877033234,0.188296496868134,0.405882894992828,2012-01-17 16:49:45
1.01999998092651,40,9.21500015258789,0.567749977111816,0.649442076683044,1.11499989032745,20.0575008392334,0.168250128626823,0.214344888925552,0.457499891519547,-19.6324996948242,0.324125051498413,0.375757575035095,0.732500731945038,2012-01-17 16:49:46
1.01399993896484,46,9.10869598388672,0.265217334032059,0.306328892707825,0.708695292472839,19.8565216064453,0.260869532823563,0.296832829713821,0.556520998477936,-19.6826095581055,0.281852722167969,0.339631825685501,0.61739194393158,2012-01-17 16:49:47
1.00600004196167,47,9.41489410400391,0.294341266155243,0.353088885545731,0.685106575489044,20.8765964508057,0.133996963500977,0.171616464853287,0.476596266031265,-19.2170219421387,0.126663595438004,0.150628626346588,0.317022025585175,2012-01-17 16:49:48
1.01500010490417,35,10.168571472168,0.321959137916565,0.383048981428146,0.831428349018097,20.4542865753174,0.13844895362854,0.167916387319565,0.345715045928955,-18.9285717010498,0.134693622589111,0.159591153264046,0.428571850061417,2012-01-17 16:49:49
1.00099992752075,49,10.0653066635132,0.27763432264328,0.337790548801422,0.634693443775177,20.6591835021973,0.126614212989807,0.160253033041954,0.359183013439178,-18.9020404815674,0.149104416370392,0.174367278814316,0.302040815353394,2012-01-17 16:49:50
1,47,10.1468086242676,0.124671690165997,0.151378154754639,0.346808463335037,20.5340423583984,0.0888188108801842,0.107736483216286,0.265958458185196,-18.9468078613281,0.130647391080856,0.162233173847198,0.353192359209061,2012-01-17 16:49:51
1.01300001144409,36,10.0222225189209,0.225925981998444,0.269888013601303,0.577777981758118,20.5638885498047,0.0976854935288429,0.118211016058922,0.263888031244278,-18.9722232818604,0.140431970357895,0.178902521729469,0.427777081727982,2012-01-17 16:49:52
1.00600004196167,47,10.1723403930664,0.222815677523613,0.25323611497879,0.527659177780151,20.5659580230713,0.139701515436172,0.165383815765381,0.334041923284531,-19.0191497802734,0.11480326205492,0.140876203775406,0.319148540496826,2012-01-17 16:49:53
1.01199984550476,39,10.0589742660522,0.306640416383743,0.389422923326492,0.84102600812912,20.9743595123291,0.104667939245701,0.127536624670029,0.274358451366425,-18.9307689666748,0.104536511003971,0.126397371292114,0.26923131942749,2012-01-17 16:49:54
1.18300008773804,38,9.92894744873047,0.253046989440918,0.314481824636459,0.771052241325378,20.6736850738525,0.203878372907639,0.239170014858246,0.526316404342651,-19.0236854553223,0.13268731534481,0.154637724161148,0.323683738708496,2012-01-17 16:49:55
1.01600003242493,48,10.0458335876465,0.261805564165115,0.325293689966202,0.854166984558105,20.595832824707,0.0930558294057846,0.120689831674099,0.304165929555893,-19.0458335876465,0.114062704145908,0.142826214432716,0.354166030883789,2012-01-17 16:49:56
1.00099992752075,49,9.96326541900635,0.199666723608971,0.237927988171577,0.563264906406403,20.5,0.122449204325676,0.162882298231125,0.399999976158142,-19.0836734771729,0.101624518632889,0.128328382968903,0.28367280960083,2012-01-17 16:49:57
1.01999998092651,38,10.1131582260132,0.39279779791832,0.465194404125214,0.913158357143402,20.6000003814697,0.178947642445564,0.212751522660255,0.50000011920929,-19.1789474487305,0.088642880320549,0.110401049256325,0.221051722764969,2012-01-17 16:49:58
1.01399993896484,46,9.57391357421875,0.20321361720562,0.23905137181282,0.573913216590881,20.8065223693848,0.133742496371269,0.1737090498209,0.406522512435913,-19.1000003814697,0.108695983886719,0.142950564622879,0.299999356269836,2012-01-17 16:49:59
