"diffSecs","latitude","longitude","altitude","time"
87.9210000038147,42.3826796480955,-70.9935717292808,0,2012-02-19 09:01:27
1.50300002098083,42.3826926527257,-70.9935695759666,0,2012-02-19 09:01:29
0.993000030517578,42.382674650891,-70.9935742584773,0,2012-02-19 09:01:30
1.00999999046326,42.3826871024665,-70.9935766854469,0,2012-02-19 09:01:31
1.0019998550415,42.3826867354302,-70.9935809583244,0,2012-02-19 09:01:32
1.01800012588501,42.3826753674137,-70.9935874359442,0,2012-02-19 09:01:33
1.03799986839294,42.3826635598949,-70.9935896499518,0,2012-02-19 09:01:34
0.962000131607056,42.3826264098952,-70.9935886133314,0,2012-02-19 09:01:35
1.00499987602234,42.3826020928574,-70.9935844343074,0,2012-02-19 09:01:36
1.0550000667572,42.3825817031652,-70.9935818464783,0,2012-02-19 09:01:37
1.01900005340576,42.3825655952898,-70.9935815491034,0,2012-02-19 09:01:38
0.994999885559082,42.3825415544363,-70.9935770810532,0,2012-02-19 09:01:39
1.00999999046326,42.3825185188502,-70.9935724290691,0,2012-02-19 09:01:40
1.00300002098083,42.3825047168826,-70.9935691588025,0,2012-02-19 09:01:41
1.06700015068054,42.3825033473946,-70.9935685939237,0,2012-02-19 09:01:42
0.983999967575073,42.3825110621346,-70.9935751281662,0,2012-02-19 09:01:43
0.978999853134155,42.3825215381553,-70.9935793337245,0,2012-02-19 09:01:44
0.992000102996826,42.3825348346847,-70.9935738492548,0,2012-02-19 09:01:45
1.00799989700317,42.3825430914673,-70.9935674644952,0,2012-02-19 09:01:46
1.05599999427795,42.3825572740279,-70.9935555840417,0,2012-02-19 09:01:47
0.957000017166138,42.3825549229061,-70.9935447805553,0,2012-02-19 09:01:48
1.03700017929077,42.3825448590238,-70.9935249579675,0,2012-02-19 09:01:49
0.971999883651733,42.3825311256037,-70.9935122593366,0,2012-02-19 09:01:50
1.00500011444092,42.3825300649012,-70.9935084942725,0,2012-02-19 09:01:51
1.0149998664856,42.3825446468794,-70.9934964773404,0,2012-02-19 09:01:52
0.996000051498413,42.3825535585064,-70.9935005316977,0,2012-02-19 09:01:53
1.00300002098083,42.3825743105287,-70.9934881846659,0,2012-02-19 09:01:54
1.05999994277954,42.3825763619361,-70.9934832622502,0,2012-02-19 09:01:55
1.00200009346008,42.3825966170375,-70.9934549372033,0,2012-02-19 09:01:56
1.00899982452393,42.3825884067871,-70.993441209448,0,2012-02-19 09:01:57
1.00500011444092,42.3825815722486,-70.9934280385304,0,2012-02-19 09:01:58
1.00499987602234,42.3825690804333,-70.9934228149373,0,2012-02-19 09:01:59
1.00500011444092,42.3825515650102,-70.9934206272714,0,2012-02-19 09:02:00
1.00500011444092,42.3825362282312,-70.9934180844738,0,2012-02-19 09:02:01
1.00599980354309,42.3825338305125,-70.9934240277214,0,2012-02-19 09:02:02
1.00500011444092,42.3825294717013,-70.993426735043,0,2012-02-19 09:02:03
1.00799989700317,42.3825261864421,-70.9934332341404,0,2012-02-19 09:02:04
1.00400018692017,42.3825177380808,-70.9934409967348,0,2012-02-19 09:02:05
1.00599980354309,42.3825171223564,-70.9934411333096,0,2012-02-19 09:02:06
1.00600004196167,42.3825059365444,-70.9934415508665,0,2012-02-19 09:02:07
1.00399994850159,42.3825283002259,-70.9934256497449,0,2012-02-19 09:02:08
1.05599999427795,42.3825598495177,-70.993402857501,0,2012-02-19 09:02:09
0.956000089645386,42.3825581381531,-70.9933999875389,0,2012-02-19 09:02:10
1.05800008773804,42.382553149378,-70.9933971516584,0,2012-02-19 09:02:11
1.0019998550415,42.382556530499,-70.9933954739109,0,2012-02-19 09:02:12
1.00699996948242,42.3825760211856,-70.9933980611102,0,2012-02-19 09:02:13
1.00600004196167,42.3826044650921,-70.9934059944826,0,2012-02-19 09:02:14
1.06100010871887,42.3826163445304,-70.9934054660701,0,2012-02-19 09:02:15
0.950000047683716,42.3826242643767,-70.9934040293489,0,2012-02-19 09:02:16
1.00399994850159,42.3826262593609,-70.9934020963139,0,2012-02-19 09:02:17
1.00600004196167,42.3826449985345,-70.9934087974705,0,2012-02-19 09:02:18
1.00399994850159,42.382671775472,-70.993419995975,0,2012-02-19 09:02:19
1.00799989700317,42.3826903811055,-70.9934212714233,0,2012-02-19 09:02:20
1.00500011444092,42.3826871202827,-70.9934196621929,0,2012-02-19 09:02:21
1.00699996948242,42.3826721224546,-70.9934144809943,0,2012-02-19 09:02:22
1.00399994850159,42.3827259154505,-70.9933937699042,0,2012-02-19 09:02:23
1.04999995231628,42.3827666036509,-70.9933899241909,0,2012-02-19 09:02:24
1.01500010490417,42.3827569102372,-70.9933783853624,0,2012-02-19 09:02:25
1.01300001144409,42.3827482320067,-70.9933679146716,0,2012-02-19 09:02:26
0.957000017166138,42.3827409988505,-70.9933651414015,0,2012-02-19 09:02:27
2.05200004577637,42.3827243055889,-70.9933640596824,0,2012-02-19 09:02:29
1.00799989700317,42.382722783967,-70.9933625967105,0,2012-02-19 09:02:30
1.00500011444092,42.382725009579,-70.9933637339756,0,2012-02-19 09:02:31
1.00499987602234,42.3827254144237,-70.9933640326089,0,2012-02-19 09:02:32
1.00399994850159,42.3827161042722,-70.9933585410752,0,2012-02-19 09:02:33
2.01300001144409,42.3827164225539,-70.9933533069823,0,2012-02-19 09:02:35
1.00399994850159,42.3827211771113,-70.993349274582,0,2012-02-19 09:02:36
1.00800013542175,42.3827198264488,-70.9933470538371,0,2012-02-19 09:02:38
1.00399994850159,42.3827160650233,-70.9933434644516,0,2012-02-19 09:02:39
1.00699996948242,42.3827213947378,-70.9933404681433,0,2012-02-19 09:02:40
1.01100015640259,42.3827252826984,-70.9933377063675,0,2012-02-19 09:02:41
1,42.3827171211046,-70.9933376374825,0,2012-02-19 09:02:42
1.00599980354309,42.3827143814075,-70.9933403473291,0,2012-02-19 09:02:43
1.01400017738342,42.382712217626,-70.9933430679842,0,2012-02-19 09:02:44
0.995999813079834,42.3827119359627,-70.9933460285536,0,2012-02-19 09:02:45
1.05599999427795,42.3827112368226,-70.9933470603398,0,2012-02-19 09:02:46
1.007000207901,42.3827157972095,-70.9933496906016,0,2012-02-19 09:02:47
1.00499987602234,42.3827202299274,-70.9933511290069,0,2012-02-19 09:02:48
1.00699996948242,42.3827243201904,-70.9933553868913,0,2012-02-19 09:02:49
2.01100015640259,42.3827556315922,-70.993348030823,0,2012-02-19 09:02:51
1.00699996948242,42.3827926905423,-70.9933469700073,0,2012-02-19 09:02:52
1.05299997329712,42.3828368495259,-70.9933573219397,0,2012-02-19 09:02:53
0.95799994468689,42.3828839183091,-70.9933804172266,0,2012-02-19 09:02:54
1.00500011444092,42.3829143053869,-70.9934212648337,0,2012-02-19 09:02:55
1.00599980354309,42.382920833327,-70.9934596887421,0,2012-02-19 09:02:56
1.00800013542175,42.3829143276725,-70.9934993545849,0,2012-02-19 09:02:57
1.01099991798401,42.3828998722335,-70.9935352940025,0,2012-02-19 09:02:58
1.04900002479553,42.3828810883284,-70.99356047951,0,2012-02-19 09:02:59
1.00600004196167,42.3828553764295,-70.9935746839153,0,2012-02-19 09:03:00
1.00499987602234,42.3828240516025,-70.9935835630524,0,2012-02-19 09:03:01
1.00600004196167,42.3827880580711,-70.9935920218708,0,2012-02-19 09:03:02
1.00500011444092,42.3827479759335,-70.9935941161594,0,2012-02-19 09:03:03
1.00799989700317,42.382706909014,-70.9935935779559,0,2012-02-19 09:03:04
1.00300002098083,42.3826660747538,-70.9935908602607,0,2012-02-19 09:03:05
1.00699996948242,42.3826340110009,-70.9935742110244,0,2012-02-19 09:03:06
1.06200003623962,42.3826086720706,-70.9935333971667,0,2012-02-19 09:03:07
0.949000120162964,42.3825949107666,-70.9934800227466,0,2012-02-19 09:03:08
1.02499985694885,42.3825866146231,-70.9934180338681,0,2012-02-19 09:03:09
0.993000030517578,42.3825667489135,-70.9933429163447,0,2012-02-19 09:03:10
1,42.3825368242914,-70.9932506398428,0,2012-02-19 09:03:11
1.0220000743866,42.3825020619797,-70.9931445218516,0,2012-02-19 09:03:12
0.988999843597412,42.3824681886448,-70.9930268860234,0,2012-02-19 09:03:13
1.0550000667572,42.3824291640569,-70.9928937812699,0,2012-02-19 09:03:14
1.00600004196167,42.3823886915307,-70.9927440926929,0,2012-02-19 09:03:15
1.02799987792969,42.3823444041508,-70.9925837078862,0,2012-02-19 09:03:16
0.984000205993652,42.3822882123038,-70.992436966797,0,2012-02-19 09:03:17
1.00699996948242,42.3822283354896,-70.9923044338338,0,2012-02-19 09:03:18
1.01300001144409,42.3821671671676,-70.9921802495644,0,2012-02-19 09:03:19
0.996999979019165,42.3821318178515,-70.9920551720403,0,2012-02-19 09:03:20
1.00399994850159,42.3821008796652,-70.9919587798803,0,2012-02-19 09:03:21
1.00600004196167,42.3820274376655,-70.9918869927924,0,2012-02-19 09:03:22
1.00999999046326,42.3819667872276,-70.9918215192352,0,2012-02-19 09:03:23
1.05699992179871,42.3819192437455,-70.9917647772392,0,2012-02-19 09:03:24
1.95700001716614,42.3817826301856,-70.9917165471318,0,2012-02-19 09:03:26
1.00600004196167,42.3816941765673,-70.9917135804494,0,2012-02-19 09:03:27
1.00600004196167,42.3816022273521,-70.9917091594066,0,2012-02-19 09:03:28
1.00600004196167,42.3814884143714,-70.991716006509,0,2012-02-19 09:03:29
1.05699992179871,42.3813739585275,-70.9917209252357,0,2012-02-19 09:03:30
1.00799989700317,42.3812568624305,-70.9917293685923,0,2012-02-19 09:03:31
1.00400018692017,42.3811310034627,-70.9917411156346,0,2012-02-19 09:03:32
1.05999994277954,42.3809954617629,-70.99175761807,0,2012-02-19 09:03:33
0.95199990272522,42.3808486623959,-70.9917773127819,0,2012-02-19 09:03:34
1.01699995994568,42.3807097580071,-70.9918029834195,0,2012-02-19 09:03:35
0.995000123977661,42.3805525211974,-70.9918210487597,0,2012-02-19 09:03:36
1.00600004196167,42.3803922274667,-70.9918467680677,0,2012-02-19 09:03:37
1.00599980354309,42.3802329026028,-70.9918671708397,0,2012-02-19 09:03:38
1.00999999046326,42.3800692784063,-70.9918893477418,0,2012-02-19 09:03:39
1.00200009346008,42.3799237069075,-70.9919104727576,0,2012-02-19 09:03:40
1.00300002098083,42.3797639228601,-70.9919186148631,0,2012-02-19 09:03:41
1.00799989700317,42.3796036978534,-70.9919246453124,0,2012-02-19 09:03:42
1.007000207901,42.37945135433,-70.9919296289179,0,2012-02-19 09:03:43
1.00399994850159,42.3793103693475,-70.9919362271753,0,2012-02-19 09:03:44
1.0090000629425,42.3791755255352,-70.9919489509286,0,2012-02-19 09:03:45
1.00499987602234,42.3790416824476,-70.9919632523362,0,2012-02-19 09:03:46
1.01200008392334,42.3789122952472,-70.9919710080752,0,2012-02-19 09:03:47
1.04999995231628,42.3787758807168,-70.9919881623641,0,2012-02-19 09:03:48
1.00399994850159,42.3786302724574,-70.9919893255926,0,2012-02-19 09:03:49
1.00600004196167,42.3784792393993,-70.991999108784,0,2012-02-19 09:03:50
1.00699996948242,42.3783310642763,-70.9920111182627,0,2012-02-19 09:03:51
1.00699996948242,42.3781764799134,-70.9920239662,0,2012-02-19 09:03:52
1.00600004196167,42.378012720531,-70.9920460553619,0,2012-02-19 09:03:53
1.00600004196167,42.3778518586316,-70.9920666569774,0,2012-02-19 09:03:54
1.00699996948242,42.3776855818377,-70.9920895101569,0,2012-02-19 09:03:55
1.00499987602234,42.3775160213217,-70.9921064695743,0,2012-02-19 09:03:56
1.00600004196167,42.3773629758138,-70.9921235075368,0,2012-02-19 09:03:57
1.00600004196167,42.3771982595349,-70.9921351846943,0,2012-02-19 09:03:58
1.00600004196167,42.3770365737533,-70.9921409076626,0,2012-02-19 09:03:59
1.00699996948242,42.3768640459136,-70.9921518466326,0,2012-02-19 09:04:00
1.00399994850159,42.3766816094219,-70.9921707012778,0,2012-02-19 09:04:01
1.00699996948242,42.3765053430964,-70.9921852597404,0,2012-02-19 09:04:02
1.00400018692017,42.376336104359,-70.9921932135298,0,2012-02-19 09:04:03
1.00599980354309,42.3761693347644,-70.9921974017388,0,2012-02-19 09:04:04
1.00600004196167,42.3760063641156,-70.9921923749076,0,2012-02-19 09:04:05
1.0550000667572,42.375853281802,-70.9921710800012,0,2012-02-19 09:04:06
1.00799989700317,42.3756995758923,-70.992123964314,0,2012-02-19 09:04:07
1.00500011444092,42.3755474173988,-70.9920656989437,0,2012-02-19 09:04:08
1.00600004196167,42.3754070284829,-70.9920030537548,0,2012-02-19 09:04:09
1.00600004196167,42.3752814364174,-70.9919463837298,0,2012-02-19 09:04:10
1.00399994850159,42.3751630277388,-70.9918905323975,0,2012-02-19 09:04:11
1.00799989700317,42.3750791278296,-70.9918467156512,0,2012-02-19 09:04:12
1.00399994850159,42.3749911755857,-70.9918029959702,0,2012-02-19 09:04:13
1.01000022888184,42.3749232968171,-70.9917645749718,0,2012-02-19 09:04:14
1.0019998550415,42.3748826147239,-70.9917410251308,0,2012-02-19 09:04:15
1.00600004196167,42.3748646790204,-70.9917369946906,0,2012-02-19 09:04:16
1.00499987602234,42.3748514381286,-70.9917393395823,0,2012-02-19 09:04:17
1.00600004196167,42.3748515841081,-70.9917666158978,0,2012-02-19 09:04:18
1.00600004196167,42.3748524890765,-70.9918287949086,0,2012-02-19 09:04:19
1.00600004196167,42.3748802491907,-70.9919145536284,0,2012-02-19 09:04:20
1.00699996948242,42.3749160235402,-70.9920133472373,0,2012-02-19 09:04:21
1.05599999427795,42.3749143925075,-70.9920982742304,0,2012-02-19 09:04:22
1.00399994850159,42.3748814778407,-70.9922688935199,0,2012-02-19 09:04:23
1.0090000629425,42.3748608751573,-70.9923203683546,0,2012-02-19 09:04:24
1.00399994850159,42.374836896389,-70.9923527853766,0,2012-02-19 09:04:25
1.00699996948242,42.3748209675499,-70.992376297334,0,2012-02-19 09:04:26
1.00400018692017,42.3748059237302,-70.9923885888928,0,2012-02-19 09:04:27
2.01199984550476,42.3748619918204,-70.9924572652534,0,2012-02-19 09:04:30
1.00500011444092,42.3748795553175,-70.9924936841143,0,2012-02-19 09:04:31
1.00799989700317,42.3748741575321,-70.9925243689206,0,2012-02-19 09:04:32
1.00500011444092,42.3748471666753,-70.9925407479854,0,2012-02-19 09:04:33
1.00600004196167,42.3748036294439,-70.992536160379,0,2012-02-19 09:04:34
2.00999999046326,42.374739906653,-70.9925382205752,0,2012-02-19 09:04:36
1.05599999427795,42.3747229306265,-70.9925430103718,0,2012-02-19 09:04:37
1.04399991035461,42.3747633823475,-70.9925911302313,0,2012-02-19 09:04:38
0.969000101089478,42.3747622297045,-70.9926423489817,0,2012-02-19 09:04:39
1.00399994850159,42.3747629322215,-70.99271432437,0,2012-02-19 09:04:40
1.00699996948242,42.3747601515968,-70.9928038987163,0,2012-02-19 09:04:41
1.00600004196167,42.3747553967472,-70.9929019174544,0,2012-02-19 09:04:42
1.05499982833862,42.3747498603874,-70.9929993339475,0,2012-02-19 09:04:43
0.958000183105469,42.3747442679467,-70.9930903107988,0,2012-02-19 09:04:44
1.00499987602234,42.3747294510739,-70.9931791441897,0,2012-02-19 09:04:45
1.00600004196167,42.3747062584833,-70.9932668747269,0,2012-02-19 09:04:46
1.00799989700317,42.374677365428,-70.9933500648971,0,2012-02-19 09:04:47
1.00400018692017,42.3746501490234,-70.9934269308836,0,2012-02-19 09:04:48
1.00699996948242,42.3746223270141,-70.9934930328585,0,2012-02-19 09:04:49
1.00300002098083,42.374587262384,-70.9935453680103,0,2012-02-19 09:04:50
1.00699996948242,42.3745607133848,-70.9935799145559,0,2012-02-19 09:04:51
1.00499987602234,42.3745408285327,-70.9936074337181,0,2012-02-19 09:04:52
1.00999999046326,42.3745256531528,-70.993622977802,0,2012-02-19 09:04:53
1.00500011444092,42.3745111523157,-70.9936215979555,0,2012-02-19 09:04:54
1.00699996948242,42.3744990708276,-70.9936139409975,0,2012-02-19 09:04:55
1.00500011444092,42.3744875435826,-70.9936090113594,0,2012-02-19 09:04:56
1.05799984931946,42.374467739258,-70.9935908912153,0,2012-02-19 09:04:57
1.00399994850159,42.3744425545486,-70.9935651373766,0,2012-02-19 09:04:58
1.007000207901,42.3744294139289,-70.9935372511186,0,2012-02-19 09:04:59
1.00399994850159,42.3744181228922,-70.9935204453921,0,2012-02-19 09:05:00
1.00600004196167,42.3744080031933,-70.9935050396227,0,2012-02-19 09:05:01
1.00699996948242,42.3744048450172,-70.993487500398,0,2012-02-19 09:05:02
1.00399994850159,42.3744085941713,-70.9934687277503,0,2012-02-19 09:05:03
1.00799989700317,42.3744179115904,-70.9934600077218,0,2012-02-19 09:05:04
1.00500011444092,42.3744320536169,-70.9934606676237,0,2012-02-19 09:05:05
1.00799989700317,42.3744267281628,-70.9934565613566,0,2012-02-19 09:05:06
1.00400018692017,42.3744213303466,-70.9934574010439,0,2012-02-19 09:05:07
1.01299977302551,42.3744263410465,-70.9934569819456,0,2012-02-19 09:05:08
1,42.3744242711056,-70.9934622300774,0,2012-02-19 09:05:09
1.00300002098083,42.3744230860382,-70.9934558051339,0,2012-02-19 09:05:10
1.007000207901,42.3744134210825,-70.9934542298188,0,2012-02-19 09:05:11
1.00599980354309,42.3744028110215,-70.9934511208278,0,2012-02-19 09:05:12
1.00699996948242,42.374395492672,-70.9934428728888,0,2012-02-19 09:05:13
1.09400010108948,42.374388598358,-70.9934405070752,0,2012-02-19 09:05:14
0.966000080108643,42.37438581581,-70.993444845205,0,2012-02-19 09:05:15
1.00699996948242,42.374373094167,-70.9934500230865,0,2012-02-19 09:05:16
1.01900005340576,42.3743604208985,-70.9934517091503,0,2012-02-19 09:05:17
0.991999864578247,42.3743560124671,-70.9934519069729,0,2012-02-19 09:05:18
1.00399994850159,42.3743639283821,-70.993429491499,0,2012-02-19 09:05:19
1.00800013542175,42.3743569707466,-70.9934208912902,0,2012-02-19 09:05:20
1.00600004196167,42.3743195587659,-70.993403849927,0,2012-02-19 09:05:21
1.00399994850159,42.3742865973522,-70.9933663475057,0,2012-02-19 09:05:22
1.00699996948242,42.3742699982992,-70.9933448997654,0,2012-02-19 09:05:23
1.00500011444092,42.3742612313635,-70.9933361950976,0,2012-02-19 09:05:24
1.00599980354309,42.3742563240363,-70.9933330089817,0,2012-02-19 09:05:25
1.00600004196167,42.3742521723109,-70.9933286125097,0,2012-02-19 09:05:26
1.05599999427795,42.374240332084,-70.9933229998823,0,2012-02-19 09:05:27
1.00699996948242,42.3742314341172,-70.9933219720962,0,2012-02-19 09:05:28
1.00500011444092,42.3742242262377,-70.9933220630356,0,2012-02-19 09:05:29
1.00600004196167,42.3742212149846,-70.9933218068456,0,2012-02-19 09:05:30
1.00599980354309,42.3742166124213,-70.9933242443296,0,2012-02-19 09:05:31
1.00500011444092,42.3742181046455,-70.9933281990052,0,2012-02-19 09:05:32
1.00799989700317,42.3742276702261,-70.993331208887,0,2012-02-19 09:05:33
1.00300002098083,42.3742345186262,-70.9933315442898,0,2012-02-19 09:05:34
1.00699996948242,42.3742373572228,-70.9933323545571,0,2012-02-19 09:05:35
1.00400018692017,42.3742387718893,-70.9933326081322,0,2012-02-19 09:05:36
1.00899982452393,42.3742363858598,-70.9933351113037,0,2012-02-19 09:05:37
1.04400014877319,42.3742384939463,-70.9933359005513,0,2012-02-19 09:05:38
0.96399998664856,42.3742421034015,-70.9933373412219,0,2012-02-19 09:05:39
1.00799989700317,42.3742469858825,-70.9933353124297,0,2012-02-19 09:05:40
1.0550000667572,42.3742512693542,-70.9933315986017,0,2012-02-19 09:05:41
1.00600004196167,42.374260123606,-70.993327617955,0,2012-02-19 09:05:42
1.00499987602234,42.3742817499645,-70.9933319613024,0,2012-02-19 09:05:43
1.00600004196167,42.3742912731851,-70.9933273507785,0,2012-02-19 09:05:44
1.00399994850159,42.3742979213226,-70.9933225393359,0,2012-02-19 09:05:45
1.00600004196167,42.374300484763,-70.9933203420846,0,2012-02-19 09:05:46
1.00600004196167,42.3743002109828,-70.9933225360277,0,2012-02-19 09:05:47
1.00500011444092,42.3743025131203,-70.9933271161802,0,2012-02-19 09:05:48
1.00799989700317,42.3743064055333,-70.9933336297566,0,2012-02-19 09:05:49
1.03299999237061,42.3743135576463,-70.9933376742147,0,2012-02-19 09:05:50
0.977999925613403,42.3743115080052,-70.9933395326521,0,2012-02-19 09:05:51
1.00400018692017,42.3743108517183,-70.9933366884901,0,2012-02-19 09:05:52
1.00599980354309,42.374308208769,-70.993337233493,0,2012-02-19 09:05:53
1.00800013542175,42.3743078951816,-70.9933408880004,0,2012-02-19 09:05:54
1.00399994850159,42.3743087893259,-70.993348428193,0,2012-02-19 09:05:55
1.05699992179871,42.3743042969497,-70.9933569515808,0,2012-02-19 09:05:56
1.00500011444092,42.3742902623704,-70.9933611858805,0,2012-02-19 09:05:57
1.00600004196167,42.3742741624428,-70.9933631584692,0,2012-02-19 09:05:58
1.00399994850159,42.3742622931609,-70.9933674742814,0,2012-02-19 09:05:59
1.01300001144409,42.3742440212356,-70.9933738159389,0,2012-02-19 09:06:00
1.00300002098083,42.3742234657006,-70.993378451908,0,2012-02-19 09:06:01
1.00499987602234,42.3742075672329,-70.993385848462,0,2012-02-19 09:06:02
1.00600004196167,42.3742015226162,-70.9933961200027,0,2012-02-19 09:06:03
1.00500011444092,42.3742103446856,-70.9933967636494,0,2012-02-19 09:06:04
1.00499987602234,42.374232452737,-70.9933904322161,0,2012-02-19 09:06:05
1.00800013542175,42.3742616653485,-70.9933836020783,0,2012-02-19 09:06:06
1.00499987602234,42.3742758117126,-70.9933808341485,0,2012-02-19 09:06:07
1.00600004196167,42.374287994662,-70.9933863841765,0,2012-02-19 09:06:08
1.00600004196167,42.3742874235049,-70.9933969398636,0,2012-02-19 09:06:09
1.00399994850159,42.3742927908942,-70.9934072496988,0,2012-02-19 09:06:10
1.01099991798401,42.3743187890268,-70.9934222408465,0,2012-02-19 09:06:11
2.06800007820129,42.3743418050884,-70.9934257064129,0,2012-02-19 09:06:13
0.944999933242798,42.3743545711894,-70.9934321768041,0,2012-02-19 09:06:14
1.05599999427795,42.374343336486,-70.9934317860414,0,2012-02-19 09:06:15
2.00999999046326,42.3743384681976,-70.9934306542247,0,2012-02-19 09:06:17
1.00600004196167,42.3743438487815,-70.9934365055367,0,2012-02-19 09:06:18
1.00500011444092,42.3743525547785,-70.9934446496012,0,2012-02-19 09:06:19
1.00799989700317,42.3743510690247,-70.9934464121617,0,2012-02-19 09:06:20
1.00500011444092,42.3743455933493,-70.9934482114318,0,2012-02-19 09:06:21
1.00699996948242,42.3743461878519,-70.9934511709183,0,2012-02-19 09:06:23
1.00399994850159,42.3743418988492,-70.993461407333,0,2012-02-19 09:06:24
1.00600004196167,42.3743299702889,-70.9934740321376,0,2012-02-19 09:06:25
1.00600004196167,42.3743185429897,-70.9934869394659,0,2012-02-19 09:06:26
1.00499987602234,42.3743193534093,-70.9934975238854,0,2012-02-19 09:06:27
1.00600004196167,42.3743420158816,-70.9934956715858,0,2012-02-19 09:06:28
1.00799989700317,42.3743737362978,-70.9934849141246,0,2012-02-19 09:06:29
1.00800013542175,42.374389915065,-70.9934779164311,0,2012-02-19 09:06:30
1.00600004196167,42.3743951991111,-70.9934796861906,0,2012-02-19 09:06:31
1.05499982833862,42.3743869724442,-70.9934831112578,0,2012-02-19 09:06:32
1.00500011444092,42.3743707781118,-70.9934821944914,0,2012-02-19 09:06:33
1.00600004196167,42.3743458569057,-70.9934872285881,0,2012-02-19 09:06:34
1.00600004196167,42.3743275651681,-70.9934933130401,0,2012-02-19 09:06:35
1.00699996948242,42.3743177169731,-70.9934932519035,0,2012-02-19 09:06:36
1.00499987602234,42.3743207338823,-70.9934976179413,0,2012-02-19 09:06:37
1.00600004196167,42.3743185641081,-70.9935104797422,0,2012-02-19 09:06:38
1.00600004196167,42.3743193267671,-70.9935264092033,0,2012-02-19 09:06:39
1.00399994850159,42.3743146974931,-70.9935353813499,0,2012-02-19 09:06:40
1.00600004196167,42.3743002477746,-70.9935354051112,0,2012-02-19 09:06:41
1.06800007820129,42.3742923265929,-70.9935306064076,0,2012-02-19 09:06:42
0.944999933242798,42.3742911214073,-70.9935269691595,0,2012-02-19 09:06:43
1.00499987602234,42.3742993309588,-70.9935304564913,0,2012-02-19 09:06:44
1.00600004196167,42.3742955524235,-70.9935280356062,0,2012-02-19 09:06:45
1.00600004196167,42.3742954209371,-70.9935243061714,0,2012-02-19 09:06:46
1.00799989700317,42.3742834329679,-70.99351564421,0,2012-02-19 09:06:47
1.00400018692017,42.3742794919835,-70.9935124951973,0,2012-02-19 09:06:48
1.05399990081787,42.3742719812863,-70.9935122131529,0,2012-02-19 09:06:49
1.00800013542175,42.3742668299481,-70.9935158598554,0,2012-02-19 09:06:50
1.00399994850159,42.3742652580604,-70.9935178075804,0,2012-02-19 09:06:51
1.00600004196167,42.3742684392164,-70.9935187481283,0,2012-02-19 09:06:52
1.00599980354309,42.3742566548318,-70.993523226028,0,2012-02-19 09:06:53
1.00400018692017,42.3742477248846,-70.9935193229063,0,2012-02-19 09:06:54
1.00799989700317,42.3742645131204,-70.9935015270779,0,2012-02-19 09:06:55
1.06500005722046,42.3742770971704,-70.9934845919568,0,2012-02-19 09:06:56
0.947000026702881,42.3742791742631,-70.9934899641019,0,2012-02-19 09:06:57
1.00999999046326,42.3742827797664,-70.9934939342788,0,2012-02-19 09:06:58
1,42.3742977463844,-70.9934902816461,0,2012-02-19 09:06:59
1.00600004196167,42.3743130657019,-70.9934825868784,0,2012-02-19 09:07:00
1.00499987602234,42.3743341730542,-70.9934761347282,0,2012-02-19 09:07:01
1.00799989700317,42.3743398989929,-70.9934659896095,0,2012-02-19 09:07:02
1.00500011444092,42.3743475700175,-70.993455845242,0,2012-02-19 09:07:03
1.00600004196167,42.374352155863,-70.9934446106674,0,2012-02-19 09:07:04
1.00600004196167,42.3743316629579,-70.9934397343475,0,2012-02-19 09:07:05
1.00499987602234,42.3743036539609,-70.9934453169466,0,2012-02-19 09:07:06
1.05800008773804,42.3742936168405,-70.9934548864228,0,2012-02-19 09:07:07
1.00499987602234,42.3743054755266,-70.9934582665186,0,2012-02-19 09:07:08
1.00999999046326,42.3743292080017,-70.9934639762979,0,2012-02-19 09:07:09
1.00500011444092,42.374342512645,-70.9934757114534,0,2012-02-19 09:07:10
1.00300002098083,42.3743352983395,-70.9934883527344,0,2012-02-19 09:07:11
1.00699996948242,42.3743310841539,-70.9934946481705,0,2012-02-19 09:07:12
1.00499987602234,42.3743412974612,-70.9934937677543,0,2012-02-19 09:07:13
1.00600004196167,42.3743555124438,-70.9934879327227,0,2012-02-19 09:07:14
1.01900005340576,42.374365560792,-70.9934854845143,0,2012-02-19 09:07:15
0.993000030517578,42.3743644671395,-70.9934896196446,0,2012-02-19 09:07:16
1.00699996948242,42.374366299173,-70.993489920805,0,2012-02-19 09:07:17
1.00500011444092,42.3743721898556,-70.9934839013954,0,2012-02-19 09:07:18
1.0389997959137,42.3743689277045,-70.9934810700481,0,2012-02-19 09:07:19
0.971000194549561,42.374363417981,-70.9934809665965,0,2012-02-19 09:07:20
1.00599980354309,42.3743629740376,-70.9934726710877,0,2012-02-19 09:07:21
1.00600004196167,42.3743414108175,-70.9934607453307,0,2012-02-19 09:07:22
1.0550000667572,42.374322855648,-70.99344442949,0,2012-02-19 09:07:23
1.00799989700317,42.3743097158199,-70.9934227004635,0,2012-02-19 09:07:24
1.00400018692017,42.3742948110837,-70.9933974822829,0,2012-02-19 09:07:25
1.00699996948242,42.3742756392328,-70.9933790549497,0,2012-02-19 09:07:26
1.00600004196167,42.3742701823229,-70.993366100099,0,2012-02-19 09:07:27
1.01999998092651,42.374260782999,-70.9933627678869,0,2012-02-19 09:07:28
0.991999864578247,42.3742677565129,-70.993358758732,0,2012-02-19 09:07:29
1.00500011444092,42.3742983696011,-70.9933524211593,0,2012-02-19 09:07:30
1.00699996948242,42.3743288953601,-70.9933434944516,0,2012-02-19 09:07:31
1.00399994850159,42.3743445300156,-70.9933397701676,0,2012-02-19 09:07:32
1.00600004196167,42.3743523235923,-70.9933435408506,0,2012-02-19 09:07:33
1.00600004196167,42.3743645952908,-70.9933514481959,0,2012-02-19 09:07:34
1.00499987602234,42.374364473093,-70.9933468517278,0,2012-02-19 09:07:35
1.02900004386902,42.3743408433006,-70.993332998357,0,2012-02-19 09:07:36
0.983000040054321,42.3743301274887,-70.9933049887451,0,2012-02-19 09:07:37
1.00699996948242,42.374329011735,-70.9932907179974,0,2012-02-19 09:07:38
1.00600004196167,42.3743445758289,-70.9932893959007,0,2012-02-19 09:07:39
1.05399990081787,42.3743642723533,-70.9932963769762,0,2012-02-19 09:07:40
1.0090000629425,42.3743798904654,-70.9933026747376,0,2012-02-19 09:07:41
1.00300002098083,42.3743822908736,-70.9933123596543,0,2012-02-19 09:07:42
1.00699996948242,42.3743830267766,-70.9933206952578,0,2012-02-19 09:07:43
1.00500011444092,42.3743755568685,-70.9933265925364,0,2012-02-19 09:07:44
1.00599980354309,42.3743636023147,-70.9933269776368,0,2012-02-19 09:07:45
1.00600004196167,42.3743519502785,-70.9933251132299,0,2012-02-19 09:07:46
1.00500011444092,42.3743500314996,-70.9933189789402,0,2012-02-19 09:07:47
1.00799989700317,42.3743627408176,-70.9933186840706,0,2012-02-19 09:07:48
1.00500011444092,42.374380258426,-70.993324545778,0,2012-02-19 09:07:49
1.00600004196167,42.3743868923199,-70.9933369234656,0,2012-02-19 09:07:50
1.00599980354309,42.3743801853911,-70.9933553000709,0,2012-02-19 09:07:51
1.00400018692017,42.3743866347568,-70.9933755329711,0,2012-02-19 09:07:52
1.00599980354309,42.3743844264639,-70.9933941397028,0,2012-02-19 09:07:53
1.00500011444092,42.3743841461384,-70.9934075488656,0,2012-02-19 09:07:54
1.00799989700317,42.3743729947043,-70.993419868396,0,2012-02-19 09:07:55
1.00699996948242,42.3743508553536,-70.9934327049439,0,2012-02-19 09:07:56
1.00800013542175,42.3743320836086,-70.9934427965893,0,2012-02-19 09:07:57
1.00699996948242,42.3743201915944,-70.9934499575688,0,2012-02-19 09:07:58
1.0550000667572,42.3743129799811,-70.9934520315235,0,2012-02-19 09:07:59
