"diffSecs","N.samples","x.mean","x.absolute.deviation","x.standard.deviation","x.max.deviation","x.PSD.1","x.PSD.3","x.PSD.6","x.PSD.10","y.mean","y.absolute.deviation","y.standard.deviation","y.max.deviation","y.PSD.1","y.PSD.3","y.PSD.6","y.PSD.10","z.mean","z.absolute.deviation","z.standard.deviation","z.max.deviation","z.PSD.1","z.PSD.3","z.PSD.6","z.PSD.10","time"
1.00399994850159,42,-4.86433172225952,0.438708603382111,0.493509292602539,0.911785006523132,31.1959400177002,43.599422454834,6.92087459564209,3.57664752006531,8.4176082611084,0.413446933031082,0.560700178146362,1.59498155117035,24.3190536499023,27.1208419799805,6.10848569869995,1.05537259578705,0.204772174358368,0.529848158359528,0.605465650558472,1.32273030281067,2.09649014472961,20.9133434295654,12.3152017593384,1.7605265378952,2012-02-11 12:43:13
1.00999999046326,37,-4.5399489402771,0.402122765779495,0.580321252346039,1.50094771385193,4.94084787368774,3.93450212478638,2.1997766494751,0.906226396560669,8.7077751159668,0.262938559055328,0.319044709205627,0.588929355144501,0.243851348757744,1.63155627250671,6.41316080093384,1.92607593536377,0.611457884311676,0.330388814210892,0.422558546066284,1.07237040996552,9.16160202026367,17.3718318939209,13.1983785629272,3.10075807571411,2012-02-11 12:43:14
1.01300001144409,47,-4.61434173583984,0.178899243474007,0.211172446608543,0.41709566116333,0.202486038208008,6.01041698455811,6.37554788589478,0.518131792545319,8.55995273590088,0.0839048251509666,0.100368477404118,0.253720730543137,0.398058205842972,1.00172591209412,0.941618740558624,0.40926992893219,0.228891372680664,0.320977985858917,0.352007806301117,0.562317490577698,24.9767742156982,33.3162231445312,5.87375974655151,1.29570698738098,2012-02-11 12:43:15
1.00800013542175,43,-4.61710739135742,0.112874642014503,0.133682236075401,0.296024143695831,0.0397387929260731,0.998610854148865,1.22453570365906,0.524415493011475,8.61685180664062,0.097377210855484,0.122662544250488,0.25178000330925,0.0166669730097055,1.34590554237366,0.756214678287506,0.962361693382263,-0.303550004959106,0.180136859416962,0.252486765384674,0.686009347438812,0.420659095048904,5.03454542160034,14.6528882980347,4.05403470993042,2012-02-11 12:43:16
1.01699995994568,41,-5.2168984413147,0.35953825712204,0.433934539556503,0.941677510738373,5.32571506500244,17.9514007568359,14.2346591949463,6.38583469390869,8.25815582275391,0.457581400871277,0.574651837348938,1.51907444000244,9.18051433563232,34.5400390625,47.7027130126953,9.45075130462646,0.764918684959412,0.43388444185257,0.541715502738953,1.08853816986084,6.80662488937378,40.1961212158203,52.4251365661621,6.73310470581055,2012-02-11 12:43:17
1.01199984550476,43,-4.76329517364502,0.438928425312042,0.605835616588593,2.209233045578,0.112078510224819,7.60477209091187,36.7867431640625,7.71716785430908,8.48229598999023,0.396317988634109,0.499854862689972,1.41261386871338,6.80655956268311,15.2249641418457,12.5549592971802,0.580397665500641,-0.0567873418331146,0.636472284793854,0.698014318943024,1.13962388038635,50.1060562133789,94.1585159301758,25.0077438354492,1.75840651988983,2012-02-11 12:43:18
1.04700016975403,47,-4.72492742538452,0.507770478725433,0.653667688369751,1.88099896907806,0.931720674037933,8.5944185256958,42.0475769042969,34.0309257507324,8.51029396057129,0.372741371393204,0.435827016830444,0.923703014850616,0.141282245516777,6.39044284820557,11.4901857376099,10.2345409393311,-0.445680946111679,0.618746757507324,0.679065585136414,1.12233972549438,19.3438453674316,69.2765197753906,54.3007392883301,19.0115356445312,2012-02-11 12:43:19
1.01600003242493,45,-4.61849641799927,0.244444668292999,0.266512870788574,0.450670033693314,6.62743330001831,12.8984479904175,2.08489561080933,0.964571893215179,8.59476566314697,0.175774082541466,0.223716795444489,0.651379764080048,3.73187708854675,6.25791454315186,1.04484450817108,0.420151978731155,-0.0326888337731361,0.135404407978058,0.177353113889694,0.415148168802261,2.03995084762573,2.29535722732544,0.981757640838623,0.550797760486603,2012-02-11 12:43:20
1.00599980354309,49,-4.4213981628418,0.0934919416904449,0.113433711230755,0.236760690808296,2.82070970535278,3.58578848838806,0.762126863002777,0.309987485408783,8.70650386810303,0.055801197886467,0.0657007768750191,0.148900911211967,0.663946628570557,0.952115714550018,0.170932978391647,0.25019970536232,-0.0870590358972549,0.0431557931005955,0.050807673484087,0.099267303943634,0.00904585607349873,0.487838327884674,0.173354044556618,0.10927776992321,2012-02-11 12:43:21
1.01100015640259,35,-4.75398349761963,0.252235054969788,0.335669040679932,0.929390251636505,0.319342583417892,2.34645819664001,4.6815242767334,8.60046100616455,8.70634365081787,0.409077435731888,0.590318977832794,1.63967227935791,3.68588995933533,11.620171546936,28.5439605712891,16.3820915222168,-0.753711104393005,0.539005517959595,0.587932467460632,1.37153005599976,0.0344703942537308,11.2780752182007,21.2501773834229,9.13856220245361,2012-02-11 12:43:22
1,43,-4.58495092391968,0.576157927513123,0.728172957897186,2.17251515388489,15.3078632354736,48.5518531799316,30.9302005767822,32.1095886230469,8.60316848754883,0.416429936885834,0.509859442710876,0.889668405056,14.7624025344849,39.0183258056641,28.2221221923828,6.11408519744873,0.43536964058876,0.253201425075531,0.32859605550766,0.808022320270538,1.98404109477997,7.46468830108643,20.5668067932129,3.90739440917969,2012-02-11 12:43:23
1.01899981498718,44,-4.37777757644653,0.575735449790955,0.691583156585693,1.39655613899231,12.6152172088623,26.8414897918701,90.4483947753906,19.5531387329102,8.64723587036133,0.42292195558548,0.569265246391296,1.65955209732056,0.23715578019619,1.25770223140717,7.48217868804932,5.58434343338013,0.270797252655029,0.698247611522675,0.815377116203308,1.34952867031097,32.2307929992676,31.9848041534424,13.3586750030518,4.49331188201904,2012-02-11 12:43:24
1.00200009346008,47,-4.68799591064453,0.344338148832321,0.392562985420227,0.911601066589355,25.3669738769531,41.9253120422363,7.19518136978149,7.4765625,8.64424896240234,0.566965639591217,0.707340717315674,1.67234623432159,44.6046180725098,65.5376586914062,30.9957485198975,27.5357055664062,0.402489960193634,0.42058053612709,0.478304117918015,0.91243577003479,26.0634574890137,40.1707954406738,6.60386657714844,0.633030652999878,2012-02-11 12:43:25
1.01699995994568,44,-4.63876819610596,0.484314769506454,0.600504815578461,1.3143138885498,5.55879402160645,29.4341087341309,19.5285797119141,4.49448919296265,8.73348999023438,0.508446395397186,0.646449565887451,1.93614459037781,3.10181283950806,18.8716926574707,68.5690765380859,26.9856586456299,-0.293085098266602,0.586595714092255,0.707446336746216,1.72708463668823,71.9361724853516,85.7598419189453,10.7957010269165,7.23986148834229,2012-02-11 12:43:26
1.00800013542175,46,-4.60528802871704,0.471831470727921,0.552930176258087,1.09450745582581,24.0593719482422,47.2834243774414,19.0554180145264,2.05570816993713,8.54308414459229,0.219370529055595,0.294000267982483,0.841879725456238,0.270480841398239,1.45048928260803,2.86912727355957,0.0806915536522865,0.311894088983536,0.19940496981144,0.288615107536316,1.24352586269379,0.0430333502590656,3.11564207077026,7.22604036331177,1.88548469543457,2012-02-11 12:43:27
1.01399993896484,44,-4.21997976303101,0.43210044503212,0.567696273326874,1.38585793972015,26.2251987457275,39.0714530944824,35.9271011352539,4.73075389862061,8.58928775787354,0.262631773948669,0.349921315908432,0.94277560710907,3.77281427383423,4.9002833366394,2.40389347076416,1.52541983127594,0.406530201435089,0.633420407772064,0.760774075984955,1.3978933095932,14.6135387420654,40.8512191772461,38.5754356384277,9.22165966033936,2012-02-11 12:43:28
