"diffSecs","N.samples","x.mean","x.absolute.deviation","x.standard.deviation","x.max.deviation","x.PSD.1","x.PSD.3","x.PSD.6","x.PSD.10","y.mean","y.absolute.deviation","y.standard.deviation","y.max.deviation","y.PSD.1","y.PSD.3","y.PSD.6","y.PSD.10","z.mean","z.absolute.deviation","z.standard.deviation","z.max.deviation","z.PSD.1","z.PSD.3","z.PSD.6","z.PSD.10","time"
1.01699995994568,39,-1.81674468517303,1.28814625740051,1.62758374214172,4.28299140930176,20.4354095458984,93.7262573242188,263.395904541016,204.043319702148,-9.2454080581665,2.54396486282349,3.12623023986816,8.64720153808594,350.831878662109,518.055603027344,180.858276367188,178.321197509766,0.0736756026744843,2.40578198432922,3.1855571269989,7.69319105148315,12.1292781829834,220.703430175781,374.677520751953,144.351638793945,2012-01-21 12:41:13
1.01500010490417,37,-2.58100414276123,1.71247458457947,2.27520656585693,6.53917980194092,10.3912601470947,61.1669654846191,218.636154174805,98.9772796630859,-10.4438171386719,1.90919494628906,2.43476057052612,6.45251035690308,220.68000793457,262.810577392578,87.9837799072266,32.6246643066406,-2.15693283081055,2.63061761856079,3.0848388671875,7.02209091186523,251.932266235352,463.211090087891,145.594833374023,78.2535858154297,2012-01-21 12:41:14
1.01899981498718,45,-1.57799887657166,0.504299104213715,0.619529962539673,1.77587532997131,11.3716678619385,8.38881206512451,6.92495441436768,34.4648742675781,-8.6899995803833,1.49401044845581,1.9469119310379,4.65946626663208,131.350570678711,133.890625,110.412071228027,182.377487182617,-1.26549363136292,1.68997871875763,2.13494157791138,6.0600733757019,76.046630859375,279.189636230469,161.306991577148,87.2364349365234,2012-01-21 12:41:15
1.00999999046326,49,-2.16386723518372,0.888439178466797,1.17168438434601,2.86694407463074,91.5629425048828,124.388900756836,90.533332824707,24.2673244476318,-9.23706340789795,1.78482663631439,2.25127100944519,4.87310409545898,115.08277130127,67.3254470825195,103.589416503906,310.0810546875,-0.782530605792999,1.98209512233734,2.75199437141418,7.00394916534424,24.4175682067871,783.504516601562,1762.59240722656,173.217102050781,2012-01-21 12:41:16
1.01600003242493,40,-1.96672356128693,1.15127623081207,1.55965650081635,4.78025150299072,21.4957370758057,64.6398391723633,169.619354248047,159.609283447266,-10.1128625869751,1.77214741706848,2.22130727767944,5.03841114044189,35.4107055664062,51.403751373291,289.031982421875,119.096260070801,-1.55582499504089,1.52878320217133,2.21868443489075,7.09364032745361,26.0293560028076,113.158729553223,255.235488891602,183.115600585938,2012-01-21 12:41:17
1.00600004196167,42,-2.20416116714478,1.35578596591949,1.68773150444031,3.6307954788208,1.56241941452026,60.9076271057129,58.8143272399902,93.3092727661133,-9.59674072265625,2.10464930534363,2.80667519569397,7.32953643798828,219.179702758789,445.175659179688,241.06999206543,237.427673339844,-0.449471473693848,1.74231481552124,2.51896476745605,6.72899627685547,1.12322056293488,119.624114990234,1047.35620117188,475.170227050781,2012-01-21 12:41:18
