"diffSecs","N.samples","x.mean","x.absolute.deviation","x.standard.deviation","x.max.deviation","x.PSD.1","x.PSD.3","x.PSD.6","x.PSD.10","y.mean","y.absolute.deviation","y.standard.deviation","y.max.deviation","y.PSD.1","y.PSD.3","y.PSD.6","y.PSD.10","z.mean","z.absolute.deviation","z.standard.deviation","z.max.deviation","z.PSD.1","z.PSD.3","z.PSD.6","z.PSD.10","time"
1.00399994850159,43,10.3542261123657,1.93218052387238,2.32648587226868,5.21873426437378,81.3642425537109,109.080619812012,314.205505371094,131.918212890625,-1.0317507982254,1.42892801761627,1.81316983699799,5.78797578811646,4.18895769119263,165.196014404297,369.745452880859,51.0673370361328,-0.69079864025116,1.56467247009277,1.9542475938797,5.38932418823242,4.30261278152466,146.754898071289,473.486785888672,72.5553436279297,2012-01-12 18:12:01
1.00799989700317,38,10.2665300369263,1.90610301494598,2.29095888137817,4.35312032699585,1.15445899963379,15.196310043335,400.850860595703,191.509506225586,-1.26970303058624,1.14145600795746,1.4683450460434,4.57454395294189,0.194659680128098,19.7595252990723,181.015502929688,59.5085334777832,-0.204391226172447,0.797190964221954,1.09301733970642,3.97324156761169,0.218344584107399,6.42394876480103,79.5283203125,43.3268280029297,2012-01-12 18:12:02
1,43,10.1047258377075,1.85920083522797,2.24018049240112,4.48551607131958,26.0931434631348,179.181274414062,737.401977539062,211.548446655273,-1.13323819637299,1.38030314445496,1.59272277355194,2.91804838180542,54.8727188110352,270.710723876953,409.034484863281,83.4816818237305,-0.728656888008118,1.28752982616425,1.60814940929413,4.2531213760376,203.198104858398,539.48291015625,469.872711181641,71.9310073852539,2012-01-12 18:12:03
1.00400018692017,49,8.34225654602051,1.61422920227051,2.25107979774475,7.76026153564453,46.9508819580078,386.586853027344,1256.12426757812,250.462493896484,-0.412279546260834,0.726165890693665,0.915989816188812,2.08841609954834,94.1322402954102,70.6891403198242,11.6266269683838,31.4618129730225,-2.10582804679871,1.06446874141693,1.2868025302887,3.44473576545715,153.102233886719,222.153656005859,121.011779785156,82.4851608276367,2012-01-12 18:12:04
1.0239999294281,25,10.6002035140991,2.67992997169495,3.1703634262085,6.99292612075806,85.7600860595703,149.673904418945,128.698104858398,13.5891427993774,-1.1238420009613,1.0117324590683,1.13706398010254,2.01624727249146,5.83662462234497,10.585560798645,12.3248882293701,1.35445582866669,-1.97937417030334,0.744740545749664,0.945441126823425,2.21787190437317,0.531317472457886,1.35792803764343,2.45822882652283,1.15763127803802,2012-01-12 18:12:05
1.00999999046326,43,8.79291534423828,2.15504455566406,2.60104322433472,5.56401968002319,2.01324272155762,172.831619262695,1045.83288574219,326.06005859375,-1.20963883399963,1.37558281421661,1.73841941356659,3.88981890678406,107.913299560547,165.981323242188,69.6257247924805,20.2131900787354,-2.99650168418884,1.17039096355438,1.50457453727722,4.24080610275269,4.31255626678467,37.5192794799805,98.2154769897461,47.3104629516602,2012-01-12 18:12:06
