"diffSecs","level","azimuth.mean","azimuth.absolute.deviation","azimuth.standard.deviation","azimuth.max.deviation","pitch.mean","pitch.absolute.deviation","pitch.standard.deviation","pitch.max.deviation","roll.mean","roll.absolute.deviation","roll.standard.deviation","roll.max.deviation","time"
1.00300002098083,21,-21.3523807525635,0.350113391876221,0.418181091547012,0.952381610870361,-29.6571426391602,0.506122469902039,0.569520771503448,0.857143521308899,-41.1238098144531,0.81088399887085,0.903909087181091,1.67618942260742,2012-02-07 17:28:58
1.00399994850159,99,-22.7151508331299,0.146433919668198,0.182221695780754,0.484849900007248,-28.0565662384033,0.622711598873138,0.775399446487427,2.34343385696411,-40.9494934082031,0.764085233211517,0.984051704406738,1.85050415992737,2012-02-07 17:28:59
1,97,-22.4701023101807,0.21086174249649,0.263272166252136,0.47010263800621,-27.3237113952637,0.199383452534676,0.225110843777657,0.523712635040283,-41.1793823242188,0.557763814926147,0.76924604177475,2.42061710357666,2012-02-07 17:29:00
1,92,-22.8086948394775,0.663138270378113,0.759813010692596,1.591304063797,-25.8434772491455,1.62646496295929,1.98161673545837,4.2434778213501,-41.9869575500488,1.22287333011627,1.34157729148865,2.41304469108582,2012-02-07 17:29:01
1.06900000572205,95,-22.6399993896484,1.07621049880981,1.28262889385223,3.03999972343445,-21.9452629089355,0.316010773181915,0.387642562389374,0.854736030101776,-43.7347373962402,0.697883665561676,0.860081672668457,2.26526308059692,2012-02-07 17:29:02
1,99,-18.7111110687256,1.48507297039032,1.63552057743073,2.48888945579529,-18.0040397644043,1.95996332168579,2.25235772132874,4.00404071807861,-47.3818168640137,0.726537644863129,0.936397731304169,2.61818194389343,2012-02-07 17:29:03
1,93,-16.3268814086914,0.746444702148438,0.799884557723999,1.27311849594116,-22.8602142333984,0.89009165763855,1.10513377189636,2.06021571159363,-45.5440864562988,0.315596431493759,0.425393372774124,1.25591349601746,2012-02-07 17:29:04
1,94,-16.8808517456055,0.463920831680298,0.530210375785828,1.11914896965027,-27.0468082427979,2.69225883483887,3.35685062408447,7.75319051742554,-43.9914894104004,1.8500679731369,2.34764075279236,5.59148788452148,2012-02-07 17:29:05
