"diffSecs","latitude","longitude","altitude","time"
1.05200004577637,42.85489339,-71.49116904,17.7000007629395,2012-01-18 14:54:01
1.0310001373291,42.85489339,-71.49116904,17.7000007629395,2012-01-18 14:54:02
0.944999933242798,42.85489339,-71.49116904,17.7000007629395,2012-01-18 14:54:03
1.15899991989136,42.85489339,-71.49116904,17.7000007629395,2012-01-18 14:54:04
0.927999973297119,42.85489339,-71.49116904,17.7000007629395,2012-01-18 14:54:05
1.24399995803833,42.8548934,-71.49116904,17.7000007629395,2012-01-18 14:54:06
0.858000040054321,42.8548934,-71.49116905,17.7000007629395,2012-01-18 14:54:07
0.692000150680542,42.85489341,-71.49116905,17.7000007629395,2012-01-18 14:54:07
1.11500000953674,42.85489341,-71.49116904,17.7000007629395,2012-01-18 14:54:09
0.885999917984009,42.85489341,-71.49116905,17.7000007629395,2012-01-18 14:54:09
1.42700004577637,42.85489341,-71.49116904,17.7000007629395,2012-01-18 14:54:11
0.575000047683716,42.8548934,-71.49116903,17.7000007629395,2012-01-18 14:54:11
1.01099991798401,42.8548934,-71.49116903,17.7000007629395,2012-01-18 14:54:12
1.12999987602234,42.8548934,-71.49116903,17.7000007629395,2012-01-18 14:54:14
0.861999988555908,42.85489339,-71.49116902,17.7000007629395,2012-01-18 14:54:14
1.00500011444092,42.8548934,-71.49116903,17.7000007629395,2012-01-18 14:54:15
0.831000089645386,42.8548934,-71.49116903,17.7000007629395,2012-01-18 14:54:16
0.73799991607666,42.85489341,-71.49116903,17.7000007629395,2012-01-18 14:54:17
1.05399990081787,42.85489341,-71.49116903,17.7000007629395,2012-01-18 14:54:18
0.953999996185303,42.85489341,-71.49116903,17.7000007629395,2012-01-18 14:54:19
1.17700004577637,42.85489341,-71.49116904,17.7000007629395,2012-01-18 14:54:20
0.860000133514404,42.85489341,-71.49116904,17.7000007629395,2012-01-18 14:54:21
0.955999851226807,42.8548934,-71.49116903,17.7000007629395,2012-01-18 14:54:22
1.11899995803833,42.8548934,-71.49116903,17.7000007629395,2012-01-18 14:54:23
1.00200009346008,42.8548934,-71.49116903,17.7000007629395,2012-01-18 14:54:24
0.921999931335449,42.8548934,-71.49116903,17.7000007629395,2012-01-18 14:54:25
1.04400014877319,42.8548934,-71.49116903,17.7000007629395,2012-01-18 14:54:26
1.05799984931946,42.85489339,-71.49116902,17.7000007629395,2012-01-18 14:54:27
0.903000116348267,42.85489339,-71.49116902,17.7000007629395,2012-01-18 14:54:28
1.03699994087219,42.85489339,-71.49116902,17.7000007629395,2012-01-18 14:54:29
0.927999973297119,42.85489339,-71.49116902,17.7000007629395,2012-01-18 14:54:30
0.988000154495239,42.85489338,-71.49116901,17.7000007629395,2012-01-18 14:54:31
1.16799998283386,42.85489338,-71.491169,17.7000007629395,2012-01-18 14:54:32
0.827999830245972,42.85489338,-71.491169,17.7000007629395,2012-01-18 14:54:33
0.996000051498413,42.85489338,-71.491169,17.7000007629395,2012-01-18 14:54:34
1.12800002098083,42.85489337,-71.491169,17.7000007629395,2012-01-18 14:54:35
0.88100004196167,42.85489338,-71.491169,17.7000007629395,2012-01-18 14:54:36
0.994999885559082,42.85489338,-71.491169,17.7000007629395,2012-01-18 14:54:37
1.90300011634827,42.85489337,-71.49116899,17.7000007629395,2012-01-18 14:54:39
0.25600004196167,42.85489338,-71.49116899,17.7000007629395,2012-01-18 14:54:39
1.02799987792969,42.85489338,-71.49116898,17.7000007629395,2012-01-18 14:54:40
1.54200005531311,42.85489338,-71.49116899,17.7000007629395,2012-01-18 14:54:42
0.436000108718872,42.85489339,-71.49116899,17.7000007629395,2012-01-18 14:54:42
1.01199984550476,42.85489339,-71.49116899,17.7000007629395,2012-01-18 14:54:43
1.01600003242493,42.85489339,-71.49116899,17.7000007629395,2012-01-18 14:54:44
0.957000017166138,42.85489339,-71.49116899,17.7000007629395,2012-01-18 14:54:45
0.88700008392334,42.85489339,-71.49116899,17.7000007629395,2012-01-18 14:54:46
1.02300000190735,42.85489339,-71.49116898,17.7000007629395,2012-01-18 14:54:47
1.0019998550415,42.85489339,-71.49116899,17.7000007629395,2012-01-18 14:54:48
1.0310001373291,42.85489338,-71.49116898,17.7000007629395,2012-01-18 14:54:49
0.94599986076355,42.85489338,-71.49116898,17.7000007629395,2012-01-18 14:54:50
1.00100016593933,42.85489338,-71.49116898,17.7000007629395,2012-01-18 14:54:51
1.0019998550415,42.85489337,-71.49116898,17.7000007629395,2012-01-18 14:54:52
0.993000030517578,42.85489337,-71.49116898,17.7000007629395,2012-01-18 14:54:53
1.00500011444092,42.85489338,-71.49116899,17.7000007629395,2012-01-18 14:54:54
1.0259997844696,42.85489338,-71.491169,17.7000007629395,2012-01-18 14:54:55
1.07000017166138,42.8548934,-71.49116902,17.7000007629395,2012-01-18 14:54:56
0.898000001907349,42.85489343,-71.49116906,17.7000007629395,2012-01-18 14:54:57
1.00399994850159,42.85489345,-71.49116908,17.7000007629395,2012-01-18 14:54:58
0.99399995803833,42.85489341,-71.49116897,17.7000007629395,2012-01-18 14:54:59
1.02099990844727,42.85489341,-71.49116897,17.7000007629395,2012-01-18 14:55:00
1.03400015830994,42.85489344,-71.491169,17.7000007629395,2012-01-18 14:55:01
1.06200003623962,42.85489341,-71.4911689,17.7000007629395,2012-01-18 14:55:02
0.882999897003174,42.85489341,-71.49116889,17.7000007629395,2012-01-18 14:55:03
1.00500011444092,42.85489341,-71.49116889,17.7000007629395,2012-01-18 14:55:04
1.01099991798401,42.85489339,-71.49116885,17.7000007629395,2012-01-18 14:55:05
1.03600001335144,42.85489339,-71.49116884,17.7000007629395,2012-01-18 14:55:06
0.958999872207642,42.85489339,-71.49116884,17.7000007629395,2012-01-18 14:55:07
1.06000018119812,42.8548934,-71.49116886,17.7000007629395,2012-01-18 14:55:08
0.934999942779541,42.8548934,-71.49116886,17.7000007629395,2012-01-18 14:55:09
0.999000072479248,42.85489339,-71.49116888,17.7000007629395,2012-01-18 14:55:10
1.00099992752075,42.85489339,-71.49116888,17.7000007629395,2012-01-18 14:55:11
0.999000072479248,42.85489339,-71.49116888,17.7000007629395,2012-01-18 14:55:12
1.01399993896484,42.85489338,-71.49116884,17.7000007629395,2012-01-18 14:55:13
1.0149998664856,42.85489339,-71.49116888,17.7000007629395,2012-01-18 14:55:14
1.06100010871887,42.8548934,-71.49116893,17.7000007629395,2012-01-18 14:55:15
0.948999881744385,42.85489341,-71.49116893,17.7000007629395,2012-01-18 14:55:16
0.961000204086304,42.85489342,-71.49116895,17.7000007629395,2012-01-18 14:55:17
0.997999906539917,42.85489342,-71.49116895,17.7000007629395,2012-01-18 14:55:18
1.00399994850159,42.85489346,-71.49116903,17.7000007629395,2012-01-18 14:55:19
1.00600004196167,42.85489347,-71.49116903,17.7000007629395,2012-01-18 14:55:20
1.02500009536743,42.85489348,-71.49116905,17.7000007629395,2012-01-18 14:55:21
1.02499985694885,42.85489351,-71.49116911,17.7000007629395,2012-01-18 14:55:22
0.943000078201294,42.85489352,-71.49116916,17.7000007629395,2012-01-18 14:55:23
0.994999885559082,42.85489352,-71.49116915,17.7000007629395,2012-01-18 14:55:24
1.007000207901,42.85489353,-71.49116919,17.7000007629395,2012-01-18 14:55:25
0.996999979019165,42.85489355,-71.4911692,17.7000007629395,2012-01-18 14:55:26
1.00399994850159,42.85489354,-71.49116914,17.7000007629395,2012-01-18 14:55:27
1.03699994087219,42.85489355,-71.49116917,17.7000007629395,2012-01-18 14:55:28
0.959000110626221,42.85489357,-71.49116921,17.7000007629395,2012-01-18 14:55:29
0.997999906539917,42.85489357,-71.49116921,17.7000007629395,2012-01-18 14:55:30
1.00200009346008,42.85489353,-71.49116912,17.7000007629395,2012-01-18 14:55:31
0.998999834060669,42.85489354,-71.49116914,17.7000007629395,2012-01-18 14:55:32
1.01800012588501,42.85489354,-71.49116914,17.7000007629395,2012-01-18 14:55:33
1.04900002479553,42.85489354,-71.49116915,17.7000007629395,2012-01-18 14:55:34
0.931999921798706,42.85489354,-71.49116917,17.7000007629395,2012-01-18 14:55:35
1.00500011444092,42.85489352,-71.49116912,17.7000007629395,2012-01-18 14:55:36
1,42.85489351,-71.49116908,17.7000007629395,2012-01-18 14:55:37
0.995999813079834,42.85489352,-71.49116909,17.7000007629395,2012-01-18 14:55:38
1.00400018692017,42.85489352,-71.49116909,17.7000007629395,2012-01-18 14:55:39
1.0019998550415,42.85489353,-71.49116913,17.7000007629395,2012-01-18 14:55:40
1.10400009155273,42.85489353,-71.49116913,17.7000007629395,2012-01-18 14:55:41
0.891000032424927,42.85489353,-71.49116913,17.7000007629395,2012-01-18 14:55:42
0.992999792098999,42.85489353,-71.49116915,17.7000007629395,2012-01-18 14:55:43
1.00500011444092,42.85489353,-71.49116917,17.7000007629395,2012-01-18 14:55:44
1.01399993896484,42.85489352,-71.49116914,17.7000007629395,2012-01-18 14:55:45
1.0460000038147,42.85489352,-71.49116916,17.7000007629395,2012-01-18 14:55:46
0.944000005722046,42.85489353,-71.49116915,17.7000007629395,2012-01-18 14:55:47
0.996999979019165,42.85489352,-71.49116915,17.7000007629395,2012-01-18 14:55:48
1,42.85489351,-71.4911691,17.7000007629395,2012-01-18 14:55:49
1.00600004196167,42.85489351,-71.4911691,17.7000007629395,2012-01-18 14:55:50
1.03699994087219,42.85489351,-71.4911691,17.7000007629395,2012-01-18 14:55:51
1.04400014877319,42.85489351,-71.4911691,17.7000007629395,2012-01-18 14:55:52
0.909999847412109,42.85489351,-71.4911691,17.7000007629395,2012-01-18 14:55:53
1.00400018692017,42.85489348,-71.49116898,17.7000007629395,2012-01-18 14:55:54
1.00099992752075,42.85489348,-71.49116898,17.7000007629395,2012-01-18 14:55:55
1.72399997711182,42.85489348,-71.49116898,17.7000007629395,2012-01-18 14:55:57
1.00699996948242,42.85489348,-71.49116898,17.7000007629395,2012-01-18 14:55:58
1.01699995994568,42.85489347,-71.49116896,17.7000007629395,2012-01-18 14:55:59
1.09899997711182,42.85489347,-71.49116896,17.7000007629395,2012-01-18 14:56:00
