"diffSecs","N.samples","x.mean","x.absolute.deviation","x.standard.deviation","x.max.deviation","x.PSD.1","x.PSD.3","x.PSD.6","x.PSD.10","y.mean","y.absolute.deviation","y.standard.deviation","y.max.deviation","y.PSD.1","y.PSD.3","y.PSD.6","y.PSD.10","z.mean","z.absolute.deviation","z.standard.deviation","z.max.deviation","z.PSD.1","z.PSD.3","z.PSD.6","z.PSD.10","time"
1.74300003051758,44,-6.3190484046936,0.0794663354754448,0.10040320456028,0.248732179403305,1.21328556537628,1.36144351959229,0.586287260055542,0.125468701124191,-7.96010208129883,0.0612106882035732,0.0847886279225349,0.189224123954773,0.221984386444092,0.146843537688255,0.0422498919069767,0.104031585156918,-0.477628409862518,0.0620513781905174,0.0767514407634735,0.179417118430138,0.46107405424118,0.476318299770355,0.0883660390973091,0.247262269258499,2012-01-17 14:10:01
7.24499988555908,19,-6.50645399093628,0.0255353040993214,0.0325045101344585,0.093421533703804,0.000149658269947395,0.000365022220648825,0.000943978782743216,0.00121830555144697,-7.77512502670288,0.0253722853958607,0.0290325079113245,0.0603882148861885,0.000704260601196438,0.00145649164915085,0.00435530534014106,0.00237712077796459,-0.338587492704391,0.0271109063178301,0.0338769964873791,0.0732918158173561,0.000619193771854043,0.00127393216826022,0.00227955845184624,0.00114354921970516,2012-01-17 14:10:08
0.503999948501587,99,-6.46981334686279,0.0651955232024193,0.0771368891000748,0.188901916146278,0.548838019371033,1.44850707054138,0.628146767616272,0.300404995679855,-7.86493301391602,0.0562643855810165,0.0661457777023315,0.147099554538727,0.129641473293304,2.0656726360321,0.721690118312836,0.616989016532898,-0.187713146209717,0.0562203899025917,0.0704416260123253,0.194746196269989,1.00310409069061,1.00809240341187,0.315261900424957,0.442470252513885,2012-01-17 14:10:09
0.16100001335144,99,-6.27209520339966,0.169453665614128,0.205456003546715,0.446945399045944,1.72363817691803,30.5677642822266,1.27972877025604,1.02694010734558,-7.97013187408447,0.157554730772972,0.194375857710838,0.522426784038544,1.88524436950684,26.0431880950928,0.680437922477722,1.85284006595612,-0.549370527267456,0.601136326789856,0.709912300109863,1.36292612552643,201.326858520508,254.39323425293,7.17646932601929,1.47445547580719,2012-01-17 14:10:09
0.398000001907349,99,-6.91289567947388,0.284986227750778,0.323175460100174,0.646446645259857,18.618013381958,33.2632331848145,2.0611846446991,0.436260789632797,-7.30833148956299,0.2845399081707,0.333190262317657,0.742927610874176,17.8348350524902,33.5015983581543,13.8900156021118,0.489061236381531,0.625941634178162,1.10359585285187,1.30573630332947,2.71475791931152,490.931610107422,504.624328613281,0.947050333023071,2.31953120231628,2012-01-17 14:10:10
1.00800013542175,48,-7.24793148040771,0.0526425801217556,0.0671066716313362,0.157723814249039,0.124751009047031,0.384164452552795,0.457191705703735,0.0739209577441216,-6.97538805007935,0.0378134362399578,0.0504414029419422,0.149960234761238,0.0041657593101263,0.0828440189361572,0.195078253746033,0.207787305116653,1.5380095243454,0.0524383261799812,0.061056837439537,0.138927534222603,0.000305408291751519,0.0201465915888548,0.635707497596741,0.460296899080276,2012-01-17 14:10:11
1.13199996948242,41,-7.11962747573853,0.0937612429261208,0.124686703085899,0.294199734926224,0.970806002616882,1.07576704025269,0.180819809436798,0.136005133390427,-7.10479831695557,0.111647687852383,0.148063316941261,0.348016679286957,0.638502180576324,0.508397817611694,0.137314915657043,0.0169788971543312,1.61116075515747,0.071744292974472,0.0924838781356812,0.179389879107475,0.156330704689026,0.126451000571251,0.167068287730217,0.0924297720193863,2012-01-17 14:10:12
1.00600004196167,45,-6.96490049362183,0.021598806604743,0.0274965967983007,0.0610190480947495,0.000309231865685433,0.045494370162487,0.0674189925193787,0.0218898355960846,-7.25321626663208,0.0235649757087231,0.0304752606898546,0.0845549702644348,0.0243487227708101,0.0494151376187801,0.0294441320002079,0.0130110559985042,1.67693710327148,0.0200491473078728,0.0281959008425474,0.0686465501785278,0.0126406326889992,0.018230602145195,0.0588182508945465,0.050453145056963,2012-01-17 14:10:13
1.01099991798401,39,-7.05827331542969,0.0318764597177505,0.0431034564971924,0.095551885664463,0.155204847455025,0.234336882829666,0.113446936011314,0.0671531111001968,-7.17997646331787,0.0600390955805779,0.0708748251199722,0.138801977038383,0.364728420972824,0.425940662622452,0.202537581324577,0.107414394617081,1.72068989276886,0.0229788962751627,0.035242848098278,0.113153599202633,0.000419694551965222,0.00437304051592946,0.017245652154088,0.0224165245890617,2012-01-17 14:10:14
1.02300000190735,37,-7.08331680297852,0.0346421338617802,0.0400051549077034,0.0813687071204185,0.00631433119997382,0.00343222660012543,0.0827774554491043,0.0615659691393375,-7.09047269821167,0.0601437427103519,0.0674621388316154,0.11741479486227,0.281917989253998,0.371988713741302,0.0539502613246441,0.0771907567977905,1.72623538970947,0.0390260219573975,0.0485531017184258,0.0983315780758858,0.0203388426452875,0.0251394957304001,0.112103119492531,0.0253463052213192,2012-01-17 14:10:15
1.03800010681152,50,-7.00920486450195,0.0280469711869955,0.0330418050289154,0.0711961537599564,0.0580154284834862,0.0858392715454102,0.0658943727612495,0.112925082445145,-7.15865802764893,0.0437612161040306,0.0567597784101963,0.147295713424683,0.112238168716431,0.530810654163361,0.593556940555573,0.0103740794584155,1.75205600261688,0.0263524260371923,0.0333201102912426,0.0817874297499657,0.0374822281301022,0.09792760014534,0.0376793593168259,0.0269850213080645,2012-01-17 14:10:16
1.14999985694885,31,-7.04750108718872,0.0246543623507023,0.0299475453794003,0.0721266642212868,0.021084712818265,0.0340069681406021,0.0181672852486372,0.00336521002463996,-7.14936399459839,0.0244706906378269,0.0313579365611076,0.087943397462368,0.00562627660110593,0.00781016191467643,0.00718203000724316,0.00862080510705709,1.74937975406647,0.0222664885222912,0.0257271081209183,0.0528293922543526,0.000601320643909276,0.00188534148037434,0.00424230424687266,0.00108590163290501,2012-01-17 14:10:17
1.00100016593933,49,-7.13423776626587,0.0325364470481873,0.04128048568964,0.102869920432568,0.00118451984599233,0.0939057469367981,0.195705533027649,0.102687455713749,-7.05978727340698,0.0371599271893501,0.0500532016158104,0.108874037861824,0.0596526339650154,0.238647371530533,0.318329006433487,0.142793625593185,1.69875192642212,0.0404519215226173,0.0497787036001682,0.115478314459324,0.000816612795460969,0.14197938144207,0.493720084428787,0.0511488318443298,2012-01-17 14:10:18
1.00799989700317,41,-7.12058448791504,0.0317360945045948,0.042432639747858,0.0971097946166992,0.0771884322166443,0.16912317276001,0.0784958824515343,0.0538212321698666,-7.07489967346191,0.0260538402944803,0.0339746251702309,0.0827584713697433,0.0367011092603207,0.0476656556129456,0.0134027125313878,0.0197661779820919,1.66402101516724,0.0443253703415394,0.0510919727385044,0.114570379257202,0.0876800864934921,0.131687059998512,0.222495794296265,0.0581303797662258,2012-01-17 14:10:19
1.03500008583069,46,-7.09660339355469,0.0352595187723637,0.0440573506057262,0.0848488360643387,0.00851292349398136,0.00970855820924044,0.111049577593803,0.0577954687178135,-7.10001420974731,0.0383739769458771,0.0467636696994305,0.0980665236711502,0.00694175204262137,0.0353654883801937,0.369995176792145,0.22276645898819,1.75602984428406,0.0377620905637741,0.0430096015334129,0.0692861378192902,0.0262323897331953,0.0236567258834839,0.37054118514061,0.0884472727775574,2012-01-17 14:10:20
1.01399993896484,35,-7.1532506942749,0.0432293452322483,0.0584315992891788,0.141496106982231,0.0619726590812206,0.0636968314647675,0.0790410116314888,0.0396071746945381,-7.03697156906128,0.0507544502615929,0.0617690868675709,0.14149609208107,0.0698421448469162,0.0743592083454132,0.0266917999833822,0.0198005922138691,1.72400903701782,0.0423647351562977,0.0549672469496727,0.10983444750309,0.0230440106242895,0.0506410636007786,0.0844161584973335,0.0505340248346329,2012-01-17 14:10:21
1.00499987602234,47,-7.30240678787231,0.060944102704525,0.0699435248970985,0.182778984308243,0.856982529163361,1.06309103965759,0.0760967060923576,0.0445531457662582,-6.92725038528442,0.0581472516059875,0.0628925040364265,0.104117229580879,0.76210618019104,0.994410216808319,0.122869826853275,0.0445033647119999,1.64563930034637,0.0556524135172367,0.0657893121242523,0.115801908075809,0.705879032611847,1.05701982975006,0.462713450193405,0.0704258009791374,2012-01-17 14:10:22
1.04700016975403,35,-7.37936401367188,0.020894318819046,0.0278730411082506,0.0734098702669144,0.025013105943799,0.049413587898016,0.0583562925457954,0.0215378627181053,-6.85849046707153,0.0328863896429539,0.037146158516407,0.0650041177868843,0.0143283260986209,0.0274807512760162,0.0221730470657349,0.0272237844765186,1.45810878276825,0.0464635118842125,0.0566399842500687,0.144017651677132,0.0210734531283379,0.0554235577583313,0.0809607282280922,0.104349687695503,2012-01-17 14:10:23
1.01300001144409,48,-6.81807327270508,0.0839695334434509,0.0922229811549187,0.164261355996132,1.52045381069183,1.96567606925964,0.208925038576126,0.110948905348778,-7.43854808807373,0.08702552318573,0.0979231894016266,0.191433966159821,1.63999032974243,2.59115743637085,0.330012112855911,0.134950429201126,1.51349294185638,0.0337784513831139,0.041622132062912,0.0849909707903862,0.0325155146420002,0.0212583597749472,0.0921495258808136,0.0260778609663248,2012-01-17 14:10:24
1,21,-6.90061235427856,0.137915715575218,0.150601908564568,0.232090637087822,0.0549540333449841,0.097806379199028,0.0843749865889549,0.0243525821715593,-7.30968999862671,0.168425247073174,0.1827771961689,0.280656814575195,0.0641434267163277,0.114356651902199,0.105060949921608,0.0262954719364643,1.64845108985901,0.0885044634342194,0.105399705469608,0.226486966013908,0.0141537291929126,0.0268030073493719,0.0430130176246166,0.0100069036707282,2012-01-17 14:10:25
1.0019998550415,43,-7.17755556106567,0.056251659989357,0.0699796304106712,0.136381015181541,0.262303560972214,0.329655766487122,0.0870253071188927,0.0389847122132778,-7.00263214111328,0.05214649066329,0.0706342756748199,0.216430559754372,0.00532770249992609,0.301964610815048,0.284821510314941,0.166169509291649,1.65253448486328,0.0536952503025532,0.0647871643304825,0.142310410737991,0.549093782901764,0.885905504226685,0.307778179645538,0.118295945227146,2012-01-17 14:10:26
1.01300001144409,47,-7.04639101028442,0.104281678795815,0.126412183046341,0.240576103329659,2.89561295509338,3.4996702671051,1.00889909267426,0.0996362790465355,-7.18305778503418,0.0795541331171989,0.101588927209377,0.220336645841599,1.66092395782471,2.47523283958435,1.103968501091,0.0787487551569939,1.60036182403564,0.047244168817997,0.0556088238954544,0.119557693600655,0.100242845714092,0.10101506114006,0.212422385811806,0.089169479906559,2012-01-17 14:10:27
1.01100015640259,32,-6.97835063934326,0.0305882673710585,0.0367633812129498,0.0824370086193085,0.0307159181684256,0.0468043982982635,0.019765904173255,0.0114222774282098,-7.24282360076904,0.0489182434976101,0.0602997057139874,0.131776630878448,0.114269405603409,0.167139813303947,0.0642684325575829,0.0395275540649891,1.67234027385712,0.0300903134047985,0.0389177277684212,0.113082982599735,0.00996270589530468,0.020098740234971,0.0117247486487031,0.00316959084011614,2012-01-17 14:10:28
1.01799988746643,47,-6.98191738128662,0.0726730227470398,0.0860400572419167,0.185909152030945,1.02694857120514,1.72176349163055,1.03591477870941,0.291130125522614,-7.27632570266724,0.0903241634368896,0.104911163449287,0.196341678500175,1.35940110683441,2.73874187469482,1.94171190261841,0.152020052075386,1.44220352172852,0.182504013180733,0.201661601662636,0.383085310459137,7.70501041412354,13.7673282623291,2.86801624298096,0.21668304502964,2012-01-17 14:10:29
1.00699996948242,50,-6.5147533416748,0.135033622384071,0.158691301941872,0.300867825746536,5.41367959976196,4.96123790740967,0.286875188350677,0.746488869190216,-7.80295515060425,0.102742277085781,0.122067220509052,0.310674548149109,3.01115202903748,3.23074698448181,0.215886652469635,0.147532358765602,0.185149550437927,0.443260580301285,0.522368252277374,0.940261602401733,70.5557861328125,87.6553421020508,14.3933248519897,4.09176826477051,2012-01-17 14:10:30
1.30599999427795,45,-6.19170045852661,0.052873533219099,0.0667456761002541,0.160610899329185,0.176839560270309,0.507946193218231,0.299191474914551,0.267973810434341,-7.98195886611938,0.0507910810410976,0.0660410895943642,0.175865843892097,0.243414238095284,0.578734219074249,0.158756509423256,0.266493499279022,-1.14323747158051,0.113079138100147,0.133496776223183,0.28025221824646,1.17617845535278,0.832149147987366,0.365120142698288,0.20842307806015,2012-01-17 14:10:31
1.01600003242493,49,-6.61248397827148,0.0895464643836021,0.105936303734779,0.222751319408417,1.91011905670166,2.72985363006592,1.08030295372009,0.290320187807083,-7.53691053390503,0.120808385312557,0.160981968045235,0.407476037740707,3.13679194450378,6.79509687423706,6.61937141418457,1.56970918178558,-1.48740863800049,0.0841305106878281,0.122683346271515,0.395468175411224,0.163739249110222,1.10586822032928,3.99957227706909,2.08608651161194,2012-01-17 14:10:32
1.03800010681152,46,-6.61970186233521,0.124705754220486,0.151033625006676,0.314025789499283,1.7016681432724,5.5641770362854,1.6381162405014,0.896042466163635,-7.61784839630127,0.0961478278040886,0.11327350884676,0.253054410219193,0.0539564117789268,1.62144899368286,0.86713320016861,0.42506867647171,-0.666212618350983,0.664451479911804,0.713675379753113,1.18724429607391,96.4931030273438,113.847297668457,11.7362012863159,4.61468839645386,2012-01-17 14:10:33
1,41,-6.97228860855103,0.0462388321757317,0.0644153878092766,0.156667366623878,0.0885561853647232,0.0703907981514931,0.062121968716383,0.0350954122841358,-7.38847351074219,0.0598901137709618,0.0920449271798134,0.309746861457825,0.0999157428741455,0.119549579918385,0.0543461926281452,0.124649621546268,0.786923825740814,0.126488864421844,0.166576236486435,0.473111063241959,1.94714641571045,1.89023399353027,0.36677148938179,0.331433176994324,2012-01-17 14:10:34
1.00899982452393,49,-6.85344743728638,0.104356519877911,0.134564146399498,0.341831982135773,2.50249290466309,5.81433296203613,2.99538111686707,1.40172445774078,-7.49388122558594,0.114044658839703,0.123670592904091,0.204338803887367,3.36084914207458,4.53531312942505,0.723239541053772,0.253265231847763,0.993473649024963,0.054853517562151,0.0647537186741829,0.134291052818298,0.19442892074585,0.543147325515747,0.223800927400589,0.0958945080637932,2012-01-17 14:10:35
1.01500010490417,33,-6.48932790756226,0.108818739652634,0.116416819393635,0.208614096045494,0.104678943753242,0.451305627822876,0.6276575922966,0.220558926463127,-7.80193281173706,0.129350483417511,0.141681164503098,0.260619074106216,0.00742668891325593,0.392082691192627,0.697833716869354,0.272705972194672,0.927174150943756,0.0402531921863556,0.0551106333732605,0.151557266712189,0.0133267259225249,0.0639677122235298,0.0913186818361282,0.0492494218051434,2012-01-17 14:10:36
1.01600003242493,49,-6.97633075714111,0.102681845426559,0.118540853261948,0.229355573654175,3.11243581771851,4.00048732757568,0.695974409580231,0.215450882911682,-7.32616758346558,0.105108000338078,0.119424842298031,0.254372358322144,2.99063563346863,3.91181135177612,0.558565437793732,0.168025806546211,1.18360257148743,0.04232257604599,0.0527994334697723,0.110875234007835,0.354156970977783,0.461764693260193,0.0745765045285225,0.0185829102993011,2012-01-17 14:10:37
1.00099992752075,45,-7.05446815490723,0.119723483920097,0.136905863881111,0.297686487436295,2.41912508010864,5.44493961334229,2.34123015403748,0.453263342380524,-7.26781702041626,0.106735102832317,0.12330623716116,0.216836109757423,1.72059667110443,3.71014523506165,1.46786177158356,0.0848578363656998,1.02642929553986,0.0517209991812706,0.0635543540120125,0.134024187922478,0.0325591713190079,0.309068590402603,0.4660404920578,0.0534834116697311,2012-01-17 14:10:38
1.00300002098083,28,-6.71790552139282,0.0452056303620338,0.06025205925107,0.136943057179451,0.0475790463387966,0.0792344063520432,0.0607061982154846,0.0207824893295765,-7.60890960693359,0.0346735045313835,0.0425318889319897,0.0795041993260384,0.00642974814400077,0.0152929052710533,0.0431954301893711,0.0259575359523296,1.05876791477203,0.0283692386001348,0.0341207645833492,0.0788034051656723,4.49399449280463e-05,0.00318899704143405,0.0137673774734139,0.026609169319272,2012-01-17 14:10:39
1.00600004196167,43,-6.71573066711426,0.0296055413782597,0.0403649397194386,0.119504548609257,0.175329864025116,0.221334934234619,0.138240650296211,0.112816594541073,-7.61360931396484,0.0503750741481781,0.0635551735758781,0.143450930714607,0.369154989719391,0.72243070602417,0.352307319641113,0.0373350381851196,1.00164663791656,0.0309739504009485,0.0437331609427929,0.106504805386066,0.111080415546894,0.242452248930931,0.277384996414185,0.139681711792946,2012-01-17 14:10:41
1,45,-6.96250343322754,0.100923620164394,0.111630961298943,0.22533506155014,2.04194140434265,2.59486198425293,0.360091060400009,0.0448258817195892,-7.35847425460815,0.0657651424407959,0.0821825340390205,0.192646190524101,0.706767678260803,0.805314302444458,0.206482082605362,0.210863426327705,1.03885114192963,0.0375703610479832,0.0480603612959385,0.10852687805891,0.0806968584656715,0.139481022953987,0.0345850139856339,0.0455597080290318,2012-01-17 14:10:42
1.0090000629425,33,-7.07445764541626,0.0505911968648434,0.0657602027058601,0.160769522190094,0.135864824056625,0.268720269203186,0.223788440227509,0.132912904024124,-7.25810956954956,0.0512934811413288,0.0600535161793232,0.136104643344879,0.0619693249464035,0.134631559252739,0.121616624295712,0.144775882363319,0.982447981834412,0.0510594137012959,0.0618087537586689,0.148882761597633,0.0333640538156033,0.0865623876452446,0.227057456970215,0.11503704637289,2012-01-17 14:10:43
1.00699996948242,46,-6.75401020050049,0.0881115198135376,0.114138431847095,0.267550885677338,1.67124271392822,2.07891464233398,0.475722432136536,0.0216591544449329,-7.56561708450317,0.109393261373043,0.132073402404785,0.27927640080452,1.62615096569061,2.08206987380981,0.304179489612579,0.149298667907715,1.01242995262146,0.0313386544585228,0.036874134093523,0.0807982385158539,0.0176683329045773,0.0282829087227583,0.165428891777992,0.0240376312285662,2012-01-17 14:10:44
1.16699981689453,44,-6.75566720962524,0.0374232456088066,0.0461970828473568,0.106758572161198,0.0773869827389717,0.278553307056427,0.156496167182922,0.0183135326951742,-7.56003522872925,0.0600150376558304,0.071418508887291,0.147991433739662,0.163166642189026,0.814673185348511,0.32154381275177,0.0737181380391121,1.01409673690796,0.0402802191674709,0.0508416853845119,0.121691584587097,0.0229845531284809,0.16936020553112,0.115875534713268,0.0728336423635483,2012-01-17 14:10:45
1.01200008392334,45,-6.95705509185791,0.0508008003234863,0.0655241757631302,0.161047160625458,0.144800528883934,0.293205082416534,0.232606783509254,0.133404701948166,-7.36021757125854,0.0277201496064663,0.0379303582012653,0.113103255629539,0.0507601834833622,0.084313377737999,0.143097087740898,0.0827548131346703,1.02316045761108,0.0213567111641169,0.0262326616793871,0.0621087476611137,0.0124049382284284,0.0257103238254786,0.0167947094887495,0.0284284688532352,2012-01-17 14:10:46
1.05399990081787,49,-6.97953271865845,0.0274471361190081,0.0384176522493362,0.105071067810059,0.00322431954555213,0.0503526702523232,0.0220852456986904,0.0138279907405376,-7.35318613052368,0.0329856462776661,0.0433015786111355,0.109674587845802,0.00939970649778843,0.0782253295183182,0.0485690832138062,0.49976310133934,1.01568877696991,0.0321360975503922,0.0420285053551197,0.103670306503773,0.0373221933841705,0.103695891797543,0.0998198911547661,0.0554453618824482,2012-01-17 14:10:47
1.01000022888184,35,-6.95039319992065,0.0322618223726749,0.042864415794611,0.120201304554939,0.0525420680642128,0.0556183271110058,0.0166199970990419,0.00665334891527891,-7.35246562957764,0.0380418673157692,0.0446233786642551,0.100588358938694,0.0218393765389919,0.0506071150302887,0.0624320805072784,0.0189739651978016,0.991592407226562,0.0238881912082434,0.0291639901697636,0.0675257742404938,0.0110691012814641,0.0218270234763622,0.00815839041024446,0.0379030741751194,2012-01-17 14:10:48
1.00099992752075,49,-6.95031309127808,0.0270141903311014,0.0339003540575504,0.0810548216104507,0.0206943787634373,0.0162148829549551,0.0277007818222046,0.0402148477733135,-7.38280630111694,0.0186413303017616,0.025476386770606,0.0964654237031937,0.0207938682287931,0.0466275177896023,0.0262808538973331,0.028602696955204,1.00488138198853,0.053905937820673,0.0644468069076538,0.152303338050842,0.60999995470047,0.651688098907471,0.0442247055470943,0.188822492957115,2012-01-17 14:10:49
1.07099986076355,33,-6.95291471481323,0.0320944339036942,0.0414656959474087,0.0980663299560547,0.0169349238276482,0.035878662019968,0.0224322862923145,0.024947015568614,-7.3606333732605,0.0170198157429695,0.0202033165842295,0.0433873534202576,0.00795994699001312,0.015585076995194,0.0133928367868066,0.00205356488004327,1.0715993642807,0.0732662156224251,0.086921438574791,0.198807537555695,0.252081513404846,0.35784912109375,0.105209797620773,0.01879439689219,2012-01-17 14:10:50
1.03400015830994,45,-6.99170541763306,0.0445051752030849,0.0544228851795197,0.127922549843788,0.24245510995388,0.45435506105423,0.110314853489399,0.108386725187302,-7.28394365310669,0.0741430446505547,0.0810301676392555,0.125089108943939,0.883638262748718,1.23246741294861,0.136326387524605,0.168000847101212,1.19357824325562,0.0388294942677021,0.045229934155941,0.100899584591389,0.0491053462028503,0.083184078335762,0.158503368496895,0.0605389140546322,2012-01-17 14:10:51
1.00899982452393,48,-6.94719409942627,0.101165108382702,0.114815898239613,0.229639038443565,2.91000556945801,4.00999736785889,0.577389419078827,0.134784251451492,-7.40626811981201,0.125205099582672,0.147198349237442,0.301758974790573,4.16936349868774,6.75949048995972,1.58790993690491,0.756267309188843,0.952266573905945,0.162746116518974,0.186414912343025,0.41290083527565,7.72792291641235,11.0048341751099,2.38406991958618,0.813066780567169,2012-01-17 14:10:52
1.01500010490417,48,-6.26869678497314,0.201334223151207,0.220506399869919,0.429245233535767,10.9782285690308,13.6306600570679,1.41391479969025,0.525495946407318,-7.93643999099731,0.149551436305046,0.168790772557259,0.316673189401627,5.79062652587891,6.55081033706665,0.371405005455017,0.281160116195679,-0.316264450550079,0.427406489849091,0.507340133190155,0.943890035152435,57.2070770263672,65.5184097290039,9.84035587310791,4.26924324035645,2012-01-17 14:10:53
1.00799989700317,31,-6.05734634399414,0.063615657389164,0.0834499448537827,0.218909487128258,0.11679070442915,0.291263520717621,0.410483688116074,0.159410789608955,-8.01424694061279,0.0775756016373634,0.0932243168354034,0.178734108805656,0.287283390760422,0.467043042182922,0.257339984178543,0.0949466302990913,-1.56400239467621,0.123598478734493,0.175265163183212,0.446044385433197,0.413946270942688,0.53275740146637,0.0856039598584175,0.0498424358665943,2012-01-17 14:10:54
1.05100011825562,48,-6.28565406799316,0.121374376118183,0.146074086427689,0.333834826946259,0.0570549592375755,0.306075513362885,0.786247253417969,3.06229329109192,-7.85451364517212,0.128942131996155,0.163918390870094,0.401459574699402,0.00676365708932281,2.41584420204163,1.76566123962402,2.35846734046936,-1.2926390171051,0.432360887527466,0.579525351524353,1.50838530063629,35.4805488586426,109.557769775391,67.1944732666016,23.4900493621826,2012-01-17 14:10:55
1.0090000629425,35,-6.46342277526855,0.109946526587009,0.12345415353775,0.25581356883049,0.443258464336395,0.871697723865509,0.404845684766769,0.0200828202068806,-7.84083700180054,0.104662902653217,0.120684765279293,0.250489950180054,0.118124581873417,0.333538472652435,0.287407279014587,0.0476808696985245,0.639113366603851,0.161053210496902,0.213009640574455,0.580273449420929,0.744230389595032,1.1614716053009,0.474465429782867,0.0405705831944942,2012-01-17 14:10:56
1,50,-6.23212575912476,0.152983754873276,0.183006390929222,0.367749482393265,6.87069034576416,6.63378429412842,0.283231347799301,0.120407529175282,-8.02419281005859,0.115247882902622,0.139552012085915,0.296553075313568,3.56750082969666,3.37977457046509,0.497478127479553,0.467692792415619,-0.100616231560707,0.304971128702164,0.351624459028244,0.67920857667923,31.7791805267334,38.0420837402344,5.46610450744629,1.25785005092621,2012-01-17 14:10:57
1.37199997901917,49,-6.12575387954712,0.0862952098250389,0.104472741484642,0.209342032670975,2.34625601768494,3.81832551956177,1.2176342010498,0.248009592294693,-8.12370872497559,0.0592321828007698,0.0718681067228317,0.160708948969841,0.473617523908615,1.48669707775116,1.15415036678314,0.171553075313568,-0.497137099504471,0.13463006913662,0.163103356957436,0.320617407560349,5.50001573562622,8.37801742553711,1.73075413703918,0.587034285068512,2012-01-17 14:10:58
1.01600003242493,50,-6.36078929901123,0.157792940735817,0.182918518781662,0.337152600288391,8.2945556640625,9.60303497314453,1.54830896854401,0.716101825237274,-7.95103549957275,0.10493128746748,0.124019004404545,0.208097398281097,3.38498902320862,3.68958449363708,0.763043940067291,1.00023698806763,0.0547211058437824,0.0314518883824348,0.0486824847757816,0.231240794062614,0.00201075198128819,0.153565779328346,0.135679110884666,0.0723185837268829,2012-01-17 14:10:59
1.15399980545044,32,-6.07889699935913,0.0288835987448692,0.0339490510523319,0.0674206018447876,0.0150780137628317,0.0263806022703648,0.0201702918857336,0.000449609098723158,-8.19100475311279,0.0372345596551895,0.0465169437229633,0.115227937698364,0.0297608338296413,0.0556109696626663,0.0608908459544182,0.0276514999568462,-0.1547611951828,0.0389201417565346,0.0439753606915474,0.0959212929010391,0.0498942546546459,0.0793548226356506,0.0557447113096714,0.033569160848856,2012-01-17 14:11:01
1.007000207901,54,-6.30204391479492,0.0921610146760941,0.108913138508797,0.221920773386955,3.23395228385925,2.95419263839722,0.451359897851944,0.466543555259705,-8.00821876525879,0.0735498294234276,0.0938046276569366,0.219560325145721,1.75669801235199,1.58539414405823,0.325253397226334,0.319456249475479,-0.0641064345836639,0.0328973419964314,0.0415080785751343,0.112413257360458,0.0713239461183548,0.0541885271668434,0.111883096396923,0.113614417612553,2012-01-17 14:11:02
1.00300002098083,23,-6.497971534729,0.0520920157432556,0.0569431819021702,0.101904101669788,0.0166307631880045,0.0300150196999311,0.0327711924910545,0.00621710391715169,-7.81888437271118,0.0289564467966557,0.032900046557188,0.0558551698923111,0.00126171798910946,0.00179389864206314,0.00098283973056823,0.00882910005748272,0.0179077945649624,0.0283632781356573,0.0352579765021801,0.0703520476818085,6.43479070276953e-05,0.00112136779353023,0.00794602744281292,0.00361846527084708,2012-01-17 14:11:03
1.08299994468689,50,-6.26213407516479,0.126796081662178,0.145827978849411,0.278900921344757,4.96329307556152,5.83814811706543,0.639957249164581,0.309679746627808,-8.0257625579834,0.0899074226617813,0.10808701813221,0.211823895573616,2.65222859382629,3.69683051109314,0.833198547363281,0.0190236940979958,-0.100420095026493,0.0468679405748844,0.0619469843804836,0.183972746133804,0.426038295030594,0.561828196048737,0.205236703157425,0.0154884234070778,2012-01-17 14:11:04
1.02099990844727,35,-6.12019014358521,0.0631147027015686,0.0735869854688644,0.128327265381813,0.21811543405056,0.321485340595245,0.0804322957992554,0.158823922276497,-8.12466907501221,0.0317976921796799,0.0383319891989231,0.083496667444706,0.0470451563596725,0.0688776448369026,0.0181926842778921,0.00854543223977089,-0.0271784290671349,0.0336067862808704,0.0406091883778572,0.105631627142429,0.00156181422062218,0.0448591709136963,0.129966974258423,0.0334216989576817,2012-01-17 14:11:05
1.00600004196167,49,-6.43636465072632,0.104674957692623,0.112082704901695,0.199335336685181,2.92361354827881,3.93589305877686,0.409743666648865,0.0370412096381187,-7.87333869934082,0.0750222876667976,0.0890898555517197,0.226954340934753,1.61848652362823,2.20724511146545,0.477082133293152,0.0620718225836754,0.103470161557198,0.0597711428999901,0.0702730044722557,0.141696080565453,0.0239573456346989,0.824160695075989,0.598179638385773,0.126712873578072,2012-01-17 14:11:06
1.02099990844727,50,-6.53358221054077,0.02637604996562,0.0338328890502453,0.100420042872429,0.0162868909537792,0.0455991551280022,0.216650530695915,0.0445704832673073,-7.82629489898682,0.0478014536201954,0.0566551871597767,0.107284568250179,0.227914392948151,0.562377095222473,0.670541405677795,0.132962256669998,0.0380498021841049,0.0291688982397318,0.0377595499157906,0.106696352362633,0.0974013060331345,0.126239866018295,0.217748448252678,0.0695252418518066,2012-01-17 14:11:07
1.00600004196167,28,-6.23913049697876,0.0850576683878899,0.101351268589497,0.174418330192566,0.133542567491531,0.208273321390152,0.0881624296307564,0.00474074250087142,-8.02674293518066,0.0833565965294838,0.0894005969166756,0.132389858365059,0.124514482915401,0.193704009056091,0.0771394893527031,0.0293705146759748,0.0528858602046967,0.0447553470730782,0.0566595084965229,0.113827183842659,0.0058293123729527,0.013076538220048,0.03573377430439,0.0201663356274366,2012-01-17 14:11:08
1.01800012588501,43,-6.10794639587402,0.0275476761162281,0.0372333973646164,0.0964699015021324,0.0163800641894341,0.0200690105557442,0.0339427590370178,0.00941653456538916,-8.12697601318359,0.0237820819020271,0.0293306112289429,0.0713832303881645,0.00548363337293267,0.00910119526088238,0.00681537017226219,0.0871363580226898,0.0697868540883064,0.0321832075715065,0.0378458611667156,0.0871195420622826,0.0789146572351456,0.142706871032715,0.0769426971673965,0.0458590500056744,2012-01-17 14:11:09
1.0149998664856,30,-6.16544055938721,0.0596243962645531,0.0715795904397964,0.15004189312458,0.0527519881725311,0.112618587911129,0.239199861884117,0.125120088458061,-8.13102054595947,0.0351296477019787,0.0496656708419323,0.128794640302658,0.0385891236364841,0.0683007910847664,0.0785184353590012,0.0412502996623516,0.100354716181755,0.0578156486153603,0.0667852908372879,0.115391582250595,0.0901975855231285,0.179038286209106,0.211743697524071,0.0543931126594543,2012-01-17 14:11:10
1.01800012588501,48,-6.50058317184448,0.0772273913025856,0.0965350270271301,0.185100361704826,1.90867686271667,2.25239706039429,0.488175690174103,0.0232643969357014,-7.82877111434937,0.08241156488657,0.10432592779398,0.199197724461555,1.78204488754272,1.95731949806213,0.584259569644928,0.21451735496521,0.161809727549553,0.0335060544312,0.0414130240678787,0.102969825267792,0.000466028141090646,0.110634677112103,0.39871084690094,0.0786434635519981,2012-01-17 14:11:11
1.01199984550476,37,-6.59722518920898,0.0291262622922659,0.0366682671010494,0.0856096819043159,0.0496544018387794,0.106486268341541,0.0527391582727432,0.0695965811610222,-7.75732517242432,0.0353583209216595,0.0491383522748947,0.146834447979927,0.0513163320720196,0.141106590628624,0.140063121914864,0.164394542574883,0.140473634004593,0.0444272048771381,0.0523434542119503,0.0948859602212906,0.0174062624573708,0.0836726427078247,0.17780390381813,0.100578211247921,2012-01-17 14:11:12
1.01400017738342,49,-6.42615747451782,0.0416853465139866,0.0532360337674618,0.149901852011681,0.50542140007019,0.581170380115509,0.235714942216873,0.156326964497566,-7.89695453643799,0.0388099700212479,0.0498775467276573,0.144497692584991,0.194125235080719,0.328590631484985,0.461803138256073,0.442328870296478,0.181523084640503,0.0445036478340626,0.0531668365001678,0.112876541912556,0.302658647298813,0.359178751707077,0.057526882737875,0.0588047876954079,2012-01-17 14:11:13
1,33,-6.31072759628296,0.0464848503470421,0.0570352822542191,0.112925209105015,0.104258120059967,0.187876865267754,0.140318855643272,0.0687481537461281,-7.99776840209961,0.0435489192605019,0.0557938031852245,0.113222248852253,0.0122196078300476,0.0544963218271732,0.101413011550903,0.033931951969862,0.168198898434639,0.0605148635804653,0.0843987166881561,0.236845448613167,0.19390769302845,0.308451384305954,0.318381816148758,0.223549172282219,2012-01-17 14:11:14
1.34599995613098,29,-6.05678987503052,0.122297443449497,0.141185075044632,0.248886212706566,0.37792095541954,0.648108720779419,0.513406038284302,0.158764272928238,-8.12869834899902,0.059749536216259,0.0711537823081017,0.21473217010498,0.0921211540699005,0.157056197524071,0.108080603182316,0.0166616328060627,-0.255987375974655,0.166678071022034,0.198458343744278,0.401058167219162,0.997893095016479,1.63073682785034,0.937495112419128,0.322100549936295,2012-01-17 14:11:15
1.10999989509583,40,-6.38241291046143,0.107480883598328,0.123616054654121,0.263063251972198,1.53476893901825,1.90766966342926,0.461276918649673,0.139721915125847,-7.92083120346069,0.0853178948163986,0.103324189782143,0.257915198802948,1.04309093952179,1.30157947540283,0.231374830007553,0.0765293091535568,0.0254972893744707,0.169556975364685,0.197875738143921,0.486409813165665,4.05699777603149,5.50671815872192,1.33527851104736,0.0995098575949669,2012-01-17 14:11:16
1.00100016593933,50,-6.55476474761963,0.0316952764987946,0.0372654087841511,0.0745306685566902,0.173124328255653,0.332007378339767,0.0582759976387024,0.0350285321474075,-7.77196598052979,0.0265171360224485,0.0334715209901333,0.0929668843746185,0.0994707718491554,0.186147764325142,0.157985180616379,0.134826511144638,0.337741017341614,0.0445457249879837,0.0546771511435509,0.141608029603958,0.11115113645792,0.349099069833755,0.432437390089035,0.145170778036118,2012-01-17 14:11:17
1.2519998550415,41,-6.3800630569458,0.0553511790931225,0.0647598505020142,0.141359031200409,0.26029360294342,0.258029073476791,0.0581100694835186,0.224303737282753,-7.9101390838623,0.0518626607954502,0.0619802288711071,0.170539647340775,0.133893355727196,0.206369116902351,0.178231358528137,0.180698603391647,0.106198839843273,0.0651637613773346,0.0761440247297287,0.138967394828796,0.540374279022217,0.618199586868286,0.0610915645956993,0.0484044291079044,2012-01-17 14:11:18
1.01900005340576,51,-6.05147218704224,0.137813434004784,0.152083322405815,0.254204005002975,5.27006959915161,6.29220056533813,0.395439714193344,0.104083389043808,-8.12029075622559,0.0776163041591644,0.0948400571942329,0.216131240129471,1.37228631973267,1.6062787771225,0.408965498209,0.138885945081711,-0.543980598449707,0.384076803922653,0.427101612091064,0.72107720375061,50.5185699462891,65.3532943725586,8.04026222229004,3.39976930618286,2012-01-17 14:11:19
1.01300001144409,39,-6.00544118881226,0.0518380478024483,0.0680736154317856,0.150871515274048,0.339967340230942,0.497000902891159,0.338250547647476,0.0617318488657475,-8.06961536407471,0.0601296499371529,0.0697401165962219,0.136036068201065,0.438589364290237,0.641799569129944,0.231299668550491,0.0956741124391556,-1.26908111572266,0.123224645853043,0.15064799785614,0.358822762966156,2.02214574813843,3.70832014083862,1.80885088443756,0.660550057888031,2012-01-17 14:11:20
1.0090000629425,44,-6.32350587844849,0.1428042948246,0.164406359195709,0.331643313169479,0.111421406269073,1.60003697872162,0.75638073682785,1.08921384811401,-7.78157663345337,0.142642170190811,0.170658528804779,0.514849305152893,0.021589545533061,2.2755651473999,1.94922363758087,2.90566992759705,-1.63303005695343,0.197824850678444,0.281934320926666,0.995597839355469,3.99699878692627,16.6167163848877,13.4546527862549,3.69784307479858,2012-01-17 14:11:21
1.10999989509583,43,-6.57159566879272,0.2469642162323,0.297542214393616,0.795478820800781,11.1631841659546,15.8208198547363,3.12771105766296,0.786889672279358,-7.73835897445679,0.272326827049255,0.318670123815536,0.705166399478912,12.1069221496582,19.4852695465088,5.01719427108765,0.482514977455139,0.470035016536713,0.358035534620285,0.425865262746811,0.901527583599091,23.2240962982178,24.5526390075684,3.89882683753967,1.06121826171875,2012-01-17 14:11:23
1,50,-6.97939252853394,0.0800614282488823,0.0926663279533386,0.173577859997749,1.48785817623138,2.410808801651,0.53089851140976,0.229745730757713,-7.37263917922974,0.085278682410717,0.100449994206429,0.237320810556412,1.4320375919342,1.93460774421692,0.462483823299408,0.0929137095808983,1.10246360301971,0.0570119395852089,0.0650526210665703,0.123367711901665,0.125520348548889,0.879357874393463,0.358609139919281,0.114879094064236,2012-01-17 14:11:24
1.01399993896484,33,-6.99006128311157,0.055291760712862,0.0593702122569084,0.10579276829958,0.157301440834999,0.268406003713608,0.14888659119606,0.0157460980117321,-7.34310054779053,0.0890433341264725,0.0974930226802826,0.168793231248856,0.403928637504578,0.629476726055145,0.250752180814743,0.148985043168068,0.919150531291962,0.0541932210326195,0.0615639500319958,0.105198621749878,0.0240472592413425,0.0240088980644941,0.0345274917781353,0.169141262769699,2012-01-17 14:11:25
1.00300002098083,46,-6.8484525680542,0.036798182874918,0.0505953095853329,0.160317480564117,0.0990725606679916,0.0708375349640846,0.107919871807098,0.0516462884843349,-7.46179485321045,0.0465954281389713,0.0538774952292442,0.0991322919726372,0.0900444313883781,0.2346431016922,0.203658401966095,0.0502779185771942,1.05655992031097,0.0428785942494869,0.0559414476156235,0.14454148709774,0.21113882958889,0.1604223549366,0.0266685988754034,0.191197335720062,2012-01-17 14:11:26
1.00399994850159,47,-6.80164194107056,0.0258995275944471,0.0357752218842506,0.0938933789730072,0.00144133006688207,0.03462128713727,0.0679271519184113,0.0649208649992943,-7.52107429504395,0.0178552642464638,0.0218258127570152,0.0484072081744671,0.0366836786270142,0.053549762815237,0.0561888739466667,0.0365973934531212,1.08102667331696,0.0348937548696995,0.0426365733146667,0.105577975511551,0.0198328271508217,0.128781333565712,0.059769619256258,0.0451929606497288,2012-01-17 14:11:27
1.007000207901,33,-6.91249942779541,0.0685294643044472,0.0754522308707237,0.145911201834679,0.184245839715004,0.278600096702576,0.0993440747261047,0.00251510832458735,-7.35082674026489,0.041405938565731,0.0537691935896873,0.170873507857323,0.0648718327283859,0.0782085061073303,0.0189459715038538,0.0140051124617457,1.11676943302155,0.0233594533056021,0.0312694199383259,0.0698352307081223,0.00789565872400999,0.0190820600837469,0.0311766546219587,0.0119604468345642,2012-01-17 14:11:28
1.01799988746643,50,-6.98449230194092,0.0282195676118135,0.0381471738219261,0.100223787128925,0.0795431956648827,0.153835624456406,0.211111813783646,0.144683286547661,-7.33302021026611,0.0393207296729088,0.0504851266741753,0.125132694840431,0.223699316382408,0.381733149290085,0.591010570526123,0.0837391167879105,1.09422600269318,0.0285020563751459,0.0362230688333511,0.0825720056891441,0.0570290312170982,0.098161868751049,0.186434477567673,0.115295194089413,2012-01-17 14:11:29
1.04500007629395,21,-6.93423557281494,0.031888235360384,0.0361783392727375,0.0597737617790699,0.000482356845168397,0.00150807376485318,0.00588988745585084,0.00336655229330063,-7.42410087585449,0.0342009626328945,0.0417682975530624,0.07892045378685,1.89769068015266e-07,0.000597364793065935,0.00602557742968202,0.00394307775422931,1.09647679328918,0.0204583313316107,0.0227723307907581,0.0410945117473602,9.66086281550815e-06,0.000233169237617403,0.00231647538021207,0.00321918190456927,2012-01-17 14:11:30
1.01300001144409,37,-6.84795713424683,0.031346969306469,0.0421563386917114,0.104957655072212,0.00172484270296991,0.0275988765060902,0.0321573875844479,0.0280112344771624,-7.43476581573486,0.0143696898594499,0.0176846217364073,0.0379013121128082,0.000525002600625157,0.0010256024543196,0.00286639085970819,0.00640445342287421,1.09383904933929,0.0337824448943138,0.0418300554156303,0.0927656069397926,0.00939389877021313,0.0799039304256439,0.131694480776787,0.0397781394422054,2012-01-17 14:11:31
1.00699996948242,49,-6.90288066864014,0.0334022119641304,0.0399820804595947,0.0970661044120789,0.184802711009979,0.1992217451334,0.0191073641180992,0.120197355747223,-7.40201902389526,0.048792403191328,0.0561773143708706,0.100067906081676,0.000736219575628638,0.257323682308197,0.340172350406647,0.198494493961334,1.10955238342285,0.0349951460957527,0.0448741540312767,0.109274134039879,0.0936841145157814,0.27947598695755,0.217302531003952,0.131812885403633,2012-01-17 14:11:32
1.01900005340576,29,-7.00499153137207,0.0247906092554331,0.0358800105750561,0.0913031324744225,0.00343400565907359,0.00754622556269169,0.0104168830439448,0.00222068792209029,-7.31474637985229,0.0275658778846264,0.0393401421606541,0.108887888491154,0.0188092067837715,0.026904808357358,0.0129455635324121,0.0208448693156242,1.06249976158142,0.0228782929480076,0.027650685980916,0.0554582998156548,0.00354472897015512,0.00590554578229785,0.0125321857631207,0.0161159373819828,2012-01-17 14:11:33
1.09999990463257,43,-7.01221084594727,0.0210983157157898,0.0265806317329407,0.0681903064250946,0.0313308052718639,0.047680702060461,0.0113467453047633,0.0218239221721888,-7.28976154327393,0.0310269352048635,0.0372906252741814,0.0750321447849274,0.00119122723117471,0.020303551107645,0.0615830607712269,0.110308550298214,1.08716976642609,0.0565911084413528,0.0668667927384377,0.145731374621391,0.389332860708237,0.507639646530151,0.286622583866119,0.0968160852789879,2012-01-17 14:11:34
1.00099992752075,44,-7.05075836181641,0.0386085845530033,0.0484272092580795,0.0978434979915619,0.118008732795715,0.223832696676254,0.204157382249832,0.0598206333816051,-7.30639982223511,0.040442232042551,0.0525179319083691,0.137738615274429,0.241135582327843,0.385138273239136,0.282246261835098,0.37473139166832,1.06870198249817,0.0448188260197639,0.0523735918104649,0.127709314227104,3.63816106982995e-05,0.0809627249836922,0.423130303621292,0.0641314312815666,2012-01-17 14:11:35
1.00500011444092,37,-7.10558032989502,0.0140546280890703,0.0174448173493147,0.0349859818816185,0.0131607539951801,0.0250352919101715,0.0209436789155006,0.00619230326265097,-7.20921277999878,0.0446563549339771,0.052842915058136,0.106547743082047,0.0392280519008636,0.108580090105534,0.228013470768929,0.0948254689574242,1.04083013534546,0.0255015827715397,0.0342123210430145,0.0869346037507057,0.0237624645233154,0.0345057062804699,0.0186356045305729,0.00542138097807765,2012-01-17 14:11:36
1.00499987602234,47,-7.03261995315552,0.0446871183812618,0.0560844168066978,0.109124965965748,0.441861987113953,0.449705958366394,0.0268153436481953,0.0771023482084274,-7.32932329177856,0.0802378356456757,0.0945081412792206,0.21950227022171,1.53340399265289,1.74487698078156,0.321759015321732,0.0486772507429123,1.05473649501801,0.0328072123229504,0.0395284295082092,0.0936847701668739,0.00794399343430996,0.0811502486467361,0.264186501502991,0.0458416156470776,2012-01-17 14:11:37
1.17900013923645,41,-6.80485820770264,0.158598244190216,0.185977399349213,0.30304953455925,4.30318784713745,6.55086612701416,2.54119110107422,0.307656496763229,-7.53820419311523,0.124563656747341,0.147130653262138,0.248275697231293,2.66830778121948,3.85481071472168,1.45949304103851,0.28238108754158,0.757264733314514,0.173731118440628,0.194373205304146,0.345385402441025,4.84632015228271,7.41487264633179,2.16669368743896,0.585278451442719,2012-01-17 14:11:38
1.00699996948242,46,-6.08012294769287,0.064809150993824,0.0813317149877548,0.196133062243462,0.197539106011391,0.58775520324707,0.669913232326508,0.143864005804062,-8.09261798858643,0.0864619165658951,0.100673690438271,0.184194549918175,0.428459942340851,0.971233189105988,0.57718163728714,0.268568754196167,-0.634447574615479,0.273955911397934,0.320280820131302,0.575607717037201,16.4465389251709,18.3197860717773,1.33884143829346,0.0794930532574654,2012-01-17 14:11:39
1.01799988746643,46,-6.41290950775146,0.15291140973568,0.174691066145897,0.273946642875671,5.83678293228149,7.27491235733032,1.69384479522705,0.35473695397377,-7.90522575378418,0.13480906188488,0.158566266298294,0.305072247982025,4.65871429443359,6.93992614746094,1.81863522529602,0.09467563778162,-0.352399826049805,0.306295603513718,0.330272316932678,0.471358776092529,21.4198760986328,28.0171222686768,3.44791102409363,0.491349667310715,2012-01-17 14:11:40
1.00500011444092,35,-6.35022592544556,0.14842064678669,0.181513398885727,0.377135723829269,1.71960401535034,2.29552888870239,0.565370082855225,0.125105962157249,-7.9355411529541,0.128663316369057,0.160982817411423,0.364807456731796,1.38812029361725,1.83138632774353,0.619086861610413,0.198218509554863,-0.153263926506042,0.0485769398510456,0.0614031739532948,0.140935570001602,0.102558635175228,0.153689309954643,0.160919442772865,0.0961282774806023,2012-01-17 14:11:41
1.02699995040894,47,-6.04465198516846,0.069290354847908,0.0762994587421417,0.133537322282791,1.06063222885132,1.60592377185822,0.18936051428318,0.0513857156038284,-8.20649719238281,0.0441986583173275,0.0532663054764271,0.119348809123039,0.351753413677216,0.565358102321625,0.222089022397995,0.0583855248987675,-0.267074704170227,0.029246810823679,0.0354573577642441,0.0957713276147842,0.0324331931769848,0.0235353875905275,0.190666481852531,0.0895269066095352,2012-01-17 14:11:42
1.01099991798401,35,-6.24011135101318,0.218532085418701,0.223340332508087,0.320537537336349,2.58861589431763,4.1333703994751,1.26087725162506,0.544141888618469,-7.99802350997925,0.18276409804821,0.187499389052391,0.249369099736214,1.86395072937012,3.15372037887573,1.27648711204529,0.255729079246521,-0.108153335750103,0.0972179248929024,0.0998569801449776,0.1566261947155,0.549001157283783,0.824152231216431,0.227323696017265,0.0591369159519672,2012-01-17 14:11:43
1.06700015068054,33,-6.55232810974121,0.0545175522565842,0.0651450082659721,0.187812089920044,0.050196185708046,0.115670539438725,0.169983834028244,0.0587302669882774,-7.80371570587158,0.0495464727282524,0.0636930838227272,0.149477317929268,0.0329001732170582,0.0900262445211411,0.199256971478462,0.0626287162303925,-0.0986608415842056,0.0380199067294598,0.0472436808049679,0.107278808951378,0.0219666361808777,0.0352562591433525,0.0137875834479928,0.0126571757718921,2012-01-17 14:11:44
1.00899982452393,47,-6.11058616638184,0.138269811868668,0.14945587515831,0.224509909749031,4.48516416549683,5.79112958908081,0.483875960111618,0.281547039747238,-8.15266418457031,0.137781515717506,0.15125285089016,0.222214460372925,4.40104341506958,5.44395208358765,0.39888533949852,0.520398318767548,-0.201766595244408,0.0422365181148052,0.0555759333074093,0.162540003657341,0.0133551675826311,0.12244688719511,0.216523304581642,0.300073504447937,2012-01-17 14:11:45
1.30200004577637,36,-6.10109806060791,0.0773937851190567,0.097085066139698,0.224191069602966,0.647526144981384,0.964732766151428,0.453894406557083,0.0911227911710739,-8.16022205352783,0.0760317370295525,0.098114863038063,0.207029297947884,0.487381160259247,0.599703371524811,0.149808540940285,0.0742367953062057,-0.227732196450233,0.0592636428773403,0.0677499696612358,0.135113850235939,0.233621880412102,0.438552439212799,0.189252451062202,0.0319300927221775,2012-01-17 14:11:46
1.01800012588501,56,-6.37659883499146,0.0304831266403198,0.0403058044612408,0.100343339145184,0.000624196778517216,0.347393035888672,0.27611118555069,0.150109395384789,-7.91799402236938,0.0311211012303829,0.0418438501656055,0.103845179080963,0.19143334031105,0.286841958761215,0.0748223289847374,0.0241209678351879,-0.108923859894276,0.0423412099480629,0.0537988059222698,0.126435726881027,0.0132619654759765,0.60381156206131,0.299828797578812,0.152539387345314,2012-01-17 14:11:47
1.00499987602234,43,-6.42244338989258,0.0408706925809383,0.0542028211057186,0.116767354309559,0.332335501909256,0.41195946931839,0.192334160208702,0.0597034394741058,-7.92491340637207,0.0410936176776886,0.0498794093728065,0.148240000009537,0.131152391433716,0.192294061183929,0.181911990046501,0.240200281143188,-0.0613485760986805,0.0342834964394569,0.0408516861498356,0.0955578163266182,0.0811645090579987,0.0679230988025665,0.0153908282518387,0.0292530693113804,2012-01-17 14:11:48
1.12700009346008,21,-6.35517597198486,0.0656890571117401,0.0763514786958694,0.137760192155838,0.00758711574599147,0.0154409930109978,0.0315388441085815,0.0411842465400696,-7.93451356887817,0.0850353389978409,0.101187705993652,0.19706666469574,0.0257442072033882,0.0470534935593605,0.0430562309920788,0.0207174587994814,-0.122349627315998,0.0329112075269222,0.037753514945507,0.0639767125248909,0.000740049523301423,0.00155994377564639,0.00387497432529926,0.00922176986932755,2012-01-17 14:11:50
1.25499987602234,27,-6.00493860244751,0.0915288105607033,0.100222110748291,0.202670678496361,0.141661629080772,0.227326050400734,0.110905051231384,0.0112493485212326,-8.19545364379883,0.0474593304097652,0.0696926862001419,0.203034043312073,0.0185629446059465,0.0251236334443092,0.00775221223011613,0.0207039024680853,-0.120585471391678,0.0390382669866085,0.0457499474287033,0.0813588723540306,0.00807589665055275,0.0149750895798206,0.0154274366796017,0.0065065803937614,2012-01-17 14:11:51
1.25600004196167,42,-6.47238874435425,0.219015255570412,0.267070055007935,0.539365887641907,6.18220615386963,5.86754560470581,0.831209123134613,0.198683992028236,-7.83154392242432,0.151980891823769,0.192171081900597,0.445268660783768,2.64900755882263,2.29655456542969,0.316135466098785,0.143873497843742,-0.0595403723418713,0.0693470239639282,0.0966883897781372,0.275286674499512,0.184904411435127,0.11914299428463,0.0715036392211914,0.212129771709442,2012-01-17 14:11:52
1.01200008392334,50,-6.36333894729614,0.150677189230919,0.175104483962059,0.293022602796555,7.70688056945801,10.5913848876953,2.21061277389526,0.288204699754715,-7.92906856536865,0.145334616303444,0.169983148574829,0.289688676595688,7.1099100112915,9.64712429046631,1.83330392837524,0.590900778770447,-0.154552802443504,0.0567687340080738,0.0676462650299072,0.134939506649971,0.539196014404297,0.70671820640564,0.540905475616455,0.22833177447319,2012-01-17 14:11:53
1.00499987602234,41,-6.27553844451904,0.182446897029877,0.20846289396286,0.343950390815735,5.47083759307861,8.51908874511719,2.72737050056458,0.4988813996315,-8.06824207305908,0.163043677806854,0.188510656356812,0.336057096719742,4.0263786315918,5.4013843536377,1.18008303642273,0.27915433049202,-0.143272757530212,0.0918359756469727,0.107051961123943,0.202112659811974,1.0709148645401,1.43209958076477,0.753446102142334,0.174420818686485,2012-01-17 14:11:54
1.31300020217896,46,-6.55489253997803,0.0367333926260471,0.0435974709689617,0.0842094123363495,0.000120519362099003,0.107858166098595,0.0858480334281921,0.160250842571259,-7.80566692352295,0.0546687729656696,0.0709220767021179,0.20551335811615,0.0584276877343655,0.252806782722473,0.61369913816452,0.68095850944519,-0.0776004493236542,0.0572827011346817,0.0687021389603615,0.156053647398949,0.465006798505783,0.517215549945831,0.18478812277317,0.0324198454618454,2012-01-17 14:11:55
1.01899981498718,51,-6.1474232673645,0.0844253525137901,0.102706559002399,0.234013646841049,2.07999658584595,3.63175225257874,1.23490989208221,0.154925286769867,-8.10490798950195,0.104513965547085,0.122351922094822,0.220938041806221,3.73007369041443,4.88167238235474,0.680951952934265,0.329915583133698,-0.22632209956646,0.0680847689509392,0.0819297134876251,0.187095493078232,0.580194890499115,1.25758063793182,0.766604423522949,0.269856423139572,2012-01-17 14:11:56
1.01100015640259,47,-6.09723234176636,0.0848636701703072,0.100792586803436,0.26728343963623,1.85400652885437,2.65498161315918,0.404262840747833,0.394043445587158,-8.13451194763184,0.0744045972824097,0.0898311287164688,0.200932383537292,1.57616567611694,2.38570737838745,0.663786292076111,0.0671259313821793,-0.250173896551132,0.0577034093439579,0.0729071199893951,0.17151203751564,0.581741631031036,0.920263350009918,0.391857415437698,0.493186712265015,2012-01-17 14:11:57
1.00999999046326,29,-6.61509227752686,0.0863825306296349,0.0958981662988663,0.181930229067802,0.218267753720284,0.353266507387161,0.180667221546173,0.053130604326725,-7.71546602249146,0.0820913538336754,0.0941204354166985,0.159273415803909,0.102075070142746,0.180567592382431,0.162740588188171,0.0327330306172371,-0.157582715153694,0.0663960352540016,0.0791656374931335,0.156230077147484,0.0793787240982056,0.112541161477566,0.0316695496439934,0.0224741697311401,2012-01-17 14:11:58
1.01799988746643,54,-6.31530094146729,0.240249454975128,0.273419409990311,0.461093962192535,23.0274333953857,24.4661731719971,1.05263221263885,0.403263568878174,-7.99950218200684,0.197142034769058,0.230724155902863,0.418962091207504,16.142879486084,15.9630184173584,0.788219213485718,0.310835987329483,-0.157451212406158,0.0369868054986,0.0534945093095303,0.15636157989502,0.0100473081693053,0.204049572348595,0.575416266918182,0.593539297580719,2012-01-17 14:12:00
1.0460000038147,25,-6.12327241897583,0.0988509282469749,0.108637064695358,0.211823686957359,0.134607627987862,0.24468407034874,0.248538315296173,0.0606882274150848,-8.13363552093506,0.0842589288949966,0.0952408686280251,0.19024932384491,0.0781284049153328,0.140505492687225,0.148454651236534,0.0394541993737221,-0.17691196501255,0.0489861778914928,0.063704289495945,0.147492006421089,0.0298138726502657,0.0576822943985462,0.0717901065945625,0.0547116734087467,2012-01-17 14:12:01
