"diffSecs","level","azimuth.mean","azimuth.absolute.deviation","azimuth.standard.deviation","azimuth.max.deviation","pitch.mean","pitch.absolute.deviation","pitch.standard.deviation","pitch.max.deviation","roll.mean","roll.absolute.deviation","roll.standard.deviation","roll.max.deviation","time"
1.0149998664856,17,27.1117649078369,1.10380613803864,1.37108027935028,3.41176438331604,-8.61764717102051,0.887197375297546,0.988305449485779,1.88235282897949,26.3823528289795,1.41453301906586,1.69817733764648,3.61764693260193,2012-01-21 12:46:24
1.01100015640259,45,24.2066669464111,1.86962938308716,2.22943925857544,4.39333343505859,-9.28888893127441,1.45382714271545,1.75919449329376,3.78888916969299,28.6711120605469,3.39456820487976,4.06926822662354,6.92889070510864,2012-01-21 12:46:25
1.0019998550415,44,24.0227279663086,2.43078517913818,2.91476368904114,5.47727203369141,-11.122727394104,1.15971076488495,1.49618661403656,3.27727317810059,28.5113639831543,3.2735538482666,3.77155733108521,7.38863754272461,2012-01-21 12:46:26
1.01800012588501,41,26.1243915557861,2.80678153038025,3.05356884002686,4.92438983917236,-10.9097566604614,1.54800713062286,1.84123563766479,3.49024415016174,31.8756103515625,2.74086880683899,3.25484895706177,5.97561073303223,2012-01-21 12:46:27
1.00699996948242,49,26.8367347717285,1.43706798553467,1.87428295612335,3.63673424720764,-9.84285736083984,1.57900881767273,1.96458446979523,4.25714302062988,31.3326530456543,2.65106225013733,2.98570680618286,5.03265237808228,2012-01-21 12:46:28
1.01300001144409,37,26.2135143280029,1.33279752731323,1.62915372848511,2.91351270675659,-7.53513526916504,0.500949621200562,0.591021180152893,1.1648645401001,31.5405406951904,2.6534698009491,3.10670232772827,5.24054002761841,2012-01-21 12:46:29
1.00699996948242,33,26.6000003814697,0.806060671806335,1.1591534614563,3.20000076293945,-7.2151517868042,0.519559264183044,0.607090055942535,1.08484864234924,26.8363647460938,3.05785131454468,3.59695339202881,8.06363773345947,2012-01-21 12:46:30
1.00500011444092,49,29.6040821075439,0.685630977153778,0.885474383831024,2.09591865539551,-7.91836738586426,1.00832986831665,1.25838792324066,2.41836738586426,30.5734691619873,2.71386933326721,3.10915565490723,5.47346973419189,2012-01-21 12:46:31
1.00999999046326,40,30.3924999237061,1.47899997234344,1.78106546401978,3.09249925613403,-9.16750049591064,1.28575003147125,1.72284471988678,3.66750001907349,28.3525009155273,3.70512509346008,4.31561040878296,6.94749879837036,2012-01-21 12:46:32
1.02600002288818,37,32.567569732666,0.615485668182373,0.796293139457703,1.73243093490601,-9.66216278076172,1.3307523727417,1.4918429851532,2.93783807754517,28.9216232299805,3.33455109596252,3.82990646362305,5.67838001251221,2012-01-21 12:46:33
1.06599998474121,41,32.9292678833008,2.41737079620361,3.2045886516571,8.32926845550537,-9.43414688110352,1.81201672554016,2.05990886688232,3.96585392951965,26.3487815856934,2.31326580047607,2.69833922386169,5.85121965408325,2012-01-21 12:46:34
1.00499987602234,51,33.3274536132812,2.45359492301941,3.16246867179871,8.92745208740234,-10.2039213180542,2.57293367385864,2.87933564186096,4.70392179489136,24.7000007629395,4.30196094512939,5.06866598129272,9.29999923706055,2012-01-21 12:46:35
1.01500010490417,33,34.9212112426758,3.67254376411438,4.17915153503418,7.2212119102478,-11.4212121963501,2.72745656967163,3.07351922988892,5.47878742218018,26.1151523590088,3.48833799362183,3.83556890487671,6.18484687805176,2012-01-21 12:46:36
1.00399994850159,49,34.3346939086914,1.76601433753967,2.16130638122559,4.66530561447144,-8.0224494934082,2.06280732154846,2.94370770454407,6.57755136489868,27.9653072357178,2.6801335811615,3.17178606987,5.86530637741089,2012-01-21 12:46:37
1.00600004196167,20,29.9950008392334,1.14450001716614,1.23469638824463,1.80500054359436,-9.27500057220459,1.56249988079071,1.82999312877655,3.77500009536743,31.1800003051758,2.46000003814697,2.83030033111572,5.07999992370605,2012-01-21 12:46:38
1.00300002098083,45,29.397777557373,2.02498769760132,2.66662406921387,5.79777765274048,-8.20444488525391,0.462716102600098,0.622166693210602,1.89555585384369,32.7577781677246,4.12503719329834,4.6934700012207,7.15777778625488,2012-01-21 12:46:39
1.0019998550415,48,28.5125007629395,1.15572917461395,1.53617823123932,3.61250066757202,-9.07916641235352,1.67586815357208,1.77704799175262,2.42083311080933,35.3312492370605,3.32812523841858,3.88845300674438,6.56875085830688,2012-01-21 12:46:40
1.01400017738342,26,28.865385055542,1.2213020324707,1.54395699501038,3.23461699485779,-8.73076915740967,0.697041511535645,0.922275364398956,1.93076920509338,34.9461555480957,2.74674558639526,3.25720882415771,7.34615421295166,2012-01-21 12:46:41
1.00599980354309,38,30.102632522583,1.69127428531647,1.87483155727386,3.90263104438782,-8.16315841674805,2.33019399642944,2.71781849861145,5.46315813064575,25.3631591796875,4.13157892227173,4.62666320800781,6.96315860748291,2012-01-21 12:46:42
1.00999999046326,48,25.8062496185303,1.62083315849304,1.91881096363068,4.00624942779541,-5.42708349227905,1.95737850666046,2.13236379623413,3.02708339691162,25.6479167938232,4.1750864982605,4.87967681884766,8.1520824432373,2012-01-21 12:46:43
1.00500011444092,42,24.6785717010498,3.32278919219971,3.91459631919861,7.6785717010498,-7.90000009536743,3.5047619342804,3.88599443435669,6.20000028610229,25.9190483093262,4.61428546905518,5.21509885787964,8.18095397949219,2012-01-21 12:46:44
1.00499987602234,45,26.6066665649414,3.76622247695923,4.42183494567871,7.40666675567627,-8.07333374023438,4.06874084472656,4.57973337173462,7.87333345413208,24.9355564117432,5.32553100585938,6.05104780197144,10.6644458770752,2012-01-21 12:46:45
