"diffSecs","N.samples","x.mean","x.absolute.deviation","x.standard.deviation","x.max.deviation","x.PSD.1","x.PSD.3","x.PSD.6","x.PSD.10","y.mean","y.absolute.deviation","y.standard.deviation","y.max.deviation","y.PSD.1","y.PSD.3","y.PSD.6","y.PSD.10","z.mean","z.absolute.deviation","z.standard.deviation","z.max.deviation","z.PSD.1","z.PSD.3","z.PSD.6","z.PSD.10","time"
8.77000045776367,20,-7.76441478729248,0.0132389543578029,0.0154668353497982,0.0318715572357178,9.16269564186223e-05,0.000154184483108111,0.000132825021864846,0.00124069792218506,4.34140396118164,0.021182470023632,0.0279275439679623,0.0617819055914879,0.000190335747902282,0.00056936324108392,0.00291056232526898,0.00625774031504989,3.61473107337952,0.0113756945356727,0.0146772246807814,0.0353038795292377,0.000245524832280353,0.000455013127066195,0.000799545552581549,0.000163370234076865,2012-01-18 15:06:08
0.995000123977661,99,-7.78162622451782,0.0217484924942255,0.0261277481913567,0.0636935830116272,0.0117356115952134,0.0180866196751595,0.344300389289856,0.0786299630999565,4.36613845825195,0.0296731032431126,0.0360402092337608,0.0708260983228683,0.0398978143930435,0.19711522758007,0.202260822057724,0.0654853582382202,3.61102628707886,0.038808349519968,0.0470115318894386,0.100245773792267,0.0144490646198392,0.869656085968018,0.267796218395233,0.133305579423904,2012-01-18 15:06:09
0.740999937057495,99,-7.78657913208008,0.016559511423111,0.0218392945826054,0.0589388534426689,0.0386780612170696,0.0308362133800983,0.0677438899874687,0.0576946213841438,4.33632230758667,0.0363270379602909,0.0441297851502895,0.0900430381298065,0.0514333844184875,0.655834317207336,0.259437322616577,0.0621809922158718,3.62697458267212,0.0373114719986916,0.0461945831775665,0.106387339532375,0.0525023154914379,1.1268755197525,0.176267728209496,0.0785850360989571,2012-01-18 15:06:10
0.969000101089478,99,-7.73972511291504,0.021794518455863,0.0268413126468658,0.0957880243659019,0.110527873039246,0.110597111284733,0.0783893316984177,0.0643183439970016,4.34434604644775,0.024368092417717,0.0306965820491314,0.0980664193630219,0.0126532008871436,0.0881306976079941,0.287386476993561,0.04625528678298,3.68551731109619,0.0375336557626724,0.0476234927773476,0.119462758302689,0.0052951849065721,0.200051113963127,0.287718862295151,0.202821835875511,2012-01-18 15:06:11
0.98799991607666,99,-7.75141382217407,0.0236776117235422,0.030888631939888,0.0924205556511879,0.000755306391511112,0.205365836620331,0.516126275062561,0.227438703179359,4.33434104919434,0.0305357351899147,0.0369565114378929,0.0884579867124557,0.0663875788450241,0.165957316756248,0.265915483236313,0.190292537212372,3.71275806427002,0.0306716915220022,0.0391998402774334,0.123524121940136,0.00568507611751556,0.143329486250877,0.235149651765823,0.123401761054993,2012-01-18 15:06:12
1.00399994850159,73,-7.75316429138184,0.0189949460327625,0.0236197151243687,0.0627355873584747,0.0349371358752251,0.115414254367352,0.0629964545369148,0.0804092735052109,4.34689855575562,0.0200513135641813,0.0258201826363802,0.0810058787465096,0.103843234479427,0.119587577879429,0.0639747902750969,0.041538517922163,3.67977738380432,0.0326312109827995,0.0453198179602623,0.139576941728592,0.236747145652771,0.204757124185562,0.0361690297722816,0.138740763068199,2012-01-18 15:06:13
1.00100016593933,48,-7.77871656417847,0.026985265314579,0.0331326797604561,0.0764100179076195,0.0731064006686211,0.206150576472282,0.144125059247017,0.0735361129045486,4.35292673110962,0.0210945475846529,0.0264526624232531,0.067421019077301,0.0241796504706144,0.0456237010657787,0.134525194764137,0.0777048915624619,3.69383811950684,0.0272407624870539,0.0365472510457039,0.114410817623138,0.0072242277674377,0.0114147700369358,0.0942879393696785,0.151824459433556,2012-01-18 15:06:14
1.02899980545044,39,-7.75404262542725,0.0179498139768839,0.0221134964376688,0.046015739440918,0.0143969291821122,0.0222639217972755,0.00625063711777329,0.00604315893724561,4.34862089157104,0.0164540428668261,0.0212771650403738,0.0545651614665985,0.000226284930249676,0.00805067643523216,0.0221072267740965,0.0169023778289557,3.64857649803162,0.0302645619958639,0.0385256223380566,0.0985694974660873,0.00137710652779788,0.0165003910660744,0.0947362706065178,0.0672026425600052,2012-01-18 15:06:15
1.00600004196167,36,-7.75978422164917,0.0242744442075491,0.0324106477200985,0.0811771303415298,0.000753092230297625,0.0116263050585985,0.0423437617719173,0.0389084070920944,4.38820362091064,0.0642123520374298,0.0863160416483879,0.230728849768639,0.186471253633499,0.582857429981232,0.729293465614319,0.247558414936066,3.60476112365723,0.104059442877769,0.129448905587196,0.309726625680923,0.986257016658783,1.92888796329498,1.39965641498566,0.458451896905899,2012-01-18 15:06:16
1.00300002098083,46,-7.66411018371582,0.122722193598747,0.156916230916977,0.33854278922081,1.8053252696991,4.92824697494507,6.29743242263794,0.800093948841095,4.90417766571045,0.165118783712387,0.22330629825592,0.607159614562988,8.23693752288818,11.7209196090698,4.94557857513428,2.94771194458008,2.92302131652832,0.178521797060966,0.230770409107208,0.520392060279846,9.24765586853027,11.0660552978516,4.34909248352051,2.51594948768616,2012-01-18 15:06:17
1.01699995994568,39,-7.40754079818726,0.0567380785942078,0.073369063436985,0.189846679568291,0.317392498254776,0.421906650066376,0.277846425771713,0.0868350490927696,5.24479722976685,0.118891961872578,0.134276196360588,0.295959770679474,1.45604586601257,2.09744787216187,0.561182260513306,0.0214202161878347,2.97996425628662,0.187931761145592,0.222766250371933,0.587141752243042,3.68778800964355,4.64097595214844,0.760575830936432,0.315439611673355,2012-01-18 15:06:18
1.01400017738342,39,-7.6423978805542,0.0772153735160828,0.0895263403654099,0.169730424880981,0.247254267334938,0.548648715019226,0.464702516794205,0.15165388584137,4.99384784698486,0.0560931675136089,0.067302793264389,0.115416526794434,0.209313869476318,0.203006699681282,0.103409565985203,0.0648266971111298,2.97870707511902,0.0846685841679573,0.0952789410948753,0.188840910792351,0.272919833660126,0.700697064399719,0.661873757839203,0.105130553245544,2012-01-18 15:06:19
1.01899981498718,31,-7.85449361801147,0.0474310889840126,0.0602432824671268,0.156273484230042,0.00959476362913847,0.0400580205023289,0.105757318437099,0.0311264730989933,4.93432664871216,0.0724937319755554,0.0810247585177422,0.145517945289612,0.173793449997902,0.322356253862381,0.217824533581734,0.050291296094656,2.31310391426086,0.155518561601639,0.209571778774261,0.481791198253632,1.08335554599762,1.62109780311584,0.741088271141052,0.245505094528198,2012-01-18 15:06:20
1.01400017738342,39,-7.79226350784302,0.141625821590424,0.16758668422699,0.349016040563583,0.000694713904522359,0.522256195545197,2.52176094055176,0.26458477973938,4.85202836990356,0.0835209935903549,0.0943882465362549,0.174256563186646,0.340647578239441,0.554116666316986,0.132362470030785,0.229833275079727,2.47781348228455,0.102760285139084,0.123294346034527,0.27131724357605,0.671086370944977,0.83460259437561,0.153194293379784,0.0224673636257648,2012-01-18 15:06:21
1.06799983978271,36,-7.71020603179932,0.081540547311306,0.0966703444719315,0.18414694070816,0.60801750421524,0.948967695236206,0.509941816329956,0.0650652199983597,4.91776275634766,0.0409064963459969,0.0517624020576477,0.113048791885376,0.0513214133679867,0.0889123678207397,0.0524525158107281,0.00726847164332867,2.83630108833313,0.0900759026408195,0.112577594816685,0.247345387935638,0.722719609737396,1.07828748226166,0.429714769124985,0.207360744476318,2012-01-18 15:06:22
1.00100016593933,38,-7.63292837142944,0.0336441956460476,0.0410104431211948,0.084905169904232,0.0335425771772861,0.0449652038514614,0.0547978393733501,0.073084868490696,4.94126129150391,0.0350431501865387,0.0452859364449978,0.11638967692852,0.06299689412117,0.169387325644493,0.100901067256927,0.0522452779114246,2.94147872924805,0.0413726046681404,0.048459380865097,0.108389317989349,0.0589049980044365,0.16671621799469,0.206787452101707,0.042677890509367,2012-01-18 15:06:23
1.01099991798401,37,-7.65077686309814,0.0343269258737564,0.0407549515366554,0.0898501053452492,0.00252449885010719,0.0386770889163017,0.0494103766977787,0.0751112028956413,5.0196795463562,0.0268769077956676,0.0346650965511799,0.0771278440952301,0.00195228576194495,0.00792780146002769,0.010365636087954,0.0211024470627308,2.78800415992737,0.0377652607858181,0.0462713614106178,0.0951510593295097,0.0131480246782303,0.0244161300361156,0.0210422109812498,0.00764438975602388,2012-01-18 15:06:24
1.01699995994568,36,-7.58952951431274,0.0509400777518749,0.0622108615934849,0.118497222661972,0.0892584845423698,0.118312619626522,0.119300723075867,0.0307313613593578,5.08093404769897,0.0594452284276485,0.0751408785581589,0.155816897749901,0.0173073709011078,0.0902554392814636,0.40667313337326,0.079286016523838,2.8591833114624,0.0615639872848988,0.0716715008020401,0.162354603409767,0.272011578083038,0.453579992055893,0.188967734575272,0.0575621053576469,2012-01-18 15:06:25
1.00500011444092,37,-7.57974481582642,0.0337680540978909,0.0390524342656136,0.0874645635485649,0.0592251755297184,0.074219636619091,0.0380762778222561,0.0228741094470024,5.05281019210815,0.0376935750246048,0.0463016256690025,0.0956809297204018,0.0529632866382599,0.071954071521759,0.0955145508050919,0.06916144490242,2.97008967399597,0.0628513842821121,0.0731436610221863,0.138618230819702,3.50556765624788e-05,0.0224036518484354,0.271119892597198,0.221761763095856,2012-01-18 15:06:26
1.01699995994568,37,-7.59326219558716,0.0421635545790195,0.0521848313510418,0.104957915842533,0.0612455010414124,0.183561012148857,0.185660272836685,0.0159959606826305,5.02577543258667,0.0245416536927223,0.0329316668212414,0.0930304899811745,0.0105019072070718,0.0434906631708145,0.0735032930970192,0.103484913706779,3.002690076828,0.0494129210710526,0.0580320581793785,0.109728418290615,0.136281684041023,0.191588491201401,0.0408916138112545,0.0384726077318192,2012-01-18 15:06:27
1.0019998550415,36,-7.56746482849121,0.0194316618144512,0.0256351716816425,0.0621086768805981,0.0128820007666945,0.0164910648018122,0.00327755184844136,0.00504900794476271,4.97251653671265,0.0192197896540165,0.0240150671452284,0.0582949854433537,0.00582798896357417,0.0092614246532321,0.00870651751756668,0.0115187503397465,3.11497330665588,0.0234421025961637,0.0305034648627043,0.0945250689983368,0.0263487100601196,0.0484851002693176,0.0209081694483757,0.0297707356512547,2012-01-18 15:06:28
1.00500011444092,37,-7.56622791290283,0.026848254725337,0.032291904091835,0.0633455514907837,0.00389649788849056,0.0252715665847063,0.0730033740401268,0.0650800243020058,4.99290990829468,0.0290688946843147,0.0359894409775734,0.0699716508388519,0.00388798979111016,0.0167181473225355,0.0336398743093014,0.0350837074220181,3.1405131816864,0.0374214798212051,0.0476844720542431,0.100451819598675,0.00871359650045633,0.0259262677282095,0.0544403120875359,0.0478155612945557,2012-01-18 15:06:29
1.00300002098083,37,-7.54767465591431,0.0289542805403471,0.0360654853284359,0.0818986371159554,0.00224052602425218,0.00717174541205168,0.0189999453723431,0.00329031376168132,4.97117614746094,0.0337250754237175,0.037835456430912,0.0694415643811226,0.0193541441112757,0.0238493680953979,0.0156043311581016,0.0333269946277142,3.12699604034424,0.0343698598444462,0.0472330003976822,0.126161098480225,0.0203287806361914,0.0438327789306641,0.07249516248703,0.0430061370134354,2012-01-18 15:06:30
1.02699995040894,35,-7.52254104614258,0.0294919479638338,0.0335947126150131,0.0678058639168739,0.000184444434125908,0.00743751181289554,0.0075813583098352,0.0252963230013847,4.96020364761353,0.0142336273565888,0.0181280672550201,0.0470718368887901,0.00936258770525455,0.0165855512022972,0.014832841232419,0.0169008765369654,3.14261102676392,0.0452147014439106,0.0520686320960522,0.0837767943739891,0.065038375556469,0.13783560693264,0.0878560021519661,0.0203856378793716,2012-01-18 15:06:31
1.09899997711182,42,-7.5485520362854,0.0308319646865129,0.0367591194808483,0.0908280983567238,0.00387414055876434,0.0319158844649792,0.096558578312397,0.0625080317258835,4.98831605911255,0.0205472316592932,0.0264412742108107,0.0719153061509132,0.000467045960249379,0.00161672511603683,0.0114082796499133,0.00991292577236891,3.1948664188385,0.0371251404285431,0.0426139608025551,0.0959651172161102,0.00486592622473836,0.0603670962154865,0.120032846927643,0.0550740920007229,2012-01-18 15:06:32
1.01699995994568,41,-7.53509473800659,0.0155062647536397,0.0186012424528599,0.0454453714191914,0.00322179589420557,0.00310450792312622,0.00675197504460812,0.00441968208178878,4.98129987716675,0.0320859514176846,0.0380087830126286,0.0877813249826431,0.00860640127211809,0.0499025136232376,0.143966779112816,0.0256024226546288,3.17926812171936,0.0224368590861559,0.0271579474210739,0.0667329728603363,0.000711473519913852,0.010799259878695,0.0276379324495792,0.0101531818509102,2012-01-18 15:06:33
1.11300015449524,38,-7.52892637252808,0.02401402592659,0.0283406618982553,0.0516138561069965,0.0457850582897663,0.0659920051693916,0.0273516532033682,0.0248767621815205,4.97635889053345,0.0257797632366419,0.0308228097856045,0.0740658864378929,0.0458678640425205,0.0846955701708794,0.0440092235803604,0.016899336129427,3.19748401641846,0.0285506136715412,0.0333658754825592,0.0681302919983864,0.0567020960152149,0.102629877626896,0.062627024948597,0.0710806250572205,2012-01-18 15:06:34
1.07599997520447,39,-7.56293869018555,0.0199743248522282,0.0250444300472736,0.0666348114609718,0.00865454040467739,0.01623316667974,0.00607631495222449,0.0282085966318846,4.97674894332886,0.0230304356664419,0.033153560012579,0.0834821090102196,0.0260068289935589,0.0407910272479057,0.0416897311806679,0.0386693254113197,3.22337031364441,0.0338493622839451,0.0447005890309811,0.110890597105026,0.0717985704541206,0.173958733677864,0.294358789920807,0.102963447570801,2012-01-18 15:06:36
1.21700000762939,39,-7.54231929779053,0.0226564817130566,0.0260686855763197,0.0500389747321606,0.0161506216973066,0.0204304251819849,0.0128201544284821,0.0272601041942835,4.96115922927856,0.0296971406787634,0.0359321497380733,0.0774472579360008,0.00971667934209108,0.042461883276701,0.109225414693356,0.0182566735893488,3.23745155334473,0.0193295832723379,0.0259154438972473,0.0600970648229122,0.000405334460083395,0.00807189662009478,0.0312507078051567,0.0394930355250835,2012-01-18 15:06:37
1.0479998588562,39,-7.52547216415405,0.0226693768054247,0.0262403283268213,0.0550680160522461,0.0012657914776355,0.0058965515345335,0.0331473462283611,0.0184254869818687,4.98479557037354,0.0321471877396107,0.0408375598490238,0.0852422714233398,0.0438626557588577,0.0566606037318707,0.00799767579883337,0.0172022692859173,3.23996615409851,0.0266926363110542,0.0332830287516117,0.0724182352423668,0.00338427070528269,0.0276227630674839,0.0524540916085243,0.00456678355112672,2012-01-18 15:06:38
1.03600001335144,41,-7.51883029937744,0.0246653445065022,0.0280103236436844,0.0519034005701542,0.000255382998147979,0.00577872712165117,0.0262731909751892,0.0353024266660213,4.99899959564209,0.0230202097445726,0.0299164447933435,0.0808449238538742,0.0367226637899876,0.0522387102246284,0.0343923009932041,0.0452574454247952,3.23164987564087,0.0390282087028027,0.0474578589200974,0.113135315477848,0.163159623742104,0.330439805984497,0.219108060002327,0.0565891861915588,2012-01-18 15:06:39
1.10700011253357,38,-7.49744176864624,0.0212160125374794,0.0278044957667589,0.0830983147025108,0.0250055249780416,0.0390116013586521,0.00986432377249002,0.0121429786086082,4.97326183319092,0.0251685474067926,0.0311879701912403,0.0699367746710777,0.00320849078707397,0.0132424402981997,0.0336998365819454,0.0116106132045388,3.22819423675537,0.0419295430183411,0.0487669967114925,0.106066666543484,0.0363901183009148,0.0875448733568192,0.0811841636896133,0.029057277366519,2012-01-18 15:06:40
1.05900001525879,37,-7.51030349731445,0.0148711251094937,0.019943580031395,0.047442901879549,0.016041224822402,0.0194977633655071,0.00407041795551777,0.00488310866057873,4.9894642829895,0.0399285405874252,0.0444532036781311,0.0805734172463417,0.00732024712488055,0.0457984507083893,0.068886898458004,0.0210569389164448,3.22718286514282,0.0338110812008381,0.0419407337903976,0.0972713977098465,0.000193346117157489,0.0218731705099344,0.040236696600914,0.0429130643606186,2012-01-18 15:06:41
1.0090000629425,37,-7.50049686431885,0.0192980784922838,0.0226298645138741,0.0408167950809002,0.00041798481834121,0.00302321999333799,0.00986186508089304,0.0262427423149347,4.98866939544678,0.0298138838261366,0.0407771915197372,0.0911751836538315,0.00373929180204868,0.032980240881443,0.0282645858824253,0.0394487977027893,3.23831486701965,0.0286820996552706,0.0345880538225174,0.0763329267501831,0.0110511761158705,0.0197641793638468,0.0288662947714329,0.0368371158838272,2012-01-18 15:06:42
1.00899982452393,38,-7.48944187164307,0.0192057881504297,0.0218018908053637,0.0518719255924225,0.0109542198479176,0.0212725177407265,0.0170456878840923,0.003814467927441,5.00681066513062,0.0260106679052114,0.0368786342442036,0.103485785424709,0.0436674132943153,0.0593949183821678,0.0484002642333508,0.045446589589119,3.26277565956116,0.0243672393262386,0.0307580009102821,0.0756143629550934,0.00405209930613637,0.00962555781006813,0.00370501284487545,0.00722610717639327,2012-01-18 15:06:43
1.01900005340576,37,-7.49996662139893,0.0191404838114977,0.0233780350536108,0.0469128116965294,0.000634486204944551,0.00165929144714028,0.00238621351309121,0.020331010222435,4.9796576499939,0.0217909254133701,0.0249901618808508,0.0511535182595253,6.53815368423238e-05,0.0001366886717733,0.000329235481331125,0.0121605666354299,3.22108674049377,0.0324786826968193,0.0423855856060982,0.11237894743681,0.0514575876295567,0.106957048177719,0.088223472237587,0.0950804352760315,2012-01-18 15:06:44
1.01600003242493,39,-7.56696176528931,0.0275049936026335,0.0334308408200741,0.0648746490478516,0.0154722006991506,0.0562686696648598,0.0585216134786606,0.0133016845211387,4.99837398529053,0.049052506685257,0.0542227812111378,0.101083755493164,0.0903636962175369,0.269009292125702,0.143238082528114,0.0099920192733407,3.13636779785156,0.0413543023169041,0.0522174462676048,0.139053180813789,0.0296025089919567,0.0434191152453423,0.195361346006393,0.0835313275456429,2012-01-18 15:06:45
1.04500007629395,38,-7.59060478210449,0.0420789048075676,0.054391473531723,0.108131058514118,0.0100647769868374,0.0293710846453905,0.0432491898536682,0.00455668475478888,4.94771289825439,0.0242857001721859,0.0320339389145374,0.093421533703804,0.0287508051842451,0.0553321950137615,0.046137735247612,0.0158789735287428,3.21245193481445,0.0524288825690746,0.0590816251933575,0.112002275884151,0.185686960816383,0.240340575575829,0.0813429802656174,0.129754424095154,2012-01-18 15:06:46
1.117999792099,42,-7.72670602798462,0.076496347784996,0.085621140897274,0.197066813707352,0.83764237165451,1.28519952297211,0.249127492308617,0.272585868835449,4.87997579574585,0.111431196331978,0.151031389832497,0.408143401145935,2.74609541893005,3.6531662940979,1.93770396709442,0.676796734333038,2.87965273857117,0.0830229744315147,0.0907874330878258,0.15060219168663,0.84694629907608,1.29916954040527,0.208565294742584,0.191983982920647,2012-01-18 15:06:47
1.05200004577637,41,-7.9570198059082,0.0378031432628632,0.0543158687651157,0.160733386874199,0.0561349652707577,0.181862354278564,0.428416073322296,0.209195330739021,4.45915555953979,0.0439985878765583,0.0514945089817047,0.100936561822891,0.0274985209107399,0.13568252325058,0.207628980278969,0.0510318428277969,3.10320663452148,0.0807400494813919,0.0871243476867676,0.141598522663116,0.707995235919952,1.18468236923218,0.341955780982971,0.0354400016367435,2012-01-18 15:06:48
1.10000014305115,40,-8.12382888793945,0.078943595290184,0.10377924144268,0.329503059387207,0.0959234982728958,0.196229547262192,0.0875582620501518,0.0422002710402012,3.75790810585022,0.174754500389099,0.215670511126518,0.566824555397034,1.07534766197205,1.36827850341797,0.243277937173843,0.0545167662203312,3.54142642021179,0.151451453566551,0.175237283110619,0.373878479003906,1.45533776283264,2.19765257835388,0.916322648525238,0.128947630524635,2012-01-18 15:06:49
1.04999995231628,42,-8.03001117706299,0.0434294082224369,0.0541765876114368,0.135658591985703,0.0253281220793724,0.128708347678185,0.117070369422436,0.0196049772202969,3.7090151309967,0.0311544816941023,0.037344828248024,0.070748008787632,0.0279163010418415,0.0435542911291122,0.0174359865486622,0.0694373026490211,3.87456059455872,0.123528145253658,0.149352103471756,0.304939955472946,1.90718710422516,2.27357316017151,0.288185775279999,0.0258053448051214,2012-01-18 15:06:50
1.01999998092651,39,-7.95771884918213,0.0496327802538872,0.0606088526546955,0.132012501358986,0.142562940716743,0.185891389846802,0.0502582788467407,0.0183290522545576,3.71772599220276,0.0325211957097054,0.0435630306601524,0.136287346482277,0.0284406822174788,0.106634512543678,0.228597313165665,0.0888238474726677,4.03656816482544,0.110561788082123,0.119171023368835,0.18255452811718,0.980464816093445,1.32352888584137,0.208015203475952,0.0224084910005331,2012-01-18 15:06:51
1.0090000629425,37,-7.92112255096436,0.0280661080032587,0.0317280180752277,0.0659960955381393,0.00790746044367552,0.0394730530679226,0.0439840368926525,0.0116630718111992,3.67934894561768,0.0385819189250469,0.0465498752892017,0.10972835868597,0.0314744710922241,0.105061173439026,0.117111593484879,0.0413039065897465,4.10580587387085,0.0368339866399765,0.0420444160699844,0.0850796326994896,0.00693262415006757,0.00816860143095255,0.0523349940776825,0.0502133779227734,2012-01-18 15:06:52
1.01099991798401,39,-7.88706064224243,0.0219472572207451,0.0262499637901783,0.0515476875007153,0.0361998304724693,0.0471473671495914,0.0118313590064645,0.000813468301203102,3.6430447101593,0.0353838577866554,0.0453967303037643,0.102844148874283,0.104872912168503,0.0941795259714127,0.0372872874140739,0.0264555364847183,4.15927696228027,0.0423342362046242,0.0514230728149414,0.148357227444649,0.159877344965935,0.262570261955261,0.0774660259485245,0.0108220102265477,2012-01-18 15:06:53
1.06299996376038,33,-7.87206506729126,0.0145343486219645,0.0176209937781096,0.0365519970655441,0.00025145206018351,0.00131247809622437,0.00514933280646801,0.00755179114639759,3.64985680580139,0.0204777624458075,0.0235871933400631,0.0508161894977093,0.0102519961073995,0.0179579015821218,0.0192859899252653,0.00466464832425117,4.25994920730591,0.0580654740333557,0.0637347847223282,0.113816738128662,0.0961875542998314,0.144950658082962,0.0756126046180725,0.0828867629170418,2012-01-18 15:06:55
1.26399993896484,40,-7.8771915435791,0.017897104844451,0.0210042875260115,0.0514848232269287,0.00323114288039505,0.00797198992222548,0.0155680514872074,0.00902940146625042,3.60982775688171,0.027997937053442,0.0306054949760437,0.050013829022646,0.00302676600404084,0.0339405424892902,0.0853287577629089,0.0292754732072353,4.28158330917358,0.0209862049669027,0.027806643396616,0.0921828150749207,8.59250940266065e-05,0.00805841200053692,0.0473638437688351,0.08485496789217,2012-01-18 15:06:56
1.10700011253357,37,-7.85088586807251,0.0226075481623411,0.0271252952516079,0.0532738715410233,0.022389579564333,0.0325510837137699,0.0075955749489367,0.0131877940148115,3.61759352684021,0.0253439769148827,0.0334145314991474,0.0871997401118279,0.0114567773416638,0.0238118674606085,0.0544074550271034,0.0605146288871765,4.33480453491211,0.0188684016466141,0.0236381869763136,0.0585749074816704,0.00794790592044592,0.00736896600574255,0.0146081522107124,0.00860104989260435,2012-01-18 15:06:57
1.01099991798401,40,-7.83085489273071,0.0291747339069843,0.0368882939219475,0.0934081822633743,0.00712451431900263,0.0213824175298214,0.0327591598033905,0.0362589992582798,3.62821531295776,0.0277160257101059,0.0364622436463833,0.0786984413862228,0.00338328466750681,0.0218045823276043,0.0841252207756042,0.0240997690707445,4.33601045608521,0.0313814058899879,0.0349859781563282,0.050504457205534,0.0757725536823273,0.149418562650681,0.0647117123007774,0.0139628099277616,2012-01-18 15:06:58
1.00999999046326,38,-7.82519054412842,0.0197219271212816,0.023374866694212,0.0495493039488792,0.00151050079148263,0.00174699979834259,0.00314137502573431,0.0117872282862663,3.60084700584412,0.0227780304849148,0.0294934269040823,0.080259770154953,0.045951321721077,0.0941317081451416,0.0747482478618622,0.0221733544021845,4.38383054733276,0.0363877825438976,0.0418780781328678,0.0880016386508942,0.117267772555351,0.206060394644737,0.0667404681444168,0.0151881175115705,2012-01-18 15:06:59
1.00600004196167,35,-7.84447908401489,0.029539979994297,0.036420326679945,0.0792936310172081,0.0039946585893631,0.00891278870403767,0.0360289365053177,0.0436446294188499,3.59819984436035,0.0366808511316776,0.0436916537582874,0.0891003087162971,3.23111407851684e-07,0.0206422600895166,0.035553727298975,0.023556899279356,4.35191106796265,0.0283392611891031,0.0329935662448406,0.0762119442224503,0.0283159203827381,0.033053670078516,0.0385319627821445,0.0507098101079464,2012-01-18 15:07:00
1.01999998092651,37,-7.84028387069702,0.0173496454954147,0.0207243505865335,0.0442623719573021,2.15862769437081e-06,0.00612021656706929,0.0141655383631587,0.00689304945990443,3.60672688484192,0.0247852243483067,0.0296518206596375,0.0665263012051582,0.0035996250808239,0.0171897988766432,0.0130797019228339,0.011946058832109,4.33559942245483,0.0571064986288548,0.0620975196361542,0.106812991201878,0.225986242294312,0.326256066560745,0.0821182876825333,0.00415089819580317,2012-01-18 15:07:01
1.0090000629425,18,-7.83115482330322,0.0177972223609686,0.0229339711368084,0.0544812940061092,0.000706270220689476,0.00136695895344019,0.00227287504822016,0.00112869869917631,3.58868908882141,0.0214293617755175,0.0282095912843943,0.0593846514821053,0.000491484068334103,0.00101067207287997,0.00197373889386654,0.000785997719503939,4.36286973953247,0.0184025932103395,0.0246554706245661,0.0501228161156178,2.94244301812796e-07,5.05481839354616e-05,0.000690377375576645,0.00169120752252638,2012-01-18 15:07:02
1.00799989700317,35,-7.81029605865479,0.0176919661462307,0.0204749330878258,0.044830322265625,0.00165381724946201,0.0137946400791407,0.0174237452447414,0.00365193001925945,3.61557173728943,0.0311891362071037,0.0406555682420731,0.0815353766083717,0.0226999633014202,0.0210289023816586,0.0224592071026564,0.0267469733953476,4.40934991836548,0.0224471818655729,0.0262183137238026,0.0551973357796669,0.00366365746594965,0.010786322876811,0.0309319905936718,0.0187194552272558,2012-01-18 15:07:03
1.07500004768372,40,-7.80462217330933,0.0287824682891369,0.0337973348796368,0.0799240618944168,0.0648796558380127,0.107789166271687,0.0555433444678783,0.0099352765828371,3.59879541397095,0.0257056467235088,0.0327083095908165,0.0782081261277199,0.0401003211736679,0.0883120819926262,0.0883460938930511,0.0282839499413967,4.37106895446777,0.0369343273341656,0.0454180687665939,0.0909566059708595,0.0800820291042328,0.14953401684761,0.124561004340649,0.0580488629639149,2012-01-18 15:07:04
1.10899996757507,36,-7.82897520065308,0.0246981866657734,0.0320283286273479,0.0849908217787743,0.0221570432186127,0.0392587520182133,0.0657975375652313,0.0284886136651039,3.59876799583435,0.0345956534147263,0.0462570525705814,0.117407396435738,0.0113402223214507,0.0353744812309742,0.0610214732587337,0.00947351381182671,4.39283418655396,0.0327493250370026,0.0418585389852524,0.0986111536622047,0.00599953532218933,0.019715940579772,0.0337650962173939,0.0229478254914284,2012-01-18 15:07:05
1.04800009727478,38,-7.81925487518311,0.0214197505265474,0.0262635424733162,0.0523880645632744,0.00240866816602647,0.0125756803900003,0.0128866285085678,0.00412403047084808,3.58200788497925,0.0125503167510033,0.0153719205409288,0.0366458408534527,0.0002998951531481,0.00596721097826958,0.00822442770004272,0.00934463553130627,4.42099285125732,0.033386018127203,0.0390879139304161,0.0864532142877579,0.0184071827679873,0.101087115705013,0.0866774842143059,0.0186088178306818,2012-01-18 15:07:06
1.09899997711182,44,-7.82904958724976,0.0211734119802713,0.0250844247639179,0.0523763336241245,0.0289659257978201,0.0462114773690701,0.0230247024446726,0.0347048975527287,3.59725737571716,0.0348500683903694,0.0441186614334583,0.109656266868114,0.00690568145364523,0.0241930726915598,0.0849006995558739,0.0341886393725872,4.37889194488525,0.0405334830284119,0.050243653357029,0.112999565899372,0.00621830951422453,0.0165372733026743,0.0678203403949738,0.147272512316704,2012-01-18 15:07:07
1.05399990081787,39,-7.81363677978516,0.0244101993739605,0.0295003820210695,0.0565767288208008,0.0192979518324137,0.0507893823087215,0.0532396882772446,0.0315351784229279,3.59250259399414,0.0313477478921413,0.0360376462340355,0.0621088668704033,0.000617707672063261,0.0140085089951754,0.0825563967227936,0.00983985420316458,4.41575860977173,0.0197937954217196,0.0228586439043283,0.0517991371452808,0.0119766509160399,0.0229895673692226,0.00744028436020017,0.0109192859381437,2012-01-18 15:07:08
1.00100016593933,40,-7.80192518234253,0.0216113682836294,0.0270250141620636,0.063007615506649,0.000118073607154656,0.0081158708781004,0.0288315508514643,0.0466289520263672,3.60884714126587,0.0186326019465923,0.0237190816551447,0.0588397979736328,0.019275514408946,0.0291463173925877,0.00669522397220135,0.0205133873969316,4.415198802948,0.0323864072561264,0.0422646254301071,0.105666473507881,0.0183601174503565,0.0273190923035145,0.0227176118642092,0.0535855479538441,2012-01-18 15:07:09
1.00799989700317,36,-7.78593492507935,0.0211871694773436,0.0259401910007,0.059384610503912,0.00566696049645543,0.0207718927413225,0.0375550128519535,0.0237262453883886,3.61565732955933,0.0289356354624033,0.0357206128537655,0.0950700864195824,0.00076865719165653,0.00870956853032112,0.0123694185167551,0.0161930471658707,4.41816806793213,0.0166167952120304,0.0203467756509781,0.0438574403524399,3.96039297356765e-07,0.00134844484273344,0.00851048436015844,0.0109425308182836,2012-01-18 15:07:10
1.01699995994568,29,-7.82705926895142,0.0190768744796515,0.0222621131688356,0.047680526971817,0.000443276861915365,0.00102032092399895,0.00176641461439431,0.00165179581381381,3.57367849349976,0.0308542586863041,0.0375434383749962,0.0940085202455521,7.5178213592153e-05,0.000936178606934845,0.0134147079661489,0.0162586718797684,4.41637420654297,0.0229015778750181,0.0266739260405302,0.0524147637188435,0.00119190278928727,0.00350859481841326,0.01023168861866,0.00329354801215231,2012-01-18 15:07:11
1.01100015640259,39,-7.8096137046814,0.0250549484044313,0.0303268358111382,0.0651260986924171,0.00845412258058786,0.00817845296114683,0.0422463528811932,0.0107420803979039,3.60406947135925,0.0197422225028276,0.0239051673561335,0.0638690739870071,0.0294541623443365,0.0469497814774513,0.0265946891158819,0.011347409337759,4.41978168487549,0.0379886142909527,0.0420865081250668,0.0814704895019531,0.0546443723142147,0.117757178843021,0.129436776041985,0.0130588337779045,2012-01-18 15:07:12
1.01600003242493,36,-7.7829384803772,0.0238506998866796,0.0292516872286797,0.0623810812830925,0.00330188171938062,0.0140523724257946,0.0625629052519798,0.0428831987082958,3.5726170539856,0.0381521172821522,0.0467929877340794,0.114683233201504,0.0655931085348129,0.0875739827752113,0.0224901754409075,0.050150316208601,4.47292184829712,0.0213687736541033,0.0266346111893654,0.0697360560297966,0.00431042211130261,0.0037827305495739,0.00288928649388254,0.0104213068261743,2012-01-18 15:07:13
1.05599999427795,40,-7.75755023956299,0.0153228640556335,0.0199716128408909,0.0495234951376915,0.00454757083207369,0.00598937412723899,0.00185700890142471,0.0163501650094986,3.59732437133789,0.0230578724294901,0.0280723329633474,0.0605559833347797,0.00458555016666651,0.0112336352467537,0.0118476301431656,0.0207396391779184,4.43236064910889,0.0243081916123629,0.0306594539433718,0.0688915997743607,0.0109508140012622,0.0783485025167465,0.086434505879879,0.0038798893801868,2012-01-18 15:07:14
1.01399993896484,39,-7.81589984893799,0.0352032966911793,0.043517928570509,0.0980663299560547,0.0240426603704691,0.0522875227034092,0.0987428724765778,0.0521247833967209,3.59501719474792,0.0244747139513493,0.0343837887048721,0.103849940001965,0.0265462175011635,0.0329087264835835,0.00505720963701606,0.00989721249789,4.44417238235474,0.0195874758064747,0.0240080822259188,0.0507933311164379,0.0119654936715961,0.0229021068662405,0.0344669930636883,0.0104919988662004,2012-01-18 15:07:15
1.11299991607666,41,-7.80992031097412,0.0194382518529892,0.023214615881443,0.0528601445257664,0.000375049712602049,0.0180255491286516,0.0455875396728516,0.0462564304471016,3.5923433303833,0.0404749996960163,0.0454038642346859,0.0815626829862595,0.139832183718681,0.222942844033241,0.210186868906021,0.0422719493508339,4.45174074172974,0.0258671101182699,0.0327012203633785,0.0789314359426498,4.17649607697967e-05,0.0179383102804422,0.0539195612072945,0.0736513212323189,2012-01-18 15:07:17
1.15400004386902,43,-7.79811096191406,0.0251822024583817,0.0312452204525471,0.0704709216952324,0.0143962576985359,0.104159444570541,0.0535434000194073,0.0500389933586121,3.58125162124634,0.0429180301725864,0.0488392896950245,0.109697602689266,0.0236716624349356,0.166189879179001,0.249722123146057,0.0454515032470226,4.44879817962646,0.0346546992659569,0.0455026440322399,0.140713781118393,3.28398186866252e-07,0.0884263962507248,0.210968643426895,0.0472401231527328,2012-01-18 15:07:18
1.04699993133545,41,-7.795090675354,0.0203016549348831,0.0263669528067112,0.0698423609137535,0.034939356148243,0.0518522039055824,0.028763834387064,0.0180828757584095,3.57823133468628,0.0233469568192959,0.0281733181327581,0.0674506947398186,0.0283125676214695,0.0417176447808743,0.0178644619882107,0.0256248582154512,4.41921138763428,0.0292507186532021,0.0394504927098751,0.094478540122509,0.0556407496333122,0.0794922709465027,0.0168818850070238,0.0172897409647703,2012-01-18 15:07:19
1.06900000572205,40,-7.80118989944458,0.0171616077423096,0.0198569186031818,0.0441298484802246,0.00565444678068161,0.0137481419369578,0.011719923466444,0.0263127740472555,3.59315657615662,0.0367749147117138,0.0435154438018799,0.0921825468540192,0.0278920587152243,0.0776282697916031,0.109287664294243,0.041899997740984,4.45810317993164,0.0247127152979374,0.0296478383243084,0.0549171455204487,0.0278908703476191,0.031337071210146,0.0507754795253277,0.0292348172515631,2012-01-18 15:07:20
1.05299997329712,41,-7.78097867965698,0.0107808792963624,0.0128226988017559,0.0251145474612713,0.000369966641301289,0.0025401976890862,0.00690186955034733,0.00556783238425851,3.61602282524109,0.0228568892925978,0.0310131851583719,0.085628867149353,0.00337929069064558,0.00590451015159488,0.0249140113592148,0.049846239387989,4.46035146713257,0.0328910164535046,0.038251843303442,0.0865853950381279,0.0155018381774426,0.0926427394151688,0.0959331765770912,0.0501543097198009,2012-01-18 15:07:21
1.09800004959106,41,-7.79437303543091,0.0207100212574005,0.0251862015575171,0.0509466528892517,0.0244015008211136,0.0392909273505211,0.0138874528929591,0.0236336570233107,3.58612442016602,0.039844986051321,0.0500717535614967,0.0949570834636688,0.0175929460674524,0.0112268589437008,0.0398533530533314,0.0143317682668567,4.43499755859375,0.0333110503852367,0.0371239744126797,0.0906515568494797,0.00491639226675034,0.0100932037457824,0.0453296490013599,0.038593877106905,2012-01-18 15:07:22
1.0789999961853,40,-7.78868627548218,0.0207900628447533,0.0297035370022058,0.0806595534086227,0.00862292945384979,0.036797109991312,0.0884257927536964,0.0396110750734806,3.56839466094971,0.0273360870778561,0.033842746168375,0.0796789824962616,0.000206102035008371,0.0148254176601768,0.0673788636922836,0.0137897962704301,4.46668386459351,0.0360884107649326,0.0435809418559074,0.0929178446531296,0.0720496252179146,0.0727307349443436,0.0109945414587855,0.0181260574609041,2012-01-18 15:07:23
1.0220000743866,39,-7.77818202972412,0.0209672395139933,0.0254700034856796,0.0573310852050781,0.0187905095517635,0.0562032274901867,0.0402809642255306,0.00310203898698092,3.57439804077148,0.0302903614938259,0.0363468676805496,0.0736755281686783,0.00730345118790865,0.0167760513722897,0.011828325688839,0.0428277589380741,4.46152257919312,0.0408512987196445,0.0484996326267719,0.0975634232163429,0.104389011859894,0.223107948899269,0.200078532099724,0.0363340526819229,2012-01-18 15:07:24
1.00799989700317,41,-7.7958083152771,0.0272788908332586,0.0324853211641312,0.0681680589914322,0.000436701200669631,0.0126308295875788,0.00600147014483809,0.0289581548422575,3.58373260498047,0.019356619566679,0.0233326684683561,0.0533387213945389,0.00213354197330773,0.00437443284317851,0.00278921215794981,0.0236717257648706,4.47446346282959,0.0225651729851961,0.0261731315404177,0.0516642145812511,0.00295168021693826,0.00540751870721579,0.00380474887788296,0.067582480609417,2012-01-18 15:07:25
1.01100015640259,37,-7.7928409576416,0.0175072401762009,0.0211703740060329,0.0357809588313103,0.000263988797087222,0.00150706467684358,0.0111828343942761,0.00993282906711102,3.55398297309875,0.0299429409205914,0.034985926002264,0.07262222468853,0.0171107389032841,0.0307604987174273,0.0283265244215727,0.0204975195229053,4.44347238540649,0.0305302198976278,0.0370303727686405,0.0773928910493851,0.01148537453264,0.021106481552124,0.0101882955059409,0.038941252976656,2012-01-18 15:07:26
1.01999998092651,20,-7.7869701385498,0.0122582912445068,0.0168363060802221,0.0495234951376915,6.01862666371744e-05,0.000142399439937435,0.000601243693381548,0.00102735008113086,3.56863975524902,0.0341271683573723,0.0387207791209221,0.0774725303053856,0.00293133384548128,0.00573837989941239,0.00896130781620741,0.00316442642360926,4.49193572998047,0.0268701743334532,0.0307739265263081,0.0495234951376915,3.18677703035064e-05,0.00019679163233377,0.00202628038823605,0.00423488533124328,2012-01-18 15:07:27
1.00399994850159,35,-7.78563928604126,0.0215025432407856,0.0282644424587488,0.0596803650259972,0.00499686319380999,0.0165285412222147,0.0530039593577385,0.027046212926507,3.57018089294434,0.0285634100437164,0.0338044688105583,0.0778927728533745,0.00273466506041586,0.00261235027574003,0.00222393102012575,0.0367833189666271,4.46006441116333,0.0338468924164772,0.0402498841285706,0.0764917358756065,0.0274749640375376,0.066682904958725,0.0872399359941483,0.00714759016409516,2012-01-18 15:07:28
1.00600004196167,37,-7.76315593719482,0.0230946559458971,0.0278636906296015,0.0723570510745049,0.00100739044137299,0.00401146477088332,0.0230347774922848,0.0165185239166021,3.56087398529053,0.0229944419115782,0.0280897729098797,0.0599001236259937,0.000320298771839589,0.004002227447927,0.00625420734286308,0.0198602899909019,4.48932504653931,0.0266763344407082,0.0342861004173756,0.0861393436789513,0.00126774841919541,0.00469850189983845,0.00806050933897495,0.0292613860219717,2012-01-18 15:07:29
1.02300000190735,32,-7.76901197433472,0.0337486080825329,0.0404883287847042,0.0763078629970551,0.00535837700590491,0.012571363709867,0.0293882824480534,0.0270570069551468,3.55215239524841,0.0325803533196449,0.0385102108120918,0.0763080045580864,0.0236930325627327,0.0382854156196117,0.0132531644776464,0.00756841897964478,4.4764289855957,0.0232715997844934,0.0268548224121332,0.0542429387569427,0.0140299098566175,0.0250973775982857,0.0196485389024019,0.00347661646082997,2012-01-18 15:07:30
1,38,-7.77538299560547,0.0370397493243217,0.045453205704689,0.116389714181423,0.0340700373053551,0.0431522056460381,0.0511038266122341,0.00601130397990346,3.59284687042236,0.027735685929656,0.0339280590415001,0.0846467614173889,0.00915266294032335,0.00963396951556206,0.0176565460860729,0.0270104426890612,4.4723482131958,0.0221939589828253,0.0271794870495796,0.0691625699400902,0.0198194831609726,0.0304295811802149,0.00648107239976525,0.0194831266999245,2012-01-18 15:07:31
1.08999991416931,40,-7.79604148864746,0.0233275275677443,0.0278659835457802,0.0492783300578594,0.00417001685127616,0.0042531811632216,0.0626192688941956,0.0676067695021629,3.57893681526184,0.0421195738017559,0.0493241399526596,0.0985567569732666,0.000406918028602377,0.0261946655809879,0.235003933310509,0.0597272887825966,4.46227073669434,0.0301676541566849,0.0402841083705425,0.108118131756783,0.0586132369935513,0.108930222690105,0.0332881771028042,0.0519432798027992,2012-01-18 15:07:32
1.0090000629425,39,-7.79276609420776,0.0355127789080143,0.0417531691491604,0.0749327316880226,0.0020837492775172,0.0490714721381664,0.101416505873203,0.0132104931399226,3.57817006111145,0.0160671826452017,0.0202540475875139,0.047776110470295,0.00179648457560688,0.00798511877655983,0.0151094468310475,0.0202306527644396,4.48465633392334,0.0370988585054874,0.0465913042426109,0.0950489044189453,0.0429617539048195,0.0486426129937172,0.0876184105873108,0.0680126175284386,2012-01-18 15:07:33
1.0460000038147,39,-7.78647994995117,0.0165958404541016,0.0214162822812796,0.0392265319824219,0.00850009545683861,0.0206381510943174,0.0231845416128635,0.00382358999922872,3.59275412559509,0.0287558436393738,0.0363885834813118,0.0721669644117355,0.0143194412812591,0.0386746600270271,0.121079057455063,0.0691295713186264,4.48566198348999,0.0239459797739983,0.0299365352839231,0.064623199403286,0.0177332889288664,0.0405003614723682,0.0511212795972824,0.0438674427568913,2012-01-18 15:07:34
1.05200004577637,40,-7.77029895782471,0.0310134775936604,0.0371197573840618,0.072078749537468,0.106275156140327,0.19280532002449,0.125845849514008,0.0240864139050245,3.59707927703857,0.0233398079872131,0.0278412010520697,0.0608011409640312,0.00452482979744673,0.00358612230047584,0.0385168865323067,0.0214527174830437,4.47820663452148,0.0218933075666428,0.0265459232032299,0.072078749537468,0.0153459785506129,0.0161436162889004,0.00263377791270614,0.0430712997913361,2012-01-18 15:07:35
1.06399989128113,40,-7.77495718002319,0.0170880574733019,0.021020021289587,0.0473170056939125,0.00810325145721436,0.0198768731206656,0.0143766570836306,0.0152763342484832,3.56545257568359,0.0303638931363821,0.0356892049312592,0.0840920135378838,0.00781508255749941,0.0325041748583317,0.0578498393297195,0.0346100069582462,4.46398687362671,0.0328522212803364,0.0418480187654495,0.0961050018668175,0.0415234081447124,0.0810933709144592,0.120133593678474,0.0603967681527138,2012-01-18 15:07:36
1.1159999370575,43,-7.79104137420654,0.0210877079516649,0.0254980213940144,0.0640852078795433,0.0197221133857965,0.0228678695857525,0.0500000007450581,0.0636802092194557,3.5732696056366,0.0322999209165573,0.0400740243494511,0.0748041644692421,0.000161571966600604,0.0535121373832226,0.0851853266358376,0.0278140660375357,4.46248197555542,0.0397356934845448,0.0522334910929203,0.136836737394333,0.090129442512989,0.338624238967896,0.22711868584156,0.0608810819685459,2012-01-18 15:07:38
1.08700013160706,41,-7.76399660110474,0.0155179323628545,0.0187879167497158,0.0420967675745487,1.48772614920745e-05,0.00227622175589204,0.0331653505563736,0.0160358939319849,3.57560014724731,0.0303125530481339,0.0368766710162163,0.0746262520551682,0.0189940873533487,0.114091329276562,0.219845205545425,0.0372043177485466,4.45628499984741,0.0508474782109261,0.0549212284386158,0.0825192257761955,0.0242551006376743,0.147435173392296,0.206415519118309,0.13220152258873,2012-01-18 15:07:39
1.03699994087219,37,-7.77640819549561,0.0284098666161299,0.0349134653806686,0.0689114779233932,0.00361742917448282,0.00191182980779558,0.049737062305212,0.0447041466832161,3.60858201980591,0.03522939234972,0.041197132319212,0.107608146965504,0.0651728361845016,0.121590480208397,0.0845238193869591,0.0134266829118133,4.49118041992188,0.0305445455014706,0.0382527634501457,0.0879946500062943,0.0109419822692871,0.013020602054894,0.0152033902704716,0.00547119462862611,2012-01-18 15:07:40
1.00699996948242,42,-7.78157663345337,0.0336227416992188,0.0430264286696911,0.102969646453857,0.0341774560511112,0.131638363003731,0.211952269077301,0.104868322610855,3.58082818984985,0.0338229238986969,0.0419115945696831,0.0994674563407898,0.00519180437549949,0.0130703542381525,0.0556864589452744,0.040750540792942,4.4575891494751,0.0295644421130419,0.0373855903744698,0.0936299934983253,0.00709987757727504,0.0288795363157988,0.033288910984993,0.0321680121123791,2012-01-18 15:07:41
1.01200008392334,39,-7.78949737548828,0.0282013230025768,0.0338368974626064,0.0950489044189453,0.00563622731715441,0.0178432632237673,0.0247034095227718,0.0381802953779697,3.58370184898376,0.0175887830555439,0.0232699085026979,0.063114695250988,0.00159907212946564,0.0358446352183819,0.074760690331459,0.0294197332113981,4.47535276412964,0.0336043201386929,0.0412779934704304,0.0917800292372704,0.00234445696696639,0.050411619246006,0.16065388917923,0.0588802620768547,2012-01-18 15:07:42
1.01900005340576,38,-7.78364133834839,0.016407772898674,0.0188107546418905,0.042065292596817,0.000176578716491349,0.0111702540889382,0.0117192771285772,0.0120616015046835,3.57168507575989,0.032299492508173,0.0389129742980003,0.070711150765419,0.00354114314541221,0.00764430407434702,0.0397884920239449,0.0334140919148922,4.48215484619141,0.0319734252989292,0.0374405086040497,0.0887758359313011,0.0134701794013381,0.0390068218111992,0.044621430337429,0.0193367544561625,2012-01-18 15:07:43
1.00300002098083,39,-7.77340459823608,0.020619073882699,0.0250595733523369,0.0621086768805981,0.00769019313156605,0.0116570657119155,0.0218518972396851,0.0577297136187553,3.5877251625061,0.0271955654025078,0.0322996824979782,0.0573312751948833,0.0355840586125851,0.0731927454471588,0.0485081858932972,0.0572564341127872,4.47610712051392,0.0208253934979439,0.0243064612150192,0.0533078499138355,0.010232319124043,0.0123639917001128,0.0103571228682995,0.0296582151204348,2012-01-18 15:07:44
1.00399994850159,38,-7.80506086349487,0.0258612595498562,0.0374973863363266,0.118711873888969,0.0401023365557194,0.0990578979253769,0.0948736146092415,0.0524285472929478,3.55594277381897,0.0253452397882938,0.0307276882231236,0.0725175961852074,0.000900247367098927,0.00479618180543184,0.00492225075140595,0.0214383583515882,4.45583200454712,0.0313486270606518,0.0400198809802532,0.0944533571600914,0.0131609551608562,0.0387985780835152,0.0866169556975365,0.058066938072443,2012-01-18 15:07:45
1.00099992752075,34,-7.78215360641479,0.0254158060997725,0.0275522731244564,0.0533596202731133,0.00331285386346281,0.00977445021271706,0.0186725687235594,0.00234414055012167,3.59096431732178,0.0355957299470901,0.041841346770525,0.0865291506052017,0.00666623329743743,0.0350595749914646,0.0937360823154449,0.0253671538084745,4.48019695281982,0.0451987385749817,0.0529778376221657,0.126044079661369,0.0602975264191628,0.0766218528151512,0.0354468934237957,0.0467860102653503,2012-01-18 15:07:46
1.01099991798401,36,-7.73853635787964,0.0259088911116123,0.0335580296814442,0.0697365179657936,0.0374891422688961,0.0689030736684799,0.0609231665730476,0.0192499309778214,3.57425141334534,0.0272558499127626,0.0343222171068192,0.07327751070261,0.00414568604901433,0.00259919697418809,0.0223007034510374,0.0270211268216372,4.49880027770996,0.0454918816685677,0.0509764142334461,0.0907113552093506,0.127061739563942,0.254716336727142,0.180729076266289,0.00900648161768913,2012-01-18 15:07:47
1.03900003433228,40,-7.76466035842896,0.0209494195878506,0.025805376470089,0.0664399415254593,0.0250345356762409,0.0464777909219265,0.0264517590403557,0.0154048856347799,3.59609842300415,0.0316754579544067,0.0427574291825294,0.134351074695587,0.0155465696007013,0.0589824728667736,0.152390167117119,0.0752350986003876,4.48752307891846,0.0189268011599779,0.0246924702078104,0.0725690871477127,0.000412602414144203,0.00683930469676852,0.0397221744060516,0.0286813825368881,2012-01-18 15:07:48
1.09700012207031,39,-7.80307579040527,0.035280667245388,0.0386664383113384,0.0656290054321289,0.0828866586089134,0.138465106487274,0.0428649000823498,0.0133382743224502,3.60582971572876,0.0295166503638029,0.0341993905603886,0.0656292140483856,0.000348614412359893,0.0185847319662571,0.080604262650013,0.0504801087081432,4.50502395629883,0.0327661447227001,0.0400732979178429,0.101838111877441,0.0199409257620573,0.0343664661049843,0.0486500561237335,0.0133036989718676,2012-01-18 15:07:49
1.1029999256134,41,-7.76064777374268,0.0243736542761326,0.0299928393214941,0.0624275915324688,0.00335152796469629,0.0173153057694435,0.0570890493690968,0.0228473860770464,3.55813956260681,0.0302542522549629,0.0353187583386898,0.0703208595514297,0.000384781014872715,0.00699451193213463,0.0471799671649933,0.00722486525774002,4.4689621925354,0.0414900481700897,0.0532853975892067,0.124615997076035,0.0949297770857811,0.113462187349796,0.0150970183312893,0.0227574799209833,2012-01-18 15:07:50
1.0239999294281,39,-7.75831747055054,0.0160026717931032,0.0187361370772123,0.0379692725837231,6.54560572002083e-05,0.00143409636802971,0.00319212977774441,0.0104043334722519,3.59149694442749,0.0182979963719845,0.0225887838751078,0.051296453922987,0.00797802582383156,0.00923224072903395,0.00154182536061853,0.0119519885629416,4.4632830619812,0.0229143816977739,0.0289705153554678,0.0673891678452492,0.00371063104830682,0.0250450130552053,0.0177859049290419,0.0362794809043407,2012-01-18 15:07:51
1.27700018882751,38,-7.75964069366455,0.0217049848288298,0.0283406618982553,0.0758723691105843,0.0387507043778896,0.0737134665250778,0.0570695847272873,0.0232685208320618,3.60162115097046,0.0219494719058275,0.0250207465142012,0.0464524738490582,0.00516016967594624,0.0284446869045496,0.0407290048897266,0.00121538655366749,4.49557447433472,0.0330871976912022,0.0434875451028347,0.103743851184845,0.000779645750299096,0.0170214604586363,0.152741983532906,0.0760010331869125,2012-01-18 15:07:52
1.00099992752075,38,-7.75499534606934,0.0287950988858938,0.0359374806284904,0.100130885839462,0.00268120132386684,0.0369784832000732,0.0906641259789467,0.0168751198798418,3.57065272331238,0.0303979385644197,0.0339555852115154,0.069678857922554,0.00178239436354488,0.0332978218793869,0.090720422565937,0.0164651144295931,4.53041410446167,0.0327069200575352,0.0418781042098999,0.0885182172060013,0.0550390481948853,0.0921619907021523,0.153733879327774,0.0753928422927856,2012-01-18 15:07:53
1.01099991798401,37,-7.76766204833984,0.0140688288956881,0.0171194709837437,0.0384313985705376,2.16936623473885e-05,0.00139889633283019,0.00597909698262811,0.00760447653010488,3.58234262466431,0.0401005111634731,0.0524332821369171,0.140208527445793,0.0931218937039375,0.134611874818802,0.218039333820343,0.19722543656826,4.51582956314087,0.0245416536927223,0.0291644912213087,0.0734172239899635,0.0041500199586153,0.0159810464829206,0.0182658322155476,0.0188303776085377,2012-01-18 15:07:54
1.04900002479553,39,-7.77315282821655,0.0226822718977928,0.0256579760462046,0.0455128364264965,0.0129130333662033,0.0158659797161818,0.0510700233280659,0.0287472940981388,3.60054922103882,0.0295166205614805,0.0347277335822582,0.0671377331018448,0.0416080020368099,0.052838034927845,0.0201706625521183,0.121235780417919,4.48591375350952,0.0199743248522282,0.0242047980427742,0.0545651130378246,0.0213606208562851,0.0279627852141857,0.0250792633742094,0.0105312187224627,2012-01-18 15:07:55
1.00500011444092,42,-7.77737379074097,0.0203804522752762,0.0250837430357933,0.0581393241882324,0.00459657749161124,0.00516330823302269,0.0308230351656675,0.0324220880866051,3.5845639705658,0.024238670244813,0.0308810025453568,0.0639768019318581,0.0162432137876749,0.0277697369456291,0.0200849417597055,0.00946191884577274,4.47370004653931,0.0232601780444384,0.0329611599445343,0.109740890562534,0.00105947197880596,0.00223149941302836,0.0148583250120282,0.013516454026103,2012-01-18 15:07:56
1.20299983024597,31,-7.77066278457642,0.0220215544104576,0.0253627393394709,0.0452370494604111,0.0119063649326563,0.0205135028809309,0.0176017973572016,0.00570098357275128,3.56107926368713,0.028593422845006,0.0344015806913376,0.0673811659216881,0.000965942803304642,0.00374472886323929,0.00581113575026393,0.0133252758532763,4.49872159957886,0.0158987864851952,0.0199220757931471,0.0417572744190693,0.00111556414049119,0.00206664740107954,0.00166377902496606,0.00183411431498826,2012-01-18 15:07:58
1.00300002098083,34,-7.78157663345337,0.0297083295881748,0.0352982692420483,0.0833563804626465,0.00325497682206333,0.0206907466053963,0.0634228885173798,0.00891279336065054,3.57971572875977,0.0222091823816299,0.0274797789752483,0.059128426015377,3.31236549300229e-07,0.00159299361985177,0.0140064703300595,0.0042819594964385,4.49490690231323,0.0119783440604806,0.0157557986676693,0.0455720014870167,0.000790219579357654,0.00107906106859446,0.00227529392577708,0.000997183844447136,2012-01-18 15:07:59
1.00800013542175,38,-7.77151203155518,0.0226829331368208,0.0256256442517042,0.0443879179656506,0.00217379978857934,0.0153073268011212,0.0651342272758484,0.0189675074070692,3.5727174282074,0.0187440272420645,0.0228446647524834,0.0619368180632591,0.00107357953675091,0.00514398654922843,0.00416273670271039,0.0127438744530082,4.49351024627686,0.0182006768882275,0.0227394048124552,0.0567752420902252,0.0144416838884354,0.0153087936341763,0.0102724861353636,0.00119946338236332,2012-01-18 15:08:00
