"diffSecs","level","azimuth.mean","azimuth.absolute.deviation","azimuth.standard.deviation","azimuth.max.deviation","pitch.mean","pitch.absolute.deviation","pitch.standard.deviation","pitch.max.deviation","roll.mean","roll.absolute.deviation","roll.standard.deviation","roll.max.deviation","time"
1.01300001144409,19,-23.2736854553223,0.51689738035202,0.674998641014099,1.22631537914276,-29.3789482116699,0.0980603843927383,0.115069158375263,0.278947323560715,-42.8052635192871,0.0908591151237488,0.11458682268858,0.205261424183846,2012-01-23 21:38:12
1.00100016593933,32,-24.2437496185303,0.146484300494194,0.171277299523354,0.356250047683716,-29.5062503814697,0.10156275331974,0.12231507897377,0.206249058246613,-43.109375,0.0980464220046997,0.118213951587677,0.20937442779541,2012-01-23 21:38:13
1.03299999237061,42,-22.3428573608398,0.475510120391846,0.634013235569,1.75714290142059,-29.1023807525635,0.225963801145554,0.279018700122833,0.602381467819214,-43.1595230102539,0.133899852633476,0.171907320618629,0.459523797035217,2012-01-23 21:38:14
1.03600001335144,32,-22.6375007629395,0.209375336766243,0.267803847789764,0.66250079870224,-28.7406253814697,0.101952977478504,0.11688482016325,0.240625441074371,-43.1000022888184,0.16250017285347,0.209164783358574,0.499998450279236,2012-01-23 21:38:15
