"diffSecs","latitude","longitude","altitude","time"
0.456000089645386,42.9845130443573,-71.455973982811,50,2012-01-25 19:24:00
0.970000028610229,42.9845130443573,-71.455973982811,50,2012-01-25 19:24:01
1,42.9845130443573,-71.455973982811,50,2012-01-25 19:24:02
1.35399985313416,42.9845130443573,-71.455973982811,50,2012-01-25 19:24:03
0.68500018119812,42.9845130443573,-71.455973982811,50,2012-01-25 19:24:04
0.96399998664856,42.9845130443573,-71.455973982811,50,2012-01-25 19:24:05
1.05699992179871,42.9845130443573,-71.455973982811,50,2012-01-25 19:24:06
1.02600002288818,42.9845130443573,-71.455973982811,50,2012-01-25 19:24:07
0.920000076293945,42.9845130443573,-71.455973982811,50,2012-01-25 19:24:08
0.997999906539917,42.9845130443573,-71.455973982811,50,2012-01-25 19:24:09
0.996999979019165,42.9845130443573,-71.455973982811,50,2012-01-25 19:24:10
1.00399994850159,42.9845130443573,-71.455973982811,50,2012-01-25 19:24:11
1.00200009346008,42.9845130443573,-71.455973982811,50,2012-01-25 19:24:12
1.04099988937378,42.9845130443573,-71.455973982811,50,2012-01-25 19:24:13
0.966000080108643,42.9845130443573,-71.455973982811,50,2012-01-25 19:24:14
1,42.9845130443573,-71.455973982811,50,2012-01-25 19:24:15
0.993000030517578,42.9845130443573,-71.455973982811,50,2012-01-25 19:24:16
1,42.9845130443573,-71.455973982811,50,2012-01-25 19:24:17
1.0090000629425,42.9845130443573,-71.455973982811,50,2012-01-25 19:24:18
0.996999979019165,42.9845130443573,-71.455973982811,50,2012-01-25 19:24:19
1.17199993133545,42.9845130443573,-71.455973982811,50,2012-01-25 19:24:20
0.825999975204468,42.9845130443573,-71.455973982811,50,2012-01-25 19:24:21
1.00300002098083,42.9845130443573,-71.455973982811,50,2012-01-25 19:24:22
1,42.9845130443573,-71.455973982811,50,2012-01-25 19:24:23
1.02500009536743,42.9845130443573,-71.455973982811,50,2012-01-25 19:24:24
0.980000019073486,42.9845130443573,-71.455973982811,50,2012-01-25 19:24:25
0.995999813079834,42.9845130443573,-71.455973982811,50,2012-01-25 19:24:26
3.21700000762939,42.9845130443573,-71.455973982811,50,2012-01-25 19:24:29
1.0530002117157,42.9845130443573,-71.455973982811,50,2012-01-25 19:24:30
0.965999841690063,42.9845130443573,-71.455973982811,50,2012-01-25 19:24:31
1.01600003242493,42.9845130443573,-71.455973982811,50,2012-01-25 19:24:32
1.03999996185303,42.9845130443573,-71.455973982811,50,2012-01-25 19:24:33
0.965000152587891,42.9845130443573,-71.455973982811,50,2012-01-25 19:24:34
1.00099992752075,42.9845130443573,-71.455973982811,50,2012-01-25 19:24:35
1.02600002288818,42.9845130443573,-71.455973982811,50,2012-01-25 19:24:36
0.95199990272522,42.9845130443573,-71.455973982811,50,2012-01-25 19:24:37
1.01200008392334,42.9845130443573,-71.455973982811,50,2012-01-25 19:24:38
1.04299998283386,42.9845130443573,-71.455973982811,50,2012-01-25 19:24:39
0.950999975204468,42.9845130443573,-71.455973982811,50,2012-01-25 19:24:40
1.08400011062622,42.9845130443573,-71.455973982811,50,2012-01-25 19:24:41
0.929999828338623,42.9845130443573,-71.455973982811,50,2012-01-25 19:24:42
1.21800017356873,42.9845130443573,-71.455973982811,50,2012-01-25 19:24:43
0.774999856948853,42.9845130443573,-71.455973982811,50,2012-01-25 19:24:44
0.996000051498413,42.9845130443573,-71.455973982811,50,2012-01-25 19:24:45
1.0479998588562,42.9845130443573,-71.455973982811,50,2012-01-25 19:24:46
0.961000204086304,42.9845130443573,-71.455973982811,50,2012-01-25 19:24:47
1.12599992752075,42.9845130443573,-71.455973982811,50,2012-01-25 19:24:48
1.2279999256134,42.9845130443573,-71.455973982811,50,2012-01-25 19:24:50
0.664000034332275,42.9845130443573,-71.455973982811,50,2012-01-25 19:24:50
0.992000102996826,42.9845130443573,-71.455973982811,50,2012-01-25 19:24:51
0.985999822616577,42.9845130443573,-71.455973982811,50,2012-01-25 19:24:52
1.01800012588501,42.9845130443573,-71.455973982811,50,2012-01-25 19:24:53
1.03900003433228,42.9845130443573,-71.455973982811,50,2012-01-25 19:24:54
1.01600003242493,42.9845130443573,-71.455973982811,50,2012-01-25 19:24:55
0.941999912261963,42.9845130443573,-71.455973982811,50,2012-01-25 19:24:56
2.98799991607666,42.9845130443573,-71.455973982811,50,2012-01-25 19:24:59
1.05900001525879,42.9845130443573,-71.455973982811,50,2012-01-25 19:25:00
0.940000057220459,42.9845130443573,-71.455973982811,50,2012-01-25 19:25:01
1.18099999427795,42.9845130443573,-71.455973982811,50,2012-01-25 19:25:02
0.822000026702881,42.9845130443573,-71.455973982811,50,2012-01-25 19:25:03
1.47300004959106,42.9845130443573,-71.455973982811,50,2012-01-25 19:25:05
0.531999826431274,42.9845130443573,-71.455973982811,50,2012-01-25 19:25:05
0.995000123977661,42.9845130443573,-71.455973982811,50,2012-01-25 19:25:06
1.18899989128113,42.9845130443573,-71.455973982811,50,2012-01-25 19:25:07
0.819000005722046,42.9845130443573,-71.455973982811,50,2012-01-25 19:25:08
0.822000026702881,42.9845130443573,-71.455973982811,50,2012-01-25 19:25:09
0.824000120162964,42.9845130443573,-71.455973982811,50,2012-01-25 19:25:10
1.00300002098083,42.9845130443573,-71.455973982811,50,2012-01-25 19:25:11
1.1729998588562,42.9845130443573,-71.455973982811,50,2012-01-25 19:25:12
0.805999994277954,42.9845130443573,-71.455973982811,50,2012-01-25 19:25:13
1.05800008773804,42.9845130443573,-71.455973982811,50,2012-01-25 19:25:14
0.960000038146973,42.9845130443573,-71.455973982811,50,2012-01-25 19:25:15
1.25300002098083,42.9845130443573,-71.455973982811,50,2012-01-25 19:25:16
0.735999822616577,42.9845130443573,-71.455973982811,50,2012-01-25 19:25:17
1.01600003242493,42.9845130443573,-71.455973982811,50,2012-01-25 19:25:18
1.09100008010864,42.9845130443573,-71.455973982811,50,2012-01-25 19:25:19
0.888999938964844,42.9845130443573,-71.455973982811,50,2012-01-25 19:25:20
1.01900005340576,42.9845130443573,-71.455973982811,50,2012-01-25 19:25:21
1.11299991607666,42.9845130443573,-71.455973982811,50,2012-01-25 19:25:22
1.06200003623962,42.9845130443573,-71.455973982811,50,2012-01-25 19:25:23
0.86899995803833,42.9845130443573,-71.455973982811,50,2012-01-25 19:25:24
0.992000102996826,42.9845130443573,-71.455973982811,50,2012-01-25 19:25:25
0.980999946594238,42.9845130443573,-71.455973982811,50,2012-01-25 19:25:26
3.02699995040894,42.9845130443573,-71.455973982811,50,2012-01-25 19:25:29
1.23800015449524,42.9845130443573,-71.455973982811,50,2012-01-25 19:25:30
0.69599986076355,42.9845130443573,-71.455973982811,50,2012-01-25 19:25:31
1.47900009155273,42.9845130443573,-71.455973982811,50,2012-01-25 19:25:32
0.522000074386597,42.9845130443573,-71.455973982811,50,2012-01-25 19:25:33
1.03699994087219,42.9845130443573,-71.455973982811,50,2012-01-25 19:25:34
1.01999998092651,42.9845130443573,-71.455973982811,50,2012-01-25 19:25:35
1.08100008964539,42.9845130443573,-71.455973982811,50,2012-01-25 19:25:36
1.17699980735779,42.9845130443573,-71.455973982811,50,2012-01-25 19:25:37
0.696000099182129,42.9845130443573,-71.455973982811,50,2012-01-25 19:25:38
1.04299998283386,42.9845130443573,-71.455973982811,50,2012-01-25 19:25:39
0.982000112533569,42.9845130443573,-71.455973982811,50,2012-01-25 19:25:40
0.974999904632568,42.9845130443573,-71.455973982811,50,2012-01-25 19:25:41
1.0550000667572,42.9845130443573,-71.455973982811,50,2012-01-25 19:25:42
0.967999935150146,42.9845130443573,-71.455973982811,50,2012-01-25 19:25:43
1.31299996376038,42.9845130443573,-71.455973982811,50,2012-01-25 19:25:44
0.650000095367432,42.9845130443573,-71.455973982811,50,2012-01-25 19:25:45
1.06099987030029,42.9845130443573,-71.455973982811,50,2012-01-25 19:25:46
1.94400000572205,42.9845130443573,-71.455973982811,50,2012-01-25 19:25:48
0.0850000381469727,42.9845130443573,-71.455973982811,50,2012-01-25 19:25:48
0.931999921798706,42.9845130443573,-71.455973982811,50,2012-01-25 19:25:49
1.0550000667572,42.9845130443573,-71.455973982811,50,2012-01-25 19:25:50
1.04399991035461,42.9845130443573,-71.455973982811,50,2012-01-25 19:25:51
0.910000085830688,42.9845130443573,-71.455973982811,50,2012-01-25 19:25:52
1.04200005531311,42.9845130443573,-71.455973982811,50,2012-01-25 19:25:53
0.960999965667725,42.9845130443573,-71.455973982811,50,2012-01-25 19:25:54
0.993000030517578,42.9845130443573,-71.455973982811,50,2012-01-25 19:25:55
1.05099987983704,42.9845130443573,-71.455973982811,50,2012-01-25 19:25:56
2.97100019454956,42.9845130443573,-71.455973982811,50,2012-01-25 19:25:59
1.05299997329712,42.9845130443573,-71.455973982811,50,2012-01-25 19:26:00
