"diffSecs","N.samples","x.mean","x.absolute.deviation","x.standard.deviation","x.max.deviation","x.PSD.1","x.PSD.3","x.PSD.6","x.PSD.10","y.mean","y.absolute.deviation","y.standard.deviation","y.max.deviation","y.PSD.1","y.PSD.3","y.PSD.6","y.PSD.10","z.mean","z.absolute.deviation","z.standard.deviation","z.max.deviation","z.PSD.1","z.PSD.3","z.PSD.6","z.PSD.10","time"
0,44,-0.139299005270004,1.14153254032135,1.4324905872345,3.93447232246399,6.76439666748047,160.845779418945,72.7139892578125,115.682418823242,9.53005790710449,1.19519555568695,1.50802636146545,4.25809192657471,14.1599225997925,110.569244384766,179.866912841797,45.1695709228516,2.35069847106934,1.891437292099,2.52242207527161,6.31838035583496,416.9482421875,590.632995605469,387.033172607422,206.28352355957,2011-12-30 13:00:02
1.01026666164398,38,-0.548398196697235,1.79698026180267,2.17818188667297,4.66873979568481,139.744445800781,435.825744628906,366.949462890625,121.128120422363,9.70187377929688,1.03102934360504,1.32536137104034,3.97840332984924,0.339997410774231,31.2000198364258,66.0757751464844,29.2927303314209,1.9218453168869,1.03822815418243,1.23589479923248,2.92263960838318,67.479248046875,128.264450073242,70.3168563842773,19.104736328125,2011-12-30 13:00:03
1.07108330726624,40,0.43835723400116,0.561773955821991,0.688735485076904,1.37587296962738,38.8239479064941,61.2264137268066,14.8700876235962,2.90398621559143,9.34524726867676,0.323791056871414,0.403856366872787,0.833075165748596,8.23695278167725,8.03254318237305,0.440501779317856,3.39127016067505,0.469248175621033,0.152910187840462,0.175461634993553,0.410408288240433,1.21674394607544,2.51859474182129,2.52020740509033,0.364931762218475,2011-12-30 13:00:04
1.00328505039215,43,0.172642648220062,0.592832922935486,0.808641493320465,2.02404689788818,10.1542654037476,49.9240379333496,68.3082046508789,9.71851921081543,9.49055671691895,0.318384557962418,0.508860647678375,2.06167721748352,0.2332983314991,4.81317901611328,12.9847106933594,4.43993330001831,1.46050667762756,0.980877161026001,1.0935560464859,2.02085399627686,138.98323059082,203.478515625,43.2896766662598,4.66422414779663,2011-12-30 13:00:05
1.01584661006927,48,-0.0886684581637383,1.21236407756805,1.49184811115265,3.52017879486084,194.834335327148,257.252807617188,193.26611328125,36.9224700927734,9.34859752655029,0.959962069988251,1.6136382818222,6.81276035308838,11.5342779159546,61.1748085021973,228.97216796875,187.84553527832,2.46330785751343,0.841558694839478,1.05183589458466,2.78692722320557,53.089469909668,165.091003417969,57.3577575683594,93.2781524658203,2011-12-30 13:00:06
1.00029671192169,42,-0.0373586602509022,0.923982083797455,1.14702320098877,2.66927647590637,8.51797580718994,18.4901523590088,12.1345920562744,44.4926147460938,9.78890419006348,1.66710829734802,2.17567300796509,6.06844806671143,32.6562538146973,163.490264892578,784.384521484375,379.833435058594,2.04398608207703,1.36085605621338,1.64625763893127,4.47603511810303,2.94795727729797,55.7660140991211,263.056976318359,40.4653663635254,2011-12-30 13:00:07
1.00471830368042,41,0.344189494848251,0.949454069137573,1.33713793754578,3.77651691436768,107.128196716309,172.972305297852,135.124145507812,22.4254684448242,9.34788990020752,1.14439690113068,1.46373295783997,3.99896049499512,59.3603057861328,125.991432189941,220.249298095703,163.940628051758,2.25098490715027,0.741128385066986,0.904040515422821,2.40717387199402,11.8184156417847,20.6341075897217,66.2346649169922,29.0533981323242,2011-12-30 13:00:08
1.01941502094269,50,-0.130036175251007,1.00618577003479,1.41017687320709,4.38102245330811,166.769317626953,171.039688110352,183.200607299805,92.2236251831055,9.29082012176514,0.480212062597275,0.678194940090179,2.22218728065491,1.94475281238556,21.5870895385742,60.5082244873047,117.325538635254,1.96976363658905,0.53545880317688,0.837540745735168,3.40153455734253,4.59827709197998,32.3783950805664,52.7694435119629,116.696983337402,2011-12-30 13:00:09
1.00266671180725,34,-0.569074094295502,0.646373569965363,0.753861725330353,1.2843827009201,1.97157061100006,1.90610790252686,9.87967491149902,3.28187227249146,9.14066314697266,0.296846330165863,0.472748070955276,1.7349112033844,0.365414947271347,0.500559329986572,1.27300226688385,0.140087977051735,2.37263226509094,0.436650395393372,0.495199769735336,1.0879613161087,11.397777557373,17.12717628479,6.26632404327393,0.416013181209564,2011-12-30 13:00:10
1.01148664951324,42,-0.409077405929565,0.216213271021843,0.26625669002533,0.565983772277832,1.895339012146,2.74451351165771,1.44228768348694,0.329320222139359,9.1806583404541,0.059462808072567,0.0693410113453865,0.135659083724022,0.314645290374756,0.365245848894119,0.0400073193013668,0.0303345918655396,2.56303787231445,0.218181267380714,0.230372503399849,0.369150310754776,6.0259165763855,8.40277290344238,1.09390580654144,0.353557616472244,2011-12-30 13:00:11
1.00778830051422,48,-0.56306517124176,0.0780445858836174,0.0896748527884483,0.172433584928513,0.152676865458488,0.366485267877579,0.656566679477692,0.754544019699097,9.1653356552124,0.0292923133820295,0.0387508422136307,0.113797925412655,0.00727823562920094,0.0701492801308632,0.125604331493378,0.0828927308320999,2.44001698493958,0.0486502125859261,0.0580740906298161,0.11584098637104,0.0955666899681091,0.146513015031815,0.254359066486359,0.150316536426544,2011-12-30 13:00:12
1.001384973526,34,-0.539654135704041,0.0562779568135738,0.0646786540746689,0.12719801068306,2.65996877715224e-05,0.0105019817128778,0.0774225890636444,0.0657372698187828,9.17873573303223,0.0297594368457794,0.0384611785411835,0.0879715159535408,0.00555570889264345,0.0287549961358309,0.0424828827381134,0.0154849831014872,2.38763070106506,0.0299967955797911,0.0390267297625542,0.0928748399019241,0.000946895044762641,0.00554443011060357,0.0227751359343529,0.0141959600150585,2011-12-30 13:00:13
1.0109167098999,42,-0.696972608566284,0.139494583010674,0.174331977963448,0.371952176094055,0.689395606517792,0.791106283664703,2.43959784507751,1.25393128395081,9.18462753295898,0.0326891392469406,0.0407805293798447,0.113477118313313,0.00488756597042084,0.00553219765424728,0.00754367467015982,0.0912464261054993,2.23451519012451,0.114144057035446,0.138498142361641,0.305407017469406,1.12170696258545,1.08808720111847,0.663226842880249,0.426766395568848,2011-12-30 13:00:14
1.00500667095184,40,-0.849255859851837,0.0960071012377739,0.11753261089325,0.258895576000214,0.757750868797302,1.19878137111664,0.3085618019104,0.505177915096283,9.20525741577148,0.0425735227763653,0.0494431294500828,0.101253941655159,0.0102274399250746,0.0537087693810463,0.0936432704329491,0.165319427847862,2.118971824646,0.0695659294724464,0.0835693404078484,0.185590952634811,0.0619265846908092,0.439276784658432,0.820199012756348,0.310186207294464,2011-12-30 13:00:15
1.42434167861938,45,-0.357615828514099,0.11271109431982,0.135058298707008,0.319042980670929,0.141619503498077,0.537701547145844,2.18745470046997,0.690262258052826,9.24788856506348,0.0555760525166988,0.0650005266070366,0.146881863474846,0.303555846214294,0.804753005504608,0.36908170580864,0.191032841801643,2.10951924324036,0.0577744692564011,0.0750626251101494,0.195043489336967,0.337903946638107,0.485180705785751,0.104844488203526,0.252647548913956,2011-12-30 13:00:16
1.00556170940399,42,-0.300970762968063,0.153226122260094,0.194838538765907,0.408843904733658,0.745851635932922,2.97936224937439,5.78633642196655,3.77783894538879,9.23739719390869,0.0444304421544075,0.0514469332993031,0.107406593859196,0.0219598039984703,0.0763053148984909,0.144433081150055,0.0460180826485157,2.11823630332947,0.11861377954483,0.137059420347214,0.313812792301178,0.628461539745331,1.3263167142868,1.55851256847382,0.591287076473236,2011-12-30 13:00:17
1.01212334632874,48,0.16753026843071,0.211217522621155,0.245516031980515,0.469901949167252,3.95589351654053,4.54235363006592,2.37499260902405,5.56639003753662,9.32040405273438,0.0725963935256004,0.0962066650390625,0.319532871246338,0.183155342936516,0.102896921336651,1.02318596839905,0.97356128692627,2.32458448410034,0.180605798959732,0.209670498967171,0.342824101448059,9.10636234283447,11.7269926071167,3.82044315338135,0.616407513618469,2011-12-30 13:00:18
1.02247834205627,28,-0.0693470165133476,0.459611654281616,0.5637326836586,1.57957112789154,0.007173215970397,1.74615073204041,8.82497024536133,2.96270704269409,9.18672943115234,0.108123630285263,0.170106008648872,0.737600386142731,0.147786602377892,0.403813242912292,0.641383171081543,0.168595060706139,2.30806517601013,0.241163536906242,0.285828977823257,0.533061504364014,0.508099257946014,0.843465149402618,0.652171969413757,0.693804144859314,2011-12-30 13:00:19
1.00457334518433,42,0.0480992831289768,0.77505886554718,0.900679588317871,1.94265067577362,60.5642280578613,78.2049789428711,13.5381937026978,3.12747049331665,9.05924320220947,0.523021280765533,0.722151219844818,2.53221726417542,2.16932153701782,7.15993404388428,21.3635063171387,18.2510833740234,2.64732837677002,0.499160706996918,0.593821942806244,1.17633104324341,7.94286870956421,9.74629783630371,12.5282258987427,16.6174755096436,2011-12-30 13:00:20
1.01529502868652,38,0.48336461186409,1.01182353496552,1.23712372779846,2.21346402168274,2.69596433639526,29.4615421295166,113.383270263672,100.281532287598,9.23399353027344,0.911352872848511,1.07915019989014,2.20056009292603,53.6227531433105,83.9712905883789,20.2772178649902,15.8353958129883,2.41940379142761,0.820919811725616,0.977689862251282,2.08597755432129,0.026722714304924,13.8727693557739,79.9843597412109,50.9382972717285,2011-12-30 13:00:21
1.11021494865417,47,0.484281569719315,0.941260814666748,1.05994188785553,2.56558656692505,137.22151184082,192.368682861328,47.2192878723145,73.0120697021484,9.27250003814697,0.859851002693176,1.26764690876007,5.21192121505737,3.50576424598694,31.1205615997314,315.578002929688,150.990386962891,2.28390622138977,0.672685563564301,0.897546410560608,2.0779664516449,13.05442237854,115.476005554199,117.822959899902,36.4173736572266,2011-12-30 13:00:22
1.01906001567841,37,0.552087903022766,0.797970473766327,1.06602334976196,2.14474081993103,47.5135192871094,104.311172485352,104.080039978027,18.9151878356934,8.87740325927734,0.382251501083374,0.675766706466675,3.32206892967224,7.86792516708374,12.613471031189,14.1134729385376,4.24471855163574,2.44609642028809,0.459028571844101,0.607090532779694,1.61385667324066,16.1378574371338,32.4916458129883,38.6224136352539,11.1808700561523,2011-12-30 13:00:23
1.01048839092255,49,-0.233958646655083,0.739129781723022,1.07106077671051,2.97281575202942,48.3867301940918,128.150833129883,80.0321578979492,81.3276519775391,9.45261001586914,0.459405452013016,0.577994227409363,1.78581082820892,1.08468210697174,48.1774063110352,34.3614044189453,14.9529132843018,1.77260196208954,0.558525681495667,0.74905252456665,2.41483736038208,19.9839839935303,77.9142303466797,100.661575317383,11.5595464706421,2011-12-30 13:00:24
1.01062166690826,28,1.01954138278961,0.578242123126984,0.702203273773193,1.35296738147736,0.815806865692139,5.12380027770996,18.6057605743408,9.54940319061279,9.16151237487793,0.470468997955322,0.586805284023285,1.69444847106934,0.809178948402405,2.45689105987549,6.98765277862549,5.07665824890137,2.28249764442444,0.480000466108322,0.535868704319,0.992923200130463,0.210605457425117,1.51341223716736,5.71322393417358,2.08134460449219,2011-12-30 13:00:25
1.00813162326813,49,0.193731367588043,0.559244513511658,0.682622194290161,1.87547171115875,54.1083679199219,105.009712219238,67.7749710083008,31.8833255767822,9.37495708465576,0.238267570734024,0.367030054330826,1.43197059631348,1.71487593650818,4.99230241775513,16.6116943359375,27.2434940338135,1.6333075761795,0.46280363202095,0.486370056867599,0.819355607032776,49.2785339355469,77.9930419921875,8.68804264068604,0.570303320884705,2011-12-30 13:00:26
1.00642502307892,47,0.0371400788426399,0.0868703126907349,0.117347851395607,0.292112976312637,0.277017623186111,0.381560653448105,0.429980278015137,0.424799233675003,9.3553352355957,0.165137067437172,0.264524281024933,0.833773553371429,0.540961086750031,0.763904929161072,0.592493057250977,0.132428273558617,1.23772442340851,0.156773224473,0.194476991891861,0.507859230041504,1.6814136505127,4.53594589233398,1.63971436023712,0.32587468624115,2011-12-30 13:00:27
1.00604665279388,42,0.292798548936844,0.0583062060177326,0.0707999691367149,0.145698800683022,0.241801545023918,0.233824953436852,0.10200372338295,0.196295991539955,9.43306350708008,0.0279744770377874,0.0366186946630478,0.0891936644911766,0.0251285713165998,0.0845528542995453,0.142576292157173,0.0255840569734573,1.05444836616516,0.0674679726362228,0.0782555937767029,0.181189566850662,0.479330003261566,0.722162902355194,0.229568466544151,0.13328891992569,2011-12-30 13:00:28
1.01425337791443,47,0.327583819627762,0.0549509786069393,0.0732930526137352,0.190290734171867,0.540221512317657,0.668362379074097,0.135892570018768,0.23149798810482,9.44902038574219,0.0430799312889576,0.0523570440709591,0.122269935905933,0.0596463456749916,0.174949705600739,0.357902735471725,0.203401118516922,0.977326512336731,0.0687841698527336,0.079805001616478,0.160244807600975,0.00130661088041961,0.508958339691162,0.689035475254059,0.438840270042419,2011-12-30 13:00:29
1.00343501567841,40,0.370201021432877,0.0391040109097958,0.0687777623534203,0.218197971582413,0.0534558743238449,0.144404843449593,0.430422425270081,0.550053358078003,9.38864135742188,0.0645399019122124,0.0785047635436058,0.16058361530304,0.323202848434448,0.740423381328583,0.410520017147064,0.123965702950954,0.987284481525421,0.0864088460803032,0.11177834123373,0.31700000166893,0.748466551303864,1.89856958389282,1.44569361209869,0.479123204946518,2011-12-30 13:00:30
1.01752495765686,34,0.511387944221497,0.964546799659729,1.09459948539734,2.07064509391785,47.3353652954102,96.5785446166992,63.9213943481445,12.4730606079102,9.00740814208984,0.36774930357933,0.455388486385345,1.03460156917572,3.12431383132935,4.36752462387085,1.93892347812653,0.363027036190033,2.34782719612122,0.668922066688538,0.744333624839783,1.319859623909,23.8176231384277,32.3770446777344,8.7774076461792,6.26952266693115,2011-12-30 13:00:31
1.24578166007996,47,0.253303676843643,0.681564390659332,0.922336161136627,2.62004470825195,0.729552268981934,5.6829981803894,49.4564094543457,15.7841892242432,8.11197757720947,0.588567674160004,0.671486675739288,1.13944923877716,40.532154083252,94.9047622680664,40.4421157836914,6.14339828491211,4.4246768951416,0.502167940139771,0.688550770282745,1.94964551925659,16.3711738586426,24.1740322113037,82.961051940918,51.4861221313477,2011-12-30 13:00:33
1.01019668579102,43,2.35085916519165,1.49320960044861,1.85911214351654,4.39064264297485,330.221771240234,384.926940917969,310.844879150391,52.2540321350098,6.86716365814209,0.920732498168945,1.11319279670715,2.55223774909973,129.654449462891,155.514282226562,124.713333129883,29.2574672698975,6.23474884033203,1.82896935939789,2.11510014533997,5.62149047851562,234.427505493164,275.946136474609,97.8528900146484,47.7803077697754,2011-12-30 13:00:34
1.00468337535858,44,7.04139757156372,0.675595164299011,0.814181506633759,1.97135961055756,39.9749526977539,46.1982955932617,85.9305725097656,53.3579292297363,2.07767248153687,0.806495666503906,1.02999877929688,2.50916504859924,16.8926162719727,50.8843650817871,73.2462310791016,50.7112426757812,5.3600025177002,1.11220371723175,1.28329634666443,3.61441898345947,185.963577270508,296.916595458984,79.1174774169922,67.7799835205078,2011-12-30 13:00:35
1.01065838336945,39,6.95291471481323,0.938420951366425,1.12857460975647,2.30456256866455,89.9060821533203,131.795944213867,129.107513427734,45.836597442627,1.73175382614136,0.952489376068115,1.03269267082214,1.88689994812012,82.7091522216797,113.117248535156,15.9593353271484,10.0805435180664,6.12462997436523,1.48140370845795,1.62841093540192,2.51502799987793,271.547027587891,375.418609619141,97.884033203125,37.9016342163086,2011-12-30 13:00:36
1.01870834827423,46,4.49059295654297,0.0514431372284889,0.06465744972229,0.16756597161293,0.000603747204877436,0.340421795845032,0.237802118062973,0.0861930102109909,0.774938523769379,0.0245351567864418,0.0292409732937813,0.0684333592653275,0.0570250079035759,0.111176632344723,0.0731002911925316,0.0330596044659615,8.73410129547119,0.0709452778100967,0.0825148299336433,0.14091719686985,0.131449639797211,0.532774806022644,0.266323864459991,0.0541385114192963,2011-12-30 13:00:37
1.01567828655243,36,4.59141874313354,0.018675122410059,0.0264376141130924,0.0765465795993805,0.000822259637061507,0.0068922801874578,0.0133954407647252,0.00967597216367722,0.799241960048676,0.0351404882967472,0.0425896681845188,0.0833564922213554,0.0429595895111561,0.0698624104261398,0.0524391829967499,0.0638001337647438,8.68569564819336,0.0260905101895332,0.0308229327201843,0.0618362948298454,0.0218303576111794,0.0440936200320721,0.0651713013648987,0.0276176240295172,2011-12-30 13:00:38
1.02015161514282,47,4.53025484085083,0.0589375123381615,0.0775865688920021,0.244749009609222,0.231154263019562,0.645012199878693,1.13687634468079,0.278997004032135,0.833147943019867,0.051861148327589,0.0790238007903099,0.274168878793716,0.00902418978512287,0.00920215621590614,0.360890954732895,0.755907773971558,8.67220783233643,0.0734724923968315,0.0891735702753067,0.228682920336723,0.00953796319663525,0.862208485603333,1.07874774932861,0.395242631435394,2011-12-30 13:00:39
1.00959670543671,48,4.49308013916016,0.0424273088574409,0.0555589012801647,0.148733928799629,0.00465387525036931,0.119129121303558,0.37694525718689,0.0350444987416267,0.754703402519226,0.202330246567726,0.242139846086502,0.470310568809509,1.84049570560455,1.58717322349548,5.76962947845459,0.580813109874725,8.76837062835693,0.102510042488575,0.117468863725662,0.253746747970581,0.00400997279211879,2.08282732963562,2.39727187156677,0.062255859375,2011-12-30 13:00:40
1.01403164863586,29,3.70387029647827,0.159168586134911,0.237381339073181,0.70912230014801,0.923798859119415,1.41828393936157,0.735012948513031,0.310650169849396,-1.97925245761871,0.327082693576813,0.623453795909882,2.36171174049377,0.203118607401848,0.43462285399437,0.637547552585602,0.162095710635185,9.33829784393311,0.143962889909744,0.194973900914192,0.620185792446136,0.577311873435974,0.931405901908875,0.533069372177124,0.0944318249821663,2011-12-30 13:00:41
1.01812660694122,37,2.83597707748413,0.228984221816063,0.26709920167923,0.586543798446655,0.093971848487854,3.62228465080261,4.46933317184448,1.79430460929871,-1.63850557804108,0.161304697394371,0.190627321600914,0.324414551258087,2.52560830116272,4.18490886688232,2.17930555343628,0.301473408937454,9.71096897125244,0.10303807258606,0.120482705533504,0.2475516051054,0.413447707891464,0.61616438627243,0.513609051704407,0.613108336925507,2011-12-30 13:00:42
1.00753664970398,36,3.96025204658508,0.113866083323956,0.16213957965374,0.459278106689453,1.10563135147095,1.62961208820343,1.40924191474915,0.426180481910706,-1.02533972263336,0.158480301499367,0.205893516540527,0.613460421562195,2.79716563224792,4.38004159927368,2.0945348739624,0.895201086997986,8.8654842376709,0.21709306538105,0.253928065299988,0.548900127410889,4.00737237930298,6.43980026245117,2.72266864776611,0.933263063430786,2011-12-30 13:00:43
1.01464831829071,39,4.23848438262939,0.172547981142998,0.195795446634293,0.341220915317535,0.424743980169296,2.52118587493896,1.70025134086609,0.762931644916534,1.05006587505341,0.321859270334244,0.474784523248672,1.40310525894165,2.52258634567261,1.70776796340942,2.38489174842834,0.947154581546783,8.60671806335449,0.127428621053696,0.144392624497414,0.297719925642014,1.19475698471069,2.03120398521423,0.565223872661591,0.591743648052216,2011-12-30 13:00:44
1.01347494125366,38,5.32062339782715,0.244514226913452,0.311852514743805,0.701691389083862,3.66153573989868,3.10798645019531,2.56454825401306,1.25073194503784,1.74558365345001,0.21832700073719,0.285582840442657,0.657045483589172,5.79576969146729,7.87989568710327,3.8008770942688,1.37353765964508,8.0432596206665,0.102643981575966,0.126286953687668,0.262973129749298,0.0021822287235409,0.0229219384491444,0.77470862865448,0.920547842979431,2011-12-30 13:00:45
1.01918995380402,41,6.65895414352417,0.334056109189987,0.418020933866501,0.961291015148163,17.567403793335,19.4191284179688,4.21739339828491,0.784453392028809,2.53083324432373,0.114447824656963,0.142924711108208,0.363563477993011,0.329429030418396,0.295233488082886,0.839231669902802,0.307215720415115,7.32269716262817,0.292892754077911,0.385299146175385,0.846242427825928,14.257737159729,16.0913181304932,2.80038547515869,2.63097310066223,2011-12-30 13:00:46
1.02010333538055,41,6.64986515045166,0.239116609096527,0.265428185462952,0.548215687274933,6.68854284286499,8.84409999847412,1.21217858791351,2.31442308425903,2.33206915855408,0.102616876363754,0.12317667901516,0.296113014221191,0.881571352481842,1.11109387874603,0.17240397632122,0.0684283971786499,7.16124629974365,0.211265981197357,0.275096416473389,0.580984055995941,3.96504783630371,3.94814443588257,1.08708131313324,1.95711374282837,2011-12-30 13:00:47
1.01344501972198,37,6.046462059021,0.295531839132309,0.341403096914291,0.61357843875885,7.70345592498779,15.077094078064,8.50593948364258,1.91761040687561,2.09650278091431,0.0537825413048267,0.0710151195526123,0.198253244161606,0.00145751249510795,0.09707061201334,0.192052900791168,0.059899989515543,7.73797655105591,0.205158874392509,0.253510445356369,0.538835823535919,0.925580382347107,3.24281311035156,1.78684389591217,1.50412440299988,2011-12-30 13:00:48
1.03042995929718,28,4.98773193359375,0.278313726186752,0.328447908163071,0.653192758560181,2.06123161315918,3.18617415428162,1.33082234859467,0.38549730181694,1.66292762756348,0.0731496065855026,0.106734558939934,0.327822357416153,0.0407170839607716,0.0622344203293324,0.0200153216719627,0.0404904037714005,8.37102603912354,0.175744011998177,0.196313858032227,0.349187076091766,0.692298710346222,1.11793076992035,0.54841560125351,0.128430649638176,2011-12-30 13:00:49
1.00687170028687,38,4.16627788543701,0.0518312528729439,0.074431523680687,0.204391300678253,0.268870443105698,0.616349637508392,0.590804398059845,0.199862390756607,1.98094320297241,0.0691626891493797,0.092788890004158,0.323619395494461,0.0356132350862026,0.252976417541504,0.363190293312073,0.0221379175782204,8.76404857635498,0.0954858139157295,0.115577265620232,0.228649571537971,0.050412829965353,0.582665085792542,0.78772246837616,0.15778449177742,2011-12-30 13:00:50
1.01943337917328,39,4.14066934585571,0.054081629961729,0.0711846128106117,0.188589513301849,0.164855033159256,0.152846693992615,0.0652504414319992,0.0194808393716812,0.663583278656006,0.316327303647995,0.441292703151703,1.17026019096375,5.90900850296021,4.54483604431152,2.32176995277405,0.660463333129883,8.94366455078125,0.091528594493866,0.110370077192783,0.274586647748947,0.0270298235118389,0.299105793237686,0.655189335346222,0.0540101639926434,2011-12-30 13:00:51
1.00971829891205,38,4.15234184265137,0.0378954373300076,0.0438353307545185,0.0939372181892395,0.0297628100961447,0.114200755953789,0.0797415599226952,0.0476960279047489,0.490848630666733,0.0315660014748573,0.0412362851202488,0.118195950984955,0.00429617520421743,0.0116894999518991,0.0309470668435097,0.0399117209017277,8.93385791778564,0.0356135629117489,0.0449959188699722,0.0980663299560547,0.0425996407866478,0.0729671344161034,0.0299116913229227,0.0350900255143642,2011-12-30 13:00:52
1.01877164840698,32,4.03880739212036,0.182342439889908,0.228519544005394,0.596673309803009,1.16476225852966,1.6518030166626,0.706342458724976,1.22208476066589,0.317183822393417,0.399103820323944,0.562113404273987,2.00699234008789,1.75294876098633,8.03289985656738,17.0467414855957,7.90068769454956,8.98534297943115,0.121970094740391,0.249576255679131,1.25279927253723,0.324523061513901,0.509753108024597,0.485978931188583,1.36223971843719,2011-12-30 13:00:53
1.01352167129517,25,1.46079850196838,1.55224359035492,1.70563209056854,3.32406210899353,33.8645935058594,58.9906616210938,48.3660621643066,11.7325267791748,3.54373097419739,2.41930842399597,2.72028732299805,4.21332931518555,85.4737167358398,153.187713623047,149.585037231445,44.0616226196289,8.28701114654541,1.8681902885437,2.107661485672,3.50136637687683,40.0010185241699,76.4481811523438,101.464729309082,52.892650604248,2011-12-30 13:00:54
1.05726170539856,31,-0.575745224952698,0.855801105499268,1.0006355047226,1.67978417873383,27.731258392334,44.8109855651855,31.8975734710693,7.63794374465942,8.60739135742188,0.729631185531616,0.779104590415955,1.37008392810822,15.0175113677979,22.2986793518066,6.82607936859131,1.07009303569794,3.36937499046326,0.935560464859009,1.06965672969818,2.40832328796387,37.0380630493164,55.7330322265625,19.2978458404541,3.89303469657898,2011-12-30 13:00:55
1.01106834411621,39,-0.144836664199829,1.67424845695496,1.9900449514389,4.58196830749512,1.32471597194672,73.9599227905273,269.739654541016,18.4345645904541,10.1805601119995,1.32632851600647,1.77089047431946,6.02002668380737,26.9642391204834,56.9441909790039,35.3758964538574,92.4335250854492,1.63771045207977,1.35030019283295,1.92170429229736,5.874183177948,6.68310117721558,43.5186004638672,90.4091796875,78.5981292724609,2011-12-30 13:00:56
1.00807499885559,33,1.84394729137421,1.39755117893219,1.53235840797424,2.86383891105652,0.0315388776361942,41.3369750976562,93.7122116088867,46.2807006835938,9.44707298278809,0.443379402160645,0.604920864105225,1.4579222202301,0.526892483234406,1.19303131103516,3.3631443977356,4.21401214599609,1.550936460495,0.382234215736389,0.443667739629745,0.864471018314362,0.0315742678940296,0.220691666007042,0.329371511936188,3.75407838821411,2011-12-30 13:00:57
