"diffSecs","level","azimuth.mean","azimuth.absolute.deviation","azimuth.standard.deviation","azimuth.max.deviation","pitch.mean","pitch.absolute.deviation","pitch.standard.deviation","pitch.max.deviation","roll.mean","roll.absolute.deviation","roll.standard.deviation","roll.max.deviation","time"
1.00300002098083,18,96.1111145019531,1.84444427490234,1.920037150383,2.41110825538635,54.2222213745117,1.04197537899017,1.29209351539612,2.77777767181396,10.8055553436279,3.61790132522583,4.04069185256958,7.59444379806519,2012-01-21 12:45:39
1.0090000629425,41,96.2756118774414,2.12492513656616,2.5774610042572,5.67561292648315,57.9609756469727,4.08090448379517,4.44428253173828,6.66097688674927,13.0463418960571,3.43545508384705,4.22444105148315,8.4463415145874,2012-01-21 12:45:40
1.00499987602234,49,95.1530609130859,2.09637689590454,2.74769687652588,8.15306282043457,54.7755126953125,3.41174507141113,3.69243741035461,5.62449026107788,9.6408166885376,4.12494802474976,4.83718252182007,7.95918369293213,2012-01-21 12:45:41
1.00099992752075,31,95.3258056640625,3.8570237159729,4.50297117233276,8.92580604553223,54.6774215698242,3.98459935188293,4.38933515548706,7.72258138656616,6.68709659576416,4.59313201904297,5.20023202896118,7.81290340423584,2012-01-21 12:45:42
1.01800012588501,43,95.7627944946289,1.19913530349731,1.44109559059143,2.56278777122498,54.8651161193848,2.62639260292053,2.99339461326599,5.16511631011963,10.7651166915894,2.81871294975281,3.4224214553833,9.46511650085449,2012-01-21 12:45:43
1.01200008392334,49,93.6979598999023,1.47147059440613,1.76108622550964,3.19796109199524,53.3469390869141,2.69329428672791,2.95469880104065,4.74693727493286,13.7408170700073,3.222740650177,3.95029950141907,7.4408164024353,2012-01-21 12:45:44
1.00499987602234,40,92.0325012207031,1.35399961471558,1.77220034599304,3.8675000667572,51.6425018310547,1.93899965286255,2.16597366333008,3.74249958992004,15.6550006866455,2.40775012969971,2.78271007537842,6.0450005531311,2012-01-21 12:45:45
1.01900005340576,48,91.0437545776367,2.90807247161865,3.12215852737427,5.14375019073486,48.7958335876465,1.93315982818604,2.18355202674866,3.69583201408386,12.46875,2.69557309150696,3.19825196266174,6.53124952316284,2012-01-21 12:45:46
1.01600003242493,43,94.6511611938477,1.24067115783691,1.43565475940704,2.44883418083191,51.6441879272461,3.54905343055725,3.81595778465271,6.35581302642822,9.8418607711792,3.88664150238037,4.47505903244019,7.05813884735107,2012-01-21 12:45:47
1.00399994850159,40,97.2249984741211,1.26874995231628,1.86182081699371,5.62500381469727,53.4925003051758,1.98362529277802,2.36774039268494,5.29250001907349,10.1125001907349,4.38250017166138,4.98187685012817,8.01249980926514,2012-01-21 12:45:48
1,41,97.0487823486328,1.44509220123291,1.84934031963348,3.54878187179565,55.9512214660645,2.06972050666809,2.47840642929077,4.94878149032593,14.1000003814697,3.69756102561951,4.53022384643555,9,2012-01-21 12:45:49
1.00799989700317,49,98.0632629394531,1.69545996189117,2.14872431755066,4.36326217651367,58.4877548217773,1.49929189682007,1.7980295419693,3.81224346160889,15.8183679580688,3.61541032791138,4.31899833679199,8.28163242340088,2012-01-21 12:45:50
1.01600003242493,43,94.5488357543945,2.44294238090515,2.85822987556458,5.34883451461792,57.502326965332,2.00216364860535,2.25939798355103,4.50232648849487,17.7627906799316,2.9584641456604,3.51812744140625,6.53720998764038,2012-01-21 12:45:51
1.01600003242493,36,92.2583312988281,2.33148121833801,2.61240315437317,5.05833053588867,50.5499992370605,7.8222222328186,9.51208305358887,18.9500007629395,19.0083332061768,4.48148155212402,5.15813159942627,8.80833339691162,2012-01-21 12:45:52
1.00699996948242,49,81.514289855957,3.41982460021973,4.04257917404175,8.4857120513916,27.7163276672363,4.76634740829468,6.39497089385986,13.783673286438,3.22244906425476,24.4954605102539,25.6133842468262,34.0775489807129,2012-01-21 12:45:53
1.01900005340576,36,72.6444473266602,27.6351852416992,30.3612728118896,49.2444458007812,23.627779006958,20.3129634857178,22.666576385498,41.2277793884277,2.70277786254883,19.1300926208496,21.1455078125,33.7027778625488,2012-01-21 12:45:54
1.01300001144409,43,25.5674419403076,3.57934021949768,4.17749929428101,8.33255863189697,4.94651174545288,7.53228759765625,8.81213092803955,18.6465110778809,13.348837852478,2.88025951385498,3.48180460929871,6.95116376876831,2012-01-21 12:45:55
1.00200009346008,41,25.2414646148682,4.30600833892822,5.65241050720215,14.8414630889893,-2.23170733451843,6.54110670089722,7.96303796768188,16.0682945251465,16.2365856170654,4.35324239730835,6.3247389793396,18.963415145874,2012-01-21 12:45:56
