"diffSecs","N.samples","x.mean","x.absolute.deviation","x.standard.deviation","x.max.deviation","x.PSD.1","x.PSD.3","x.PSD.6","x.PSD.10","y.mean","y.absolute.deviation","y.standard.deviation","y.max.deviation","y.PSD.1","y.PSD.3","y.PSD.6","y.PSD.10","z.mean","z.absolute.deviation","z.standard.deviation","z.max.deviation","z.PSD.1","z.PSD.3","z.PSD.6","z.PSD.10","time"
1.00599980354309,46,-4.14608097076416,0.480896592140198,0.559546947479248,1.0667929649353,5.62283277511597,29.4909801483154,49.3122940063477,27.3485679626465,8.49149227142334,1.27195394039154,1.43527865409851,3.27435493469238,271.467224121094,313.201202392578,49.880916595459,44.7739028930664,-2.56657075881958,2.56486535072327,2.98953604698181,6.03812503814697,1629.63989257812,2085.66723632812,393.804077148438,172.095260620117,2012-01-13 14:24:18
1.00400018692017,35,-3.3841347694397,0.641234815120697,0.874995529651642,2.658442735672,17.7082080841064,26.9790744781494,25.6162223815918,6.16406202316284,7.81365823745728,1.04525279998779,1.38895452022552,3.95964503288269,54.5581970214844,67.6705169677734,9.01898097991943,15.903094291687,-3.83636140823364,2.39192581176758,2.53404688835144,4.26393175125122,355.392272949219,547.4853515625,149.488464355469,51.2440338134766,2012-01-13 14:24:19
1.00399994850159,42,-4.67800521850586,0.566172778606415,0.719543159008026,1.44181108474731,54.4881477355957,92.9464263916016,38.8749313354492,6.60408782958984,8.38071632385254,0.277988374233246,0.410448312759399,1.64167988300323,2.20266032218933,12.4163122177124,10.5316333770752,10.8251838684082,-1.11865854263306,0.565616846084595,0.73416006565094,1.99985599517822,47.2196769714355,79.8735809326172,31.0762062072754,17.4459323883057,2012-01-13 14:24:20
1.01600003242493,43,-4.39908075332642,0.593395113945007,0.732075095176697,1.96703159809113,5.18376541137695,19.1533031463623,16.1375408172607,16.0245552062988,8.67477989196777,0.583477079868317,0.730867326259613,1.63200843334198,0.404638975858688,6.92575645446777,12.4752855300903,6.62457895278931,-0.330005168914795,0.469202309846878,0.59204763174057,1.63428962230682,0.00699743488803506,2.46040368080139,20.0531253814697,39.1268272399902,2012-01-13 14:24:21
1.32599997520447,47,-4.35832548141479,0.519925594329834,0.5886310338974,1.16281831264496,33.6163177490234,38.1685485839844,6.05084419250488,4.23995780944824,8.4883861541748,0.423945635557175,0.51336807012558,1.17262518405914,20.7215480804443,15.5939683914185,10.5052556991577,1.50694155693054,-0.173598557710648,0.567595899105072,0.790355026721954,2.51342344284058,32.8860511779785,38.5403480529785,26.92897605896,3.90853452682495,2012-01-13 14:24:22
1.08099985122681,46,-3.98917460441589,0.194353342056274,0.26584267616272,0.737630665302277,4.87205982208252,14.3168783187866,15.141544342041,6.82906913757324,8.74625301361084,0.146784573793411,0.203618064522743,0.538086414337158,0.49987205862999,5.64961957931519,10.9734678268433,0.942056775093079,0.576886832714081,0.14454148709774,0.180331379175186,0.462618052959442,0.107251070439816,1.03352165222168,1.12335848808289,1.83381998538971,2012-01-13 14:24:23
1.15799999237061,44,-4.98668146133423,0.0777844935655594,0.10484191775322,0.308909386396408,0.0777612924575806,0.261726975440979,0.0833171233534813,0.308054029941559,8.12391757965088,0.0554563738405704,0.0774528831243515,0.241154298186302,0.0586913004517555,0.50278103351593,0.357959985733032,0.176293596625328,0.696049273014069,0.0822725221514702,0.1004553809762,0.264556646347046,0.453679651021957,1.07713401317596,0.386908173561096,0.127790808677673,2012-01-13 14:24:24
1.00400018692017,49,-4.84868764877319,0.0703906342387199,0.086745873093605,0.219948947429657,0.967055320739746,1.68033063411713,0.667530000209808,0.0554441846907139,8.28321647644043,0.078845202922821,0.0972736924886703,0.228954896330833,0.436798065900803,0.938098609447479,0.32041797041893,0.536562621593475,0.39626869559288,0.0491680353879929,0.0623987056314945,0.172516971826553,0.106945373117924,0.418225973844528,0.123744808137417,0.0567049123346806,2012-01-13 14:24:25
1.05199980735779,38,-4.809645652771,0.0773937404155731,0.0926168262958527,0.201552480459213,0.137413278222084,0.25673571228981,0.10457755625248,0.0443262793123722,8.36713695526123,0.0929049700498581,0.114721082150936,0.301941990852356,0.0579406917095184,0.0705452561378479,0.0285351611673832,0.0586311295628548,0.333168029785156,0.0658077821135521,0.0851211622357368,0.215488225221634,0.0874592959880829,0.297061115503311,0.540606558322906,0.252606719732285,2012-01-13 14:24:26
1.01900005340576,44,-4.72613668441772,0.0821812450885773,0.0920988693833351,0.175851210951805,0.171677067875862,0.912012577056885,0.843880653381348,0.371243119239807,8.40363025665283,0.0523459427058697,0.0654984638094902,0.167381390929222,0.0176174081861973,0.0160888228565454,0.0211188793182373,0.126004740595818,0.05505096539855,0.0913294926285744,0.110004208981991,0.258761823177338,1.04846858978271,1.25932002067566,0.115045957267284,0.122592583298683,2012-01-13 14:24:27
1.19600009918213,42,-4.56919813156128,0.250970184803009,0.278077989816666,0.470018535852432,10.181266784668,14.8298864364624,2.48001551628113,1.17165613174438,8.44002342224121,0.156339272856712,0.182813212275505,0.398570626974106,3.77131843566895,5.76377868652344,1.58209526538849,0.529651641845703,0.368216335773468,0.123517088592052,0.148558884859085,0.328055799007416,0.444473028182983,0.399250209331512,0.167381793260574,1.6589994430542,2012-01-13 14:24:28
1,46,-4.49059295654297,0.498081386089325,0.551200866699219,1.03865206241608,50.1974334716797,73.3411331176758,11.6183605194092,5.41766023635864,8.52453708648682,0.295385897159576,0.366471827030182,1.06636619567871,14.1368846893311,26.4454708099365,4.91683292388916,1.91214418411255,0.387362658977509,0.144115120172501,0.172842398285866,0.377556025981903,0.0155610488727689,0.428936719894409,2.5087103843689,2.63986754417419,2012-01-13 14:24:29
1.01699995994568,47,-4.95632266998291,0.473844528198242,0.652508497238159,2.28098511695862,2.70112347602844,1.67150807380676,33.6750450134277,37.8373603820801,8.10112762451172,0.320747166872025,0.408866822719574,1.03053307533264,0.21345092356205,26.1957511901855,28.7464332580566,4.20571660995483,-0.762832164764404,0.735964894294739,0.924433827400208,2.83620834350586,13.3816270828247,114.786697387695,91.8686218261719,29.6387596130371,2012-01-13 14:24:30
1.01200008392334,40,-3.98983550071716,0.515265882015228,0.654844701290131,1.94024562835693,2.10241293907166,16.2962741851807,46.1323661804199,20.3870964050293,8.83382987976074,0.314106941223145,0.473967641592026,1.70831847190857,0.0338864773511887,4.35222625732422,21.7981052398682,7.9841742515564,0.308909475803375,0.600657284259796,0.778180956840515,2.35849928855896,0.0954886972904205,4.37452363967896,40.3499450683594,62.3876037597656,2012-01-13 14:24:31
1.01899981498718,44,-4.16960906982422,0.469989746809006,0.559312343597412,1.2080010175705,6.39884328842163,8.33055400848389,21.1584320068359,14.5872869491577,8.39516067504883,0.797975599765778,1.21352982521057,4.21752786636353,3.87744355201721,19.0067844390869,39.6754150390625,107.042533874512,-0.591965019702911,1.14879631996155,1.47028422355652,3.53663468360901,19.9468269348145,115.007858276367,137.324447631836,136.894866943359,2012-01-13 14:24:32
1.01900005340576,37,-4.18134355545044,0.363483548164368,0.451545596122742,1.01618111133575,0.799637138843536,5.06163692474365,19.7573795318604,7.24141263961792,8.5521936416626,0.587940573692322,0.756669342517853,1.58947241306305,14.9813594818115,47.8506278991699,73.8569259643555,12.765814781189,0.0972713604569435,0.589430510997772,0.700195252895355,1.98995471000671,29.9891986846924,62.9127349853516,37.9089584350586,5.7064003944397,2012-01-13 14:24:33
1.00300002098083,47,-4.15113401412964,0.71915727853775,0.894311726093292,2.60564756393433,20.1173858642578,71.1370849609375,48.1044731140137,8.26795673370361,9.00396537780762,0.778822958469391,1.05762183666229,3.76429295539856,1.91357243061066,9.70135593414307,51.6036186218262,23.410083770752,-0.658506095409393,1.43309378623962,1.74832797050476,3.91139245033264,167.332626342773,157.322662353516,92.8098754882812,257.074157714844,2012-01-13 14:24:34
