"diffSecs","level","azimuth.mean","azimuth.absolute.deviation","azimuth.standard.deviation","azimuth.max.deviation","pitch.mean","pitch.absolute.deviation","pitch.standard.deviation","pitch.max.deviation","roll.mean","roll.absolute.deviation","roll.standard.deviation","roll.max.deviation","time"
6.89000034332275,37,32.8594589233398,0.291453868150711,0.342060118913651,0.759457945823669,-7.67297315597534,0.075383648276329,0.0976720452308655,0.327026903629303,-4.22972965240479,0.116435348987579,0.148624092340469,0.370270043611526,2012-01-17 13:26:06
0.217000007629395,99,32.5646476745605,1.22420179843903,1.45069229602814,2.96464681625366,-4.78989887237549,1.80514240264893,1.99719476699829,3.0101010799408,-5.90909099578857,2.05491280555725,2.4550952911377,5.69090938568115,2012-01-17 13:26:07
0.436999797821045,99,28.2797985076904,0.672543466091156,0.778106868267059,1.97979724407196,-0.484848499298096,0.869850039482117,0.966756939888,1.9848484992981,-13.9717168807983,0.85803484916687,1.04078841209412,3.22828340530396,2012-01-17 13:26:07
1.01300001144409,92,26.526086807251,0.300567150115967,0.359912216663361,0.826086699962616,0.881521761417389,0.301654070615768,0.359628230333328,0.818478286266327,-16.9304351806641,0.297542542219162,0.34820631146431,0.730434417724609,2012-01-17 13:26:08
1.01200008392334,50,26.2019996643066,0.45799994468689,0.522490203380585,0.898000001907349,0.590000033378601,0.169200003147125,0.212837964296341,0.490000009536743,-16.2100009918213,0.111600041389465,0.140356704592705,0.309999972581863,2012-01-17 13:26:09
1.01600003242493,49,26.036735534668,0.134777426719666,0.16499100625515,0.363264739513397,0.28571429848671,0.165597677230835,0.213808998465538,0.514285743236542,-16.2204093933105,0.136776328086853,0.157764405012131,0.32040798664093,2012-01-17 13:26:10
1.0090000629425,34,26.7147064208984,0.439100414514542,0.489977478981018,0.81470662355423,0.344117641448975,0.114013843238354,0.135453879833221,0.255882382392883,-16.3529415130615,0.144290253520012,0.168444782495499,0.352941632270813,2012-01-17 13:26:11
1.00599980354309,42,26.3571434020996,0.442857295274734,0.48557436466217,0.94285786151886,0.407142877578735,0.0908163264393806,0.124198108911514,0.292857110500336,-16.4928569793701,0.0945579558610916,0.12030303478241,0.307143837213516,2012-01-17 13:26:12
1.01200008392334,47,25.6787242889404,0.210774287581444,0.272057771682739,0.621277272701263,0.451063841581345,0.105115436017513,0.123550906777382,0.251063823699951,-16.7723407745361,0.243368074297905,0.276530355215073,0.472339510917664,2012-01-17 13:26:13
1.35899996757507,31,25.5612907409668,0.194797202944756,0.225298911333084,0.461290419101715,0.85161292552948,0.211030185222626,0.240793004631996,0.451612919569016,-16.8387107849121,0.209156706929207,0.272002458572388,0.538709044456482,2012-01-17 13:26:14
1.00600004196167,51,27.0843143463135,0.998846530914307,1.11643195152283,2.28431296348572,-0.266666680574417,0.379084974527359,0.468483865261078,1.26666665077209,-16.6411762237549,1.55893886089325,1.72139668464661,2.95882368087769,2012-01-17 13:26:15
1.00200009346008,31,25.0516128540039,0.14318422973156,0.184689730405807,0.451613038778305,-0.24193549156189,0.294901162385941,0.371374249458313,0.841935515403748,-19.403226852417,0.210821986198425,0.266982883214951,0.596773743629456,2012-01-17 13:26:16
1.00899982452393,50,26.2240009307861,0.857119858264923,0.987635433673859,1.77599966526031,1.53799998760223,1.01551997661591,1.07236003875732,1.56200015544891,-17.1380004882812,0.989040195941925,1.14750015735626,2.16200089454651,2012-01-17 13:26:17
1.1100001335144,29,26.2724132537842,0.247324615716934,0.275301218032837,0.572413265705109,0.265517234802246,0.0725327059626579,0.0881842225790024,0.234482750296593,-17.4241390228271,0.138644352555275,0.167445555329323,0.375862717628479,2012-01-17 13:26:19
1.01799988746643,44,26.486364364624,0.477892577648163,0.535804808139801,0.98636394739151,0.520454525947571,0.276756197214127,0.32303923368454,0.620454549789429,-17.7340908050537,0.328099131584167,0.450223833322525,1.26590871810913,2012-01-17 13:26:20
1.01900005340576,47,24.2191486358643,0.353101044893265,0.448941200971603,1.28085064888,0.806383013725281,0.126482576131821,0.152153700590134,0.306382983922958,-21.2531909942627,0.825712919235229,0.974974274635315,2.15319132804871,2012-01-17 13:26:21
1.01200008392334,34,25.1000003814697,1.21764719486237,1.36144399642944,2.60000038146973,1.52058827877045,0.227681666612625,0.272007137537003,0.520588278770447,-19.802942276001,1.14377152919769,1.24179303646088,1.7970587015152,2012-01-17 13:26:22
1.00099992752075,47,25.2191486358643,0.772747874259949,0.887654840946198,1.61914908885956,1.91489362716675,0.0926211103796959,0.120245717465878,0.285106390714645,-20.7106380462646,0.688999593257904,0.799796342849731,1.81063902378082,2012-01-17 13:26:23
1.00600004196167,30,24.1300010681152,0.268666744232178,0.342685490846634,0.829999268054962,1.82666671276093,0.096888855099678,0.120922364294529,0.226666674017906,-20.593334197998,0.483999967575073,0.574417531490326,1.10666728019714,2012-01-17 13:26:24
1.06399989128113,48,24.5062503814697,0.319531381130219,0.378267109394073,0.793750703334808,1.8125,0.135937497019768,0.166614592075348,0.312500029802322,-20.064582824707,0.0776043608784676,0.101014994084835,0.264582514762878,2012-01-17 13:26:25
1.00800013542175,35,24.41428565979,0.159999996423721,0.20444056391716,0.414286136627197,1.6800000667572,0.129142865538597,0.152690172195435,0.31999996304512,-19.9799995422363,0.0925714522600174,0.116619065403938,0.320000946521759,2012-01-17 13:26:26
1.01300001144409,45,24.4022235870361,0.238518387079239,0.301469534635544,0.797778129577637,1.78000009059906,0.0959999933838844,0.118509247899055,0.280000030994415,-19.9377784729004,0.108642011880875,0.135464385151863,0.337777584791183,2012-01-17 13:26:27
1.19899988174438,40,24.3899993896484,0.137999653816223,0.178605660796165,0.490000635385513,1.70249998569489,0.143249988555908,0.171008035540581,0.302500039339066,-20.0375003814697,0.0843752771615982,0.0992159396409988,0.237499043345451,2012-01-17 13:26:28
1.00200009346008,50,24.3740005493164,0.139039576053619,0.164693474769592,0.326000332832336,1.71800005435944,0.0917599946260452,0.110797099769115,0.218000024557114,-20.0620002746582,0.122000426054001,0.135484755039215,0.261999130249023,2012-01-17 13:26:29
1.00799989700317,46,24.3913040161133,0.259356945753098,0.333509653806686,0.708695650100708,1.74347829818726,0.0975425317883492,0.115442760288715,0.256521701812744,-20.0195655822754,0.111625991761684,0.136126041412354,0.38043424487114,2012-01-17 13:26:30
1.00100016593933,37,24.4702701568604,0.229510471224785,0.302122920751572,0.729730129241943,1.74054062366486,0.107523746788502,0.128314346075058,0.259459435939789,-20.0054054260254,0.120526134967804,0.160986796021461,0.405405402183533,2012-01-17 13:26:31
1.03699994087219,44,24.3681831359863,0.154751628637314,0.208645597100258,0.731818079948425,1.66363644599915,0.0789256393909454,0.0931541100144386,0.23636357486248,-20.0431823730469,0.138739883899689,0.175029590725899,0.356817543506622,2012-01-17 13:26:32
1.00300002098083,27,24.8777770996094,0.300411552190781,0.334811627864838,0.577776849269867,1.72962963581085,0.112208515405655,0.135577812790871,0.270370334386826,-20.1703701019287,0.153635442256927,0.182198345661163,0.47037011384964,2012-01-17 13:26:33
1.42599987983704,43,24.3953495025635,0.191238135099411,0.242998033761978,0.50465053319931,1.79767441749573,0.0911844074726105,0.106723636388779,0.20232555270195,-19.9581394195557,0.0920498445630074,0.108333140611649,0.258138865232468,2012-01-17 13:26:34
1.01100015640259,53,24.475471496582,0.272267788648605,0.32788959145546,0.824529051780701,1.66037738323212,0.0841580778360367,0.101571850478649,0.260377407073975,-20.0037746429443,0.14040595293045,0.175866842269897,0.396225601434708,2012-01-17 13:26:35
1.02099990844727,34,24.4264717102051,0.120934203267097,0.14814293384552,0.373530149459839,1.63823533058167,0.0897924080491066,0.102941200137138,0.161764740943909,-19.7823524475098,0.191003456711769,0.230690360069275,0.517647743225098,2012-01-17 13:26:36
1.0090000629425,49,24.2081642150879,0.220574855804443,0.278360217809677,0.591837346553802,1.76326537132263,0.0961266085505486,0.115518122911453,0.263265341520309,-20.9489803314209,0.329862654209137,0.384984850883484,0.848979651927948,2012-01-17 13:26:37
1.00499987602234,44,24.731819152832,0.201446190476418,0.237192556262016,0.531817674636841,1.64545452594757,0.146281018853188,0.200515881180763,0.5545454621315,-19.3977279663086,0.183677315711975,0.233051389455795,0.502271711826324,2012-01-17 13:26:38
1.00500011444092,42,24.9500007629395,0.307142823934555,0.367909133434296,0.750000298023224,1.69047617912292,0.108843550086021,0.149299204349518,0.390476167201996,-19.1547622680664,0.206235826015472,0.245145455002785,0.554761946201324,2012-01-17 13:26:39
1.00699996948242,46,25.2391319274902,0.213799566030502,0.284741073846817,0.739131033420563,1.90000009536743,0.191304355859756,0.218691766262054,0.399999916553497,-18.4130439758301,0.284121096134186,0.314579784870148,0.51304417848587,2012-01-17 13:26:40
1.02099990844727,33,25.4333343505859,0.226262658834457,0.31009915471077,0.733332872390747,2.23636364936829,0.138842955231667,0.168447777628899,0.463636368513107,-18.2333335876465,0.3151516020298,0.460346847772598,1.26666641235352,2012-01-17 13:26:41
1.00500011444092,49,24.8877563476562,0.400749683380127,0.457425266504288,0.912245690822601,3.17959189414978,0.531028687953949,0.593151211738586,1.17959189414978,-19.4183673858643,0.614327430725098,0.778715252876282,2.08163237571716,2012-01-17 13:26:42
1.00300002098083,21,23.2523803710938,0.435827553272247,0.525192975997925,0.952379941940308,1.20476198196411,0.537868499755859,0.626004874706268,1.20476198196411,-23.6904773712158,1.02902495861053,1.20194482803345,1.99047565460205,2012-01-17 13:26:44
1.00099992752075,53,22.5169811248779,1.2991099357605,1.56165552139282,3.08301877975464,0.237735867500305,1.63139915466309,1.79803109169006,2.86226439476013,-24.1264152526855,2.94624423980713,3.28117275238037,5.92641448974609,2012-01-17 13:26:45
1.06299996376038,22,25.2227268218994,0.147933885455132,0.192900836467743,0.522726953029633,3.122727394104,0.192561969161034,0.241080552339554,0.622727334499359,-17.9409103393555,0.542975127696991,0.670589327812195,1.65909075737,2012-01-17 13:26:46
1.0090000629425,55,21.3709087371826,0.379173427820206,0.482294768095016,1.3290913105011,-0.872727274894714,0.600991725921631,0.699728429317474,1.47272729873657,-26.0127277374268,0.726545512676239,0.862776756286621,2.11272811889648,2012-01-17 13:26:47
1.00099992752075,32,24.2156257629395,0.889648497104645,1.00439953804016,1.71562552452087,2.515625,0.69921875,0.815133929252625,1.71562504768372,-20.28125,1.72499990463257,1.94236278533936,3.21874952316284,2012-01-17 13:26:48
1.01399993896484,50,23.3579998016357,1.18703985214233,1.36661469936371,2.65799975395203,1.84399998188019,0.98224002122879,1.07743394374847,1.84399998188019,-22.1219997406006,2.08335995674133,2.3772497177124,4.02199983596802,2012-01-17 13:26:49
1.01500010490417,46,21.75,0.513043522834778,0.60352236032486,1.05000078678131,0.0673913061618805,0.510964095592499,0.589050233364105,1.23260879516602,-24.9695663452148,0.81965970993042,0.957094609737396,2.16956448554993,2012-01-17 13:26:50
1.00300002098083,28,24.1928577423096,0.958163142204285,0.990644931793213,1.59285712242126,2.27500009536743,0.449999958276749,0.496145844459534,0.875000059604645,-20.0214290618896,1.47755110263824,1.5834766626358,2.57857155799866,2012-01-17 13:26:51
1.0789999961853,46,24.1543483734131,0.716824233531952,0.806146681308746,1.6543482542038,2.41739130020142,0.492627590894699,0.567720234394073,1.31739127635956,-20.8130435943604,1.09621918201447,1.27817952632904,2.38695693016052,2012-01-17 13:26:52
1.01900005340576,37,21.8108100891113,0.381008118391037,0.417705416679382,0.789189398288727,-0.135135143995285,0.452008783817291,0.540378332138062,1.13513517379761,-25.2243251800537,0.604821026325226,0.716751337051392,2.0243239402771,2012-01-17 13:26:53
1.0239999294281,49,23.0204086303711,0.326114237308502,0.402532607316971,0.820407807826996,1.79183673858643,0.412744700908661,0.492323398590088,0.991836726665497,-22.6816329956055,0.446147561073303,0.514949381351471,1.01836764812469,2012-01-17 13:26:54
1.00799989700317,30,23.1700000762939,0.23733352124691,0.280654162168503,0.6300008893013,2.21666669845581,0.0644444078207016,0.0933928042650223,0.283333301544189,-22.2433338165283,0.295555502176285,0.336336344480515,0.643333256244659,2012-01-17 13:26:55
1.0310001373291,45,23.6088886260986,0.238913729786873,0.308272778987885,0.791110455989838,2.52666664123535,0.0808889344334602,0.101980410516262,0.273333221673965,-21.0733337402344,0.210074260830879,0.268659353256226,0.726667761802673,2012-01-17 13:26:56
1.0019998550415,36,23.661111831665,0.137654557824135,0.184508129954338,0.538889229297638,2.52500009536743,0.100000038743019,0.132024839520454,0.325000017881393,-21.0222225189209,0.103703878819942,0.131468489766121,0.277778565883636,2012-01-17 13:26:57
1.01800012588501,47,23.7617015838623,0.289542734622955,0.341805756092072,0.738297760486603,2.63191485404968,0.127569019794464,0.155886456370354,0.36808505654335,-21.021276473999,0.113807402551174,0.142822995781898,0.378722816705704,2012-01-17 13:26:58
1.08299994468689,33,23.475757598877,0.132414937019348,0.155758649110794,0.324243128299713,2.70000004768372,0.151515126228333,0.184226453304291,0.400000065565109,-21.1242427825928,0.0960517227649689,0.123166359961033,0.375757157802582,2012-01-17 13:26:59
1.02500009536743,51,23.705883026123,0.214994162321091,0.257751762866974,0.505881905555725,2.60196089744568,0.10057669878006,0.127556532621384,0.30196088552475,-21.1313724517822,0.0891198217868805,0.111126728355885,0.268626630306244,2012-01-17 13:27:00
1.03200006484985,45,23.5088901519775,0.250271528959274,0.276342749595642,0.491110652685165,2.51555562019348,0.0867160856723785,0.111466117203236,0.284444332122803,-21.2444438934326,0.277531057596207,0.351223796606064,0.955556035041809,2012-01-17 13:27:01
1.01799988746643,35,21.9514293670654,0.521469295024872,0.669486343860626,1.25142812728882,0.522857129573822,0.834448993206024,0.976022779941559,1.87714290618896,-24.8771438598633,1.18171417713165,1.42007756233215,2.67714238166809,2012-01-17 13:27:02
1.06299996376038,48,21.8687496185303,0.801302134990692,0.938117980957031,2.13124942779541,-0.0145833315327764,0.749045133590698,0.855129063129425,1.71458339691162,-25.4770832061768,0.995312571525574,1.16193807125092,2.37708353996277,2012-01-17 13:27:03
1.00600004196167,40,24.685001373291,0.36000007390976,0.446961998939514,1.01500022411346,2.9225001335144,0.447000026702881,0.503233313560486,0.92250007390976,-20.2924995422363,1.0752500295639,1.20257806777954,2.50750064849854,2012-01-17 13:27:04
1.02799987792969,42,24.33571434021,0.313945263624191,0.380989402532578,0.764285862445831,2.71190476417542,0.137981817126274,0.162132173776627,0.388095319271088,-20.0547618865967,0.0963721051812172,0.127620056271553,0.354761302471161,2012-01-17 13:27:05
1.00200009346008,39,24.3230781555176,0.255226790904999,0.287751317024231,0.576922237873077,2.7615385055542,0.115581832826138,0.140722274780273,0.338461637496948,-20.0948715209961,0.129125878214836,0.161640405654907,0.394871383905411,2012-01-17 13:27:06
1.11800003051758,46,24.052173614502,0.187334775924683,0.237504377961159,0.552174150943756,2.68260884284973,0.0886578112840652,0.114785872399807,0.282608658075333,-19.947826385498,0.0954631268978119,0.113710299134254,0.3521748483181,2012-01-17 13:27:07
1.01399993896484,40,24.3975009918213,0.317124843597412,0.373823136091232,0.702499985694885,2.66750001907349,0.108999967575073,0.129204273223877,0.267499953508377,-20.0625,0.0956253185868263,0.113330587744713,0.262499153614044,2012-01-17 13:27:08
1.00500011444092,46,23.9782619476318,0.206238076090813,0.23582698404789,0.521738469600677,2.85652184486389,0.154064297676086,0.187259629368782,0.356521785259247,-19.8543491363525,0.0934776663780212,0.109755307435989,0.254347831010818,2012-01-17 13:27:09
1.09899997711182,32,24.140625,0.111914426088333,0.131955340504646,0.259374141693115,2.59062504768372,0.0583984740078449,0.0947344228625298,0.290625154972076,-19.9468746185303,0.077734462916851,0.0900845527648926,0.15312534570694,2012-01-17 13:27:10
1.01199984550476,39,24.7538471221924,0.373175531625748,0.410031974315643,0.646152853965759,2.60000014305115,0.102564126253128,0.132045045495033,0.300000101327896,-19.9333343505859,0.169230729341507,0.204228833317757,0.533334076404572,2012-01-17 13:27:11
1.19600009918213,35,23.8742866516113,0.254856824874878,0.34338042140007,1.0257134437561,2.708571434021,0.15265303850174,0.177878633141518,0.308571368455887,-20.1828575134277,0.281632781028748,0.351718813180923,0.717142105102539,2012-01-17 13:27:12
1.00799989700317,50,24.5100002288818,0.4548000395298,0.570350825786591,1.20999920368195,3.66799998283386,0.207999959588051,0.264151453971863,0.56799989938736,-18.2779998779297,0.930480062961578,1.09092438220978,2.52200055122375,2012-01-17 13:27:13
1.01700019836426,47,24.2148933410645,0.277772635221481,0.338317841291428,0.914892733097076,3.74042558670044,0.339157998561859,0.392839998006821,0.740425646305084,-18.527660369873,0.962517142295837,1.12905585765839,2.57234048843384,2012-01-17 13:27:15
1.1029999256134,23,22.4391307830811,0.27712669968605,0.352308034896851,0.760870039463043,2.68695664405823,0.181096374988556,0.243711054325104,0.586956441402435,-22.4173908233643,0.57731556892395,0.679930984973907,1.41739177703857,2012-01-17 13:27:16
1.01799988746643,48,22.4604167938232,0.297829777002335,0.353988856077194,0.860416829586029,2.10833334922791,0.0822916328907013,0.111492395401001,0.208333417773247,-23.125,0.385416686534882,0.450693964958191,0.824999213218689,2012-01-17 13:27:17
1.02400016784668,47,22.1425533294678,0.279311984777451,0.319404125213623,0.557447254657745,1.95957446098328,0.0983250588178635,0.117888495326042,0.259574443101883,-23.4702129364014,0.132548749446869,0.158335655927658,0.37021267414093,2012-01-17 13:27:18
1.16199994087219,34,22.0647068023682,0.169204324483871,0.20987731218338,0.464706033468246,2.02058815956116,0.11020765453577,0.156767755746841,0.479411721229553,-23.3823528289795,0.128719344735146,0.154292464256287,0.282352775335312,2012-01-17 13:27:19
1.01600003242493,49,22.1755104064941,0.246480733156204,0.302054584026337,0.724489033222198,2.13265323638916,0.154185742139816,0.199374288320541,0.467347025871277,-23.2428569793701,0.118367306888103,0.141421258449554,0.357142746448517,2012-01-17 13:27:20
1.09800004959106,47,22.2468090057373,0.185966402292252,0.218165427446365,0.446807712316513,1.9978723526001,0.0921684131026268,0.12460895627737,0.297872304916382,-23.2234058380127,0.087188832461834,0.118882693350315,0.376595467329025,2012-01-17 13:27:21
1,38,22.560525894165,0.264820009469986,0.315009951591492,0.639474153518677,1.9052631855011,0.0806094259023666,0.102462746202946,0.205263137817383,-23.271053314209,0.125207751989365,0.15879125893116,0.371053546667099,2012-01-17 13:27:22
1.0019998550415,46,22.2108707427979,0.207466974854469,0.255571186542511,0.489130675792694,1.92826092243195,0.156805291771889,0.187272220849991,0.371739059686661,-23.1478271484375,0.202835649251938,0.26518177986145,0.747827053070068,2012-01-17 13:27:23
1.0090000629425,35,23.9657154083252,0.703836500644684,0.789192080497742,1.26571393013,2.61714291572571,0.270040780305862,0.322920322418213,0.582857131958008,-21.502857208252,0.443755149841309,0.495975732803345,0.897142112255096,2012-01-17 13:27:24
1.0220000743866,47,24.1468086242676,0.563875079154968,0.647368252277374,1.25319063663483,2.48723411560059,0.116794921457767,0.153840243816376,0.412766009569168,-20.6425533294678,0.135808333754539,0.163401141762733,0.35744646191597,2012-01-17 13:27:25
1.12899994850159,39,23.7230777740479,0.209861814975739,0.25466051697731,0.623076915740967,2.94615387916565,0.314398407936096,0.335770159959793,0.553846120834351,-20.3307704925537,0.143983840942383,0.178532168269157,0.369231045246124,2012-01-17 13:27:26
1.00999999046326,43,23.6767444610596,0.335424512624741,0.368426650762558,0.676744401454926,2.64883732795715,0.475824773311615,0.539324343204498,1.04883718490601,-21.2604656219482,1.20605742931366,1.34668242931366,2.53953576087952,2012-01-17 13:27:27
1.00200009346008,47,20.7574481964111,0.566319584846497,0.707330763339996,2.14255237579346,0.0851063802838326,0.747125387191772,0.88701719045639,1.51489365100861,-26.304256439209,1.02136707305908,1.19127261638641,2.20425534248352,2012-01-17 13:27:28
1.01199984550476,45,19.682222366333,0.343407243490219,0.382557779550552,0.817777395248413,-1.51111114025116,0.226666688919067,0.29531317949295,0.711111128330231,-27.8622226715088,0.31595054268837,0.405127704143524,1.06222140789032,2012-01-17 13:27:29
1.01399993896484,40,22.8700008392334,1.04250001907349,1.2046160697937,2.37000036239624,0.960000038146973,0.754000008106232,0.883402526378632,1.75999999046326,-23.0575008392334,1.42550003528595,1.75326669216156,3.74250078201294,2012-01-17 13:27:30
1.02100014686584,46,21.2739124298096,0.885822296142578,1.01733565330505,1.92608749866486,0.450000017881393,0.708695650100708,0.80911922454834,1.45000004768372,-25.052173614502,1.3846880197525,1.61820328235626,2.75217294692993,2012-01-17 13:27:31
1.18499994277954,31,19.7838706970215,0.239333957433701,0.285224109888077,0.616128325462341,-1.4193549156189,0.173569202423096,0.208557799458504,0.419354856014252,-27.8806457519531,0.366909354925156,0.447515964508057,1.08064448833466,2012-01-17 13:27:32
1.17799997329712,43,22.765115737915,0.632666289806366,0.836905717849731,2.36511707305908,0.995348811149597,0.443699300289154,0.616801023483276,1.89534890651703,-22.7883720397949,0.896484613418579,1.25590860843658,3.91162848472595,2012-01-17 13:27:34
1.01699995994568,41,22.8048782348633,0.262581586837769,0.32230207324028,0.704877972602844,1.1951220035553,0.175490781664848,0.21063344180584,0.404878050088882,-22.6487808227539,0.145151972770691,0.17267207801342,0.351219117641449,2012-01-17 13:27:35
1.00200009346008,48,22.6812496185303,0.15937528014183,0.198595479130745,0.418749898672104,1.01666665077209,0.0868055671453476,0.112422816455364,0.316666692495346,-22.7250003814697,0.0947918742895126,0.112731426954269,0.225000694394112,2012-01-17 13:27:36
1.00600004196167,46,22.6347827911377,0.140264868736267,0.182038545608521,0.534782886505127,0.976086974143982,0.0999054759740829,0.12011730670929,0.276086986064911,-22.7369575500488,0.0765596032142639,0.0893422365188599,0.163042396306992,2012-01-17 13:27:37
1.00499987602234,26,22.7461547851562,0.146153748035431,0.164622455835342,0.253845870494843,0.984615385532379,0.082840234041214,0.109868131577969,0.284615397453308,-22.6923084259033,0.0792901888489723,0.0997039303183556,0.207691267132759,2012-01-17 13:27:38
1.00200009346008,49,23.2142868041992,0.265889436006546,0.314285904169083,0.785713911056519,0.995918393135071,0.156518116593361,0.199958354234695,0.495918393135071,-22.1795921325684,0.633985877037048,0.737059772014618,1.87959110736847,2012-01-17 13:27:39
1.01300001144409,41,25.8560981750488,1.12516355514526,1.30777204036713,2.3439028263092,1.19268298149109,0.340273648500443,0.407485008239746,0.892682909965515,-16.5853672027588,2.14253425598145,2.41120982170105,4.28536605834961,2012-01-17 13:27:40
1.00399994850159,45,30.3844451904297,0.701431930065155,0.879129588603973,2.18444395065308,-1.40666663646698,1.06874072551727,1.1987771987915,1.8933333158493,-7.01999998092651,2.07911109924316,2.3988516330719,4.88000059127808,2012-01-17 13:27:41
1.01999998092651,49,31.326530456543,0.217242628335953,0.26861360669136,0.573468506336212,-2.98163270950317,0.27180340886116,0.292542308568954,0.518367290496826,-3.77755093574524,0.218408957123756,0.267463743686676,0.577551007270813,2012-01-17 13:27:42
1.50099992752075,44,30.9295463562012,0.127169534564018,0.16594024002552,0.429545670747757,-2.58181834220886,0.0904958993196487,0.113363310694695,0.318181842565536,-4.45909118652344,0.170247882604599,0.200361222028732,0.459091007709503,2012-01-17 13:27:43
1.00100016593933,52,31.2538471221924,0.617159783840179,0.693780481815338,1.14615488052368,-2.0057692527771,0.15710061788559,0.20325568318367,0.594230890274048,-4.68653869628906,0.141420215368271,0.172123476862907,0.413461357355118,2012-01-17 13:27:44
1.30399990081787,48,31.533332824707,0.352778047323227,0.437480360269547,0.966666281223297,-2.4375,0.162499994039536,0.208791166543961,0.537500083446503,-4.53125,0.104687497019768,0.130952045321465,0.33124977350235,2012-01-17 13:27:45
1.00200009346008,50,31.1119995117188,0.239360004663467,0.295052468776703,0.588000476360321,-2.60000014305115,0.0600000396370888,0.0871779769659042,0.199999988079071,-4.66599988937378,0.118080124258995,0.136543110013008,0.333999902009964,2012-01-17 13:27:46
1.15799999237061,44,30.8454551696777,0.129751607775688,0.148407250642776,0.254545509815216,-2.55909109115601,0.111983500421047,0.131974831223488,0.259091019630432,-4.79545450210571,0.105991750955582,0.142947122454643,0.304545253515244,2012-01-17 13:27:48
1.01199984550476,42,31.1857147216797,0.427891135215759,0.490175604820251,0.985713839530945,-2.41904759407043,0.142630413174629,0.180261865258217,0.519047677516937,-5.04285717010498,0.108163230121136,0.132992744445801,0.342856884002686,2012-01-17 13:27:49
1.01800012588501,34,30.6205883026123,0.237197324633598,0.290819734334946,0.579412162303925,-1.88529419898987,0.0937715992331505,0.111493468284607,0.214706003665924,-5.15882349014282,0.251903146505356,0.295174568891525,0.558823704719543,2012-01-17 13:27:50
1.01200008392334,48,30.6625003814697,0.210416853427887,0.260308474302292,0.637500822544098,-1.98541665077209,0.112847246229649,0.135384634137154,0.285416662693024,-5.40416669845581,0.0932291075587273,0.124093867838383,0.295833498239517,2012-01-17 13:27:51
1.01099991798401,36,30.6166667938232,0.155555784702301,0.196497157216072,0.583333492279053,-1.93611109256744,0.0774691477417946,0.0947299748659134,0.26388892531395,-5.46111106872559,0.0932098254561424,0.116136334836483,0.261110901832581,2012-01-17 13:27:52
1.01099991798401,48,30.8625011444092,0.395312488079071,0.447038918733597,0.8375004529953,-2.00833344459534,0.147916689515114,0.174204543232918,0.391666740179062,-5.48958349227905,0.107552044093609,0.127866432070732,0.210416868329048,2012-01-17 13:27:53
1.30599999427795,47,30.5021286010742,0.290991544723511,0.327784061431885,0.602128505706787,-1.95744681358337,0.17292894423008,0.206020757555962,0.457446843385696,-5.46382999420166,0.0794929191470146,0.0932293087244034,0.236170455813408,2012-01-17 13:27:54
1.00600004196167,48,30.7083339691162,0.19444465637207,0.254814982414246,0.691665887832642,-2.12291669845581,0.111371502280235,0.158429250121117,0.522916734218597,-5.55625009536743,0.105208322405815,0.133707165718079,0.356249779462814,2012-01-17 13:27:55
1.01699995994568,47,30.4829788208008,0.0940696820616722,0.134194403886795,0.417020708322525,-2.05957460403442,0.112811267375946,0.133144587278366,0.259574443101883,-5.42127656936646,0.0876414105296135,0.114735841751099,0.27872359752655,2012-01-17 13:27:56
1.01600003242493,34,30.7029418945312,0.209688574075699,0.259507864713669,0.502940714359283,-2.11176466941833,0.0910034328699112,0.118233822286129,0.311764687299728,-5.61176490783691,0.119723297655582,0.143002957105637,0.288235306739807,2012-01-17 13:27:57
1.01300001144409,49,30.4306125640869,0.185672491788864,0.26741686463356,0.969386994838715,-2.17346954345703,0.103790059685707,0.132133975625038,0.326530545949936,-5.54897975921631,0.103040397167206,0.129555687308311,0.348979353904724,2012-01-17 13:27:58
1.00600004196167,37,30.9486484527588,0.325785338878632,0.350768893957138,0.651351273059845,-1.95405411720276,0.144485026597977,0.185406178236008,0.454054057598114,-5.65945959091187,0.112929277122021,0.138445988297462,0.359459340572357,2012-01-17 13:27:59
1.42199993133545,38,30.4421062469482,0.165927931666374,0.227840587496758,0.757894992828369,-2.13421058654785,0.0800553560256958,0.0953561365604401,0.165789365768433,-5.53947353363037,0.112049862742424,0.13286218047142,0.260526448488235,2012-01-17 13:28:00
