"diffSecs","N.samples","x.mean","x.absolute.deviation","x.standard.deviation","x.max.deviation","x.PSD.1","x.PSD.3","x.PSD.6","x.PSD.10","y.mean","y.absolute.deviation","y.standard.deviation","y.max.deviation","y.PSD.1","y.PSD.3","y.PSD.6","y.PSD.10","z.mean","z.absolute.deviation","z.standard.deviation","z.max.deviation","z.PSD.1","z.PSD.3","z.PSD.6","z.PSD.10","time"
6.42000007629395,13,-8.41108798980713,0.0147389629855752,0.0181986037641764,0.0362091064453125,1.41021646413719e-05,4.17097835452296e-05,0.000137472568894736,0.000167924677953124,2.35736775398254,0.0291298013180494,0.0361934565007687,0.0724184140563011,6.76985973768751e-06,2.85847108898452e-05,0.000258409883826971,0.000904605607502162,4.28173398971558,0.0185687728226185,0.0209053382277489,0.0331916809082031,5.68361647310667e-05,0.000128185609355569,0.00039486528839916,0.000501191942021251,2012-01-17 13:26:06
0.21399998664856,99,-8.54238414764404,0.0816630721092224,0.0952289029955864,0.214954271912575,2.5738582611084,6.17369651794434,0.376857489347458,0.501317739486694,2.3853931427002,0.271416366100311,0.320250749588013,0.684088110923767,41.1692886352539,54.449275970459,2.08366870880127,0.196388676762581,3.87570691108704,0.278470426797867,0.332320839166641,0.688545644283295,4.29697513580322,27.625452041626,0.758533179759979,0.259065002202988,2012-01-17 13:26:06
0.442000150680542,99,-8.64144134521484,0.0590924173593521,0.0714327171444893,0.158689618110657,0.041701827198267,0.843783378601074,1.56318914890289,0.218809008598328,2.33517122268677,0.254906862974167,0.281007379293442,0.489143759012222,1.60585272312164,26.6389484405518,0.175026714801788,0.303169369697571,3.78606033325195,0.283367216587067,0.316909283399582,0.491025805473328,2.60870695114136,34.9854011535645,1.29133605957031,0.235796913504601,2012-01-17 13:26:07
1.01599979400635,90,-8.59520149230957,0.0243350565433502,0.0306719057261944,0.093490794301033,0.158996298909187,0.157931059598923,0.0743235573172569,0.0837931632995605,1.97974467277527,0.0751068368554115,0.0856775268912315,0.155707821249962,0.0501617453992367,3.13021850585938,0.235226467251778,0.0835865661501884,4.1736011505127,0.0472946129739285,0.0578119307756424,0.13326171040535,0.40174600481987,1.01239049434662,0.25885209441185,0.0843203961849213,2012-01-17 13:26:08
1.01200008392334,49,-8.58882331848145,0.0255274698138237,0.0295645389705896,0.066845215857029,0.00926359184086323,0.0116214854642749,0.160809233784676,0.0199960619211197,2.02297186851501,0.0402559190988541,0.0527918450534344,0.114877812564373,0.182925045490265,0.39264327287674,0.181488260626793,0.0356171019375324,4.07596397399902,0.0431149937212467,0.053372148424387,0.131088808178902,0.144847854971886,0.208598539233208,0.0587477833032608,0.0284601356834173,2012-01-17 13:26:09
1.0220000743866,49,-8.59803009033203,0.0204628389328718,0.0254904106259346,0.0612423568964005,0.0160769876092672,0.106776222586632,0.117176607251167,0.0328704938292503,2.02637410163879,0.0264506489038467,0.0323552303016186,0.091862253844738,0.166711062192917,0.197279527783394,0.0179683119058609,0.0415676534175873,4.06755828857422,0.0261321160942316,0.0299991313368082,0.0566386505961418,0.0261190254241228,0.135554477572441,0.0843311101198196,0.00902219396084547,2012-01-17 13:26:10
1.00399994850159,34,-8.60937309265137,0.0303871370851994,0.036721657961607,0.079319141805172,0.045342218130827,0.0808834359049797,0.0422549545764923,0.00173929613083601,2.03026485443115,0.0216662958264351,0.0280905999243259,0.0683580935001373,0.00319450558163226,0.0119228875264525,0.0137649886310101,0.0106384232640266,4.08562326431274,0.027044627815485,0.0356781035661697,0.104123570024967,0.0103875370696187,0.0180279146879911,0.0153233762830496,0.0160883851349354,2012-01-17 13:26:11
1.00500011444092,43,-8.61023807525635,0.0205256137996912,0.0261606890708208,0.0686472952365875,0.0300631392747164,0.0313074141740799,0.00228814384900033,0.0200286563485861,2.04137969017029,0.028852466493845,0.0386482141911983,0.0964699685573578,0.0119545394554734,0.0541904829442501,0.0529502332210541,0.0475626289844513,4.11012649536133,0.0220954213291407,0.0255733840167522,0.0501734726130962,0.000777882640250027,0.0190191492438316,0.0800665840506554,0.029653899371624,2012-01-17 13:26:12
1.02199983596802,48,-8.60043144226074,0.0175702944397926,0.0234302822500467,0.0784539580345154,0.00583266234025359,0.00262739649042487,0.0123755065724254,0.00917087774723768,1.98523366451263,0.0438745431602001,0.050160575658083,0.0937761068344116,0.359505146741867,0.395303279161453,0.130283832550049,0.0276946257799864,4.15638494491577,0.0420187078416348,0.0560257621109486,0.158540576696396,0.24191027879715,0.626254498958588,0.442992985248566,0.24071578681469,2012-01-17 13:26:13
1.32599997520447,29,-8.58825778961182,0.0215489398688078,0.0263460967689753,0.0662793144583702,0.00399246159940958,0.0110075073316693,0.0208517238497734,0.0117403892800212,1.98195779323578,0.046362966299057,0.0533629655838013,0.0970520302653313,0.0227464959025383,0.0297211166471243,0.0112757682800293,0.0292716342955828,4.17154598236084,0.0555048435926437,0.0641470402479172,0.123766474425793,0.0342799611389637,0.0450359843671322,0.0158511735498905,0.0665479302406311,2012-01-17 13:26:14
1.0090000629425,52,-8.71094512939453,0.066456101834774,0.0815310180187225,0.188967049121857,0.0109664928168058,0.559359610080719,0.985877454280853,0.0921680256724358,2.14180994033813,0.171804964542389,0.203293696045876,0.417725473642349,11.1072854995728,14.7995901107788,2.69860768318176,0.841146409511566,3.65637159347534,0.18319283425808,0.203076377511024,0.472227990627289,11.3177814483643,13.5916090011597,0.871600389480591,0.286591142416,2012-01-17 13:26:15
1.0090000629425,31,-8.73645973205566,0.0730243176221848,0.091749481856823,0.217011451721191,0.0993135273456573,0.253584057092667,0.295121818780899,0.041502870619297,2.04610991477966,0.195214569568634,0.2236058562994,0.405552536249161,1.24379396438599,1.73065757751465,0.424077212810516,0.119968011975288,3.8385124206543,0.201480239629745,0.225047260522842,0.347345232963562,1.65388178825378,2.44721984863281,0.823147118091583,0.43441241979599,2012-01-17 13:26:16
1,50,-8.97249603271484,0.246586173772812,0.311897128820419,0.715296924114227,8.38144493103027,14.5413875579834,4.44622468948364,6.52628707885742,1.60848665237427,0.417504400014877,0.538085758686066,1.2162207365036,15.9285402297974,24.6300106048584,16.3441162109375,3.2762975692749,3.47253465652466,0.407368212938309,0.440598040819168,0.71490478515625,44.2149085998535,65.4370422363281,10.6116237640381,3.17159533500671,2012-01-17 13:26:17
1.11800003051758,30,-9.04500007629395,0.06080112606287,0.0700028464198112,0.130755111575127,0.0585830360651016,0.117697864770889,0.096430741250515,0.0500382818281651,1.87307012081146,0.054263461381197,0.0657850056886673,0.186326399445534,0.0372096411883831,0.0710849985480309,0.09938845038414,0.0661312118172646,3.10805416107178,0.049033235758543,0.0605546720325947,0.147753447294235,0.0451984144747257,0.0727423056960106,0.0383823662996292,0.0629840493202209,2012-01-17 13:26:18
1.01199984550476,48,-8.9888162612915,0.0201410539448261,0.0250613037496805,0.064764641225338,0.00024702338851057,0.0362913943827152,0.0328990183770657,0.0311811044812202,1.75804626941681,0.161120191216469,0.188780561089516,0.301350235939026,7.02420520782471,11.0593852996826,2.13934683799744,0.398068070411682,3.35387420654297,0.116862580180168,0.135412275791168,0.225553020834923,3.72865009307861,4.45219326019287,1.41745841503143,0.34360659122467,2012-01-17 13:26:19
1.01500010490417,47,-8.96870231628418,0.0221437234431505,0.0268229134380817,0.0642647445201874,0.00658786157146096,0.0232916418462992,0.0351026803255081,0.0476469770073891,1.55779671669006,0.0423252955079079,0.0538645759224892,0.138753622770309,0.225820675492287,0.523322880268097,0.180621638894081,0.0343557335436344,3.55063319206238,0.037362102419138,0.0451624840497971,0.128112301230431,0.0346068292856216,0.0746182203292847,0.253904104232788,0.180045932531357,2012-01-17 13:26:20
1.01600003242493,34,-8.91770553588867,0.0401766560971737,0.0486789830029011,0.101527497172356,0.0593960843980312,0.131403848528862,0.169881358742714,0.0317336693406105,1.4352320432663,0.0636583864688873,0.0730339735746384,0.143638610839844,0.00445624208077788,0.0596471801400185,0.212999776005745,0.0450234897434711,3.75940799713135,0.0772994607686996,0.0897497534751892,0.189787432551384,0.325811594724655,0.56772780418396,0.283197462558746,0.0455158315598965,2012-01-17 13:26:21
1,47,-8.92426013946533,0.0415083840489388,0.0506340712308884,0.137501507997513,0.143691927194595,0.230403855443001,0.0554826706647873,0.121017269790173,1.44032561779022,0.0758694708347321,0.0953715965151787,0.226804882287979,0.366497337818146,2.00476789474487,1.26234292984009,0.0269728545099497,3.73946332931519,0.0834519863128662,0.0968087613582611,0.150229498744011,0.350233137607574,0.569435060024261,0.217098712921143,0.0765673965215683,2012-01-17 13:26:22
1.00600004196167,32,-8.8707275390625,0.0263553261756897,0.0307130739092827,0.0545493960380554,0.00844348408281803,0.0131934834644198,0.00588885042816401,0.00689059169963002,1.36710822582245,0.0370814017951488,0.045594297349453,0.102050468325615,0.0416340343654156,0.0855985656380653,0.0632076561450958,0.0058031533844769,3.85217452049255,0.0478074327111244,0.0568890012800694,0.145260900259018,0.0507002659142017,0.0920306295156479,0.0823256075382233,0.0157216042280197,2012-01-17 13:26:23
1.08199977874756,50,-8.85226631164551,0.0218413323163986,0.0282485503703356,0.0717845559120178,0.0203239172697067,0.128764390945435,0.0797661542892456,0.0484835840761662,1.50885117053986,0.0281019415706396,0.0329952612519264,0.0798261538147926,0.0028873672708869,0.0728483572602272,0.224376142024994,0.0118852406740189,3.85832834243774,0.0272860508412123,0.032945703715086,0.0741382166743279,0.000988015788607299,0.111931189894676,0.0662141442298889,0.0413900800049305,2012-01-17 13:26:24
1.01100015640259,36,-8.8573112487793,0.0379704348742962,0.0415944270789623,0.0765462219715118,0.0452808067202568,0.107452675700188,0.0616098865866661,0.0106789218261838,1.48189377784729,0.0270590893924236,0.0345000922679901,0.0773635283112526,0.012347960844636,0.0406808294355869,0.0344668515026569,0.0106090465560555,3.9019570350647,0.0313570462167263,0.0383852086961269,0.0871702805161476,0.038097757846117,0.0909921824932098,0.0661968737840652,0.0615490302443504,2012-01-17 13:26:25
1.00999999046326,46,-8.88652992248535,0.0228203497827053,0.0287226382642984,0.066940926015377,0.057134460657835,0.083287388086319,0.0554248504340649,0.0467826686799526,1.47909867763519,0.0232467614114285,0.0269191581755877,0.0605453774333,0.083947442471981,0.115464977920055,0.0185216683894396,0.0282350964844227,3.87746405601501,0.0359824113547802,0.0440221540629864,0.101903907954693,0.0747485905885696,0.202310740947723,0.253715246915817,0.0722453966736794,2012-01-17 13:26:26
1.13100004196167,40,-8.87109565734863,0.0266740415245295,0.0305268373340368,0.0529558174312115,0.0888792872428894,0.146485760807991,0.0724666863679886,0.0075106150470674,1.51071441173553,0.02348692715168,0.0295788776129484,0.0779628828167915,0.000677102187182754,0.0129840821027756,0.0295192245393991,0.0130782620981336,3.86651682853699,0.0318961329758167,0.0401945635676384,0.0909566953778267,0.101477049291134,0.182322651147842,0.135611176490784,0.0597103834152222,2012-01-17 13:26:27
1.01300001144409,49,-8.85280323028564,0.0265894122421741,0.0362504757940769,0.105271205306053,0.193546161055565,0.290462672710419,0.0775852501392365,0.0161176733672619,1.47299885749817,0.0243838857859373,0.0295184981077909,0.0706479325890541,0.059747613966465,0.150904268026352,0.120627231895924,0.0609944090247154,3.89984440803528,0.0456962771713734,0.0529547147452831,0.0914621278643608,0.241950735449791,0.692194283008575,0.494231730699539,0.0771105587482452,2012-01-17 13:26:28
1.0019998550415,47,-8.84977149963379,0.0225077550858259,0.0264337994158268,0.0546667613089085,0.0180566664785147,0.0301908627152443,0.070141889154911,0.0341842882335186,1.47391855716705,0.0235554818063974,0.0278047937899828,0.0755320340394974,0.0330346934497356,0.0885331109166145,0.0937248393893242,0.0630937740206718,3.85484790802002,0.0401500128209591,0.0504455231130123,0.12665194272995,0.133664265275002,0.567960500717163,0.245261415839195,0.102517120540142,2012-01-17 13:26:29
1.00600004196167,34,-8.84242534637451,0.0324060022830963,0.0377359092235565,0.0620125308632851,0.0405804626643658,0.0539476871490479,0.0111991334706545,0.0324644595384598,1.47647762298584,0.0314389690756798,0.0376962721347809,0.0827796086668968,0.0208076629787683,0.0413771942257881,0.0490420386195183,0.0397124551236629,3.86670422554016,0.0602311715483665,0.0704574808478355,0.124602235853672,0.00627447152510285,0.0630736574530602,0.11283778399229,0.0185736902058125,2012-01-17 13:26:30
1.03200006484985,47,-8.84580707550049,0.0177753549069166,0.0229308195412159,0.0684377774596214,0.000885315472260118,0.0146890059113503,0.0196609757840633,0.00713103823363781,1.48497712612152,0.0184501875191927,0.0245891083031893,0.0728196203708649,0.0128664365038276,0.0529081448912621,0.0244881492108107,0.0275296103209257,3.84232878684998,0.0228008702397346,0.0298438593745232,0.090137705206871,0.00310564110986888,0.0158674381673336,0.0511656887829304,0.0476085767149925,2012-01-17 13:26:31
1.01799988746643,28,-8.87151527404785,0.0280189514160156,0.0341943167150021,0.0651440620422363,0.00593531271442771,0.00994681566953659,0.00605121115222573,0.00469552120193839,1.4664443731308,0.0304706562310457,0.0355986766517162,0.073900118470192,0.00119950424414128,0.00610076496377587,0.0237728748470545,0.00786060839891434,3.87677884101868,0.02974515222013,0.0341782197356224,0.0556877069175243,0.00256398366764188,0.00534710753709078,0.0156860705465078,0.0150495013222098,2012-01-17 13:26:32
1.4300000667572,45,-8.85736656188965,0.0282431021332741,0.0333104878664017,0.0764917358756065,0.0150439720600843,0.084331139922142,0.131588757038116,0.0364350862801075,1.52613258361816,0.0206205807626247,0.0269787814468145,0.0747484490275383,0.00131832214538008,0.00301430863328278,0.0174678172916174,0.00691208755597472,3.85837173461914,0.0395171865820885,0.0492964796721935,0.103514552116394,0.114269003272057,0.0809111967682838,0.0406161211431026,0.104146994650364,2012-01-17 13:26:34
1.01699995994568,53,-8.86262130737305,0.0460552163422108,0.0533793829381466,0.124895796179771,0.00591302197426558,0.364974051713943,0.211419761180878,0.329141944646835,1.49745690822601,0.0379488468170166,0.0481401048600674,0.130446910858154,0.379399448633194,0.465158402919769,0.182391285896301,0.0598334446549416,3.85049772262573,0.0508731082081795,0.0654696524143219,0.182810828089714,0.404547512531281,0.510907351970673,0.115937203168869,0.0411264672875404,2012-01-17 13:26:35
1.03500008583069,34,-8.88482475280762,0.0219207089394331,0.0306442864239216,0.0882596969604492,0.00465731369331479,0.0201449263840914,0.0569396428763866,0.0335696376860142,1.42946338653564,0.0346117205917835,0.042150404304266,0.0807606726884842,0.0116188153624535,0.0203697942197323,0.0222051814198494,0.0332627482712269,3.85199427604675,0.0457587353885174,0.0558700375258923,0.115660734474659,0.00282058911398053,0.007630898617208,0.0528458282351494,0.0325965099036694,2012-01-17 13:26:36
1.01399993896484,46,-8.90678310394287,0.033266544342041,0.042852845042944,0.100411392748356,9.91736742435023e-05,0.166536778211594,0.25070858001709,0.0491106808185577,1.42217743396759,0.0484122298657894,0.0568700842559338,0.117466583848,0.332849025726318,0.844741821289062,0.404590159654617,0.0653473660349846,3.78067660331726,0.0422482900321484,0.0499096736311913,0.0933764725923538,0.0158607456833124,0.0357994176447392,0.250057280063629,0.0679555684328079,2012-01-17 13:26:37
1.00699996948242,44,-8.85696506500244,0.024506451562047,0.0286630149930716,0.067086286842823,0.0221807975322008,0.0909512341022491,0.0526223704218864,0.0142955528572202,1.49841153621674,0.0716250091791153,0.0781623423099518,0.129492297768593,0.839464068412781,1.49125301837921,0.47694519162178,0.0564291439950466,3.83038830757141,0.0586778409779072,0.0727977082133293,0.192121222615242,0.291468024253845,0.744885683059692,0.789271175861359,0.157239720225334,2012-01-17 13:26:38
1.00300002098083,41,-8.90037155151367,0.0331827066838741,0.0402288101613522,0.0841935351490974,0.122632950544357,0.173784464597702,0.0286950599402189,0.00240935105830431,1.56164920330048,0.0306858886033297,0.0367429777979851,0.0710384622216225,0.101544059813023,0.187502324581146,0.118897385895252,0.0462833717465401,3.74757528305054,0.0348862186074257,0.0454101823270321,0.126051381230354,0.120820604264736,0.206248611211777,0.0498309321701527,0.0554969683289528,2012-01-17 13:26:39
1.00600004196167,48,-8.93773937225342,0.0567541867494583,0.0651341676712036,0.153024330735207,0.531185507774353,0.79618889093399,0.29356861114502,0.280447840690613,1.4734491109848,0.0466837398707867,0.0562102980911732,0.110324755311012,0.0783893316984177,0.258228361606598,0.549191415309906,0.0825425013899803,3.64133167266846,0.0566946901381016,0.0703234449028969,0.179584249854088,0.384032398462296,0.907994031906128,0.118694357573986,0.0494531951844692,2012-01-17 13:26:40
1,32,-8.98718166351318,0.0499142296612263,0.0600499883294106,0.123195827007294,0.0632856637239456,0.0874396339058876,0.0450283139944077,0.0411843508481979,1.41460919380188,0.114921689033508,0.144502580165863,0.301554530858994,0.105328939855099,0.230964154005051,0.264124631881714,0.0208409540355206,3.64010572433472,0.0957680568099022,0.111770994961262,0.188165009021759,0.089483730494976,0.17311929166317,0.153447479009628,0.00449144514277577,2012-01-17 13:26:41
1.00799989700317,51,-9.0200023651123,0.0679187551140785,0.0800782144069672,0.14498433470726,0.089281253516674,1.56388747692108,0.574924826622009,0.205239534378052,1.0620025396347,0.171791687607765,0.216412112116814,0.448221623897552,4.88398218154907,3.73382759094238,1.15358173847198,0.141275823116302,3.65768814086914,0.078287310898304,0.0920250713825226,0.21555395424366,0.687789380550385,0.593991339206696,1.02387475967407,0.0621376037597656,2012-01-17 13:26:42
1.00800013542175,22,-8.93876075744629,0.0606228224933147,0.074082724750042,0.16180944442749,0.0194773897528648,0.033645398914814,0.0279674734920263,0.00429913960397243,1.00116980075836,0.0178302656859159,0.0228860396891832,0.0579483844339848,3.54795047314838e-05,0.000251302175456658,0.00118534069042653,0.00211436185054481,3.77466869354248,0.0880167037248611,0.100266546010971,0.197024405002594,0.0424033477902412,0.0751791074872017,0.0779009163379669,0.0118406862020493,2012-01-17 13:26:43
1.0149998664856,52,-9.04908561706543,0.0523334741592407,0.0646756142377853,0.183874368667603,0.773824751377106,1.63502395153046,0.497502774000168,0.171110153198242,1.06798183917999,0.0899063795804977,0.105397529900074,0.234416648745537,1.57377457618713,4.71835708618164,1.57531726360321,0.230437427759171,3.60337805747986,0.0903706029057503,0.113233305513859,0.28986194729805,2.56653428077698,5.37756204605103,1.42378461360931,0.16625003516674,2012-01-17 13:26:44
1.01500010490417,22,-8.9655065536499,0.0407664179801941,0.051463108509779,0.115450814366341,0.00448239082470536,0.00873023271560669,0.0138980010524392,0.018815778195858,0.823758602142334,0.0650804936885834,0.0772742256522179,0.1765196621418,0.0161464270204306,0.0301465392112732,0.0422585755586624,0.0595396012067795,3.85178446769714,0.0802767500281334,0.0949838310480118,0.164484322071075,0.0410474725067616,0.0711021348834038,0.0556980520486832,0.0238466989248991,2012-01-17 13:26:45
1.01399993896484,54,-9.06806373596191,0.0378409586846828,0.0448136031627655,0.104785688221455,0.127474427223206,0.113654457032681,0.441881537437439,0.052248653024435,1.1824277639389,0.0412175208330154,0.0524925366044044,0.182149484753609,0.0125276912003756,0.03682891279459,0.135898664593697,0.311108022928238,3.48735356330872,0.054441012442112,0.0602875389158726,0.111686892807484,0.211941063404083,0.256672412157059,0.718858540058136,0.178995355963707,2012-01-17 13:26:46
1.00600004196167,31,-9.00282096862793,0.0269401781260967,0.0337406173348427,0.078136719763279,0.0281679537147284,0.0431679263710976,0.0168982483446598,0.0126023506745696,1.0167281627655,0.0540641397237778,0.0659680590033531,0.143936321139336,0.0992269888520241,0.17657208442688,0.181690633296967,0.0563859231770039,3.66072750091553,0.0643912255764008,0.0840355232357979,0.198980048298836,0.154527723789215,0.228826612234116,0.0920546650886536,0.0235292781144381,2012-01-17 13:26:47
1.01600003242493,48,-9.01047229766846,0.0378730110824108,0.0450579077005386,0.0900984406471252,0.363912224769592,0.451041847467422,0.103397138416767,0.02962358109653,1.06177413463593,0.0545494928956032,0.0664136484265327,0.130142390727997,0.910593390464783,1.1102739572525,0.253921151161194,0.0660615190863609,3.66870856285095,0.0494759231805801,0.060823630541563,0.128508076071739,0.548233211040497,0.951385498046875,0.446452349424362,0.246888384222984,2012-01-17 13:26:48
1.00799989700317,47,-9.07845401763916,0.0304187629371881,0.0383010990917683,0.0907635167241096,0.17530868947506,0.213569462299347,0.0142759857699275,0.112570121884346,1.11336767673492,0.0593815073370934,0.0664149895310402,0.112463541328907,0.394208520650864,0.652703046798706,0.158696010708809,0.0383376367390156,3.52413439750671,0.050822339951992,0.0639531761407852,0.131033599376678,0.477255403995514,0.462673842906952,0.291387438774109,0.0474454984068871,2012-01-17 13:26:49
1.00699996948242,27,-9.00032520294189,0.0207432489842176,0.0243647750467062,0.051212415099144,0.000789264391642064,0.00231721275486052,0.00658800406381488,0.00668266275897622,1.1343024969101,0.0559342242777348,0.0691377073526382,0.1634441614151,0.00205587246455252,0.011143452487886,0.058349035680294,0.0336421318352222,3.6902060508728,0.0739870965480804,0.0961523950099945,0.212840586900711,0.0390732362866402,0.067076101899147,0.0806622877717018,0.0312869809567928,2012-01-17 13:26:50
1.13499999046326,47,-9.00083541870117,0.0170117784291506,0.0223734639585018,0.0571705847978592,0.0131235187873244,0.0181896984577179,0.00915391556918621,0.0117344353348017,1.06767284870148,0.0554748252034187,0.0684410780668259,0.155654475092888,0.584542572498322,0.660317182540894,0.104299016296864,0.202812150120735,3.71379923820496,0.0316085889935493,0.0390129387378693,0.0951453819870949,0.00135298899840564,0.0751597210764885,0.295929878950119,0.108410254120827,2012-01-17 13:26:51
1.00400018692017,37,-9.0404052734375,0.0389973036944866,0.0471227318048477,0.106547743082047,0.0633957386016846,0.15090623497963,0.144626423716545,0.0164704136550426,1.14499258995056,0.0672496929764748,0.0752885267138481,0.144714385271072,0.242382243275642,0.453995198011398,0.218452528119087,0.203432455658913,3.54894709587097,0.093095138669014,0.105023242533207,0.18738654255867,0.716741144657135,1.35652315616608,0.867568790912628,0.0912852063775063,2012-01-17 13:26:52
1.0149998664856,48,-8.95980453491211,0.0223884060978889,0.0285552125424147,0.0819262489676476,0.00219049956649542,0.01503193564713,0.109757460653782,0.0166609790176153,1.06381714344025,0.0359662249684334,0.0430260188877583,0.0933675393462181,0.138015449047089,0.2884621322155,0.175650626420975,0.0965168699622154,3.78863573074341,0.0452195294201374,0.0526711121201515,0.114410907030106,0.286628574132919,0.323320925235748,0.507920265197754,0.0579718872904778,2012-01-17 13:26:53
1.01699995994568,31,-8.97023773193359,0.0108985267579556,0.0134585266932845,0.0322669856250286,0.000814805389381945,0.00130163668654859,0.00074878690065816,0.00222581624984741,1.08917081356049,0.0366346351802349,0.0429948046803474,0.0986991971731186,0.0177873913198709,0.031428188085556,0.0306792594492435,0.0122181242331862,3.83123660087585,0.0328181385993958,0.0404252149164677,0.111036546528339,0.00416143238544464,0.00644194567576051,0.0205130912363529,0.0424039959907532,2012-01-17 13:26:54
1.00800013542175,47,-8.92822456359863,0.022383451461792,0.0266650095582008,0.0532062016427517,0.00500843534246087,0.0334499143064022,0.143908128142357,0.0138556230813265,1.13089454174042,0.0460277646780014,0.0510613918304443,0.085130013525486,0.358745455741882,0.557003200054169,0.0946153998374939,0.0812006816267967,3.89720439910889,0.0546224601566792,0.0643751919269562,0.12164418399334,0.178831100463867,0.639087021350861,0.458756387233734,0.0737539157271385,2012-01-17 13:26:55
1.00499987602234,31,-8.92816352844238,0.0300831981003284,0.0343141034245491,0.0645339712500572,0.000469071004772559,0.00138806726317853,0.0143939424306154,0.0444760993123055,1.15560293197632,0.0280831679701805,0.0396276414394379,0.106291435658932,0.000280129286693409,0.00370663520880044,0.00839313678443432,0.0116448951885104,3.85496234893799,0.0410226285457611,0.0513120591640472,0.0990154892206192,0.0242281872779131,0.0696336477994919,0.113309197127819,0.0546572953462601,2012-01-17 13:26:56
1.02800011634827,48,-8.93671798706055,0.0167019218206406,0.020507974550128,0.0461728982627392,0.0270107928663492,0.0335048027336597,0.0439879819750786,0.0129266362637281,1.16372239589691,0.0290113482624292,0.0356593169271946,0.0719154626131058,0.00106497528031468,0.0106053119525313,0.0489877797663212,0.205677196383476,3.84359383583069,0.0218862760812044,0.0279824007302523,0.0692594572901726,0.0510471165180206,0.124282553792,0.0883967652916908,0.0327078476548195,2012-01-17 13:26:57
1.12999987602234,35,-8.92433166503906,0.0165391862392426,0.0207680724561214,0.0493133552372456,0.00642722612246871,0.00774172367528081,0.00430136313661933,0.0111250309273601,1.14625728130341,0.0219508949667215,0.028400270268321,0.0675258338451385,3.5594857763499e-05,0.00963358394801617,0.032988578081131,0.0277092251926661,3.83411979675293,0.0288996454328299,0.0355123914778233,0.0787333771586418,5.54535290575586e-05,0.00450116815045476,0.0179445892572403,0.0267706587910652,2012-01-17 13:26:58
1.00100016593933,50,-8.92287445068359,0.0296081863343716,0.0359324440360069,0.0870829001069069,0.0452700480818748,0.0817625299096107,0.21394057571888,0.0461711026728153,1.18032836914062,0.0285726469010115,0.0364174097776413,0.111403569579124,0.00408727396279573,0.0227403789758682,0.209587574005127,0.0665842518210411,3.87833380699158,0.0355079025030136,0.0424862168729305,0.093359187245369,0.0158397872000933,0.0167882386595011,0.15559484064579,0.0532457046210766,2012-01-17 13:26:59
1.04900002479553,47,-8.93177127838135,0.0217708144336939,0.0283167436718941,0.066559910774231,0.0138949723914266,0.0570538677275181,0.0865001901984215,0.0698346644639969,1.08770346641541,0.0505115762352943,0.0569249466061592,0.107038542628288,0.328889459371567,0.305662125349045,0.112789765000343,0.0803420692682266,3.89783024787903,0.0345385633409023,0.0435688234865665,0.103282652795315,0.129396542906761,0.310080945491791,0.174089342355728,0.0279749855399132,2012-01-17 13:27:00
1.00799989700317,36,-8.93304061889648,0.050031989812851,0.0547170974314213,0.0776358470320702,0.127675294876099,0.160765886306763,0.0607920959591866,0.0174415577203035,1.03487396240234,0.0367749370634556,0.0479025840759277,0.102697379887104,0.105445183813572,0.2252366989851,0.128474801778793,0.0841029733419418,3.75158834457397,0.0793612524867058,0.0869930237531662,0.131844997406006,0.425175338983536,0.601301610469818,0.164047107100487,0.0181798152625561,2012-01-17 13:27:01
1,47,-9.0118932723999,0.0391998961567879,0.0480832532048225,0.127903535962105,0.222712829709053,0.332489192485809,0.107221491634846,0.0977176204323769,1.11482834815979,0.0390845239162445,0.0521321371197701,0.153776586055756,0.162342816591263,0.190734922885895,0.0184968300163746,0.0724934861063957,3.68208408355713,0.0543472357094288,0.0608520619571209,0.113089390099049,0.0325973816215992,0.438032984733582,0.413303434848785,0.0424825437366962,2012-01-17 13:27:02
1.00799989700317,36,-8.89381408691406,0.0478981398046017,0.0570592395961285,0.0972491130232811,0.0372889563441277,0.0349845364689827,0.0671239644289017,0.0337087921798229,1.17434632778168,0.0915287360548973,0.105781972408295,0.154454708099365,0.512919843196869,1.13417625427246,0.733119130134583,0.0371135622262955,3.88479542732239,0.0766976773738861,0.0934109464287758,0.246528267860413,0.0139036066830158,0.215729296207428,0.251149952411652,0.00621107267215848,2012-01-17 13:27:03
1.11300015449524,45,-8.88395309448242,0.0258507691323757,0.0318826846778393,0.0775813609361649,0.0243428200483322,0.0699235126376152,0.132821753621101,0.0281418059021235,1.25372564792633,0.0430330336093903,0.0499596446752548,0.086734339594841,0.424280077219009,0.576782584190369,0.13799050450325,0.0345821604132652,3.88321542739868,0.0294538289308548,0.0362530015408993,0.078235350549221,0.0361251719295979,0.032539926469326,0.114634864032269,0.0298226438462734,2012-01-17 13:27:05
1.01799988746643,44,-8.88370990753174,0.019045939669013,0.0251950770616531,0.0893740877509117,0.0122018968686461,0.0330099761486053,0.0407058410346508,0.0504379123449326,1.25435960292816,0.0224499218165874,0.0299222003668547,0.0873683020472527,0.0158969108015299,0.0479312427341938,0.0189834702759981,0.0327663421630859,3.90393805503845,0.0228956509381533,0.0276440642774105,0.057948287576437,0.0316407643258572,0.0566907748579979,0.04249232634902,0.00303933932445943,2012-01-17 13:27:06
1.03299999237061,44,-8.88103580474854,0.0207276567816734,0.0275170877575874,0.0724353566765785,0.000452253472758457,0.0141763184219599,0.0606891065835953,0.00793571956455708,1.23140323162079,0.0227032117545605,0.0285449679940939,0.0644118264317513,0.0248125866055489,0.0806873887777328,0.0619249641895294,0.0301807560026646,3.86649465560913,0.0321755446493626,0.0387987866997719,0.0811277851462364,0.078028567135334,0.0789105519652367,0.0351472981274128,0.0330148451030254,2012-01-17 13:27:07
1.01900005340576,37,-8.86971759796143,0.0183238629251719,0.0247245132923126,0.0739473104476929,0.000532734789885581,0.0029384265653789,0.0116726513952017,0.0287788119167089,1.25896179676056,0.0139542194083333,0.0161785576492548,0.0355160310864449,0.00337621080689132,0.00765399727970362,0.00994848925620317,0.00272933440282941,3.89323997497559,0.0249141659587622,0.0321633294224739,0.0882599204778671,0.00077449984382838,0.000759924703743309,0.0384392850100994,0.015716815367341,2012-01-17 13:27:08
1.05400013923645,47,-8.89171028137207,0.0271069724112749,0.0331736616790295,0.0657253041863441,0.0594744980335236,0.13441576063633,0.067616306245327,0.0135994544252753,1.25587713718414,0.033943697810173,0.0415275394916534,0.0888857692480087,0.0587766692042351,0.0406652167439461,0.0242762099951506,0.0549903362989426,3.86987090110779,0.0314132310450077,0.0400296859443188,0.111628971993923,0.00231315777637064,0.0410124137997627,0.131753653287888,0.112891644239426,2012-01-17 13:27:09
1.03599977493286,29,-8.87535667419434,0.0173044502735138,0.0206803418695927,0.0395646914839745,6.46960761514492e-05,0.000884324312210083,0.0082281231880188,0.00967855844646692,1.26167619228363,0.0159051772207022,0.0187975615262985,0.0358449444174767,0.000704008445609361,0.000791887112427503,0.00447996519505978,0.00614870060235262,3.86821603775024,0.0185171905905008,0.0245113875716925,0.0730427205562592,9.95485024759546e-05,0.000558409315999597,0.00377181661315262,0.00183465913869441,2012-01-17 13:27:10
1.00300002098083,38,-8.88172817230225,0.0344182923436165,0.0408760905265808,0.0815498977899551,0.00244361767545342,0.00421451823785901,0.115838095545769,0.0633763372898102,1.28854215145111,0.0335083305835724,0.0395823866128922,0.082324281334877,0.00359637849032879,0.00200862577185035,0.0360052920877934,0.0533147789537907,3.87207818031311,0.0382758155465126,0.0527397580444813,0.119228288531303,0.0986597612500191,0.276732236146927,0.214148581027985,0.116493254899979,2012-01-17 13:27:11
1.25,40,-8.92184448242188,0.0330483540892601,0.043773602694273,0.105666473507881,0.155950427055359,0.243671581149101,0.149982005357742,0.0816012844443321,1.26187062263489,0.0475009493529797,0.0589781440794468,0.150286868214607,0.0604858994483948,0.220018520951271,0.0888032019138336,0.0412412099540234,3.84445190429688,0.101731710135937,0.113169871270657,0.186080977320671,1.08033013343811,1.66946649551392,0.32673904299736,0.0750154629349709,2012-01-17 13:27:12
1.01700019836426,51,-8.78906536102295,0.0575730800628662,0.081392802298069,0.247474133968353,0.333286195993423,0.26944300532341,0.60770571231842,0.436194509267807,1.15295433998108,0.0837015062570572,0.101659044623375,0.239589914679527,0.135437458753586,2.19654536247253,2.5612461566925,0.0957663804292679,4.10514068603516,0.0662071406841278,0.0873488038778305,0.241320475935936,0.806784808635712,2.01662707328796,2.15868139266968,0.317869573831558,2012-01-17 13:27:13
1.01699995994568,48,-8.8400821685791,0.0476030297577381,0.0626623332500458,0.141583263874054,0.185624793171883,0.327609986066818,0.221128210425377,0.172229409217834,1.0797530412674,0.0713621154427528,0.0905288904905319,0.195111453533173,0.505809485912323,0.37990266084671,0.0715597942471504,0.011623932980001,4.09366321563721,0.0770231112837791,0.0827996283769608,0.151390194892883,0.021845456212759,1.42505860328674,0.700805842876434,0.0756786912679672,2012-01-17 13:27:14
1.02900004386902,22,-8.96595191955566,0.0612711943686008,0.0686580091714859,0.115005061030388,0.0155735723674297,0.028386689722538,0.0354436449706554,0.00449187448248267,1.19239950180054,0.0643105432391167,0.0864411890506744,0.172507837414742,0.00591049902141094,0.012328190729022,0.0232342835515738,0.00979011785238981,3.85757946968079,0.0708348527550697,0.0886328369379044,0.221987068653107,0.0191904064267874,0.0346314087510109,0.0363768227398396,0.00586630310863256,2012-01-17 13:27:15
1.01099991798401,44,-8.84604358673096,0.0411311276257038,0.0547191649675369,0.136847108602524,0.00238278205506504,0.0457434207201004,0.0488228425383568,0.0129553973674774,1.16297948360443,0.048405148088932,0.0566567368805408,0.103861354291439,0.201414197683334,0.37868532538414,0.26409512758255,0.0596661157906055,4.08803558349609,0.0676334500312805,0.0816367790102959,0.168050140142441,0.522424697875977,0.842612266540527,0.396598190069199,0.105927459895611,2012-01-17 13:27:16
1.01300001144409,50,-8.81303977966309,0.030988959595561,0.0377492941915989,0.0851215720176697,0.0376666039228439,0.13928459584713,0.311432898044586,0.0455268919467926,1.11560451984406,0.0353823862969875,0.0424101054668427,0.0859062150120735,0.16903367638588,0.251698523759842,0.0468494556844234,0.00643840152770281,4.11467409133911,0.0389284268021584,0.047845546156168,0.11199177056551,0.111502625048161,0.214143872261047,0.421821683645248,0.269685715436935,2012-01-17 13:27:17
1.24699997901917,42,-8.8136100769043,0.020335977897048,0.0271583553403616,0.0856912955641747,0.0161980353295803,0.0229153521358967,0.00394156528636813,0.00490295840427279,1.14807844161987,0.0219148769974709,0.0274380035698414,0.0581394024193287,0.00136031094007194,0.025117676705122,0.0576253719627857,0.0366516374051571,4.14307594299316,0.0214589592069387,0.0258785858750343,0.0537029914557934,0.000447552767582238,0.0158315785229206,0.0617956817150116,0.0537578910589218,2012-01-17 13:27:18
1.0149998664856,49,-8.82578468322754,0.0118692526593804,0.0162763092666864,0.0394266657531261,0.00256658508442342,0.0141069898381829,0.0307552553713322,0.00595440668985248,1.15718472003937,0.026818199083209,0.033152524381876,0.0784532502293587,0.026024341583252,0.0644015222787857,0.0204840078949928,0.0378335900604725,4.12599802017212,0.0335818976163864,0.0408815369009972,0.0810548216104507,0.316610395908356,0.403513878583908,0.0832555890083313,0.0196569822728634,2012-01-17 13:27:19
1.01600003242493,49,-8.83378982543945,0.0228481069207191,0.0315744876861572,0.0902610495686531,0.000461544725112617,0.027569031342864,0.153780028223991,0.178773865103722,1.17759847640991,0.027871947735548,0.0385623574256897,0.138093620538712,0.0447964072227478,0.129559993743896,0.11653945595026,0.264919638633728,4.14000749588013,0.0337861254811287,0.0435127839446068,0.099667876958847,0.0499856397509575,0.110771968960762,0.215389609336853,0.0750607624650002,2012-01-17 13:27:20
1.0090000629425,35,-8.80693244934082,0.0298441853374243,0.042645912617445,0.0986267104744911,0.000771544931922108,0.00693236431106925,0.0314810127019882,0.0549894608557224,1.19725179672241,0.0316854752600193,0.0389010235667229,0.0891003981232643,0.0105683105066419,0.0100244814530015,0.0377727225422859,0.0153004294261336,4.12187528610229,0.0345193482935429,0.0425057746469975,0.0949842482805252,0.00570890167728066,0.0456760749220848,0.1352678835392,0.031785886734724,2012-01-17 13:27:21
1,48,-8.81577014923096,0.026985265314579,0.032398909330368,0.0682378187775612,0.01597292535007,0.0497312769293785,0.112530082464218,0.0921097546815872,1.22910010814667,0.0322802253067493,0.0398012548685074,0.0849909856915474,0.0094365207478404,0.0297450441867113,0.120254062116146,0.194263711571693,4.12492227554321,0.0225756857544184,0.0266035981476307,0.0527106523513794,1.24311081890482e-05,0.00997147522866726,0.140784472227097,0.0462608225643635,2012-01-17 13:27:22
1.01099991798401,33,-8.88274478912354,0.0531305186450481,0.0620112009346485,0.149179697036743,0.156397476792336,0.272877037525177,0.125815749168396,0.0425438545644283,1.18987345695496,0.0418020859360695,0.0464177317917347,0.0817220658063889,0.063019223511219,0.0815777406096458,0.0161882564425468,0.0115336384624243,3.99338674545288,0.0794077217578888,0.0975527614355087,0.194052785634995,0.399391382932663,0.585401594638824,0.220966756343842,0.0464211851358414,2012-01-17 13:27:23
1.01700019836426,50,-8.86501502990723,0.0331464186310768,0.0452165529131889,0.186522156000137,0.0372730679810047,0.0515653751790524,0.058583527803421,0.0880380123853683,1.31212973594666,0.0446398705244064,0.0536057017743587,0.139254450798035,0.0017788129625842,0.141390383243561,0.321936666965485,0.0811314657330513,3.9662013053894,0.0522968918085098,0.0696799531579018,0.211431413888931,0.246309414505959,0.313727736473083,0.474410146474838,0.36981788277626,2012-01-17 13:27:24
1.22499990463257,43,-8.8544921875,0.0377945192158222,0.047045886516571,0.126573979854584,0.0994398072361946,0.228382781147957,0.0509284511208534,0.0436805747449398,1.22469091415405,0.0617781803011894,0.070723369717598,0.136152744293213,0.593135714530945,0.735163748264313,0.0653122887015343,0.152666360139847,4.0152530670166,0.0735101401805878,0.0839961096644402,0.141626223921776,0.203987926244736,0.466096550226212,0.381811708211899,0.177576407790184,2012-01-17 13:27:26
1.00999999046326,44,-8.78452968597412,0.0361467637121677,0.0488931611180305,0.135064080357552,0.0929263532161713,0.133692592382431,0.0381704419851303,0.0931700393557549,1.17234039306641,0.0833159983158112,0.0920765697956085,0.152448788285255,0.205882087349892,0.763701856136322,0.887952208518982,0.0257091093808413,4.14553833007812,0.0658503770828247,0.0814430341124535,0.203265205025673,0.0246115867048502,0.472968935966492,0.358272433280945,0.135167598724365,2012-01-17 13:27:27
1.01200008392334,49,-8.79356288909912,0.0323729179799557,0.0394363179802895,0.0950642973184586,0.00299416482448578,0.00435798522084951,0.0410939082503319,0.0698916018009186,1.13657069206238,0.0441278703510761,0.0564999729394913,0.14810037612915,0.356707841157913,0.324902504682541,0.180909290909767,0.0636227801442146,4.11739206314087,0.0518637001514435,0.0645957589149475,0.177920386195183,0.160114943981171,0.0960216745734215,0.612882316112518,0.156575113534927,2012-01-17 13:27:28
1,46,-8.83067512512207,0.0144967613741755,0.018029173836112,0.0443430356681347,2.35488710131904e-06,0.00516842119395733,0.0413754917681217,0.0259541682898998,1.20536518096924,0.0763954743742943,0.0918541252613068,0.17566691339016,1.22547256946564,1.61639523506165,0.336549669504166,0.00607521133497357,4.02200555801392,0.0642716586589813,0.070111408829689,0.109152317047119,0.680084526538849,1.00477683544159,0.194955870509148,0.056066982448101,2012-01-17 13:27:29
1.00599980354309,39,-8.63161182403564,0.0777442678809166,0.0952313840389252,0.174759760499001,0.523912847042084,0.741305708885193,0.238573133945465,0.0492617078125477,1.24745619297028,0.0465251617133617,0.0621886402368546,0.174508020281792,0.221999377012253,0.254116624593735,0.0912091359496117,0.133063018321991,4.3989109992981,0.152831524610519,0.187727779150009,0.387991458177567,2.52397918701172,2.83705520629883,0.228137910366058,0.271935433149338,2012-01-17 13:27:30
1.0220000743866,47,-8.73772525787354,0.0496591441333294,0.0553639642894268,0.0980672612786293,0.442804485559464,0.637760818004608,0.108989171683788,0.0181865599006414,1.29510378837585,0.0615923330187798,0.0790353789925575,0.205313742160797,0.345682710409164,0.4779953956604,0.528342425823212,0.166200429201126,4.20371437072754,0.0865683928132057,0.114046648144722,0.434831142425537,0.943317830562592,0.924567997455597,0.155686780810356,0.139506295323372,2012-01-17 13:27:31
1.19600009918213,32,-8.79962921142578,0.0253593400120735,0.0328410118818283,0.0815176367759705,0.00682629272341728,0.0173984207212925,0.0389888398349285,0.024885606020689,1.28007423877716,0.0588590577244759,0.0692994669079781,0.161503314971924,0.181838870048523,0.285501778125763,0.147525399923325,0.0722217187285423,4.09029245376587,0.0194792039692402,0.0286287795752287,0.106953606009483,0.0143581591546535,0.0187577176839113,0.00275682145729661,0.00385046238079667,2012-01-17 13:27:32
1.15999984741211,45,-8.62571144104004,0.0415997318923473,0.0574243143200874,0.210080608725548,0.126685038208961,0.181710734963417,0.0462405011057854,0.050978921353817,1.36987996101379,0.0952479913830757,0.106984347105026,0.208990648388863,0.988847017288208,2.87859487533569,0.838096678256989,0.394235730171204,4.39446878433228,0.118018813431263,0.146045938134193,0.373742520809174,0.0254428591579199,2.65684127807617,1.43269109725952,0.215257257223129,2012-01-17 13:27:33
1.00100016593933,42,-8.68402194976807,0.0203248579055071,0.023659935221076,0.073316253721714,0.00432336004450917,0.00493206642568111,0.0440703667700291,0.0392396375536919,1.52166521549225,0.0240496341139078,0.0312259681522846,0.0670121312141418,0.00210250308737159,0.0255808532238007,0.0177634619176388,0.0228545106947422,4.27009534835815,0.043496198952198,0.0515441074967384,0.103670507669449,0.145338505506516,0.230595633387566,0.262016475200653,0.0849374905228615,2012-01-17 13:27:34
1.0019998550415,48,-8.6678524017334,0.0350385904312134,0.0413951426744461,0.0992924943566322,9.3878545158077e-05,0.0813808292150497,0.0594930946826935,0.0845857262611389,1.50307333469391,0.0301860943436623,0.0362945161759853,0.090915858745575,0.0439360216259956,0.14785772562027,0.024710837751627,0.0578674860298634,4.26977443695068,0.0250444021075964,0.0309945289045572,0.0745717212557793,0.0285837110131979,0.0554504133760929,0.0257988031953573,0.0397009663283825,2012-01-17 13:27:35
1.00800013542175,44,-8.65347671508789,0.020565876737237,0.0258887782692909,0.0628523156046867,0.0311236884444952,0.0465878807008266,0.00685617234557867,0.00968207512050867,1.52025365829468,0.0149834882467985,0.0185230411589146,0.0390036627650261,0.00345066399313509,0.00659765768796206,0.0111643671989441,0.0107172653079033,4.27146434783936,0.0205351822078228,0.0267258752137423,0.0742183923721313,0.00396477757021785,0.0143990367650986,0.0422578416764736,0.0510525926947594,2012-01-17 13:27:36
1,24,-8.66703605651855,0.0124966837465763,0.0147043475881219,0.031462986022234,0.000310666800942272,0.000678340205922723,0.00139768456574529,0.000306833622744307,1.51349294185638,0.0272406842559576,0.0382612906396389,0.0947975963354111,0.00193786737509072,0.00395303918048739,0.00805929396301508,0.00782271102070808,4.23320388793945,0.0103514455258846,0.0134779280051589,0.0359576530754566,0.00016122886154335,0.000248540978645906,0.000144849516800605,0.000424797763116658,2012-01-17 13:27:37
1.00499987602234,50,-8.66221332550049,0.0394230633974075,0.0481728054583073,0.11081550270319,3.48134271916933e-05,0.0694933831691742,0.617305040359497,0.236610040068626,1.67654490470886,0.0834898948669434,0.0930745601654053,0.176912009716034,2.03511261940002,2.78568029403687,0.25983065366745,0.472352653741837,4.19940376281738,0.0410780236124992,0.0494351573288441,0.100223787128925,0.27525582909584,0.265315562486649,0.387974590063095,0.247184187173843,2012-01-17 13:27:38
1.01500010490417,39,-8.73847961425781,0.0322245582938194,0.0433694794774055,0.107118606567383,0.00914551690220833,0.00649108458310366,0.0151506820693612,0.0191324986517429,1.86401784420013,0.0453775189816952,0.0584355443716049,0.187080711126328,0.0180240739136934,0.0931317657232285,0.0713032558560371,0.00998516939580441,3.90857863426208,0.0803874284029007,0.101593680679798,0.249440982937813,0.458132088184357,0.622452020645142,0.201156422495842,0.075214646756649,2012-01-17 13:27:39
1.00300002098083,43,-8.72791862487793,0.0387704111635685,0.0467686802148819,0.0784530639648438,0.26015430688858,0.380971401929855,0.144679084420204,0.0357658639550209,1.67876160144806,0.0733615905046463,0.0857341811060905,0.174695253372192,0.94778311252594,1.0849848985672,0.149689182639122,0.0244399569928646,4.07386493682861,0.110137857496738,0.123326301574707,0.201834425330162,2.12192702293396,2.93837523460388,0.548301756381989,0.199952811002731,2012-01-17 13:27:40
1,48,-8.69645595550537,0.0210945438593626,0.0313940048217773,0.0903028026223183,0.000295531033771113,0.0842777267098427,0.056129515171051,0.0943069234490395,1.6046130657196,0.0857060253620148,0.093776747584343,0.153228878974915,1.4684579372406,1.91561043262482,0.134491831064224,0.0251698326319456,4.18784809112549,0.0804451033473015,0.0916007161140442,0.166304633021355,1.20937037467957,2.06758308410645,0.643218159675598,0.0246524773538113,2012-01-17 13:27:41
1.4779999256134,47,-8.66365337371826,0.0276577472686768,0.0338392481207848,0.0642650276422501,0.0244559068232775,0.111773125827312,0.0698699876666069,0.0239403992891312,1.67005157470703,0.0246386919170618,0.028459407389164,0.0657254382967949,0.000749890576116741,0.09264075756073,0.097990408539772,0.055073581635952,4.18493556976318,0.0373176038265228,0.0517128445208073,0.154402777552605,0.144804015755653,0.410165399312973,0.367319405078888,0.210492417216301,2012-01-17 13:27:43
1.00999999046326,46,-8.64008522033691,0.022616907954216,0.0262631941586733,0.0592666305601597,0.00907813850790262,0.0356666035950184,0.111303061246872,0.0209452100098133,1.65476548671722,0.0210036691278219,0.0258195344358683,0.0613982118666172,0.00617081765085459,0.0319998301565647,0.0546301528811455,0.0248772539198399,4.2147274017334,0.0267133433371782,0.0323258899152279,0.0665145516395569,0.0370430462062359,0.117399409413338,0.143454402685165,0.0379926152527332,2012-01-17 13:27:44
1.3529999256134,48,-8.6331205368042,0.0246531162410975,0.029982402920723,0.0653781890869141,0.0276141185313463,0.0889730602502823,0.0516498200595379,0.0181449521332979,1.70799148082733,0.030169079080224,0.0376808755099773,0.0866254419088364,0.0128690982237458,0.216125130653381,0.21824537217617,0.0606156215071678,4.21379470825195,0.0334293805062771,0.0432195328176022,0.104808390140533,0.000269114068942145,0.274875968694687,0.166441887617111,0.141053155064583,2012-01-17 13:27:45
1.0090000629425,51,-8.64331150054932,0.0317542068660259,0.0432926714420319,0.140946835279465,3.89855676985462e-06,0.156318157911301,0.109942354261875,0.109535202383995,1.70924139022827,0.0354713536798954,0.0429132468998432,0.10498883575201,0.0266276281327009,0.230041965842247,0.275895565748215,0.0374861024320126,4.20109176635742,0.0249218940734863,0.0310160648077726,0.092105433344841,0.00179492123425007,0.01279042288661,0.107594862580299,0.139195740222931,2012-01-17 13:27:46
1.1489999294281,43,-8.63646507263184,0.0282057262957096,0.0332879610359669,0.0620332323014736,0.00661239586770535,0.0270896088331938,0.0274201203137636,0.110874593257904,1.71046221256256,0.0416026934981346,0.0498355105519295,0.0939614027738571,0.0222794748842716,0.0997205302119255,0.331831067800522,0.109097003936768,4.23966550827026,0.0247048661112785,0.0283530652523041,0.0522260218858719,0.0761018991470337,0.101198151707649,0.0731556639075279,0.00960249081254005,2012-01-17 13:27:47
1,41,-8.61884880065918,0.0344080552458763,0.0417860969901085,0.089456282556057,0.072340115904808,0.0572220385074615,0.0433985777199268,0.0780574604868889,1.70037734508514,0.0253421179950237,0.0296880602836609,0.0724735707044601,0.0448823124170303,0.0775841474533081,0.0256675537675619,0.0116817886009812,4.24508333206177,0.0561213567852974,0.064404770731926,0.126290395855904,0.00281298253685236,0.329986214637756,0.422634422779083,0.0922686234116554,2012-01-17 13:27:48
1.01700019836426,32,-8.66049766540527,0.0288839619606733,0.0334140807390213,0.0674209892749786,0.026794983074069,0.0471342504024506,0.024387052282691,0.00149311870336533,1.61196804046631,0.0198431275784969,0.026376735419035,0.0723240375518799,0.00828207284212112,0.0183737743645906,0.0304724089801311,0.0105407685041428,4.23371458053589,0.0303392857313156,0.0423388667404652,0.120438173413277,0.00302056828513741,0.00894769839942455,0.0195921659469604,0.0129647804424167,2012-01-17 13:27:49
1.01099991798401,45,-8.65818214416504,0.0220350027084351,0.0274450741708279,0.0599297620356083,0.0186017509549856,0.0103803863748908,0.0349902771413326,0.0349106974899769,1.65100395679474,0.0128721510991454,0.0153541071340442,0.0357397682964802,0.000435969122918323,0.0129407029598951,0.0303486753255129,0.0112239811569452,4.23102426528931,0.0252308920025826,0.0301415026187897,0.0839011967182159,0.0412792190909386,0.0505474507808685,0.0773450657725334,0.0447631403803825,2012-01-17 13:27:50
1.01300001144409,34,-8.64196586608887,0.0207674652338028,0.0252903252840042,0.0663394629955292,0.00027704905369319,0.000263721594819799,0.00849831104278564,0.0173668824136257,1.66165030002594,0.0274009387940168,0.0333147123456001,0.0643201172351837,0.00189970398787409,0.0121377659961581,0.0267072524875402,0.00663750246167183,4.23820304870605,0.0231762286275625,0.0270633175969124,0.0473025813698769,0.000440293399151415,0.0106295133009553,0.0303667113184929,0.0101566668599844,2012-01-17 13:27:51
1.01099991798401,47,-8.63026905059814,0.0146679850295186,0.0190802030265331,0.0396440178155899,0.00363574037328362,0.0197443868964911,0.0141110382974148,0.0443875342607498,1.67255544662476,0.0264055803418159,0.0321012437343597,0.0828348845243454,0.0313304550945759,0.0713075324892998,0.116368189454079,0.016219075769186,4.25149536132812,0.0306141320616007,0.0366848185658455,0.0830438509583473,0.0218986291438341,0.156174510717392,0.0644749253988266,0.0747277736663818,2012-01-17 13:27:52
1.32000017166138,49,-8.63365459442139,0.0206020548939705,0.0245722401887178,0.0550378486514091,0.00925945769995451,0.0271590519696474,0.0707007050514221,0.0103807365521789,1.67333471775055,0.0292933210730553,0.0355904065072536,0.0944640040397644,0.0276776738464832,0.0989608019590378,0.0600898489356041,0.0569577068090439,4.27049589157104,0.0307636987417936,0.0399259403347969,0.112476117908955,0.00161299481987953,0.0417519882321358,0.135994374752045,0.089479997754097,2012-01-17 13:27:53
1.01199984550476,48,-8.63352870941162,0.0227293521165848,0.0277106370776892,0.0625176206231117,0.00397245865315199,0.0373201556503773,0.0801542103290558,0.0751985311508179,1.66815197467804,0.0378390289843082,0.0435467399656773,0.0872383117675781,0.0357706099748611,0.164962247014046,0.317852973937988,0.0487276613712311,4.26997852325439,0.0268661137670279,0.035799503326416,0.0939806774258614,0.0643828585743904,0.146234408020973,0.209143429994583,0.0418682545423508,2012-01-17 13:27:54
1.02600002288818,50,-8.61945629119873,0.0195114053785801,0.0249183643609285,0.0692356303334236,0.0616559609770775,0.112952686846256,0.0704711824655533,0.0223905202001333,1.653205037117,0.0288315527141094,0.0342020206153393,0.0841411054134369,0.204941377043724,0.294559627771378,0.0690088868141174,0.0313760489225388,4.26608848571777,0.0382930226624012,0.0472550727427006,0.117483876645565,0.00260889390483499,0.017878582701087,0.164233282208443,0.218565464019775,2012-01-17 13:27:55
1.00399994850159,34,-8.62379455566406,0.019240140914917,0.0231843441724777,0.0452843569219112,0.000808498763944954,0.00529052875936031,0.0150078814476728,0.00430040154606104,1.68010985851288,0.0212420672178268,0.0260243825614452,0.0556671656668186,0.0089708399027586,0.0151302386075258,0.0150274913758039,0.00979473255574703,4.27512216567993,0.0254158470779657,0.0313687957823277,0.0692237243056297,0.0150466552004218,0.0201528817415237,0.0218649227172136,0.0444016791880131,2012-01-17 13:27:56
1.01800012588501,46,-8.61407566070557,0.0198728982359171,0.0264629498124123,0.0626772791147232,0.00340183614753187,0.0676513835787773,0.0626248344779015,0.0432716868817806,1.65540504455566,0.0334797985851765,0.0390460230410099,0.090178556740284,0.0850612446665764,0.326111704111099,0.259801030158997,0.0305526424199343,4.28507947921753,0.0269543938338757,0.0353558696806431,0.0788798406720161,0.000678177748341113,0.0255296733230352,0.191261559724808,0.0766805037856102,2012-01-17 13:27:58
1.00399994850159,37,-8.603346824646,0.0341120734810829,0.0418470203876495,0.085344985127449,0.0288175102323294,0.0647729262709618,0.0276119355112314,0.014949569478631,1.66633534431458,0.0367767438292503,0.0418166294693947,0.0890549719333649,0.0198698416352272,0.0187847334891558,0.00252819061279297,0.0401302203536034,4.32261228561401,0.0228513404726982,0.0284896623343229,0.086139589548111,0.00730592431500554,0.0202649999409914,0.0162582732737064,0.012767905369401,2012-01-17 13:27:59
1.35800004005432,36,-8.62957954406738,0.028058210387826,0.0330537594854832,0.068919450044632,0.00899081956595182,0.0287482459098101,0.0471737459301949,0.0269863456487656,1.63852775096893,0.0215655714273453,0.0273860432207584,0.0596570745110512,0.0116387736052275,0.0253703780472279,0.0318802855908871,0.0260715521872044,4.29939889907837,0.0402709543704987,0.0459610745310783,0.0841738879680634,0.0127359265461564,0.0432291403412819,0.0919087678194046,0.0255991406738758,2012-01-17 13:28:00
