"diffSecs","latitude","longitude","altitude","time"
0.935999870300293,42.37224041,-70.99501196,-33.0999984741211,2012-02-07 07:00:00
0.615000009536743,42.37224034,-70.9950119,-33.0999984741211,2012-02-07 07:00:01
1.06299996376038,42.37224022,-70.99501209,-33.0999984741211,2012-02-07 07:00:02
0.877000093460083,42.37224033,-70.99501234,-33.0999984741211,2012-02-07 07:00:03
1.04999995231628,42.37224057,-70.99501221,-33,2012-02-07 07:00:04
1.1100001335144,42.37224064,-70.99501254,-32.9000015258789,2012-02-07 07:00:05
0.93399977684021,42.37224081,-70.99501218,-32.7999992370605,2012-02-07 07:00:06
0.968000173568726,42.37224079,-70.99501193,-32.7999992370605,2012-02-07 07:00:07
1.00899982452393,42.3722409,-70.99501228,-32.7999992370605,2012-02-07 07:00:08
0.732000112533569,42.37224082,-70.99501204,-32.7999992370605,2012-02-07 07:00:09
1.34999990463257,42.37224096,-70.99501238,-32.7000007629395,2012-02-07 07:00:10
0.961000204086304,42.37224084,-70.99501212,-32.7000007629395,2012-02-07 07:00:11
0.965999841690063,42.37224083,-70.99501206,-32.7000007629395,2012-02-07 07:00:12
1.21000003814697,42.37224082,-70.99501165,-32.7000007629395,2012-02-07 07:00:13
0.959000110626221,42.37224087,-70.9950116,-32.5999984741211,2012-02-07 07:00:14
0.893999814987183,42.37224094,-70.99501204,-32.7000007629395,2012-02-07 07:00:15
1.17200016975403,42.37224091,-70.99501196,-32.7000007629395,2012-02-07 07:00:16
0.837999820709229,42.37224083,-70.99501179,-32.7000007629395,2012-02-07 07:00:17
0.897000074386597,42.37224073,-70.9950115,-32.7000007629395,2012-02-07 07:00:18
0.736000061035156,42.37224083,-70.99501171,-32.7000007629395,2012-02-07 07:00:19
1.18400001525879,42.37224083,-70.99501164,-32.5999984741211,2012-02-07 07:00:20
1.07999992370605,42.37224088,-70.99501155,-32.5999984741211,2012-02-07 07:00:21
1.01900005340576,42.37224076,-70.99501094,-32.5,2012-02-07 07:00:22
0.925999879837036,42.37224079,-70.99501078,-32.5,2012-02-07 07:00:23
1.03500008583069,42.37224079,-70.99501077,-32.5,2012-02-07 07:00:24
0.976999998092651,42.37224103,-70.9950108,-32.4000015258789,2012-02-07 07:00:25
1.03600001335144,42.37224106,-70.99501074,-32.4000015258789,2012-02-07 07:00:26
0.990999937057495,42.37224097,-70.99501056,-32.4000015258789,2012-02-07 07:00:27
1.02100014686584,42.37224099,-70.99501065,-32.4000015258789,2012-02-07 07:00:28
1.00999999046326,42.37224104,-70.9950105,-32.4000015258789,2012-02-07 07:00:29
0.886999845504761,42.37224091,-70.99501073,-32.4000015258789,2012-02-07 07:00:30
1.14499998092651,42.37224091,-70.99501073,-32.4000015258789,2012-02-07 07:00:31
0.922000169754028,42.37224093,-70.99501077,-32.4000015258789,2012-02-07 07:00:32
0.997999906539917,42.37224094,-70.99501095,-32.4000015258789,2012-02-07 07:00:33
0.999000072479248,42.37224093,-70.99501096,-32.4000015258789,2012-02-07 07:00:34
0.977999925613403,42.37224095,-70.99501086,-32.4000015258789,2012-02-07 07:00:35
1.07999992370605,42.37224093,-70.99501093,-32.4000015258789,2012-02-07 07:00:36
1.00400018692017,42.37224093,-70.99501093,-32.4000015258789,2012-02-07 07:00:37
0.99399995803833,42.37224093,-70.99501095,-32.4000015258789,2012-02-07 07:00:38
0.919999837875366,42.37224085,-70.99501129,-32.4000015258789,2012-02-07 07:00:39
0.998000144958496,42.37224085,-70.99501129,-32.4000015258789,2012-02-07 07:00:40
1.08299994468689,42.37224083,-70.99501127,-32.4000015258789,2012-02-07 07:00:41
0.947999954223633,42.37224084,-70.99501173,-32.5,2012-02-07 07:00:42
1.04800009727478,42.37224084,-70.99501173,-32.5,2012-02-07 07:00:43
1.02099990844727,42.37224084,-70.99501173,-32.5,2012-02-07 07:00:44
0.930999994277954,42.37224091,-70.99501159,-32.5,2012-02-07 07:00:45
0.842000007629395,42.3722409,-70.99501161,-32.5,2012-02-07 07:00:46
1.13199996948242,42.37224094,-70.99501153,-32.5,2012-02-07 07:00:47
1.10300016403198,42.37224116,-70.99501097,-32.5,2012-02-07 07:00:48
0.972999811172485,42.37224116,-70.99501101,-32.5,2012-02-07 07:00:49
0.969000101089478,42.37224113,-70.99501121,-32.5,2012-02-07 07:00:50
1.02999997138977,42.37224101,-70.99501204,-32.5,2012-02-07 07:00:51
1.0310001373291,42.37224096,-70.99501237,-32.5,2012-02-07 07:00:52
0.93999981880188,42.37224096,-70.99501237,-32.5,2012-02-07 07:00:53
0.973999977111816,42.37224098,-70.99501226,-32.5999984741211,2012-02-07 07:00:54
0.989000082015991,42.37224098,-70.99501226,-32.5999984741211,2012-02-07 07:00:55
1.01800012588501,42.37224089,-70.9950128,-32.5999984741211,2012-02-07 07:00:56
0.942999839782715,42.37224079,-70.99501322,-32.7000007629395,2012-02-07 07:00:57
1.03400015830994,42.37224079,-70.99501322,-32.7000007629395,2012-02-07 07:00:58
1.07499980926514,42.37224078,-70.9950132,-32.7000007629395,2012-02-07 07:00:59
1.12700009346008,42.3722408,-70.99501316,-32.7000007629395,2012-02-07 07:01:00
0.868000030517578,42.37224079,-70.99501318,-32.7000007629395,2012-02-07 07:01:01
0.815000057220459,42.37224081,-70.99501323,-32.7000007629395,2012-02-07 07:01:02
1.20299983024597,42.37224082,-70.99501321,-32.7000007629395,2012-02-07 07:01:03
0.991000175476074,42.37224084,-70.99501331,-32.7000007629395,2012-02-07 07:01:04
0.996999979019165,42.37224087,-70.99501328,-32.7000007629395,2012-02-07 07:01:05
0.973999977111816,42.37224087,-70.99501321,-32.7000007629395,2012-02-07 07:01:06
0.922999858856201,42.37224088,-70.99501315,-32.5999984741211,2012-02-07 07:01:07
1.05200004577637,42.37224088,-70.99501315,-32.5999984741211,2012-02-07 07:01:08
1.0090000629425,42.37224088,-70.99501315,-32.5999984741211,2012-02-07 07:01:09
0.897000074386597,42.37224088,-70.99501315,-32.5999984741211,2012-02-07 07:01:10
1.06199979782104,42.37224085,-70.9950135,-32.7000007629395,2012-02-07 07:01:11
1.00300002098083,42.37224069,-70.99501334,-32.7000007629395,2012-02-07 07:01:12
0.838000059127808,42.37224071,-70.99501318,-32.7000007629395,2012-02-07 07:01:13
1.2260000705719,42.37224071,-70.99501318,-32.7000007629395,2012-02-07 07:01:14
1.02900004386902,42.37224066,-70.99501323,-32.7000007629395,2012-02-07 07:01:15
0.957000017166138,42.37224051,-70.99501374,-32.7999992370605,2012-02-07 07:01:16
0.977999925613403,42.37224045,-70.99501418,-32.7999992370605,2012-02-07 07:01:17
0.917999982833862,42.37224043,-70.99501422,-32.7999992370605,2012-02-07 07:01:18
1.12100005149841,42.37224042,-70.99501425,-32.7999992370605,2012-02-07 07:01:19
1.06099987030029,42.37224047,-70.99501409,-32.7999992370605,2012-02-07 07:01:20
0.967000007629395,42.37224047,-70.99501409,-32.7999992370605,2012-02-07 07:01:21
0.92900013923645,42.37224049,-70.9950142,-32.7999992370605,2012-02-07 07:01:22
0.848999977111816,42.37224049,-70.9950142,-32.7999992370605,2012-02-07 07:01:23
1.22199988365173,42.37224048,-70.99501404,-32.7999992370605,2012-02-07 07:01:24
0.934999942779541,42.37224048,-70.99501404,-32.7999992370605,2012-02-07 07:01:25
1.14000010490417,42.37224042,-70.99501421,-32.7999992370605,2012-02-07 07:01:26
0.915999889373779,42.37224038,-70.9950146,-32.7999992370605,2012-02-07 07:01:27
0.873000144958496,42.37224038,-70.9950146,-32.7999992370605,2012-02-07 07:01:28
1.0149998664856,42.37224031,-70.99501515,-32.7999992370605,2012-02-07 07:01:29
1.14100003242493,42.37224025,-70.99501529,-32.9000015258789,2012-02-07 07:01:30
0.975000143051147,42.37224025,-70.99501529,-32.9000015258789,2012-02-07 07:01:31
1.01899981498718,42.37224026,-70.99501553,-32.9000015258789,2012-02-07 07:01:32
0.988000154495239,42.3722402,-70.99501533,-32.9000015258789,2012-02-07 07:01:33
0.889999866485596,42.37224012,-70.99501644,-32.9000015258789,2012-02-07 07:01:34
1.08899998664856,42.37224013,-70.99501677,-32.9000015258789,2012-02-07 07:01:35
1.01100015640259,42.37224017,-70.99501626,-32.9000015258789,2012-02-07 07:01:36
1.19099998474121,42.37224004,-70.9950153,-32.9000015258789,2012-02-07 07:01:37
0.99399995803833,42.37223991,-70.9950161,-33,2012-02-07 07:01:38
0.709000110626221,42.37223963,-70.99501768,-33.0999984741211,2012-02-07 07:01:39
