"diffSecs","N.samples","x.mean","x.absolute.deviation","x.standard.deviation","x.max.deviation","x.PSD.1","x.PSD.3","x.PSD.6","x.PSD.10","y.mean","y.absolute.deviation","y.standard.deviation","y.max.deviation","y.PSD.1","y.PSD.3","y.PSD.6","y.PSD.10","z.mean","z.absolute.deviation","z.standard.deviation","z.max.deviation","z.PSD.1","z.PSD.3","z.PSD.6","z.PSD.10","time"
1.65799999237061,54,-4.93631172180176,0.26649534702301,0.316414207220078,0.714004397392273,24.7448787689209,41.8100738525391,10.5164747238159,3.02107095718384,5.22645378112793,0.380063891410828,0.412894934415817,0.73032009601593,52.9604110717773,65.2071533203125,4.46198749542236,1.33348441123962,6.80591726303101,0.390402644872665,0.44699364900589,0.906604409217834,58.773307800293,85.5549240112305,12.9701566696167,2.97218608856201,2012-02-07 07:00:01
8.29199981689453,61,-5.58971500396729,0.108580090105534,0.135400146245956,0.303317785263062,2.34840059280396,2.61233949661255,0.390444964170456,0.574813723564148,5.82112884521484,0.083964928984642,0.106405340135098,0.288873910903931,1.65527534484863,2.49815559387207,0.943001806735992,0.179245233535767,5.7960090637207,0.143191367387772,0.160935118794441,0.352301120758057,8.03229427337646,8.02133464813232,0.570891559123993,0.21730899810791,2012-02-07 07:00:09
0.585999965667725,99,-5.66424608230591,0.0650766789913177,0.0807963684201241,0.22461973130703,0.00517298188060522,0.20831872522831,0.288077503442764,0.97743159532547,5.98405313491821,0.0741637572646141,0.0978575423359871,0.333736896514893,1.43442821502686,1.08161127567291,0.737498819828033,0.12681470811367,5.54100513458252,0.0942965224385262,0.113795749843121,0.281693667173386,0.077270545065403,1.42608451843262,0.25242418050766,0.521850407123566,2012-02-07 07:00:10
0.223000049591064,99,-5.63638639450073,0.133635684847832,0.167217269539833,0.464910268783569,4.19292449951172,6.89042663574219,0.502165973186493,0.317146569490433,6.00282001495361,0.131540611386299,0.176113113760948,0.620654404163361,7.11015462875366,6.72710847854614,0.52687668800354,0.94021612405777,5.56460857391357,0.233951210975647,0.282043188810349,0.756084084510803,13.7753238677979,22.5731639862061,0.368274360895157,0.384915471076965,2012-02-07 07:00:10
0.400000095367432,99,-4.98845243453979,0.143297374248505,0.175698146224022,0.432020366191864,8.27841091156006,9.95241451263428,1.19983673095703,0.236669182777405,5.29549026489258,0.209319829940796,0.247950732707977,0.565515339374542,6.13353490829468,13.7473859786987,0.747692406177521,0.437132179737091,6.68209600448608,0.220865547657013,0.262362003326416,0.667861461639404,14.6026000976562,17.7609329223633,0.351570159196854,0.463796734809875,2012-02-07 07:00:11
0.437999963760376,99,-4.85650491714478,0.194416686892509,0.216359943151474,0.468199580907822,4.16608333587646,12.1835355758667,4.06315422058105,7.56823825836182,5.39435386657715,0.300477802753448,0.358914643526077,1.1753351688385,32.2145957946777,98.3908538818359,6.1240873336792,11.8918828964233,6.75890398025513,0.271609634160995,0.308053135871887,0.648901462554932,28.1617889404297,59.2341690063477,1.67633521556854,0.923235774040222,2012-02-07 07:00:11
0.0829999446868896,99,-4.4873628616333,0.0486412644386292,0.060937438160181,0.186119243502617,0.157424047589302,0.193755879998207,0.0914847105741501,0.0518281161785126,5.00896024703979,0.056000966578722,0.0685132145881653,0.20082300901413,0.0809798762202263,0.294940382242203,0.139027401804924,0.178085714578629,7.23677682876587,0.0567318834364414,0.0724397748708725,0.194824978709221,0.0986744537949562,0.0953989177942276,0.188840568065643,0.135325759649277,2012-02-07 07:00:11
0.160000085830688,99,-4.45137691497803,0.0396360792219639,0.0517193041741848,0.164643526077271,0.0349373742938042,0.181944727897644,0.250230669975281,0.332389682531357,4.97084617614746,0.0565950609743595,0.0711130723357201,0.335672050714493,6.85037157381885e-05,0.118737123906612,0.765670657157898,0.497686564922333,7.28727293014526,0.0488718636333942,0.0621580146253109,0.181282475590706,0.0136658931151032,0.0978398397564888,0.129651039838791,0.562017023563385,2012-02-07 07:00:11
0.73199987411499,99,-4.44131660461426,0.0355751514434814,0.0456574335694313,0.131753519177437,0.0116653051227331,0.0201366357505322,0.051139872521162,0.093879722058773,4.93737602233887,0.0418756492435932,0.0532469786703587,0.176638707518578,7.55701112211682e-05,0.051376961171627,0.130823090672493,0.0773951411247253,7.30971527099609,0.0478751920163631,0.0609626024961472,0.165417417883873,0.000904014625120908,0.0702758580446243,0.110561482608318,0.115487419068813,2012-02-07 07:00:12
0.539000034332275,99,-4.41500473022461,0.034922432154417,0.0440968833863735,0.143555223941803,0.0087520144879818,0.0659426897764206,0.0325692370533943,0.0802529752254486,4.91435289382935,0.0421531535685062,0.0540438033640385,0.1422009319067,0.0139703480526805,0.266816705465317,0.332780569791794,0.120643869042397,7.34550762176514,0.0492353513836861,0.0594184882938862,0.143555223941803,0.000277247338090092,0.169311121106148,0.333411335945129,0.14245431125164,2012-02-07 07:00:13
1.04299998283386,60,-4.42161178588867,0.0268788784742355,0.0369793362915516,0.11779461055994,0.000118826923426241,0.0072618774138391,0.0377729199826717,0.127534970641136,4.88002157211304,0.0356256850063801,0.0450675114989281,0.119071513414383,0.00187658122740686,0.0345459207892418,0.0399322472512722,0.0768123716115952,7.35786056518555,0.0666545107960701,0.0803405195474625,0.194408982992172,0.0575156286358833,0.11551421135664,0.138769760727882,0.180331110954285,2012-02-07 07:00:14
1.37800002098083,88,-4.39901924133301,0.040557935833931,0.0507349781692028,0.140387147665024,0.00679504824802279,0.0773648619651794,0.105678468942642,0.0491790845990181,4.88090658187866,0.0396922640502453,0.0503638572990894,0.156493574380875,0.0150622967630625,0.019793251529336,0.0892280116677284,0.083950474858284,7.36391162872314,0.0539337918162346,0.0656519681215286,0.163458526134491,0.10947573184967,0.337149322032928,0.160249546170235,0.315415620803833,2012-02-07 07:00:15
0.717000007629395,99,-4.22269487380981,0.0843885540962219,0.100038170814514,0.201790079474449,1.01324188709259,2.36887741088867,0.221254110336304,0.103340275585651,4.77505397796631,0.0792292132973671,0.0971111729741096,0.293108463287354,0.0733450204133987,0.339426219463348,0.196636155247688,0.14528776705265,7.53975248336792,0.0823170244693756,0.100518554449081,0.280532598495483,0.781014740467072,1.61100876331329,0.0466846600174904,0.140849903225899,2012-02-07 07:00:16
1.03200006484985,83,-4.09702730178833,0.0493618063628674,0.0619839541614056,0.155075281858444,0.138502523303032,0.232449263334274,0.107298515737057,0.217536821961403,4.70440435409546,0.0549391619861126,0.0668036863207817,0.141459822654724,0.140033438801765,0.48478639125824,0.0601067133247852,0.127953618764877,7.6471381187439,0.0425222180783749,0.051312267780304,0.138921663165092,0.107305333018303,0.125493079423904,0.190741136670113,0.0464965403079987,2012-02-07 07:00:17
1.06099987030029,90,-4.66262817382812,0.0969883501529694,0.139002725481987,0.429679274559021,3.28627324104309,1.80486083030701,0.592682898044586,0.494628310203552,5.14040422439575,0.105170026421547,0.156872138381004,0.524383664131165,4.49399280548096,2.0452892780304,0.410206079483032,0.139098033308983,7.05682945251465,0.114311665296555,0.170218333601952,0.604615986347198,5.97433185577393,2.49175500869751,0.406625777482986,0.19324254989624,2012-02-07 07:00:18
1.00400018692017,91,-6.14894151687622,1.30093777179718,1.39355230331421,2.52890849113464,70.909294128418,744.543579101562,54.1775207519531,108.939636230469,4.15738677978516,1.64724779129028,1.9734593629837,4.07866668701172,169.379028320312,2344.9873046875,99.7456130981445,114.898895263672,6.55453491210938,1.12136876583099,1.41455590724945,3.45164942741394,344.616119384766,833.37890625,23.4259052276611,10.5267934799194,2012-02-07 07:00:19
1.08499979972839,85,-7.76239633560181,0.663968920707703,0.876495659351349,2.58055543899536,9.20608520507812,203.064422607422,53.080020904541,25.8324375152588,-5.07413005828857,1.57576048374176,2.18982458114624,5.59127759933472,769.954833984375,1393.63525390625,756.439331054688,153.916030883789,-0.541934609413147,1.02438032627106,1.2384375333786,3.31920838356018,306.484008789062,284.817626953125,107.446044921875,90.4172592163086,2012-02-07 07:00:20
1.00200009346008,89,-7.73504686355591,0.105234824120998,0.138711258769035,0.39921298623085,0.145679414272308,5.56679344177246,4.64460706710815,1.25067472457886,-5.55519342422485,0.138086929917336,0.170747548341751,0.383717656135559,0.350189477205276,6.34448194503784,8.93214893341064,2.46978616714478,-1.78666627407074,0.11747033149004,0.144791454076767,0.350145220756531,0.0998560264706612,9.32281589508057,4.06760549545288,0.926737189292908,2012-02-07 07:00:21
1,88,-7.67907571792603,0.0696940049529076,0.091230034828186,0.250520378351212,0.426904827356339,3.98707699775696,0.379060000181198,0.527455508708954,-5.60352039337158,0.106720149517059,0.123754911124706,0.278815627098083,2.82062220573425,11.0483694076538,0.828952074050903,0.116772212088108,-1.87030684947968,0.0827978178858757,0.103106535971165,0.280556887388229,1.70015227794647,2.97057461738586,0.228315442800522,0.483057647943497,2012-02-07 07:00:22
1.00799989700317,86,-7.82647848129272,0.163732752203941,0.197267010807991,0.581958472728729,3.37379813194275,15.0152339935303,3.01250839233398,0.465779513120651,-5.407555103302,0.22998833656311,0.261684507131577,0.59999805688858,9.68189716339111,26.1015129089355,2.10481786727905,0.685670137405396,-1.58017313480377,0.108240187168121,0.136151164770126,0.392649054527283,0.127698987722397,5.99203681945801,1.86431586742401,0.424507200717926,2012-02-07 07:00:23
1.007000207901,80,-8.51114749908447,0.675488114356995,0.867915749549866,3.07678890228271,0.0951953008770943,88.5811233520508,330.960845947266,76.0898971557617,-4.53653335571289,0.913866817951202,1.10171210765839,2.75524735450745,53.7219429016113,401.097839355469,149.318908691406,249.849700927734,-0.103429511189461,0.74526709318161,1.11687326431274,6.979576587677,170.825454711914,115.617027282715,260.584625244141,93.274040222168,2012-02-07 07:00:24
1.02099990844727,82,-8.41053867340088,0.725011587142944,0.959095180034637,3.46470165252686,0.0476753525435925,79.759033203125,99.9379272460938,88.4107208251953,-5.13153314590454,0.914149224758148,1.32170498371124,4.46442747116089,4.98200845718384,192.779708862305,127.279144287109,342.46630859375,-0.483044773340225,0.744826018810272,1.01896870136261,4.16053867340088,22.8558540344238,290.980926513672,78.0732116699219,31.6346340179443,2012-02-07 07:00:25
1.00799989700317,61,-8.65335178375244,1.73892784118652,2.46884536743164,7.01430463790894,92.516731262207,449.150543212891,339.995086669922,302.546142578125,-4.49199342727661,1.50661361217499,2.13843083381653,6.54142999649048,229.740112304688,245.685684204102,288.452423095703,289.712738037109,-0.655618786811829,1.51376867294312,2.04098796844482,6.65069961547852,159.809631347656,276.202728271484,217.537811279297,31.2296237945557,2012-02-07 07:00:26
1.01200008392334,94,-8.50277805328369,0.864999413490295,1.32510662078857,5.23036289215088,25.670690536499,103.598609924316,248.567840576172,297.804809570312,-4.66308975219727,1.05897200107574,1.36743545532227,4.26249408721924,299.884002685547,490.920166015625,614.771545410156,275.7158203125,-0.457241594791412,0.716938197612762,0.955315053462982,3.02382564544678,45.8042907714844,68.5531616210938,70.7499618530273,40.3136672973633,2012-02-07 07:00:27
1.00500011444092,78,-8.30088138580322,0.293839991092682,0.398457467556,1.19931125640869,17.1142444610596,69.0901565551758,17.4350452423096,11.6861324310303,-4.93033647537231,0.328092187643051,0.431432783603668,1.35204875469208,23.8751163482666,77.2862701416016,16.6075420379639,9.64065742492676,-0.9952512383461,0.484431535005569,0.75378805398941,2.64246201515198,4.42050313949585,137.464370727539,94.9088363647461,13.9035129547119,2012-02-07 07:00:28
1.01099991798401,80,-8.4886417388916,1.74878478050232,2.5084764957428,7.4088568687439,26.9847259521484,1187.58093261719,2708.9580078125,609.292419433594,-4.49032545089722,1.42009079456329,2.10023522377014,7.21013832092285,3.29080629348755,484.503662109375,957.062133789062,443.085693359375,-0.845392644405365,1.13304400444031,1.63462865352631,7.14693164825439,0.33218589425087,89.1390686035156,203.245346069336,254.377838134766,2012-02-07 07:00:29
1.01399993896484,83,-8.55266571044922,1.20026898384094,1.46367883682251,3.26511406898499,14.8246011734009,194.896377563477,918.85400390625,173.327545166016,-4.74940395355225,1.2848185300827,1.75504076480865,5.26655149459839,125.573356628418,566.533386230469,1260.15405273438,598.410766601562,-0.229381829500198,0.740776896476746,0.901036858558655,2.22135758399963,64.1192092895508,103.834281921387,95.138801574707,46.8055839538574,2012-02-07 07:00:30
1.02699995040894,82,-8.47173690795898,0.832817614078522,1.12397253513336,2.96297097206116,37.0563926696777,94.7086791992188,397.198791503906,254.469940185547,-4.70454788208008,0.901843547821045,1.46654975414276,7.04128885269165,2.72228002548218,69.7239227294922,192.324600219727,522.720825195312,-0.68976366519928,0.735465705394745,1.11866116523743,5.43985986709595,16.6789989471436,120.505180358887,140.438720703125,109.652709960938,2012-02-07 07:00:31
1.01800012588501,86,-8.57502841949463,1.06021308898926,1.66277933120728,7.09262752532959,117.577575683594,85.9298553466797,142.188140869141,745.812805175781,-4.07882881164551,1.35703718662262,1.75248062610626,5.67036056518555,515.098815917969,274.317443847656,28.3000564575195,415.797149658203,-0.578840017318726,0.900349318981171,1.14680671691895,4.1797194480896,202.270111083984,270.255676269531,19.3049335479736,88.105827331543,2012-02-07 07:00:32
1.00399994850159,80,-8.5511302947998,0.87084299325943,1.1433516740799,3.93702554702759,2.72710108757019,15.2383317947388,282.680450439453,448.743530273438,-4.47141122817993,1.18625509738922,1.59655129909515,4.08833885192871,142.677459716797,445.293975830078,497.114349365234,779.188354492188,-0.087148942053318,0.77344685792923,1.03803443908691,4.33925151824951,14.1143074035645,121.448760986328,41.0680503845215,64.0926666259766,2012-02-07 07:00:33
1.00999999046326,84,-8.35690402984619,0.611971080303192,0.771280467510223,2.08181571960449,2.56776332855225,39.5262641906738,235.173889160156,50.4079971313477,-4.91335773468018,0.800043404102325,1.0936644077301,3.72583389282227,68.3523864746094,217.359588623047,182.594650268555,263.369476318359,-0.871489405632019,0.564803600311279,0.719305634498596,1.944091796875,2.89772415161133,100.202026367188,142.335906982422,89.6887130737305,2012-02-07 07:00:34
1.00399994850159,77,-8.40047645568848,1.16723656654358,1.80533218383789,6.63510990142822,0.536573946475983,127.199661254883,321.035980224609,299.187561035156,-4.66029787063599,0.688612639904022,1.02314853668213,4.36105394363403,10.3281593322754,67.8888397216797,26.2286510467529,96.6269302368164,-0.872608780860901,0.862549006938934,1.31817734241486,5.68016576766968,10.4927864074707,7.65021371841431,86.057991027832,129.523101806641,2012-02-07 07:00:35
1.00400018692017,85,-8.37260818481445,0.784659266471863,1.14532613754272,5.30307245254517,10.7196989059448,191.374389648438,202.759124755859,278.271514892578,-4.42921686172485,1.05835044384003,1.36261236667633,4.68790292739868,36.2213439941406,765.876647949219,254.641693115234,340.90966796875,-0.519400954246521,0.852143585681915,1.25494623184204,4.80981063842773,84.9792022705078,122.845153808594,51.0049209594727,71.2186279296875,2012-02-07 07:00:36
1.00499987602234,76,-8.22118473052979,0.712968111038208,0.981835246086121,2.84960389137268,3.84236359596252,44.2552185058594,374.934051513672,144.908386230469,-4.7422833442688,0.73133909702301,0.998665332794189,2.90353655815125,26.0872287750244,335.82470703125,124.417907714844,53.9659194946289,-0.210185706615448,0.616483747959137,0.706746459007263,1.57009220123291,128.681137084961,116.899131774902,83.6547775268555,20.7675132751465,2012-02-07 07:00:37
1.00300002098083,81,-8.29256916046143,0.854360401630402,1.30307817459106,4.54035234451294,21.5964660644531,101.584297180176,39.2509460449219,40.6464462280273,-5.55502080917358,0.900199413299561,1.33831167221069,5.41999959945679,178.232559204102,148.464447021484,125.583541870117,28.6612930297852,-0.564203977584839,0.747385025024414,1.06349384784698,4.31831216812134,136.707458496094,112.002464294434,27.7990455627441,36.946849822998,2012-02-07 07:00:38
1.00500011444092,83,-8.25497627258301,1.01099610328674,1.36604535579681,4.71201944351196,20.4649868011475,250.876678466797,581.64111328125,271.764190673828,-4.61486721038818,1.12038493156433,1.56971621513367,7.37529468536377,0.366839826107025,407.085205078125,1069.74816894531,390.761413574219,-0.45207142829895,0.792863428592682,1.14821231365204,4.99147796630859,34.0710258483887,116.123870849609,39.4248313903809,58.5826568603516,2012-02-07 07:00:39
1.00899982452393,84,-8.39407157897949,1.2763375043869,1.59540975093842,3.5003228187561,64.0950927734375,751.787231445312,664.763427734375,660.623046875,-4.50292348861694,1.11583912372589,1.44099116325378,3.870854139328,15.4072961807251,288.433929443359,350.730163574219,323.307495117188,-0.170558363199234,0.9899942278862,1.2497593164444,4.00128126144409,7.45569515228271,345.362548828125,96.3736190795898,390.317169189453,2012-02-07 07:00:40
1.00699996948242,77,-8.56166553497314,1.22334372997284,1.66367590427399,6.56968927383423,20.141731262207,342.997497558594,211.897491455078,160.477905273438,-5.09212493896484,1.05000174045563,1.37350642681122,5.61474514007568,77.1205291748047,125.49267578125,201.506988525391,168.836212158203,-0.508441388607025,0.705992698669434,1.00858747959137,4.27996206283569,5.94320249557495,79.6747207641602,127.587623596191,69.0418930053711,2012-02-07 07:00:41
1.007000207901,84,-8.1779088973999,1.17670941352844,1.5504105091095,4.09818935394287,114.563835144043,760.744567871094,638.683227539062,379.459197998047,-4.71338510513306,1.44853007793427,1.99649429321289,8.36853313446045,32.3200454711914,917.515563964844,1012.40985107422,1326.92883300781,-0.0376231744885445,0.893134951591492,1.05934190750122,2.96812605857849,23.7169761657715,370.627593994141,44.5305328369141,11.4899854660034,2012-02-07 07:00:42
1.01399993896484,83,-8.17259311676025,0.397741258144379,0.51055371761322,1.1432169675827,0.706880033016205,77.4778213500977,119.341621398926,26.0804195404053,-4.84447956085205,0.620250105857849,0.94541198015213,3.29580593109131,8.27889060974121,384.519226074219,186.025970458984,64.4253158569336,0.84298974275589,1.22411859035492,1.64829051494598,7.52713966369629,636.214721679688,365.962707519531,45.842529296875,69.8263397216797,2012-02-07 07:00:43
1.00600004196167,78,-8.22279357910156,0.0960703566670418,0.123419426381588,0.415486484766006,0.782806813716888,0.618995070457458,1.19653058052063,0.264918684959412,-4.84905624389648,0.191536083817482,0.257236391305923,0.769336938858032,20.0765724182129,9.43814659118652,3.12225103378296,0.343518137931824,0.799049437046051,0.214341655373573,0.263013005256653,0.637471616268158,15.3365659713745,23.2623348236084,1.8403548002243,0.374064087867737,2012-02-07 07:00:44
1.02499985694885,80,-8.06007957458496,0.065421499311924,0.0882985815405846,0.264559030532837,0.248678371310234,2.83232593536377,1.03424906730652,0.0805498585104942,-5.24928712844849,0.100885674357414,0.12126462161541,0.343567728996277,1.6716080904007,7.66991567611694,0.826822280883789,0.214816763997078,0.128808051347733,0.0632428377866745,0.0812040343880653,0.254264205694199,0.381563812494278,0.27455073595047,0.177773088216782,0.432390987873077,2012-02-07 07:00:45
1,84,-8.08875370025635,0.173435747623444,0.224069982767105,0.63799774646759,1.00383138656616,7.45796060562134,18.0193748474121,1.59995770454407,-5.16303873062134,0.247455224394798,0.376463741064072,1.3491895198822,0.639874935150146,16.9679908752441,52.5778160095215,4.00013875961304,-0.699106872081757,0.454442292451859,0.523864328861237,1.50355863571167,95.5723037719727,100.071624755859,26.9832096099854,4.80779600143433,2012-02-07 07:00:46
1.01399993896484,86,-8.13338184356689,0.294529587030411,0.344912439584732,0.912469148635864,1.72092390060425,28.3179206848145,9.18865966796875,9.90464687347412,-5.07615280151367,0.371097385883331,0.470128387212753,1.66591906547546,2.01457357406616,69.6513900756836,29.01318359375,8.33547306060791,0.247660681605339,0.380969405174255,0.520959198474884,1.60756719112396,20.3198280334473,40.6886901855469,9.81781005859375,2.6387255191803,2012-02-07 07:00:47
1.01100015640259,84,-8.14256572723389,0.0687314346432686,0.0838229581713676,0.212969735264778,0.228442460298538,0.502901434898376,1.11866307258606,0.44233825802803,-4.95873355865479,0.0770378708839417,0.105407752096653,0.323559433221817,0.113992847502232,0.589574575424194,1.17548644542694,0.864399194717407,0.882662355899811,0.069165825843811,0.0859735235571861,0.193132281303406,0.5644411444664,0.547037303447723,0.361085772514343,0.173512518405914,2012-02-07 07:00:48
1.00799989700317,80,-8.0797119140625,0.0762193500995636,0.0974974632263184,0.271263718605042,0.666917026042938,1.6723450422287,1.05703103542328,0.582876026630402,-5.11066293716431,0.108301766216755,0.133622244000435,0.322259396314621,1.46967327594757,4.21083736419678,2.71865177154541,0.295664072036743,0.843716681003571,0.0647870972752571,0.0805192440748215,0.190578401088715,0.00561810936778784,1.67901432514191,0.866435766220093,0.822508037090302,2012-02-07 07:00:49
1.00300002098083,80,-7.95210123062134,0.064667321741581,0.0833112597465515,0.226491257548332,0.697997331619263,2.2806031703949,0.370106101036072,0.366204380989075,-5.29381942749023,0.0869094654917717,0.110174603760242,0.318189114332199,2.24250221252441,7.351149559021,1.19063723087311,0.756703794002533,0.762074410915375,0.0519840978085995,0.0663979947566986,0.195606306195259,0.0354298241436481,0.119268521666527,0.169420510530472,0.108904018998146,2012-02-07 07:00:50
1.00200009346008,80,-7.91499137878418,0.137852072715759,0.176723629236221,0.445082098245621,1.19696021080017,19.215518951416,4.38019227981567,1.70325064659119,-5.3666033744812,0.224905297160149,0.285945773124695,0.743399381637573,2.44132471084595,61.0290756225586,14.3937473297119,2.7472186088562,0.752018749713898,0.0689649730920792,0.084566168487072,0.215717554092407,0.000680529046803713,1.93323183059692,1.01753449440002,0.0603769645094872,2012-02-07 07:00:51
1.01999998092651,68,-8.10873889923096,0.0997777059674263,0.125674441456795,0.357159107923508,1.64708375930786,0.892213940620422,0.0880634859204292,1.36517381668091,-5.03035879135132,0.148614495992661,0.200532838702202,0.548413097858429,5.71988344192505,3.42705798149109,1.59714913368225,1.41768670082092,0.892896413803101,0.134125009179115,0.15715816617012,0.294627666473389,3.76583552360535,13.7227621078491,2.33724141120911,1.0387247800827,2012-02-07 07:00:52
1.01199984550476,90,-7.8585147857666,0.137291088700294,0.157899305224419,0.331144839525223,8.90301418304443,14.3150901794434,0.937047839164734,1.06514799594879,-5.34109163284302,0.197461917996407,0.232147321105003,0.443299829959869,24.9995994567871,36.9167442321777,0.601882755756378,0.408434182405472,1.29584836959839,0.0758577734231949,0.0916869938373566,0.223245978355408,0.541017711162567,3.63517928123474,0.176711574196815,0.219081789255142,2012-02-07 07:00:53
1.04400014877319,83,-7.98151826858521,0.725668668746948,0.963187217712402,2.28481793403625,4.39170932769775,399.739624023438,384.012268066406,92.9950103759766,-5.12163019180298,0.759916663169861,1.06480598449707,2.70827484130859,28.4744606018066,742.511413574219,532.420104980469,88.4322738647461,1.11229419708252,0.995670974254608,1.30876886844635,3.88679885864258,92.5850830078125,783.028869628906,358.360137939453,77.6590347290039,2012-02-07 07:00:54
1.01999998092651,72,-7.99689960479736,1.08369386196136,1.59533929824829,4.83602142333984,13.3203392028809,781.885986328125,439.203399658203,615.887573242188,-4.94961309432983,0.783347308635712,1.14934420585632,3.09490466117859,13.0141000747681,567.658630371094,622.681518554688,209.924819946289,-0.271076828241348,0.761666476726532,0.852339744567871,1.84167313575745,150.482208251953,347.359680175781,66.5414199829102,11.6172313690186,2012-02-07 07:00:55
1.0090000629425,87,-8.86085796356201,1.61354959011078,2.49284911155701,8.4157018661499,408.951324462891,369.928283691406,301.304809570312,54.2017211914062,-4.92556095123291,1.91379249095917,3.18726992607117,12.0123977661133,86.4016342163086,335.744384765625,174.7734375,321.730682373047,-0.15278859436512,0.873646676540375,1.19266521930695,4.40489101409912,59.826904296875,103.111717224121,60.8889808654785,56.5899200439453,2012-02-07 07:00:56
1.0019998550415,82,-8.00807952880859,1.20844376087189,1.74312674999237,7.7553448677063,32.5840911865234,304.248504638672,348.392517089844,1101.52770996094,-4.75289916992188,1.13725292682648,1.68595087528229,6.41365718841553,153.257476806641,602.7197265625,421.479705810547,614.955017089844,0.0581615753471851,1.27091228961945,1.60502934455872,7.04782867431641,181.701446533203,514.763488769531,503.18359375,177.948364257812,2012-02-07 07:00:57
1.00200009346008,78,-7.99908924102783,0.183489263057709,0.272536665201187,0.830726683139801,0.105657681822777,1.69794857501984,5.11147928237915,2.17472958564758,-5.32323122024536,0.306231111288071,0.447216808795929,1.39968717098236,0.292310178279877,7.98078536987305,8.75155830383301,6.03217744827271,-0.623229086399078,0.189571663737297,0.283774167299271,1.21699118614197,10.1313524246216,12.2033643722534,1.53579437732697,1.46388959884644,2012-02-07 07:00:58
1.00699996948242,82,-8.05339336395264,0.0936145037412643,0.122832268476486,0.297582387924194,0.252369493246078,2.17255616188049,3.93344116210938,0.933756768703461,-5.23594379425049,0.142780423164368,0.189387068152428,0.524154841899872,1.10057997703552,4.36075496673584,5.97664928436279,5.99265575408936,-0.736713349819183,0.206154868006706,0.273685961961746,1.00486397743225,0.0135571463033557,15.1314430236816,19.5650444030762,15.3387145996094,2012-02-07 07:00:59
1.00099992752075,81,-8.05799579620361,0.0741271302103996,0.0926402360200882,0.243321597576141,0.0685578808188438,1.92812490463257,1.70450055599213,0.627238571643829,-5.2561297416687,0.109223179519176,0.131736353039742,0.333651274442673,0.0294458586722612,2.24245047569275,2.37720990180969,2.08950901031494,-0.647202968597412,0.074909582734108,0.0980680212378502,0.30243793129921,0.0596463158726692,0.552201509475708,0.66974937915802,0.18785771727562,2012-02-07 07:01:00
1.00200009346008,76,-7.95807409286499,0.117925927042961,0.146150231361389,0.315782308578491,0.754794180393219,16.8954105377197,1.49590969085693,0.417353481054306,-5.38241720199585,0.179691091179848,0.214627847075462,0.479092329740524,2.92786741256714,38.9468879699707,4.43288469314575,0.90553230047226,-0.693310379981995,0.125765219330788,0.151964202523232,0.367698967456818,0.0178978554904461,13.891321182251,1.76403343677521,1.09489166736603,2012-02-07 07:01:01
1.00200009346008,79,-7.95699262619019,0.0921005234122276,0.114260345697403,0.27906060218811,1.28095972537994,0.922728061676025,2.3904242515564,0.884353935718536,-5.37464952468872,0.124005846679211,0.154629230499268,0.467202723026276,3.28260803222656,4.35932493209839,2.49930572509766,3.34482645988464,-0.718381702899933,0.076976589858532,0.0984636843204498,0.220387786626816,0.209794029593468,0.772713184356689,1.58297228813171,0.4677354991436,2012-02-07 07:01:02
1.0019998550415,77,-7.97859954833984,0.114210888743401,0.151461645960808,0.391530245542526,0.413772910833359,2.95017528533936,10.9511222839355,0.771665513515472,-5.36127042770386,0.156168639659882,0.210275113582611,0.534559905529022,1.2640438079834,7.73988103866577,21.2715587615967,1.88461458683014,-0.721867382526398,0.115031518042088,0.140181928873062,0.350735038518906,2.42380833625793,4.66268444061279,4.84486722946167,0.289802670478821,2012-02-07 07:01:03
1.00500011444092,85,-8.00440788269043,0.110393658280373,0.138948053121567,0.423182725906372,1.30056834220886,1.76579070091248,3.75369000434875,1.43323791027069,-5.29473495483398,0.133584812283516,0.179374992847443,0.582945704460144,3.22249603271484,3.7508659362793,6.40902376174927,2.05821108818054,-0.846815049648285,0.0803629904985428,0.0992469042539597,0.272206664085388,0.372130274772644,1.03968632221222,0.874829053878784,1.44646739959717,2012-02-07 07:01:04
1.00499987602234,82,-7.94337701797485,0.175344899296761,0.221926227211952,0.588389575481415,5.88508081436157,15.2067070007324,7.36406087875366,2.19235873222351,-5.44593286514282,0.293303191661835,0.366430819034576,0.772450983524323,10.8220062255859,55.1831665039062,11.537013053894,9.39285278320312,-0.361115694046021,0.512886166572571,0.576273143291473,1.14641380310059,13.3017110824585,165.298919677734,8.23813438415527,15.7150535583496,2012-02-07 07:01:05
1.01300001144409,83,-7.79459762573242,0.209085419774055,0.265664905309677,0.918450355529785,1.74223971366882,9.35445785522461,24.6381492614746,13.2002820968628,-5.48624086380005,0.228636652231216,0.27418464422226,0.642915010452271,3.03114771842957,11.2512550354004,4.14635896682739,9.28717517852783,0.880373895168304,0.219533950090408,0.279378771781921,0.766836822032928,19.7093162536621,19.484977722168,1.35564947128296,15.9682731628418,2012-02-07 07:01:06
1.00600004196167,77,-7.80422687530518,0.0701469406485558,0.0908689871430397,0.259444147348404,1.40907759487163e-05,0.126078397035599,0.757397651672363,1.92048716545105,-5.50454950332642,0.0913325771689415,0.116492800414562,0.313920021057129,0.315504521131516,0.390159636735916,1.54976880550385,0.312846124172211,0.896737337112427,0.071865625679493,0.0885417908430099,0.207207292318344,0.549790978431702,0.291702002286911,0.564488112926483,0.328696846961975,2012-02-07 07:01:07
1.00799989700317,79,-7.74775791168213,0.0704395771026611,0.0875276997685432,0.200991541147232,0.0139486165717244,0.699421405792236,0.619037091732025,1.20226299762726,-5.5720043182373,0.0578260570764542,0.0754657536745071,0.208992466330528,0.000970272696577013,0.977986216545105,0.713810205459595,0.425889790058136,0.915494203567505,0.0816169232130051,0.100863613188267,0.30257859826088,1.52929508686066,0.76303243637085,0.80216920375824,0.49377903342247,2012-02-07 07:01:08
1.00500011444092,53,-7.79949569702148,0.263677448034286,0.303013265132904,0.608940839767456,20.5125389099121,26.9353885650635,6.93709230422974,4.42094612121582,-5.30085277557373,0.374303460121155,0.433427214622498,0.914675354957581,40.2875938415527,59.1123504638672,9.52842044830322,7.51676940917969,1.68840909004211,0.352156460285187,0.40859267115593,0.859021425247192,23.9017238616943,30.5121192932129,2.7734842300415,2.72284078598022,2012-02-07 07:01:09
1.01300001144409,99,-8.21902847290039,0.24351541697979,0.312028706073761,0.806580007076263,1.57323729991913,22.208324432373,27.1624851226807,9.65554428100586,-4.68005990982056,0.334020555019379,0.399551331996918,1.21925330162048,0.00015850919589866,45.069522857666,57.7951049804688,9.52527332305908,1.46225261688232,0.23157873749733,0.293892592191696,0.791876137256622,26.8638706207275,33.2267379760742,14.4666919708252,7.01385641098022,2012-02-07 07:01:10
1.00799989700317,79,-8.47365570068359,0.0962929055094719,0.117539502680302,0.333370357751846,1.74157893657684,2.15484857559204,1.03009712696075,1.03906345367432,-4.05014085769653,0.138178586959839,0.163429871201515,0.336036831140518,3.68850445747375,6.20634508132935,1.74954473972321,0.740335762500763,1.85693073272705,0.078492671251297,0.0968001335859299,0.248027190566063,0.0267639197409153,0.45434695482254,0.567271173000336,0.437666714191437,2012-02-07 07:01:11
1,79,-8.56942367553711,0.062165554612875,0.07548588514328,0.164623931050301,0.0384851358830929,0.165139466524124,0.706004977226257,0.461544036865234,-3.88381934165955,0.0861897021532059,0.116524778306484,0.349129348993301,1.5199328660965,0.986084342002869,0.437191367149353,0.377694427967072,1.82759416103363,0.098655991256237,0.11647130548954,0.260149836540222,0.20700891315937,1.38539791107178,0.286882251501083,0.555029451847076,2012-02-07 07:01:12
1.00699996948242,83,-8.55012702941895,0.114415638148785,0.152967348694801,0.448148846626282,0.0217517055571079,2.96013474464417,8.10245323181152,6.46453762054443,-3.91749095916748,0.190246045589447,0.247837543487549,0.641068994998932,1.38902842998505,19.8303680419922,32.4571304321289,5.41621732711792,1.82213175296783,0.114721491932869,0.145072624087334,0.380533844232559,2.67724466323853,6.41661214828491,4.17255544662476,0.675587713718414,2012-02-07 07:01:13
1.00500011444092,77,-8.53853225708008,0.0765627175569534,0.0967991501092911,0.264171302318573,0.00412639603018761,0.915942907333374,2.21026253700256,1.65978991985321,-3.97972297668457,0.12805038690567,0.159015700221062,0.521376252174377,0.32926669716835,4.81232261657715,12.117091178894,0.606177389621735,1.7710874080658,0.0672783330082893,0.0911328792572021,0.33581018447876,0.20287723839283,2.19603276252747,1.36251783370972,0.421780437231064,2012-02-07 07:01:14
1.00799989700317,80,-8.42184448242188,0.0796312913298607,0.0964077785611153,0.235589429736137,0.264009863138199,0.387709945440292,1.50031507015228,0.807021260261536,-4.10988664627075,0.0937211066484451,0.112981028854847,0.260010212659836,0.0533450357615948,1.26556921005249,1.8668886423111,1.37281239032745,1.93954277038574,0.151930034160614,0.200581938028336,0.627041339874268,0.855567991733551,6.15959358215332,3.65235710144043,4.05796194076538,2012-02-07 07:01:15
1.02300000190735,71,-8.32238006591797,0.11747532337904,0.155268266797066,0.430821478366852,0.381094396114349,1.39587163925171,1.11583006381989,3.3268301486969,-3.97558879852295,0.187607392668724,0.217643767595291,0.393862962722778,6.94793033599854,5.73416042327881,10.1773290634155,0.993974566459656,2.5172164440155,0.145728573203087,0.199482262134552,0.755084037780762,3.72138524055481,1.70198285579681,0.83657830953598,1.66228783130646,2012-02-07 07:01:16
1.01200008392334,77,-8.47982692718506,0.106916584074497,0.127149656414986,0.349988579750061,0.0635565966367722,0.730520904064178,0.43719807267189,2.65195989608765,-3.79266428947449,0.14153453707695,0.180747389793396,0.459438115358353,0.39785960316658,6.82593250274658,8.43939876556396,4.03427124023438,2.3165922164917,0.128890365362167,0.15733714401722,0.382077246904373,1.74219059944153,9.40262126922607,1.63254225254059,2.06591320037842,2012-02-07 07:01:17
1.00099992752075,87,-8.40755558013916,0.118333011865616,0.140627294778824,0.441413640975952,1.75703239440918,2.41973304748535,0.770073652267456,3.54437708854675,-4.01059055328369,0.141674473881721,0.176010131835938,0.428864687681198,5.64668273925781,10.4218301773071,7.65164756774902,1.88408625125885,2.20442676544189,0.0920456275343895,0.116221770644188,0.289065420627594,0.145008236169815,0.6117804646492,0.533872902393341,0.804912924766541,2012-02-07 07:01:18
1.01300001144409,79,-8.37716007232666,0.154917120933533,0.186802849173546,0.505025148391724,0.437456279993057,2.47745895385742,7.75363540649414,4.28233242034912,-4.14227199554443,0.273951053619385,0.33122792840004,0.703592300415039,2.86598062515259,16.1430435180664,49.6998100280762,2.89358615875244,2.13041520118713,0.177572190761566,0.213589116930962,0.455322712659836,0.912036955356598,1.30389666557312,6.77136850357056,5.32088947296143,2012-02-07 07:01:19
1.00200009346008,78,-8.33648777008057,0.117239110171795,0.167095363140106,0.579273879528046,1.47115075588226,0.978954195976257,3.68149971961975,3.96973705291748,-4.20937490463257,0.195842906832695,0.271738469600677,0.876646101474762,6.4904637336731,6.95457553863525,14.4581098556519,3.8234384059906,2.086270570755,0.100377075374126,0.138722464442253,0.442006409168243,0.131294161081314,1.03430998325348,1.39321911334991,1.39911079406738,2012-02-07 07:01:20
1.00300002098083,78,-8.29989910125732,0.171727955341339,0.243064478039742,1.00237238407135,0.0718981474637985,1.27396833896637,0.422767221927643,4.36073207855225,-4.36309480667114,0.196548014879227,0.285437762737274,0.827534556388855,2.46469808189431e-05,3.33806777000427,3.27429556846619,7.32073450088501,2.00867390632629,0.122112162411213,0.157209277153015,0.457231104373932,0.0105655239894986,1.27762925624847,0.57532924413681,1.65460979938507,2012-02-07 07:01:21
1.02199983596802,79,-8.30903148651123,0.0730240121483803,0.0911256670951843,0.245360344648361,0.000285292597254738,0.325066149234772,0.198071882128716,0.7789546251297,-4.31974601745605,0.110336586833,0.143327206373215,0.372889518737793,0.764728844165802,4.02523851394653,1.71904516220093,1.1376086473465,1.99124848842621,0.0662350878119469,0.0885599404573441,0.307185083627701,0.151176676154137,0.479873597621918,0.506585121154785,1.73464596271515,2012-02-07 07:01:22
1,77,-8.23083019256592,0.131022617220879,0.164088800549507,0.44575709104538,0.927747786045074,3.74785923957825,5.82917833328247,2.6819326877594,-4.47199583053589,0.161137118935585,0.209763035178185,0.564658403396606,2.18135404586792,11.8024444580078,21.9287700653076,2.40585541725159,1.99098086357117,0.105088040232658,0.132300853729248,0.364913761615753,0.090515173971653,0.774884462356567,0.786968529224396,0.907252669334412,2012-02-07 07:01:23
1.01500010490417,80,-8.23868751525879,0.0935475304722786,0.118989564478397,0.270784139633179,0.00664651766419411,1.19268870353699,1.3122889995575,3.83879470825195,-4.43430089950562,0.0806845277547836,0.0988311767578125,0.258334577083588,0.00300116906873882,1.35574352741241,1.67883718013763,0.841536045074463,2.01519966125488,0.10989385843277,0.136907935142517,0.34883514046669,0.0190389901399612,1.94428944587708,0.691348552703857,4.34155797958374,2012-02-07 07:01:25
1.00300002098083,82,-8.26455020904541,0.0896837115287781,0.113007850944996,0.258807867765427,0.546322047710419,0.923146724700928,0.80028110742569,0.560624837875366,-4.52048635482788,0.117479622364044,0.147106274962425,0.383305996656418,4.1585488319397,2.30089378356934,1.01437103748322,0.504587888717651,1.66426217556,0.0857753902673721,0.108596928417683,0.304355591535568,0.614945292472839,2.07209539413452,0.549397647380829,1.16693234443665,2012-02-07 07:01:26
1.01799988746643,76,-8.27990531921387,0.093248076736927,0.115500777959824,0.331155896186829,0.259260505437851,1.71495246887207,0.966623604297638,3.11019730567932,-4.48874998092651,0.0992565229535103,0.121920682489872,0.280499786138535,0.541020274162292,6.12208652496338,0.924720644950867,0.489452809095383,1.72382521629333,0.0977842435240746,0.121694684028625,0.287304162979126,0.454477936029434,1.14879524707794,0.393519282341003,1.4902468919754,2012-02-07 07:01:27
1.00800013542175,88,-8.55709457397461,0.14287543296814,0.183192193508148,0.579178690910339,0.436801314353943,6.32230710983276,10.5155057907104,7.69409322738647,-4.22206592559814,0.128099739551544,0.160089164972305,0.355647593736649,3.21054887771606,6.1439037322998,6.76528787612915,1.3247435092926,1.24781441688538,0.356800347566605,0.405678421258926,0.826434910297394,14.6408643722534,53.1238746643066,5.88414669036865,7.21557426452637,2012-02-07 07:01:28
1.00099992752075,76,-8.4812707901001,0.367990881204605,0.489241927862167,1.40199398994446,11.0985803604126,88.7673492431641,39.013858795166,21.3688201904297,-4.18481254577637,0.264396846294403,0.349416971206665,0.833434104919434,0.114471845328808,88.3300094604492,17.2580547332764,12.8221292495728,0.499506086111069,0.498935729265213,0.589533865451813,1.51162326335907,23.3517837524414,143.023452758789,19.1247253417969,19.9897232055664,2012-02-07 07:01:29
1.0090000629425,80,-8.72183704376221,1.14862430095673,1.4458988904953,3.47374701499939,78.8625106811523,597.264099121094,161.667556762695,38.2916831970215,-4.66629934310913,0.826418578624725,1.02429926395416,2.80839872360229,0.533463358879089,263.531372070312,31.887092590332,61.2377967834473,-0.374931991100311,0.806139707565308,1.07095837593079,3.59273910522461,335.478759765625,193.57080078125,11.6531944274902,21.6388301849365,2012-02-07 07:01:30
1,78,-8.30309104919434,1.43897676467896,2.31754422187805,9.41400146484375,52.9743728637695,392.909118652344,730.897033691406,434.032623291016,-4.74420261383057,1.47369492053986,2.35352611541748,10.126368522644,0.977769076824188,304.489349365234,933.581115722656,854.089111328125,0.392894625663757,1.36562371253967,1.96664190292358,7.88146591186523,23.4540672302246,835.825439453125,260.184814453125,100.134666442871,2012-02-07 07:01:31
1.00699996948242,87,-8.52974224090576,1.46991145610809,1.78524494171143,4.73732709884644,83.5501861572266,508.892852783203,890.614379882812,296.856964111328,-4.5990686416626,1.5005966424942,2.02752804756165,5.28419589996338,40.2082405090332,376.620544433594,2076.26440429688,682.976501464844,0.472015500068665,1.40829288959503,1.73679733276367,6.04021310806274,65.4858245849609,496.523071289062,316.446624755859,109.533264160156,2012-02-07 07:01:32
1.00500011444092,82,-8.03774356842041,0.875585675239563,1.93233382701874,14.7798156738281,3.39968585968018,54.7810325622559,126.79801940918,99.6477737426758,-5.241783618927,0.916496396064758,1.30794405937195,4.28410291671753,0.0169327016919851,170.569747924805,241.17805480957,143.507080078125,0.0128469383344054,0.793479144573212,1.26256275177002,5.98223400115967,0.613580524921417,74.1153717041016,28.6595764160156,9.5035343170166,2012-02-07 07:01:33
1.00999999046326,77,-8.1482458114624,1.23074162006378,1.7954295873642,6.33188629150391,14.7274484634399,103.135452270508,129.976684570312,203.151885986328,-5.17968416213989,0.97502201795578,1.45406150817871,5.27545261383057,29.5591201782227,76.3357086181641,92.7843856811523,218.708404541016,0.475109100341797,1.11351335048676,1.63888573646545,7.79178953170776,62.4009857177734,94.8189544677734,40.3080635070801,285.144073486328,2012-02-07 07:01:34
1.00999999046326,84,-5.00775766372681,1.70077359676361,2.2453932762146,6.02472352981567,42.2480201721191,2574.00146484375,1126.19470214844,153.164184570312,-7.90610980987549,1.478471159935,1.7988315820694,4.86068534851074,0.814867436885834,1642.45593261719,150.2119140625,287.126525878906,3.18178009986877,1.88907396793365,2.71164083480835,9.95759868621826,170.595001220703,564.733520507812,492.530670166016,526.2421875,2012-02-07 07:01:35
1.04099988937378,78,-7.24988842010498,1.53522324562073,1.79001700878143,3.38085842132568,1571.8916015625,1967.16979980469,32.0800552368164,13.0151863098145,-4.11066007614136,1.80391526222229,1.99044573307037,4.24031591415405,1581.23889160156,1744.48303222656,69.5242156982422,26.5562686920166,3.16918635368347,0.93380481004715,1.1379588842392,2.44134902954102,27.862850189209,661.512390136719,235.338897705078,90.1891250610352,2012-02-07 07:01:36
1.00800013542175,76,-1.68324983119965,1.99041724205017,2.27526307106018,4.98220777511597,2487.44604492188,2594.48510742188,51.346019744873,29.0984382629395,0.275459200143814,0.706747114658356,0.843508780002594,2.34404945373535,308.733032226562,215.908020019531,6.11752033233643,3.15221691131592,9.40669250488281,0.853383600711823,1.15686523914337,3.92875909805298,101.280006408691,51.2167358398438,121.751365661621,48.1192359924316,2012-02-07 07:01:37
1.15599989891052,78,0.33248707652092,0.369698733091354,0.445564746856689,1.17524611949921,99.8068313598633,79.6304702758789,0.270146429538727,0.643340587615967,1.52737784385681,0.208271935582161,0.270393967628479,0.70377254486084,27.0019493103027,19.7604217529297,0.352268308401108,0.214706003665924,9.64924716949463,0.17245802283287,0.244741633534431,0.896045327186584,1.36410212516785,2.71248269081116,4.60840797424316,2.68205499649048,2012-02-07 07:01:38
1.0220000743866,88,0.761573791503906,0.154173731803894,0.18248538672924,0.455115973949432,14.4387340545654,12.5311946868896,2.22003483772278,0.394744485616684,1.54338943958282,0.0719744712114334,0.10133995860815,0.544354498386383,0.252166330814362,1.99329090118408,0.327864736318588,0.31149435043335,9.41639518737793,0.421107441186905,1.08858323097229,6.31350994110107,2.5665717124939,68.1672592163086,64.8691558837891,61.5751686096191,2012-02-07 07:01:39
1.00099992752075,77,0.564907252788544,0.0874236971139908,0.109817765653133,0.3544662296772,2.20564651489258,1.38823258876801,1.4148041009903,0.945715069770813,1.65094196796417,0.0772864148020744,0.100503526628017,0.302726596593857,1.37469208240509,2.69257998466492,1.474609375,2.01775503158569,9.60342311859131,0.0890388563275337,0.121849954128265,0.452223837375641,0.0601341165602207,0.0549604408442974,1.62621486186981,0.958011090755463,2012-02-07 07:01:40
