"diffSecs","latitude","longitude","altitude","time"
1.63700008392334,42.3727762699127,-70.9938186407089,50,2012-01-01 23:16:22
1.14699983596802,42.3727762699127,-70.9938186407089,50,2012-01-01 23:16:23
0.848000049591064,42.3727762699127,-70.9938186407089,50,2012-01-01 23:16:24
