"diffSecs","latitude","longitude","altitude","time"
2.0699999332428,44.2661100625992,-71.6769450902939,50,2012-02-10 18:49:27
0.00600004196166992,44.2661100625992,-71.6769450902939,50,2012-02-10 18:49:27
0.562000036239624,44.2661100625992,-71.6769450902939,50,2012-02-10 18:49:27
1.00099992752075,44.2661100625992,-71.6769450902939,50,2012-02-10 18:49:28
1.08699989318848,44.2661100625992,-71.6769450902939,50,2012-02-10 18:49:29
0.980000019073486,44.2661100625992,-71.6769450902939,50,2012-02-10 18:49:30
1.18300008773804,44.2661100625992,-71.6769450902939,50,2012-02-10 18:49:31
0.782999992370605,44.2661100625992,-71.6769450902939,50,2012-02-10 18:49:32
1.04999995231628,44.2661100625992,-71.6769450902939,50,2012-02-10 18:49:33
0.920000076293945,44.2661100625992,-71.6769450902939,50,2012-02-10 18:49:34
1.00099992752075,44.2661100625992,-71.6769450902939,50,2012-02-10 18:49:35
1,44.2661100625992,-71.6769450902939,50,2012-02-10 18:49:36
1.00100016593933,44.2661100625992,-71.6769450902939,50,2012-02-10 18:49:37
1,44.2661100625992,-71.6769450902939,50,2012-02-10 18:49:38
1.0019998550415,44.2661100625992,-71.6769450902939,50,2012-02-10 18:49:39
1,44.2661100625992,-71.6769450902939,50,2012-02-10 18:49:40
1.00099992752075,44.2661100625992,-71.6769450902939,50,2012-02-10 18:49:41
1.00100016593933,44.2661100625992,-71.6769450902939,50,2012-02-10 18:49:42
1.00099992752075,44.2661100625992,-71.6769450902939,50,2012-02-10 18:49:43
1.00099992752075,44.2661100625992,-71.6769450902939,50,2012-02-10 18:49:44
1,44.2661100625992,-71.6769450902939,50,2012-02-10 18:49:45
1.00200009346008,44.2661100625992,-71.6769450902939,50,2012-02-10 18:49:46
1,44.2661100625992,-71.6769450902939,50,2012-02-10 18:49:47
1,44.2661100625992,-71.6769450902939,50,2012-02-10 18:49:48
4.0090000629425,44.2661100625992,-71.6769450902939,50,2012-02-10 18:49:52
1,44.2661100625992,-71.6769450902939,50,2012-02-10 18:49:53
1,44.2661100625992,-71.6769450902939,50,2012-02-10 18:49:54
1.0019998550415,44.2661100625992,-71.6769450902939,50,2012-02-10 18:49:55
1,44.2661100625992,-71.6769450902939,50,2012-02-10 18:49:56
1.00100016593933,44.2661100625992,-71.6769450902939,50,2012-02-10 18:49:57
1.0149998664856,44.2661100625992,-71.6769450902939,50,2012-02-10 18:49:58
0.985000133514404,44.2661100625992,-71.6769450902939,50,2012-02-10 18:49:59
1.0019998550415,44.2661100625992,-71.6769450902939,50,2012-02-10 18:50:00
1.00099992752075,44.2661100625992,-71.6769450902939,50,2012-02-10 18:50:01
1,44.2661100625992,-71.6769450902939,50,2012-02-10 18:50:02
1,44.2661100625992,-71.6769450902939,50,2012-02-10 18:50:03
1.00200009346008,44.2661100625992,-71.6769450902939,50,2012-02-10 18:50:04
1,44.2661100625992,-71.6769450902939,50,2012-02-10 18:50:05
1,44.2661100625992,-71.6769450902939,50,2012-02-10 18:50:06
1.00099992752075,44.2661100625992,-71.6769450902939,50,2012-02-10 18:50:07
1.00200009346008,44.2661100625992,-71.6769450902939,50,2012-02-10 18:50:08
1.00500011444092,44.2661100625992,-71.6769450902939,50,2012-02-10 18:50:09
1,44.2661100625992,-71.6769450902939,50,2012-02-10 18:50:10
1.00099992752075,44.2661100625992,-71.6769450902939,50,2012-02-10 18:50:11
1.00099992752075,44.2661100625992,-71.6769450902939,50,2012-02-10 18:50:12
1,44.2661100625992,-71.6769450902939,50,2012-02-10 18:50:13
1.00099992752075,44.2661100625992,-71.6769450902939,50,2012-02-10 18:50:14
1,44.2661100625992,-71.6769450902939,50,2012-02-10 18:50:15
1.00100016593933,44.2661100625992,-71.6769450902939,50,2012-02-10 18:50:16
1,44.2661100625992,-71.6769450902939,50,2012-02-10 18:50:17
1,44.2661100625992,-71.6769450902939,50,2012-02-10 18:50:18
3.99399995803833,44.2661100625992,-71.6769450902939,50,2012-02-10 18:50:22
1.00200009346008,44.2661100625992,-71.6769450902939,50,2012-02-10 18:50:23
1.0019998550415,44.4539558887482,-71.6153454780579,50,2012-02-10 18:50:24
1,44.4539558887482,-71.6153454780579,50,2012-02-10 18:50:25
1.00099992752075,44.4539558887482,-71.6153454780579,50,2012-02-10 18:50:26
1,44.4539558887482,-71.6153454780579,50,2012-02-10 18:50:27
1.00200009346008,44.4539558887482,-71.6153454780579,50,2012-02-10 18:50:28
1,44.4539558887482,-71.6153454780579,50,2012-02-10 18:50:29
1.00600004196167,44.4539558887482,-71.6153454780579,50,2012-02-10 18:50:30
0.99399995803833,44.4539558887482,-71.6153454780579,50,2012-02-10 18:50:31
1.00099992752075,44.4539558887482,-71.6153454780579,50,2012-02-10 18:50:32
1.00100016593933,44.4539558887482,-71.6153454780579,50,2012-02-10 18:50:33
1,44.4539558887482,-71.6153454780579,50,2012-02-10 18:50:34
1.00300002098083,44.4539558887482,-71.6153454780579,50,2012-02-10 18:50:35
0.998999834060669,44.4539558887482,-71.6153454780579,50,2012-02-10 18:50:36
1.00100016593933,44.4539558887482,-71.6153454780579,50,2012-02-10 18:50:37
1.00099992752075,44.4539558887482,-71.6153454780579,50,2012-02-10 18:50:38
1,44.4539558887482,-71.6153454780579,50,2012-02-10 18:50:39
1.0789999961853,44.4539558887482,-71.6153454780579,50,2012-02-10 18:50:40
0.922999858856201,44.4539558887482,-71.6153454780579,50,2012-02-10 18:50:41
1,44.4539558887482,-71.6153454780579,50,2012-02-10 18:50:42
1.00100016593933,44.4539558887482,-71.6153454780579,50,2012-02-10 18:50:43
1,44.4539558887482,-71.6153454780579,50,2012-02-10 18:50:44
1.0019998550415,44.4539558887482,-71.6153454780579,50,2012-02-10 18:50:45
0.999000072479248,44.4539558887482,-71.6153454780579,50,2012-02-10 18:50:46
1.00200009346008,44.4539558887482,-71.6153454780579,50,2012-02-10 18:50:47
0.998999834060669,44.4539558887482,-71.6153454780579,50,2012-02-10 18:50:48
3.9980001449585,44.4539558887482,-71.6153454780579,50,2012-02-10 18:50:52
1.00099992752075,44.4539558887482,-71.6153454780579,50,2012-02-10 18:50:53
1,44.4539558887482,-71.6153454780579,50,2012-02-10 18:50:54
1.00200009346008,44.4539558887482,-71.6153454780579,50,2012-02-10 18:50:55
1,44.4539558887482,-71.6153454780579,50,2012-02-10 18:50:56
1.00099992752075,44.4539558887482,-71.6153454780579,50,2012-02-10 18:50:57
1.08400011062622,44.4539558887482,-71.6153454780579,50,2012-02-10 18:50:58
0.916999816894531,44.4539558887482,-71.6153454780579,50,2012-02-10 18:50:59
1.00200009346008,44.4539558887482,-71.6153454780579,50,2012-02-10 18:51:00
1.00200009346008,44.4539558887482,-71.6153454780579,50,2012-02-10 18:51:01
0.450999975204468,44.4539558887482,-71.6153454780579,50,2012-02-10 18:51:02
0.959999799728394,44.4539558887482,-71.6153454780579,50,2012-02-10 18:51:03
1,44.4539558887482,-71.6153454780579,50,2012-02-10 18:51:04
1.00100016593933,44.4539558887482,-71.6153454780579,50,2012-02-10 18:51:05
1,44.4539558887482,-71.6153454780579,50,2012-02-10 18:51:06
1.00099992752075,44.4539558887482,-71.6153454780579,50,2012-02-10 18:51:07
1,44.4539558887482,-71.6153454780579,50,2012-02-10 18:51:08
1.00200009346008,44.4539558887482,-71.6153454780579,50,2012-02-10 18:51:09
1,44.4539558887482,-71.6153454780579,50,2012-02-10 18:51:10
1.00099992752075,44.4539558887482,-71.6153454780579,50,2012-02-10 18:51:11
1.01500010490417,44.4539558887482,-71.6153454780579,50,2012-02-10 18:51:12
0.985999822616577,44.4539558887482,-71.6153454780579,50,2012-02-10 18:51:13
1.00200009346008,44.4539558887482,-71.6153454780579,50,2012-02-10 18:51:14
1,44.4539558887482,-71.6153454780579,50,2012-02-10 18:51:15
1,44.4539558887482,-71.6153454780579,50,2012-02-10 18:51:16
1.00099992752075,44.4539558887482,-71.6153454780579,50,2012-02-10 18:51:17
1.04299998283386,44.4539558887482,-71.6153454780579,50,2012-02-10 18:51:18
3.95700001716614,44.4539558887482,-71.6153454780579,50,2012-02-10 18:51:22
1.00300002098083,44.4539558887482,-71.6153454780579,50,2012-02-10 18:51:23
1.0460000038147,44.4539558887482,-71.6153454780579,50,2012-02-10 18:51:24
0.953000068664551,44.4539558887482,-71.6153454780579,50,2012-02-10 18:51:25
1.00099992752075,44.4539558887482,-71.6153454780579,50,2012-02-10 18:51:26
1,44.4539558887482,-71.6153454780579,50,2012-02-10 18:51:27
1.00099992752075,44.4539558887482,-71.6153454780579,50,2012-02-10 18:51:28
1.00100016593933,44.4539558887482,-71.6153454780579,50,2012-02-10 18:51:29
1.0019998550415,44.4539558887482,-71.6153454780579,50,2012-02-10 18:51:30
1,44.4539558887482,-71.6153454780579,50,2012-02-10 18:51:31
1,44.4539558887482,-71.6153454780579,50,2012-02-10 18:51:32
1.00100016593933,44.4539558887482,-71.6153454780579,50,2012-02-10 18:51:33
1.00599980354309,44.4539558887482,-71.6153454780579,50,2012-02-10 18:51:34
1.00200009346008,44.4539558887482,-71.6153454780579,50,2012-02-10 18:51:35
0.999000072479248,44.4539558887482,-71.6153454780579,50,2012-02-10 18:51:36
1.00099992752075,44.4539558887482,-71.6153454780579,50,2012-02-10 18:51:37
1.00300002098083,44.4539558887482,-71.6153454780579,50,2012-02-10 18:51:38
0.999000072479248,44.4539558887482,-71.6153454780579,50,2012-02-10 18:51:39
0.997999906539917,44.4539558887482,-71.6153454780579,50,2012-02-10 18:51:40
1.00399994850159,44.4539558887482,-71.6153454780579,50,2012-02-10 18:51:41
1.00400018692017,44.4539558887482,-71.6153454780579,50,2012-02-10 18:51:42
0.998999834060669,44.4539558887482,-71.6153454780579,50,2012-02-10 18:51:43
1.00100016593933,44.4539558887482,-71.6153454780579,50,2012-02-10 18:51:44
1.00099992752075,44.4539558887482,-71.6153454780579,50,2012-02-10 18:51:45
1.0019998550415,44.4539558887482,-71.6153454780579,50,2012-02-10 18:51:46
0.999000072479248,44.4539558887482,-71.6153454780579,50,2012-02-10 18:51:47
1.04399991035461,44.4539558887482,-71.6153454780579,50,2012-02-10 18:51:48
3.96000003814697,44.4539558887482,-71.6153454780579,50,2012-02-10 18:51:52
1.00200009346008,44.4539558887482,-71.6153454780579,50,2012-02-10 18:51:53
1.00200009346008,44.4539558887482,-71.6153454780579,50,2012-02-10 18:51:54
1,44.4539558887482,-71.6153454780579,50,2012-02-10 18:51:55
0.995999813079834,44.4539558887482,-71.6153454780579,50,2012-02-10 18:51:56
1.00400018692017,44.4539558887482,-71.6153454780579,50,2012-02-10 18:51:57
0.997999906539917,44.4539558887482,-71.6153454780579,50,2012-02-10 18:51:58
1.00099992752075,44.4539558887482,-71.6153454780579,50,2012-02-10 18:51:59
1,44.4539558887482,-71.6153454780579,50,2012-02-10 18:52:00
1.02999997138977,44.4539558887482,-71.6153454780579,50,2012-02-10 18:52:01
0.972000122070312,44.4539558887482,-71.6153454780579,50,2012-02-10 18:52:02
1,44.4539558887482,-71.6153454780579,50,2012-02-10 18:52:03
1.00399994850159,44.4539558887482,-71.6153454780579,50,2012-02-10 18:52:04
1.00099992752075,44.4539558887482,-71.6153454780579,50,2012-02-10 18:52:05
0.998000144958496,44.4539558887482,-71.6153454780579,50,2012-02-10 18:52:06
1,44.4539558887482,-71.6153454780579,50,2012-02-10 18:52:07
1.00099992752075,44.4539558887482,-71.6153454780579,50,2012-02-10 18:52:08
1,44.4539558887482,-71.6153454780579,50,2012-02-10 18:52:09
1.00099992752075,44.4539558887482,-71.6153454780579,50,2012-02-10 18:52:10
1.00100016593933,44.4539558887482,-71.6153454780579,50,2012-02-10 18:52:11
1,44.4539558887482,-71.6153454780579,50,2012-02-10 18:52:12
1.00099992752075,44.4539558887482,-71.6153454780579,50,2012-02-10 18:52:13
1,44.4539558887482,-71.6153454780579,50,2012-02-10 18:52:14
1.00099992752075,44.4539558887482,-71.6153454780579,50,2012-02-10 18:52:15
1.00200009346008,44.4539558887482,-71.6153454780579,50,2012-02-10 18:52:16
1.01999998092651,44.4539558887482,-71.6153454780579,50,2012-02-10 18:52:17
0.98199987411499,44.4539558887482,-71.6153454780579,50,2012-02-10 18:52:18
4.00400018692017,44.4539558887482,-71.6153454780579,50,2012-02-10 18:52:22
1.00099992752075,44.4539558887482,-71.6153454780579,50,2012-02-10 18:52:23
1,44.4539558887482,-71.6153454780579,50,2012-02-10 18:52:24
1.00099992752075,44.4539558887482,-71.6153454780579,50,2012-02-10 18:52:25
1,44.4539558887482,-71.6153454780579,50,2012-02-10 18:52:26
1.00100016593933,44.4539558887482,-71.6153454780579,50,2012-02-10 18:52:27
1.00099992752075,44.4539558887482,-71.6153454780579,50,2012-02-10 18:52:28
1.00099992752075,44.4539558887482,-71.6153454780579,50,2012-02-10 18:52:29
1.00100016593933,44.4539558887482,-71.6153454780579,50,2012-02-10 18:52:30
1,44.4539558887482,-71.6153454780579,50,2012-02-10 18:52:31
1,44.4539558887482,-71.6153454780579,50,2012-02-10 18:52:32
1.00099992752075,44.4539558887482,-71.6153454780579,50,2012-02-10 18:52:33
1.0019998550415,44.4539558887482,-71.6153454780579,50,2012-02-10 18:52:34
1.00200009346008,44.4539558887482,-71.6153454780579,50,2012-02-10 18:52:35
1,44.4539558887482,-71.6153454780579,50,2012-02-10 18:52:36
1,44.4539558887482,-71.6153454780579,50,2012-02-10 18:52:37
1.00099992752075,44.4539558887482,-71.6153454780579,50,2012-02-10 18:52:38
1,44.4539558887482,-71.6153454780579,50,2012-02-10 18:52:39
1.00100016593933,44.4539558887482,-71.6153454780579,50,2012-02-10 18:52:40
0.998999834060669,44.4539558887482,-71.6153454780579,50,2012-02-10 18:52:41
1,44.4539558887482,-71.6153454780579,50,2012-02-10 18:52:42
1.00100016593933,44.4539558887482,-71.6153454780579,50,2012-02-10 18:52:43
1.00399994850159,44.4539558887482,-71.6153454780579,50,2012-02-10 18:52:44
0.997999906539917,44.4539558887482,-71.6153454780579,50,2012-02-10 18:52:45
1.00300002098083,44.4539558887482,-71.6153454780579,50,2012-02-10 18:52:46
1,44.4539558887482,-71.6153454780579,50,2012-02-10 18:52:47
1,44.4539558887482,-71.6153454780579,50,2012-02-10 18:52:48
4.00099992752075,44.4539558887482,-71.6153454780579,50,2012-02-10 18:52:52
1.00100016593933,44.4539558887482,-71.6153454780579,50,2012-02-10 18:52:53
1.00099992752075,44.4539558887482,-71.6153454780579,50,2012-02-10 18:52:54
1.00099992752075,44.4539558887482,-71.6153454780579,50,2012-02-10 18:52:55
0.999000072479248,44.4539558887482,-71.6153454780579,50,2012-02-10 18:52:56
1.00200009346008,44.4539558887482,-71.6153454780579,50,2012-02-10 18:52:57
1,44.4539558887482,-71.6153454780579,50,2012-02-10 18:52:58
1,44.4539558887482,-71.6153454780579,50,2012-02-10 18:52:59
1.02699995040894,44.4539558887482,-71.6153454780579,50,2012-02-10 18:53:00
0.971999883651733,44.4539558887482,-71.6153454780579,50,2012-02-10 18:53:01
1.00100016593933,44.4539558887482,-71.6153454780579,50,2012-02-10 18:53:02
1.00300002098083,44.4539558887482,-71.6153454780579,50,2012-02-10 18:53:03
0.997999906539917,44.4539558887482,-71.6153454780579,50,2012-02-10 18:53:04
1.00099992752075,44.4539558887482,-71.6153454780579,50,2012-02-10 18:53:05
1.00300002098083,44.4539558887482,-71.6153454780579,50,2012-02-10 18:53:06
1,44.4539558887482,-71.6153454780579,50,2012-02-10 18:53:07
1.00100016593933,44.4539558887482,-71.6153454780579,50,2012-02-10 18:53:08
1,44.4539558887482,-71.6153454780579,50,2012-02-10 18:53:09
1,44.4539558887482,-71.6153454780579,50,2012-02-10 18:53:10
1,44.4539558887482,-71.6153454780579,50,2012-02-10 18:53:11
1.00099992752075,44.4539558887482,-71.6153454780579,50,2012-02-10 18:53:12
1.00099992752075,44.4539558887482,-71.6153454780579,50,2012-02-10 18:53:13
1.00699996948242,44.4539558887482,-71.6153454780579,50,2012-02-10 18:53:14
1.04200005531311,44.4539558887482,-71.6153454780579,50,2012-02-10 18:53:15
0.960000038146973,44.4539558887482,-71.6153454780579,50,2012-02-10 18:53:16
1.0019998550415,44.4539558887482,-71.6153454780579,50,2012-02-10 18:53:17
1,44.4539558887482,-71.6153454780579,50,2012-02-10 18:53:18
3.99000000953674,44.4539558887482,-71.6153454780579,50,2012-02-10 18:53:22
1,44.4539558887482,-71.6153454780579,50,2012-02-10 18:53:23
1.00200009346008,44.4539558887482,-71.6153454780579,50,2012-02-10 18:53:24
0.999000072479248,44.4539558887482,-71.6153454780579,50,2012-02-10 18:53:25
1.0019998550415,44.4539558887482,-71.6153454780579,50,2012-02-10 18:53:26
1.00100016593933,44.4539558887482,-71.6153454780579,50,2012-02-10 18:53:27
1,44.4539558887482,-71.6153454780579,50,2012-02-10 18:53:28
1,44.4539558887482,-71.6153454780579,50,2012-02-10 18:53:29
1.00300002098083,44.2661100625992,-71.6769450902939,50,2012-02-10 18:53:30
1.0239999294281,44.2661100625992,-71.6769450902939,50,2012-02-10 18:53:31
0.976999998092651,44.2661100625992,-71.6769450902939,50,2012-02-10 18:53:32
1.0019998550415,44.2661100625992,-71.6769450902939,50,2012-02-10 18:53:33
0.999000072479248,44.2661100625992,-71.6769450902939,50,2012-02-10 18:53:34
1.00099992752075,44.2661100625992,-71.6769450902939,50,2012-02-10 18:53:35
1.00100016593933,44.2661100625992,-71.6769450902939,50,2012-02-10 18:53:36
1.00300002098083,44.2661100625992,-71.6769450902939,50,2012-02-10 18:53:37
1,44.2661100625992,-71.6769450902939,50,2012-02-10 18:53:38
1.00099992752075,44.2661100625992,-71.6769450902939,50,2012-02-10 18:53:39
1.00300002098083,44.2661100625992,-71.6769450902939,50,2012-02-10 18:53:40
1,44.2661100625992,-71.6769450902939,50,2012-02-10 18:53:41
1,44.2661100625992,-71.6769450902939,50,2012-02-10 18:53:42
1.02500009536743,44.4539558887482,-71.6153454780579,50,2012-02-10 18:53:43
0.974999904632568,44.4539558887482,-71.6153454780579,50,2012-02-10 18:53:44
1.0220000743866,44.4539558887482,-71.6153454780579,50,2012-02-10 18:53:45
0.978999853134155,44.4539558887482,-71.6153454780579,50,2012-02-10 18:53:46
1,44.4539558887482,-71.6153454780579,50,2012-02-10 18:53:47
1.00800013542175,44.4539558887482,-71.6153454780579,50,2012-02-10 18:53:48
3.98899984359741,44.4539558887482,-71.6153454780579,50,2012-02-10 18:53:52
1,44.4539558887482,-71.6153454780579,50,2012-02-10 18:53:53
1.00100016593933,44.4539558887482,-71.6153454780579,50,2012-02-10 18:53:54
1,44.4539558887482,-71.6153454780579,50,2012-02-10 18:53:55
1.00099992752075,44.4539558887482,-71.6153454780579,50,2012-02-10 18:53:56
1,44.4539558887482,-71.6153454780579,50,2012-02-10 18:53:57
1.00200009346008,44.4539558887482,-71.6153454780579,50,2012-02-10 18:53:58
1.04299998283386,44.4539558887482,-71.6153454780579,50,2012-02-10 18:53:59
0.957000017166138,44.4539558887482,-71.6153454780579,50,2012-02-10 18:54:00
1.0019998550415,44.4539558887482,-71.6153454780579,50,2012-02-10 18:54:01
1.00099992752075,44.4539558887482,-71.6153454780579,50,2012-02-10 18:54:02
1.02400016784668,44.4539558887482,-71.6153454780579,50,2012-02-10 18:54:03
0.978999853134155,44.4539558887482,-71.6153454780579,50,2012-02-10 18:54:04
0.999000072479248,44.4539558887482,-71.6153454780579,50,2012-02-10 18:54:05
1.00200009346008,44.4539558887482,-71.6153454780579,50,2012-02-10 18:54:06
1,44.4539558887482,-71.6153454780579,50,2012-02-10 18:54:07
1,44.4539558887482,-71.6153454780579,50,2012-02-10 18:54:08
1.00099992752075,44.4539558887482,-71.6153454780579,50,2012-02-10 18:54:09
1,44.4539558887482,-71.6153454780579,50,2012-02-10 18:54:10
1.00099992752075,44.4539558887482,-71.6153454780579,50,2012-02-10 18:54:11
1.02400016784668,44.4539558887482,-71.6153454780579,50,2012-02-10 18:54:12
0.976999998092651,44.4539558887482,-71.6153454780579,50,2012-02-10 18:54:13
1.00099992752075,44.4539558887482,-71.6153454780579,50,2012-02-10 18:54:14
1,44.4539558887482,-71.6153454780579,50,2012-02-10 18:54:15
1.00099992752075,44.4539558887482,-71.6153454780579,50,2012-02-10 18:54:16
1.00099992752075,44.4539558887482,-71.6153454780579,50,2012-02-10 18:54:17
1.00200009346008,44.4539558887482,-71.6153454780579,50,2012-02-10 18:54:18
3.99600005149841,44.4539558887482,-71.6153454780579,50,2012-02-10 18:54:22
1,44.4539558887482,-71.6153454780579,50,2012-02-10 18:54:23
1.00099992752075,44.4539558887482,-71.6153454780579,50,2012-02-10 18:54:24
1.00099992752075,44.4539558887482,-71.6153454780579,50,2012-02-10 18:54:25
1,44.4539558887482,-71.6153454780579,50,2012-02-10 18:54:26
1.00200009346008,44.4539558887482,-71.6153454780579,50,2012-02-10 18:54:27
1,44.4539558887482,-71.6153454780579,50,2012-02-10 18:54:28
1.00099992752075,44.4539558887482,-71.6153454780579,50,2012-02-10 18:54:29
1.00100016593933,44.4539558887482,-71.6153454780579,50,2012-02-10 18:54:30
1.00099992752075,44.4539558887482,-71.6153454780579,50,2012-02-10 18:54:31
1.00099992752075,44.4539558887482,-71.6153454780579,50,2012-02-10 18:54:32
1,44.4539558887482,-71.6153454780579,50,2012-02-10 18:54:33
1,44.4539558887482,-71.6153454780579,50,2012-02-10 18:54:34
1.00200009346008,44.4539558887482,-71.6153454780579,50,2012-02-10 18:54:35
1,44.2661100625992,-71.6769450902939,50,2012-02-10 18:54:36
1,44.2661100625992,-71.6769450902939,50,2012-02-10 18:54:37
1,44.2661100625992,-71.6769450902939,50,2012-02-10 18:54:38
1.00099992752075,44.2661100625992,-71.6769450902939,50,2012-02-10 18:54:39
1.00100016593933,44.2661100625992,-71.6769450902939,50,2012-02-10 18:54:40
1.0149998664856,44.2661100625992,-71.6769450902939,50,2012-02-10 18:54:41
0.985000133514404,44.2661100625992,-71.6769450902939,50,2012-02-10 18:54:42
1.02499985694885,44.4539558887482,-71.6153454780579,50,2012-02-10 18:54:43
0.977999925613403,44.4539558887482,-71.6153454780579,50,2012-02-10 18:54:44
1.01300001144409,44.4539558887482,-71.6153454780579,50,2012-02-10 18:54:45
1.03299999237061,44.4539558887482,-71.6153454780579,50,2012-02-10 18:54:46
0.956000089645386,44.4539558887482,-71.6153454780579,50,2012-02-10 18:54:47
1.00099992752075,44.4539558887482,-71.6153454780579,50,2012-02-10 18:54:48
4.00100016593933,44.2661100625992,-71.6769450902939,50,2012-02-10 18:54:52
1.0019998550415,44.2661100625992,-71.6769450902939,50,2012-02-10 18:54:53
0.999000072479248,44.2661100625992,-71.6769450902939,50,2012-02-10 18:54:54
1,44.2661100625992,-71.6769450902939,50,2012-02-10 18:54:55
1.81399989128113,44.2661100625992,-71.6769450902939,50,2012-02-10 18:54:57
1.00100016593933,44.2661100625992,-71.6769450902939,50,2012-02-10 18:54:58
1,44.2661100625992,-71.6769450902939,50,2012-02-10 18:54:59
1.00099992752075,44.2661100625992,-71.6769450902939,50,2012-02-10 18:55:00
1.00200009346008,44.2661100625992,-71.6769450902939,50,2012-02-10 18:55:01
0.998999834060669,44.2661100625992,-71.6769450902939,50,2012-02-10 18:55:02
1.00100016593933,44.2661100625992,-71.6769450902939,50,2012-02-10 18:55:03
1.00399994850159,44.2661100625992,-71.6769450902939,50,2012-02-10 18:55:04
1,44.2661100625992,-71.6769450902939,50,2012-02-10 18:55:05
1.00099992752075,44.2661798000336,-71.6764569282532,50,2012-02-10 18:55:06
1.00099992752075,44.4539558887482,-71.6153454780579,50,2012-02-10 18:55:07
1.01900005340576,44.4539558887482,-71.6153454780579,50,2012-02-10 18:55:08
0.982000112533569,44.4539558887482,-71.6153454780579,50,2012-02-10 18:55:09
1.00099992752075,44.4539558887482,-71.6153454780579,50,2012-02-10 18:55:10
1.00099992752075,44.4539558887482,-71.6153454780579,50,2012-02-10 18:55:11
1.00100016593933,44.4539558887482,-71.6153454780579,50,2012-02-10 18:55:12
1,44.4539558887482,-71.6153454780579,50,2012-02-10 18:55:13
1.00099992752075,44.4539558887482,-71.6153454780579,50,2012-02-10 18:55:14
1.00099992752075,44.4539558887482,-71.6153454780579,50,2012-02-10 18:55:15
1,44.4539558887482,-71.6153454780579,50,2012-02-10 18:55:16
1.00100016593933,44.4539558887482,-71.6153454780579,50,2012-02-10 18:55:17
1.00099992752075,44.4539558887482,-71.6153454780579,50,2012-02-10 18:55:18
1,44.4539558887482,-71.6153454780579,50,2012-02-10 18:55:19
3.99499988555908,44.4539558887482,-71.6153454780579,50,2012-02-10 18:55:23
1.00100016593933,44.4539558887482,-71.6153454780579,50,2012-02-10 18:55:24
1.0019998550415,44.4539558887482,-71.6153454780579,50,2012-02-10 18:55:25
0.999000072479248,44.4539558887482,-71.6153454780579,50,2012-02-10 18:55:26
1.01300001144409,44.4539558887482,-71.6153454780579,50,2012-02-10 18:55:27
0.989000082015991,44.4539558887482,-71.6153454780579,50,2012-02-10 18:55:28
1,44.4539558887482,-71.6153454780579,50,2012-02-10 18:55:29
1,44.4539558887482,-71.6153454780579,50,2012-02-10 18:55:30
1.00099992752075,44.4539558887482,-71.6153454780579,50,2012-02-10 18:55:31
1.00099992752075,44.2661100625992,-71.6769450902939,50,2012-02-10 18:55:32
1.00099992752075,44.2661100625992,-71.6769450902939,50,2012-02-10 18:55:33
1.00100016593933,44.2661100625992,-71.6769450902939,50,2012-02-10 18:55:34
1,44.2661100625992,-71.6769450902939,50,2012-02-10 18:55:35
1.00099992752075,44.2661100625992,-71.6769450902939,50,2012-02-10 18:55:36
1.00200009346008,44.2661100625992,-71.6769450902939,50,2012-02-10 18:55:37
0.998999834060669,44.2661100625992,-71.6769450902939,50,2012-02-10 18:55:38
1.00200009346008,44.2661100625992,-71.6769450902939,50,2012-02-10 18:55:39
0.999000072479248,44.2661100625992,-71.6769450902939,50,2012-02-10 18:55:40
1.00099992752075,44.2661100625992,-71.6769450902939,50,2012-02-10 18:55:41
1.00399994850159,44.2661100625992,-71.6769450902939,50,2012-02-10 18:55:42
1.00100016593933,44.2661100625992,-71.6769450902939,50,2012-02-10 18:55:43
1,44.2661100625992,-71.6769450902939,50,2012-02-10 18:55:44
1,44.2661100625992,-71.6769450902939,50,2012-02-10 18:55:45
1.0019998550415,44.2661100625992,-71.6769450902939,50,2012-02-10 18:55:46
1.00200009346008,44.2661798000336,-71.6764569282532,50,2012-02-10 18:55:47
0.998999834060669,44.4539558887482,-71.6153454780579,50,2012-02-10 18:55:48
1.00100016593933,44.4539558887482,-71.6153454780579,50,2012-02-10 18:55:49
2.5149998664856,44.3541240692139,-71.9103509187698,50,2012-02-10 18:55:51
1.00100016593933,44.3541240692139,-71.9103455543518,50,2012-02-10 18:55:52
1.0019998550415,44.3541240692139,-71.9103455543518,50,2012-02-10 18:55:53
0.996999979019165,44.3541240692139,-71.9103455543518,50,2012-02-10 18:55:54
1.02100014686584,44.3541240692139,-71.9103455543518,50,2012-02-10 18:55:55
0.984999895095825,44.3541240692139,-71.9103455543518,50,2012-02-10 18:55:56
1.10000014305115,44.3541240692139,-71.9103455543518,50,2012-02-10 18:55:57
1.89299988746643,44.3541830778122,-71.9101792573929,50,2012-02-10 18:55:59
1.33400011062622,44.3541026115417,-71.910388469696,50,2012-02-10 18:56:00
0.667999982833862,44.3540972471237,-71.9103294610977,50,2012-02-10 18:56:01
1.22699999809265,44.3540757894516,-71.910388469696,50,2012-02-10 18:56:02
0.773000001907349,44.3540328741074,-71.9105333089828,50,2012-02-10 18:56:03
1.00300002098083,44.3541133403778,-71.9104367494583,50,2012-02-10 18:56:04
1.01099991798401,44.3541830778122,-71.9103240966797,50,2012-02-10 18:56:05
1.0019998550415,44.3543118238449,-71.9098895788193,50,2012-02-10 18:56:06
0.991000175476074,44.3543922901154,-71.9096428155899,50,2012-02-10 18:56:07
0.997999906539917,44.3544620275497,-71.9094228744507,50,2012-02-10 18:56:08
0.99399995803833,44.3543440103531,-71.9096750020981,50,2012-02-10 18:56:09
1.00300002098083,44.354156255722,-71.9102436304092,50,2012-02-10 18:56:10
0.999000072479248,44.3543654680252,-71.909658908844,50,2012-02-10 18:56:11
10.4939999580383,44.3543708324432,-71.9096481800079,50,2012-02-10 18:56:22
1.00099992752075,44.3543708324432,-71.9096481800079,50,2012-02-10 18:56:23
0.502000093460083,44.3536841869354,-71.9118690490723,50,2012-02-10 18:56:23
5.00099992752075,44.3541777133942,-71.9105440378189,50,2012-02-10 18:56:28
1.00100016593933,44.3544244766235,-71.9097822904587,50,2012-02-10 18:56:29
5.00099992752075,44.3543601036072,-71.9097715616226,50,2012-02-10 18:56:34
1,44.354156255722,-71.9103401899338,50,2012-02-10 18:56:35
0.997999906539917,44.3541669845581,-71.9102382659912,50,2012-02-10 18:56:36
1.00100016593933,44.3541240692139,-71.9104903936386,50,2012-02-10 18:56:37
1,44.353973865509,-71.9106996059418,50,2012-02-10 18:56:38
6.05799984931946,44.3541079759598,-71.9104367494583,50,2012-02-10 18:56:44
0.942000150680542,44.3540436029434,-71.9105279445648,50,2012-02-10 18:56:45
1,44.3538719415665,-71.9108712673187,50,2012-02-10 18:56:46
1.00099992752075,44.3536573648453,-71.9117563962936,50,2012-02-10 18:56:47
0.997999906539917,44.3536305427551,-71.9119065999985,50,2012-02-10 18:56:48
3.51100015640259,44.3536305427551,-71.9118958711624,50,2012-02-10 18:56:52
1.00099992752075,44.3536305427551,-71.9118958711624,50,2012-02-10 18:56:53
1.00099992752075,44.3536305427551,-71.9118958711624,50,2012-02-10 18:56:54
1.00100016593933,44.3536305427551,-71.9118958711624,50,2012-02-10 18:56:55
1,44.3536305427551,-71.9118958711624,50,2012-02-10 18:56:56
1.00299978256226,44.3536305427551,-71.9118958711624,50,2012-02-10 18:56:57
1.00200009346008,44.3536305427551,-71.9118958711624,50,2012-02-10 18:56:58
0.996999979019165,44.3536305427551,-71.9118958711624,50,2012-02-10 18:56:59
1.00099992752075,44.3536305427551,-71.9118958711624,50,2012-02-10 18:57:00
0.895000219345093,44.3536305427551,-71.9118958711624,50,2012-02-10 18:57:01
0.973999977111816,44.3536305427551,-71.9118958711624,50,2012-02-10 18:57:02
1.00099992752075,44.3536305427551,-71.9118958711624,50,2012-02-10 18:57:03
1,44.3536305427551,-71.9118958711624,50,2012-02-10 18:57:04
1.00099992752075,44.3536305427551,-71.9118958711624,50,2012-02-10 18:57:05
1.00100016593933,44.3536305427551,-71.9118958711624,50,2012-02-10 18:57:06
1,44.3536305427551,-71.9118958711624,50,2012-02-10 18:57:07
0.478999853134155,44.3543976545334,-71.9095087051392,50,2012-02-10 18:57:07
14.5390000343323,44.3543976545334,-71.9095087051392,50,2012-02-10 18:57:22
0.990000009536743,44.3543976545334,-71.9095087051392,50,2012-02-10 18:57:23
1.00099992752075,44.3543976545334,-71.9095087051392,50,2012-02-10 18:57:24
1.00100016593933,44.3543976545334,-71.9095087051392,50,2012-02-10 18:57:25
0.998999834060669,44.3543976545334,-71.9095087051392,50,2012-02-10 18:57:26
1.00400018692017,44.3543976545334,-71.9095087051392,50,2012-02-10 18:57:27
0.996999979019165,44.3543976545334,-71.9095087051392,50,2012-02-10 18:57:28
1.00499987602234,44.3543976545334,-71.9095087051392,50,2012-02-10 18:57:29
0.996999979019165,44.3543976545334,-71.9095087051392,50,2012-02-10 18:57:30
1.00300002098083,44.3543976545334,-71.9095087051392,50,2012-02-10 18:57:31
1.00099992752075,44.3543976545334,-71.9095087051392,50,2012-02-10 18:57:32
1.00200009346008,44.3543976545334,-71.9095087051392,50,2012-02-10 18:57:33
0.999000072479248,44.3543976545334,-71.9095087051392,50,2012-02-10 18:57:34
1.01699995994568,44.3543976545334,-71.9095087051392,50,2012-02-10 18:57:35
0.983999967575073,44.3543976545334,-71.9095087051392,50,2012-02-10 18:57:36
1,44.3543976545334,-71.9095087051392,50,2012-02-10 18:57:37
1,44.3543976545334,-71.9095087051392,50,2012-02-10 18:57:38
1.00200009346008,44.3543976545334,-71.9095087051392,50,2012-02-10 18:57:39
0.997999906539917,44.3543976545334,-71.9095087051392,50,2012-02-10 18:57:40
1.00200009346008,44.3543976545334,-71.9095087051392,50,2012-02-10 18:57:41
1.00099992752075,44.3543976545334,-71.9095087051392,50,2012-02-10 18:57:42
1.00399994850159,44.3543976545334,-71.9095087051392,50,2012-02-10 18:57:43
1.00099992752075,44.3543976545334,-71.9095087051392,50,2012-02-10 18:57:44
2,44.3543976545334,-71.9095087051392,50,2012-02-10 18:57:46
1,44.3543976545334,-71.9095087051392,50,2012-02-10 18:57:47
1.00300002098083,44.3543976545334,-71.9095087051392,50,2012-02-10 18:57:48
1.00100016593933,44.3543976545334,-71.9095087051392,50,2012-02-10 18:57:49
3.99499988555908,44.3543976545334,-71.9095087051392,50,2012-02-10 18:57:53
1,44.3543976545334,-71.9095087051392,50,2012-02-10 18:57:54
1.00099992752075,44.3543976545334,-71.9095087051392,50,2012-02-10 18:57:55
1.00100016593933,44.3543976545334,-71.9095087051392,50,2012-02-10 18:57:56
1,44.3543976545334,-71.9095087051392,50,2012-02-10 18:57:57
1.00099992752075,44.3543976545334,-71.9095087051392,50,2012-02-10 18:57:58
1.00099992752075,44.3543976545334,-71.9095087051392,50,2012-02-10 18:57:59
1,44.3543976545334,-71.9095087051392,50,2012-02-10 18:58:00
1.0220000743866,44.3543976545334,-71.9095087051392,50,2012-02-10 18:58:01
0.980000019073486,44.3543976545334,-71.9095087051392,50,2012-02-10 18:58:02
1,44.3543976545334,-71.9095087051392,50,2012-02-10 18:58:03
1.00099992752075,44.3543976545334,-71.9095087051392,50,2012-02-10 18:58:04
1.00100016593933,44.3543976545334,-71.9095087051392,50,2012-02-10 18:58:05
1,44.3543976545334,-71.9095087051392,50,2012-02-10 18:58:06
1.00099992752075,44.3543976545334,-71.9095087051392,50,2012-02-10 18:58:07
1,44.3543976545334,-71.9095087051392,50,2012-02-10 18:58:08
1.0019998550415,44.3543976545334,-71.9095087051392,50,2012-02-10 18:58:09
1,44.3543976545334,-71.9095087051392,50,2012-02-10 18:58:10
1,44.3543976545334,-71.9095087051392,50,2012-02-10 18:58:11
1.00100016593933,44.3543976545334,-71.9095087051392,50,2012-02-10 18:58:12
1.0019998550415,44.3543976545334,-71.9095087051392,50,2012-02-10 18:58:13
0.999000072479248,44.3543976545334,-71.9095087051392,50,2012-02-10 18:58:14
1.00099992752075,44.3543976545334,-71.9095087051392,50,2012-02-10 18:58:15
1.00100016593933,44.3543976545334,-71.9095087051392,50,2012-02-10 18:58:16
1,44.3543976545334,-71.9095087051392,50,2012-02-10 18:58:17
1.00099992752075,44.3543976545334,-71.9095087051392,50,2012-02-10 18:58:18
1,44.3543976545334,-71.9095087051392,50,2012-02-10 18:58:19
3.99799990653992,44.3543976545334,-71.9095087051392,50,2012-02-10 18:58:23
1.00100016593933,44.3543976545334,-71.9095087051392,50,2012-02-10 18:58:24
1.00099992752075,44.3543976545334,-71.9095087051392,50,2012-02-10 18:58:25
1,44.3543976545334,-71.9095087051392,50,2012-02-10 18:58:26
1.00200009346008,44.3543976545334,-71.9095087051392,50,2012-02-10 18:58:27
0.998999834060669,44.3543976545334,-71.9095087051392,50,2012-02-10 18:58:28
1.00200009346008,44.3543976545334,-71.9095087051392,50,2012-02-10 18:58:29
1,44.3543976545334,-71.9095087051392,50,2012-02-10 18:58:30
1.00099992752075,44.3543976545334,-71.9095087051392,50,2012-02-10 18:58:31
1.00100016593933,44.3543976545334,-71.9095087051392,50,2012-02-10 18:58:32
1,44.3543976545334,-71.9095087051392,50,2012-02-10 18:58:33
1.0019998550415,44.3543976545334,-71.9095087051392,50,2012-02-10 18:58:34
0.999000072479248,44.3543976545334,-71.9095087051392,50,2012-02-10 18:58:35
1.00099992752075,44.3543976545334,-71.9095087051392,50,2012-02-10 18:58:36
1.00099992752075,44.3543976545334,-71.9095087051392,50,2012-02-10 18:58:37
1.00100016593933,44.3543976545334,-71.9095087051392,50,2012-02-10 18:58:38
1,44.3543976545334,-71.9095087051392,50,2012-02-10 18:58:39
1,44.3543976545334,-71.9095087051392,50,2012-02-10 18:58:40
1.0019998550415,44.3543976545334,-71.9095087051392,50,2012-02-10 18:58:41
1.00100016593933,44.3543976545334,-71.9095087051392,50,2012-02-10 18:58:42
1,44.3543976545334,-71.9095087051392,50,2012-02-10 18:58:43
1.00099992752075,44.3543976545334,-71.9095087051392,50,2012-02-10 18:58:44
1.01300001144409,44.3543976545334,-71.9095087051392,50,2012-02-10 18:58:45
1.00099992752075,44.3543976545334,-71.9095087051392,50,2012-02-10 18:58:46
1,44.3543976545334,-71.9095087051392,50,2012-02-10 18:58:47
1,44.3543976545334,-71.9095087051392,50,2012-02-10 18:58:48
1,44.3543976545334,-71.9095087051392,50,2012-02-10 18:58:49
3.98900008201599,44.3543976545334,-71.9095087051392,50,2012-02-10 18:58:53
1.00099992752075,44.3543976545334,-71.9095087051392,50,2012-02-10 18:58:54
1.00099992752075,44.3543976545334,-71.9095087051392,50,2012-02-10 18:58:55
1,44.3543976545334,-71.9095087051392,50,2012-02-10 18:58:56
1.00200009346008,44.3543976545334,-71.9095087051392,50,2012-02-10 18:58:57
1.00099992752075,44.3543976545334,-71.9095087051392,50,2012-02-10 18:58:58
0.999000072479248,44.3543976545334,-71.9095087051392,50,2012-02-10 18:58:59
1.00099992752075,44.3543976545334,-71.9095087051392,50,2012-02-10 18:59:00
1,44.3543976545334,-71.9095087051392,50,2012-02-10 18:59:01
1.00200009346008,44.3543976545334,-71.9095087051392,50,2012-02-10 18:59:02
1.00099992752075,44.3543976545334,-71.9095087051392,50,2012-02-10 18:59:03
1,44.3543976545334,-71.9095087051392,50,2012-02-10 18:59:04
1.00100016593933,44.3543976545334,-71.9095087051392,50,2012-02-10 18:59:05
1.00099992752075,44.3543976545334,-71.9095087051392,50,2012-02-10 18:59:06
1.00099992752075,44.3543976545334,-71.9095087051392,50,2012-02-10 18:59:07
1.00100016593933,44.3543976545334,-71.9095087051392,50,2012-02-10 18:59:08
1,44.3543976545334,-71.9095087051392,50,2012-02-10 18:59:09
1.0239999294281,44.3543976545334,-71.9095087051392,50,2012-02-10 18:59:10
0.977999925613403,44.3543976545334,-71.9095087051392,50,2012-02-10 18:59:11
0.999000072479248,44.3543976545334,-71.9095087051392,50,2012-02-10 18:59:12
1.00099992752075,44.3543976545334,-71.9095087051392,50,2012-02-10 18:59:13
1.00099992752075,44.3543976545334,-71.9095087051392,50,2012-02-10 18:59:14
1.00100016593933,44.3543976545334,-71.9095087051392,50,2012-02-10 18:59:15
1,44.3543976545334,-71.9095087051392,50,2012-02-10 18:59:16
1.00099992752075,44.3543976545334,-71.9095087051392,50,2012-02-10 18:59:17
1.00099992752075,44.3543976545334,-71.9095087051392,50,2012-02-10 18:59:18
1.00300002098083,44.3543976545334,-71.9095087051392,50,2012-02-10 18:59:19
3.99600005149841,44.3543976545334,-71.9095087051392,50,2012-02-10 18:59:23
1,44.3543976545334,-71.9095087051392,50,2012-02-10 18:59:24
1.00099992752075,44.3543976545334,-71.9095087051392,50,2012-02-10 18:59:25
1.0310001373291,44.3543976545334,-71.9095087051392,50,2012-02-10 18:59:26
0.970000028610229,44.3543976545334,-71.9095087051392,50,2012-02-10 18:59:27
1.00099992752075,44.3543976545334,-71.9095087051392,50,2012-02-10 18:59:28
1,44.3543976545334,-71.9095087051392,50,2012-02-10 18:59:29
1.00099992752075,44.3543976545334,-71.9095087051392,50,2012-02-10 18:59:30
1,44.3543976545334,-71.9095087051392,50,2012-02-10 18:59:31
1.00200009346008,44.3543976545334,-71.9095087051392,50,2012-02-10 18:59:32
1.01600003242493,44.3543976545334,-71.9095087051392,50,2012-02-10 18:59:33
1.00099992752075,44.3543976545334,-71.9095087051392,50,2012-02-10 18:59:34
1.03600001335144,44.3543976545334,-71.9095087051392,50,2012-02-10 18:59:35
0.967000007629395,44.3543976545334,-71.9095087051392,50,2012-02-10 18:59:36
1.00099992752075,44.3543976545334,-71.9095087051392,50,2012-02-10 18:59:37
1,44.3543976545334,-71.9095087051392,50,2012-02-10 18:59:38
1.00200009346008,44.3543976545334,-71.9095087051392,50,2012-02-10 18:59:39
1.0019998550415,44.3543976545334,-71.9095087051392,50,2012-02-10 18:59:40
1,44.3543976545334,-71.9095087051392,50,2012-02-10 18:59:41
1.01000022888184,44.3543976545334,-71.9095087051392,50,2012-02-10 18:59:42
0.990999937057495,44.3543976545334,-71.9095087051392,50,2012-02-10 18:59:43
1.0019998550415,44.3543976545334,-71.9095087051392,50,2012-02-10 18:59:44
0.996999979019165,44.3543976545334,-71.9095087051392,50,2012-02-10 18:59:45
1.01000022888184,44.3543976545334,-71.9095087051392,50,2012-02-10 18:59:46
0.991999864578247,44.3543976545334,-71.9095087051392,50,2012-02-10 18:59:47
1,44.3543976545334,-71.9095087051392,50,2012-02-10 18:59:48
1.00399994850159,44.3543976545334,-71.9095087051392,50,2012-02-10 18:59:49
3.97800016403198,44.3543976545334,-71.9095087051392,50,2012-02-10 18:59:53
1.00099992752075,44.3543976545334,-71.9095087051392,50,2012-02-10 18:59:54
1.00099992752075,44.3543976545334,-71.9095087051392,50,2012-02-10 18:59:55
1,44.3543976545334,-71.9095087051392,50,2012-02-10 18:59:56
1.00100016593933,44.3543976545334,-71.9095087051392,50,2012-02-10 18:59:57
1.00099992752075,44.3543976545334,-71.9095087051392,50,2012-02-10 18:59:58
1,44.3543976545334,-71.9095087051392,50,2012-02-10 18:59:59
