"diffSecs","level","azimuth.mean","azimuth.absolute.deviation","azimuth.standard.deviation","azimuth.max.deviation","pitch.mean","pitch.absolute.deviation","pitch.standard.deviation","pitch.max.deviation","roll.mean","roll.absolute.deviation","roll.standard.deviation","roll.max.deviation","time"
0,38,24.0500011444092,2.17368412017822,2.55299115180969,5.55000019073486,-24.918420791626,0.293490380048752,0.376168668270111,1.31842124462128,-34.9289474487305,0.346398949623108,0.444207012653351,1.0710517168045,2012-01-05 21:03:46
1.01222169399261,38,47.1578941345215,5.76537418365479,6.51256418228149,17.5578956604004,-17.3789482116699,3.26869821548462,3.86278867721558,7.42105340957642,-36.8894729614258,1.3617730140686,1.70630252361298,3.6894736289978,2012-01-05 21:03:47
1.00572502613068,49,52.5979614257812,2.28788018226624,2.93990755081177,5.40204000473022,-12.6938781738281,1.93760931491852,2.14746260643005,3.09387731552124,-38.3204078674316,1.22715556621552,1.46816301345825,3.22040677070618,2012-01-05 21:03:48
1.01135838031769,44,53.1636352539062,0.338429927825928,0.40175262093544,0.863637745380402,-9.59318161010742,0.139566123485565,0.171089723706245,0.306818544864655,-39.1772727966309,0.115701943635941,0.141201764345169,0.322726339101791,2012-01-05 21:03:49
1.01584661006927,30,53.7733345031738,0.133332952857018,0.15691451728344,0.326668173074722,-9.13666725158691,0.16755548119545,0.194050401449203,0.336666703224182,-39.4866676330566,0.130222544074059,0.160693287849426,0.38666495680809,2012-01-05 21:03:50
1.21258664131165,31,53.6258087158203,0.499063342809677,0.581415235996246,1.22580552101135,-8.85483932495117,0.0953174903988838,0.11313346773386,0.254838556051254,-39.416130065918,0.115504808723927,0.143901601433754,0.31612753868103,2012-01-05 21:03:51
1.01589334011078,32,54.203125,0.191210687160492,0.232492536306381,0.40312671661377,-8.75,0.109375044703484,0.125,0.249999761581421,-39.3687515258789,0.128906577825546,0.162860095500946,0.431248426437378,2012-01-05 21:03:52
1.04177498817444,20,54,0.180000349879265,0.238747000694275,0.600001692771912,-8.78999996185303,0.055000115185976,0.0830663293600082,0.209999844431877,-39.3199996948242,0.14800001680851,0.163095012307167,0.320001035928726,2012-01-05 21:03:53
1.0836683511734,11,54.9636383056641,0.446280419826508,0.495933502912521,0.963636934757233,-8.82727241516113,0.157024756073952,0.165644183754921,0.227272376418114,-39.7727279663086,0.221487373113632,0.273332625627518,0.472728371620178,2012-01-05 21:03:54
3.39945840835571,7,54.4000015258789,0.314285755157471,0.414038807153702,0.899998247623444,-9,0.085714265704155,0.0925819203257561,0.0999999716877937,-39.228572845459,0.12653024494648,0.148460865020752,0.271427154541016,2012-01-05 21:03:57
1.03980505466461,11,54.009090423584,0.155372053384781,0.178144663572311,0.309091061353683,-9.0090913772583,0.119008213281631,0.137870341539383,0.209090933203697,-39.3272743225098,0.152065694332123,0.165643468499184,0.22727133333683,2012-01-05 21:03:58
1.05897164344788,13,54.0769233703613,0.101775489747524,0.112001717090607,0.176922425627708,-9.0230770111084,0.0816567912697792,0.112001575529575,0.27692312002182,-39.3307685852051,0.0899413526058197,0.0991086736321449,0.169229954481125,2012-01-05 21:03:59
1.04595494270325,14,53.8500022888184,0.128571808338165,0.150000259280205,0.250001102685928,-9.08571434020996,0.0755102559924126,0.0989742800593376,0.214285716414452,-39.3428573608398,0.116326510906219,0.134770750999451,0.24285589158535,2012-01-05 21:04:00
1.036088347435,14,53.9857139587402,0.159184202551842,0.180702015757561,0.314284473657608,-9.06428623199463,0.0653061345219612,0.0811271816492081,0.164285451173782,-39.2714309692383,0.0959184616804123,0.103015877306461,0.171427324414253,2012-01-05 21:04:01
1.6257016658783,11,54.0636367797852,0.171900227665901,0.187192663550377,0.263637185096741,-9.1363639831543,0.100826390087605,0.114991933107376,0.163636386394501,-39.1454544067383,0.0677678734064102,0.078202411532402,0.154543444514275,2012-01-05 21:04:03
1.06967997550964,11,53.8363647460938,0.112397246062756,0.129844531416893,0.263637900352478,-8.97272777557373,0.0710742101073265,0.0862438753247261,0.172727331519127,-39.2181816101074,0.110743187367916,0.126621380448341,0.218182653188705,2012-01-05 21:04:04
1.00842499732971,13,53.8692321777344,0.125444039702415,0.153845995664597,0.33076947927475,-8.89230823516846,0.100591830909252,0.120649211108685,0.207692444324493,-39.3615379333496,0.0721904113888741,0.0923085361719131,0.238463178277016,2012-01-05 21:04:05
1.06057333946228,15,54.1466674804688,0.0968882218003273,0.114697121083736,0.246665954589844,-8.96000003814697,0.133333340287209,0.162480860948563,0.35999983549118,-39.3333320617676,0.0800006091594696,0.0942810848355293,0.16666641831398,2012-01-05 21:04:06
1.00705671310425,11,53.9636383056641,0.142149358987808,0.155346274375916,0.236363843083382,-8.98181819915771,0.0776858031749725,0.0935965999960899,0.181818261742592,-39.2000007629395,0.127272173762321,0.141421154141426,0.200000762939453,2012-01-05 21:04:07
3.6604483127594,8,53.9874992370605,0.0906249284744263,0.116592556238174,0.212500095367432,-8.91250038146973,0.187500238418579,0.189983800053596,0.212500333786011,-39.2625007629395,0.078125,0.0856959074735641,0.137500762939453,2012-01-05 21:04:11
1.01927995681763,14,54,0.17142853140831,0.203539803624153,0.300000041723251,-8.9642858505249,0.083673320710659,0.0971533209085464,0.16428579390049,-39.1928558349609,0.0673462972044945,0.0883515104651451,0.19285774230957,2012-01-05 21:04:12
1.03779494762421,13,53.9384613037109,0.0970414280891418,0.114613197743893,0.238461419939995,-9.03846168518066,0.100591644644737,0.114612720906734,0.238461717963219,-39.2153854370117,0.0390526577830315,0.0532930567860603,0.115382857620716,2012-01-05 21:04:13
1.06151330471039,10,53.8899993896484,0.128000795841217,0.151328071951866,0.310000598430634,-9.14000034332275,0.0999999046325684,0.111355282366276,0.160000130534172,-39.1599998474121,0.139999389648438,0.156204611063004,0.259999096393585,2012-01-05 21:04:14
1.0182900428772,14,54.0214309692383,0.113265715539455,0.147253811359406,0.278570175170898,-9.0714282989502,0.106122456490993,0.122057169675827,0.228571549057961,-39.25,0.0857136026024818,0.105220288038254,0.249999448657036,2012-01-05 21:04:15
1.65834164619446,13,53.9923095703125,0.101774998009205,0.13846156001091,0.307691127061844,-8.93846225738525,0.0781063586473465,0.0923076421022415,0.161538496613503,-39.2769241333008,0.0863900259137154,0.104908801615238,0.223076447844505,2012-01-05 21:04:17
1.08875167369843,12,54.0166664123535,0.17499940097332,0.211475700139999,0.483332633972168,-9.01666736602783,0.0861110836267471,0.0986011847853661,0.183332845568657,-39.2000007629395,0.0999995842576027,0.135400220751762,0.299998909235001,2012-01-05 21:04:18
1.04166328907013,11,54.0454559326172,0.203306272625923,0.238799035549164,0.354545950889587,-8.98181819915771,0.0446278899908066,0.0574958063662052,0.118182010948658,-39.3272743225098,0.0892565995454788,0.105234891176224,0.172727063298225,2012-01-05 21:04:19
1.11634504795074,15,54.1000022888184,0.0933336019515991,0.121105633676052,0.199999496340752,-9.04666709899902,0.110222190618515,0.130979105830193,0.253333270549774,-39.3066673278809,0.0631116405129433,0.0853751003742218,0.193333178758621,2012-01-05 21:04:20
3.51577663421631,10,54.0900001525879,0.092000424861908,0.113577976822853,0.209998324513435,-9.02000045776367,0.103999942541122,0.124899812042713,0.219999983906746,-39.3400001525879,0.0880009457468987,0.111355982720852,0.260001748800278,2012-01-05 21:04:23
1.02543330192566,11,53.8545455932617,0.115703232586384,0.137270465493202,0.245456695556641,-9.06363677978516,0.0528926365077496,0.0642824620008469,0.163636118173599,-39.3909111022949,0.0842979997396469,0.0995860174298286,0.19090861082077,2012-01-05 21:04:24
1.01347494125366,15,54.0400009155273,0.125333860516548,0.16248083114624,0.340000420808792,-9.08666706085205,0.107555471360683,0.120369650423527,0.213333442807198,-39.2200012207031,0.125333219766617,0.146969601511955,0.220000207424164,2012-01-05 21:04:26
1.00530004501343,16,54.0062522888184,0.117969363927841,0.134484499692917,0.306250810623169,-8.92500019073486,0.0718747824430466,0.103077545762062,0.274999499320984,-39.2374992370605,0.117187201976776,0.14086776971817,0.262499332427979,2012-01-05 21:04:27
1.00370168685913,12,53.9916687011719,0.0763887837529182,0.0862009525299072,0.108334220945835,-9.04166698455811,0.0888889133930206,0.111492328345776,0.25833335518837,-39.2333335876465,0.111110262572765,0.137435987591743,0.266665786504745,2012-01-05 21:04:28
1.03383994102478,16,54.0437507629395,0.149218559265137,0.165712952613831,0.256248474121094,-8.96875,0.096875011920929,0.126089125871658,0.268750309944153,-39.3624992370605,0.125000476837158,0.145237073302269,0.262498378753662,2012-01-05 21:04:29
1.07243669033051,2,53.7999992370605,0,0,0,-9.19999980926514,0,0,0,-39.25,0.0499992370605469,0.0499992370605469,0.0499992370605469,2012-01-05 21:04:30
1.02757167816162,13,54.0769233703613,0.105325639247894,0.118671022355556,0.176922723650932,-8.93846130371094,0.124260194599628,0.154613435268402,0.261538058519363,-39.3846168518066,0.142011925578117,0.170276403427124,0.31538450717926,2012-01-05 21:04:31
1.27059662342072,14,54.0428581237793,0.136734783649445,0.167818859219551,0.442856103181839,-8.92142868041992,0.149999886751175,0.181967660784721,0.321428447961807,-39.2357139587402,0.0979583114385605,0.117150776088238,0.264284938573837,2012-01-05 21:04:32
3.09939670562744,7,54.1714286804199,0.102040037512779,0.116056993603706,0.228571206331253,-8.75714302062988,0.330612331628799,0.503862738609314,1.1571432352066,-39.2428588867188,0.151019662618637,0.1678187251091,0.257142215967178,2012-01-05 21:04:35
1.02349328994751,14,54.5142860412598,0.100000657141209,0.112486325204372,0.214287891983986,-7.57857131958008,0.0989796221256256,0.114508785307407,0.178571432828903,-39.0642852783203,0.0836740583181381,0.0971535220742226,0.164285391569138,2012-01-05 21:04:36
1.07878005504608,16,54.2312507629395,0.168749809265137,0.182752579450607,0.368751049041748,-7.53749990463257,0.0671874731779099,0.0780624598264694,0.162500292062759,-39.3250007629395,0.0593757331371307,0.0750003680586815,0.174999952316284,2012-01-05 21:04:37
1.00427496433258,13,54.4692306518555,0.125443637371063,0.15876741707325,0.33076798915863,-7.61538457870483,0.111242726445198,0.129175901412964,0.215384587645531,-39.207691192627,0.0852060690522194,0.0997027903795242,0.20769265294075,2012-01-05 21:04:38
1.02636671066284,13,54.5692329406738,0.119527243077755,0.153846308588982,0.269232541322708,-7.46153831481934,0.112425968050957,0.127330303192139,0.238461747765541,-39.2000007629395,0.0923076346516609,0.117669381201267,0.199999883770943,2012-01-05 21:04:39
1.67964172363281,11,54.490909576416,0.175206705927849,0.210861966013908,0.3090900182724,-7.53636360168457,0.0644628033041954,0.0771389380097389,0.163636639714241,-39.2090911865234,0.0677682533860207,0.0995857939124107,0.209091529250145,2012-01-05 21:04:41
1.08593332767487,16,54.5437507629395,0.106250524520874,0.136787921190262,0.343750238418579,-7.56874990463257,0.0687500238418579,0.0768013671040535,0.131250262260437,-39.2874984741211,0.0656245350837708,0.0856955945491791,0.212499856948853,2012-01-05 21:04:42
1.00220000743866,11,54.4454536437988,0.239669233560562,0.296536177396774,0.554544627666473,-7.59090900421143,0.0842975676059723,0.0995860174298286,0.190909087657928,-39.2818183898926,0.0743799731135368,0.0833197608590126,0.11818278580904,2012-01-05 21:04:43
3.71714162826538,12,54.5833358764648,0.0750004425644875,0.121335320174694,0.316666275262833,-7.5,0.0666666030883789,0.0912870094180107,0.199999809265137,-39.2916679382324,0.126388281583786,0.165621384978294,0.408333152532578,2012-01-05 21:04:47
1.06998336315155,11,54.5545463562012,0.160329893231392,0.172487020492554,0.245453223586082,-7.51818180084229,0.104132130742073,0.119226038455963,0.218181610107422,-39.1636390686035,0.105784580111504,0.136666119098663,0.263636499643326,2012-01-05 21:04:48
1.00487995147705,13,54.4923095703125,0.0721893757581711,0.0916650220751762,0.192309454083443,-7.57692337036133,0.132544428110123,0.1526879966259,0.276923000812531,-39.1000022888184,0.123077481985092,0.156893134117126,0.30000039935112,2012-01-05 21:04:49
1.01192998886108,10,54.4799995422363,0.104000240564346,0.124900557100773,0.220000073313713,-7.48000001907349,0.0679999366402626,0.0871778950095177,0.179999828338623,-39.2700004577637,0.0899997726082802,0.100498706102371,0.169998556375504,2012-01-05 21:04:50
1.0460616350174,12,54.4916687011719,0.0763885155320168,0.0953793227672577,0.208333015441895,-7.47499990463257,0.0666666030883789,0.0829155370593071,0.174999833106995,-39.2583351135254,0.118054866790771,0.138192027807236,0.241665840148926,2012-01-05 21:04:51
1.30862998962402,7,54.4142875671387,0.159183263778687,0.203037545084953,0.385713309049606,-7.61428594589233,0.0734695494174957,0.0832994431257248,0.114285811781883,-39.228572845459,0.0612235553562641,0.0699843540787697,0.128569468855858,2012-01-05 21:04:52
1.10859835147858,13,54.4153861999512,0.128994196653366,0.160988315939903,0.384614795446396,-7.50769233703613,0.117159739136696,0.143909886479378,0.292307823896408,-39.269229888916,0.0532538518309593,0.0605689994990826,0.13077075779438,2012-01-05 21:04:53
1.03024160861969,11,54.5272750854492,0.102479979395866,0.121288262307644,0.227274462580681,-7.53636360168457,0.0826446563005447,0.0979121401906013,0.163636595010757,-39.2272720336914,0.102478533983231,0.11354473978281,0.172727763652802,2012-01-05 21:04:54
3.16428995132446,8,54.4625015258789,0.131250143051147,0.157619431614876,0.262500286102295,-7.47499990463257,0.0874999165534973,0.108972370624542,0.174999833106995,-39.3125,0.162500381469727,0.208791062235832,0.41249942779541,2012-01-05 21:04:57
1.02783000469208,14,54.6071434020996,0.123468823730946,0.170981392264366,0.407143175601959,-7.4642858505249,0.107142820954323,0.134202092885971,0.264285534620285,-39.3357162475586,0.168367817997932,0.215828076004982,0.435714185237885,2012-01-05 21:04:58
1.0372633934021,12,54.6166687011719,0.11944368481636,0.140435189008713,0.216665908694267,-7.44999980926514,0.091666579246521,0.104083202779293,0.149999856948853,-39.2000007629395,0.0999995842576027,0.147195935249329,0.40000119805336,2012-01-05 21:04:59
1.06075668334961,14,54.6571426391602,0.15918342769146,0.195354297757149,0.357145041227341,-7.47142839431763,0.0897958353161812,0.103015653789043,0.17142841219902,-39.1857147216797,0.0734684988856316,0.105944886803627,0.314284473657608,2012-01-05 21:05:01
1.05444669723511,17,54.6117668151855,0.141867831349373,0.171094045042992,0.411764472723007,-7.44705867767334,0.0968857184052467,0.109101288020611,0.152941033244133,-39.2588233947754,0.11418616771698,0.128606572747231,0.24117548763752,2012-01-05 21:05:02
1.48678505420685,11,54.472728729248,0.0842975601553917,0.0962096676230431,0.172729149460793,-7.372727394104,0.066115640103817,0.0749654844403267,0.127272605895996,-39.1454544067383,0.0859501138329506,0.107565201818943,0.254545718431473,2012-01-05 21:05:03
1.02062332630157,15,54.6599998474121,0.175999626517296,0.209124848246574,0.339998871088028,-7.3600001335144,0.106666646897793,0.135646596550941,0.260000169277191,-39.2466659545898,0.0897772237658501,0.102414853870869,0.153334051370621,2012-01-05 21:05:04
1.05773162841797,14,54.5214309692383,0.153061464428902,0.185851603746414,0.321428298950195,-7.47857141494751,0.0928570851683617,0.120585285127163,0.321428716182709,-39.3428573608398,0.100000381469727,0.117802836000919,0.242855340242386,2012-01-05 21:05:05
3.47689509391785,11,54.6545448303223,0.140495181083679,0.182724714279175,0.454545468091965,-7.51818180084229,0.0743800923228264,0.0833194777369499,0.118181705474854,-39.2636375427246,0.100825853645802,0.1298438757658,0.263636499643326,2012-01-05 21:05:09
1.01242995262146,13,54.6000022888184,0.0769235268235207,0.110939666628838,0.199999585747719,-7.4769229888916,0.120710000395775,0.147564023733139,0.276922881603241,-39.1461524963379,0.150295421481133,0.16462217271328,0.253847271203995,2012-01-05 21:05:10
1.07760334014893,16,54.4874992370605,0.0671873986721039,0.0856961458921432,0.187501668930054,-7.51875019073486,0.0984374806284904,0.123585745692253,0.281250149011612,-39.3062515258789,0.107031494379044,0.124843381345272,0.20624852180481,2012-01-05 21:05:11
1.02945828437805,18,54.5111122131348,0.0802478343248367,0.114934764802456,0.311111241579056,-7.48333358764648,0.0685184523463249,0.089752659201622,0.183333158493042,-39.2666664123535,0.0851843804121017,0.105408653616905,0.233332946896553,2012-01-05 21:05:12
1.00926494598389,12,54.5,0.0666672363877296,0.100000381469727,0.200001403689384,-7.51666688919067,0.0722222030162811,0.0986013114452362,0.216666504740715,-39.2333335876465,0.0833323821425438,0.0942800268530846,0.166667625308037,2012-01-05 21:05:13
1.73990333080292,15,54.5200004577637,0.101333685219288,0.110755041241646,0.17999929189682,-7.41333341598511,0.0728888213634491,0.102415181696415,0.213333129882812,-39.3133354187012,0.12266693264246,0.154344290494919,0.386666625738144,2012-01-05 21:05:14
1.01879668235779,14,54.5571441650391,0.185714170336723,0.206031337380409,0.357142865657806,-7.40000009536743,0.0857142060995102,0.106904394924641,0.199999809265137,-39.2000007629395,0.0999990180134773,0.13627615571022,0.299999237060547,2012-01-05 21:05:15
1.01569664478302,12,54.5250015258789,0.108334220945835,0.142156526446342,0.325000137090683,-7.49166679382324,0.0777777582406998,0.111492440104485,0.208333536982536,-39.3000030517578,0.100000381469727,0.108012460172176,0.19999885559082,2012-01-05 21:05:17
1.06762337684631,13,54.4923095703125,0.119526699185371,0.168530076742172,0.307691127061844,-7.3692307472229,0.13609454035759,0.148762002587318,0.230769008398056,-39.2615394592285,0.127810508012772,0.15461353957653,0.261538863182068,2012-01-05 21:05:18
2.81377506256104,4,54.5250015258789,0.0875000953674316,0.10897234082222,0.175000190734863,-7.45000028610229,0.125000059604645,0.150000050663948,0.25000011920929,-39.2000007629395,0.0499992370605469,0.0707096010446548,0.0999984741210938,2012-01-05 21:05:20
1.01130831241608,13,54.5769233703613,0.128994330763817,0.162451431155205,0.423076033592224,-7.40769243240356,0.0733727663755417,0.107141442596912,0.29230785369873,-39.230770111084,0.0934907346963882,0.132343158125877,0.26923018693924,2012-01-05 21:05:21
1.10546171665192,15,54.5200004577637,0.0560006387531757,0.0748334303498268,0.180000051856041,-7.36666679382324,0.0622221641242504,0.0699205249547958,0.133333206176758,-39.2600021362305,0.2053332477808,0.238886594772339,0.439999639987946,2012-01-05 21:05:23
1.03672170639038,17,54.4470596313477,0.114878483116627,0.145996078848839,0.252941131591797,-7.44705867767334,0.0678200051188469,0.0775934904813766,0.152941033244133,-39.235294342041,0.0920407772064209,0.108145266771317,0.235294565558434,2012-01-05 21:05:24
1.07308161258698,16,54.5812530517578,0.0859379768371582,0.101358041167259,0.181249618530273,-7.61250019073486,0.079687625169754,0.105326950550079,0.21249994635582,-39.2437515258789,0.131249666213989,0.157990247011185,0.256249666213989,2012-01-05 21:05:25
1.54953670501709,8,54.5625,0.0625009536743164,0.0695977061986923,0.137499809265137,-7.53749990463257,0.112499952316284,0.131695657968521,0.262500166893005,-39.3375015258789,0.103125214576721,0.121834687888622,0.237498760223389,2012-01-05 21:05:26
1.02478337287903,14,54.4642868041992,0.121428355574608,0.171577349305153,0.435714721679688,-7.52142858505249,0.113265328109264,0.152027115225792,0.32142835855484,-39.4000015258789,0.085715115070343,0.113390013575554,0.200001582503319,2012-01-05 21:05:27
1.0336766242981,14,54.6428565979004,0.0795915573835373,0.0903507024049759,0.157141283154488,-7.44999980926514,0.0714285001158714,0.0823753699660301,0.149999856948853,-39.2571449279785,0.128571107983589,0.15452353656292,0.257143288850784,2012-01-05 21:05:28
1.02861166000366,15,54.4599990844727,0.144000068306923,0.174356013536453,0.339998871088028,-7.59999990463257,0.0933334827423096,0.109544612467289,0.200000032782555,-39.2600021362305,0.119999527931213,0.158324167132378,0.439999908208847,2012-01-05 21:05:29
2.99391341209412,5,54.620002746582,0.143999934196472,0.193907856941223,0.320001989603043,-7.42000007629395,0.0319999679923058,0.0399999618530273,0.0799999237060547,-39.1599998474121,0.0479992665350437,0.0489890463650227,0.0599990859627724,2012-01-05 21:05:32
1.00421333312988,12,54.6166687011719,0.0694439113140106,0.0897525548934937,0.216666534543037,-7.45833349227905,0.0486110635101795,0.0493006184697151,0.0583332777023315,-39.3250007629395,0.129166543483734,0.142155587673187,0.224998161196709,2012-01-05 21:05:33
1.04184830188751,17,54.5470581054688,0.120415739715099,0.153843656182289,0.352941632270813,-7.53529405593872,0.13910037279129,0.174697026610374,0.435294300317764,-39.3647079467773,0.127335831522942,0.149277240037918,0.335294604301453,2012-01-05 21:05:34
1.00327837467194,16,54.5187492370605,0.063281923532486,0.0807680636644363,0.181249856948853,-7.51875019073486,0.0835937038064003,0.10135792195797,0.218749821186066,-39.3187522888184,0.115625739097595,0.150909200310707,0.281251668930054,2012-01-05 21:05:35
1.05960333347321,19,54.7368431091309,0.179500952363014,0.210789233446121,0.46315786242485,-7.52105283737183,0.0709140971302986,0.0950287729501724,0.278947561979294,-39.3263168334961,0.135734662413597,0.183079391717911,0.373684525489807,2012-01-05 21:05:36
1.53875172138214,11,54.6545486450195,0.132230773568153,0.161603212356567,0.254545390605927,-7.50909090042114,0.0859504565596581,0.116420470178127,0.209090799093246,-39.3636360168457,0.107438080012798,0.136666342616081,0.263635456562042,2012-01-05 21:05:38
50.7336006164551,10,54.620002746582,0.127999261021614,0.159999564290047,0.280000299215317,-7.47000026702881,0.0559999458491802,0.064031183719635,0.129999876022339,-39.3500022888184,0.100000612437725,0.128452599048615,0.250001132488251,2012-01-05 21:06:29
1.02927827835083,13,54.4846153259277,0.183432355523109,0.210663050413132,0.415386199951172,-7.40000009536743,0.13846144080162,0.161721423268318,0.300000160932541,-39.2076950073242,0.0579877309501171,0.0828481093049049,0.192308276891708,2012-01-05 21:06:30
1.09158837795258,13,54.5153846740723,0.278106451034546,0.298318684101105,0.415383279323578,-7.40000009536743,0.0923076048493385,0.110939934849739,0.199999809265137,-39.292308807373,0.115975916385651,0.132789418101311,0.207691490650177,2012-01-05 21:06:31
1.07126998901367,9,54.6333351135254,0.170370221138,0.200000271201134,0.333335041999817,-7.3444447517395,0.0691357329487801,0.0831478610634804,0.155555412173271,-39.3444442749023,0.0617293380200863,0.0684941634535789,0.144444361329079,2012-01-05 21:06:32
1.02377164363861,12,54.5083351135254,0.427777409553528,0.468077719211578,0.691666305065155,-7.40000009536743,0,0,0,-39.341667175293,0.212499618530273,0.256443947553635,0.458332061767578,2012-01-05 21:06:33
