"diffSecs","latitude","longitude","altitude","time"
0.453000068664551,42.37223166,-70.99497972,-24.2000007629395,2012-01-19 20:00:00
0.993000030517578,42.37223165,-70.99497969,-24.2000007629395,2012-01-19 20:00:01
0.872999906539917,42.37223166,-70.99497966,-24.2000007629395,2012-01-19 20:00:02
2.34100008010864,42.37223166,-70.99497965,-24.2000007629395,2012-01-19 20:00:04
1.00300002098083,42.37223167,-70.99497963,-24.2000007629395,2012-01-19 20:00:05
0.888000011444092,42.37223168,-70.99497963,-24.2000007629395,2012-01-19 20:00:06
0.879999876022339,42.37223168,-70.99497964,-24.2000007629395,2012-01-19 20:00:07
0.838000059127808,42.37223169,-70.99497964,-24.2000007629395,2012-01-19 20:00:08
1.3199999332428,42.37223169,-70.99497965,-24.2000007629395,2012-01-19 20:00:09
1.15000009536743,42.3722317,-70.99497966,-24.2000007629395,2012-01-19 20:00:10
0.470999956130981,42.3722317,-70.99497966,-24.2000007629395,2012-01-19 20:00:11
1.35400009155273,42.3722317,-70.99497967,-24.2000007629395,2012-01-19 20:00:12
0.863999843597412,42.37223171,-70.99497967,-24.2000007629395,2012-01-19 20:00:13
1.07600021362305,42.37223171,-70.99497967,-24.2000007629395,2012-01-19 20:00:14
1.02300000190735,42.37223171,-70.99497967,-24.2000007629395,2012-01-19 20:00:15
1.21499991416931,42.37223171,-70.99497967,-24.2000007629395,2012-01-19 20:00:16
0.493000030517578,42.37223171,-70.99497967,-24.2000007629395,2012-01-19 20:00:17
1.1710000038147,42.37223171,-70.99497967,-24.2000007629395,2012-01-19 20:00:18
1.27999997138977,42.37223172,-70.99497967,-24.2000007629395,2012-01-19 20:00:19
0.552999973297119,42.37223172,-70.99497967,-24.2000007629395,2012-01-19 20:00:20
1.02099990844727,42.37223172,-70.99497967,-24.2000007629395,2012-01-19 20:00:21
1.09000015258789,42.37223172,-70.99497967,-24.2000007629395,2012-01-19 20:00:22
0.974999904632568,42.37223172,-70.99497967,-24.2000007629395,2012-01-19 20:00:23
1.2279999256134,42.37223173,-70.99497967,-24.2000007629395,2012-01-19 20:00:24
0.959000110626221,42.37223173,-70.99497967,-24.2000007629395,2012-01-19 20:00:25
0.681999921798706,42.37223173,-70.99497968,-24.2000007629395,2012-01-19 20:00:26
1.47699999809265,42.37223173,-70.99497967,-24.2000007629395,2012-01-19 20:00:27
0.847000122070312,42.37223174,-70.99497968,-24.2000007629395,2012-01-19 20:00:28
0.932999849319458,42.37223174,-70.99497967,-24.2000007629395,2012-01-19 20:00:29
0.958000183105469,42.37223174,-70.99497965,-24.2000007629395,2012-01-19 20:00:30
1.0479998588562,42.37223173,-70.99497965,-24.2000007629395,2012-01-19 20:00:31
1.68900012969971,42.37223173,-70.99497965,-24.2000007629395,2012-01-19 20:00:33
0.888000011444092,42.37223174,-70.99497966,-24.2000007629395,2012-01-19 20:00:34
1.03499984741211,42.37223174,-70.99497966,-24.2000007629395,2012-01-19 20:00:35
0.81000018119812,42.37223174,-70.99497966,-24.2000007629395,2012-01-19 20:00:35
1.12899994850159,42.37223174,-70.99497966,-24.2000007629395,2012-01-19 20:00:37
1.00999999046326,42.37223174,-70.99497967,-24.2000007629395,2012-01-19 20:00:38
0.940999984741211,42.37223174,-70.99497967,-24.2000007629395,2012-01-19 20:00:38
1.01999998092651,42.37223175,-70.99497968,-24.2000007629395,2012-01-19 20:00:39
1.01099991798401,42.37223175,-70.99497969,-24.2000007629395,2012-01-19 20:00:40
1.06299996376038,42.37223175,-70.99497969,-24.2000007629395,2012-01-19 20:00:42
0.866000175476074,42.37223175,-70.99497969,-24.2000007629395,2012-01-19 20:00:42
1.02499985694885,42.37223175,-70.9949797,-24.2000007629395,2012-01-19 20:00:43
1.1010000705719,42.37223175,-70.99497969,-24.2000007629395,2012-01-19 20:00:45
0.825000047683716,42.37223175,-70.99497968,-24.2000007629395,2012-01-19 20:00:45
1.10500001907349,42.37223175,-70.99497968,-24.2000007629395,2012-01-19 20:00:46
1.03499984741211,42.37223175,-70.99497968,-24.2000007629395,2012-01-19 20:00:48
0.863000154495239,42.37223174,-70.99497967,-24.2000007629395,2012-01-19 20:00:48
1.09699988365173,42.37223174,-70.99497966,-24.2000007629395,2012-01-19 20:00:49
1.06200003623962,42.37223174,-70.99497965,-24.2000007629395,2012-01-19 20:00:51
0.82699990272522,42.37223174,-70.99497965,-24.2000007629395,2012-01-19 20:00:51
1.14300012588501,42.37223174,-70.99497966,-24.2000007629395,2012-01-19 20:00:53
1.00999999046326,42.37223174,-70.99497966,-24.2000007629395,2012-01-19 20:00:54
0.990000009536743,42.37223174,-70.99497965,-24.2000007629395,2012-01-19 20:00:55
0.976999998092651,42.37223173,-70.99497966,-24.2000007629395,2012-01-19 20:00:55
1.0699999332428,42.37223173,-70.99497965,-24.2000007629395,2012-01-19 20:00:57
0.845000028610229,42.37223173,-70.99497965,-24.2000007629395,2012-01-19 20:00:57
1.08899998664856,42.37223173,-70.99497965,-24.2000007629395,2012-01-19 20:00:58
0.986999988555908,42.37223172,-70.99497965,-24.2000007629395,2012-01-19 20:00:59
1.06200003623962,42.37223172,-70.99497965,-24.2000007629395,2012-01-19 20:01:01
0.845999956130981,42.37223172,-70.99497965,-24.2000007629395,2012-01-19 20:01:01
1.12800002098083,42.37223172,-70.99497965,-24.2000007629395,2012-01-19 20:01:03
0.924000024795532,42.37223172,-70.99497965,-24.2000007629395,2012-01-19 20:01:03
1.07599997520447,42.37223172,-70.99497965,-24.2000007629395,2012-01-19 20:01:05
0.985000133514404,42.37223171,-70.99497965,-24.2000007629395,2012-01-19 20:01:05
0.98799991607666,42.37223171,-70.99497965,-24.2000007629395,2012-01-19 20:01:06
1.0789999961853,42.37223171,-70.99497964,-24.2000007629395,2012-01-19 20:01:08
0.91700005531311,42.37223171,-70.99497964,-24.2000007629395,2012-01-19 20:01:08
0.98799991607666,42.37223171,-70.99497964,-24.2000007629395,2012-01-19 20:01:09
1.04399991035461,42.37223171,-70.99497964,-24.2000007629395,2012-01-19 20:01:11
0.853000164031982,42.37223171,-70.99497964,-24.2000007629395,2012-01-19 20:01:11
1.13100004196167,42.3722317,-70.99497964,-24.2000007629395,2012-01-19 20:01:12
1.06099987030029,42.3722317,-70.99497964,-24.2000007629395,2012-01-19 20:01:14
0.896000146865845,42.3722317,-70.99497964,-24.2000007629395,2012-01-19 20:01:14
1.01899981498718,42.3722317,-70.99497965,-24.2000007629395,2012-01-19 20:01:15
1.10600018501282,42.3722317,-70.99497965,-24.2000007629395,2012-01-19 20:01:17
0.812999963760376,42.37223171,-70.99497966,-24.2000007629395,2012-01-19 20:01:17
1.10599994659424,42.37223171,-70.99497967,-24.2000007629395,2012-01-19 20:01:18
0.930999994277954,42.37223171,-70.99497968,-24.2000007629395,2012-01-19 20:01:19
1.06500005722046,42.37223171,-70.99497968,-24.2000007629395,2012-01-19 20:01:20
1,42.37223172,-70.99497969,-24.2000007629395,2012-01-19 20:01:21
0.985999822616577,42.37223171,-70.99497969,-24.2000007629395,2012-01-19 20:01:22
1.11400008201599,42.37223172,-70.99497969,-24.2000007629395,2012-01-19 20:01:24
0.756999969482422,42.37223172,-70.99497969,-24.2000007629395,2012-01-19 20:01:24
1.10199999809265,42.37223172,-70.9949797,-24.2000007629395,2012-01-19 20:01:25
1.0550000667572,42.37223173,-70.9949797,-24.2000007629395,2012-01-19 20:01:27
0.855999946594238,42.37223173,-70.99497971,-24.2000007629395,2012-01-19 20:01:27
1.13199996948242,42.37223173,-70.99497971,-24.2000007629395,2012-01-19 20:01:28
1.07800006866455,42.37223174,-70.99497973,-24.2000007629395,2012-01-19 20:01:30
0.884000062942505,42.37223174,-70.99497974,-24.2000007629395,2012-01-19 20:01:30
0.98799991607666,42.37223175,-70.99497975,-24.2000007629395,2012-01-19 20:01:31
1.07200002670288,42.37223175,-70.99497975,-24.2000007629395,2012-01-19 20:01:33
0.845999956130981,42.37223176,-70.99497975,-24.2000007629395,2012-01-19 20:01:33
1.13899993896484,42.37223177,-70.99497975,-24.2000007629395,2012-01-19 20:01:34
0.919000148773193,42.37223177,-70.99497973,-24.2000007629395,2012-01-19 20:01:35
1.03200006484985,42.37223177,-70.99497973,-24.2000007629395,2012-01-19 20:01:36
1.00299978256226,42.37223178,-70.99497973,-24.2000007629395,2012-01-19 20:01:37
1.0789999961853,42.3722318,-70.99497973,-24.2000007629395,2012-01-19 20:01:39
0.840000152587891,42.37223181,-70.99497974,-24.2000007629395,2012-01-19 20:01:39
1.12899994850159,42.37223182,-70.99497974,-24.2000007629395,2012-01-19 20:01:40
1.03200006484985,42.37223182,-70.99497973,-24.2000007629395,2012-01-19 20:01:42
0.952999830245972,42.37223182,-70.99497971,-24.2000007629395,2012-01-19 20:01:42
0.995000123977661,42.37223182,-70.99497971,-24.2000007629395,2012-01-19 20:01:43
1.00600004196167,42.37223182,-70.9949797,-24.2000007629395,2012-01-19 20:01:44
1.04699993133545,42.37223182,-70.99497969,-24.2000007629395,2012-01-19 20:01:46
0.972000122070312,42.37223184,-70.99497969,-24.2000007629395,2012-01-19 20:01:47
0.942999839782715,42.37223186,-70.9949797,-24.2000007629395,2012-01-19 20:01:47
1.05100011825562,42.37223186,-70.9949797,-24.2000007629395,2012-01-19 20:01:48
1.01999998092651,42.37223185,-70.9949797,-24.2000007629395,2012-01-19 20:01:50
0.829999923706055,42.37223185,-70.9949797,-24.2000007629395,2012-01-19 20:01:50
1.10599994659424,42.37223185,-70.99497971,-24.2000007629395,2012-01-19 20:01:51
1.07599997520447,42.37223185,-70.99497971,-24.2000007629395,2012-01-19 20:01:53
0.90500020980835,42.37223185,-70.99497971,-24.2000007629395,2012-01-19 20:01:53
1.03799986839294,42.37223185,-70.99497971,-24.2000007629395,2012-01-19 20:01:54
1.08700013160706,42.37223185,-70.99497971,-24.2000007629395,2012-01-19 20:01:56
0.834999799728394,42.37223184,-70.9949797,-24.2000007629395,2012-01-19 20:01:56
1.0770001411438,42.37223184,-70.9949797,-24.2000007629395,2012-01-19 20:01:57
1.07699990272522,42.37223184,-70.9949797,-24.2000007629395,2012-01-19 20:01:59
0.999000072479248,42.37223184,-70.99497971,-24.2000007629395,2012-01-19 20:02:00
0.802999973297119,42.37223184,-70.99497971,-24.2000007629395,2012-01-19 20:02:00
1.15499997138977,42.37223184,-70.99497971,-24.2000007629395,2012-01-19 20:02:02
0.969000101089478,42.37223184,-70.99497972,-24.2000007629395,2012-01-19 20:02:02
0.872999906539917,42.37223184,-70.99497972,-24.2000007629395,2012-01-19 20:02:03
1.1230001449585,42.37223185,-70.99497973,-24.2000007629395,2012-01-19 20:02:04
1.0719997882843,42.37223185,-70.99497973,-24.2000007629395,2012-01-19 20:02:06
0.821000099182129,42.37223185,-70.99497975,-24.2000007629395,2012-01-19 20:02:06
1.09100008010864,42.37223185,-70.99497975,-24.2000007629395,2012-01-19 20:02:07
1.08299994468689,42.37223186,-70.99497976,-24.2000007629395,2012-01-19 20:02:09
1.00099992752075,42.37223185,-70.99497977,-24.2000007629395,2012-01-19 20:02:10
0.966000080108643,42.37223185,-70.99497977,-24.2000007629395,2012-01-19 20:02:11
1.07299995422363,42.37223185,-70.99497977,-24.2000007629395,2012-01-19 20:02:12
0.966000080108643,42.37223186,-70.99497978,-24.2000007629395,2012-01-19 20:02:13
0.960999965667725,42.37223186,-70.99497978,-24.2000007629395,2012-01-19 20:02:14
0.948999881744385,42.37223187,-70.99497978,-24.2000007629395,2012-01-19 20:02:14
1.06800007820129,42.37223187,-70.99497979,-24.2000007629395,2012-01-19 20:02:16
0.984999895095825,42.37223188,-70.99497981,-24.2000007629395,2012-01-19 20:02:17
1.09700012207031,42.37223189,-70.99497982,-24.2000007629395,2012-01-19 20:02:18
0.867000102996826,42.3722319,-70.99497984,-24.2000007629395,2012-01-19 20:02:18
0.984999895095825,42.3722319,-70.99497986,-24.2000007629395,2012-01-19 20:02:19
1.00499987602234,42.37223191,-70.99497987,-24.2000007629395,2012-01-19 20:02:20
1.06700015068054,42.37223192,-70.99497987,-24.2000007629395,2012-01-19 20:02:22
0.928999900817871,42.37223193,-70.99497986,-24.2000007629395,2012-01-19 20:02:22
0.95799994468689,42.37223193,-70.99497987,-24.2000007629395,2012-01-19 20:02:23
1.0770001411438,42.37223194,-70.99497988,-24.2000007629395,2012-01-19 20:02:24
0.872999906539917,42.37223194,-70.99497987,-24.2000007629395,2012-01-19 20:02:25
1.11199998855591,42.37223195,-70.99497987,-24.2000007629395,2012-01-19 20:02:26
1.06299996376038,42.37223196,-70.99497987,-24.2000007629395,2012-01-19 20:02:28
0.956000089645386,42.37223197,-70.99497988,-24.2000007629395,2012-01-19 20:02:28
0.944999933242798,42.37223198,-70.99497988,-24.2000007629395,2012-01-19 20:02:29
1.19800019264221,42.37223198,-70.99497988,-24.2000007629395,2012-01-19 20:02:31
1,42.37223198,-70.99497988,-24.2000007629395,2012-01-19 20:02:32
0.998999834060669,42.37223198,-70.99497987,-24.2000007629395,2012-01-19 20:02:33
1.07299995422363,42.372232,-70.99497987,-24.2000007629395,2012-01-19 20:02:34
0.896000146865845,42.372232,-70.99497987,-24.2000007629395,2012-01-19 20:02:35
1.00999999046326,42.37223201,-70.99497987,-24.2000007629395,2012-01-19 20:02:36
1.07299995422363,42.37223201,-70.99497987,-24.2000007629395,2012-01-19 20:02:37
0.861000061035156,42.37223202,-70.99497987,-24.2000007629395,2012-01-19 20:02:38
1.08200001716614,42.37223202,-70.99497987,-24.2000007629395,2012-01-19 20:02:39
0.940000057220459,42.37223203,-70.99497987,-24.2000007629395,2012-01-19 20:02:40
1.05799984931946,42.37223204,-70.99497988,-24.2000007629395,2012-01-19 20:02:41
0.998000144958496,42.37223204,-70.99497989,-24.2000007629395,2012-01-19 20:02:42
1.06199979782104,42.37223204,-70.99497989,-24.2000007629395,2012-01-19 20:02:43
0.840000152587891,42.37223205,-70.9949799,-24.2000007629395,2012-01-19 20:02:44
1.11199998855591,42.37223205,-70.9949799,-24.2000007629395,2012-01-19 20:02:45
0.968999862670898,42.37223206,-70.99497991,-24.2000007629395,2012-01-19 20:02:46
1.04700016975403,42.37223206,-70.99497992,-24.2000007629395,2012-01-19 20:02:47
0.83899998664856,42.37223206,-70.99497992,-24.2000007629395,2012-01-19 20:02:47
1.13800001144409,42.37223206,-70.99497993,-24.2000007629395,2012-01-19 20:02:49
1.06699991226196,42.37223206,-70.99497993,-24.2000007629395,2012-01-19 20:02:50
0.895999908447266,42.37223207,-70.99497992,-24.2000007629395,2012-01-19 20:02:51
1.01999998092651,42.37223207,-70.99497992,-24.2000007629395,2012-01-19 20:02:52
1.10400009155273,42.37223208,-70.99497993,-24.2000007629395,2012-01-19 20:02:53
0.953000068664551,42.37223208,-70.99497992,-24.2000007629395,2012-01-19 20:02:54
0.819000005722046,42.37223209,-70.99497992,-24.2000007629395,2012-01-19 20:02:54
1.10500001907349,42.3722321,-70.99497991,-24.2000007629395,2012-01-19 20:02:56
1.04699993133545,42.37223209,-70.99497991,-24.2000007629395,2012-01-19 20:02:57
0.865999937057495,42.37223209,-70.99497991,-24.2000007629395,2012-01-19 20:02:58
1.10400009155273,42.37223209,-70.99497991,-24.2000007629395,2012-01-19 20:02:59
1.01600003242493,42.37223209,-70.99497991,-24.2000007629395,2012-01-19 20:03:00
1.07599997520447,42.3722321,-70.99497991,-24.2000007629395,2012-01-19 20:03:01
1.11999988555908,42.3722321,-70.99497991,-24.2000007629395,2012-01-19 20:03:02
0.864000082015991,42.3722321,-70.99497991,-24.2000007629395,2012-01-19 20:03:03
0.834000110626221,42.3722321,-70.99497991,-24.2000007629395,2012-01-19 20:03:04
1.04099988937378,42.3722321,-70.99497991,-24.2000007629395,2012-01-19 20:03:05
1.24600005149841,42.3722321,-70.99497992,-24.2000007629395,2012-01-19 20:03:06
0.846999883651733,42.3722321,-70.99497992,-24.2000007629395,2012-01-19 20:03:07
0.992000102996826,42.3722321,-70.99497992,-24.2000007629395,2012-01-19 20:03:08
0.961999893188477,42.3722321,-70.99497992,-24.2000007629395,2012-01-19 20:03:09
1.50200009346008,42.3722321,-70.99497991,-24.2000007629395,2012-01-19 20:03:10
0.927999973297119,42.3722321,-70.99497991,-24.2000007629395,2012-01-19 20:03:11
0.556999921798706,42.3722321,-70.99497991,-24.2000007629395,2012-01-19 20:03:12
1.24600005149841,42.37223211,-70.99497991,-24.2000007629395,2012-01-19 20:03:13
0.944999933242798,42.3722321,-70.99497991,-24.2000007629395,2012-01-19 20:03:14
0.765000104904175,42.3722321,-70.99497991,-24.2000007629395,2012-01-19 20:03:15
1.58500003814697,42.3722321,-70.99497991,-24.2000007629395,2012-01-19 20:03:16
0.613999843597412,42.3722321,-70.99497991,-24.2000007629395,2012-01-19 20:03:17
0.854000091552734,42.3722321,-70.99497991,-24.2000007629395,2012-01-19 20:03:18
1.0090000629425,42.3722321,-70.99497991,-24.2000007629395,2012-01-19 20:03:19
1.00399994850159,42.3722321,-70.99497991,-24.2000007629395,2012-01-19 20:03:20
1.04099988937378,42.3722321,-70.99497991,-24.2000007629395,2012-01-19 20:03:21
0.990000009536743,42.37223211,-70.99497991,-24.2000007629395,2012-01-19 20:03:22
0.927000045776367,42.37223211,-70.99497992,-24.2000007629395,2012-01-19 20:03:23
1.02600002288818,42.37223211,-70.99497992,-24.2000007629395,2012-01-19 20:03:24
1.14400005340576,42.37223211,-70.99497992,-24.2000007629395,2012-01-19 20:03:25
0.789999961853027,42.37223211,-70.99497992,-24.2000007629395,2012-01-19 20:03:26
1.09700012207031,42.37223211,-70.99497992,-24.2000007629395,2012-01-19 20:03:27
0.934999942779541,42.37223211,-70.99497992,-24.2000007629395,2012-01-19 20:03:28
1.04699993133545,42.37223211,-70.99497992,-24.2000007629395,2012-01-19 20:03:29
1.05400013923645,42.37223211,-70.99497992,-24.2000007629395,2012-01-19 20:03:30
0.958999872207642,42.37223211,-70.99497992,-24.2000007629395,2012-01-19 20:03:31
1.02699995040894,42.37223211,-70.99497992,-24.2000007629395,2012-01-19 20:03:32
0.995000123977661,42.37223211,-70.99497992,-24.2000007629395,2012-01-19 20:03:33
0.925999879837036,42.37223211,-70.99497992,-24.2000007629395,2012-01-19 20:03:34
1.08000016212463,42.37223211,-70.99497992,-24.2000007629395,2012-01-19 20:03:35
0.980999946594238,42.37223211,-70.99497992,-24.2000007629395,2012-01-19 20:03:36
0.994999885559082,42.37223211,-70.99497992,-24.2000007629395,2012-01-19 20:03:37
1.05400013923645,42.37223211,-70.99497992,-24.2000007629395,2012-01-19 20:03:38
0.944999933242798,42.37223211,-70.99497992,-24.2000007629395,2012-01-19 20:03:39
0.966000080108643,42.37223211,-70.99497992,-24.2000007629395,2012-01-19 20:03:40
1.06799983978271,42.37223211,-70.99497993,-24.2000007629395,2012-01-19 20:03:41
0.950999975204468,42.37223211,-70.99497993,-24.2000007629395,2012-01-19 20:03:42
1.02600002288818,42.37223211,-70.99497993,-24.2000007629395,2012-01-19 20:03:43
0.967000007629395,42.37223211,-70.99497993,-24.2000007629395,2012-01-19 20:03:44
1.00600004196167,42.37223211,-70.99497993,-24.2000007629395,2012-01-19 20:03:45
0.996000051498413,42.37223211,-70.99497993,-24.2000007629395,2012-01-19 20:03:46
1.05800008773804,42.37223211,-70.99497994,-24.2000007629395,2012-01-19 20:03:47
0.839999914169312,42.37223211,-70.99497994,-24.2000007629395,2012-01-19 20:03:48
1.14400005340576,42.37223211,-70.99497994,-24.2000007629395,2012-01-19 20:03:49
0.940999984741211,42.37223211,-70.99497994,-24.2000007629395,2012-01-19 20:03:50
1.04399991035461,42.37223211,-70.99497994,-24.2000007629395,2012-01-19 20:03:51
0.976000070571899,42.37223211,-70.99497994,-24.2000007629395,2012-01-19 20:03:52
1.06900000572205,42.37223211,-70.99497994,-24.2000007629395,2012-01-19 20:03:53
0.833999872207642,42.37223211,-70.99497994,-24.2000007629395,2012-01-19 20:03:54
1.11100006103516,42.37223211,-70.99497995,-24.2000007629395,2012-01-19 20:03:55
0.960000038146973,42.37223211,-70.99497995,-24.2000007629395,2012-01-19 20:03:56
1.03999996185303,42.37223211,-70.99497995,-24.2000007629395,2012-01-19 20:03:57
1.01500010490417,42.37223211,-70.99497995,-24.2000007629395,2012-01-19 20:03:58
1.06599998474121,42.37223211,-70.99497995,-24.2000007629395,2012-01-19 20:03:59
0.870999813079834,42.37223211,-70.99497995,-24.2000007629395,2012-01-19 20:04:00
1.02400016784668,42.37223211,-70.99497995,-24.2000007629395,2012-01-19 20:04:01
1.00300002098083,42.37223211,-70.99497995,-24.2000007629395,2012-01-19 20:04:02
0.974999904632568,42.37223211,-70.99497995,-24.2000007629395,2012-01-19 20:04:03
1.03200006484985,42.37223212,-70.99497995,-24.2000007629395,2012-01-19 20:04:04
0.773999929428101,42.37223212,-70.99497995,-24.2000007629395,2012-01-19 20:04:04
1.08599996566772,42.37223212,-70.99497995,-24.2000007629395,2012-01-19 20:04:05
1.05100011825562,42.37223212,-70.99497995,-24.2000007629395,2012-01-19 20:04:07
0.891999959945679,42.37223212,-70.99497995,-24.2000007629395,2012-01-19 20:04:07
1.11100006103516,42.37223212,-70.99497995,-24.2000007629395,2012-01-19 20:04:09
1.08899998664856,42.37223212,-70.99497995,-24.2000007629395,2012-01-19 20:04:10
0.848999977111816,42.37223212,-70.99497995,-24.2000007629395,2012-01-19 20:04:10
1.02300000190735,42.37223212,-70.99497995,-24.2000007629395,2012-01-19 20:04:11
1.05299997329712,42.37223212,-70.99497995,-24.2000007629395,2012-01-19 20:04:13
0.970000028610229,42.37223212,-70.99497995,-24.2000007629395,2012-01-19 20:04:14
1.01699995994568,42.37223212,-70.99497995,-24.2000007629395,2012-01-19 20:04:15
0.918999910354614,42.37223212,-70.99497995,-24.2000007629395,2012-01-19 20:04:15
1.04900002479553,42.37223212,-70.99497995,-24.2000007629395,2012-01-19 20:04:17
1.02999997138977,42.37223212,-70.99497995,-24.2000007629395,2012-01-19 20:04:18
0.968000173568726,42.37223212,-70.99497995,-24.2000007629395,2012-01-19 20:04:19
1.08299994468689,42.37223212,-70.99497995,-24.2000007629395,2012-01-19 20:04:20
0.948999881744385,42.37223212,-70.99497995,-24.2000007629395,2012-01-19 20:04:21
0.936000108718872,42.37223212,-70.99497996,-24.2000007629395,2012-01-19 20:04:21
1.04200005531311,42.37223212,-70.99497996,-24.2000007629395,2012-01-19 20:04:23
1.01099991798401,42.37223212,-70.99497996,-24.2000007629395,2012-01-19 20:04:24
0.999000072479248,42.37223212,-70.99497996,-24.2000007629395,2012-01-19 20:04:25
1.04199981689453,42.37223212,-70.99497996,-24.2000007629395,2012-01-19 20:04:26
0.943000078201294,42.37223212,-70.99497996,-24.2000007629395,2012-01-19 20:04:27
0.972000122070312,42.37223212,-70.99497996,-24.2000007629395,2012-01-19 20:04:27
1.15399980545044,42.37223212,-70.99497996,-24.2000007629395,2012-01-19 20:04:29
0.871000051498413,42.37223212,-70.99497996,-24.2000007629395,2012-01-19 20:04:30
1.23399996757507,42.37223212,-70.99497996,-24.2000007629395,2012-01-19 20:04:31
0.877000093460083,42.37223212,-70.99497996,-24.2000007629395,2012-01-19 20:04:32
0.888000011444092,42.37223212,-70.99497996,-24.2000007629395,2012-01-19 20:04:33
1.02699995040894,42.37223212,-70.99497997,-24.2000007629395,2012-01-19 20:04:34
0.98799991607666,42.37223212,-70.99497997,-24.2000007629395,2012-01-19 20:04:35
1.07200002670288,42.37223212,-70.99497997,-24.2000007629395,2012-01-19 20:04:36
0.828000068664551,42.37223212,-70.99497997,-24.2000007629395,2012-01-19 20:04:36
1.10199999809265,42.37223212,-70.99497997,-24.2000007629395,2012-01-19 20:04:38
1.08599996566772,42.37223212,-70.99497997,-24.2000007629395,2012-01-19 20:04:39
0.973000049591064,42.37223212,-70.99497998,-24.2000007629395,2012-01-19 20:04:40
0.870000123977661,42.37223212,-70.99497998,-24.2000007629395,2012-01-19 20:04:40
1.0719997882843,42.37223212,-70.99497999,-24.2000007629395,2012-01-19 20:04:42
0.992000102996826,42.37223212,-70.99498,-24.2000007629395,2012-01-19 20:04:43
0.921000003814697,42.37223212,-70.99497998,-24.2000007629395,2012-01-19 20:04:43
1.06800007820129,42.37223212,-70.99497996,-24.2000007629395,2012-01-19 20:04:45
1.06099987030029,42.37223212,-70.99497996,-24.2000007629395,2012-01-19 20:04:46
0.817000150680542,42.37223212,-70.99497997,-24.2000007629395,2012-01-19 20:04:46
1.09999990463257,42.37223212,-70.99497997,-24.2000007629395,2012-01-19 20:04:47
1.05800008773804,42.37223212,-70.99497995,-24.2000007629395,2012-01-19 20:04:49
0.991999864578247,42.37223212,-70.99497994,-24.2000007629395,2012-01-19 20:04:50
0.980999946594238,42.37223212,-70.99497994,-24.2000007629395,2012-01-19 20:04:51
1.02700018882751,42.37223212,-70.99497993,-24.2000007629395,2012-01-19 20:04:52
1.03099989891052,42.37223211,-70.99497987,-24.2000007629395,2012-01-19 20:04:53
0.931999921798706,42.37223209,-70.99497981,-24.2000007629395,2012-01-19 20:04:54
1,42.37223209,-70.99497981,-24.2000007629395,2012-01-19 20:04:55
1.09200000762939,42.37223216,-70.99497991,-24.2000007629395,2012-01-19 20:04:56
0.81000018119812,42.37223218,-70.99498014,-24.2000007629395,2012-01-19 20:04:56
1.12299990653992,42.37223218,-70.99498019,-24.2000007629395,2012-01-19 20:04:58
0.934999942779541,42.37223209,-70.99497983,-24.2000007629395,2012-01-19 20:04:58
1.0699999332428,42.37223147,-70.99497827,-24.2999992370605,2012-01-19 20:05:00
1.0770001411438,42.3722284,-70.99497051,-25,2012-01-19 20:05:01
0.930999994277954,42.37232295,-70.99495386,-17.2999992370605,2012-01-19 20:05:02
0.967000007629395,42.37230701,-70.99494177,-21.2000007629395,2012-01-19 20:05:03
0.947999954223633,42.37232334,-70.99493435,-18.3999996185303,2012-01-19 20:05:03
1.0789999961853,42.37232402,-70.99492491,-18.3999996185303,2012-01-19 20:05:05
0.956000089645386,42.3723151,-70.99491382,-16.2000007629395,2012-01-19 20:05:05
1.02300000190735,42.3723159,-70.99490676,-15.3000001907349,2012-01-19 20:05:07
0.998999834060669,42.37230591,-70.9948799,-14.6999998092651,2012-01-19 20:05:08
1.11100006103516,42.37229725,-70.99484799,-14.8000001907349,2012-01-19 20:05:09
0.891000032424927,42.37230236,-70.99483692,-14.3000001907349,2012-01-19 20:05:10
0.943000078201294,42.3722994,-70.99481857,-16,2012-01-19 20:05:10
1.05099987983704,42.37229812,-70.99481416,-16.8999996185303,2012-01-19 20:05:12
1.05400013923645,42.37229935,-70.99481524,-17.2999992370605,2012-01-19 20:05:13
0.847999811172485,42.37230366,-70.99481547,-18,2012-01-19 20:05:13
1.10600018501282,42.37230366,-70.99481547,-18,2012-01-19 20:05:15
1.07299995422363,42.37230328,-70.99481598,-18.1000003814697,2012-01-19 20:05:16
0.794999837875366,42.37230441,-70.99481489,-18.2000007629395,2012-01-19 20:05:16
1.1230001449585,42.37230667,-70.99481446,-18.2000007629395,2012-01-19 20:05:18
1.07999992370605,42.37230691,-70.99481373,-18.5,2012-01-19 20:05:19
0.883000135421753,42.37230694,-70.99481192,-18.2000007629395,2012-01-19 20:05:19
1.03099989891052,42.37230801,-70.99481771,-18.2999992370605,2012-01-19 20:05:20
1.03999996185303,42.3723097,-70.99481607,-17.5,2012-01-19 20:05:22
0.848999977111816,42.37230785,-70.99481519,-17.5,2012-01-19 20:05:22
1.11500000953674,42.37230648,-70.99481256,-17.5,2012-01-19 20:05:24
1.16400003433228,42.37230677,-70.99481531,-17.6000003814697,2012-01-19 20:05:25
0.967000007629395,42.37230758,-70.99481288,-17.3999996185303,2012-01-19 20:05:26
0.98799991607666,42.37230715,-70.99481266,-17.5,2012-01-19 20:05:27
0.917999982833862,42.37230742,-70.99481162,-17.6000003814697,2012-01-19 20:05:28
0.983000040054321,42.37230764,-70.99481142,-17.7000007629395,2012-01-19 20:05:29
0.99399995803833,42.37230767,-70.99481162,-17.7000007629395,2012-01-19 20:05:30
1.05100011825562,42.37230775,-70.99481175,-17.7000007629395,2012-01-19 20:05:31
0.936000108718872,42.37230764,-70.9948119,-17.7000007629395,2012-01-19 20:05:32
0.99399995803833,42.37230788,-70.99481209,-17.7000007629395,2012-01-19 20:05:32
1.07200002670288,42.37230789,-70.9948121,-17.7000007629395,2012-01-19 20:05:34
0.821999788284302,42.37230789,-70.99481211,-17.7000007629395,2012-01-19 20:05:34
1.1100001335144,42.37230784,-70.99481219,-17.7000007629395,2012-01-19 20:05:36
0.967999935150146,42.37230788,-70.99481228,-17.7000007629395,2012-01-19 20:05:36
1.02600002288818,42.37230787,-70.99481231,-17.7000007629395,2012-01-19 20:05:37
1.00999999046326,42.37230786,-70.99481228,-17.7000007629395,2012-01-19 20:05:39
1.08200001716614,42.37230789,-70.99481236,-17.7000007629395,2012-01-19 20:05:40
0.835000038146973,42.37230787,-70.99481235,-17.7000007629395,2012-01-19 20:05:40
1.375,42.37230793,-70.99481236,-17.7000007629395,2012-01-19 20:05:42
0.710000038146973,42.37230802,-70.99481244,-17.7000007629395,2012-01-19 20:05:43
1.11399984359741,42.37230815,-70.99481244,-17.7000007629395,2012-01-19 20:05:44
0.971000194549561,42.37230816,-70.99481242,-17.7000007629395,2012-01-19 20:05:45
0.783999919891357,42.37230814,-70.9948124,-17.7000007629395,2012-01-19 20:05:45
1.07999992370605,42.37230819,-70.99481249,-17.7000007629395,2012-01-19 20:05:46
1.10500001907349,42.37230815,-70.9948128,-17.7000007629395,2012-01-19 20:05:48
0.921000003814697,42.37230816,-70.99481224,-17.7000007629395,2012-01-19 20:05:48
1.02999997138977,42.37230812,-70.99481236,-17.7000007629395,2012-01-19 20:05:50
0.545000076293945,42.37230836,-70.99481252,-17.6000003814697,2012-01-19 20:05:50
0.881999969482422,42.37230843,-70.99481268,-17.7000007629395,2012-01-19 20:05:51
1.03699994087219,42.37230847,-70.99481297,-17.7000007629395,2012-01-19 20:05:52
1.06800007820129,42.37230846,-70.99481309,-17.7000007629395,2012-01-19 20:05:53
0.947999954223633,42.37230849,-70.99481316,-17.7000007629395,2012-01-19 20:05:54
1.00800013542175,42.37230847,-70.99481318,-17.7000007629395,2012-01-19 20:05:55
1.07099986076355,42.37230845,-70.99481328,-17.7000007629395,2012-01-19 20:05:56
0.888000011444092,42.37230888,-70.99481324,-17.6000003814697,2012-01-19 20:05:57
1.03800010681152,42.37229539,-70.9948181,-18.3999996185303,2012-01-19 20:05:58
0.960999965667725,42.372292,-70.99481717,-20.5,2012-01-19 20:05:59
1.12999987602234,42.3722936,-70.99481995,-21,2012-01-19 20:06:00
0.938000202178955,42.37229339,-70.99482917,-21.3999996185303,2012-01-19 20:06:01
0.949999809265137,42.37229163,-70.99483545,-21.2000007629395,2012-01-19 20:06:02
0.950000047683716,42.37229838,-70.99484806,-21.1000003814697,2012-01-19 20:06:03
1.15499997138977,42.37229838,-70.99484806,-21.1000003814697,2012-01-19 20:06:04
0.947000026702881,42.37229843,-70.9948498,-21.1000003814697,2012-01-19 20:06:05
0.802999973297119,42.37229843,-70.9948498,-21.1000003814697,2012-01-19 20:06:06
1.10199999809265,42.37229922,-70.99485492,-21,2012-01-19 20:06:07
1.07800006866455,42.37229905,-70.99485854,-21.5,2012-01-19 20:06:08
1.14100003242493,42.37229905,-70.99485854,-21.5,2012-01-19 20:06:09
0.825000047683716,42.37229911,-70.99485748,-21.2000007629395,2012-01-19 20:06:10
0.982999801635742,42.37229758,-70.99485719,-20.8999996185303,2012-01-19 20:06:11
1.08000016212463,42.37229768,-70.99485757,-20.8999996185303,2012-01-19 20:06:12
0.848000049591064,42.37229768,-70.99485757,-20.8999996185303,2012-01-19 20:06:13
1.05199980735779,42.37229765,-70.99485754,-20.8999996185303,2012-01-19 20:06:14
1.07100009918213,42.37229765,-70.99485754,-20.8999996185303,2012-01-19 20:06:15
0.854000091552734,42.37229681,-70.99485782,-20.7000007629395,2012-01-19 20:06:16
1.12599992752075,42.37229608,-70.99485548,-20.5,2012-01-19 20:06:17
1.04299998283386,42.37229623,-70.99485508,-20.5,2012-01-19 20:06:18
0.944999933242798,42.37229623,-70.99485508,-20.5,2012-01-19 20:06:19
0.988000154495239,42.37229668,-70.99485519,-20.5,2012-01-19 20:06:20
1.07399988174438,42.37229763,-70.99485495,-20.6000003814697,2012-01-19 20:06:21
0.837000131607056,42.37229763,-70.99485495,-20.6000003814697,2012-01-19 20:06:22
1.10999989509583,42.37229792,-70.99485535,-20.6000003814697,2012-01-19 20:06:23
0.959000110626221,42.37229792,-70.99485535,-20.6000003814697,2012-01-19 20:06:24
1.00699996948242,42.37229839,-70.99485562,-20.5,2012-01-19 20:06:25
1.06599998474121,42.37229839,-70.99485562,-20.5,2012-01-19 20:06:26
0.855999946594238,42.37234741,-70.99496293,-21,2012-01-19 20:06:27
1.11699986457825,42.37239969,-70.99507488,-21.7000007629395,2012-01-19 20:06:28
0.976000070571899,42.37250769,-70.9951225,-22.2999992370605,2012-01-19 20:06:29
1.00800013542175,42.37259561,-70.99513677,-22.7999992370605,2012-01-19 20:06:30
0.990000009536743,42.37265673,-70.99516469,-23.7999992370605,2012-01-19 20:06:31
1.00499987602234,42.37271611,-70.99515606,-23.8999996185303,2012-01-19 20:06:32
1.06200003623962,42.37282361,-70.99513552,-23.7000007629395,2012-01-19 20:06:33
0.904999971389771,42.37292463,-70.9951121,-25,2012-01-19 20:06:34
1.03500008583069,42.37298706,-70.99509097,-25.1000003814697,2012-01-19 20:06:35
0.990999937057495,42.37306266,-70.99502166,-25.7000007629395,2012-01-19 20:06:36
1.03900003433228,42.37311488,-70.99500535,-25.7999992370605,2012-01-19 20:06:37
0.98799991607666,42.37321211,-70.9949674,-24.7000007629395,2012-01-19 20:06:38
0.967000007629395,42.37326987,-70.99493947,-24.8999996185303,2012-01-19 20:06:39
1.06900000572205,42.37331931,-70.99485682,-24.2999992370605,2012-01-19 20:06:40
1.0090000629425,42.37334768,-70.99479204,-24.1000003814697,2012-01-19 20:06:41
0.797999858856201,42.37338445,-70.99473396,-24.2000007629395,2012-01-19 20:06:42
1.14200019836426,42.37331524,-70.99466232,-24,2012-01-19 20:06:43
1.08599996566772,42.37329084,-70.99461146,-22.8999996185303,2012-01-19 20:06:44
0.891000032424927,42.37327886,-70.99456617,-22.3999996185303,2012-01-19 20:06:45
1.01600003242493,42.37331131,-70.99449136,-21.3999996185303,2012-01-19 20:06:46
1.0259997844696,42.37332357,-70.9944437,-20.8999996185303,2012-01-19 20:06:47
0.981000185012817,42.37332569,-70.99436964,-20.7999992370605,2012-01-19 20:06:48
1.09999990463257,42.37335066,-70.9942793,-21.7999992370605,2012-01-19 20:06:49
0.891000032424927,42.37336465,-70.99423035,-21.7999992370605,2012-01-19 20:06:50
1.03500008583069,42.37340563,-70.99419529,-21.2000007629395,2012-01-19 20:06:51
0.950999975204468,42.37347967,-70.99418165,-20.5,2012-01-19 20:06:52
1.05799984931946,42.37357113,-70.99413477,-20.5,2012-01-19 20:06:53
0.828999996185303,42.3736161,-70.99409618,-20.5,2012-01-19 20:06:54
1.09100008010864,42.37369936,-70.99405361,-20.8999996185303,2012-01-19 20:06:55
1.05399990081787,42.37378159,-70.99399402,-22,2012-01-19 20:06:56
0.868000030517578,42.37384296,-70.99394609,-22,2012-01-19 20:06:57
1.10899996757507,42.3739251,-70.99387627,-23.2999992370605,2012-01-19 20:06:58
1.07599997520447,42.37398129,-70.99380041,-24,2012-01-19 20:06:59
0.855000019073486,42.37402624,-70.99374808,-20.1000003814697,2012-01-19 20:07:00
1.08400011062622,42.37405754,-70.99369543,-19.2999992370605,2012-01-19 20:07:01
1.06399989128113,42.3740891,-70.99364272,-18.6000003814697,2012-01-19 20:07:02
1.07800006866455,42.37409975,-70.99361354,-19.1000003814697,2012-01-19 20:07:03
0.917999982833862,42.37410871,-70.99357886,-19.2999992370605,2012-01-19 20:07:04
0.871999979019165,42.37410408,-70.99352594,-19.2999992370605,2012-01-19 20:07:05
1.08200001716614,42.37406926,-70.99347954,-19.2999992370605,2012-01-19 20:07:06
0.940999984741211,42.37401617,-70.99344428,-20,2012-01-19 20:07:07
1.04100012779236,42.37398371,-70.99341676,-19.7999992370605,2012-01-19 20:07:08
1.00600004196167,42.3739705,-70.99337895,-20.3999996185303,2012-01-19 20:07:09
0.998999834060669,42.37396142,-70.99333648,-20.2999992370605,2012-01-19 20:07:10
1.04800009727478,42.37397072,-70.99332539,-20.1000003814697,2012-01-19 20:07:11
0.928999900817871,42.37396582,-70.99328293,-21.2999992370605,2012-01-19 20:07:12
1.01200008392334,42.37395667,-70.99330115,-20.7999992370605,2012-01-19 20:07:13
0.999000072479248,42.37394285,-70.99329744,-20.2999992370605,2012-01-19 20:07:14
1.04199981689453,42.37393389,-70.99328404,-20.3999996185303,2012-01-19 20:07:15
0.998000144958496,42.37394016,-70.99330033,-20.5,2012-01-19 20:07:16
0.914999961853027,42.37394334,-70.99332993,-20.6000003814697,2012-01-19 20:07:17
1.04399991035461,42.37394164,-70.9933416,-20.6000003814697,2012-01-19 20:07:18
0.989000082015991,42.3739559,-70.99333595,-20.7999992370605,2012-01-19 20:07:19
1.06500005722046,42.37395651,-70.99335865,-20.7999992370605,2012-01-19 20:07:20
0.986999988555908,42.37395672,-70.99337546,-20.7999992370605,2012-01-19 20:07:21
0.911999940872192,42.37394192,-70.99337761,-20.6000003814697,2012-01-19 20:07:22
1.05699992179871,42.37394525,-70.99337447,-20.7000007629395,2012-01-19 20:07:23
0.865000009536743,42.37396431,-70.99336147,-20.2000007629395,2012-01-19 20:07:24
1.1710000038147,42.37397245,-70.9933664,-21.2000007629395,2012-01-19 20:07:25
1.02699995040894,42.37397531,-70.9933523,-20.7000007629395,2012-01-19 20:07:26
0.883000135421753,42.3739856,-70.99335516,-20.2999992370605,2012-01-19 20:07:27
1.02300000190735,42.37398924,-70.9933543,-20.5,2012-01-19 20:07:28
1.00300002098083,42.37398578,-70.99334855,-20.2999992370605,2012-01-19 20:07:29
1.0460000038147,42.37400027,-70.99334642,-21,2012-01-19 20:07:30
0.98799991607666,42.37400963,-70.99333764,-21.5,2012-01-19 20:07:31
1.08899998664856,42.37401175,-70.99333218,-21.3999996185303,2012-01-19 20:07:32
0.888000011444092,42.37402119,-70.9933279,-21.3999996185303,2012-01-19 20:07:33
0.986999988555908,42.37401545,-70.99332649,-21,2012-01-19 20:07:34
1.0090000629425,42.37401713,-70.99333547,-20.7999992370605,2012-01-19 20:07:35
1.0550000667572,42.37400362,-70.99334327,-20.6000003814697,2012-01-19 20:07:36
1.5479998588562,42.37400947,-70.99334847,-20.5,2012-01-19 20:07:38
0.900000095367432,42.37400947,-70.99334847,-20.5,2012-01-19 20:07:38
1.10500001907349,42.37401344,-70.99334726,-20.7000007629395,2012-01-19 20:07:40
0.822000026702881,42.37402214,-70.99334678,-20.6000003814697,2012-01-19 20:07:40
1.13699984550476,42.37402214,-70.99334678,-20.6000003814697,2012-01-19 20:07:42
1.07599997520447,42.37402429,-70.99334714,-20.2999992370605,2012-01-19 20:07:43
0.879000186920166,42.37403793,-70.99334753,-19.3999996185303,2012-01-19 20:07:43
1.03999996185303,42.37401837,-70.99333581,-17.5,2012-01-19 20:07:45
1.15499997138977,42.37401542,-70.99333174,-17.5,2012-01-19 20:07:46
1.15599989891052,42.37401542,-70.99333174,-17.5,2012-01-19 20:07:47
0.758000135421753,42.37400506,-70.99332487,-18.7000007629395,2012-01-19 20:07:48
1.04399991035461,42.37401735,-70.99332999,-18.3999996185303,2012-01-19 20:07:49
0.883000135421753,42.37401719,-70.9933298,-18.3999996185303,2012-01-19 20:07:50
0.972999811172485,42.37402195,-70.99333448,-18,2012-01-19 20:07:50
0.903000116348267,42.37402171,-70.99333455,-18.1000003814697,2012-01-19 20:07:51
1.13299989700317,42.37402155,-70.99333587,-18,2012-01-19 20:07:53
1.0789999961853,42.37402155,-70.99333587,-18,2012-01-19 20:07:54
0.948000192642212,42.37402206,-70.99333589,-18,2012-01-19 20:07:55
0.95199990272522,42.37402206,-70.99333589,-18,2012-01-19 20:07:56
1.00200009346008,42.37402148,-70.99333479,-17.8999996185303,2012-01-19 20:07:57
1.06399989128113,42.37402329,-70.99333511,-17.8999996185303,2012-01-19 20:07:58
0.813999891281128,42.37402329,-70.99333514,-17.8999996185303,2012-01-19 20:07:58
1.08300018310547,42.37402329,-70.99333514,-17.8999996185303,2012-01-19 20:07:59
1.00600004196167,42.37402333,-70.99333515,-17.8999996185303,2012-01-19 20:08:00
1.06799983978271,42.37402339,-70.99333511,-17.8999996185303,2012-01-19 20:08:02
0.942000150680542,42.37402341,-70.99333511,-17.8999996185303,2012-01-19 20:08:02
1.02899980545044,42.3740234,-70.9933351,-17.8999996185303,2012-01-19 20:08:04
1.1100001335144,42.37402341,-70.9933351,-17.8999996185303,2012-01-19 20:08:05
0.878999948501587,42.37402339,-70.9933351,-17.8999996185303,2012-01-19 20:08:05
1.01099991798401,42.37402342,-70.99333509,-17.8999996185303,2012-01-19 20:08:07
1.06100010871887,42.37402344,-70.99333507,-17.8999996185303,2012-01-19 20:08:08
0.852999925613403,42.37402344,-70.99333506,-17.8999996185303,2012-01-19 20:08:08
1.10199999809265,42.37402341,-70.99333514,-17.8999996185303,2012-01-19 20:08:10
0.949000120162964,42.37402309,-70.99333488,-17.8999996185303,2012-01-19 20:08:10
0.997999906539917,42.37402311,-70.99333484,-17.8999996185303,2012-01-19 20:08:11
1.0770001411438,42.37402321,-70.99333481,-17.8999996185303,2012-01-19 20:08:13
1.0259997844696,42.37402321,-70.99333481,-17.8999996185303,2012-01-19 20:08:14
1.12200021743774,42.37402341,-70.99333471,-17.8999996185303,2012-01-19 20:08:15
0.765999794006348,42.37402341,-70.99333471,-17.8999996185303,2012-01-19 20:08:15
1.04000020027161,42.37402342,-70.99333481,-17.8999996185303,2012-01-19 20:08:17
1.00499987602234,42.37402342,-70.99333481,-17.8999996185303,2012-01-19 20:08:18
1.04900002479553,42.37402349,-70.99333478,-17.8999996185303,2012-01-19 20:08:19
0.973000049591064,42.37402352,-70.99333477,-17.8999996185303,2012-01-19 20:08:20
0.996999979019165,42.37402359,-70.99333469,-17.8999996185303,2012-01-19 20:08:21
1.07399988174438,42.37402359,-70.99333469,-17.8999996185303,2012-01-19 20:08:22
0.92300009727478,42.37402362,-70.99333468,-17.8999996185303,2012-01-19 20:08:23
0.983999967575073,42.37402362,-70.99333459,-17.8999996185303,2012-01-19 20:08:24
1.13199996948242,42.37402362,-70.99333459,-17.8999996185303,2012-01-19 20:08:25
0.944999933242798,42.37402356,-70.99333449,-17.8999996185303,2012-01-19 20:08:26
0.855000019073486,42.37402358,-70.99333445,-17.8999996185303,2012-01-19 20:08:26
1.04299998283386,42.3740236,-70.99333439,-17.8999996185303,2012-01-19 20:08:27
1.07400012016296,42.3740236,-70.99333439,-17.8999996185303,2012-01-19 20:08:29
0.82699990272522,42.37402359,-70.99333438,-17.8999996185303,2012-01-19 20:08:29
1.17000007629395,42.37402368,-70.99333439,-17.8999996185303,2012-01-19 20:08:31
0.997999906539917,42.37402386,-70.99333463,-17.8999996185303,2012-01-19 20:08:32
0.89900016784668,42.37402392,-70.99333481,-18,2012-01-19 20:08:32
1.06099987030029,42.37402388,-70.99333483,-18,2012-01-19 20:08:34
1.04100012779236,42.37402388,-70.99333483,-18,2012-01-19 20:08:35
0.82699990272522,42.37402398,-70.99333485,-18,2012-01-19 20:08:35
1.16499996185303,42.37402399,-70.99333487,-18,2012-01-19 20:08:37
0.972000122070312,42.37402399,-70.99333487,-18,2012-01-19 20:08:38
1.01099991798401,42.37402398,-70.99333487,-18,2012-01-19 20:08:39
0.995000123977661,42.37402398,-70.99333484,-18,2012-01-19 20:08:40
1.05699992179871,42.37402397,-70.99333487,-18,2012-01-19 20:08:41
0.821000099182129,42.37402398,-70.99333483,-18,2012-01-19 20:08:41
1.09299993515015,42.37402397,-70.99333482,-18,2012-01-19 20:08:42
1.03299999237061,42.37402404,-70.99333484,-18,2012-01-19 20:08:44
1,42.37402404,-70.99333484,-18,2012-01-19 20:08:45
1.10199999809265,42.374024,-70.99333486,-18,2012-01-19 20:08:46
0.757999897003174,42.374024,-70.99333486,-18,2012-01-19 20:08:46
1.08000016212463,42.37402399,-70.99333472,-18,2012-01-19 20:08:47
1.1509997844696,42.37402392,-70.99333473,-18,2012-01-19 20:08:49
0.919000148773193,42.37402348,-70.99333474,-18,2012-01-19 20:08:50
1.02300000190735,42.3740234,-70.99333477,-18,2012-01-19 20:08:51
0.858999967575073,42.37402331,-70.9933347,-18.1000003814697,2012-01-19 20:08:51
1.12400007247925,42.37402351,-70.99333459,-18,2012-01-19 20:08:53
1.01399993896484,42.37402358,-70.99333456,-18,2012-01-19 20:08:54
1.04999995231628,42.37402358,-70.99333456,-18,2012-01-19 20:08:55
0.779999971389771,42.37402349,-70.99333455,-18,2012-01-19 20:08:55
1.13199996948242,42.37402342,-70.99333456,-18,2012-01-19 20:08:57
1.06300020217896,42.37402341,-70.99333458,-18,2012-01-19 20:08:58
0.898999929428101,42.37402334,-70.99333467,-18,2012-01-19 20:08:58
1.10599994659424,42.37402334,-70.99333467,-18,2012-01-19 20:09:00
0.901000022888184,42.3740233,-70.99333473,-18.1000003814697,2012-01-19 20:09:00
1.06200003623962,42.3740233,-70.99333471,-18.1000003814697,2012-01-19 20:09:02
0.984999895095825,42.37402328,-70.99333471,-18.1000003814697,2012-01-19 20:09:03
0.922000169754028,42.37402329,-70.99333471,-18.1000003814697,2012-01-19 20:09:03
1.06299996376038,42.37402329,-70.9933347,-18.1000003814697,2012-01-19 20:09:05
0.894999980926514,42.37402329,-70.9933347,-18.1000003814697,2012-01-19 20:09:05
1.0939998626709,42.37402331,-70.9933347,-18.1000003814697,2012-01-19 20:09:07
1.07599997520447,42.37402331,-70.9933347,-18.1000003814697,2012-01-19 20:09:08
0.902000188827515,42.37402332,-70.9933347,-18.1000003814697,2012-01-19 20:09:08
1.02699995040894,42.37402331,-70.99333471,-18.1000003814697,2012-01-19 20:09:10
0.971999883651733,42.37402328,-70.99333471,-18.1000003814697,2012-01-19 20:09:10
1.02500009536743,42.37402327,-70.99333473,-18.1000003814697,2012-01-19 20:09:12
1.01099991798401,42.37402328,-70.99333473,-18.1000003814697,2012-01-19 20:09:13
1.06299996376038,42.37402328,-70.99333473,-18.1000003814697,2012-01-19 20:09:14
0.895000219345093,42.37402328,-70.99333473,-18.1000003814697,2012-01-19 20:09:14
1.05999994277954,42.37402328,-70.99333473,-18.1000003814697,2012-01-19 20:09:16
0.950999975204468,42.37402327,-70.99333473,-18.1000003814697,2012-01-19 20:09:16
1.05999994277954,42.37402327,-70.99333473,-18.1000003814697,2012-01-19 20:09:18
0.982000112533569,42.37402328,-70.99333474,-18.1000003814697,2012-01-19 20:09:19
0.924000024795532,42.37402328,-70.99333474,-18.1000003814697,2012-01-19 20:09:19
1.05799984931946,42.37402328,-70.99333474,-18.1000003814697,2012-01-19 20:09:21
1.03699994087219,42.37402328,-70.99333474,-18.1000003814697,2012-01-19 20:09:22
0.985000133514404,42.37402328,-70.99333474,-18.1000003814697,2012-01-19 20:09:23
2.38100004196167,42.3740208148956,-70.9933358430862,48.2000007629395,2012-01-19 20:09:25
1.03399991989136,42.3740208148956,-70.9933358430862,48.2000007629395,2012-01-19 20:09:26
0.969000101089478,42.3740208148956,-70.9933358430862,48.2000007629395,2012-01-19 20:09:27
1,42.3740208148956,-70.9933358430862,48.2000007629395,2012-01-19 20:09:28
1,42.3740208148956,-70.9933358430862,48.2000007629395,2012-01-19 20:09:29
1.01199984550476,42.3740208148956,-70.9933358430862,48.2000007629395,2012-01-19 20:09:30
0.990000009536743,42.3740208148956,-70.9933358430862,48.2000007629395,2012-01-19 20:09:31
1.00399994850159,42.3740208148956,-70.9933358430862,48.2000007629395,2012-01-19 20:09:32
0.995000123977661,42.3740208148956,-70.9933358430862,48.2000007629395,2012-01-19 20:09:33
1.00099992752075,42.3740208148956,-70.9933358430862,48.2000007629395,2012-01-19 20:09:34
1.00200009346008,42.3740208148956,-70.9933358430862,48.2000007629395,2012-01-19 20:09:35
0.999000072479248,42.3740208148956,-70.9933358430862,48.2000007629395,2012-01-19 20:09:36
1.00099992752075,42.3740208148956,-70.9933358430862,48.2000007629395,2012-01-19 20:09:37
1.09999990463257,42.3740208148956,-70.9933358430862,48.2000007629395,2012-01-19 20:09:38
1.06400012969971,42.3740208148956,-70.9933358430862,48.2000007629395,2012-01-19 20:09:39
0.885999917984009,42.3740208148956,-70.9933358430862,48.2000007629395,2012-01-19 20:09:40
0.954999923706055,42.3740208148956,-70.9933358430862,48.2000007629395,2012-01-19 20:09:41
1.00200009346008,42.3740208148956,-70.9933358430862,48.2000007629395,2012-01-19 20:09:42
1.1489999294281,42.3740208148956,-70.9933358430862,48.2000007629395,2012-01-19 20:09:43
0.455000162124634,42.3740208148956,-70.9933358430862,48.2000007629395,2012-01-19 20:09:44
