"diffSecs","level","azimuth.mean","azimuth.absolute.deviation","azimuth.standard.deviation","azimuth.max.deviation","pitch.mean","pitch.absolute.deviation","pitch.standard.deviation","pitch.max.deviation","roll.mean","roll.absolute.deviation","roll.standard.deviation","roll.max.deviation","time"
1.01699995994568,19,0.0736842155456543,0.217174515128136,0.273076266050339,0.526315808296204,20.4368419647217,0.214958399534225,0.243246659636497,0.463156849145889,-42.9000015258789,0.178948000073433,0.249210059642792,0.600001692771912,2012-02-02 21:35:24
1.15799999237061,38,-0.194736838340759,0.517728567123413,0.627000987529755,1.5947368144989,20.4210529327393,0.0614959336817265,0.0832177251577377,0.221051812171936,-42.7552642822266,0.10027651488781,0.131183430552483,0.355262160301208,2012-02-02 21:35:25
1.00499987602234,51,-0.239215686917305,1.03506350517273,1.21592032909393,2.2607843875885,20.1372547149658,0.160015538334846,0.186779543757439,0.362744837999344,-42.6784324645996,0.163167700171471,0.199326038360596,0.521568655967712,2012-02-02 21:35:26
