"diffSecs","latitude","longitude","altitude","time"
1.28199982643127,42.8894448280334,-71.5529841184616,50,2012-02-07 12:52:40
-0.20199990272522,42.8816986083984,-71.5532577037811,51.2000007629395,2012-02-07 12:52:40
0.868000030517578,42.8817737102509,-71.5530216693878,59.2000007629395,2012-02-07 12:52:40
1.30599999427795,42.8817307949066,-71.5530806779861,59.7999992370605,2012-02-07 12:52:42
0.911999940872192,42.8817683458328,-71.5530753135681,58.7999992370605,2012-02-07 12:52:43
1.20099997520447,42.881805896759,-71.5530645847321,58.5,2012-02-07 12:52:44
0.743000030517578,42.88172859,-71.55293149,88.1999969482422,2012-02-07 12:52:45
2.19600009918213,42.88170676,-71.55291603,85.6999969482422,2012-02-07 12:52:47
2.93499994277954,42.88171609,-71.55292628,85.5999984741211,2012-02-07 12:52:50
1.95300006866455,42.88172924,-71.55291627,84.6999969482422,2012-02-07 12:52:52
2.54199981689453,42.88174603,-71.55291622,83.1999969482422,2012-02-07 12:52:54
2.35300016403198,42.88173013,-71.55291499,83.6999969482422,2012-02-07 12:52:57
2.93899989128113,42.8817623,-71.55290054,81.4000015258789,2012-02-07 12:53:00
1.84599995613098,42.88176555,-71.55291203,82.1999969482422,2012-02-07 12:53:01
0.835999965667725,42.88177153,-71.55290761,79.8000030517578,2012-02-07 12:53:02
2.35700011253357,42.88176862,-71.55291782,79.4000015258789,2012-02-07 12:53:05
3.71099996566772,42.88178141,-71.55291519,78.8000030517578,2012-02-07 12:53:08
2.59100008010864,42.88178165,-71.55293348,76.9000015258789,2012-02-07 12:53:11
2.47000002861023,42.88182441,-71.55291732,76.9000015258789,2012-02-07 12:53:13
1.06299996376038,42.88185393,-71.5529268,77.5999984741211,2012-02-07 12:53:14
1.7590000629425,42.88184869,-71.55291313,77.8000030517578,2012-02-07 12:53:16
2.5719997882843,42.88185913,-71.55292304,76.1999969482422,2012-02-07 12:53:19
2.35400009155273,42.88183511,-71.55287071,76.1999969482422,2012-02-07 12:53:21
0.977999925613403,42.8817797,-71.55280087,73.3000030517578,2012-02-07 12:53:22
1.37400007247925,42.88177449,-71.55277518,71.6999969482422,2012-02-07 12:53:23
0.555999994277954,42.88176385,-71.55281658,74.4000015258789,2012-02-07 12:53:24
0.816999912261963,42.88176402,-71.55281566,77,2012-02-07 12:53:25
1.28900003433228,42.88176402,-71.55281566,77,2012-02-07 12:53:26
0.837000131607056,42.88176516,-71.55281648,76.8000030517578,2012-02-07 12:53:27
1.01099991798401,42.88176516,-71.55281648,76.8000030517578,2012-02-07 12:53:28
1.05100011825562,42.88176068,-71.55281455,75.6999969482422,2012-02-07 12:53:29
1.03999996185303,42.88175432,-71.55281378,75.4000015258789,2012-02-07 12:53:30
0.846999883651733,42.88175432,-71.55281378,75.4000015258789,2012-02-07 12:53:31
0.822999954223633,42.88175102,-71.55281734,74.5999984741211,2012-02-07 12:53:32
1.20800018310547,42.88175232,-71.55281931,74,2012-02-07 12:53:33
0.993000030517578,42.88175249,-71.55281944,73.9000015258789,2012-02-07 12:53:34
0.988999843597412,42.88175273,-71.55281729,73.5999984741211,2012-02-07 12:53:35
0.960999965667725,42.88175287,-71.55281789,73.6999969482422,2012-02-07 12:53:36
0.939000129699707,42.88175698,-71.55282864,72.6999969482422,2012-02-07 12:53:37
1.4449999332428,42.88175739,-71.5528306,72.3000030517578,2012-02-07 12:53:38
0.960999965667725,42.88175739,-71.5528306,72.3000030517578,2012-02-07 12:53:39
0.940000057220459,42.88176068,-71.55283952,71.8000030517578,2012-02-07 12:53:40
0.88100004196167,42.88176068,-71.55283952,71.8000030517578,2012-02-07 12:53:41
1.01699995994568,42.88176078,-71.55283998,71.8000030517578,2012-02-07 12:53:42
1.22099995613098,42.88176151,-71.55283975,71.6999969482422,2012-02-07 12:53:43
0.973000049591064,42.88176236,-71.55284094,71.6999969482422,2012-02-07 12:53:44
1.45300006866455,42.88176272,-71.55284141,71.6999969482422,2012-02-07 12:53:46
0.33899998664856,42.88176291,-71.55284159,71.6999969482422,2012-02-07 12:53:46
1.01399993896484,42.88176264,-71.55284147,71.6999969482422,2012-02-07 12:53:47
0.990999937057495,42.88176245,-71.55284119,71.6999969482422,2012-02-07 12:53:48
1.10599994659424,42.88176215,-71.55284062,71.8000030517578,2012-02-07 12:53:49
1.00400018692017,42.88176219,-71.55284038,71.8000030517578,2012-02-07 12:53:50
0.97599983215332,42.88176229,-71.55284027,71.8000030517578,2012-02-07 12:53:51
1.01300001144409,42.88176247,-71.55284008,71.8000030517578,2012-02-07 12:53:52
1.0090000629425,42.88176226,-71.5528402,71.8000030517578,2012-02-07 12:53:53
1.09500002861023,42.88176212,-71.55284012,71.8000030517578,2012-02-07 12:53:54
1.03200006484985,42.88176217,-71.55284019,71.8000030517578,2012-02-07 12:53:55
1.02499985694885,42.88176282,-71.55284007,71.8000030517578,2012-02-07 12:53:56
1.02300000190735,42.88176287,-71.55284003,71.8000030517578,2012-02-07 12:53:57
0.765000104904175,42.88176278,-71.55283989,71.6999969482422,2012-02-07 12:53:58
1.24499988555908,42.88176291,-71.55283971,71.6999969482422,2012-02-07 12:53:59
0.99399995803833,42.88176303,-71.55283904,71.6999969482422,2012-02-07 12:54:00
1.01600003242493,42.88176311,-71.55283909,71.6999969482422,2012-02-07 12:54:01
0.970000028610229,42.88176287,-71.55283912,71.6999969482422,2012-02-07 12:54:02
0.877000093460083,42.8817627,-71.55283954,71.6999969482422,2012-02-07 12:54:03
0.950000047683716,42.88176273,-71.55283929,71.6999969482422,2012-02-07 12:54:04
1.17799997329712,42.8817627,-71.55283913,71.6999969482422,2012-02-07 12:54:05
0.980000019073486,42.88176261,-71.55283903,71.6999969482422,2012-02-07 12:54:06
1.01600003242493,42.8817626,-71.55283906,71.6999969482422,2012-02-07 12:54:07
0.979999780654907,42.88176276,-71.55283859,71.6999969482422,2012-02-07 12:54:08
0.789000034332275,42.88176274,-71.55283855,71.6999969482422,2012-02-07 12:54:09
1.2960000038147,42.88176271,-71.55283857,71.6999969482422,2012-02-07 12:54:10
1.58400011062622,42.88176285,-71.55283838,71.6999969482422,2012-02-07 12:54:12
2.99900007247925,42.88176308,-71.55283848,71.6999969482422,2012-02-07 12:54:15
2.59999990463257,42.8817629,-71.55283873,71.6999969482422,2012-02-07 12:54:18
2.17199993133545,42.88176279,-71.55283942,71.6999969482422,2012-02-07 12:54:20
2.53299999237061,42.88176276,-71.55283943,71.6999969482422,2012-02-07 12:54:22
2.7260000705719,42.8817624,-71.55284018,71.6999969482422,2012-02-07 12:54:25
2.63899993896484,42.8817624,-71.55284073,71.6999969482422,2012-02-07 12:54:28
0.766999959945679,42.88176232,-71.55284087,71.6999969482422,2012-02-07 12:54:28
1.47399997711182,42.88176256,-71.55284093,71.6999969482422,2012-02-07 12:54:30
1.06600022315979,42.88176256,-71.55284093,71.6999969482422,2012-02-07 12:54:31
2.78299999237061,42.88176131,-71.55284038,72,2012-02-07 12:54:34
1.50799989700317,42.88176109,-71.55284006,72,2012-02-07 12:54:35
3.69799995422363,42.88176112,-71.55283993,72,2012-02-07 12:54:39
2.98399996757507,42.88176142,-71.55284005,72,2012-02-07 12:54:42
2.47099995613098,42.88176136,-71.55284007,72,2012-02-07 12:54:44
3.52900004386902,42.88176103,-71.55284008,72,2012-02-07 12:54:48
4.62199997901917,42.88176127,-71.5528403,71.9000015258789,2012-02-07 12:54:53
3.08100008964539,42.88176126,-71.55284044,71.9000015258789,2012-02-07 12:54:56
2.00399994850159,42.88176145,-71.55284052,71.8000030517578,2012-02-07 12:54:58
2.05800008773804,42.88176128,-71.55284086,71.8000030517578,2012-02-07 12:55:00
2.0939998626709,42.88176137,-71.55284089,71.8000030517578,2012-02-07 12:55:02
1.94000005722046,42.88176145,-71.55284088,71.8000030517578,2012-02-07 12:55:04
2.06100010871887,42.8817614,-71.552841,71.8000030517578,2012-02-07 12:55:06
2.12100005149841,42.88176144,-71.55284107,71.8000030517578,2012-02-07 12:55:08
2.07499980926514,42.88176152,-71.55284101,71.8000030517578,2012-02-07 12:55:10
1.20700001716614,42.88176172,-71.55284141,71.8000030517578,2012-02-07 12:55:11
1.46800017356873,42.8817618,-71.55284149,71.6999969482422,2012-02-07 12:55:13
3.06399989128113,42.88176178,-71.55284167,71.6999969482422,2012-02-07 12:55:16
2.44099998474121,42.88176176,-71.5528417,71.8000030517578,2012-02-07 12:55:18
1.5789999961853,42.8817617,-71.55284179,71.8000030517578,2012-02-07 12:55:20
1.53500008583069,42.88176175,-71.55284194,71.6999969482422,2012-02-07 12:55:21
2.63199996948242,42.88176175,-71.55284194,71.6999969482422,2012-02-07 12:55:24
1.84200000762939,42.88176181,-71.55284192,71.6999969482422,2012-02-07 12:55:26
0.753000020980835,42.88176196,-71.55284188,71.6999969482422,2012-02-07 12:55:26
0.934000015258789,42.88176194,-71.55284186,71.6999969482422,2012-02-07 12:55:27
1.01999998092651,42.88176195,-71.55284185,71.6999969482422,2012-02-07 12:55:28
2.18499994277954,42.88176195,-71.55284185,71.6999969482422,2012-02-07 12:55:31
1.94899988174438,42.88176195,-71.55284191,71.6999969482422,2012-02-07 12:55:33
2.2720000743866,42.88176193,-71.55284188,71.6999969482422,2012-02-07 12:55:35
2.17300009727478,42.88176194,-71.5528419,71.6999969482422,2012-02-07 12:55:37
3.74699997901917,42.88176194,-71.5528419,71.6999969482422,2012-02-07 12:55:41
3.66599988937378,42.88176194,-71.55284191,71.6999969482422,2012-02-07 12:55:44
2.49699997901917,42.88176194,-71.55284191,71.6999969482422,2012-02-07 12:55:47
1.9210000038147,42.88176194,-71.55284192,71.6999969482422,2012-02-07 12:55:49
0.070000171661377,42.88176194,-71.55284192,71.6999969482422,2012-02-07 12:55:49
0.855999946594238,42.88176195,-71.55284192,71.6999969482422,2012-02-07 12:55:50
0.927000045776367,42.88176207,-71.55284177,71.6999969482422,2012-02-07 12:55:51
1.00699996948242,42.8817621,-71.55284175,71.6999969482422,2012-02-07 12:55:52
1.00300002098083,42.88176218,-71.55284167,71.6999969482422,2012-02-07 12:55:53
1.07999992370605,42.8817622,-71.55284166,71.6999969482422,2012-02-07 12:55:54
1.06599998474121,42.8817629814148,-71.5528392791748,57.2000007629395,2012-02-07 12:55:55
1.89300012588501,42.8817629814148,-71.5528392791748,57.2000007629395,2012-02-07 12:55:57
1.13399982452393,42.8817629814148,-71.5528392791748,57.2000007629395,2012-02-07 12:55:58
1.84599995613098,42.8817629814148,-71.5528392791748,57.2000007629395,2012-02-07 12:56:00
2.53600001335144,42.8817629814148,-71.5528392791748,57.2000007629395,2012-02-07 12:56:02
3.10400009155273,42.8817629814148,-71.5528392791748,57.2000007629395,2012-02-07 12:56:05
1.52999997138977,42.88176221,-71.55284184,71.6999969482422,2012-02-07 12:56:07
0.717999935150146,42.8817623,-71.55284186,71.6999969482422,2012-02-07 12:56:08
0.871000051498413,42.88176221,-71.55284189,71.6999969482422,2012-02-07 12:56:08
0.995000123977661,42.88176224,-71.5528419,71.6999969482422,2012-02-07 12:56:09
1.14999985694885,42.88176219,-71.55284194,71.6999969482422,2012-02-07 12:56:11
2.00999999046326,42.88176211,-71.55284202,71.6999969482422,2012-02-07 12:56:13
2.04700016975403,42.88176196,-71.5528421,71.6999969482422,2012-02-07 12:56:15
2.31900000572205,42.88176196,-71.55284207,71.6999969482422,2012-02-07 12:56:17
2.2039999961853,42.88176197,-71.55284198,71.6999969482422,2012-02-07 12:56:19
2.40100002288818,42.88176188,-71.55284172,71.6999969482422,2012-02-07 12:56:22
2.26799988746643,42.88176187,-71.55284181,71.6999969482422,2012-02-07 12:56:24
1.66000008583069,42.88176181,-71.55284174,71.6999969482422,2012-02-07 12:56:26
2.33099985122681,42.88176179,-71.55284173,71.6999969482422,2012-02-07 12:56:28
1.75800013542175,42.88176179,-71.55284173,71.6999969482422,2012-02-07 12:56:30
2.34899997711182,42.88176179,-71.55284176,71.6999969482422,2012-02-07 12:56:32
1.77799987792969,42.88176174,-71.55284177,71.6999969482422,2012-02-07 12:56:34
2.31500005722046,42.88176177,-71.5528418,71.6999969482422,2012-02-07 12:56:36
2.1159999370575,42.88176176,-71.55284198,71.6999969482422,2012-02-07 12:56:38
1.98100018501282,42.88176174,-71.55284208,71.6999969482422,2012-02-07 12:56:40
1.54299998283386,42.88176171,-71.55284228,71.6999969482422,2012-02-07 12:56:42
2.3899998664856,42.8817617,-71.55284225,71.6999969482422,2012-02-07 12:56:44
1.8510000705719,42.88176166,-71.55284235,71.6999969482422,2012-02-07 12:56:46
1.95300006866455,42.88176159,-71.55284243,71.6999969482422,2012-02-07 12:56:48
2.10699987411499,42.88176149,-71.55284259,71.6999969482422,2012-02-07 12:56:50
1.95099997520447,42.88176151,-71.5528426,71.6999969482422,2012-02-07 12:56:52
2.05100011825562,42.88176144,-71.5528426,71.6999969482422,2012-02-07 12:56:54
1.75799989700317,42.88176144,-71.5528426,71.6999969482422,2012-02-07 12:56:56
2.02300000190735,42.88176139,-71.55284266,71.6999969482422,2012-02-07 12:56:58
2.03500008583069,42.88176139,-71.55284266,71.6999969482422,2012-02-07 12:57:00
2.18400001525879,42.88176139,-71.55284266,71.6999969482422,2012-02-07 12:57:02
1.78199982643127,42.8816610574722,-71.549443602562,58.5999984741211,2012-02-07 12:57:04
4.13500022888184,42.88176139,-71.55284267,71.6999969482422,2012-02-07 12:57:08
2.03099989891052,42.88176139,-71.55284267,71.6999969482422,2012-02-07 12:57:10
0.680000066757202,42.88176139,-71.55284267,71.6999969482422,2012-02-07 12:57:11
2.18400001525879,42.88176139,-71.55284267,71.6999969482422,2012-02-07 12:57:13
4.74799990653992,42.8817629814148,-71.5528446435928,57.2000007629395,2012-02-07 12:57:18
2.73099994659424,42.8817629814148,-71.5528446435928,57.2000007629395,2012-02-07 12:57:20
3.36800003051758,42.8817629814148,-71.5528446435928,57.2000007629395,2012-02-07 12:57:24
2.51500010490417,42.8817629814148,-71.5528446435928,57.2000007629395,2012-02-07 12:57:26
3.8769998550415,42.8817629814148,-71.5528446435928,57.2000007629395,2012-02-07 12:57:30
15.2170000076294,42.8817629814148,-71.5528446435928,57.2000007629395,2012-02-07 12:57:45
11.5680000782013,42.8817629814148,-71.5528446435928,57.2000007629395,2012-02-07 12:57:57
3.73900008201599,42.8817629814148,-71.5528446435928,57.2000007629395,2012-02-07 12:58:01
3.65699982643127,42.8817629814148,-71.5528446435928,57.2000007629395,2012-02-07 12:58:04
1.58500003814697,42.8817629814148,-71.5528446435928,57.2000007629395,2012-02-07 12:58:06
0.871999979019165,42.8817629814148,-71.5528446435928,57.2000007629395,2012-02-07 12:58:07
1.00800013542175,42.8817629814148,-71.5528446435928,57.2000007629395,2012-02-07 12:58:08
1.5389997959137,42.8817629814148,-71.5528446435928,57.2000007629395,2012-02-07 12:58:09
2.44300007820129,42.8817629814148,-71.5528446435928,57.2000007629395,2012-02-07 12:58:12
2.52999997138977,42.8817629814148,-71.5528446435928,57.2000007629395,2012-02-07 12:58:14
2.58500003814697,42.8817629814148,-71.5528446435928,57.2000007629395,2012-02-07 12:58:17
2.54800009727478,42.8817629814148,-71.5528446435928,57.2000007629395,2012-02-07 12:58:19
3.44400000572205,42.8817613,-71.55284247,71.6999969482422,2012-02-07 12:58:23
2.11500000953674,42.8817629814148,-71.5528446435928,57.2000007629395,2012-02-07 12:58:25
1.38699984550476,42.8817629814148,-71.5528446435928,57.2000007629395,2012-02-07 12:58:26
2.98300004005432,42.8817629814148,-71.5528446435928,57.2000007629395,2012-02-07 12:58:29
3.74300003051758,42.8817629814148,-71.5528446435928,57.2000007629395,2012-02-07 12:58:33
4.27999997138977,42.88176107,-71.55284236,71.6999969482422,2012-02-07 12:58:37
1.02300000190735,42.881761,-71.55284251,71.6999969482422,2012-02-07 12:58:38
1.58800005912781,42.88176103,-71.5528425,71.6999969482422,2012-02-07 12:58:40
0.733999967575073,42.88176101,-71.55284259,71.6999969482422,2012-02-07 12:58:41
1.53500008583069,42.88176102,-71.5528426,71.6999969482422,2012-02-07 12:58:42
2.25499987602234,42.88176101,-71.55284262,71.6999969482422,2012-02-07 12:58:44
2.16199994087219,42.88176096,-71.55284259,71.6999969482422,2012-02-07 12:58:47
1.73100018501282,42.88176089,-71.55284256,71.6999969482422,2012-02-07 12:58:48
1.38099980354309,42.88176088,-71.55284256,71.6999969482422,2012-02-07 12:58:50
0.711000204086304,42.88176088,-71.55284258,71.6999969482422,2012-02-07 12:58:50
1.43599987030029,42.88176088,-71.55284258,71.6999969482422,2012-02-07 12:58:52
2.03600001335144,42.88176089,-71.5528426,71.6999969482422,2012-02-07 12:58:54
1.89800000190735,42.8817609,-71.55284263,71.6999969482422,2012-02-07 12:58:56
1.88000011444092,42.88176098,-71.55284285,71.6999969482422,2012-02-07 12:58:58
1.43999981880188,42.88176118,-71.5528436,71.6999969482422,2012-02-07 12:58:59
2.57400012016296,42.88176122,-71.55284445,71.6999969482422,2012-02-07 12:59:02
2.00699996948242,42.88176121,-71.55284448,71.6999969482422,2012-02-07 12:59:04
1.06800007820129,42.88176125,-71.55284507,71.5999984741211,2012-02-07 12:59:05
2.04199981689453,42.88176111,-71.55284532,71.5999984741211,2012-02-07 12:59:07
2.01100015640259,42.88176076,-71.55284585,71.5999984741211,2012-02-07 12:59:09
2.04699993133545,42.88176041,-71.55284631,71.5999984741211,2012-02-07 12:59:11
2.06100010871887,42.88161718,-71.55295296,72.4000015258789,2012-02-07 12:59:13
2.70700001716614,42.88139325,-71.55302393,75.5999984741211,2012-02-07 12:59:16
1.99699997901917,42.88116317,-71.55293838,76.6999969482422,2012-02-07 12:59:18
1.99499988555908,42.88083547,-71.55287679,77.4000015258789,2012-02-07 12:59:20
1.70799994468689,42.88054967,-71.55272542,74.3000030517578,2012-02-07 12:59:21
1.42700004577637,42.88035122,-71.55263214,73.9000015258789,2012-02-07 12:59:23
1.66000008583069,42.88027078,-71.55258118,73.5999984741211,2012-02-07 12:59:24
2.58599996566772,42.88012493,-71.5524909,73.4000015258789,2012-02-07 12:59:27
2.40000009536743,42.87989729,-71.55235353,73.4000015258789,2012-02-07 12:59:29
1.32699990272522,42.87964272,-71.55248651,72.8000030517578,2012-02-07 12:59:31
2.05599999427795,42.87956127,-71.55251733,72.5999984741211,2012-02-07 12:59:33
1.60500001907349,42.87932693,-71.55283993,72.5,2012-02-07 12:59:34
0.960000038146973,42.87925018,-71.55288792,72.3000030517578,2012-02-07 12:59:35
0.998999834060669,42.87918344,-71.5529292,72.5,2012-02-07 12:59:36
1,42.87914071,-71.55301101,72,2012-02-07 12:59:37
0.982000112533569,42.87906292,-71.55303486,72.5,2012-02-07 12:59:38
0.770999908447266,42.87899909,-71.55308437,71.9000015258789,2012-02-07 12:59:39
0.999000072479248,42.87895477,-71.55308685,72,2012-02-07 12:59:40
1.25399994850159,42.8789507,-71.55314696,72.5999984741211,2012-02-07 12:59:41
1.00200009346008,42.87895151,-71.55324428,73,2012-02-07 12:59:42
0.980000019073486,42.8789072,-71.55331615,73.1999969482422,2012-02-07 12:59:43
1.00699996948242,42.87887078,-71.55341373,73.1999969482422,2012-02-07 12:59:44
1.0239999294281,42.87883705,-71.55352779,73.1999969482422,2012-02-07 12:59:45
1.04500007629395,42.87880674,-71.55365284,73.3000030517578,2012-02-07 12:59:46
0.947999954223633,42.87879531,-71.55379156,73.4000015258789,2012-02-07 12:59:47
0.967999935150146,42.87876231,-71.55395058,73.3000030517578,2012-02-07 12:59:48
0.883000135421753,42.87879136,-71.55400885,73.5999984741211,2012-02-07 12:59:49
0.891000032424927,42.87879892,-71.55416869,73.5999984741211,2012-02-07 12:59:50
1.43899989128113,42.87883595,-71.55434484,73.9000015258789,2012-02-07 12:59:52
2.22699999809265,42.87882644,-71.55457022,73.1999969482422,2012-02-07 12:59:54
0.753000020980835,42.87888719,-71.5549577,73.0999984741211,2012-02-07 12:59:55
0.898999929428101,42.87889901,-71.5552299,72.3000030517578,2012-02-07 12:59:55
0.664000034332275,42.87891718,-71.55547052,71.5999984741211,2012-02-07 12:59:56
1.95799994468689,42.87895135,-71.55566367,71.3000030517578,2012-02-07 12:59:58
