"diffSecs","level","azimuth.mean","azimuth.absolute.deviation","azimuth.standard.deviation","azimuth.max.deviation","pitch.mean","pitch.absolute.deviation","pitch.standard.deviation","pitch.max.deviation","roll.mean","roll.absolute.deviation","roll.standard.deviation","roll.max.deviation","time"
1.60800004005432,7,16.7857151031494,0.0734691992402077,0.08329888433218,0.114284791052341,7.7142858505249,0.102040894329548,0.112485930323601,0.185714319348335,0.557142853736877,0.134693875908852,0.159078985452652,0.257142841815948,2012-01-25 18:20:01
1,87,16.3839092254639,0.84920072555542,0.980836391448975,1.71609199047089,7.14023017883301,0.356533288955688,0.431373059749603,0.940229713916779,-0.0137931033968925,0.447007536888123,0.527665078639984,0.986206889152527,2012-01-25 18:20:02
1.19400000572205,30,16.1066665649414,0.64177793264389,0.745177149772644,1.39333307743073,7.34999990463257,0.349999994039536,0.396442532539368,0.750000238418579,-0.236666664481163,0.358444452285767,0.448317855596542,1.13666665554047,2012-01-25 18:20:03
1.00300002098083,42,17.283332824707,0.540476202964783,0.64841091632843,1.28333365917206,7.80714273452759,0.179591834545135,0.219732388854027,0.492857247591019,0.276190489530563,0.342857152223587,0.398694008588791,0.723809540271759,2012-01-25 18:20:04
1.00399994850159,48,16.9833335876465,0.675000071525574,0.794337689876556,1.38333320617676,7.65208339691162,0.412586838006973,0.492015212774277,1.04791641235352,1.31041669845581,0.366319447755814,0.420436084270477,0.810416698455811,2012-01-25 18:20:05
1.02100014686584,29,17.4965515136719,0.652794361114502,0.798482477664948,1.69655191898346,8.29310321807861,0.456837117671967,0.486316949129105,0.706896364688873,0.968965530395508,0.225683718919754,0.269230633974075,0.63103449344635,2012-01-25 18:20:06
1.0019998550415,45,17.8133335113525,0.738666474819183,0.918597877025604,1.71333336830139,7.62666654586792,0.369481533765793,0.417079836130142,0.773333787918091,0.317777782678604,0.243259266018867,0.284635365009308,0.717777788639069,2012-01-25 18:20:07
1.00800013542175,49,15.6959180831909,0.563515186309814,0.629207193851471,1.09591805934906,7.17959213256836,0.375177055597305,0.434708297252655,0.920408427715302,0.671428561210632,0.33119535446167,0.360838025808334,0.628571510314941,2012-01-25 18:20:08
1.01099991798401,32,15.359375,0.356835871934891,0.415977239608765,0.740625143051147,7.28437519073486,0.390625,0.448685139417648,0.815625250339508,0.315625011920929,0.2958984375,0.340137273073196,0.615625023841858,2012-01-25 18:20:09
1,40,16.3800010681152,0.524999976158142,0.593380212783813,1.1199996471405,7.57750034332275,0.296499997377396,0.37648868560791,0.87749981880188,0.372500002384186,0.386999994516373,0.452209860086441,0.82750004529953,2012-01-25 18:20:10
1.01999998092651,42,15.8738098144531,0.420181572437286,0.48944079875946,0.926191210746765,7.10714292526245,0.288435429334641,0.347366213798523,0.607142925262451,-0.5,0.228571429848671,0.269920617341995,0.5,2012-01-25 18:20:11
1.0090000629425,43,15.6511631011963,0.238290905952454,0.278176844120026,0.551162540912628,6.78604650497437,0.188967019319534,0.233856841921806,0.613953530788422,-0.823255836963654,0.166576534509659,0.196287900209427,0.376744210720062,2012-01-25 18:20:12
1.00999999046326,30,15.039999961853,0.342666655778885,0.412795305252075,0.65999960899353,6.64333343505859,0.159555643796921,0.187409266829491,0.356666594743729,-0.119999997317791,0.284000009298325,0.365513354539871,0.879999995231628,2012-01-25 18:20:13
1.00799989700317,45,14.5044450759888,0.523753106594086,0.634894788265228,1.30444478988647,7.43555545806885,0.292839467525482,0.370078384876251,0.764444172382355,0.797777771949768,0.393086433410645,0.468799382448196,1.00222229957581,2012-01-25 18:20:14
1.01100015640259,45,15.3666667938232,0.591111123561859,0.684105277061462,1.06666672229767,7.90000009536743,0.14666660130024,0.183787256479263,0.400000095367432,1.1066666841507,0.15851853787899,0.194821879267693,0.406666725873947,2012-01-25 18:20:15
1.01300001144409,34,16.3088245391846,0.420588135719299,0.493706107139587,0.89117705821991,7.10588264465332,0.178892821073532,0.257751822471619,0.694117784500122,1.59411764144897,0.242214545607567,0.280693650245667,0.505882501602173,2012-01-25 18:20:16
1.05799984931946,26,16.0961532592773,0.204733818769455,0.278016060590744,0.603846609592438,6.86538457870483,0.126922979950905,0.146608501672745,0.265384823083878,1.8923077583313,0.117159746587276,0.146558150649071,0.307692319154739,2012-01-25 18:20:17
1.00399994850159,49,17.6510200500488,0.366264224052429,0.495334357023239,1.55102050304413,8.34081649780273,0.19433568418026,0.223988264799118,0.440816342830658,2.20204091072083,0.381924211978912,0.439150303602219,0.897959291934967,2012-01-25 18:20:18
1.03299999237061,31,19.1451625823975,0.373361021280289,0.468242138624191,1.045161485672,8.58709716796875,0.199583724141121,0.241956919431686,0.612902820110321,3.9193549156189,0.483246624469757,0.563639879226685,1.01935482025146,2012-01-25 18:20:20
1.01700019836426,41,20.5804882049561,0.754431903362274,0.96201503276825,2.48048782348633,9.13414669036865,0.621772766113281,0.704553127288818,1.23414647579193,4.84146356582642,0.425817936658859,0.479316353797913,0.758536398410797,2012-01-25 18:20:21
1.00699996948242,38,20.8447380065918,0.836565017700195,0.945821046829224,1.55526232719421,8.46315765380859,0.264542877674103,0.302986025810242,0.636842250823975,4.97368431091309,0.257894694805145,0.302345395088196,0.526315689086914,2012-01-25 18:20:22
1.00399994850159,43,21.9046516418457,0.429096728563309,0.558216989040375,1.1953489780426,7.74186038970947,0.32071390748024,0.355836749076843,0.741860568523407,6.05581426620483,0.263277411460876,0.317916393280029,0.755813837051392,2012-01-25 18:20:23
1.00200009346008,46,22.3978271484375,0.472495317459106,0.542333662509918,0.997826814651489,8.58913040161133,0.207466930150986,0.24954591691494,0.589130640029907,6.4347825050354,0.200189009308815,0.246909067034721,0.665217220783234,2012-01-25 18:20:24
1.0259997844696,22,23.2636375427246,0.172727152705193,0.205703809857368,0.36363697052002,8.40000057220459,0.200000047683716,0.223606795072556,0.400000214576721,7.96363639831543,0.351239711046219,0.416200906038284,0.736363291740417,2012-01-25 18:20:25
1.01800012588501,38,25.2973690032959,0.908033132553101,1.15541899204254,2.30263161659241,7.46315813064575,0.380886435508728,0.437349110841751,0.836842179298401,8.81842136383057,0.308864265680313,0.350079089403152,0.581579208374023,2012-01-25 18:20:26
1.01200008392334,48,29.9291667938232,0.968402802944183,1.22558808326721,2.62916564941406,5.72708320617676,1.0448784828186,1.11649370193481,1.57291674613953,10.2854166030884,0.605034708976746,0.671748161315918,1.21458315849304,2012-01-25 18:20:27
1.00299978256226,45,30.6555557250977,0.239506244659424,0.315210998058319,0.944444537162781,3.92222237586975,0.477037072181702,0.505476236343384,0.922222316265106,11.8422222137451,0.245037093758583,0.293249189853668,0.557778120040894,2012-01-25 18:20:28
1.02100014686584,43,31.5441856384277,0.275176048278809,0.320829331874847,0.655814170837402,2.78604650497437,0.191022157669067,0.229844629764557,0.513953387737274,12.5488376617432,0.254407823085785,0.323765724897385,0.751162707805634,2012-01-25 18:20:29
1.24300003051758,40,32.6399993896484,0.254999995231628,0.310483783483505,0.760000705718994,2.46749997138977,0.224000006914139,0.278735995292664,0.567500054836273,13.1424999237061,0.181749954819679,0.224596872925758,0.542499780654907,2012-01-25 18:20:30
1.00999999046326,45,31.7933330535889,0.418370455503464,0.48138701915741,1.10666787624359,1,0.164444461464882,0.230940118432045,1,11.7955560684204,0.391605019569397,0.477007180452347,0.804444670677185,2012-01-25 18:20:31
1.01099991798401,35,32.2942848205566,0.183999866247177,0.225442931056023,0.594285845756531,0.214285716414452,0.170612245798111,0.195875853300095,0.385714292526245,11.2542858123779,0.0922449827194214,0.112992711365223,0.254285871982574,2012-01-25 18:20:32
1.00800013542175,47,32.2000007629395,0.259574562311172,0.297507673501968,0.599998474121094,-0.168085113167763,0.120416477322578,0.155886456370354,0.431914925575256,10.7808513641357,0.148030892014503,0.199614852666855,0.880850672721863,2012-01-25 18:20:33
1,41,32.0853652954102,0.509101986885071,0.592868745326996,1.01463556289673,-0.280487805604935,0.134086862206459,0.161123365163803,0.319512218236923,9.40487861633301,0.419869035482407,0.529588460922241,1.10487806797028,2012-01-25 18:20:34
1.23399996757507,33,31.5212116241455,0.272911071777344,0.322638362646103,0.621212720870972,-0.121212124824524,0.157759413123131,0.185468420386314,0.421212136745453,7.80909109115601,0.439669489860535,0.461462587118149,0.709091126918793,2012-01-25 18:20:35
1.00499987602234,39,30.7717952728271,0.450887620449066,0.510881006717682,0.871795654296875,1.72051286697388,0.434319525957108,0.596218645572662,1.57948708534241,7.45128202438354,0.350164353847504,0.390838533639908,0.751281917095184,2012-01-25 18:20:36
1.00699996948242,48,30.4437503814697,0.527083277702332,0.638000190258026,1.24374961853027,3.57500004768372,0.271874994039536,0.316556990146637,0.625000238418579,7.48958349227905,0.393750011920929,0.46959188580513,0.910417079925537,2012-01-25 18:20:37
1.01900005340576,34,29.6852951049805,0.383564203977585,0.433272480964661,0.814705491065979,4.25588226318359,0.13823527097702,0.166611865162849,0.344117432832718,6.82058811187744,0.278373718261719,0.352119147777557,0.879411995410919,2012-01-25 18:20:38
1.00800013542175,42,29.8833332061768,0.485714226961136,0.548555135726929,0.916667282581329,4.93095254898071,0.216326504945755,0.243474945425987,0.469047576189041,7.06904792785645,0.458049923181534,0.498324900865555,0.830952405929565,2012-01-25 18:20:39
1.00699996948242,45,29.513334274292,0.308148175477982,0.355027377605438,0.686666965484619,4.5,0.275555551052094,0.330655932426453,0.700000166893005,6.78666687011719,0.628740727901459,0.770742774009705,1.48666656017303,2012-01-25 18:20:40
1.0149998664856,31,27.5193557739258,0.796670138835907,0.912076473236084,1.61935555934906,3.51290321350098,0.398751318454742,0.483096182346344,0.912903130054474,3.04193544387817,1.78147768974304,1.89375448226929,2.95806455612183,2012-01-25 18:20:41
1.00100016593933,44,23.4045448303223,1.7221075296402,1.87143063545227,2.90454578399658,4.32954549789429,0.569938004016876,0.633022904396057,1.07045459747314,-0.756818175315857,0.751033067703247,0.958312392234802,2.35681819915771,2012-01-25 18:20:42
1.00799989700317,34,19.7588233947754,0.664705693721771,0.751123607158661,1.24117624759674,5.6205883026123,0.264013916254044,0.328794062137604,0.720588207244873,-2.71176481246948,0.591003477573395,0.778295576572418,1.78823530673981,2012-01-25 18:20:43
1.00600004196167,40,16.2650012969971,0.743250131607056,0.883048892021179,2.03500080108643,6.24499988555908,0.201750010251999,0.250948190689087,0.754999935626984,-3.63499999046326,0.543500006198883,0.60189288854599,1.06500017642975,2012-01-25 18:20:44
1.07500004768372,48,15.5187501907349,0.215364590287209,0.271305680274963,0.718749940395355,7.84166669845581,0.327083349227905,0.418744832277298,1.04166662693024,-1.59791672229767,0.406510442495346,0.542943239212036,1.10208332538605,2012-01-25 18:20:45
1.00799989700317,29,14.875862121582,0.209512546658516,0.258183598518372,0.524138271808624,8.08965492248535,0.184542253613472,0.229459390044212,0.410344660282135,-0.510344803333282,0.276337683200836,0.388937383890152,0.989655196666718,2012-01-25 18:20:46
1.0090000629425,41,15.2975616455078,0.25663298368454,0.327955782413483,0.702438831329346,8.46585369110107,0.148958936333656,0.17889878153801,0.36585345864296,-0.570731699466705,0.15074360370636,0.185108929872513,0.370731711387634,2012-01-25 18:20:47
1.01900005340576,47,15.09361743927,0.488456279039383,0.557885110378265,0.993616878986359,7.90212774276733,0.156088724732399,0.206788405776024,0.497872740030289,-0.434042572975159,0.112811230123043,0.138804316520691,0.334042549133301,2012-01-25 18:20:48
1.01899981498718,34,14.8352947235107,0.258477568626404,0.351369053125381,0.835294306278229,7.79117679595947,0.190138459205627,0.220117226243019,0.408823192119598,-0.326470583677292,0.0738754346966743,0.0917439684271812,0.273529440164566,2012-01-25 18:20:49
1.01300001144409,40,14.897500038147,0.282625049352646,0.320536673069,0.597500026226044,7.42500019073486,0.262500017881393,0.306390315294266,0.574999988079071,-0.344999998807907,0.15174999833107,0.184323087334633,0.354999989271164,2012-01-25 18:20:50
1.33000016212463,45,14.4755554199219,0.315061718225479,0.379564434289932,0.824444353580475,7.00888919830322,0.35535803437233,0.370478510856628,0.608888924121857,-0.533333361148834,0.10962963104248,0.126491099596024,0.266666680574417,2012-01-25 18:20:52
1,35,13.9742860794067,0.753469288349152,0.971109211444855,1.72571396827698,6.93142890930176,0.525550961494446,0.579049170017242,0.86857146024704,-1.06571435928345,0.34759184718132,0.398527920246124,0.734285771846771,2012-01-25 18:20:53
1.28099989891052,46,14.2913045883179,0.494139909744263,0.611777901649475,1.40869522094727,6.85434770584106,0.189130395650864,0.222345724701881,0.545652210712433,-1.05217397212982,0.16748583316803,0.208242267370224,0.547826111316681,2012-01-25 18:20:54
1.05599999427795,46,13.3304347991943,0.231380090117455,0.304937362670898,0.66956502199173,7.03043508529663,0.191682428121567,0.238536834716797,0.530434846878052,-1.08695650100708,0.158223077654839,0.192927896976471,0.486956536769867,2012-01-25 18:20:55
1.01099991798401,47,13.840425491333,0.248076066374779,0.292937844991684,0.64042592048645,7.28936195373535,0.102489791810513,0.13405941426754,0.310638070106506,-0.65319150686264,0.151652321219444,0.186628624796867,0.446808516979218,2012-01-25 18:20:56
1.21200013160706,26,14.0192308425903,0.143786951899529,0.168749272823334,0.319231182336807,7.2615385055542,0.105917140841484,0.130315959453583,0.261538624763489,-0.600000023841858,0.130769222974777,0.156892910599709,0.400000005960464,2012-01-25 18:20:57
1.00600004196167,46,14.0239133834839,0.368241935968399,0.419722825288773,0.776086926460266,7.01521730422974,0.151984870433807,0.174415037035942,0.315217226743698,-0.817391335964203,0.0894139930605888,0.116664424538612,0.382608741521835,2012-01-25 18:20:58
1.00300002098083,46,12.9521741867065,0.254253208637238,0.32686859369278,0.947826385498047,6.8760871887207,0.153119057416916,0.187876909971237,0.376087069511414,-1.0043478012085,0.165028378367424,0.185280680656433,0.30434787273407,2012-01-25 18:20:59
1.00299978256226,22,12.6999998092651,0.318181812763214,0.384943872690201,0.799999833106995,6.55000019073486,0.150000005960464,0.180277571082115,0.350000023841858,-1.38181817531586,0.150413200259209,0.174867123365402,0.381818205118179,2012-01-25 18:21:00
1.02000021934509,42,12.9714288711548,0.288435369729996,0.348661214113235,0.728571116924286,6.57857179641724,0.192176893353462,0.223111897706985,0.478571683168411,-1.44761908054352,0.0832199528813362,0.0957130938768387,0.152380973100662,2012-01-25 18:21:01
1.01699995994568,47,12.7276601791382,0.132005602121353,0.167207568883896,0.372340679168701,6.96382999420166,0.228429153561592,0.268506944179535,0.563829839229584,-1.29148936271667,0.150565877556801,0.196598514914513,0.508510649204254,2012-01-25 18:21:02
1.05399990081787,20,13.0200004577637,0.147999987006187,0.169115304946899,0.320000350475311,6.92500019073486,0.122499883174896,0.144481688737869,0.224999785423279,-1.44000005722046,0.138000011444092,0.165529444813728,0.340000003576279,2012-01-25 18:21:03
1,46,12.8195657730103,0.648204207420349,0.768289983272552,1.31956541538239,6.6847825050354,0.198865815997124,0.218659356236458,0.415217280387878,-1.36739134788513,0.155765578150749,0.186564296483994,0.367391318082809,2012-01-25 18:21:04
1,35,12.0057144165039,0.277061223983765,0.38243043422699,0.994285523891449,6.55714273452759,0.201632663607597,0.233343049883842,0.457143068313599,-1.8885715007782,0.195265293121338,0.243511736392975,0.511428654193878,2012-01-25 18:21:05
1.01300001144409,41,12.731707572937,0.26793584227562,0.318869262933731,0.668292999267578,6.79024410247803,0.159666880965233,0.198537170886993,0.390243887901306,-1.93658542633057,0.178465217351913,0.216125667095184,0.436585396528244,2012-01-25 18:21:06
1.01200008392334,47,12.5702133178711,0.396831214427948,0.448598325252533,0.829787611961365,6.50851058959961,0.112630151212215,0.138117730617523,0.308510422706604,-1.81276595592499,0.223721161484718,0.260618776082993,0.512765944004059,2012-01-25 18:21:07
1.00699996948242,28,12.7678575515747,0.434438705444336,0.47287380695343,0.732142627239227,6.33214282989502,0.220408111810684,0.282910317182541,0.632142722606659,-1.69285714626312,0.0948979705572128,0.119309239089489,0.207142800092697,2012-01-25 18:21:08
1.00699996948242,42,12.1809520721436,0.259863883256912,0.317908346652985,0.619047701358795,6.58333349227905,0.205555528402328,0.255339771509171,0.616666853427887,-2.05238103866577,0.161451280117035,0.191781252622604,0.352380961179733,2012-01-25 18:21:09
1.00799989700317,43,12.430233001709,0.327744752168655,0.400310933589935,1.16976761817932,6.75348854064941,0.215359658002853,0.252751231193542,0.453488260507584,-1.8627907037735,0.311952412128448,0.358954071998596,0.637209296226501,2012-01-25 18:21:10
1.01900005340576,25,11.6479997634888,0.41759991645813,0.474231958389282,0.851999819278717,6.12400007247925,0.260480046272278,0.317842751741409,0.576000213623047,-2.38000011444092,0.156800031661987,0.189736664295197,0.380000025033951,2012-01-25 18:21:11
1.01900005340576,40,11.7150001525879,0.501250028610229,0.579460978507996,1.3149995803833,7.01250028610229,0.310624986886978,0.389991968870163,0.912500202655792,-1.88750004768372,0.155624985694885,0.202715948224068,0.587499976158142,2012-01-25 18:21:12
1.04900002479553,37,11.8972978591919,0.187289997935295,0.236513465642929,0.502703130245209,7.11351346969604,0.128853291273117,0.154503896832466,0.313513427972794,-1.27567565441132,0.341124922037125,0.392776280641556,0.775675714015961,2012-01-25 18:21:13
1.00600004196167,39,12.6179485321045,0.24970418214798,0.292532622814178,0.617948889732361,7.16923093795776,0.200000017881393,0.241951271891594,0.469230651855469,-1.29743587970734,0.203024342656136,0.251648098230362,0.402564108371735,2012-01-25 18:21:14
1.01899981498718,49,11.7795925140381,0.550603926181793,0.677925884723663,1.27959203720093,7.40204095840454,0.194252327084541,0.238609701395035,0.597959101200104,-0.88775509595871,0.283881723880768,0.336022734642029,0.61224490404129,2012-01-25 18:21:16
1.007000207901,29,12.0965518951416,0.266111701726913,0.337825417518616,0.703448295593262,8.23448276519775,0.11605241894722,0.129390880465508,0.234483033418655,-1.08965516090393,0.219738408923149,0.269539624452591,0.510344803333282,2012-01-25 18:21:17
1.00899982452393,42,12.9976196289062,0.897845804691315,0.989345133304596,1.69761908054352,7.83571434020996,0.218367353081703,0.264414429664612,0.564286172389984,-0.895238101482391,0.327891170978546,0.387883394956589,0.904761970043182,2012-01-25 18:21:18
1.29900002479553,41,12.1365852355957,0.191790565848351,0.23452715575695,0.536585211753845,7.83170747756958,0.149315878748894,0.173119232058525,0.368292361497879,-1.25853657722473,0.112790003418922,0.143094047904015,0.358536571264267,2012-01-25 18:21:19
1.01100015640259,46,13.1065216064453,0.445085048675537,0.516005635261536,1.00652158260345,8.08478260040283,0.415501028299332,0.509461581707001,1.08478283882141,-1.60000002384186,0.160869583487511,0.1853316873312,0.399999976158142,2012-01-25 18:21:20
1.01099991798401,47,12.4489364624023,0.732910811901093,0.820967853069305,1.25106346607208,7.62127685546875,0.350656419992447,0.414593458175659,0.921276450157166,-1.57021284103394,0.351290196180344,0.400486379861832,0.670212745666504,2012-01-25 18:21:21
1.02999997138977,28,12.7142858505249,0.384693920612335,0.47412645816803,1.11428558826447,7.65000009536743,0.232142865657806,0.257043600082397,0.449999839067459,-1.66785717010498,0.258418381214142,0.285423964262009,0.532142877578735,2012-01-25 18:21:22
1.00300002098083,47,13.1042556762695,0.307741016149521,0.423740893602371,1.0957442522049,7.97872352600098,0.302580416202545,0.347597420215607,0.621276795864105,-1.48723411560059,0.393300145864487,0.437408745288849,0.712765991687775,2012-01-25 18:21:23
1.0220000743866,46,12.6913042068481,1.01512289047241,1.13785195350647,2.10869574546814,8.44347858428955,0.305103987455368,0.353647023439407,0.656521916389465,-1.71739137172699,0.806805312633514,0.935136437416077,1.68260872364044,2012-01-25 18:21:24
1.05499982833862,30,13.1199998855591,0.346666544675827,0.418250232934952,0.879999816417694,8.51000022888184,0.297333359718323,0.343850761651993,0.68999969959259,-2.83666682243347,0.21844445168972,0.249644190073013,0.436666637659073,2012-01-25 18:21:25
1.01600003242493,49,13.4346942901611,0.342940419912338,0.403328478336334,0.765305757522583,8.73265361785889,0.211495295166969,0.259817689657211,0.667347252368927,-2.60408163070679,0.110620558261871,0.144220903515816,0.404081642627716,2012-01-25 18:21:26
1.03400015830994,31,12.8677425384521,0.220603629946709,0.274022728204727,0.63225781917572,8.63548374176025,0.111758440732956,0.140387415885925,0.33548378944397,-2.3903226852417,0.184807524085045,0.24277275800705,0.609677374362946,2012-01-25 18:21:27
1.00999999046326,46,12.7108697891235,0.372684359550476,0.479686617851257,1.18913078308105,8.52608680725098,0.103591702878475,0.135830387473106,0.373913377523422,-1.41521739959717,0.275708884000778,0.345761567354202,0.784782648086548,2012-01-25 18:21:28
1.02099990844727,47,13.7914896011353,0.26899054646492,0.349364012479782,1.19148921966553,8.54042530059814,0.182435467839241,0.223758563399315,0.540425658226013,-2.27872347831726,0.496785879135132,0.544190287590027,1.27872347831726,2012-01-25 18:21:29
1.03699994087219,27,12.8333339691162,0.30864205956459,0.356941819190979,0.766666769981384,8.41481494903564,0.14979413151741,0.181972071528435,0.31481471657753,-1.47777783870697,0.237860068678856,0.269887953996658,0.52222216129303,2012-01-25 18:21:30
1.00399994850159,47,13.3212766647339,0.333906829357147,0.385887384414673,0.621277034282684,8.47446823120117,0.228157475590706,0.262936025857925,0.625532150268555,-1.24468088150024,0.332095950841904,0.399365723133087,0.944680869579315,2012-01-25 18:21:31
1.01900005340576,47,12.753191947937,0.208058014512062,0.26884388923645,0.646808981895447,8.37021255493164,0.223268523812294,0.277461856603622,0.629787087440491,-0.844680845737457,0.185061126947403,0.232295230031013,0.644680857658386,2012-01-25 18:21:32
1,31,12.722580909729,0.177523523569107,0.22246378660202,0.577419400215149,8.24193572998047,0.0755464732646942,0.0907823592424393,0.241935580968857,-0.974193572998047,0.0751300603151321,0.0982680395245552,0.325806498527527,2012-01-25 18:21:33
1.01800012588501,44,12.622727394104,0.218181669712067,0.24942073225975,0.477272927761078,8.53863620758057,0.114152871072292,0.136873960494995,0.338636726140976,-1.05227279663086,0.188842982053757,0.215837314724922,0.447727262973785,2012-01-25 18:21:34
1,36,12.6305561065674,0.145061686635017,0.169671982526779,0.369444280862808,8.43611145019531,0.142129555344582,0.171840980648994,0.363888889551163,-1.26388895511627,0.125462964177132,0.156618386507034,0.363888889551163,2012-01-25 18:21:35
1.00399994850159,43,12.4232559204102,0.596214115619659,0.742665588855743,1.32325565814972,8.38139533996582,0.278637111186981,0.308978676795959,0.61860454082489,-1.40465116500854,0.162898853421211,0.20567923784256,0.604651153087616,2012-01-25 18:21:36
1.01699995994568,45,11.6666669845581,0.202962905168533,0.243127763271332,0.533332943916321,8.35777759552002,0.134617328643799,0.161229833960533,0.357777982950211,-1.54666674137115,0.218962967395782,0.258714765310287,0.553333461284637,2012-01-25 18:21:37
1.00999999046326,33,11.7757577896118,0.538659274578094,0.586220681667328,1.02424252033234,8.29090881347656,0.270523518323898,0.294766187667847,0.509090900421143,-2.16363644599915,0.534986257553101,0.622223854064941,1.23636364936829,2012-01-25 18:21:38
1.01800012588501,39,12.8461542129517,0.249704152345657,0.307884514331818,0.753846347332001,8.71025657653809,0.138724699616432,0.161396101117134,0.410256445407867,-2.68974375724792,0.110059134662151,0.139219179749489,0.310256361961365,2012-01-25 18:21:39
1.33200001716614,49,12.4020414352417,0.373844176530838,0.423054814338684,0.797958850860596,8.5224494934082,0.176676362752914,0.227017298340797,0.577551245689392,-2.72448992729187,0.117784239351749,0.150550842285156,0.375510305166245,2012-01-25 18:21:40
1.01199984550476,50,12.0220003128052,0.199279978871346,0.252420276403427,0.677999556064606,8.97000026702881,0.255999982357025,0.294108867645264,0.529999792575836,-2.6800000667572,0.263999998569489,0.295296490192413,0.519999980926514,2012-01-25 18:21:42
1.02800011634827,39,12.5743589401245,0.230243220925331,0.302737832069397,0.725640952587128,9.98205184936523,0.307429224252701,0.343340843915939,0.682051301002502,-1.78974366188049,0.336094707250595,0.426551431417465,0.810256540775299,2012-01-25 18:21:43
1.00999999046326,35,13.208571434021,0.327346950769424,0.35965970158577,0.608571231365204,9.7857141494751,0.294693917036057,0.33307471871376,0.585714638233185,-1.7428572177887,0.591836750507355,0.632584571838379,1.04285717010498,2012-01-25 18:21:44
1.05399990081787,45,12.5577783584595,0.125037014484406,0.149798139929771,0.357778131961823,8.95111083984375,0.174716010689735,0.201794445514679,0.448889255523682,-1.01777780056,0.0932345762848854,0.114093318581581,0.282222270965576,2012-01-25 18:21:45
1.01300001144409,31,12.8580646514893,0.298647224903107,0.334831833839417,0.641935229301453,8.43225860595703,0.181893810629845,0.219070017337799,0.432258248329163,-1.41290318965912,0.309261173009872,0.44485729932785,1.48709690570831,2012-01-25 18:21:46
1.01699995994568,48,12.279167175293,0.541840255260468,0.636709749698639,1.17916643619537,8.125,0.221874952316284,0.2883141040802,0.7750004529953,-2.78333330154419,0.120138868689537,0.141911536455154,0.316666752099991,2012-01-25 18:21:47
1.01900005340576,36,12.722222328186,0.466049462556839,0.615589678287506,1.42222225666046,8.72777843475342,0.129321098327637,0.155654802918434,0.372222393751144,-2.48333334922791,0.441666662693024,0.49916598200798,0.816666603088379,2012-01-25 18:21:48
1.02300000190735,31,12.8806457519531,0.311550498008728,0.354163587093353,0.680645525455475,8.21290302276611,0.177107259631157,0.225391358137131,0.487096428871155,-2.26774191856384,0.121540032327175,0.153217300772667,0.432258069515228,2012-01-25 18:21:49
1.08699989318848,44,14.1068181991577,0.252272635698318,0.387531638145447,1.2068178653717,7.94545459747314,0.255785137414932,0.290340393781662,0.554545283317566,-2.093181848526,0.112913265824318,0.151354089379311,0.406818121671677,2012-01-25 18:21:50
1.01300001144409,47,14.4468088150024,0.722136676311493,0.81471860408783,1.65319156646729,8.28723430633545,0.190765097737312,0.230279222130775,0.487234026193619,-0.591489374637604,0.735989153385162,0.820956826210022,1.60851073265076,2012-01-25 18:21:51
1.01600003242493,36,16.6444454193115,0.538888931274414,0.594158947467804,1.55555582046509,9.21388912200928,0.302006185054779,0.335122495889664,0.613888740539551,2.25,0.675000011920929,0.772262215614319,1.55000007152557,2012-01-25 18:21:52
1.27800011634827,46,18.7021751403809,0.641776978969574,0.753395020961761,1.39782619476318,10.2304353713989,0.160491600632668,0.202021941542625,0.430434733629227,5.45217418670654,0.934593558311462,1.11720526218414,2.55217385292053,2012-01-25 18:21:53
1.01900005340576,45,20.8666667938232,0.302221983671188,0.369383782148361,0.73333328962326,9.16666698455811,0.237037107348442,0.291357070207596,0.933333456516266,5.4466667175293,0.319407433271408,0.394743263721466,0.946666777133942,2012-01-25 18:21:54
1.00300002098083,45,20.2333335876465,0.242963194847107,0.300370365381241,0.566667318344116,8.1288890838623,0.317827075719833,0.370358437299728,0.77111154794693,2.67111110687256,0.985086441040039,1.01928567886353,1.82888889312744,2012-01-25 18:21:55
1.01899981498718,45,19.9288902282715,0.576197445392609,0.670198023319244,1.22888851165771,8.20888900756836,0.118123576045036,0.137956961989403,0.291110873222351,1.36000001430511,0.153777748346329,0.190204560756683,0.459999978542328,2012-01-25 18:21:56
1.01999998092651,37,18.7189197540283,0.13396643102169,0.185760393738747,0.618919134140015,9.1162166595459,0.19503279030323,0.270648419857025,0.616216421127319,1.51081085205078,0.130021929740906,0.1538405418396,0.410810798406601,2012-01-25 18:21:57
1.0090000629425,34,18.470588684082,0.188235282897949,0.240745589137077,0.529411494731903,9.51764678955078,0.181660890579224,0.210699945688248,0.382353335618973,1.77352941036224,0.12370241433382,0.152061939239502,0.42647060751915,2012-01-25 18:21:58
1.34800004959106,40,18.5825004577637,0.345750093460083,0.404899746179581,0.817499220371246,9.91250038146973,0.134999945759773,0.163075938820839,0.387499988079071,1.87000000476837,0.145999982953072,0.179164737462997,0.470000058412552,2012-01-25 18:21:59
