"diffSecs","level","azimuth.mean","azimuth.absolute.deviation","azimuth.standard.deviation","azimuth.max.deviation","pitch.mean","pitch.absolute.deviation","pitch.standard.deviation","pitch.max.deviation","roll.mean","roll.absolute.deviation","roll.standard.deviation","roll.max.deviation","time"
1.01699995994568,23,0.926086962223053,0.958034038543701,1.15766537189484,2.47391319274902,8.14782619476318,2.20151233673096,2.5285964012146,4.85217380523682,-13.3304347991943,4.74139881134033,5.17480850219727,7.56956434249878,2012-01-21 12:49:27
1.01300001144409,45,1.27999997138977,1.57599997520447,2.13235402107239,5.88000011444092,8.35777759552002,2.55990123748779,2.8745231628418,4.84222173690796,-18.2311115264893,2.76987648010254,3.16977548599243,7.63111114501953,2012-01-21 12:49:28
1.01199984550476,38,1,4.21578931808472,4.94921588897705,12.8000001907349,3.68157911300659,7.19168996810913,8.47829627990723,14.8815784454346,-15.334210395813,3.90429377555847,4.43919610977173,12.7342109680176,2012-01-21 12:49:29
1.00100016593933,43,-5.33023262023926,6.22120094299316,6.93680906295776,11.4697685241699,-11.1139535903931,2.9439697265625,3.7128050327301,7.91395378112793,0.0465116612613201,9.65873432159424,10.6967363357544,18.3534870147705,2012-01-21 12:49:30
1.01699995994568,49,-5.74285697937012,2.03556847572327,2.11949181556702,2.7571427822113,1.08163273334503,10.2194919586182,10.8558206558228,15.5816326141357,-12.2510204315186,3.79067063331604,4.54025650024414,9.55102062225342,2012-01-21 12:49:31
1.04900002479553,31,-4.42258071899414,0.244745045900345,0.309744656085968,0.822580575942993,14.222580909729,0.267013520002365,0.318979859352112,0.622580409049988,-19.3548393249512,0.976898968219757,1.15670239925385,2.14516115188599,2012-01-21 12:49:32
1.01600003242493,47,-5.8319149017334,0.574196517467499,0.679206788539886,1.46808516979218,15.5234041213989,0.347578078508377,0.410610765218735,0.723404288291931,-24.1297874450684,1.20407426357269,1.36754393577576,2.62978768348694,2012-01-21 12:49:33
1.01799988746643,49,-5.33469390869141,1.0832986831665,1.18123960494995,1.86530637741089,15.5897960662842,0.162265703082085,0.201266288757324,0.510204195976257,-23.4612255096436,1.21665978431702,1.38885021209717,2.86122441291809,2012-01-21 12:49:34
1.00999999046326,29,-1.73448276519775,1.24280619621277,1.37220585346222,2.26551723480225,14.6137933731079,0.546254396438599,0.635568737983704,1.08620655536652,-18.2793102264404,1.73174774646759,2.02729272842407,3.67931032180786,2012-01-21 12:49:35
1.01100015640259,52,1.53461539745331,0.998668670654297,1.08217811584473,1.56538474559784,13.4980773925781,0.175221815705299,0.222304701805115,0.501922845840454,-10.6346158981323,0.995414197444916,1.2499053478241,3.66538453102112,2012-01-21 12:49:36
1.01899981498718,44,3.30227279663086,0.393181830644608,0.512342512607574,1.09772729873657,13.254545211792,0.282231420278549,0.324355661869049,0.645454943180084,-9.80681800842285,0.479855448007584,0.55571323633194,1.09318220615387,2012-01-21 12:49:37
1.00200009346008,36,2.29444456100464,0.173148140311241,0.204048529267311,0.49444442987442,13.0472221374512,0.238734632730484,0.285273939371109,0.652777433395386,-10.6027784347534,0.524537026882172,0.60804146528244,1.20277750492096,2012-01-21 12:49:38
1.28600001335144,40,2.14750003814697,0.291999995708466,0.354955971240997,0.752500057220459,13.3874998092651,0.163125023245811,0.198981761932373,0.512500405311584,-8.83500003814697,0.18350014090538,0.241402238607407,0.76500016450882,2012-01-21 12:49:39
1.02300000190735,51,2.72745108604431,0.209457889199257,0.24740095436573,0.527450978755951,13.1470584869385,0.144867226481438,0.179708793759346,0.447059094905853,-10.470588684082,0.140484347939491,0.179644659161568,0.470588445663452,2012-01-21 12:49:40
1.00799989700317,40,2.58500003814697,0.262250006198883,0.307855486869812,0.685000061988831,13.4850006103516,0.185749962925911,0.229728117585182,0.514999806880951,-10.6949996948242,0.309999972581863,0.350677907466888,0.605000019073486,2012-01-21 12:49:41
1.01800012588501,44,2.85909104347229,0.200000002980232,0.246168985962868,0.640909075737,13.6909093856812,0.137190014123917,0.168978467583656,0.409091114997864,-10.5909090042114,0.115289300680161,0.148963376879692,0.390909403562546,2012-01-21 12:49:42
1.0149998664856,48,3.04583334922791,0.146527796983719,0.189251065254211,0.445833265781403,13.6645832061768,0.191059023141861,0.231381416320801,0.464583724737167,-10.6520833969116,0.20789922773838,0.257382333278656,0.652083516120911,2012-01-21 12:49:43
1.01400017738342,36,2.85555553436279,0.212345704436302,0.284257769584656,0.74444454908371,13.1666669845581,0.279629558324814,0.319722086191177,0.533332943916321,-8.63333320617676,0.722222208976746,0.820907354354858,1.5666663646698,2012-01-21 12:49:44
1.00899982452393,42,1.55238103866577,0.985941052436829,1.19148528575897,2.14761900901794,17.869047164917,2.39399099349976,2.76883053779602,5.06904792785645,-4.44523811340332,1.56995463371277,1.9580363035202,4.14523839950562,2012-01-21 12:49:45
1.01700019836426,43,-0.379069775342941,1.62022721767426,2.03018593788147,4.4209303855896,14.9930238723755,2.5915629863739,3.50941562652588,8.80697727203369,-8.25813961029053,3.70297455787659,4.44256544113159,9.1581392288208,2012-01-21 12:49:46
1,41,3.8048779964447,1.64402139186859,1.91501784324646,3.60487818717957,16.9512195587158,5.41344451904297,6.2167797088623,9.94878005981445,-12.9707317352295,2.51088643074036,2.89821171760559,6.67073202133179,2012-01-21 12:49:47
1.4689998626709,41,1.50487804412842,0.561332523822784,0.650309979915619,1.29512190818787,17.1121959686279,3.90577030181885,4.33944988250732,8.71219444274902,-11.287805557251,3.90517568588257,4.45236015319824,6.68780517578125,2012-01-21 12:49:49
1.00500011444092,49,-0.281632632017136,1.90812170505524,2.43952775001526,7.61836767196655,21.4020404815674,4.4915452003479,5.2420392036438,10.7020416259766,-17.0918369293213,3.07905054092407,3.97614502906799,10.7918367385864,2012-01-21 12:49:50
1.00399994850159,48,-2.73749995231628,2.71302080154419,3.13339710235596,5.26249980926514,19.0520839691162,5.07508659362793,5.54902362823486,9.44791603088379,-11.0229167938232,4.83897590637207,5.94058227539062,12.377082824707,2012-01-21 12:49:51
1.00399994850159,31,-3.29032254219055,2.65515089035034,3.17168474197388,5.3096776008606,20.5,4.14838743209839,4.2370867729187,5.99999952316284,-10.1258068084717,3.79583787918091,4.66150808334351,9.82580661773682,2012-01-21 12:49:52
1.01900005340576,50,-5.3120002746582,1.27888000011444,1.66284573078156,4.28800010681152,20.503999710083,1.66687989234924,1.99769461154938,5.2039999961853,-4.83599996566772,3.33344006538391,3.90521502494812,6.264000415802,2012-01-21 12:49:53
1.0090000629425,48,-5.5625,1.94947922229767,2.2390124797821,4.63749980926514,20.2041664123535,2.02482652664185,2.40502595901489,4.60416650772095,-3.53750014305115,4.42031240463257,5.13552284240723,8.83750057220459,2012-01-21 12:49:54
1.00799989700317,37,-7.48378372192383,2.33221340179443,2.84296321868896,5.21621608734131,20.4837837219238,2.70474815368652,3.24599671363831,6.5837836265564,0.0702702552080154,3.14185547828674,3.78216767311096,7.57027006149292,2012-01-21 12:49:55
1.00300002098083,42,-7.73333358764648,3.16190481185913,3.72256112098694,6.86666679382324,19.2571430206299,4.27823114395142,4.82286930084229,8.65714263916016,-2.9642858505249,3.4102041721344,3.91850447654724,6.86428594589233,2012-01-21 12:49:56
1.00699996948242,43,-5.30232572555542,1.43526232242584,1.84686899185181,3.50232553482056,21.0232563018799,3.48815584182739,4.3302526473999,8.42325592041016,-2.12790703773499,4.6962685585022,5.40733051300049,10.8720932006836,2012-01-21 12:49:57
1.01900005340576,43,-6.3418607711792,1.8862087726593,2.25452852249146,4.25813961029053,16.6534881591797,4.49129247665405,5.23655986785889,9.35348796844482,-3.35348844528198,3.97815036773682,4.42100429534912,6.55348825454712,2012-01-21 12:49:58
1.39499998092651,44,-5.35909080505371,3.22458672523499,3.9613082408905,7.05909109115601,12.2750005722046,8.66704559326172,9.65526580810547,16.375,-4.85227298736572,4.90723133087158,5.47126770019531,9.747727394104,2012-01-21 12:49:59
1.02099990844727,51,-3.42352938652039,2.03367948532104,2.59966731071472,6.17647075653076,13.5686273574829,3.84375238418579,4.65447235107422,8.4686279296875,-3.08431386947632,3.8636679649353,5.05582094192505,16.615686416626,2012-01-21 12:50:00
1.01900005340576,42,-3,2.78095245361328,3.36395478248596,7.5,10.3238096237183,5.20476198196411,5.65402555465698,9.17619037628174,-2.84047627449036,3.85385489463806,4.29385280609131,7.85952377319336,2012-01-21 12:50:01
1.01200008392334,39,-1.58974361419678,2.7109797000885,3.69807958602905,10.0102567672729,11.7256412506104,3.54556226730347,4.3787202835083,8.22564125061035,-2.34102559089661,4.37514781951904,5.13248682022095,9.64102554321289,2012-01-21 12:50:02
1.17799997329712,46,-2.06304359436035,2.51247644424438,3.35256934165955,7.33695697784424,13.0695657730103,1.34139895439148,1.89998519420624,5.16956520080566,1.91304349899292,2.73969769477844,3.11884927749634,5.68695640563965,2012-01-21 12:50:03
1.01099991798401,52,0.721153855323792,2.97174549102783,3.74640011787415,8.72115421295166,12.8442306518555,2.74127221107483,3.2588586807251,7.34423112869263,-0.867307662963867,3.14171600341797,3.69072246551514,6.2326922416687,2012-01-21 12:50:04
1.00399994850159,43,-0.648837208747864,3.08253121376038,3.52686524391174,6.14883708953857,13.4000005722046,1.56279075145721,1.91602790355682,5.09999990463257,-0.174418613314629,3.67625737190247,4.02694940567017,6.77441835403442,2012-01-21 12:50:05
1.35500001907349,35,1.28857147693634,2.45812249183655,2.95681023597717,6.88857126235962,13.791428565979,1.88734686374664,2.11867499351501,3.70857119560242,-4.06571435928345,1.88685715198517,2.17635917663574,4.06571435928345,2012-01-21 12:50:07
