"diffSecs","N.samples","x.mean","x.absolute.deviation","x.standard.deviation","x.max.deviation","x.PSD.1","x.PSD.3","x.PSD.6","x.PSD.10","y.mean","y.absolute.deviation","y.standard.deviation","y.max.deviation","y.PSD.1","y.PSD.3","y.PSD.6","y.PSD.10","z.mean","z.absolute.deviation","z.standard.deviation","z.max.deviation","z.PSD.1","z.PSD.3","z.PSD.6","z.PSD.10","time"
0,49,-0.95024436712265,0.331596285104752,0.454682171344757,1.24644529819489,0.17443710565567,17.5861377716064,53.1600761413574,9.77600765228271,5.89739894866943,0.37190118432045,0.427869021892548,0.947642862796783,27.6923999786377,41.1830406188965,6.6860408782959,19.4306240081787,7.47246694564819,0.526618242263794,0.626462697982788,1.55905723571777,73.0607604980469,139.64045715332,47.5695381164551,20.4210605621338,2012-01-01 20:03:37
1.00169003009796,32,-0.282247632741928,0.127926975488663,0.157818034291267,0.370507478713989,0.294452577829361,0.455313682556152,0.208809420466423,0.0716571658849716,7.46132802963257,0.189946368336678,0.262752652168274,0.861452698707581,0.442948013544083,0.629377424716949,0.151128828525543,0.113606810569763,6.26093292236328,0.358747184276581,0.505161106586456,1.57458019256592,0.918340086936951,1.39329516887665,0.448564380407333,0.472866892814636,2012-01-01 20:03:38
1.016970038414,44,-0.421685934066772,0.0356605462729931,0.0463758520781994,0.12748646736145,0.00728450110182166,0.0077457963488996,0.10481271147728,0.0858489349484444,7.52638101577759,0.0530348382890224,0.0659338608384132,0.132166668772697,0.3858682513237,0.844003021717072,0.219263404607773,0.0275083500891924,6.13071632385254,0.0819381698966026,0.114190980792046,0.344792753458023,0.0680442601442337,0.0726266279816628,0.158911928534508,0.105851516127586,2012-01-01 20:03:39
1.00913333892822,46,-0.40249902009964,0.0337949395179749,0.0457217507064342,0.136866688728333,0.0520111992955208,0.039682611823082,0.144005715847015,0.0277812760323286,7.48247385025024,0.0439166612923145,0.0495843552052975,0.0980663299560547,0.000628671783488244,0.190598413348198,0.290721923112869,0.0616510026156902,6.17541790008545,0.0547892823815346,0.0722279474139214,0.228324428200722,0.0644621476531029,0.203364700078964,0.187750160694122,0.137114405632019,2012-01-01 20:03:40
1.00997161865234,35,-0.56009978055954,0.136636659502983,0.147272825241089,0.236480340361595,1.11053311824799,1.79445946216583,0.673707365989685,0.0772623866796494,7.90359926223755,0.264643579721451,0.279249370098114,0.38189908862114,3.63642597198486,5.14241981506348,1.07166171073914,0.132468536496162,5.51441955566406,0.418555825948715,0.458816915750504,0.630707502365112,6.25812768936157,9.02933788299561,2.75422072410583,0.271311461925507,2012-01-01 20:03:41
1.09817171096802,15,-0.668813526630402,0.0672082379460335,0.100724048912525,0.305967479944229,0.000163631906616502,0.000503698887769133,0.00399980461224914,0.014620897360146,8.03949165344238,0.104081362485886,0.20840622484684,0.772764265537262,0.00671906536445022,0.0136682605370879,0.0309176407754421,0.0376123860478401,5.35966110229492,0.147056147456169,0.299381136894226,1.10292112827301,0.012172494083643,0.0248975921422243,0.0664718598127365,0.100784137845039,2012-01-01 20:03:42
1.00102663040161,26,0.10032957047224,0.273657768964767,0.316702663898468,0.517489373683929,0.148515120148659,0.565298855304718,1.64943301677704,0.925517499446869,6.62552356719971,0.193753853440285,0.242741480469704,0.582364201545715,0.00832522753626108,0.114481762051582,0.399847447872162,0.352026522159576,7.11019802093506,0.270350188016891,0.340782880783081,0.726069211959839,0.0132351228967309,0.137946099042892,0.560547828674316,0.259056180715561,2012-01-01 20:03:43
1.00331664085388,40,-0.660723030567169,0.180197179317474,0.220384538173676,0.516074955463409,3.4936990737915,4.97029685974121,2.83269500732422,0.835256338119507,6.75531053543091,0.10458792746067,0.135611310601234,0.285863757133484,0.962537586688995,2.31290125846863,1.03402018547058,1.09711837768555,6.99998664855957,0.129840031266212,0.163144469261169,0.370691269636154,0.905227482318878,2.26496934890747,1.09136545658112,1.25879859924316,2012-01-01 20:03:44
1.0064183473587,49,-1.6511195898056,0.451579689979553,0.487215250730515,0.83976948261261,53.6899261474609,72.6107635498047,7.2357759475708,3.2268533706665,6.6419038772583,0.165598034858704,0.17792621254921,0.301204323768616,6.17873764038086,10.1417179107666,1.05529725551605,0.315137326717377,6.83443450927734,0.330542504787445,0.355956196784973,0.648039519786835,22.2521018981934,34.7769355773926,5.01799345016479,2.3911018371582,2012-01-01 20:03:45
1.01893830299377,31,-2.12614488601685,0.0723100081086159,0.0958400815725327,0.31191474199295,0.0510352253913879,0.0601593181490898,0.0189417786896229,0.106060706079006,6.7615270614624,0.0779837742447853,0.0880265384912491,0.191387861967087,0.193481490015984,0.348504722118378,0.229435235261917,0.0246221888810396,6.58152723312378,0.0512885190546513,0.0668721199035645,0.187591731548309,0.0279534086585045,0.0499782562255859,0.0509993992745876,0.010625958442688,2012-01-01 20:03:46
1.0192483663559,41,-2.22897982597351,0.0343961678445339,0.0437089949846268,0.124616213142872,0.0032095848582685,0.00382026424631476,0.0351572521030903,0.0501461178064346,6.6682825088501,0.0361229442059994,0.046679925173521,0.108112148940563,0.0175780020654202,0.0472706407308578,0.0616770423948765,0.00519274920225143,6.69100522994995,0.071009173989296,0.096844807267189,0.261909276247025,0.1196653470397,0.222745150327682,0.386581510305405,0.184090718626976,2012-01-01 20:03:47
1.00209498405457,28,-2.23381471633911,0.0467817038297653,0.0568421520292759,0.109974600374699,0.00366764748468995,0.019859354943037,0.0551541708409786,0.00849335920065641,6.66046619415283,0.0206639766693115,0.0264770742505789,0.0605909824371338,0.000107668740383815,0.000504882540553808,0.00522527610883117,0.00683747325092554,6.68743467330933,0.067345567047596,0.0873179882764816,0.2948999106884,0.0710190907120705,0.101156704127789,0.0628569051623344,0.129844471812248,2012-01-01 20:03:48
1.00158500671387,49,-1.80742561817169,0.140201196074486,0.169430464506149,0.385461419820786,0.175480142235756,3.72315859794617,2.18677854537964,0.460466176271439,6.00907468795776,0.218613535165787,0.254460692405701,0.522153854370117,10.0454025268555,8.52254199981689,0.331314831972122,0.24756632745266,7.26352548599243,0.188609540462494,0.221592828631401,0.47392150759697,2.35389947891235,5.5657377243042,2.58573246002197,0.610947608947754,2012-01-01 20:03:49
1.01717829704285,44,-3.47378277778625,0.603149473667145,0.716229915618896,1.36535310745239,27.7595558166504,30.3212909698486,6.21990919113159,8.60311794281006,6.41354894638062,0.506379723548889,0.596134006977081,1.48080396652222,0.685713410377502,18.0233097076416,10.6612730026245,46.7061004638672,6.31325387954712,0.499450266361237,0.594488739967346,1.24321579933167,17.7098083496094,10.3759698867798,13.3018321990967,15.1092834472656,2012-01-01 20:03:50
1.01453995704651,31,-3.25865483283997,0.151334658265114,0.212635084986687,0.512792766094208,0.959317922592163,1.92758500576019,1.98395228385925,1.49720418453217,6.33762645721436,0.164723113179207,0.198475241661072,0.483056575059891,0.063642606139183,0.556998789310455,1.91543900966644,1.4738609790802,6.4521427154541,0.26756539940834,0.331886738538742,0.853811144828796,0.3174729347229,1.04603445529938,3.99938774108887,2.68708109855652,2012-01-01 20:03:51
1.00822830200195,48,-2.7092912197113,0.188982293009758,0.20096392929554,0.296855539083481,7.51980781555176,9.82143592834473,0.812527239322662,1.00954437255859,5.67805004119873,0.336694985628128,0.355516403913498,0.509945750236511,23.7264957427979,35.9559745788574,3.99954724311829,3.15233492851257,7.31085729598999,0.343641310930252,0.373109400272369,0.612915635108948,20.7752513885498,31.5263690948486,3.72073650360107,4.82968759536743,2012-01-01 20:03:52
1.00811839103699,32,-2.28740096092224,0.627319097518921,0.922867715358734,2.55218052864075,9.35012245178223,27.4666805267334,55.1825294494629,44.773380279541,5.18802404403687,0.469110280275345,0.663298070430756,1.66743695735931,5.22235298156738,16.6650714874268,32.8377838134766,15.4919338226318,7.92254734039307,0.296114802360535,0.375222444534302,1.17802345752716,2.35974550247192,4.75594663619995,4.36482810974121,0.756618678569794,2012-01-01 20:03:53
1.00230002403259,48,-4.83181810379028,1.41338336467743,1.72786724567413,4.28264570236206,70.1082000732422,321.088439941406,116.60319519043,9.43015098571777,3.21412944793701,0.557446718215942,0.713543295860291,1.56170892715454,77.8818435668945,70.2901382446289,31.7333469390869,5.42934322357178,7.62753057479858,1.03320550918579,1.235799908638,2.46351194381714,65.7705535888672,278.389099121094,314.350494384766,94.4961853027344,2012-01-01 20:03:54
1.01394832134247,32,6.27472352981567,4.62726402282715,5.59936571121216,11.0701751708984,624.226928710938,775.49609375,176.843673706055,170.092514038086,0.973003506660461,0.966950953006744,1.26415169239044,3.47369933128357,2.7964551448822,7.01046371459961,11.0479774475098,16.4053535461426,1.90126419067383,3.53790211677551,4.56311798095703,8.5232048034668,237.915664672852,428.507019042969,330.798858642578,220.347717285156,2012-01-01 20:03:55
1.0079950094223,44,8.87813854217529,1.06665551662445,1.18742549419403,2.16414952278137,105.230117797852,134.237548828125,21.4130401611328,11.2946557998657,2.29118990898132,0.770875632762909,0.96509838104248,2.20293021202087,67.2974700927734,144.091903686523,54.8542671203613,13.7018241882324,3.49406480789185,1.84701359272003,2.33436250686646,6.70083904266357,553.36865234375,530.818969726562,18.6496639251709,44.2198791503906,2012-01-01 20:03:56
1.00020337104797,39,7.84205102920532,0.884945392608643,1.22130239009857,3.35060548782349,41.5011405944824,57.7987022399902,34.4382476806641,11.4905681610107,2.76824116706848,0.62500786781311,0.769543468952179,1.97390258312225,7.4890022277832,6.79617691040039,31.2633647918701,18.8896732330322,5.51913213729858,0.803990542888641,0.947290539741516,2.20850801467896,10.9471101760864,18.3929996490479,10.90966796875,19.2967357635498,2012-01-01 20:03:57
1.01912832260132,48,5.78490209579468,0.789511919021606,0.971186876296997,2.17809796333313,73.1509628295898,45.2853050231934,31.6318912506104,9.04833984375,1.61789286136627,1.48394536972046,2.13914012908936,6.01127195358276,108.593116760254,399.910461425781,996.836791992188,921.467834472656,7.85839557647705,0.760560214519501,1.15114939212799,4.10244846343994,173.711898803711,195.663635253906,68.6477279663086,14.9729280471802,2012-01-01 20:03:58
1.00230669975281,32,7.28572797775269,0.209080815315247,0.243220910429955,0.440686106681824,0.359580665826797,0.791925191879272,1.63340222835541,2.37247705459595,2.67568302154541,0.262021422386169,0.316635876893997,0.687997758388519,2.2327253818512,4.66666221618652,3.16999340057373,2.08345079421997,6.13375282287598,0.370794713497162,0.480563223361969,1.03490805625916,7.23738718032837,11.0762662887573,6.30257701873779,4.34314012527466,2012-01-01 20:03:59
1.00749337673187,41,6.95745944976807,0.211615920066833,0.298081338405609,0.966313540935516,2.45173406600952,2.55951738357544,0.618202924728394,0.305654108524323,4.0204873085022,0.176356375217438,0.247839987277985,0.607773244380951,0.753289341926575,0.687876403331757,0.449177503585815,0.240885466337204,5.74310874938965,0.131097555160522,0.162224188446999,0.31022521853447,1.40720808506012,1.13104689121246,0.609967648983002,0.178037971258163,2012-01-01 20:04:00
1.02013504505157,48,6.91797828674316,0.0812878981232643,0.0955394804477692,0.180810168385506,0.45560148358345,0.697237908840179,1.88727247714996,0.388205230236053,4.09059906005859,0.0600146576762199,0.0785457417368889,0.19735886156559,0.583659529685974,0.649579226970673,0.415942460298538,0.132844045758247,5.79348278045654,0.118888586759567,0.141705796122551,0.291951984167099,1.97129881381989,2.22607278823853,3.19202327728271,0.711343884468079,2012-01-01 20:04:01
1.01013839244843,30,6.94147348403931,0.0791069567203522,0.0961546152830124,0.184691965579987,0.00218326156027615,0.0371319316327572,0.295670956373215,0.22927650809288,4.07858562469482,0.0395535230636597,0.0476641207933426,0.0990470945835114,0.00996680278331041,0.0149049535393715,0.0491365194320679,0.103437416255474,5.74375486373901,0.0768188312649727,0.0833335146307945,0.120621792972088,0.105888329446316,0.217834755778313,0.222196131944656,0.0113464575260878,2012-01-01 20:04:02
1.05180668830872,43,6.96751070022583,0.0730539485812187,0.0909276828169823,0.181537136435509,0.00504816835746169,0.237542346119881,0.650790452957153,0.138123750686646,4.07774209976196,0.0395236499607563,0.0501051358878613,0.129310816526413,0.00484436843544245,0.0957782715559006,0.129641935229301,0.0551788732409477,5.74624061584473,0.0592218153178692,0.0771873518824577,0.196588963270187,0.0702735409140587,0.0562918670475483,0.0659146308898926,0.188754439353943,2012-01-01 20:04:03
1.03663504123688,47,6.96293020248413,0.0436126589775085,0.0517136566340923,0.107664309442043,0.00689770374447107,0.187534615397453,0.196731612086296,0.0372458025813103,4.08916425704956,0.0265121255069971,0.0352418199181557,0.0982750132679939,0.00132024718914181,0.0390703305602074,0.0116149103268981,0.0203576609492302,5.72124099731445,0.0583872124552727,0.0697747990489006,0.133328750729561,0.000124083002447151,0.470076113939285,0.50409609079361,0.120849974453449,2012-01-01 20:04:04
1.01778328418732,35,6.97112703323364,0.0250569488853216,0.0293865241110325,0.0602407455444336,0.000482413335703313,0.00369939277879894,0.0221655014902353,0.015992583706975,4.09665822982788,0.0126805771142244,0.015958508476615,0.0367048271000385,0.0013676289236173,0.00113905733451247,0.00401702942326665,0.0027246531099081,5.68477487564087,0.0259696487337351,0.031605701893568,0.0619222782552242,0.00101595465093851,0.0164922140538692,0.0493262335658073,0.0315254740417004,2012-01-01 20:04:05
1.01256167888641,43,6.97344017028809,0.0224560759961605,0.0269034933298826,0.0481209196150303,0.0223844274878502,0.0174763333052397,0.0421077236533165,0.0426513701677322,4.08868885040283,0.0280675105750561,0.033198494464159,0.0679626539349556,0.0172071810811758,0.0371469259262085,0.161325812339783,0.0762283280491829,5.76334524154663,0.0298495311290026,0.0361734740436077,0.10103116184473,0.0132946986705065,0.0312601998448372,0.0171066503971815,0.059209369122982,2012-01-01 20:04:06
1.00185835361481,41,6.96032953262329,0.0398915857076645,0.0511992499232292,0.120071455836296,0.045228760689497,0.236710846424103,0.341546207666397,0.0453484356403351,4.09320020675659,0.0252604410052299,0.0309264194220304,0.0920871049165726,0.0350078791379929,0.0774897858500481,0.0359049290418625,0.00453649600967765,5.70914459228516,0.0363214500248432,0.0502804853022099,0.109547406435013,0.0126024698838592,0.0755202397704124,0.278124302625656,0.056477140635252,2012-01-01 20:04:07
1.01844000816345,41,6.95769834518433,0.0204416662454605,0.0240331515669823,0.0442494414746761,0.0502436496317387,0.0867753550410271,0.0282411463558674,0.00416503194719553,4.06808567047119,0.0206167902797461,0.0247810333967209,0.0669725090265274,0.0231157168745995,0.0347330346703529,0.0151526778936386,0.0119110653176904,5.73306322097778,0.0395300835371017,0.0474471561610699,0.0920869112014771,0.117884017527103,0.249061092734337,0.147451967000961,0.0436564944684505,2012-01-01 20:04:08
1.00205671787262,25,6.97331237792969,0.0244145933538675,0.02772624976933,0.0400110632181168,0.000450374849606305,0.000510271987877786,0.000899277511052787,0.00165707850828767,4.09251117706299,0.0351784341037273,0.0414876379072666,0.0815915837883949,0.00587291130796075,0.0102270077914,0.00851023104041815,0.00852302834391594,5.7412052154541,0.0290591102093458,0.0336390361189842,0.054525014013052,0.00720779877156019,0.0135904112830758,0.0187577363103628,0.00689176097512245,2012-01-01 20:04:09
1.00028169155121,39,6.96749877929688,0.0335398465394974,0.0402119047939777,0.093288742005825,0.0379127077758312,0.0688665509223938,0.0625788047909737,0.0230134502053261,4.0976710319519,0.0167118944227695,0.0217065960168839,0.0603485107421875,0.00813262537121773,0.0144018670544028,0.00643857149407268,0.0172151941806078,5.7064642906189,0.0288461726158857,0.0378050468862057,0.0872540101408958,0.00772604299709201,0.0370662733912468,0.0944702997803688,0.0590582229197025,2012-01-01 20:04:10
1.00959002971649,49,6.94150686264038,0.0269161649048328,0.0382818728685379,0.119280681014061,0.0081857880577445,0.0368653014302254,0.147431090474129,0.243756487965584,4.10778570175171,0.0248413011431694,0.0284797884523869,0.0772527158260345,0.0567473769187927,0.126217916607857,0.0724735334515572,0.0188422352075577,5.74969863891602,0.0287378784269094,0.0350072085857391,0.085257776081562,0.0245344992727041,0.0367351546883583,0.0722041353583336,0.0668625012040138,2012-01-01 20:04:11
1.00266671180725,35,6.94927215576172,0.0290436446666718,0.0376602225005627,0.101708792150021,0.0186302792280912,0.0258679278194904,0.00737642589956522,0.00321865756995976,4.1232762336731,0.0124083925038576,0.0154333310201764,0.0347434990108013,5.75769881834276e-05,0.000506014446727931,0.00321551528759301,0.0050603374838829,5.75146007537842,0.0219989363104105,0.0251797437667847,0.044269997626543,0.0045982813462615,0.00520704127848148,0.0146020641550422,0.00966706871986389,2012-01-01 20:04:12
1.01465165615082,43,6.97936964035034,0.0279401522129774,0.035423718392849,0.0912244915962219,0.00485981907695532,0.0519416332244873,0.0176322869956493,0.0217970889061689,4.08481168746948,0.0199951659888029,0.025233568623662,0.0634010583162308,0.000491753686219454,0.000449471670435742,0.0113102942705154,0.0170791950076818,5.72867965698242,0.053546879440546,0.0642171576619148,0.129082828760147,0.0735304728150368,0.201853543519974,0.287253558635712,0.0356960818171501,2012-01-01 20:04:13
1.01958000659943,47,6.95416641235352,0.0291313380002975,0.0343078337609768,0.0698983445763588,0.00400499301031232,0.0369690582156181,0.212168127298355,0.106111012399197,4.07288932800293,0.0234755985438824,0.0316711962223053,0.104743257164955,0.0326469503343105,0.0493996478617191,0.0104370005428791,0.0163320731371641,5.74106311798096,0.023395724594593,0.0317769050598145,0.103700026869774,0.00181765365414321,0.0266101118177176,0.0287560876458883,0.0285582132637501,2012-01-01 20:04:14
1.00273501873016,32,6.97406005859375,0.025589182972908,0.0329024381935596,0.0965340435504913,0.00761675462126732,0.0142677035182714,0.0114610604941845,0.00175352743826807,4.10009908676147,0.0247656255960464,0.0316216796636581,0.0891795009374619,0.00208370946347713,0.0103608453646302,0.032313384115696,0.0212434343993664,5.74608421325684,0.0240952633321285,0.0355227291584015,0.117067113518715,0.0154565460979939,0.0291978903114796,0.0506103299558163,0.053712647408247,2012-01-01 20:04:15
1.01250994205475,38,6.96194696426392,0.0476205758750439,0.0548498928546906,0.0988405346870422,0.0829396471381187,0.166396617889404,0.0670038461685181,0.167736321687698,4.12653493881226,0.031891942024231,0.0392367467284203,0.0861956104636192,0.00445620203390718,0.0785331130027771,0.20338836312294,0.0829193592071533,5.69688892364502,0.0323402136564255,0.0437053479254246,0.118454217910767,0.0453251451253891,0.0704551339149475,0.0506920143961906,0.0283667761832476,2012-01-01 20:04:16
1.00941503047943,44,6.95514345169067,0.0374029837548733,0.04651053622365,0.0958375483751297,0.0983861908316612,0.219164371490479,0.0781232640147209,0.102630689740181,4.09873390197754,0.0253878328949213,0.0326560027897358,0.088705450296402,0.129293918609619,0.18977315723896,0.0837102830410004,0.0792432352900505,5.72262573242188,0.0411313511431217,0.0473301820456982,0.0936090648174286,0.0209916327148676,0.235106959939003,0.206779882311821,0.0568235591053963,2012-01-01 20:04:17
1.02404165267944,48,6.92635488510132,0.0208901707082987,0.0250787846744061,0.061700064688921,0.0229290444403887,0.0285188108682632,0.0142932469025254,0.0217651221901178,4.08508253097534,0.0221415553241968,0.0285844709724188,0.0827434882521629,0.00537520879879594,0.00334766297601163,0.0669122785329819,0.0238005965948105,5.72606182098389,0.0337105393409729,0.0464412309229374,0.108894728124142,0.00294417794793844,0.122987516224384,0.446902811527252,0.29538893699646,2012-01-01 20:04:18
1.01355504989624,27,6.96417427062988,0.0240255780518055,0.0292016118764877,0.070099264383316,0.00241944054141641,0.00599507102742791,0.0100260246545076,0.00425562309101224,4.08065605163574,0.0171111784875393,0.020385067909956,0.0403166152536869,3.45169828506187e-05,8.07620235718787e-05,0.00334489601664245,0.0045792912133038,5.73616361618042,0.0269045438617468,0.0300698410719633,0.0497597754001617,0.00168875919189304,0.00632061902433634,0.0234269388020039,0.0111788352951407,2012-01-01 20:04:19
1.01300001144409,43,6.95040607452393,0.0245881825685501,0.0337129719555378,0.0955576598644257,1.91465787224843e-07,0.0060576256364584,0.04728152602911,0.0267954841256142,4.09940767288208,0.0180539637804031,0.0228266399353743,0.0684183686971664,0.0223414152860641,0.0349553339183331,0.00544735044240952,0.00616914452984929,5.72799587249756,0.0339017808437347,0.0422364920377731,0.116767607629299,0.00388048635795712,0.0387101024389267,0.0976599305868149,0.156141608953476,2012-01-01 20:04:20
1.00453329086304,45,6.96163177490234,0.0235359184443951,0.0292539689689875,0.0577501729130745,0.00487684598192573,0.0373952351510525,0.171905547380447,0.0493774972856045,4.08283519744873,0.0201944150030613,0.0251512825489044,0.0555709414184093,0.000701528042554855,0.0327709540724754,0.110896028578281,0.0275422818958759,5.71749448776245,0.0268486104905605,0.0382048822939396,0.0982844457030296,0.00469138380140066,0.00877206120640039,0.0414635874330997,0.0450550578534603,2012-01-01 20:04:21
1.02952337265015,36,6.97770357131958,0.0334757268428802,0.0453824587166309,0.122855320572853,0.0147190541028976,0.0599517375230789,0.10261145234108,0.188325300812721,4.11743116378784,0.0349134393036366,0.0448297187685966,0.0994283780455589,0.0283709391951561,0.0904392600059509,0.176548674702644,0.0971176400780678,5.75568628311157,0.0329613015055656,0.0372262597084045,0.0678295716643333,0.000562385306693614,0.00624815700575709,0.0367769077420235,0.043140921741724,2012-01-01 20:04:22
1.00607669353485,39,6.96146392822266,0.0330369397997856,0.042088009417057,0.0968090668320656,0.0066106216982007,0.0327236726880074,0.0359790995717049,0.0441859588027,4.11049509048462,0.0348551943898201,0.0412213802337646,0.0995754674077034,0.0179032869637012,0.080120749771595,0.0474193841218948,0.0120631726458669,5.69892072677612,0.0378211513161659,0.0485623478889465,0.106616042554379,0.00123330776114017,0.0135432612150908,0.0214287992566824,0.0361653976142406,2012-01-01 20:04:23
1.01910662651062,44,6.96829319000244,0.0268365405499935,0.0312498509883881,0.0728811100125313,0.00510594202205539,0.0649663358926773,0.0968266129493713,0.0552261956036091,4.10096263885498,0.0208289828151464,0.0270409490913153,0.0606232769787312,0.00836878828704357,0.0616656951606274,0.0819720923900604,0.0115033416077495,5.72262573242188,0.0337561145424843,0.044127780944109,0.102524183690548,0.02452720887959,0.0760796815156937,0.0965105593204498,0.0603208765387535,2012-01-01 20:04:24
1.00785839557648,36,6.96599006652832,0.029056690633297,0.0357340797781944,0.0817219391465187,0.00778131792321801,0.0436906814575195,0.068834200501442,0.0478391423821449,4.10135889053345,0.0254851803183556,0.0339012965559959,0.100246019661427,0.016419630497694,0.0300521180033684,0.0731091052293777,0.0888834074139595,5.71891117095947,0.0192502923309803,0.0224700234830379,0.0473989918828011,5.64167066841037e-07,0.000559181673452258,0.00178924738429487,0.0135382516309619,2012-01-01 20:04:25
1.01264333724976,34,6.96416330337524,0.02485591173172,0.0350475572049618,0.089701846241951,0.0425068214535713,0.0615676268935204,0.0414741039276123,0.0437299273908138,4.09081506729126,0.0176790859550238,0.0202004257589579,0.0377843789756298,0.000492868013679981,0.0100462296977639,0.0238960292190313,0.00655621476471424,5.67083930969238,0.0288260709494352,0.0337463542819023,0.0712423026561737,0.00549010885879397,0.0158762615174055,0.0181084182113409,0.00694418791681528,2012-01-01 20:04:26
1.00701832771301,42,6.95081329345703,0.0263178013265133,0.0366015695035458,0.100167751312256,0.0642545223236084,0.0971952751278877,0.0400066673755646,0.0644018352031708,4.11202192306519,0.0206806547939777,0.0262519363313913,0.0656110420823097,0.0582588762044907,0.0539094395935535,0.0179482996463776,0.0052576707676053,5.71774387359619,0.0355353839695454,0.0467357784509659,0.127953425049782,0.0141050135716796,0.0505391620099545,0.122038833796978,0.0436048172414303,2012-01-01 20:04:27
1.13247668743134,44,6.95135450363159,0.0310509614646435,0.0398864485323429,0.0898198410868645,0.000294025056064129,0.0427080541849136,0.124034486711025,0.0374351404607296,4.10341453552246,0.0193296037614346,0.0227499399334192,0.0546051152050495,0.000415212300140411,0.00176214764360338,0.0206920430064201,0.0305338799953461,5.72842073440552,0.0303116161376238,0.0380725562572479,0.109210498631001,0.0419763810932636,0.070228286087513,0.0902917236089706,0.0226493868976831,2012-01-01 20:04:28
1.00734329223633,49,6.97012615203857,0.0162558928132057,0.0211102496832609,0.0662448033690453,0.00292697385884821,0.00190644816029817,0.0118886455893517,0.0605083256959915,4.12299585342407,0.0288766827434301,0.0355520881712437,0.0826563760638237,0.00314366724342108,0.202548757195473,0.16322372853756,0.0862502232193947,5.72428131103516,0.0232159364968538,0.0298505611717701,0.0756513699889183,0.0741952061653137,0.0937836244702339,0.0416247956454754,0.0879966169595718,2012-01-01 20:04:29
1.0113650560379,38,6.96659231185913,0.0189341362565756,0.0249046888202429,0.0549687594175339,0.00173778890166432,0.00297416863031685,0.0254806336015463,0.0224783774465322,4.09401845932007,0.0281432010233402,0.0360486209392548,0.0830987244844437,0.0105401109904051,0.0312518924474716,0.0743075609207153,0.0619404576718807,5.74153518676758,0.0277629029005766,0.0393385551869869,0.122841119766235,0.0155315408483148,0.0425496697425842,0.12151275575161,0.0892936736345291,2012-01-01 20:04:30
1.19925165176392,44,6.95068597793579,0.0209100116044283,0.029260752722621,0.0958375483751297,0.00821540411561728,0.00596875883638859,0.0028381401207298,0.0292544085532427,4.11923885345459,0.0267858952283859,0.03258902952075,0.0788992866873741,0.000127076578792185,0.005730458535254,0.0453028976917267,0.0594851113855839,5.74023342132568,0.0277180783450603,0.0383785627782345,0.124143235385418,0.00503577338531613,0.0121217891573906,0.0420120246708393,0.0546148121356964,2012-01-01 20:04:32
1.05608832836151,43,6.94538879394531,0.0293509606271982,0.0422904826700687,0.129767313599586,0.0216020084917545,0.0453707464039326,0.0650520026683807,0.10389232635498,4.08777666091919,0.0268688574433327,0.0328282415866852,0.06705042719841,0.00671138940379024,0.0722908675670624,0.0339513495564461,0.0872276797890663,5.73689031600952,0.040595106780529,0.0576107949018478,0.205939501523972,0.0165825840085745,0.0313602574169636,0.168891981244087,0.210365623235703,2012-01-01 20:04:33
1.00450336933136,49,6.93630361557007,0.0268018115311861,0.0379139296710491,0.110875457525253,0.00488627096638083,0.166545689105988,0.164397671818733,0.0346787348389626,4.08857250213623,0.0175220966339111,0.0236787237226963,0.0776529684662819,0.00403115013614297,0.0152515852823853,0.0298464745283127,0.0400993227958679,5.7472972869873,0.0285091940313578,0.0369282513856888,0.118280380964279,0.0054974015802145,0.0403223112225533,0.110915154218674,0.0582541786134243,2012-01-01 20:04:34
1.00721836090088,32,6.96241474151611,0.0218159276992083,0.0293671786785126,0.068952888250351,0.00825212150812149,0.0215989109128714,0.0448417216539383,0.014302316121757,4.0921311378479,0.0204368829727173,0.0241752192378044,0.0517917424440384,0.0165691394358873,0.0307234786450863,0.0198261849582195,0.00174304400570691,5.74761629104614,0.0450493693351746,0.0572535805404186,0.126567006111145,0.0016543174860999,0.0260008797049522,0.0583841726183891,0.01216293964535,2012-01-01 20:04:35
1.01363837718964,43,6.96272134780884,0.0305602047592402,0.0361403301358223,0.0882596969604492,0.038314089179039,0.078114315867424,0.0371483378112316,0.0548479221761227,4.07158422470093,0.0266991499811411,0.0343806743621826,0.0802777260541916,0.0199118088930845,0.0769751965999603,0.190495789051056,0.0712641105055809,5.70131254196167,0.040626909583807,0.0511550791561604,0.160555317997932,0.0720242410898209,0.12570096552372,0.0695962086319923,0.0419808365404606,2012-01-01 20:04:36
1.13480162620544,37,6.93595170974731,0.0208883434534073,0.0245190896093845,0.0516836047172546,5.46313131053466e-05,0.000463020580355078,0.0113140773028135,0.0187960118055344,4.09546899795532,0.0171920526772738,0.0214309114962816,0.0625504180788994,0.0128524843603373,0.0170397888869047,0.0285719260573387,0.0284334402531385,5.74219131469727,0.0270489286631346,0.0360928997397423,0.103367611765862,0.0367336347699165,0.0737274438142776,0.100698195397854,0.13165208697319,2012-01-01 20:04:37
1.01642668247223,47,6.95333194732666,0.0151205938309431,0.0205264985561371,0.0486158616840839,0.0170886721462011,0.0291265938431025,0.0121659310534596,0.0174316819757223,4.10523080825806,0.0196931753307581,0.0249039679765701,0.0625955313444138,0.0131023358553648,0.0525905638933182,0.0937809348106384,0.0253013279289007,5.70538377761841,0.0475284159183502,0.0572156868875027,0.164626449346542,0.025952348485589,0.051331639289856,0.435938775539398,0.302219599485397,2012-01-01 20:04:38
1.0144317150116,42,6.94240760803223,0.0203804522752762,0.0276043564081192,0.0693469047546387,0.000489237660076469,0.0143102752044797,0.035028949379921,0.0929605215787888,4.09287548065186,0.0188461169600487,0.0273903030902147,0.101568907499313,0.000966910622082651,0.0281503554433584,0.0789733827114105,0.0224411692470312,5.71237325668335,0.0345568805932999,0.0460595414042473,0.122583091259003,0.050651129335165,0.132692992687225,0.0824175104498863,0.155056118965149,2012-01-01 20:04:39
1.0095716714859,41,6.95698070526123,0.0223434884101152,0.0273949094116688,0.0727125927805901,0.00149831618182361,0.0037291010376066,0.0208766665309668,0.0158991701900959,4.0910472869873,0.0183765105903149,0.0223942957818508,0.0605145655572414,0.0180584415793419,0.0146873416379094,0.0221356898546219,0.00831353105604649,5.70723104476929,0.0271156691014767,0.0372947975993156,0.13705387711525,0.01336635556072,0.0253222715109587,0.108686424791813,0.0195848327130079,2012-01-01 20:04:40
1.00023329257965,49,6.95771789550781,0.035910002887249,0.0401719100773335,0.0638431832194328,0.167752876877785,0.303556889295578,0.239771798253059,0.0280881747603416,4.077965259552,0.0264424309134483,0.0396420620381832,0.12588557600975,0.0706919580698013,0.113080121576786,0.0864632278680801,0.0443114787340164,5.75270080566406,0.0304533448070288,0.0380490198731422,0.0844575166702271,0.00773642444983125,0.0497529320418835,0.0826133489608765,0.270072788000107,2012-01-01 20:04:41
1.02966165542603,16,6.95536613464355,0.0162422358989716,0.0197659004479647,0.046581506729126,9.20644160942174e-05,0.000206065713427961,0.00028855909476988,0.000114382353785913,4.07711505889893,0.00612914562225342,0.00883957929909229,0.0220649242401123,2.67457071458921e-05,5.58211941097397e-05,6.49744833935983e-05,3.25373111991212e-05,5.708083152771,0.0288072228431702,0.0311022382229567,0.0496463179588318,0.0006949178641662,0.00140588451176882,0.00276862806640565,0.000973783025983721,2012-01-01 20:04:42
