"diffSecs","latitude","longitude","altitude","time"
1.05099987983704,42.88899725,-71.5496619,38.9000015258789,2012-01-25 18:28:01
0.884999990463257,42.88899724,-71.5496619,38.9000015258789,2012-01-25 18:28:01
1.04200005531311,42.88899725,-71.5496619,38.9000015258789,2012-01-25 18:28:02
1.25200009346008,42.88899727,-71.54966197,38.9000015258789,2012-01-25 18:28:04
0.507999897003174,42.88899727,-71.54966197,38.9000015258789,2012-01-25 18:28:04
1.50200009346008,42.88899725,-71.54966195,38.9000015258789,2012-01-25 18:28:06
0.603999853134155,42.88899725,-71.54966195,38.9000015258789,2012-01-25 18:28:06
1.19900012016296,42.88899725,-71.54966195,38.9000015258789,2012-01-25 18:28:08
0.928999900817871,42.88899725,-71.54966195,38.9000015258789,2012-01-25 18:28:08
1.23300004005432,42.88899724,-71.54966194,38.9000015258789,2012-01-25 18:28:10
1.32999992370605,42.88899723,-71.54966194,38.9000015258789,2012-01-25 18:28:11
0.296000003814697,42.88899722,-71.54966193,38.9000015258789,2012-01-25 18:28:11
1.10000014305115,42.88899721,-71.54966192,38.9000015258789,2012-01-25 18:28:12
1.24199986457825,42.88899716,-71.54966199,38.9000015258789,2012-01-25 18:28:14
0.864000082015991,42.88899311,-71.54965718,38.9000015258789,2012-01-25 18:28:15
0.800999879837036,42.88889856,-71.5496803,41.2999992370605,2012-01-25 18:28:15
1.10800004005432,42.88888656,-71.54962943,41.9000015258789,2012-01-25 18:28:16
0.921999931335449,42.88886809,-71.5496096,39.4000015258789,2012-01-25 18:28:17
0.982000112533569,42.88885733,-71.54960002,41.7999992370605,2012-01-25 18:28:18
1.53699994087219,42.88884751,-71.54959767,42.7999992370605,2012-01-25 18:28:20
0.345999956130981,42.88884153,-71.54958856,43.7000007629395,2012-01-25 18:28:20
1.15400004386902,42.88886326,-71.54960718,43,2012-01-25 18:28:21
1.05800008773804,42.88886326,-71.54960718,43,2012-01-25 18:28:22
1.12899994850159,42.88887117,-71.5496019,43,2012-01-25 18:28:24
1.14800000190735,42.88887722,-71.54960444,42.0999984741211,2012-01-25 18:28:25
0.50600004196167,42.88887725,-71.54960658,41.9000015258789,2012-01-25 18:28:25
1.15899991989136,42.88887725,-71.54960658,41.9000015258789,2012-01-25 18:28:26
1.04200005531311,42.88887566,-71.54960866,41.7999992370605,2012-01-25 18:28:27
0.984999895095825,42.88887647,-71.54961011,41.7000007629395,2012-01-25 18:28:28
1.53800010681152,42.88888185,-71.54961192,41.0999984741211,2012-01-25 18:28:30
0.694000005722046,42.88888185,-71.54961192,41.0999984741211,2012-01-25 18:28:31
0.974999904632568,42.88888305,-71.54961315,41.2999992370605,2012-01-25 18:28:32
0.891000032424927,42.88888151,-71.54961262,41.5,2012-01-25 18:28:33
1.04999995231628,42.88888044,-71.54961207,41.5999984741211,2012-01-25 18:28:34
1.5789999961853,42.88888033,-71.54961233,41.7000007629395,2012-01-25 18:28:35
0.374000072479248,42.88888059,-71.54961242,41.7000007629395,2012-01-25 18:28:36
0.712000131607056,42.88888059,-71.54961242,41.7000007629395,2012-01-25 18:28:36
1.42399978637695,42.88888069,-71.54961248,41.7000007629395,2012-01-25 18:28:38
0.880000114440918,42.88888073,-71.5496125,41.7000007629395,2012-01-25 18:28:39
1.14199995994568,42.88888074,-71.5496125,41.7000007629395,2012-01-25 18:28:40
0.966000080108643,42.88888074,-71.54961249,41.7000007629395,2012-01-25 18:28:41
0.592999935150146,42.88888074,-71.54961249,41.7000007629395,2012-01-25 18:28:41
1.29900002479553,42.88888074,-71.54961249,41.7000007629395,2012-01-25 18:28:43
1.44000005722046,42.88888074,-71.54961249,41.7000007629395,2012-01-25 18:28:44
2.40899991989136,42.88888074,-71.5496125,41.7000007629395,2012-01-25 18:28:46
0.184999942779541,42.88888074,-71.5496125,41.7000007629395,2012-01-25 18:28:47
0.471000194549561,42.88888075,-71.5496125,41.7000007629395,2012-01-25 18:28:47
0.442999839782715,42.88888074,-71.54961249,41.7000007629395,2012-01-25 18:28:47
1.10800004005432,42.88888075,-71.5496125,41.7000007629395,2012-01-25 18:28:49
1.07999992370605,42.88888075,-71.54961249,41.7000007629395,2012-01-25 18:28:50
0.805000066757202,42.88888074,-71.54961249,41.7000007629395,2012-01-25 18:28:50
0.895999908447266,42.88888074,-71.54961248,41.7000007629395,2012-01-25 18:28:51
0.758000135421753,42.88888075,-71.54961218,41.7000007629395,2012-01-25 18:28:52
1.33599996566772,42.88888073,-71.54961198,41.7000007629395,2012-01-25 18:28:53
1.72399997711182,42.88888072,-71.54961185,41.7000007629395,2012-01-25 18:28:55
1.12000012397766,42.8888808,-71.54961221,41.7000007629395,2012-01-25 18:28:56
0.905999898910522,42.8888808,-71.54961221,41.7000007629395,2012-01-25 18:28:57
0.848000049591064,42.8888809,-71.54961229,41.7000007629395,2012-01-25 18:28:58
1.04699993133545,42.8888809,-71.54961227,41.7000007629395,2012-01-25 18:28:59
1.30299997329712,42.8888809,-71.54961227,41.7000007629395,2012-01-25 18:29:00
0.77400016784668,42.8888809,-71.54961225,41.7000007629395,2012-01-25 18:29:01
1.03799986839294,42.88888035,-71.54961152,41.7999992370605,2012-01-25 18:29:02
0.870000123977661,42.88888039,-71.54961151,41.7999992370605,2012-01-25 18:29:03
0.938999891281128,42.88888039,-71.54961151,41.7999992370605,2012-01-25 18:29:04
1.02999997138977,42.88888048,-71.54961155,41.7000007629395,2012-01-25 18:29:05
0.939000129699707,42.88888048,-71.54961155,41.7000007629395,2012-01-25 18:29:06
0.964999914169312,42.88888052,-71.54961154,41.7000007629395,2012-01-25 18:29:07
0.967000007629395,42.88888052,-71.54961154,41.7000007629395,2012-01-25 18:29:08
1.06099987030029,42.88889219,-71.5495998,41.7999992370605,2012-01-25 18:29:09
1.07800006866455,42.88894812,-71.54948413,42.2999992370605,2012-01-25 18:29:10
0.898000001907349,42.88894237,-71.54938156,40.7999992370605,2012-01-25 18:29:11
1.04400014877319,42.88900037,-71.549274,42.2999992370605,2012-01-25 18:29:12
0.960999965667725,42.88901721,-71.54925067,43.0999984741211,2012-01-25 18:29:13
0.957000017166138,42.88904017,-71.54921748,43.0999984741211,2012-01-25 18:29:14
1.09699988365173,42.88906169,-71.54919088,42.7000007629395,2012-01-25 18:29:15
1.00600004196167,42.88911006,-71.54910734,42.2000007629395,2012-01-25 18:29:16
1.10999989509583,42.88913372,-71.54908211,42.2000007629395,2012-01-25 18:29:17
0.850000143051147,42.88919563,-71.54909826,42.7999992370605,2012-01-25 18:29:18
0.940999984741211,42.88923348,-71.54917123,43.5,2012-01-25 18:29:19
1.1340000629425,42.88932741,-71.54919858,43.5,2012-01-25 18:29:20
0.953999996185303,42.88936539,-71.54922524,43.5,2012-01-25 18:29:21
0.905999898910522,42.88940961,-71.54934045,44,2012-01-25 18:29:22
0.934000015258789,42.88944842,-71.54938638,44,2012-01-25 18:29:23
1.08800005912781,42.8895396,-71.54955237,43.5,2012-01-25 18:29:24
1.05099987983704,42.8895946,-71.54964859,43.2999992370605,2012-01-25 18:29:25
1.11300015449524,42.88964929,-71.54973718,43.2999992370605,2012-01-25 18:29:26
0.996999979019165,42.88970397,-71.54982582,43.2999992370605,2012-01-25 18:29:27
0.95799994468689,42.88977029,-71.54991994,43.4000015258789,2012-01-25 18:29:28
0.878999948501587,42.88984884,-71.55001815,43.4000015258789,2012-01-25 18:29:29
1.03999996185303,42.88995022,-71.55005931,43.5999984741211,2012-01-25 18:29:30
1.0460000038147,42.89005758,-71.55011875,43.4000015258789,2012-01-25 18:29:31
0.825000047683716,42.89016195,-71.55014817,42.5999984741211,2012-01-25 18:29:32
1.14299988746643,42.89028394,-71.55020006,42.5999984741211,2012-01-25 18:29:33
1.07200002670288,42.89037282,-71.55025958,43.4000015258789,2012-01-25 18:29:34
0.971000194549561,42.89048052,-71.55033016,43.2999992370605,2012-01-25 18:29:35
1.11899995803833,42.89059767,-71.55041307,42.4000015258789,2012-01-25 18:29:36
1.01799988746643,42.89070767,-71.55049906,42,2012-01-25 18:29:37
1.00800013542175,42.8908247,-71.55070694,40.5999984741211,2012-01-25 18:29:38
1.0239999294281,42.89091721,-71.55083036,40.5999984741211,2012-01-25 18:29:39
0.835000038146973,42.89097023,-71.55101738,41.0999984741211,2012-01-25 18:29:40
1.14599990844727,42.89105109,-71.55115864,41.2999992370605,2012-01-25 18:29:41
1.03600001335144,42.8911064,-71.55134693,40.9000015258789,2012-01-25 18:29:42
1.02699995040894,42.89117055,-71.55148781,41,2012-01-25 18:29:43
0.936000108718872,42.89121463,-71.55167472,41,2012-01-25 18:29:44
0.941999912261963,42.89122934,-71.55182857,41.0999984741211,2012-01-25 18:29:45
1.06900000572205,42.89126795,-71.55200281,41.0999984741211,2012-01-25 18:29:46
0.871999979019165,42.89131889,-71.55217581,41,2012-01-25 18:29:47
1.12100005149841,42.89134388,-71.55233168,41.2000007629395,2012-01-25 18:29:48
1.0460000038147,42.89139042,-71.55250184,41.2000007629395,2012-01-25 18:29:49
0.898000001907349,42.89143184,-71.55265049,41.2000007629395,2012-01-25 18:29:50
0.953000068664551,42.8914707,-71.55280109,41.2000007629395,2012-01-25 18:29:51
1.0699999332428,42.89151464,-71.55296628,41.2000007629395,2012-01-25 18:29:52
1.01900005340576,42.8915534,-71.55312496,41.2000007629395,2012-01-25 18:29:53
1.01600003242493,42.89157302,-71.55328123,41.4000015258789,2012-01-25 18:29:54
0.86299991607666,42.8916264,-71.55343922,41.5999984741211,2012-01-25 18:29:55
1.04800009727478,42.89163822,-71.55358285,41.7999992370605,2012-01-25 18:29:56
1.09200000762939,42.8916956,-71.5537371,41.9000015258789,2012-01-25 18:29:57
0.970999956130981,42.89171944,-71.55388747,41.7000007629395,2012-01-25 18:29:58
1.07699990272522,42.89176399,-71.55406273,41.7999992370605,2012-01-25 18:29:59
