"diffSecs","latitude","longitude","altitude","time"
0.320000171661377,42.4378144741058,-71.6764515638351,38.7000007629395,2012-02-22 13:00:00
0.94599986076355,42.4378144741058,-71.6764515638351,38.7000007629395,2012-02-22 13:00:01
1.08700013160706,42.4378144741058,-71.6764515638351,38.7000007629395,2012-02-22 13:00:02
1.55299997329712,42.4378144741058,-71.6764515638351,38.7000007629395,2012-02-22 13:00:03
0.358999967575073,42.4378144741058,-71.6764515638351,38.7000007629395,2012-02-22 13:00:04
1.01600003242493,42.4378144741058,-71.6764515638351,38.7000007629395,2012-02-22 13:00:05
0.986000061035156,42.4378144741058,-71.6764515638351,38.7000007629395,2012-02-22 13:00:06
3.9779999256134,42.4378144741058,-71.6764515638351,38.7000007629395,2012-02-22 13:00:10
1.05800008773804,42.4378144741058,-71.6764515638351,38.7000007629395,2012-02-22 13:00:11
0.942999839782715,42.4378144741058,-71.6764515638351,38.7000007629395,2012-02-22 13:00:12
1.03200006484985,42.4378144741058,-71.6764515638351,38.7000007629395,2012-02-22 13:00:13
1.26200008392334,42.4378144741058,-71.6764515638351,38.7000007629395,2012-02-22 13:00:14
0.70799994468689,42.4378144741058,-71.6764515638351,38.7000007629395,2012-02-22 13:00:15
0.999000072479248,42.4378144741058,-71.6764515638351,38.7000007629395,2012-02-22 13:00:16
1.14800000190735,42.4378144741058,-71.6764515638351,38.7000007629395,2012-02-22 13:00:17
0.853999853134155,42.4378144741058,-71.6764515638351,38.7000007629395,2012-02-22 13:00:18
1.00399994850159,42.4378144741058,-71.6764515638351,38.7000007629395,2012-02-22 13:00:19
1.12800002098083,42.4378144741058,-71.6764515638351,38.7000007629395,2012-02-22 13:00:20
0.873000144958496,42.4378144741058,-71.6764515638351,38.7000007629395,2012-02-22 13:00:21
1.00099992752075,42.4378144741058,-71.6764515638351,38.7000007629395,2012-02-22 13:00:22
1,42.4378144741058,-71.6764515638351,38.7000007629395,2012-02-22 13:00:23
1,42.4378144741058,-71.6764515638351,38.7000007629395,2012-02-22 13:00:24
1.00099992752075,42.4378144741058,-71.6764515638351,38.7000007629395,2012-02-22 13:00:25
0.998000144958496,42.4378144741058,-71.6764515638351,38.7000007629395,2012-02-22 13:00:26
1.00300002098083,42.4378144741058,-71.6764515638351,38.7000007629395,2012-02-22 13:00:27
1.00299978256226,42.4378144741058,-71.6764515638351,38.7000007629395,2012-02-22 13:00:28
0.996000051498413,42.4378144741058,-71.6764515638351,38.7000007629395,2012-02-22 13:00:29
1.00300002098083,42.4378144741058,-71.6764515638351,38.7000007629395,2012-02-22 13:00:30
1.00600004196167,42.4378144741058,-71.6764515638351,38.7000007629395,2012-02-22 13:00:31
0.997999906539917,42.4378144741058,-71.6764515638351,38.7000007629395,2012-02-22 13:00:32
1,42.4378144741058,-71.6764515638351,38.7000007629395,2012-02-22 13:00:33
1.01200008392334,42.4378144741058,-71.6764515638351,38.7000007629395,2012-02-22 13:00:34
0.990999937057495,42.4378144741058,-71.6764515638351,38.7000007629395,2012-02-22 13:00:35
0.998000144958496,42.4378144741058,-71.6764515638351,38.7000007629395,2012-02-22 13:00:36
4.02099990844727,42.4378144741058,-71.6764515638351,38.7000007629395,2012-02-22 13:00:40
0.964999914169312,42.4378144741058,-71.6764515638351,38.7000007629395,2012-02-22 13:00:41
1.00800013542175,42.4378144741058,-71.6764515638351,38.7000007629395,2012-02-22 13:00:42
1.0149998664856,42.4378144741058,-71.6764515638351,38.7000007629395,2012-02-22 13:00:43
0.982000112533569,42.4378144741058,-71.6764515638351,38.7000007629395,2012-02-22 13:00:44
0.996999979019165,42.4378144741058,-71.6764515638351,38.7000007629395,2012-02-22 13:00:45
1.11700010299683,42.4378144741058,-71.6764515638351,38.7000007629395,2012-02-22 13:00:46
0.888000011444092,42.4378144741058,-71.6764515638351,38.7000007629395,2012-02-22 13:00:47
0.996999979019165,42.4378144741058,-71.6764515638351,38.7000007629395,2012-02-22 13:00:48
1.02099990844727,42.4378144741058,-71.6764515638351,38.7000007629395,2012-02-22 13:00:49
0.986000061035156,42.4378144741058,-71.6764515638351,38.7000007629395,2012-02-22 13:00:50
0.996999979019165,42.4378144741058,-71.6764515638351,38.7000007629395,2012-02-22 13:00:51
1.00099992752075,42.4378144741058,-71.6764515638351,38.7000007629395,2012-02-22 13:00:52
1.00600004196167,42.4378144741058,-71.6764515638351,38.7000007629395,2012-02-22 13:00:53
0.994999885559082,42.4378144741058,-71.6764515638351,38.7000007629395,2012-02-22 13:00:54
1.00600004196167,42.4378144741058,-71.6764515638351,38.7000007629395,2012-02-22 13:00:55
0.995000123977661,42.4378144741058,-71.6764515638351,38.7000007629395,2012-02-22 13:00:56
1.00600004196167,42.4378144741058,-71.6764515638351,38.7000007629395,2012-02-22 13:00:57
1.00399994850159,42.4378144741058,-71.6764515638351,38.7000007629395,2012-02-22 13:00:58
1.06500005722046,42.4378144741058,-71.6764515638351,38.7000007629395,2012-02-22 13:00:59
0.926999807357788,42.4378144741058,-71.6764515638351,38.7000007629395,2012-02-22 13:01:00
1.01300001144409,42.4378144741058,-71.6764515638351,38.7000007629395,2012-02-22 13:01:01
1.00200009346008,42.4378144741058,-71.6764515638351,38.7000007629395,2012-02-22 13:01:02
0.989000082015991,42.4378144741058,-71.6764515638351,38.7000007629395,2012-02-22 13:01:03
1.17699980735779,42.4378144741058,-71.6764515638351,38.7000007629395,2012-02-22 13:01:04
0.824000120162964,42.4378144741058,-71.6764515638351,38.7000007629395,2012-02-22 13:01:05
0.782999992370605,42.4378144741058,-71.6764515638351,38.7000007629395,2012-02-22 13:01:06
3.98300004005432,42.4378144741058,-71.6764515638351,38.7000007629395,2012-02-22 13:01:10
1.00699996948242,42.4378144741058,-71.6764515638351,38.7000007629395,2012-02-22 13:01:11
1.00200009346008,42.4378144741058,-71.6764515638351,38.7000007629395,2012-02-22 13:01:12
0.992999792098999,42.4378144741058,-71.6764515638351,38.7000007629395,2012-02-22 13:01:13
1.01300001144409,42.4378144741058,-71.6764515638351,38.7000007629395,2012-02-22 13:01:14
1.00300002098083,42.4378144741058,-71.6764515638351,38.7000007629395,2012-02-22 13:01:15
0.992000102996826,42.4378144741058,-71.6764515638351,38.7000007629395,2012-02-22 13:01:16
0.997999906539917,42.4378144741058,-71.6764515638351,38.7000007629395,2012-02-22 13:01:17
0.998000144958496,42.4378144741058,-71.6764515638351,38.7000007629395,2012-02-22 13:01:18
1.0019998550415,42.4378144741058,-71.6764515638351,38.7000007629395,2012-02-22 13:01:19
1.0090000629425,42.4378144741058,-71.6764515638351,38.7000007629395,2012-02-22 13:01:20
1.05999994277954,42.4378144741058,-71.6764515638351,38.7000007629395,2012-02-22 13:01:21
0.934999942779541,42.4378144741058,-71.6764515638351,38.7000007629395,2012-02-22 13:01:22
1.00400018692017,42.4378144741058,-71.6764515638351,38.7000007629395,2012-02-22 13:01:23
0.995999813079834,42.4378144741058,-71.6764515638351,38.7000007629395,2012-02-22 13:01:24
1.00400018692017,42.4378144741058,-71.6764515638351,38.7000007629395,2012-02-22 13:01:25
1.00300002098083,42.4378144741058,-71.6764515638351,38.7000007629395,2012-02-22 13:01:26
1.00499987602234,42.4378144741058,-71.6764515638351,38.7000007629395,2012-02-22 13:01:27
0.992000102996826,42.4378144741058,-71.6764515638351,38.7000007629395,2012-02-22 13:01:28
1.01199984550476,42.4378144741058,-71.6764515638351,38.7000007629395,2012-02-22 13:01:29
1.24500012397766,42.4378144741058,-71.6764515638351,38.7000007629395,2012-02-22 13:01:30
0.744999885559082,42.4378144741058,-71.6764515638351,38.7000007629395,2012-02-22 13:01:31
1,42.4378144741058,-71.6764515638351,38.7000007629395,2012-02-22 13:01:32
1.19300007820129,42.4378144741058,-71.6764515638351,38.7000007629395,2012-02-22 13:01:33
0.815000057220459,42.4378144741058,-71.6764515638351,38.7000007629395,2012-02-22 13:01:34
0.994999885559082,42.4378144741058,-71.6764515638351,38.7000007629395,2012-02-22 13:01:35
1.00200009346008,42.4378144741058,-71.6764515638351,38.7000007629395,2012-02-22 13:01:36
3.99699997901917,42.4378144741058,-71.6764515638351,38.7000007629395,2012-02-22 13:01:40
1,42.4378144741058,-71.6764515638351,38.7000007629395,2012-02-22 13:01:41
0.999000072479248,42.4378144741058,-71.6764515638351,38.7000007629395,2012-02-22 13:01:42
1.01199984550476,42.4378144741058,-71.6764515638351,38.7000007629395,2012-02-22 13:01:43
0.995000123977661,42.4378144741058,-71.6764515638351,38.7000007629395,2012-02-22 13:01:44
0.994999885559082,42.4378144741058,-71.6764515638351,38.7000007629395,2012-02-22 13:01:45
1.00099992752075,42.4378144741058,-71.6764515638351,38.7000007629395,2012-02-22 13:01:46
1.00500011444092,42.4378144741058,-71.6764515638351,38.7000007629395,2012-02-22 13:01:47
1.12199997901917,42.4378144741058,-71.6764515638351,38.7000007629395,2012-02-22 13:01:48
0.875999927520752,42.4378144741058,-71.6764515638351,38.7000007629395,2012-02-22 13:01:49
1.00100016593933,42.4378144741058,-71.6764515638351,38.7000007629395,2012-02-22 13:01:50
1.03199982643127,42.4378144741058,-71.6764515638351,38.7000007629395,2012-02-22 13:01:51
0.976999998092651,42.4378144741058,-71.6764515638351,38.7000007629395,2012-02-22 13:01:52
0.994000196456909,42.4378144741058,-71.6764515638351,38.7000007629395,2012-02-22 13:01:53
1.00300002098083,42.4378144741058,-71.6764515638351,38.7000007629395,2012-02-22 13:01:54
1.00499987602234,42.4378144741058,-71.6764515638351,38.7000007629395,2012-02-22 13:01:55
1.04900002479553,42.4378144741058,-71.6764515638351,38.7000007629395,2012-02-22 13:01:56
0.946000099182129,42.4378144741058,-71.6764515638351,38.7000007629395,2012-02-22 13:01:57
1.00499987602234,42.4378144741058,-71.6764515638351,38.7000007629395,2012-02-22 13:01:58
1.06599998474121,42.4378144741058,-71.6764515638351,38.7000007629395,2012-02-22 13:01:59
0.944999933242798,42.4378144741058,-71.6764515638351,38.7000007629395,2012-02-22 13:02:00
0.986999988555908,42.4378144741058,-71.6764515638351,38.7000007629395,2012-02-22 13:02:01
0.583000183105469,42.3746860027313,-71.7555499076843,195.100006103516,2012-02-22 13:02:01
1.31299996376038,42.374632358551,-71.756392121315,193.600006103516,2012-02-22 13:02:02
0.70199990272522,42.3745626211166,-71.756939291954,193,2012-02-22 13:02:03
0.982000112533569,42.3744928836823,-71.7573952674866,192.399993896484,2012-02-22 13:02:04
0.993000030517578,42.3742139339447,-71.7575615644455,191.100006103516,2012-02-22 13:02:05
1.24199986457825,42.3741549253464,-71.7580550909042,190.600006103516,2012-02-22 13:02:06
2.17799997329712,42.3741549253464,-71.7580550909042,190.600006103516,2012-02-22 13:02:09
1.00999999046326,42.3741549253464,-71.7580550909042,190.600006103516,2012-02-22 13:02:10
1.06800007820129,42.3741549253464,-71.7580550909042,190.600006103516,2012-02-22 13:02:11
0.921999931335449,42.3741549253464,-71.7580550909042,190.600006103516,2012-02-22 13:02:12
1.00699996948242,42.3741549253464,-71.7580550909042,190.600006103516,2012-02-22 13:02:13
1.36700010299683,42.3741549253464,-71.7580550909042,190.600006103516,2012-02-22 13:02:14
0.918999910354614,42.3741549253464,-71.7580550909042,190.600006103516,2012-02-22 13:02:15
1.007000207901,42.3741549253464,-71.7580550909042,190.600006103516,2012-02-22 13:02:16
1.0019998550415,42.3741549253464,-71.7580550909042,190.600006103516,2012-02-22 13:02:17
0.996000051498413,42.3741549253464,-71.7580550909042,190.600006103516,2012-02-22 13:02:18
0.999000072479248,42.3741549253464,-71.7580550909042,190.600006103516,2012-02-22 13:02:19
1.15199995040894,42.3741549253464,-71.7580550909042,190.600006103516,2012-02-22 13:02:20
0.848999977111816,42.3741549253464,-71.7580550909042,190.600006103516,2012-02-22 13:02:21
1.00200009346008,42.3741549253464,-71.7580550909042,190.600006103516,2012-02-22 13:02:22
1.02799987792969,42.3741549253464,-71.7580550909042,190.600006103516,2012-02-22 13:02:23
0.782000064849854,42.3954731225967,-71.7561078071594,109.599998474121,2012-02-22 13:02:24
0.761999845504761,42.3958379030228,-71.7564296722412,110.099998474121,2012-02-22 13:02:24
1.34000015258789,42.3958915472031,-71.7567193508148,110.099998474121,2012-02-22 13:02:26
0.664000034332275,42.3958432674408,-71.7569929361343,109.900001525879,2012-02-22 13:02:26
5.33499979972839,42.4014919996262,-71.7540907859802,114.900001525879,2012-02-22 13:02:32
0.662000179290771,42.4015563726425,-71.7541980743408,114.900001525879,2012-02-22 13:02:32
1.14299988746643,42.4016100168228,-71.7543053627014,115,2012-02-22 13:02:34
0.861000061035156,42.4016690254211,-71.754412651062,115,2012-02-22 13:02:34
1.26799988746643,42.4017280340195,-71.7545199394226,115,2012-02-22 13:02:36
0.726000070571899,42.4017816781998,-71.7546218633652,115,2012-02-22 13:02:36
2.42400002479553,42.4017816781998,-71.7546218633652,115,2012-02-22 13:02:39
1.01699995994568,42.4017816781998,-71.7546218633652,115,2012-02-22 13:02:40
0.983000040054321,42.4017816781998,-71.7546218633652,115,2012-02-22 13:02:41
1.00200009346008,42.4017816781998,-71.7546218633652,115,2012-02-22 13:02:42
1.0019998550415,42.4017816781998,-71.7546218633652,115,2012-02-22 13:02:43
1.00300002098083,42.4017816781998,-71.7546218633652,115,2012-02-22 13:02:44
0.996999979019165,42.4017816781998,-71.7546218633652,115,2012-02-22 13:02:45
1.00300002098083,42.4017816781998,-71.7546218633652,115,2012-02-22 13:02:46
0.998000144958496,42.4017816781998,-71.7546218633652,115,2012-02-22 13:02:47
1.01099991798401,42.4017816781998,-71.7546218633652,115,2012-02-22 13:02:48
0.990999937057495,42.4017816781998,-71.7546218633652,115,2012-02-22 13:02:49
1.00200009346008,42.4017816781998,-71.7546218633652,115,2012-02-22 13:02:50
1.00999999046326,42.4017816781998,-71.7546218633652,115,2012-02-22 13:02:51
1.03900003433228,42.4017816781998,-71.7546218633652,115,2012-02-22 13:02:52
0.950999975204468,42.4017816781998,-71.7546218633652,115,2012-02-22 13:02:53
1.06399989128113,42.4017816781998,-71.7546218633652,115,2012-02-22 13:02:54
0.940000057220459,42.4017816781998,-71.7546218633652,115,2012-02-22 13:02:55
1.03999996185303,42.4017816781998,-71.7546218633652,115,2012-02-22 13:02:56
0.966000080108643,42.4017816781998,-71.7546218633652,115,2012-02-22 13:02:57
0.994999885559082,42.4017816781998,-71.7546218633652,115,2012-02-22 13:02:58
1.00200009346008,42.4017816781998,-71.7546218633652,115,2012-02-22 13:02:59
0.999000072479248,42.4017816781998,-71.7546218633652,115,2012-02-22 13:03:00
1.00799989700317,42.4017816781998,-71.7546218633652,115,2012-02-22 13:03:01
0.99399995803833,42.4017816781998,-71.7546218633652,115,2012-02-22 13:03:02
1.00500011444092,42.4017816781998,-71.7546218633652,115,2012-02-22 13:03:03
1.30999994277954,42.4017816781998,-71.7546218633652,115,2012-02-22 13:03:04
0.688999891281128,42.4017816781998,-71.7546218633652,115,2012-02-22 13:03:05
1,42.4017816781998,-71.7546218633652,115,2012-02-22 13:03:06
2.99600005149841,42.4017816781998,-71.7546218633652,115,2012-02-22 13:03:09
1.00099992752075,42.4017816781998,-71.7546218633652,115,2012-02-22 13:03:10
1.00100016593933,42.4017816781998,-71.7546218633652,115,2012-02-22 13:03:11
1.00399994850159,42.4017816781998,-71.7546218633652,115,2012-02-22 13:03:12
0.999000072479248,42.4017816781998,-71.7546218633652,115,2012-02-22 13:03:13
1,42.4017816781998,-71.7546218633652,115,2012-02-22 13:03:14
1.27799987792969,42.4017816781998,-71.7546218633652,115,2012-02-22 13:03:15
0.723000049591064,42.4017816781998,-71.7546218633652,115,2012-02-22 13:03:16
1.00399994850159,42.4017816781998,-71.7546218633652,115,2012-02-22 13:03:17
1.26100015640259,42.4017816781998,-71.7546218633652,115,2012-02-22 13:03:18
0.633999824523926,42.408487200737,-71.7508935928345,73.3000030517578,2012-02-22 13:03:19
0.666000127792358,42.4112820625305,-71.7467254400253,37.2000007629395,2012-02-22 13:03:19
1.12399983406067,42.4137765169144,-71.7431259155273,1.70000004768372,2012-02-22 13:03:21
1.14400005340576,42.4159920215607,-71.7400199174881,-30.7999992370605,2012-02-22 13:03:22
0.726999998092651,42.4291294813156,-71.7190665006638,-254,2012-02-22 13:03:22
1.07299995422363,42.4291884899139,-71.7189806699753,-254.100006103516,2012-02-22 13:03:24
1.25100016593933,42.4330025911331,-71.7054730653763,-393.200012207031,2012-02-22 13:03:25
0.668999910354614,42.4359852075577,-71.6951787471771,-501.200012207031,2012-02-22 13:03:25
1.27900004386902,42.4375784397125,-71.6900879144669,-557.5,2012-02-22 13:03:27
0.956000089645386,42.4386352300644,-71.6867458820343,-593.599975585938,2012-02-22 13:03:28
0.83299994468689,42.4396169185638,-71.6843158006668,-618.299987792969,2012-02-22 13:03:29
1.19299983978271,42.4399441480637,-71.684353351593,-618.900024414062,2012-02-22 13:03:30
0.739000082015991,42.4403411149979,-71.6842782497406,-624.400024414062,2012-02-22 13:03:30
1.28800010681152,42.4406307935715,-71.6840851306915,-624,2012-02-22 13:03:32
0.712999820709229,42.4409204721451,-71.6838973760605,-623.200012207031,2012-02-22 13:03:32
1.35700011253357,42.4411350488663,-71.683806180954,-622.799987792969,2012-02-22 13:03:34
0.647000074386597,42.4415910243988,-71.6840422153473,-621.700012207031,2012-02-22 13:03:34
1.0019998550415,42.441633939743,-71.6840153932571,-621.700012207031,2012-02-22 13:03:35
1.32500004768372,42.4416714906693,-71.683993935585,-621.700012207031,2012-02-22 13:03:37
0.668999910354614,42.4417304992676,-71.6839617490768,-621.700012207031,2012-02-22 13:03:37
1.15500020980835,42.4417680501938,-71.6839402914047,-621.700012207031,2012-02-22 13:03:39
0.84499979019165,42.4429857730865,-71.684176325798,-620.799987792969,2012-02-22 13:03:39
1.35400009155273,42.4430072307587,-71.6841387748718,-620.799987792969,2012-02-22 13:03:41
0.641999959945679,42.4430179595947,-71.6841065883636,-620.799987792969,2012-02-22 13:03:41
1.29999995231628,42.4430501461029,-71.6840636730194,-620.700012207031,2012-02-22 13:03:43
0.703999996185303,42.4437314271927,-71.6841816902161,-619.599975585938,2012-02-22 13:03:43
1.34600019454956,42.4437475204468,-71.6841334104538,-619.5,2012-02-22 13:03:45
0.653999805450439,42.4437314271927,-71.6841226816177,-619.599975585938,2012-02-22 13:03:45
1.00600004196167,42.4439889192581,-71.6841119527817,-619.200012207031,2012-02-22 13:03:46
1.33299994468689,42.4439996480942,-71.6840636730194,-619.200012207031,2012-02-22 13:03:48
0.66100001335144,42.4440050125122,-71.6840207576752,-619.200012207031,2012-02-22 13:03:48
1.07599997520447,42.4439781904221,-71.6840046644211,-619.200012207031,2012-02-22 13:03:50
0.732000112533569,42.4439835548401,-71.6839617490768,-619.200012207031,2012-02-22 13:03:50
1.15000009536743,42.4439889192581,-71.6839241981506,-619.200012207031,2012-02-22 13:03:51
1.00999999046326,42.4439567327499,-71.6839188337326,-619.200012207031,2012-02-22 13:03:52
1.34999990463257,42.4439996480942,-71.6838222742081,-619.299987792969,2012-02-22 13:03:54
0.490000009536743,42.4439996480942,-71.6837793588638,-619.299987792969,2012-02-22 13:03:54
1.30599999427795,42.4439942836761,-71.6837418079376,-619.299987792969,2012-02-22 13:03:56
13.183000087738,42.4439942836761,-71.6837418079376,-619.299987792969,2012-02-22 13:04:09
0.970000028610229,42.4439942836761,-71.6837418079376,-619.299987792969,2012-02-22 13:04:10
1.00499987602234,42.4439942836761,-71.6837418079376,-619.299987792969,2012-02-22 13:04:11
1.29500007629395,42.4439942836761,-71.6837418079376,-619.299987792969,2012-02-22 13:04:12
0.74399995803833,42.4439942836761,-71.6837418079376,-619.299987792969,2012-02-22 13:04:13
0.961999893188477,42.4439942836761,-71.6837418079376,-619.299987792969,2012-02-22 13:04:14
0.848999977111816,42.4439191818237,-71.6828995943069,-619.299987792969,2012-02-22 13:04:15
0.689000129699707,42.4439191818237,-71.6828620433807,-619.299987792969,2012-02-22 13:04:15
1.09100008010864,42.4438655376434,-71.6828459501266,-619.299987792969,2012-02-22 13:04:16
1.14599990844727,42.4438548088074,-71.6828137636185,-619.299987792969,2012-02-22 13:04:17
21.2620000839233,42.4438548088074,-71.6828137636185,-619.299987792969,2012-02-22 13:04:39
0.97599983215332,42.4438548088074,-71.6828137636185,-619.299987792969,2012-02-22 13:04:40
1,42.4438548088074,-71.6828137636185,-619.299987792969,2012-02-22 13:04:41
1.00200009346008,42.4438548088074,-71.6828137636185,-619.299987792969,2012-02-22 13:04:42
1,42.4438548088074,-71.6828137636185,-619.299987792969,2012-02-22 13:04:43
1.00200009346008,42.4438548088074,-71.6828137636185,-619.299987792969,2012-02-22 13:04:44
1,42.4438548088074,-71.6828137636185,-619.299987792969,2012-02-22 13:04:45
1.19899988174438,42.4438548088074,-71.6828137636185,-619.299987792969,2012-02-22 13:04:46
0.803999900817871,42.4438548088074,-71.6828137636185,-619.299987792969,2012-02-22 13:04:47
0.999000072479248,42.4438548088074,-71.6828137636185,-619.299987792969,2012-02-22 13:04:48
1.07500004768372,42.4438548088074,-71.6828137636185,-619.299987792969,2012-02-22 13:04:49
0.927000045776367,42.4438548088074,-71.6828137636185,-619.299987792969,2012-02-22 13:04:50
1.0019998550415,42.4438548088074,-71.6828137636185,-619.299987792969,2012-02-22 13:04:51
0.999000072479248,42.4438548088074,-71.6828137636185,-619.299987792969,2012-02-22 13:04:52
1.00200009346008,42.4438548088074,-71.6828137636185,-619.299987792969,2012-02-22 13:04:53
1.0019998550415,42.4438548088074,-71.6828137636185,-619.299987792969,2012-02-22 13:04:54
0.999000072479248,42.4438548088074,-71.6828137636185,-619.299987792969,2012-02-22 13:04:55
1.00099992752075,42.4438548088074,-71.6828137636185,-619.299987792969,2012-02-22 13:04:56
1.00400018692017,42.4438548088074,-71.6828137636185,-619.299987792969,2012-02-22 13:04:57
0.994999885559082,42.4438548088074,-71.6828137636185,-619.299987792969,2012-02-22 13:04:58
1.00300002098083,42.4438548088074,-71.6828137636185,-619.299987792969,2012-02-22 13:04:59
1.00600004196167,42.4438548088074,-71.6828137636185,-619.299987792969,2012-02-22 13:05:00
0.994999885559082,42.4438548088074,-71.6828137636185,-619.299987792969,2012-02-22 13:05:01
1.00200009346008,42.4438548088074,-71.6828137636185,-619.299987792969,2012-02-22 13:05:02
1.2189998626709,42.4438548088074,-71.6828137636185,-619.299987792969,2012-02-22 13:05:03
0.78000020980835,42.4438548088074,-71.6828137636185,-619.299987792969,2012-02-22 13:05:04
1.00099992752075,42.4438548088074,-71.6828137636185,-619.299987792969,2012-02-22 13:05:05
1.0019998550415,42.4438548088074,-71.6828137636185,-619.299987792969,2012-02-22 13:05:06
0.624000072479248,42.4437099695206,-71.6808396577835,-619.400024414062,2012-02-22 13:05:06
0.883000135421753,42.4436670541763,-71.680743098259,-619.400024414062,2012-02-22 13:05:07
1.23799991607666,42.443608045578,-71.6806250810623,-619.400024414062,2012-02-22 13:05:08
0.866999864578247,42.4433934688568,-71.6802924871445,-619.400024414062,2012-02-22 13:05:09
1.02900004386902,42.4433666467667,-71.6802495718002,-619.400024414062,2012-02-22 13:05:10
1.04500007629395,42.4432110786438,-71.6796487569809,-619.299987792969,2012-02-22 13:05:11
0.937000036239624,42.4432218074799,-71.6795736551285,-619.299987792969,2012-02-22 13:05:12
0.878999948501587,42.443253993988,-71.6794663667679,-619.299987792969,2012-02-22 13:05:13
1.25300002098083,42.443253993988,-71.6792196035385,-619.099975585938,2012-02-22 13:05:14
0.839999914169312,42.4432325363159,-71.6790801286697,-619,2012-02-22 13:05:15
1.10400009155273,42.4432593584061,-71.678951382637,-619,2012-02-22 13:05:16
0.812000036239624,42.4432700872421,-71.6791659593582,-619,2012-02-22 13:05:17
1.34899997711182,42.4430769681931,-71.6807967424393,-617.400024414062,2012-02-22 13:05:19
0.648000001907349,42.4430930614471,-71.6807270050049,-617.400024414062,2012-02-22 13:05:19
1.19300007820129,42.4430125951767,-71.6815799474716,-616.400024414062,2012-02-22 13:05:20
1.10799980163574,42.4431842565536,-71.6813385486603,-616.099975585938,2012-02-22 13:05:22
0.700999975204468,42.4431735277176,-71.6813170909882,-616.099975585938,2012-02-22 13:05:22
1.14400005340576,42.4431627988815,-71.6813009977341,-616.099975585938,2012-02-22 13:05:23
15.3840000629425,42.4431627988815,-71.6813009977341,-616.099975585938,2012-02-22 13:05:39
0.973000049591064,42.4431627988815,-71.6813009977341,-616.099975585938,2012-02-22 13:05:40
1.00699996948242,42.4431627988815,-71.6813009977341,-616.099975585938,2012-02-22 13:05:41
1.24399995803833,42.4431627988815,-71.6813009977341,-616.099975585938,2012-02-22 13:05:42
0.749000072479248,42.4431627988815,-71.6813009977341,-616.099975585938,2012-02-22 13:05:43
1.00300002098083,42.4431627988815,-71.6813009977341,-616.099975585938,2012-02-22 13:05:44
1.19899988174438,42.4431627988815,-71.6813009977341,-616.099975585938,2012-02-22 13:05:45
0.858999967575073,42.4431627988815,-71.6813009977341,-616.099975585938,2012-02-22 13:05:46
0.42900013923645,42.4427711963654,-71.6846483945847,-612.799987792969,2012-02-22 13:05:46
1.27699995040894,42.4428194761276,-71.6847288608551,-612.799987792969,2012-02-22 13:05:48
0.726999998092651,42.4428355693817,-71.6847825050354,-612.700012207031,2012-02-22 13:05:48
1.00300002098083,42.4428462982178,-71.6848200559616,-612.700012207031,2012-02-22 13:05:49
1.19899988174438,42.4428570270538,-71.6848576068878,-612.700012207031,2012-02-22 13:05:50
1.00400018692017,42.4429428577423,-71.6849648952484,-612.599975585938,2012-02-22 13:05:51
1.04199981689453,42.4429374933243,-71.6849970817566,-612.599975585938,2012-02-22 13:05:52
16.4820001125336,42.4429374933243,-71.6849970817566,-612.599975585938,2012-02-22 13:06:09
0.927999973297119,42.4429374933243,-71.6849970817566,-612.599975585938,2012-02-22 13:06:10
1.00300002098083,42.4429374933243,-71.6849970817566,-612.599975585938,2012-02-22 13:06:11
1.00699996948242,42.4429374933243,-71.6849970817566,-612.599975585938,2012-02-22 13:06:12
0.994999885559082,42.4429374933243,-71.6849970817566,-612.599975585938,2012-02-22 13:06:13
0.998000144958496,42.4429374933243,-71.6849970817566,-612.599975585938,2012-02-22 13:06:14
1.00499987602234,42.4429374933243,-71.6849970817566,-612.599975585938,2012-02-22 13:06:15
0.996000051498413,42.4429374933243,-71.6849970817566,-612.599975585938,2012-02-22 13:06:16
1.00500011444092,42.4429374933243,-71.6849970817566,-612.599975585938,2012-02-22 13:06:17
0.998999834060669,42.4429374933243,-71.6849970817566,-612.599975585938,2012-02-22 13:06:18
1.03500008583069,42.4429374933243,-71.6849970817566,-612.599975585938,2012-02-22 13:06:19
0.967999935150146,42.4429374933243,-71.6849970817566,-612.599975585938,2012-02-22 13:06:20
0.996000051498413,42.4429374933243,-71.6849970817566,-612.599975585938,2012-02-22 13:06:21
1.00600004196167,42.4429374933243,-71.6849970817566,-612.599975585938,2012-02-22 13:06:22
1.00300002098083,42.4429374933243,-71.6849970817566,-612.599975585938,2012-02-22 13:06:23
0.993000030517578,42.4429374933243,-71.6849970817566,-612.599975585938,2012-02-22 13:06:24
1.0019998550415,42.4429374933243,-71.6849970817566,-612.599975585938,2012-02-22 13:06:25
1.00500011444092,42.4429374933243,-71.6849970817566,-612.599975585938,2012-02-22 13:06:26
0.665999889373779,42.4440532922745,-71.6846376657486,-610.5,2012-02-22 13:06:27
1.09100008010864,42.4437743425369,-71.6844606399536,-610.200012207031,2012-02-22 13:06:28
0.710999965667725,42.4436241388321,-71.6843372583389,-609.900024414062,2012-02-22 13:06:28
1.37800002098083,42.443608045578,-71.684342622757,-609.900024414062,2012-02-22 13:06:30
0.618000030517578,42.4435919523239,-71.684347987175,-609.900024414062,2012-02-22 13:06:30
1.31599998474121,42.4435758590698,-71.684353351593,-609.900024414062,2012-02-22 13:06:32
0.687999963760376,42.4435651302338,-71.684358716011,-609.900024414062,2012-02-22 13:06:32
0.99399995803833,42.4435544013977,-71.6843640804291,-609.900024414062,2012-02-22 13:06:33
1.00999999046326,42.4435490369797,-71.6843640804291,-609.900024414062,2012-02-22 13:06:34
4.52500009536743,42.4435490369797,-71.6843640804291,-609.900024414062,2012-02-22 13:06:39
1.23499989509583,42.4435490369797,-71.6843640804291,-609.900024414062,2012-02-22 13:06:40
0.765000104904175,42.4435490369797,-71.6843640804291,-609.900024414062,2012-02-22 13:06:41
1.00600004196167,42.4435490369797,-71.6843640804291,-609.900024414062,2012-02-22 13:06:42
0.994999885559082,42.4435490369797,-71.6843640804291,-609.900024414062,2012-02-22 13:06:43
1.00500011444092,42.4435490369797,-71.6843640804291,-609.900024414062,2012-02-22 13:06:44
0.692999839782715,42.4435490369797,-71.6843640804291,-609.900024414062,2012-02-22 13:06:45
0.993000030517578,42.4435490369797,-71.6843640804291,-609.900024414062,2012-02-22 13:06:46
1.00200009346008,42.4435490369797,-71.6843640804291,-609.900024414062,2012-02-22 13:06:47
1.00999999046326,42.4435490369797,-71.6843640804291,-609.900024414062,2012-02-22 13:06:48
1.02500009536743,42.4435490369797,-71.6843640804291,-609.900024414062,2012-02-22 13:06:49
0.967000007629395,42.4435490369797,-71.6843640804291,-609.900024414062,2012-02-22 13:06:50
1.20999979972839,42.4435490369797,-71.6843640804291,-609.900024414062,2012-02-22 13:06:51
0.79200005531311,42.4435490369797,-71.6843640804291,-609.900024414062,2012-02-22 13:06:52
1.00200009346008,42.4435490369797,-71.6843640804291,-609.900024414062,2012-02-22 13:06:53
0.998999834060669,42.4435490369797,-71.6843640804291,-609.900024414062,2012-02-22 13:06:54
1.00300002098083,42.4435490369797,-71.6843640804291,-609.900024414062,2012-02-22 13:06:55
1.00200009346008,42.4435490369797,-71.6843640804291,-609.900024414062,2012-02-22 13:06:56
0.996000051498413,42.4435490369797,-71.6843640804291,-609.900024414062,2012-02-22 13:06:57
1.00499987602234,42.4435490369797,-71.6843640804291,-609.900024414062,2012-02-22 13:06:58
1.00300002098083,42.4435490369797,-71.6843640804291,-609.900024414062,2012-02-22 13:06:59
0.996999979019165,42.4435490369797,-71.6843640804291,-609.900024414062,2012-02-22 13:07:00
1.0090000629425,42.4435490369797,-71.6843640804291,-609.900024414062,2012-02-22 13:07:01
0.990000009536743,42.4435490369797,-71.6843640804291,-609.900024414062,2012-02-22 13:07:02
1.00099992752075,42.4435490369797,-71.6843640804291,-609.900024414062,2012-02-22 13:07:03
1.00600004196167,42.4435490369797,-71.6843640804291,-609.900024414062,2012-02-22 13:07:04
0.995000123977661,42.4435490369797,-71.6843640804291,-609.900024414062,2012-02-22 13:07:05
1.06299996376038,42.4435490369797,-71.6843640804291,-609.900024414062,2012-02-22 13:07:06
2.93599987030029,42.4435490369797,-71.6843640804291,-609.900024414062,2012-02-22 13:07:09
1.24699997901917,42.4435490369797,-71.6843640804291,-609.900024414062,2012-02-22 13:07:10
0.749000072479248,42.4435490369797,-71.6843640804291,-609.900024414062,2012-02-22 13:07:11
1.03600001335144,42.4435490369797,-71.6843640804291,-609.900024414062,2012-02-22 13:07:12
0.96399998664856,42.4435490369797,-71.6843640804291,-609.900024414062,2012-02-22 13:07:13
1.00399994850159,42.4435490369797,-71.6843640804291,-609.900024414062,2012-02-22 13:07:14
1.44099998474121,42.4435490369797,-71.6843640804291,-609.900024414062,2012-02-22 13:07:15
0.561000108718872,42.4435490369797,-71.6843640804291,-609.900024414062,2012-02-22 13:07:16
1.00799989700317,42.4435490369797,-71.6843640804291,-609.900024414062,2012-02-22 13:07:17
0.993000030517578,42.4435490369797,-71.6843640804291,-609.900024414062,2012-02-22 13:07:18
1.06100010871887,42.4435490369797,-71.6843640804291,-609.900024414062,2012-02-22 13:07:19
0.938999891281128,42.4435490369797,-71.6843640804291,-609.900024414062,2012-02-22 13:07:20
1.00600004196167,42.4435490369797,-71.6843640804291,-609.900024414062,2012-02-22 13:07:21
1.00200009346008,42.4435490369797,-71.6843640804291,-609.900024414062,2012-02-22 13:07:22
0.99399995803833,42.4435490369797,-71.6843640804291,-609.900024414062,2012-02-22 13:07:23
1.00099992752075,42.4435490369797,-71.6843640804291,-609.900024414062,2012-02-22 13:07:24
1.19900012016296,42.4435490369797,-71.6843640804291,-609.900024414062,2012-02-22 13:07:25
0.800999879837036,42.4435490369797,-71.6843640804291,-609.900024414062,2012-02-22 13:07:26
1.00200009346008,42.4435490369797,-71.6843640804291,-609.900024414062,2012-02-22 13:07:27
1.21000003814697,42.4435490369797,-71.6843640804291,-609.900024414062,2012-02-22 13:07:28
0.790999889373779,42.4435490369797,-71.6843640804291,-609.900024414062,2012-02-22 13:07:29
1.00399994850159,42.4435490369797,-71.6843640804291,-609.900024414062,2012-02-22 13:07:30
1.1159999370575,42.4435490369797,-71.6843640804291,-609.900024414062,2012-02-22 13:07:31
0.884999990463257,42.4435490369797,-71.6843640804291,-609.900024414062,2012-02-22 13:07:32
0.999000072479248,42.4435490369797,-71.6843640804291,-609.900024414062,2012-02-22 13:07:33
1.00200009346008,42.4435490369797,-71.6843640804291,-609.900024414062,2012-02-22 13:07:34
1.00699996948242,42.4435490369797,-71.6843640804291,-609.900024414062,2012-02-22 13:07:35
0.999000072479248,42.4435490369797,-71.6843640804291,-609.900024414062,2012-02-22 13:07:36
2.98599982261658,42.4435490369797,-71.6843640804291,-609.900024414062,2012-02-22 13:07:39
1.02700018882751,42.4435490369797,-71.6843640804291,-609.900024414062,2012-02-22 13:07:40
0.970999956130981,42.4435490369797,-71.6843640804291,-609.900024414062,2012-02-22 13:07:41
1.00499987602234,42.4435490369797,-71.6843640804291,-609.900024414062,2012-02-22 13:07:42
1.02100014686584,42.4435490369797,-71.6843640804291,-609.900024414062,2012-02-22 13:07:43
0.974999904632568,42.4435490369797,-71.6843640804291,-609.900024414062,2012-02-22 13:07:44
1.00500011444092,42.4435490369797,-71.6843640804291,-609.900024414062,2012-02-22 13:07:45
1.1399998664856,42.4435490369797,-71.6843640804291,-609.900024414062,2012-02-22 13:07:46
0.857000112533569,42.4435490369797,-71.6843640804291,-609.900024414062,2012-02-22 13:07:47
1.00799989700317,42.4435490369797,-71.6843640804291,-609.900024414062,2012-02-22 13:07:48
0.993000030517578,42.4435490369797,-71.6843640804291,-609.900024414062,2012-02-22 13:07:49
1.00399994850159,42.4435490369797,-71.6843640804291,-609.900024414062,2012-02-22 13:07:50
1.02100014686584,42.4435490369797,-71.6843640804291,-609.900024414062,2012-02-22 13:07:51
1.43499994277954,42.4435490369797,-71.6843640804291,-609.900024414062,2012-02-22 13:07:52
1.00300002098083,42.4435490369797,-71.6843640804291,-609.900024414062,2012-02-22 13:07:53
1.03499984741211,42.4435490369797,-71.6843640804291,-609.900024414062,2012-02-22 13:07:54
0.927999973297119,42.4435490369797,-71.6843640804291,-609.900024414062,2012-02-22 13:07:55
0.994000196456909,42.4435490369797,-71.6843640804291,-609.900024414062,2012-02-22 13:07:56
0.585999965667725,42.4381631612778,-71.6522097587585,-487.700012207031,2012-02-22 13:07:57
1.20899987220764,42.4381792545319,-71.6533041000366,-484,2012-02-22 13:07:58
0.654999971389771,42.4381363391876,-71.6532772779465,-483.799987792969,2012-02-22 13:07:59
1.2480001449585,42.4405878782272,-71.653550863266,-430.100006103516,2012-02-22 13:08:00
0.739000082015991,42.442347407341,-71.6537439823151,-392.5,2012-02-22 13:08:00
1.26299977302551,42.4439835548401,-71.653915643692,-357.799987792969,2012-02-22 13:08:02
0.737000226974487,42.4452120065689,-71.6540282964706,-332.799987792969,2012-02-22 13:08:02
0.990999937057495,42.4496322870255,-71.6545218229294,-240.699996948242,2012-02-22 13:08:03
1.08999991416931,42.4485754966736,-71.6559648513794,-235.300003051758,2012-02-22 13:08:05
1.2350001335144,42.4477225542068,-71.6571342945099,-231.100006103516,2012-02-22 13:08:06
0.684000015258789,42.4487471580505,-71.65860414505,-184.600006103516,2012-02-22 13:08:06
1.00399994850159,42.4482536315918,-71.6593605279922,-181.399993896484,2012-02-22 13:08:07
1.32500004768372,42.4477922916412,-71.6600739955902,-178.5,2012-02-22 13:08:09
0.671000003814697,42.4473577737808,-71.6616243124008,-158.199996948242,2012-02-22 13:08:09
1.04899978637695,42.4477976560593,-71.6612327098846,-154.199996948242,2012-02-22 13:08:11
1.20800018310547,42.4482268095016,-71.6616082191467,-138.699996948242,2012-02-22 13:08:12
1.08699989318848,42.4483770132065,-71.6616404056549,-138.399993896484,2012-02-22 13:08:13
0.654999971389771,42.4485379457474,-71.6617530584335,-132.699996948242,2012-02-22 13:08:13
1.2480001449585,42.4472451210022,-71.663990020752,-116.599998474121,2012-02-22 13:08:15
0.757999897003174,42.447395324707,-71.6636627912521,-113.099998474121,2012-02-22 13:08:15
1.27099990844727,42.447395324707,-71.6636735200882,-113.099998474121,2012-02-22 13:08:17
0.725000143051147,42.447395324707,-71.6636842489243,-113.099998474121,2012-02-22 13:08:17
21.5820000171661,42.447395324707,-71.6636842489243,-113.099998474121,2012-02-22 13:08:39
1.08500003814697,42.447395324707,-71.6636842489243,-113.099998474121,2012-02-22 13:08:40
0.898000001907349,42.447395324707,-71.6636842489243,-113.099998474121,2012-02-22 13:08:41
0.998999834060669,42.447395324707,-71.6636842489243,-113.099998474121,2012-02-22 13:08:42
1.02400016784668,42.447395324707,-71.6636842489243,-113.099998474121,2012-02-22 13:08:43
0.976999998092651,42.447395324707,-71.6636842489243,-113.099998474121,2012-02-22 13:08:44
0.998999834060669,42.447395324707,-71.6636842489243,-113.099998474121,2012-02-22 13:08:45
1.00500011444092,42.447395324707,-71.6636842489243,-113.099998474121,2012-02-22 13:08:46
1.09200000762939,42.447395324707,-71.6636842489243,-113.099998474121,2012-02-22 13:08:47
0.904999971389771,42.447395324707,-71.6636842489243,-113.099998474121,2012-02-22 13:08:48
1.0019998550415,42.447395324707,-71.6636842489243,-113.099998474121,2012-02-22 13:08:49
0.711000204086304,42.447395324707,-71.6636842489243,-113.099998474121,2012-02-22 13:08:50
1.13699984550476,42.447395324707,-71.6636842489243,-113.099998474121,2012-02-22 13:08:51
0.838000059127808,42.447395324707,-71.6636842489243,-113.099998474121,2012-02-22 13:08:52
1.00799989700317,42.447395324707,-71.6636842489243,-113.099998474121,2012-02-22 13:08:53
1.02700018882751,42.447395324707,-71.6636842489243,-113.099998474121,2012-02-22 13:08:54
1.04099988937378,42.447395324707,-71.6636842489243,-113.099998474121,2012-02-22 13:08:55
0.927000045776367,42.447395324707,-71.6636842489243,-113.099998474121,2012-02-22 13:08:56
1.02500009536743,42.447395324707,-71.6636842489243,-113.099998474121,2012-02-22 13:08:57
1.01099991798401,42.447395324707,-71.6636842489243,-113.099998474121,2012-02-22 13:08:58
0.970000028610229,42.447395324707,-71.6636842489243,-113.099998474121,2012-02-22 13:08:59
0.996999979019165,42.447395324707,-71.6636842489243,-113.099998474121,2012-02-22 13:09:00
1.04099988937378,42.447395324707,-71.6636842489243,-113.099998474121,2012-02-22 13:09:01
1.05000019073486,42.447395324707,-71.6636842489243,-113.099998474121,2012-02-22 13:09:02
0.911999940872192,42.447395324707,-71.6636842489243,-113.099998474121,2012-02-22 13:09:03
1.00300002098083,42.447395324707,-71.6636842489243,-113.099998474121,2012-02-22 13:09:04
1.00499987602234,42.447395324707,-71.6636842489243,-113.099998474121,2012-02-22 13:09:05
1.04900002479553,42.447395324707,-71.6636842489243,-113.099998474121,2012-02-22 13:09:06
2.93300008773804,42.447395324707,-71.6636842489243,-113.099998474121,2012-02-22 13:09:09
0.998999834060669,42.447395324707,-71.6636842489243,-113.099998474121,2012-02-22 13:09:10
1.03400015830994,42.447395324707,-71.6636842489243,-113.099998474121,2012-02-22 13:09:11
1.18599987030029,42.447395324707,-71.6636842489243,-113.099998474121,2012-02-22 13:09:12
0.782000064849854,42.447395324707,-71.6636842489243,-113.099998474121,2012-02-22 13:09:13
1.00699996948242,42.447395324707,-71.6636842489243,-113.099998474121,2012-02-22 13:09:14
1.1230001449585,42.447395324707,-71.6636842489243,-113.099998474121,2012-02-22 13:09:15
1.23699998855591,42.447395324707,-71.6636842489243,-113.099998474121,2012-02-22 13:09:16
1.0389997959137,42.447395324707,-71.6636842489243,-113.099998474121,2012-02-22 13:09:17
1.06900000572205,42.447395324707,-71.6636842489243,-113.099998474121,2012-02-22 13:09:18
0.76800012588501,42.447395324707,-71.6636842489243,-113.099998474121,2012-02-22 13:09:19
1.00499987602234,42.447395324707,-71.6636842489243,-113.099998474121,2012-02-22 13:09:20
0.998000144958496,42.447395324707,-71.6636842489243,-113.099998474121,2012-02-22 13:09:21
1.03600001335144,42.447395324707,-71.6636842489243,-113.099998474121,2012-02-22 13:09:22
1.04699993133545,42.447395324707,-71.6636842489243,-113.099998474121,2012-02-22 13:09:23
0.930000066757202,42.447395324707,-71.6636842489243,-113.099998474121,2012-02-22 13:09:24
0.996999979019165,42.447395324707,-71.6636842489243,-113.099998474121,2012-02-22 13:09:25
1.00399994850159,42.447395324707,-71.6636842489243,-113.099998474121,2012-02-22 13:09:26
1.01200008392334,42.447395324707,-71.6636842489243,-113.099998474121,2012-02-22 13:09:27
1.03900003433228,42.447395324707,-71.6636842489243,-113.099998474121,2012-02-22 13:09:28
0.949999809265137,42.447395324707,-71.6636842489243,-113.099998474121,2012-02-22 13:09:29
1.00500011444092,42.447395324707,-71.6636842489243,-113.099998474121,2012-02-22 13:09:30
1.27300000190735,42.447395324707,-71.6636842489243,-113.099998474121,2012-02-22 13:09:31
0.721999883651733,42.447395324707,-71.6636842489243,-113.099998474121,2012-02-22 13:09:32
1.04100012779236,42.447395324707,-71.6636842489243,-113.099998474121,2012-02-22 13:09:33
1.19899988174438,42.447395324707,-71.6636842489243,-113.099998474121,2012-02-22 13:09:34
0.763000011444092,42.447395324707,-71.6636842489243,-113.099998474121,2012-02-22 13:09:35
1.00500011444092,42.447395324707,-71.6636842489243,-113.099998474121,2012-02-22 13:09:36
3.09299993515015,42.447395324707,-71.6636842489243,-113.099998474121,2012-02-22 13:09:39
0.897000074386597,42.447395324707,-71.6636842489243,-113.099998474121,2012-02-22 13:09:40
1.00300002098083,42.447395324707,-71.6636842489243,-113.099998474121,2012-02-22 13:09:41
1.00499987602234,42.447395324707,-71.6636842489243,-113.099998474121,2012-02-22 13:09:42
1.01100015640259,42.447395324707,-71.6636842489243,-113.099998474121,2012-02-22 13:09:43
1.03999996185303,42.447395324707,-71.6636842489243,-113.099998474121,2012-02-22 13:09:44
1.30699992179871,42.447395324707,-71.6636842489243,-113.099998474121,2012-02-22 13:09:45
0.638999938964844,42.447395324707,-71.6636842489243,-113.099998474121,2012-02-22 13:09:46
1.00699996948242,42.447395324707,-71.6636842489243,-113.099998474121,2012-02-22 13:09:47
1.20800018310547,42.447395324707,-71.6636842489243,-113.099998474121,2012-02-22 13:09:48
0.799999952316284,42.447395324707,-71.6636842489243,-113.099998474121,2012-02-22 13:09:49
0.996000051498413,42.447395324707,-71.6636842489243,-113.099998474121,2012-02-22 13:09:50
0.99399995803833,42.447395324707,-71.6636842489243,-113.099998474121,2012-02-22 13:09:51
1.00099992752075,42.447395324707,-71.6636842489243,-113.099998474121,2012-02-22 13:09:52
1.00699996948242,42.447395324707,-71.6636842489243,-113.099998474121,2012-02-22 13:09:53
1.00800013542175,42.447395324707,-71.6636842489243,-113.099998474121,2012-02-22 13:09:54
1.0460000038147,42.447395324707,-71.6636842489243,-113.099998474121,2012-02-22 13:09:55
0.99399995803833,42.447395324707,-71.6636842489243,-113.099998474121,2012-02-22 13:09:56
1.15700006484985,42.447395324707,-71.6636842489243,-113.099998474121,2012-02-22 13:09:57
0.995999813079834,42.447395324707,-71.6636842489243,-113.099998474121,2012-02-22 13:09:58
1.04800009727478,42.447395324707,-71.6636842489243,-113.099998474121,2012-02-22 13:09:59
0.986000061035156,42.447395324707,-71.6636842489243,-113.099998474121,2012-02-22 13:10:00
1.00399994850159,42.447395324707,-71.6636842489243,-113.099998474121,2012-02-22 13:10:01
0.966000080108643,42.447395324707,-71.6636842489243,-113.099998474121,2012-02-22 13:10:02
1.00299978256226,42.447395324707,-71.6636842489243,-113.099998474121,2012-02-22 13:10:03
1.00200009346008,42.447395324707,-71.6636842489243,-113.099998474121,2012-02-22 13:10:04
1.00999999046326,42.447395324707,-71.6636842489243,-113.099998474121,2012-02-22 13:10:05
1.04100012779236,42.447395324707,-71.6636842489243,-113.099998474121,2012-02-22 13:10:06
2.94199991226196,42.447395324707,-71.6636842489243,-113.099998474121,2012-02-22 13:10:09
1.10699987411499,42.447395324707,-71.6636842489243,-113.099998474121,2012-02-22 13:10:10
0.908000230789185,42.447395324707,-71.6636842489243,-113.099998474121,2012-02-22 13:10:11
1.04299998283386,42.447395324707,-71.6636842489243,-113.099998474121,2012-02-22 13:10:12
0.942999839782715,42.447395324707,-71.6636842489243,-113.099998474121,2012-02-22 13:10:13
1.00500011444092,42.447395324707,-71.6636842489243,-113.099998474121,2012-02-22 13:10:14
1.54999995231628,42.447395324707,-71.6636842489243,-113.099998474121,2012-02-22 13:10:16
0.506999969482422,42.447395324707,-71.6636842489243,-113.099998474121,2012-02-22 13:10:16
0.954999923706055,42.447395324707,-71.6636842489243,-113.099998474121,2012-02-22 13:10:17
0.990000009536743,42.447395324707,-71.6636842489243,-113.099998474121,2012-02-22 13:10:18
0.998000144958496,42.447395324707,-71.6636842489243,-113.099998474121,2012-02-22 13:10:19
1.00399994850159,42.447395324707,-71.6636842489243,-113.099998474121,2012-02-22 13:10:20
1.22099995613098,42.447395324707,-71.6636842489243,-113.099998474121,2012-02-22 13:10:21
0.848999977111816,42.447395324707,-71.6636842489243,-113.099998474121,2012-02-22 13:10:22
1.01200008392334,42.447395324707,-71.6636842489243,-113.099998474121,2012-02-22 13:10:23
0.917999982833862,42.447395324707,-71.6636842489243,-113.099998474121,2012-02-22 13:10:24
1.04500007629395,42.447395324707,-71.6636842489243,-113.099998474121,2012-02-22 13:10:25
0.976999998092651,42.447395324707,-71.6636842489243,-113.099998474121,2012-02-22 13:10:26
1.01399993896484,42.447395324707,-71.6636842489243,-113.099998474121,2012-02-22 13:10:27
1.01600003242493,42.447395324707,-71.6636842489243,-113.099998474121,2012-02-22 13:10:28
0.953000068664551,42.447395324707,-71.6636842489243,-113.099998474121,2012-02-22 13:10:29
1.00299978256226,42.447395324707,-71.6636842489243,-113.099998474121,2012-02-22 13:10:30
1.05800008773804,42.447395324707,-71.6636842489243,-113.099998474121,2012-02-22 13:10:31
1.03699994087219,42.447395324707,-71.6636842489243,-113.099998474121,2012-02-22 13:10:32
1.01600003242493,42.447395324707,-71.6636842489243,-113.099998474121,2012-02-22 13:10:33
0.910000085830688,42.447395324707,-71.6636842489243,-113.099998474121,2012-02-22 13:10:34
0.986000061035156,42.447395324707,-71.6636842489243,-113.099998474121,2012-02-22 13:10:35
1.24599981307983,42.447395324707,-71.6636842489243,-113.099998474121,2012-02-22 13:10:36
2.89199995994568,42.447395324707,-71.6636842489243,-113.099998474121,2012-02-22 13:10:39
0.646000146865845,42.447395324707,-71.6636842489243,-113.099998474121,2012-02-22 13:10:40
1.00799989700317,42.447395324707,-71.6636842489243,-113.099998474121,2012-02-22 13:10:41
1.18300008773804,42.447395324707,-71.6636842489243,-113.099998474121,2012-02-22 13:10:42
0.858000040054321,42.447395324707,-71.6636842489243,-113.099998474121,2012-02-22 13:10:43
1.02199983596802,42.447395324707,-71.6636842489243,-113.099998474121,2012-02-22 13:10:44
0.939000129699707,42.447395324707,-71.6636842489243,-113.099998474121,2012-02-22 13:10:45
0.997999906539917,42.447395324707,-71.6636842489243,-113.099998474121,2012-02-22 13:10:46
1.05900001525879,42.447395324707,-71.6636842489243,-113.099998474121,2012-02-22 13:10:47
1.02699995040894,42.447395324707,-71.6636842489243,-113.099998474121,2012-02-22 13:10:48
1.07400012016296,42.447395324707,-71.6636842489243,-113.099998474121,2012-02-22 13:10:49
1.47900009155273,42.447395324707,-71.6636842489243,-113.099998474121,2012-02-22 13:10:51
0.369999885559082,42.447395324707,-71.6636842489243,-113.099998474121,2012-02-22 13:10:51
0.997999906539917,42.447395324707,-71.6636842489243,-113.099998474121,2012-02-22 13:10:52
1.60400009155273,42.447395324707,-71.6636842489243,-113.099998474121,2012-02-22 13:10:54
0.397000074386597,42.447395324707,-71.6636842489243,-113.099998474121,2012-02-22 13:10:54
1.06299996376038,42.447395324707,-71.6636842489243,-113.099998474121,2012-02-22 13:10:55
0.937999963760376,42.447395324707,-71.6636842489243,-113.099998474121,2012-02-22 13:10:56
1.00500011444092,42.447395324707,-71.6636842489243,-113.099998474121,2012-02-22 13:10:57
1.01199984550476,42.447395324707,-71.6636842489243,-113.099998474121,2012-02-22 13:10:58
1.04100012779236,42.447395324707,-71.6636842489243,-113.099998474121,2012-02-22 13:10:59
0.960000038146973,42.447395324707,-71.6636842489243,-113.099998474121,2012-02-22 13:11:00
1.05499982833862,42.447395324707,-71.6636842489243,-113.099998474121,2012-02-22 13:11:01
0.932000160217285,42.447395324707,-71.6636842489243,-113.099998474121,2012-02-22 13:11:02
1.48899984359741,42.447395324707,-71.6636842489243,-113.099998474121,2012-02-22 13:11:04
0.633000135421753,42.447395324707,-71.6636842489243,-113.099998474121,2012-02-22 13:11:04
0.919999837875366,42.447395324707,-71.6636842489243,-113.099998474121,2012-02-22 13:11:05
0.973000049591064,42.447395324707,-71.6636842489243,-113.099998474121,2012-02-22 13:11:06
2.99300003051758,42.447395324707,-71.6636842489243,-113.099998474121,2012-02-22 13:11:09
1.01799988746643,42.447395324707,-71.6636842489243,-113.099998474121,2012-02-22 13:11:10
1.03300023078918,42.447395324707,-71.6636842489243,-113.099998474121,2012-02-22 13:11:11
0.93399977684021,42.447395324707,-71.6636842489243,-113.099998474121,2012-02-22 13:11:12
1.00300002098083,42.447395324707,-71.6636842489243,-113.099998474121,2012-02-22 13:11:13
1.06000018119812,42.447395324707,-71.6636842489243,-113.099998474121,2012-02-22 13:11:14
0.958999872207642,42.447395324707,-71.6636842489243,-113.099998474121,2012-02-22 13:11:15
1.05400013923645,42.447395324707,-71.6636842489243,-113.099998474121,2012-02-22 13:11:16
0.927999973297119,42.447395324707,-71.6636842489243,-113.099998474121,2012-02-22 13:11:17
1.00999999046326,42.447395324707,-71.6636842489243,-113.099998474121,2012-02-22 13:11:18
1.05999994277954,42.447395324707,-71.6636842489243,-113.099998474121,2012-02-22 13:11:19
0.979000091552734,42.447395324707,-71.6636842489243,-113.099998474121,2012-02-22 13:11:20
1.00599980354309,42.447395324707,-71.6636842489243,-113.099998474121,2012-02-22 13:11:21
1.01400017738342,42.447395324707,-71.6636842489243,-113.099998474121,2012-02-22 13:11:22
0.935999870300293,42.447395324707,-71.6636842489243,-113.099998474121,2012-02-22 13:11:23
1.00300002098083,42.447395324707,-71.6636842489243,-113.099998474121,2012-02-22 13:11:24
1.09999990463257,42.447395324707,-71.6636842489243,-113.099998474121,2012-02-22 13:11:25
0.920000076293945,42.447395324707,-71.6636842489243,-113.099998474121,2012-02-22 13:11:26
1.02900004386902,42.447395324707,-71.6636842489243,-113.099998474121,2012-02-22 13:11:27
1.01099991798401,42.447395324707,-71.6636842489243,-113.099998474121,2012-02-22 13:11:28
0.944000005722046,42.447395324707,-71.6636842489243,-113.099998474121,2012-02-22 13:11:29
1.05800008773804,42.447395324707,-71.6636842489243,-113.099998474121,2012-02-22 13:11:30
0.984999895095825,42.447395324707,-71.6636842489243,-113.099998474121,2012-02-22 13:11:31
1.0310001373291,42.447395324707,-71.6636842489243,-113.099998474121,2012-02-22 13:11:32
1.2739999294281,42.447395324707,-71.6636842489243,-113.099998474121,2012-02-22 13:11:33
0.684000015258789,42.447395324707,-71.6636842489243,-113.099998474121,2012-02-22 13:11:34
1.03999996185303,42.447395324707,-71.6636842489243,-113.099998474121,2012-02-22 13:11:35
1.0310001373291,42.447395324707,-71.6636842489243,-113.099998474121,2012-02-22 13:11:36
2.95199990272522,42.447395324707,-71.6636842489243,-113.099998474121,2012-02-22 13:11:39
0.986999988555908,42.447395324707,-71.6636842489243,-113.099998474121,2012-02-22 13:11:40
1.06599998474121,42.447395324707,-71.6636842489243,-113.099998474121,2012-02-22 13:11:41
0.950000047683716,42.447395324707,-71.6636842489243,-113.099998474121,2012-02-22 13:11:42
1.02099990844727,42.447395324707,-71.6636842489243,-113.099998474121,2012-02-22 13:11:43
1.04100012779236,42.447395324707,-71.6636842489243,-113.099998474121,2012-02-22 13:11:44
0.986999988555908,42.447395324707,-71.6636842489243,-113.099998474121,2012-02-22 13:11:45
0.957000017166138,42.447395324707,-71.6636842489243,-113.099998474121,2012-02-22 13:11:46
1.0019998550415,42.447395324707,-71.6636842489243,-113.099998474121,2012-02-22 13:11:47
1.08100008964539,42.447395324707,-71.6636842489243,-113.099998474121,2012-02-22 13:11:48
0.924000024795532,42.447395324707,-71.6636842489243,-113.099998474121,2012-02-22 13:11:49
1.02300000190735,42.447395324707,-71.6636842489243,-113.099998474121,2012-02-22 13:11:50
1.0090000629425,42.447395324707,-71.6636842489243,-113.099998474121,2012-02-22 13:11:51
0.964999914169312,42.447395324707,-71.6636842489243,-113.099998474121,2012-02-22 13:11:52
1.0550000667572,42.447395324707,-71.6636842489243,-113.099998474121,2012-02-22 13:11:53
1.00999999046326,42.447395324707,-71.6636842489243,-113.099998474121,2012-02-22 13:11:54
0.950999975204468,42.447395324707,-71.6636842489243,-113.099998474121,2012-02-22 13:11:55
0.970000028610229,42.447395324707,-71.6636842489243,-113.099998474121,2012-02-22 13:11:56
2.02499985694885,42.447395324707,-71.6636842489243,-113.099998474121,2012-02-22 13:11:58
1.24699997901917,42.447395324707,-71.6636842489243,-113.099998474121,2012-02-22 13:11:59
0.753000020980835,42.447395324707,-71.6636842489243,-113.099998474121,2012-02-22 13:12:00
1.01600003242493,42.447395324707,-71.6636842489243,-113.099998474121,2012-02-22 13:12:01
1.47399997711182,42.447395324707,-71.6636842489243,-113.099998474121,2012-02-22 13:12:03
0.51200008392334,42.447395324707,-71.6636842489243,-113.099998474121,2012-02-22 13:12:03
1.00300002098083,42.447395324707,-71.6636842489243,-113.099998474121,2012-02-22 13:12:04
1.25099992752075,42.447395324707,-71.6636842489243,-113.099998474121,2012-02-22 13:12:05
0.750999927520752,42.447395324707,-71.6636842489243,-113.099998474121,2012-02-22 13:12:06
4.25300002098083,42.447395324707,-71.6636842489243,-113.099998474121,2012-02-22 13:12:10
0.986999988555908,42.447395324707,-71.6636842489243,-113.099998474121,2012-02-22 13:12:11
1.07600021362305,42.447395324707,-71.6636842489243,-113.099998474121,2012-02-22 13:12:12
0.971999883651733,42.447395324707,-71.6636842489243,-113.099998474121,2012-02-22 13:12:13
0.996999979019165,42.447395324707,-71.6636842489243,-113.099998474121,2012-02-22 13:12:14
1.02300000190735,42.447395324707,-71.6636842489243,-113.099998474121,2012-02-22 13:12:15
0.980000019073486,42.447395324707,-71.6636842489243,-113.099998474121,2012-02-22 13:12:16
0.973000049591064,42.447395324707,-71.6636842489243,-113.099998474121,2012-02-22 13:12:17
1.03299999237061,42.447395324707,-71.6636842489243,-113.099998474121,2012-02-22 13:12:18
0.967999935150146,42.447395324707,-71.6636842489243,-113.099998474121,2012-02-22 13:12:19
1.22699999809265,42.447395324707,-71.6636842489243,-113.099998474121,2012-02-22 13:12:21
0.773000001907349,42.447395324707,-71.6636842489243,-113.099998474121,2012-02-22 13:12:21
1.01999998092651,42.447395324707,-71.6636842489243,-113.099998474121,2012-02-22 13:12:22
1.0770001411438,42.447395324707,-71.6636842489243,-113.099998474121,2012-02-22 13:12:24
0.906999826431274,42.447395324707,-71.6636842489243,-113.099998474121,2012-02-22 13:12:24
1.01600003242493,42.447395324707,-71.6636842489243,-113.099998474121,2012-02-22 13:12:25
1.04299998283386,42.447395324707,-71.6636842489243,-113.099998474121,2012-02-22 13:12:26
0.940000057220459,42.447395324707,-71.6636842489243,-113.099998474121,2012-02-22 13:12:27
1.01900005340576,42.447395324707,-71.6636842489243,-113.099998474121,2012-02-22 13:12:28
0.978999853134155,42.447395324707,-71.6636842489243,-113.099998474121,2012-02-22 13:12:29
1.02900004386902,42.447395324707,-71.6636842489243,-113.099998474121,2012-02-22 13:12:30
1.1159999370575,42.447395324707,-71.6636842489243,-113.099998474121,2012-02-22 13:12:32
0.863000154495239,42.447395324707,-71.6636842489243,-113.099998474121,2012-02-22 13:12:32
1.01799988746643,42.447395324707,-71.6636842489243,-113.099998474121,2012-02-22 13:12:33
1.08400011062622,42.447395324707,-71.6636842489243,-113.099998474121,2012-02-22 13:12:35
0.984999895095825,42.447395324707,-71.6636842489243,-113.099998474121,2012-02-22 13:12:36
0.975000143051147,42.447395324707,-71.6636842489243,-113.099998474121,2012-02-22 13:12:36
3.93999981880188,42.447395324707,-71.6636842489243,-113.099998474121,2012-02-22 13:12:40
0.702000141143799,42.447395324707,-71.6636842489243,-113.099998474121,2012-02-22 13:12:41
0.996000051498413,42.447395324707,-71.6636842489243,-113.099998474121,2012-02-22 13:12:42
1.26300001144409,42.447395324707,-71.6636842489243,-113.099998474121,2012-02-22 13:12:43
1.01999998092651,42.447395324707,-71.6636842489243,-113.099998474121,2012-02-22 13:12:44
1.03399991989136,42.447395324707,-71.6636842489243,-113.099998474121,2012-02-22 13:12:45
0.950999975204468,42.447395324707,-71.6636842489243,-113.099998474121,2012-02-22 13:12:46
1.01999998092651,42.447395324707,-71.6636842489243,-113.099998474121,2012-02-22 13:12:47
1.20300006866455,42.447395324707,-71.6636842489243,-113.099998474121,2012-02-22 13:12:49
0.780999898910522,42.447395324707,-71.6636842489243,-113.099998474121,2012-02-22 13:12:49
1.13600015640259,42.447395324707,-71.6636842489243,-113.099998474121,2012-02-22 13:12:51
0.904999971389771,42.447395324707,-71.6636842489243,-113.099998474121,2012-02-22 13:12:51
0.958999872207642,42.447395324707,-71.6636842489243,-113.099998474121,2012-02-22 13:12:52
1.09899997711182,42.447395324707,-71.6636842489243,-113.099998474121,2012-02-22 13:12:53
0.90500020980835,42.447395324707,-71.6636842489243,-113.099998474121,2012-02-22 13:12:54
1.02099990844727,42.447395324707,-71.6636842489243,-113.099998474121,2012-02-22 13:12:55
1.4300000667572,42.447395324707,-71.6636842489243,-113.099998474121,2012-02-22 13:12:57
0.546000003814697,42.447395324707,-71.6636842489243,-113.099998474121,2012-02-22 13:12:57
1.01199984550476,42.447395324707,-71.6636842489243,-113.099998474121,2012-02-22 13:12:58
1.26900005340576,42.447395324707,-71.6636842489243,-113.099998474121,2012-02-22 13:13:00
0.720999956130981,42.447395324707,-71.6636842489243,-113.099998474121,2012-02-22 13:13:00
1.05200004577637,42.447395324707,-71.6636842489243,-113.099998474121,2012-02-22 13:13:01
0.973999977111816,42.447395324707,-71.6636842489243,-113.099998474121,2012-02-22 13:13:02
1.11100006103516,42.447395324707,-71.6636842489243,-113.099998474121,2012-02-22 13:13:04
1.44300007820129,42.447395324707,-71.6636842489243,-113.099998474121,2012-02-22 13:13:05
0.46999979019165,42.447395324707,-71.6636842489243,-113.099998474121,2012-02-22 13:13:05
0.953000068664551,42.447395324707,-71.6636842489243,-113.099998474121,2012-02-22 13:13:06
4.19900012016296,42.447395324707,-71.6636842489243,-113.099998474121,2012-02-22 13:13:11
0.829999923706055,42.447395324707,-71.6636842489243,-113.099998474121,2012-02-22 13:13:11
1.04399991035461,42.447395324707,-71.6636842489243,-113.099998474121,2012-02-22 13:13:12
0.96399998664856,42.447395324707,-71.6636842489243,-113.099998474121,2012-02-22 13:13:13
1.04200005531311,42.447395324707,-71.6636842489243,-113.099998474121,2012-02-22 13:13:14
0.983999967575073,42.447395324707,-71.6636842489243,-113.099998474121,2012-02-22 13:13:15
0.980000019073486,42.447395324707,-71.6636842489243,-113.099998474121,2012-02-22 13:13:16
1.03600001335144,42.447395324707,-71.6636842489243,-113.099998474121,2012-02-22 13:13:17
0.986000061035156,42.447395324707,-71.6636842489243,-113.099998474121,2012-02-22 13:13:18
1.00300002098083,42.447395324707,-71.6636842489243,-113.099998474121,2012-02-22 13:13:19
0.991999864578247,42.447395324707,-71.6636842489243,-113.099998474121,2012-02-22 13:13:20
1.12400007247925,42.447395324707,-71.6636842489243,-113.099998474121,2012-02-22 13:13:22
0.871999979019165,42.447395324707,-71.6636842489243,-113.099998474121,2012-02-22 13:13:22
1.04500007629395,42.447395324707,-71.6636842489243,-113.099998474121,2012-02-22 13:13:23
0.935999870300293,42.447395324707,-71.6636842489243,-113.099998474121,2012-02-22 13:13:24
1.05599999427795,42.447395324707,-71.6636842489243,-113.099998474121,2012-02-22 13:13:25
0.945000171661377,42.447395324707,-71.6636842489243,-113.099998474121,2012-02-22 13:13:26
1.02900004386902,42.447395324707,-71.6636842489243,-113.099998474121,2012-02-22 13:13:27
1.03099989891052,42.447395324707,-71.6636842489243,-113.099998474121,2012-02-22 13:13:28
1.02900004386902,42.447395324707,-71.6636842489243,-113.099998474121,2012-02-22 13:13:30
0.963000059127808,42.447395324707,-71.6636842489243,-113.099998474121,2012-02-22 13:13:30
1.02199983596802,42.447395324707,-71.6636842489243,-113.099998474121,2012-02-22 13:13:32
0.937999963760376,42.447395324707,-71.6636842489243,-113.099998474121,2012-02-22 13:13:32
1.50699996948242,42.447395324707,-71.6636842489243,-113.099998474121,2012-02-22 13:13:34
0.478000164031982,42.447395324707,-71.6636842489243,-113.099998474121,2012-02-22 13:13:34
1.02900004386902,42.447395324707,-71.6636842489243,-113.099998474121,2012-02-22 13:13:35
1.47099995613098,42.447395324707,-71.6636842489243,-113.099998474121,2012-02-22 13:13:37
3.50699996948242,42.447395324707,-71.6636842489243,-113.099998474121,2012-02-22 13:13:40
1.03600001335144,42.447395324707,-71.6636842489243,-113.099998474121,2012-02-22 13:13:41
1.11100006103516,42.447395324707,-71.6636842489243,-113.099998474121,2012-02-22 13:13:43
0.863999843597412,42.447395324707,-71.6636842489243,-113.099998474121,2012-02-22 13:13:43
1.05299997329712,42.447395324707,-71.6636842489243,-113.099998474121,2012-02-22 13:13:45
0.939000129699707,42.447395324707,-71.6636842489243,-113.099998474121,2012-02-22 13:13:45
1.05799984931946,42.447395324707,-71.6636842489243,-113.099998474121,2012-02-22 13:13:47
1.44200015068054,42.447395324707,-71.6636842489243,-113.099998474121,2012-02-22 13:13:48
0.519000053405762,42.447395324707,-71.6636842489243,-113.099998474121,2012-02-22 13:13:48
1.05299997329712,42.447395324707,-71.6636842489243,-113.099998474121,2012-02-22 13:13:50
0.973999977111816,42.447395324707,-71.6636842489243,-113.099998474121,2012-02-22 13:13:50
0.970999956130981,42.447395324707,-71.6636842489243,-113.099998474121,2012-02-22 13:13:51
1.02600002288818,42.447395324707,-71.6636842489243,-113.099998474121,2012-02-22 13:13:52
1.18700003623962,42.447395324707,-71.6636842489243,-113.099998474121,2012-02-22 13:13:54
0.796999931335449,42.447395324707,-71.6636842489243,-113.099998474121,2012-02-22 13:13:54
1.03399991989136,42.447395324707,-71.6636842489243,-113.099998474121,2012-02-22 13:13:56
0.950000047683716,42.447395324707,-71.6636842489243,-113.099998474121,2012-02-22 13:13:56
1.05900001525879,42.447395324707,-71.6636842489243,-113.099998474121,2012-02-22 13:13:58
1.04500007629395,42.447395324707,-71.6636842489243,-113.099998474121,2012-02-22 13:13:59
0.937999963760376,42.447395324707,-71.6636842489243,-113.099998474121,2012-02-22 13:13:59
0.994999885559082,42.447395324707,-71.6636842489243,-113.099998474121,2012-02-22 13:14:00
1.39499998092651,42.447395324707,-71.6636842489243,-113.099998474121,2012-02-22 13:14:02
0.657000064849854,42.447395324707,-71.6636842489243,-113.099998474121,2012-02-22 13:14:03
0.927000045776367,42.447395324707,-71.6636842489243,-113.099998474121,2012-02-22 13:14:03
1.53099989891052,42.447395324707,-71.6636842489243,-113.099998474121,2012-02-22 13:14:05
0.546000003814697,42.447395324707,-71.6636842489243,-113.099998474121,2012-02-22 13:14:06
1.06600022315979,42.447395324707,-71.6636842489243,-113.099998474121,2012-02-22 13:14:07
3.87799978256226,42.447395324707,-71.6636842489243,-113.099998474121,2012-02-22 13:14:10
1.48100018501282,42.447395324707,-71.6636842489243,-113.099998474121,2012-02-22 13:14:12
0.543999910354614,42.447395324707,-71.6636842489243,-113.099998474121,2012-02-22 13:14:13
0.961999893188477,42.447395324707,-71.6636842489243,-113.099998474121,2012-02-22 13:14:13
1.68300008773804,42.447395324707,-71.6636842489243,-113.099998474121,2012-02-22 13:14:15
0.299999952316284,42.447395324707,-71.6636842489243,-113.099998474121,2012-02-22 13:14:15
