"diffSecs","level","azimuth.mean","azimuth.absolute.deviation","azimuth.standard.deviation","azimuth.max.deviation","pitch.mean","pitch.absolute.deviation","pitch.standard.deviation","pitch.max.deviation","roll.mean","roll.absolute.deviation","roll.standard.deviation","roll.max.deviation","time"
1.01899981498718,28,-16.5571441650391,0.344897985458374,0.394994169473648,0.757143080234528,169.057144165039,0.0806128084659576,0.0979366675019264,0.257143288850784,-48.1785736083984,0.108672648668289,0.126369476318359,0.278570711612701,2012-02-03 08:20:50
1.00500011444092,42,-16.5761909484863,0.272562354803085,0.31908306479454,0.62380987405777,169.071426391602,0.102040849626064,0.127773970365524,0.271428436040878,-48.1928596496582,0.146258190274239,0.176463678479195,0.392858684062958,2012-02-03 08:20:51
1.01699995994568,46,-16.7173919677734,0.417958408594131,0.478359669446945,0.917391538619995,169.008697509766,0.128354877233505,0.161279544234276,0.391310662031174,-48.1500015258789,0.134782165288925,0.158456891775131,0.349999397993088,2012-02-03 08:20:52
1.06900000572205,37,-16.8702697753906,0.322424978017807,0.374068111181259,0.670269966125488,169.205413818359,0.173996612429619,0.203942716121674,0.39459764957428,-48.2135162353516,0.131044328212738,0.1695177257061,0.386487811803818,2012-02-03 08:20:53
1.01099991798401,45,-16.648889541626,0.22320993244648,0.294861286878586,0.851110816001892,169.244445800781,0.256789088249207,0.280914187431335,0.4555484354496,-48.3444442749023,0.18271616101265,0.206080317497253,0.355555295944214,2012-02-03 08:20:54
1.01300001144409,43,-15.3186044692993,0.546890139579773,0.66934734582901,1.58139479160309,169.281402587891,0.117254823446274,0.154403194785118,0.481396347284317,-48.1232566833496,0.143320664763451,0.176315531134605,0.376743316650391,2012-02-03 08:20:55
1.01500010490417,33,-16.4030303955078,0.204223856329918,0.267971783876419,0.696969568729401,169.072723388672,0.095316655933857,0.118761397898197,0.272726804018021,-48.3878784179688,0.127640664577484,0.155227556824684,0.312121421098709,2012-02-03 08:20:56
1.01099991798401,49,-16.9183673858643,0.216493174433708,0.278973013162613,0.718366980552673,169.030609130859,0.0987086668610573,0.124872595071793,0.330617159605026,-48.1897964477539,0.15493506193161,0.191923454403877,0.489795833826065,2012-02-03 08:20:57
1.01400017738342,42,-16.5142860412598,0.306802749633789,0.358947843313217,0.78571492433548,169.20475769043,0.172335892915726,0.204650536179543,0.404761552810669,-48.3142852783203,0.117007039487362,0.142379939556122,0.314286291599274,2012-02-03 08:20:58
1.01599979400635,43,-16.3720932006836,0.247917577624321,0.300639271736145,0.727906942367554,169.076751708984,0.16938878595829,0.212227582931519,0.52325826883316,-48.3023262023926,0.146782398223877,0.18234695494175,0.402324944734573,2012-02-03 08:20:59
