"diffSecs","level","azimuth.mean","azimuth.absolute.deviation","azimuth.standard.deviation","azimuth.max.deviation","pitch.mean","pitch.absolute.deviation","pitch.standard.deviation","pitch.max.deviation","roll.mean","roll.absolute.deviation","roll.standard.deviation","roll.max.deviation","time"
1.01600003242493,20,-21.5950012207031,1.99599993228912,2.43135237693787,4.59500026702881,19.3700008392334,0.669999957084656,0.802558422088623,1.62999987602234,-35.560001373291,3.00800013542175,3.60380363464355,7.23999834060669,2012-01-08 11:18:05
1.0019998550415,44,-25.9068183898926,2.2737603187561,2.49903607368469,3.60681748390198,14.5431823730469,1.65020668506622,1.95452845096588,4.14318180084229,-23.9431819915771,1.95030999183655,2.528240442276,6.15681838989258,2012-01-08 11:18:06
1.01100015640259,45,-19.3022232055664,1.63753092288971,1.83054196834564,3.30222249031067,6.87333345413208,2.29866671562195,2.6412456035614,4.97333335876465,-24.2377777099609,0.187456756830215,0.243391647934914,0.737778067588806,2012-01-08 11:18:07
1.00099992752075,29,-17.4724140167236,1.30368602275848,1.54827964305878,3.62758612632751,3.72413802146912,1.86278247833252,2.30765676498413,5.87586259841919,-24.0931034088135,0.366706311702728,0.422579139471054,0.893103122711182,2012-01-08 11:18:08
1.01200008392334,41,-26.7756099700928,1.86626994609833,2.32250714302063,5.47560882568359,16.4219512939453,2.47566938400269,2.86743807792664,6.12195158004761,-18.617073059082,2.06876850128174,2.35059952735901,4.48292684555054,2012-01-08 11:18:09
1.00099992752075,39,-30.5256404876709,0.429059892892838,0.543831646442413,1.17435932159424,22.0384616851807,0.585009932518005,0.82076108455658,1.53846180438995,-14.1512823104858,1.98264300823212,2.50014066696167,5.4512825012207,2012-01-08 11:18:10
1.00099992752075,49,-31.6163272857666,0.244564950466156,0.331568390130997,0.916326344013214,23.9469394683838,0.719950020313263,0.767211258411407,1.24693846702576,-7.28163290023804,0.4413161277771,0.518897354602814,1.21836721897125,2012-01-08 11:18:11
1.00999999046326,35,-30.891429901123,0.280652821063995,0.345064252614975,0.808571755886078,24.6314296722412,0.381224632263184,0.445787638425827,0.831427931785583,-8.8514289855957,0.615510284900665,0.757579445838928,1.45142865180969,2012-01-08 11:18:12
1.01200008392334,41,-29.7024402618408,0.753718137741089,0.779458224773407,1.19756019115448,22.8999996185303,0.819512128829956,0.86897748708725,1.30000007152557,-12.0926828384399,1.9876264333725,2.08132123947144,2.70731711387634,2012-01-08 11:18:13
1,36,-29.2972221374512,0.285802453756332,0.381871283054352,0.902778327465057,21.4500007629395,0.141666650772095,0.189296841621399,0.449999451637268,-13.0666666030884,1.06851863861084,1.32602179050446,2.56666684150696,2012-01-08 11:18:14
1.0149998664856,48,-30.4166679382324,0.203472167253494,0.246925532817841,0.616665899753571,21.7729167938232,0.417187452316284,0.448952287435532,0.772917091846466,-9.71041679382324,0.827951371669769,0.974516868591309,2.18958377838135,2012-01-08 11:18:15
1.00999999046326,40,-28.7049999237061,0.590500056743622,0.693163096904755,1.59500074386597,20.2250003814697,0.875,0.986344277858734,1.87499988079071,-14.9875001907349,1.09937512874603,1.32177686691284,2.88749980926514,2012-01-08 11:18:16
1,36,-33.1861114501953,0.944752991199493,1.17050623893738,3.08611154556274,23.411111831665,3.05555558204651,3.40455389022827,4.71111106872559,-5.61944437026978,4.46296310424805,5.38159513473511,11.7194442749023,2012-01-08 11:18:17
1.00800013542175,41,-33.1585388183594,0.403450518846512,0.446654677391052,0.941464841365814,25.5756092071533,0.242117837071419,0.294486284255981,0.724391043186188,11.2268295288086,0.802379608154297,1.13309943675995,4.12682962417603,2012-01-08 11:18:18
1.42400002479553,48,-33.46875,0.253124713897705,0.30967453122139,0.631251335144043,27.247917175293,1.00772571563721,1.23456966876984,3.1520824432373,10.3083333969116,1.86388897895813,2.33923363685608,6.60833358764648,2012-01-08 11:18:19
1.01699995994568,40,-33.0750007629395,0.278750121593475,0.355492740869522,0.775001645088196,33.1599998474121,0.219999581575394,0.290516555309296,0.75999915599823,-7.38250017166138,0.945750057697296,1.11532235145569,2.88250017166138,2012-01-08 11:18:20
1.01300001144409,43,-34.2418594360352,0.654840588569641,0.729202568531036,1.14185905456543,33.5558128356934,0.983126163482666,1.21641945838928,3.15581512451172,-1.4604651927948,3.09897255897522,3.69456791877747,7.86046504974365,2012-01-08 11:18:21
1.01300001144409,37,-34.9135131835938,0.237253323197365,0.268289923667908,0.513512969017029,27.248649597168,1.29846596717834,1.48681080341339,2.8513514995575,10.816216468811,2.21212577819824,2.4339394569397,4.11621618270874,2012-01-08 11:18:22
1.12599992752075,39,-34.4871788024902,0.288231551647186,0.358900934457779,0.887178003787994,25.5358982086182,0.153320461511612,0.17901049554348,0.3641017973423,13.45641040802,0.102695524692535,0.123610034584999,0.256410658359528,2012-01-08 11:18:23
1.17400002479553,50,-34.2099990844727,0.193999633193016,0.254754692316055,0.71000075340271,24.738000869751,0.228640288114548,0.285580396652222,0.66199916601181,13.6960000991821,0.211839929223061,0.255311518907547,0.503999590873718,2012-01-08 11:18:24
1.03999996185303,51,-34.2627449035645,0.205612972378731,0.277920037508011,0.862744450569153,24.8764705657959,0.114878423511982,0.143606320023537,0.376470863819122,13.8431377410889,0.11903128772974,0.144513994455338,0.356862336397171,2012-01-08 11:18:25
1,39,-34.0794868469238,0.233399406075478,0.299726098775864,0.779488503932953,24.8102569580078,0.135173827409744,0.167630225419998,0.410257190465927,14.0487184524536,0.116633698344231,0.133727058768272,0.251282006502151,2012-01-08 11:18:26
1,30,-34.3466682434082,0.247111365199089,0.282528430223465,0.646666705608368,24.4766674041748,0.161777794361115,0.194393634796143,0.423332542181015,14.2766666412354,0.111555755138397,0.128279343247414,0.276666849851608,2012-01-08 11:18:27
1.0090000629425,47,-34.2021293640137,0.316704154014587,0.394908756017685,0.902129411697388,24.8361701965332,0.104209542274475,0.124499581754208,0.263829618692398,14.0595750808716,0.127297446131706,0.156639650464058,0.359574824571609,2012-01-08 11:18:28
1.03699994087219,44,-34.2613639831543,0.182747527956963,0.233759611845016,0.561363399028778,24.72727394104,0.151652857661247,0.194660097360611,0.527272403240204,14.5181818008423,0.127272740006447,0.158505365252495,0.418181598186493,2012-01-08 11:18:29
1.03699994087219,44,-33.1795463562012,0.607747852802277,0.711138546466827,1.12045288085938,23.5136375427246,0.195867896080017,0.265082269906998,0.786364436149597,14.6522731781006,0.706198275089264,0.858510494232178,1.85227274894714,2012-01-08 11:18:30
1.00400018692017,31,-32,0.238709837198257,0.291824012994766,0.500000476837158,24.1548385620117,1.06368386745453,1.18371725082397,1.85483801364899,5.63548374176025,4.19375658035278,4.84578609466553,7.96451663970947,2012-01-08 11:18:31
1.01699995994568,49,-32.3346939086914,0.465056419372559,0.514107704162598,0.834694743156433,18.1040821075439,2.11386919021606,2.44573426246643,4.40408182144165,8.88571453094482,4.09737634658813,4.49525833129883,7.58571434020996,2012-01-08 11:18:33
1.17700004577637,40,-31.2775001525879,0.574749946594238,0.720585763454437,1.77750039100647,11.2825002670288,1.28512489795685,1.53604805469513,3.58249998092651,18.3950004577637,1.64974999427795,1.82851707935333,3.10499954223633,2012-01-08 11:18:34
1.00799989700317,54,-29.7277774810791,0.614403307437897,0.755085706710815,1.57222282886505,8.4740743637085,1.52935528755188,1.79589915275574,3.62592625617981,22.3314819335938,0.703017830848694,0.88648796081543,2.33148193359375,2012-01-08 11:18:35
1,36,-32.783332824707,0.446296095848083,0.572761297225952,1.68333351612091,15.625,2.46527767181396,2.64274430274963,4.02500009536743,16.2277774810791,3.49197554588318,3.83533358573914,6.47222280502319,2012-01-08 11:18:36
1.00699996948242,41,-34.1414642333984,0.55383712053299,0.648441433906555,1.34146523475647,15.5487804412842,1.82343852519989,2.10134959220886,4.14878034591675,10.7365856170654,6.30886363983154,7.09770679473877,11.5634155273438,2012-01-08 11:18:37
1.00500011444092,40,-33.872501373291,0.183875396847725,0.215624257922173,0.472499370574951,18.0125007629395,0.358125180006027,0.463782161474228,1.11250066757202,2.14750003814697,0.247249990701675,0.303304702043533,0.652499914169312,2012-01-08 11:18:38
1.01399993896484,49,-34.2306137084961,0.29870867729187,0.408183634281158,1.06938636302948,19.1938781738281,0.447063654661179,0.471388727426529,0.706121563911438,2.83061218261719,1.1448563337326,1.30449843406677,2.96938800811768,2012-01-08 11:18:39
1.01600003242493,34,-34.1000022888184,0.876470506191254,0.961921989917755,1.89999878406525,19.1705894470215,1.21626305580139,1.40493452548981,2.87058734893799,10.6823530197144,1.15155708789825,1.68966937065125,4.78235292434692,2012-01-08 11:18:40
1.00799989700317,42,-31.1214294433594,1.28435397148132,1.45741736888885,3.02142858505249,12.3309526443481,2.93242645263672,3.67420148849487,8.53095245361328,15.9095239639282,4.36961460113525,5.02663421630859,8.79047679901123,2012-01-08 11:18:41
1.06500005722046,33,-21.6333332061768,1.35757577419281,1.77143442630768,5.26666593551636,-4.80909109115601,1.43691456317902,2.01349449157715,6.90909099578857,29.4151515960693,1.40165293216705,1.65824317932129,4.01515197753906,2012-01-08 11:18:42
