"diffSecs","N.samples","x.mean","x.absolute.deviation","x.standard.deviation","x.max.deviation","x.PSD.1","x.PSD.3","x.PSD.6","x.PSD.10","y.mean","y.absolute.deviation","y.standard.deviation","y.max.deviation","y.PSD.1","y.PSD.3","y.PSD.6","y.PSD.10","z.mean","z.absolute.deviation","z.standard.deviation","z.max.deviation","z.PSD.1","z.PSD.3","z.PSD.6","z.PSD.10","time"
1.05900001525879,30,-0.0879329591989517,0.0945361033082008,0.117256350815296,0.31348592042923,0.0322343073785305,0.0578348487615585,0.0879164263606071,0.0805158168077469,4.86311769485474,0.298775970935822,0.375005334615707,0.795319139957428,0.740949511528015,0.989932239055634,0.225161388516426,0.193175509572029,8.60370063781738,0.22228416800499,0.282110512256622,0.836834132671356,0.337902933359146,0.32306319475174,0.618517279624939,0.855989515781403,2012-01-24 15:24:03
1.00200009346008,50,-0.0796299949288368,0.0935005247592926,0.107527397572994,0.204762831330299,0.610934615135193,0.854453206062317,1.09159541130066,0.317156881093979,4.65521669387817,0.0760211572051048,0.0943734049797058,0.232417538762093,0.624940454959869,0.719215989112854,0.681050658226013,0.709390163421631,8.62945938110352,0.0736992359161377,0.0948150455951691,0.353431612253189,0.11161395907402,0.265904366970062,0.444556772708893,0.466963589191437,2012-01-24 15:24:04
1.01900005340576,38,-0.0350974835455418,0.0484356135129929,0.0585221126675606,0.131615564227104,0.11361712962389,0.157507210969925,0.0355574674904346,0.0534261874854565,4.60525417327881,0.0603341199457645,0.0731631815433502,0.200003921985626,0.270229667425156,0.411577522754669,0.131619170308113,0.0178191959857941,8.70520782470703,0.0860595181584358,0.107452623546124,0.228649646043777,0.0228926222771406,0.0824620649218559,0.526896893978119,0.129047989845276,2012-01-24 15:24:05
1.01899981498718,47,-0.0375573821365833,0.0702136605978012,0.085356317460537,0.243497028946877,0.186112269759178,0.137173280119896,0.189756065607071,0.537023842334747,4.70176696777344,0.0758339464664459,0.0939273312687874,0.201558157801628,0.325974464416504,0.65244734287262,0.617095589637756,0.764922201633453,8.62067127227783,0.0879094079136848,0.113220818340778,0.264153689146042,0.789012610912323,0.953195035457611,0.599233746528625,0.797495365142822,2012-01-24 15:24:06
1.01400017738342,41,0.00454454543069005,0.0817084684967995,0.0993520095944405,0.200677528977394,0.206969484686852,0.5464026927948,0.650791168212891,0.1507428586483,4.61677932739258,0.114412896335125,0.134627819061279,0.252820014953613,1.29656934738159,1.72455561161041,0.320789337158203,0.315660715103149,8.71189308166504,0.104997217655182,0.136775523424149,0.307594120502472,1.10837996006012,1.6932555437088,1.45831787586212,1.34396362304688,2012-01-24 15:24:07
1.0019998550415,35,-0.638553023338318,0.756048679351807,0.802879214286804,1.15606391429901,30.7838249206543,54.060863494873,30.5296325683594,1.38761878013611,3.96973180770874,0.407732456922531,0.449848145246506,0.782570600509644,0.000767253164667636,5.3701376914978,10.9194278717041,3.07169079780579,9.11177825927734,0.482327073812485,0.639792859554291,1.62650275230408,1.16401147842407,2.95263695716858,9.28514289855957,2.9186954498291,2012-01-24 15:24:08
1.01699995994568,47,-0.464668273925781,0.198361575603485,0.239851042628288,0.466963469982147,5.96874713897705,4.78060340881348,3.15546107292175,2.13767552375793,4.70385360717773,0.150309428572655,0.195989772677422,0.624286949634552,4.06010961532593,5.40263080596924,2.10637760162354,0.64193058013916,8.68994331359863,0.239763543009758,0.285563945770264,0.579843819141388,10.3177003860474,15.8101568222046,9.66650104522705,2.32563209533691,2012-01-24 15:24:09
1.04700016975403,41,-0.285110414028168,0.0965147018432617,0.109468042850494,0.205222085118294,0.0863133892416954,0.199091181159019,1.3833669424057,0.357377707958221,5.01430749893188,0.0959662422537804,0.121396958827972,0.300896614789963,0.104024313390255,0.109700627624989,0.791814386844635,1.39849269390106,8.43563270568848,0.131015866994858,0.171836212277412,0.45899909734726,0.00152996205724776,0.178761199116707,1.7205411195755,0.490956515073776,2012-01-24 15:24:10
1.01300001144409,49,-0.260776817798615,0.198959395289421,0.241970613598824,0.662849485874176,7.00869846343994,7.20422744750977,1.90688443183899,0.264971196651459,4.89652013778687,0.170989438891411,0.194597989320755,0.379457354545593,0.667792856693268,4.14947128295898,2.7171196937561,0.987067818641663,8.62264728546143,0.162820741534233,0.206113800406456,0.659647166728973,0.655719399452209,0.563360035419464,2.01696133613586,1.85343670845032,2012-01-24 15:24:11
1.05999994277954,31,-0.138558477163315,0.0976379066705704,0.116799756884575,0.243900865316391,0.0544578284025192,0.142864137887955,0.405392915010452,0.174929216504097,4.9001612663269,0.0800247937440872,0.103466108441353,0.238522827625275,0.00211261375807226,0.00248954049311578,0.099953904747963,0.0975263714790344,8.57575702667236,0.101372927427292,0.115977071225643,0.279647886753082,0.0929795950651169,0.198518916964531,0.179845318198204,0.0212437752634287,2012-01-24 15:24:12
1.02699995040894,50,-0.629979193210602,0.199365273118019,0.248621761798859,0.522106051445007,1.17469239234924,6.99828195571899,1.01847732067108,1.55245745182037,4.95333862304688,0.21715846657753,0.271608799695969,0.540346324443817,6.98816442489624,5.00996398925781,8.85244750976562,1.84689378738403,8.5137414932251,0.26562687754631,0.32583686709404,0.822189748287201,4.16433715820312,4.15072298049927,8.4883451461792,3.14586687088013,2012-01-24 15:24:13
1,37,-0.115824483335018,0.223081588745117,0.271548241376877,0.570641040802002,0.629499733448029,0.448457390069962,1.66633415222168,0.717101871967316,5.31944513320923,0.247437030076981,0.288404554128647,0.71031928062439,3.55245041847229,8.46712207794189,5.51095199584961,2.05623841285706,8.16257858276367,0.219127386808395,0.27979239821434,0.758557379245758,0.081822045147419,0.221998795866966,1.27634513378143,1.5605845451355,2012-01-24 15:24:14
1.01300001144409,52,-0.499384790658951,0.109933122992516,0.148810312151909,0.391511619091034,0.128631308674812,0.606877624988556,0.978792786598206,0.216841220855713,5.08512496948242,0.0828342586755753,0.0992747247219086,0.23007906973362,0.97982919216156,1.50209319591522,0.556755602359772,0.234384119510651,8.4356050491333,0.111035533249378,0.138833984732628,0.286278307437897,0.578082740306854,0.720365345478058,0.327933758497238,2.92520260810852,2012-01-24 15:24:15
1.00699996948242,45,-0.513868451118469,0.044369637966156,0.0561030246317387,0.162790358066559,0.0776813998818398,0.0517442487180233,0.207518264651299,0.0884695798158646,4.94538450241089,0.0536387525498867,0.0670757964253426,0.163879826664925,0.575157821178436,0.753762304782867,0.327621191740036,0.178510189056396,8.4095287322998,0.10794560611248,0.129020914435387,0.270009309053421,0.0704976543784142,0.336069405078888,0.415940880775452,1.7630443572998,2012-01-24 15:24:16
1.01200008392334,41,-0.434362828731537,0.109815806150436,0.12692853808403,0.232489347457886,0.36857882142067,0.65851366519928,2.28804564476013,0.367453426122665,4.83611345291138,0.0586649179458618,0.0729233026504517,0.207374557852745,0.114471338689327,0.148461624979973,0.282016098499298,0.389204442501068,8.43634986877441,0.124551892280579,0.151924207806587,0.326250016689301,0.030797241255641,0.239389225840569,1.78781235218048,1.25143957138062,2012-01-24 15:24:17
1.02600002288818,50,-0.455420821905136,0.104342751204967,0.121367499232292,0.221238002181053,1.36806654930115,2.21924757957458,0.504266977310181,0.754016935825348,4.78329133987427,0.0620721280574799,0.074776828289032,0.16906675696373,0.030227143317461,0.0809389054775238,0.155538707971573,0.245579481124878,8.61278820037842,0.0909980610013008,0.112324804067612,0.291649848222733,0.0381430648267269,0.566471636295319,1.12218117713928,0.454254746437073,2012-01-24 15:24:18
