"diffSecs","level","azimuth.mean","azimuth.absolute.deviation","azimuth.standard.deviation","azimuth.max.deviation","pitch.mean","pitch.absolute.deviation","pitch.standard.deviation","pitch.max.deviation","roll.mean","roll.absolute.deviation","roll.standard.deviation","roll.max.deviation","time"
1.00699996948242,20,-15.2800006866455,1.10800015926361,1.20813930034637,1.67999994754791,8.94000053405762,0.279999911785126,0.303973615169525,0.539999485015869,-40.1350021362305,0.321999728679657,0.365068286657333,0.564999580383301,2012-02-22 10:56:41
1.01900005340576,40,-16.4775009155273,0.759750068187714,0.809162437915802,1.27750051021576,8.13749980926514,0.538749992847443,0.586808145046234,0.962500274181366,-39.4825019836426,0.290999829769135,0.347769558429718,0.682501614093781,2012-02-22 10:56:42
1.2409999370575,31,-16.1935482025146,0.650988698005676,0.737885236740112,1.20645093917847,8.41612911224365,0.396253913640976,0.462877988815308,0.816129386425018,-39.5451622009277,0.240790382027626,0.267410844564438,0.545161724090576,2012-02-22 10:56:43
1.00400018692017,49,-17.5571422576904,2.15743446350098,2.87806630134583,8.04285717010498,10.8530616760254,2.98742198944092,3.62007451057434,7.94693994522095,-38.5204086303711,1.15143704414368,1.39649415016174,3.3204083442688,2012-02-22 10:56:44
1.00999999046326,49,-16.4306125640869,11.090295791626,12.1727571487427,22.2306118011475,17.1346950531006,4.38875484466553,4.88891077041626,8.03469371795654,-37.2632675170898,3.43406915664673,3.69006896018982,5.53673362731934,2012-02-22 10:56:45
1.01199984550476,34,10.326470375061,1.53823530673981,1.79038429260254,3.6264705657959,14.25,3.40000009536743,3.94702053070068,6.55000019073486,-40.8323516845703,1.01470553874969,1.10579204559326,1.83235359191895,2012-02-22 10:56:46
1.02500009536743,43,23.2302322387695,7.23558712005615,7.71740818023682,10.5302333831787,21.0883731842041,0.835478603839874,1.08160281181335,3.41162729263306,-32.0069770812988,5.39221239089966,5.90366077423096,9.50697708129883,2012-02-22 10:56:47
1.02500009536743,44,41.0159111022949,5.5881199836731,6.29151487350464,10.2159080505371,3.48863649368286,17.0159091949463,18.2402191162109,23.2886371612549,-4.77045440673828,14.0990705490112,15.7167768478394,26.7704544067383,2012-02-22 10:56:48
1.17399978637695,43,39.9139556884766,1.47279632091522,1.68102705478668,2.91395425796509,-24.7093029022217,1.09442949295044,1.50901389122009,4.70930290222168,16.3441867828369,8.19718742370605,8.86745548248291,15.7441864013672,2012-02-22 10:56:49
1.01500010490417,44,42.7000007629395,0.772727191448212,0.91403192281723,1.5999983549118,-20.1000003814697,0.813636302947998,1.08040392398834,2.5,-3.27272725105286,2.73966956138611,3.1497015953064,5.97272729873657,2012-02-22 10:56:50
1.12199997901917,47,41.1425552368164,0.996740639209747,1.3738819360733,3.94255328178406,-23.1574478149414,1.93354463577271,2.60619115829468,7.44255352020264,6.26382970809937,6.50928020477295,6.91302871704102,10.4638299942017,2012-02-22 10:56:51
1.2039999961853,38,27.7578945159912,5.73988914489746,6.65474224090576,17.3578948974609,-37.0973701477051,3.34487533569336,3.62262535095215,6.3026328086853,19.8657894134521,4.03268718719482,4.92636728286743,9.96578979492188,2012-02-22 10:56:52
1.01900005340576,52,-29.9480781555176,7.58173084259033,10.5517311096191,36.3480758666992,-30.6846160888672,5.13254451751709,6.40169429779053,14.4153861999512,28.1750011444092,1.13269245624542,1.59009873867035,4.77500057220459,2012-02-22 10:56:53
1.53399991989136,17,-38.5529403686523,0.261592090129852,0.358292788267136,0.852941393852234,-26.81764793396,0.277508646249771,0.334726274013519,0.717647075653076,24.5411777496338,1.15432524681091,1.34604382514954,2.55882358551025,2012-02-22 10:56:55
1.17400002479553,59,-38.0932197570801,0.910370528697968,1.06067848205566,2.30678057670593,-28.4830513000488,0.67210578918457,0.835474610328674,1.58305156230927,23.9135589599609,1.58236134052277,1.70427751541138,2.6135585308075,2012-02-22 10:56:56
1.01900005340576,35,-37.6485710144043,0.15559159219265,0.199100032448769,0.551428437232971,-27.7828578948975,0.158693611621857,0.246675685048103,1.18285691738129,24.502857208252,0.37485733628273,0.434567719697952,0.60285758972168,2012-02-22 10:56:57
1.02099990844727,52,-37.5480766296387,0.432840406894684,0.533309876918793,1.24807846546173,-28.2134628295898,0.817825376987457,0.95515364408493,2.01346111297607,22.3788471221924,1.00170123577118,1.15747356414795,2.42115449905396,2012-02-22 10:56:58
1.00100016593933,44,-35.5136375427246,1.6130166053772,1.71697282791138,2.51363682746887,-32.9977264404297,1.80702483654022,2.05509209632874,3.29772710800171,18.3227272033691,1.67169415950775,1.91511499881744,3.1772723197937,2012-02-22 10:56:59
1.01899981498718,45,-33.168888092041,0.354568034410477,0.431443482637405,0.868890464305878,-37.3199996948242,0.99911105632782,1.37365674972534,3.82000088691711,11.4688892364502,2.39930868148804,2.92626595497131,8.13111114501953,2012-02-22 10:57:00
1.00100016593933,40,-32.5924987792969,0.490250080823898,0.612122178077698,1.40749943256378,-39.0125007629395,0.634374916553497,0.716305434703827,1.31250035762787,4.99749994277954,2.69262504577637,3.17415261268616,5.60250043869019,2012-02-22 10:57:01
1.01399993896484,41,-34.1292686462402,0.192980200052261,0.242189139127731,0.570731639862061,-37.5975608825684,0.202617853879929,0.253259629011154,0.502440452575684,3.03902435302734,0.567638337612152,0.719036638736725,1.66097581386566,2012-02-22 10:57:02
1.05099987983704,32,-35.1593780517578,0.290624856948853,0.380673229694366,0.959375381469727,-37.1531257629395,0.183984309434891,0.222183153033257,0.453124761581421,2.49062514305115,0.167968764901161,0.22410848736763,0.590625107288361,2012-02-22 10:57:03
1.04400014877319,53,-36.2735862731934,1.49818432331085,1.79192638397217,3.62641596794128,-35.9339637756348,1.60804581642151,1.86212956905365,3.73396229743958,3.89056611061096,0.983908891677856,1.14236831665039,2.29056620597839,2012-02-22 10:57:04
1.03699994087219,19,-34.7210540771484,2.04764604568481,2.34107065200806,4.87894868850708,-37.5736846923828,1.90692543983459,2.25010943412781,4.67368364334106,0.684210538864136,0.347922444343567,0.433180600404739,0.815789461135864,2012-02-22 10:57:05
1.00600004196167,56,-35.2374992370605,2.21875,2.53522086143494,3.96250009536743,-36.6839294433594,2.54693865776062,2.80304527282715,4.28392791748047,0.550000011920929,1.84821426868439,2.20559358596802,4.15000009536743,2012-02-22 10:57:06
1.18799996376038,44,-36.8931846618652,2.32561993598938,2.56438899040222,3.89318299293518,-35.2886390686035,2.44266510009766,2.71227979660034,4.28863716125488,5.23636388778687,1.70000004768372,2.0426242351532,3.6636369228363,2012-02-22 10:57:07
1.0220000743866,50,-35.0839996337891,3.03344011306763,3.62714004516602,6.31600093841553,-37.5940017700195,3.03096008300781,3.40161180496216,5.79399967193604,1.33399999141693,4.23264026641846,4.6090612411499,7.63400030136108,2012-02-22 10:57:09
1.0149998664856,39,-35.7717971801758,3.06351089477539,3.7285418510437,6.22820472717285,-36.8692321777344,3.07850122451782,3.66138243675232,6.36923170089722,-2.14615392684937,1.34201180934906,1.51536512374878,2.84615397453308,2012-02-22 10:57:10
1.01300001144409,44,-38.8113632202148,3.14266514778137,3.46575546264648,5.31136417388916,-31.5772724151611,4.15805816650391,4.48147010803223,6.622727394104,-6.74545478820801,1.28347110748291,1.59978044033051,3.34545469284058,2012-02-22 10:57:11
1.0090000629425,37,-37.624324798584,2.6223521232605,3.04670000076294,4.62432527542114,-33.1864891052246,2.99590945243835,3.58737754821777,5.68648719787598,-4.47027015686035,1.25814461708069,1.73857116699219,4.62973022460938,2012-02-22 10:57:12
1.01399993896484,44,-34.2750015258789,2.12499976158142,2.56392121315002,5.22499895095825,-36.3136367797852,2.0435950756073,2.37549901008606,5.41363716125488,-3.686363697052,1.96280992031097,2.44675946235657,6.686363697052,2012-02-22 10:57:13
1.29299998283386,49,-33.5816345214844,3.43765115737915,4.05481195449829,6.31836795806885,-37.365306854248,3.03398585319519,3.58190178871155,5.66530656814575,6.47142887115479,2.76443147659302,3.4362416267395,7.12857151031494,2012-02-22 10:57:14
1.04299998283386,48,-33.9333343505859,2.9236114025116,3.32905983924866,5.53333425521851,-35.4458351135254,2.31215262413025,2.5944619178772,4.35416507720947,12.4250001907349,2.26458334922791,3.09976482391357,7.42500019073486,2012-02-22 10:57:15
1.007000207901,49,-33.5224494934082,2.39933371543884,2.68474650382996,4.5224494934082,-32.9979591369629,2.29187870025635,2.76800179481506,4.60204219818115,16.2081642150879,2.54102468490601,2.95343732833862,5.5081639289856,2012-02-22 10:57:16
1.00799989700317,40,-36.9300003051758,3.23950004577637,3.5781421661377,5.27000045776367,-23.0799999237061,4.43499994277954,5.19486284255981,10.7800006866455,22.8250007629395,1.82874989509583,2.14845871925354,4.37500047683716,2012-02-22 10:57:17
1.1340000629425,27,-44.0148162841797,0.752812027931213,0.873775720596313,1.71481621265411,-10.8629627227783,0.773662447929382,0.856845200061798,1.46296262741089,21.3703708648682,0.867763996124268,1.04414236545563,2.22962951660156,2012-02-22 10:57:18
1.00300002098083,49,-46.2061233520508,0.439650058746338,0.597412049770355,1.50612246990204,-6.91428565979004,0.783090353012085,0.909586071968079,1.78571403026581,16.6755104064941,1.48304891586304,1.72609400749207,3.37551045417786,2012-02-22 10:57:19
1.01099991798401,37,-46.6702690124512,0.543023943901062,0.622056007385254,1.12972831726074,-3.83783793449402,2.00701236724854,2.25692343711853,3.93783783912659,16.3513507843018,1.63067936897278,1.83871603012085,3.25135135650635,2012-02-22 10:57:20
1.00399994850159,43,-45.7999992370605,0.739535093307495,0.931115925312042,2.10000085830688,-7.80232572555542,0.886317014694214,0.999881088733673,1.60232543945312,18.0511627197266,3.12201189994812,3.57948756217957,5.34883642196655,2012-02-22 10:57:21
1.00099992752075,35,-44.2657165527344,0.425959140062332,0.491611182689667,0.86571329832077,-7.62285709381104,0.677061259746552,0.759355247020721,1.4771431684494,22.7200012207031,0.478857219219208,0.532272815704346,0.919999122619629,2012-02-22 10:57:22
1.01500010490417,40,-44.4300003051758,0.206499889492989,0.244130969047546,0.529999375343323,-9.72000026702881,0.37799996137619,0.440567761659622,0.779999792575836,23.6625003814697,0.148125231266022,0.186664894223213,0.462499797344208,2012-02-22 10:57:23
1.01399993896484,46,-44.045654296875,0.265784710645676,0.345597475767136,0.94565087556839,-10.491304397583,0.181285366415977,0.229200914502144,0.591304004192352,23.1869564056396,0.208884656429291,0.263429284095764,0.58695662021637,2012-02-22 10:57:24
1.01900005340576,44,-44.4795455932617,0.438739806413651,0.509268581867218,0.92045521736145,-8.98409080505371,0.319938004016876,0.404488056898117,0.915909469127655,23.236364364624,0.190495908260345,0.218560293316841,0.46363690495491,2012-02-22 10:57:25
1.00600004196167,37,-45.8324317932129,0.516289532184601,0.599573850631714,1.03243410587311,-12.0864868164062,1.57355737686157,1.72315895557404,2.78648662567139,19.3378391265869,2.45580720901489,2.71007657051086,3.96216297149658,2012-02-22 10:57:26
1.0090000629425,40,-44.0925025939941,0.32212495803833,0.4014892578125,1.00750136375427,-14.9949998855591,1.13275003433228,1.33321988582611,3.10500001907349,22.5450000762939,1.12825000286102,1.32362198829651,2.94500017166138,2012-02-22 10:57:27
1.00099992752075,47,-44.2404251098633,1.29823434352875,1.42480432987213,2.14042401313782,-16.2723407745361,1.51878690719604,1.66678476333618,2.67234039306641,21.5106391906738,3.08320498466492,3.27805304527283,4.51063871383667,2012-02-22 10:57:28
1.01399993896484,38,-43.6421051025391,0.579778254032135,0.656798899173737,1.24210453033447,-17.4736843109131,0.281717360019684,0.344646334648132,0.773683965206146,21.5078945159912,1.48365652561188,1.69633996486664,3.19210577011108,2012-02-22 10:57:29
1.01800012588501,34,-43.3647079467773,0.229758009314537,0.301839798688889,0.864706516265869,-16.6470584869385,0.89169579744339,1.07655107975006,2.14705920219421,23.3735294342041,1.33823525905609,1.61524152755737,2.87352967262268,2012-02-22 10:57:30
1.01999998092651,34,-42.955883026123,0.547404706478119,0.606431603431702,0.955883383750916,-17.4823532104492,0.43356391787529,0.573672592639923,1.91764640808105,22.970588684082,0.612456738948822,0.698118984699249,1.32941246032715,2012-02-22 10:57:31
1.02900004386902,43,-42.2372093200684,0.285775780677795,0.353732913732529,0.837208330631256,-19.0069770812988,0.716820120811462,0.937685310840607,2.10697746276855,23.8023262023926,0.532395780086517,0.60443639755249,1.10232520103455,2012-02-22 10:57:32
1,44,-42.5227279663086,0.376860052347183,0.431627303361893,0.722728908061981,-16.259090423584,1.89111578464508,2.22805643081665,3.85909056663513,24.1818180084229,1.18884313106537,1.44776833057404,2.31818151473999,2012-02-22 10:57:33
1.01699995994568,38,-41.6157913208008,0.22520749270916,0.278649300336838,0.684209048748016,-17.9921054840088,1.60914123058319,1.84852457046509,4.0921049118042,24.4789485931396,0.581994414329529,0.630437552928925,1.1210526227951,2012-02-22 10:57:34
1.0149998664856,37,-41.1270294189453,0.52797657251358,0.606117010116577,1.07297277450562,-18.7459468841553,1.44338917732239,1.62474000453949,2.94594621658325,24.7162170410156,0.512198746204376,0.647453844547272,1.5162159204483,2012-02-22 10:57:35
1.00500011444092,31,-41.609676361084,0.297606647014618,0.387177586555481,0.990324556827545,-18.7129039764404,0.482622236013412,0.536861717700958,0.912902593612671,23.6290321350098,0.783974826335907,0.879953503608704,1.57096791267395,2012-02-22 10:57:36
1.22000002861023,53,-41.9566040039062,0.476041227579117,0.547553479671478,1.05660319328308,-17.5377368927002,1.09925246238708,1.46831011772156,3.13773584365845,24.3886795043945,0.663082838058472,0.73475968837738,1.21132063865662,2012-02-22 10:57:37
1.24799990653992,49,-41.1571426391602,0.238483771681786,0.278479814529419,0.642855525016785,-18.2857151031494,1.06297373771667,1.31008648872375,2.58571481704712,25.3816337585449,1.01357769966125,1.17502462863922,2.08163189888,2012-02-22 10:57:39
1.00399994850159,51,-42.029411315918,0.452364563941956,0.511933743953705,0.870588839054108,-16.9568634033203,1.74094581604004,1.91989123821259,2.95686316490173,25.268627166748,0.809150397777557,1.02316129207611,1.83137261867523,2012-02-22 10:57:40
1.00100016593933,36,-41.2250022888184,0.786110997200012,0.87253612279892,1.42500138282776,-19.6694450378418,1.93395066261292,2.1506872177124,3.96944499015808,24.3027782440186,0.725771546363831,0.894888460636139,1.8972225189209,2012-02-22 10:57:41
1.00099992752075,40,-41.7849998474121,0.546499907970428,0.635826170444489,1.38499927520752,-17.3900012969971,1.68099999427795,2.0211136341095,4.8100004196167,25.1625003814697,1.00187504291534,1.11415612697601,1.9375,2012-02-22 10:57:42
1.0149998664856,41,-42.7292709350586,0.17858399450779,0.222232267260551,0.570729792118073,-15.8853664398193,0.1557407528162,0.184207037091255,0.385366082191467,24.0609760284424,0.148126244544983,0.173736706376076,0.360975444316864,2012-02-22 10:57:43
1.01500010490417,45,-42.397777557373,0.517926037311554,0.570570409297943,0.997776806354523,-16.9311103820801,0.980938196182251,1.06871092319489,1.66888904571533,24.2111110687256,0.311604768037796,0.359148353338242,0.711111426353455,2012-02-22 10:57:44
1.16599988937378,43,-43.069766998291,0.742996454238892,0.921458721160889,1.9302316904068,-16.0162792205811,1.54991900920868,1.7370023727417,2.88372039794922,24.44651222229,1.04672789573669,1.25241136550903,3.14651107788086,2012-02-22 10:57:45
1.01900005340576,44,-44.6863632202148,0.384917229413986,0.492023289203644,1.28636336326599,-9.83863639831543,0.952376008033752,1.31273758411407,3.76136374473572,24.0977268218994,1.13440084457397,1.37204039096832,2.89772701263428,2012-02-22 10:57:46
1.05599999427795,24,-44.5208358764648,0.114236555993557,0.135336697101593,0.320833683013916,-8.9375,0.190624997019768,0.232401475310326,0.56249988079071,25.3208332061768,0.136110782623291,0.177902460098267,0.479167222976685,2012-02-22 10:57:47
1.0090000629425,54,-42.7574081420898,1.38758587837219,1.59752154350281,3.24259209632874,-16.8481483459473,2.76515793800354,3.41531085968018,7.94814777374268,22.4833335876465,1.48209869861603,1.7705146074295,3.38333344459534,2012-02-22 10:57:48
1.08200001716614,37,-43.5135154724121,1.16274654865265,1.29221403598785,2.18648672103882,-15.5945949554443,1.4007306098938,1.50062084197998,2.49459457397461,23.3054065704346,1.18787443637848,1.35605680942535,3.30540585517883,2012-02-22 10:57:49
1.02600002288818,53,-42.2245292663574,0.537201821804047,0.63183057308197,1.0754702091217,-17.5698108673096,0.551156938076019,0.617232024669647,1.16981184482574,24.3037738800049,0.449127703905106,0.566006243228912,1.50377285480499,2012-02-22 10:57:50
1.0019998550415,33,-42.3575782775879,0.790082395076752,0.821318089962006,1.24242568016052,-18.6848487854004,0.807713508605957,0.88115668296814,1.31515121459961,23.2606067657471,0.531680524349213,0.605499923229218,1.03939473628998,2012-02-22 10:57:51
1.07100009918213,44,-42.125,0.273863583803177,0.37666317820549,0.975001335144043,-17.72727394104,0.673140585422516,0.809142053127289,1.57272791862488,24.7659091949463,0.469008177518845,0.532977521419525,0.965908229351044,2012-02-22 10:57:52
1.00099992752075,41,-41.2999992370605,0.331707537174225,0.38886970281601,0.89999920129776,-18.6731719970703,0.464842259883881,0.527776777744293,1.02682960033417,24.2268295288086,0.411540806293488,0.458004415035248,1.02682900428772,2012-02-22 10:57:53
1.00800013542175,44,-41.125,0.504545629024506,0.618328332901001,1.42500007152557,-19.7250003814697,0.740908980369568,0.824104070663452,1.17499911785126,24.2431831359863,0.455578595399857,0.536994159221649,1.05681896209717,2012-02-22 10:57:54
1.2279999256134,46,-41.7760887145996,0.163893714547157,0.193575650453568,0.423913031816483,-18.723913192749,0.63241970539093,0.803574919700623,1.87608695030212,24.3826084136963,0.293005555868149,0.346601098775864,0.682608425617218,2012-02-22 10:57:55
1.00500011444092,49,-41.9530639648438,0.30212414264679,0.410625457763672,1.25306129455566,-18.0040817260742,0.473885953426361,0.533360302448273,0.904081761837006,24.6489791870117,0.215493574738503,0.267354607582092,0.648980021476746,2012-02-22 10:57:56
1.0019998550415,40,-41.6025009155273,0.167999729514122,0.212705731391907,0.502498507499695,-19.2200012207031,0.782000005245209,0.911372601985931,1.72000050544739,24.3500003814697,0.1574996560812,0.189736589789391,0.450000703334808,2012-02-22 10:57:57
1.04500007629395,37,-41.8783798217773,0.261213004589081,0.333803087472916,0.721623301506042,-17.6540546417236,0.665887594223022,0.757519006729126,1.5459463596344,25.1621627807617,0.209934413433075,0.26339915394783,0.562162339687347,2012-02-22 10:57:58
1.02600002288818,36,-41.7999992370605,0.166667178273201,0.241523206233978,0.600001215934753,-19.2749996185303,1.01944446563721,1.10160863399506,1.97499918937683,23.9055557250977,0.598148226737976,0.743095874786377,1.50555622577667,2012-02-22 10:57:59
1.24399995803833,54,-42.216667175293,0.419135689735413,0.530460953712463,1.51666665077209,-18.2351856231689,0.404664009809494,0.553158462047577,1.46481513977051,24.0111122131348,0.244444593787193,0.349426418542862,1.08888900279999,2012-02-22 10:58:01
1.00600004196167,43,-41.1558151245117,0.28025957942009,0.355228453874588,0.855815291404724,-20.9534893035889,0.660897791385651,0.800101459026337,1.75348794460297,23.109302520752,0.364737689495087,0.417530924081802,0.790696918964386,2012-02-22 10:58:02
1.00099992752075,48,-41.8791656494141,0.190972477197647,0.25897091627121,0.679166376590729,-18.6354179382324,0.548177123069763,0.657485604286194,1.43541634082794,24.5187511444092,0.231250166893005,0.290585845708847,0.718749165534973,2012-02-22 10:58:03
1.00300002098083,31,-44.067741394043,0.699687898159027,0.804979145526886,1.46774017810822,-11.1322584152222,3.78376698493958,4.05282783508301,5.66774272918701,23.8709678649902,0.737148821353912,1.09638512134552,3.37096834182739,2012-02-22 10:58:04
1.00500011444092,44,-44.1863632202148,0.357231378555298,0.428311318159103,0.913637936115265,-7.88863658905029,1.07551658153534,1.20872139930725,2.188636302948,25.6795463562012,0.291322410106659,0.347444891929626,0.720453798770905,2012-02-22 10:58:05
1.0259997844696,31,-44.1838722229004,0.208116188645363,0.295227408409119,0.716129660606384,-3.14193558692932,1.13631629943848,1.3860536813736,2.35806441307068,27.7387104034424,0.518834471702576,0.654353737831116,1.53870928287506,2012-02-22 10:58:06
1.01400017738342,51,-42.2156867980957,0.515263199806213,0.628528475761414,1.28431308269501,2.06078433990479,0.547789335250854,0.846232354640961,2.7607843875885,30.4450988769531,0.527335643768311,0.654490828514099,1.44509840011597,2012-02-22 10:58:07
1.18099999427795,45,-41.5844459533691,0.19506199657917,0.230897411704063,0.415554732084274,2.35333347320557,0.184888884425163,0.224697321653366,0.446666568517685,31.8533344268799,0.119110748171806,0.142361015081406,0.353333920240402,2012-02-22 10:58:08
1.01099991798401,50,-41.5060005187988,0.201280266046524,0.240341424942017,0.70600152015686,2.65000009536743,0.117999970912933,0.140356674790382,0.350000083446503,31.7960014343262,0.0577599853277206,0.0823647305369377,0.203999295830727,2012-02-22 10:58:09
1.00200009346008,39,-41.4076919555664,0.248520657420158,0.284095048904419,0.507691383361816,2.03846168518066,0.274161756038666,0.312652319669724,0.538461565971375,31.851282119751,0.0756074860692024,0.0873296931385994,0.151281654834747,2012-02-22 10:58:10
1.01699995994568,33,-41.6303024291992,0.227548182010651,0.269100457429886,0.730302274227142,1.67878794670105,0.0993572175502777,0.122493229806423,0.321212083101273,31.8515148162842,0.119558736681938,0.157866671681404,0.448483794927597,2012-02-22 10:58:11
1.11699986457825,41,-41.5365867614746,0.22236804664135,0.290295362472534,0.636584877967834,1.6951220035553,0.128138020634651,0.159191891551018,0.295121997594833,31.9487819671631,0.120523929595947,0.138144716620445,0.251219540834427,2012-02-22 10:58:12
1.01300001144409,47,-41.5936164855957,0.192485496401787,0.286136507987976,0.893617212772369,1.80212771892548,0.0924400016665459,0.131261244416237,0.397872358560562,31.665958404541,0.138343438506126,0.172930657863617,0.465957224369049,2012-02-22 10:58:13
1.01200008392334,40,-41.2999992370605,0.160000383853912,0.208566650748253,0.49999874830246,1.78250002861023,0.118374988436699,0.13763627409935,0.282500028610229,32.0100021362305,0.134500652551651,0.165529698133469,0.410000711679459,2012-02-22 10:58:14
1.11100006103516,35,-40.8085708618164,0.206367373466492,0.243041813373566,0.508572936058044,1.89714288711548,0.0723265036940575,0.0970587879419327,0.202857255935669,31.9085712432861,0.151183947920799,0.181062877178192,0.308571636676788,2012-02-22 10:58:15
1.01300001144409,48,-40.8875007629395,0.311458557844162,0.382766753435135,0.787498235702515,1.88125002384186,0.123697899281979,0.148121938109398,0.318749994039536,31.7541675567627,0.116666711866856,0.148546263575554,0.354167610406876,2012-02-22 10:58:16
1.00799989700317,36,-40.4861106872559,0.279629677534103,0.341689318418503,0.786110997200012,2.15000009536743,0.158333301544189,0.196497097611427,0.450000107288361,32.5722236633301,0.120370931923389,0.152043893933296,0.372222363948822,2012-02-22 10:58:17
1.28399991989136,44,-40.9977264404297,0.111983843147755,0.133975923061371,0.2977274954319,2.13181829452515,0.130165278911591,0.150412648916245,0.331818133592606,32.375,0.19318214058876,0.246912926435471,0.574999749660492,2012-02-22 10:58:19
1.01300001144409,47,-40.4914894104004,0.40443629026413,0.43799814581871,0.79148930311203,2.3510639667511,0.101222313940525,0.120057351887226,0.248936280608177,32.1340446472168,0.161068230867386,0.201353669166565,0.465958952903748,2012-02-22 10:58:20
1.00500011444092,44,-40.4681816101074,0.45413213968277,0.547213017940521,1.26818192005157,2.07045459747314,0.318078517913818,0.371470987796783,0.870454549789429,32.5204544067383,0.102376349270344,0.121691666543484,0.279543608427048,2012-02-22 10:58:21
1.01799988746643,45,-40.1422233581543,0.377184897661209,0.460670441389084,0.942222595214844,1.6777777671814,0.223209902644157,0.259819537401199,0.522222220897675,32.6111106872559,0.269135892391205,0.322643667459488,0.611111879348755,2012-02-22 10:58:22
1.00800013542175,39,-40.8923072814941,0.202761501073837,0.235757932066917,0.492306739091873,1.68461537361145,0.37396451830864,0.430586040019989,0.815384566783905,32.4538459777832,0.285601198673248,0.310372620820999,0.553847014904022,2012-02-22 10:58:23
1.00600004196167,47,-41.151065826416,0.398913145065308,0.472148478031158,0.948937594890594,1.26808512210846,0.188682675361633,0.238886058330536,0.531914949417114,31.8531913757324,0.190221786499023,0.22677318751812,0.453192412853241,2012-02-22 10:58:24
1.00099992752075,29,-41.4103469848633,0.183828547596931,0.220257967710495,0.410345673561096,0.896551728248596,0.174791932106018,0.205917239189148,0.403448313474655,32.1724128723145,0.0994049161672592,0.117139607667923,0.227586939930916,2012-02-22 10:58:25
1.00999999046326,50,-41.0279998779297,0.299519926309586,0.356673240661621,0.927998661994934,1.31200003623962,0.146879971027374,0.189356803894043,0.512000024318695,32.3959999084473,0.152320489287376,0.183259561657906,0.403998404741287,2012-02-22 10:58:26
1.01200008392334,39,-40.5846176147461,0.254832625389099,0.326236367225647,0.784616708755493,0.958974361419678,0.191978976130486,0.227266877889633,0.558974385261536,32.8102569580078,0.120841786265373,0.148142009973526,0.310256958007812,2012-02-22 10:58:27
1.00799989700317,44,-41.5409088134766,0.728512585163116,0.87628310918808,1.65909099578857,0.265909105539322,0.541735529899597,0.663305521011353,1.765909075737,31.5,1.11363661289215,1.28222131729126,2.50000047683716,2012-02-22 10:58:28
1.01099991798401,34,-44.1941184997559,0.576470673084259,0.670794725418091,1.20588314533234,-2.80294132232666,0.726124584674835,0.89819598197937,2.40294122695923,26.8882350921631,1.36020743846893,1.58814787864685,3.08823466300964,2012-02-22 10:58:29
1.06599998474121,39,-45.3384628295898,0.625641345977783,0.72416740655899,1.33846235275269,0.384615391492844,0.957790970802307,1.06012547016144,1.78461539745331,24.3435897827148,1.18921756744385,1.37743616104126,2.7564103603363,2012-02-22 10:58:30
1.01500010490417,49,-44.9714279174805,0.506122171878815,0.611455082893372,1.1714301109314,-0.310204088687897,0.615326941013336,0.773342847824097,1.81020414829254,25.4408168792725,0.978758811950684,1.12120890617371,1.95918297767639,2012-02-22 10:58:31
1.0090000629425,35,-44.5685729980469,0.230204343795776,0.295462250709534,0.668570697307587,3.79714298248291,0.928979575634003,1.11059463024139,2.19714283943176,25.831428527832,0.192652866244316,0.223953381180763,0.468572407960892,2012-02-22 10:58:32
1.01399993896484,40,-44.6175003051758,0.170999646186829,0.209627583622932,0.482501417398453,5.4850001335144,0.347249984741211,0.400343596935272,0.784999787807465,25.3924999237061,0.193249747157097,0.226260304450989,0.507499217987061,2012-02-22 10:58:33
1.00600004196167,38,-44.2000007629395,0.184210121631622,0.233958929777145,0.599998474121094,5.78157901763916,0.0916897282004356,0.121081210672855,0.281579107046127,25.4052639007568,0.15457059442997,0.195942088961601,0.494735956192017,2012-02-22 10:58:34
1,44,-44.625,0.406818389892578,0.460792511701584,0.924999952316284,6.02727270126343,0.154545456171036,0.180105566978455,0.372727245092392,25.9136371612549,0.22851251065731,0.265938341617584,0.586363255977631,2012-02-22 10:58:35
1.00600004196167,39,-44.730770111084,0.152662336826324,0.184187486767769,0.369232088327408,6.10512828826904,0.1445102840662,0.179670259356499,0.394871711730957,25.9076919555664,0.203550279140472,0.259570330381393,0.592307388782501,2012-02-22 10:58:36
1.01099991798401,42,-44.7928581237793,0.282312631607056,0.331226229667664,0.607143580913544,6.20000028610229,0.166666746139526,0.192724838852882,0.399999856948853,26.1928577423096,0.217687085270882,0.2603959441185,0.592857182025909,2012-02-22 10:58:37
1.00999999046326,32,-44.8687515258789,0.176953598856926,0.225606918334961,0.568751573562622,6.046875,0.138085931539536,0.163906186819077,0.346874833106995,26.0031261444092,0.25976574420929,0.319652587175369,0.6968754529953,2012-02-22 10:58:38
1.01600003242493,51,-44.6647071838379,0.225836098194122,0.277823328971863,0.664706110954285,6.1235294342041,0.12964254617691,0.162804186344147,0.476470410823822,26.0078430175781,0.213456496596336,0.272132575511932,0.69215726852417,2012-02-22 10:58:39
1.01699995994568,44,-44.606819152832,0.176859259605408,0.221972227096558,0.593181848526001,5.872727394104,0.0925619229674339,0.117480374872684,0.272727459669113,25.6954555511475,0.222934067249298,0.277942657470703,0.595454454421997,2012-02-22 10:58:40
1.01800012588501,49,-44.1591835021973,0.213077753782272,0.277686208486557,0.740816950798035,5.84693908691406,0.170095756649971,0.204142853617668,0.45306134223938,25.4020404815674,0.243481859564781,0.296572089195251,0.597958743572235,2012-02-22 10:58:41
1.01199984550476,34,-43.8852958679199,0.219896286725998,0.257969975471497,0.48529377579689,6.05000019073486,0.123529426753521,0.146025806665421,0.349999815225601,25.4764709472656,0.255709409713745,0.312540709972382,0.67646986246109,2012-02-22 10:58:42
1.01399993896484,41,-44.0170745849609,0.192266896367073,0.240834310650826,0.617072522640228,5.96585369110107,0.111362226307392,0.131797581911087,0.334146440029144,25.22926902771,0.220226049423218,0.269818246364594,0.570732355117798,2012-02-22 10:58:43
1.01000022888184,34,-44.1117668151855,0.160899430513382,0.192146807909012,0.388234525918961,5.90294122695923,0.121107190847397,0.154320642352104,0.302941352128983,25.205883026123,0.193771600723267,0.237562492489815,0.505882024765015,2012-02-22 10:58:44
1.00899982452393,41,-44.4609756469727,0.267340779304504,0.310686022043228,0.560974776744843,5.70487833023071,0.0944676026701927,0.120873346924782,0.295121848583221,25.3634147644043,0.237001642584801,0.279159158468246,0.636584937572479,2012-02-22 10:58:45
1.00699996948242,49,-44.8020401000977,0.271386802196503,0.30337530374527,0.502042353153229,6.00204086303711,0.124864630401134,0.157129600644112,0.402040988206863,25.5265312194824,0.231153711676598,0.283401668071747,0.573469340801239,2012-02-22 10:58:46
1.01100015640259,53,-44.5792465209961,0.323816567659378,0.35573935508728,0.620754659175873,5.62641525268555,0.136347576975822,0.174994334578514,0.626415193080902,25.205659866333,0.15841943025589,0.20226563513279,0.494339972734451,2012-02-22 10:58:47
1.23399996757507,44,-45.3500022888184,0.181818589568138,0.246336922049522,0.850000619888306,5.24090909957886,0.154545471072197,0.176220670342445,0.340909093618393,25.2477283477783,0.111570321023464,0.135661050677299,0.352272540330887,2012-02-22 10:58:48
1.01200008392334,46,-45.2478256225586,0.184687882661819,0.231947556138039,0.547826111316681,5.05217409133911,0.130812868475914,0.159808501601219,0.34782612323761,25.1065216064453,0.0702271088957787,0.0941837430000305,0.206522524356842,2012-02-22 10:58:49
1.00099992752075,32,-45.2250022888184,0.307812660932541,0.362284630537033,0.725000500679016,4.99375009536743,0.125390589237213,0.159956037998199,0.40625,24.9406261444092,0.138085767626762,0.159803196787834,0.340625047683716,2012-02-22 10:58:50
1.0090000629425,40,-44.9599990844727,0.361999988555908,0.389743536710739,0.660001754760742,5.23750019073486,0.129375025629997,0.149478301405907,0.262499898672104,24.9875011444092,0.106874831020832,0.136358797550201,0.312500774860382,2012-02-22 10:58:51
1.00999999046326,41,-45.1560974121094,0.232480823993683,0.257614821195602,0.456097215414047,5.38780498504639,0.160618633031845,0.190243884921074,0.387804985046387,25.1682929992676,0.123379245400429,0.155295446515083,0.431707233190536,2012-02-22 10:58:52
1.00499987602234,47,-46.5829811096191,0.614577114582062,0.745859503746033,1.48297739028931,0.927659571170807,2.416659116745,2.76018047332764,4.62765979766846,22.5127658843994,1.36622905731201,1.57933688163757,3.1127667427063,2012-02-22 10:58:53
1.01200008392334,37,-40.8864860534668,3.26355004310608,3.93468022346497,7.21351528167725,-13.4324321746826,3.73089838027954,4.42358875274658,9.33243274688721,27.6675682067871,4.61154127120972,5.29921245574951,9.26756858825684,2012-02-22 10:58:54
1.00699996948242,33,-41.518180847168,0.313499063253403,0.393473267555237,1.21818327903748,-5.7151517868042,0.808080792427063,0.945842921733856,2.98484826087952,30.4030303955078,0.469972401857376,0.523672759532928,1.19696974754333,2012-02-22 10:58:55
1.00499987602234,41,-41.0195121765137,0.233670473098755,0.279563724994659,0.619511604309082,-4.77804899215698,0.30422368645668,0.379030972719193,0.978048861026764,31.4170742034912,0.224033325910568,0.276654660701752,0.617072463035583,2012-02-22 10:58:56
1.007000207901,43,-40.8651161193848,0.135208547115326,0.17237563431263,0.465115576982498,-3.1325581073761,0.172850176692009,0.232999578118324,0.667441785335541,31.820930480957,0.119307518005371,0.142336308956146,0.279071360826492,2012-02-22 10:58:57
1.01599979400635,49,-40.6714286804199,0.179008364677429,0.21852919459343,0.571426868438721,-2.19387769699097,0.29837566614151,0.351909190416336,0.706122517585754,32.2714309692383,0.169096052646637,0.19691513478756,0.371429711580276,2012-02-22 10:58:58
1.01600003242493,37,-40.6135139465332,0.219283863902092,0.26217594742775,0.613514125347137,-2.281081199646,0.210664719343185,0.255573391914368,0.581081092357635,32.2864875793457,0.0878009051084518,0.116624064743519,0.313515335321426,2012-02-22 10:58:59
1,39,-40.6461563110352,0.228796541690826,0.266839206218719,0.646154642105103,-1.83333337306976,0.165811955928802,0.207961216568947,0.433333396911621,32.2794876098633,0.0940167680382729,0.128461256623268,0.479486525058746,2012-02-22 10:59:00
1.01999998092651,38,-40.6236839294434,0.226731091737747,0.295077294111252,0.723683178424835,-1.34210526943207,0.109695255756378,0.144425496459007,0.457894772291183,32.3236846923828,0.138227239251137,0.159661024808884,0.376315772533417,2012-02-22 10:59:01
1.01300001144409,49,-40.4510231018066,0.235901936888695,0.28365159034729,0.551019728183746,-1.07755100727081,0.212911278009415,0.241817355155945,0.477551013231277,32.2551040649414,0.150687023997307,0.196978628635406,0.455101370811462,2012-02-22 10:59:02
1.00200009346008,40,-39.560001373291,0.201000168919563,0.240624204277992,0.540001273155212,-1.00250005722046,0.14800001680851,0.178167775273323,0.397499948740005,31.5900001525879,0.141500204801559,0.182756826281548,0.51000189781189,2012-02-22 10:59:03
1,27,-40.1148147583008,0.210150644183159,0.254883617162704,0.585185468196869,-1.47777783870697,0.247736632823944,0.315445989370346,0.677777767181396,31.6296291351318,0.300960272550583,0.394231379032135,0.870370149612427,2012-02-22 10:59:04
1.00799989700317,49,-40.1591835021973,0.279466480016708,0.412022590637207,1.15918445587158,-0.448979586362839,0.298958778381348,0.370395511388779,0.751020431518555,32.0979614257812,0.271970152854919,0.318471908569336,0.597959697246552,2012-02-22 10:59:05
1.00699996948242,38,-40.021053314209,0.288642853498459,0.345007866621017,0.778945624828339,-1.08421051502228,0.129639893770218,0.156484946608543,0.315789431333542,32.0052642822266,0.251524031162262,0.305172681808472,0.605264186859131,2012-02-22 10:59:06
1.007000207901,40,-40.2800025939941,0.202999666333199,0.244131088256836,0.480001538991928,-2.09249997138977,0.711750030517578,0.828368127346039,1.50750005245209,31.6400012969971,0.179000332951546,0.239583224058151,0.560000061988831,2012-02-22 10:59:07
1.00300002098083,48,-40.1333351135254,0.23055537045002,0.275630682706833,0.566666603088379,-2.29791665077209,0.356770843267441,0.445575296878815,0.902083337306976,32.6104164123535,0.296180188655853,0.399082005023956,1.31041646003723,2012-02-22 10:59:08
1.00599980354309,27,-40.1111106872559,0.209875881671906,0.254344522953033,0.51110965013504,-2.48518514633179,0.223045274615288,0.297774106264114,0.785185158252716,32.6888885498047,0.109464481472969,0.144870802760124,0.31111016869545,2012-02-22 10:59:09
1.00300002098083,40,-40.370002746582,0.204500287771225,0.264764159917831,0.570001602172852,-2.09000015258789,0.229000017046928,0.288790583610535,0.690000057220459,32.5100021362305,0.17500028014183,0.211896121501923,0.510000705718994,2012-02-22 10:59:10
1.04299998283386,40,-40,0.225000143051147,0.275680691003799,0.59999942779541,-1.94500005245209,0.217250004410744,0.253919273614883,0.554999947547913,32.8474998474121,0.149875104427338,0.171737298369408,0.352500140666962,2012-02-22 10:59:11
1.00200009346008,48,-39.720832824707,0.216840401291847,0.262962937355042,0.6791672706604,-1.41458332538605,0.187847226858139,0.227293491363525,0.41458335518837,33.0541687011719,0.173090398311615,0.200995728373528,0.354166507720947,2012-02-22 10:59:12
1.01799988746643,36,-39.5611114501953,0.288888722658157,0.335225939750671,0.66111034154892,-1.27222228050232,0.257098764181137,0.294024854898453,0.572222232818604,33.0972213745117,0.197839915752411,0.227896675467491,0.397222191095352,2012-02-22 10:59:13
1.00600004196167,39,-39.6564102172852,0.235765755176544,0.273435026407242,0.456410348415375,-1.33846151828766,0.207889527082443,0.252795040607452,0.538461565971375,33.0589752197266,0.124129459261894,0.154783770442009,0.341026097536087,2012-02-22 10:59:14
1.01900005340576,40,-39.4099998474121,0.296000182628632,0.345543384552002,0.690001487731934,-1.47500002384186,0.107499994337559,0.1391941010952,0.375,33.314998626709,0.0767503529787064,0.103802524507046,0.2149977684021,2012-02-22 10:59:15
1.0239999294281,41,-39.4073181152344,0.286258369684219,0.352268129587173,0.807315468788147,-1.31463420391083,0.165615692734718,0.211338341236115,0.485365897417068,33.4560966491699,0.141939207911491,0.176757648587227,0.356095939874649,2012-02-22 10:59:16
1.02300000190735,49,-41.2244911193848,1.05464398860931,1.16470742225647,2.22449064254761,-3.58571434020996,1.3183673620224,1.47274565696716,2.48571443557739,30.8530616760254,1.24839651584625,1.41494965553284,2.44693756103516,2012-02-22 10:59:17
1.04700016975403,28,-42.0964279174805,0.254336804151535,0.301759243011475,0.503572583198547,-6.1607141494751,0.220663294196129,0.252613842487335,0.460714101791382,28.9857139587402,0.311224400997162,0.366171449422836,0.685713469982147,2012-02-22 10:59:18
1.00399994850159,39,-40.3205146789551,2.02919149398804,2.18880367279053,3.7205114364624,-10.3923082351685,2.9877712726593,3.20611476898193,4.90769243240356,30.1666679382324,1.85470080375671,2.05929207801819,3.9333348274231,2012-02-22 10:59:19
1.01199984550476,43,-45.2186050415039,1.95132541656494,2.4455235004425,5.81860399246216,-6.23255825042725,3.8393726348877,4.64726591110229,9.06744194030762,22.1627902984619,2.10784220695496,2.94942045211792,7.7372088432312,2012-02-22 10:59:21
1.03400015830994,47,-46.1680870056152,0.382887899875641,0.504914820194244,1.16808569431305,-9.36382961273193,1.58542323112488,1.78091835975647,3.36382985115051,20.9404258728027,0.477863162755966,0.58370041847229,1.25957489013672,2012-02-22 10:59:22
1.00999999046326,37,-45.443244934082,0.337911128997803,0.40372633934021,0.75675642490387,-9.95945930480957,0.413440465927124,0.509615421295166,0.940540909767151,21.6945953369141,0.260189831256866,0.292191833257675,0.494594156742096,2012-02-22 10:59:23
1.36800003051758,43,-44.7395362854004,0.187452465295792,0.239320442080498,0.660466134548187,-11.5860471725464,1.60097360610962,1.71648395061493,2.38604688644409,22.304651260376,0.659924387931824,0.703464448451996,1.00465035438538,2012-02-22 10:59:24
1.01699995994568,44,-44.9295463562012,0.408987700939178,0.460523307323456,0.870453059673309,-12.6704549789429,0.612706661224365,0.695302367210388,1.17045474052429,22.6454544067383,0.176446452736855,0.212618574500084,0.454545617103577,2012-02-22 10:59:25
1.01200008392334,33,-44.2757568359375,0.546005547046661,0.647152483463287,1.27575826644897,-14.9878787994385,1.52617084980011,1.72007012367249,2.51212096214294,22.957576751709,0.343250572681427,0.376611799001694,0.757575392723083,2012-02-22 10:59:26
1.01299977302551,48,-43.877082824707,0.513281285762787,0.569809675216675,0.977082669734955,-15.685417175293,0.916406333446503,1.07218432426453,1.88541674613953,22.9854164123535,0.131944417953491,0.173192605376244,0.385416626930237,2012-02-22 10:59:27
1.11100006103516,33,-44.1303024291992,0.397795855998993,0.48957884311676,1.03030133247375,-15.6484851837158,0.953168094158173,1.09409475326538,1.84848475456238,22.2606067657471,0.172635242342949,0.207348704338074,0.460605144500732,2012-02-22 10:59:28
1.0550000667572,49,-43.8244895935059,0.572927892208099,0.642866730690002,1.22448837757111,-15.7693881988525,1.45822584629059,1.62231945991516,3.46938800811768,23.3775520324707,0.310037344694138,0.386647254228592,0.977551996707916,2012-02-22 10:59:29
1.00600004196167,46,-45.0586967468262,0.341587960720062,0.404096513986588,1.0586963891983,-12.3173913955688,0.663137972354889,0.852694988250732,2.38260817527771,22.9130439758301,0.178449854254723,0.241020113229752,0.78695684671402,2012-02-22 10:59:30
1.125,37,-43.5648651123047,0.142586380243301,0.190612450242043,0.435134172439575,-16.5081081390381,0.531336903572083,0.671576857566833,1.70810830593109,23.5891895294189,0.217677280306816,0.254456281661987,0.610811054706573,2012-02-22 10:59:31
1.00899982452393,50,-44.1160011291504,0.561280131340027,0.650033891201019,1.28400075435638,-13.71399974823,1.56936001777649,1.7986673116684,3.28599977493286,23.6200008392334,0.32399982213974,0.349284768104553,0.520000040531158,2012-02-22 10:59:32
1.09500002861023,41,-43.4853668212891,0.621296763420105,0.741968512535095,1.38536429405212,-15.9000005722046,1.40975618362427,1.55312442779541,2.60000014305115,23.595121383667,0.137418448925018,0.177998781204224,0.404877692461014,2012-02-22 10:59:33
1.00400018692017,48,-43.6291656494141,0.583854138851166,0.724269270896912,1.42916643619537,-14.0187501907349,1.81875014305115,1.99631524085999,3.28125071525574,24.0791664123535,0.135069757699966,0.161965191364288,0.32083261013031,2012-02-22 10:59:34
1.01599979400635,38,-43.9368438720703,0.840166449546814,0.937359571456909,1.63684380054474,-14.4842109680176,2.2684211730957,2.41688442230225,3.71579003334045,23.8815803527832,0.156232327222824,0.186173662543297,0.381579399108887,2012-02-22 10:59:35
1.00400018692017,37,-42.7054061889648,0.259313434362411,0.309267580509186,0.605404078960419,-17.4594593048096,0.759532630443573,0.873161375522614,1.95945990085602,24.1702709197998,0.15529590845108,0.20116525888443,0.470270156860352,2012-02-22 10:59:36
1.01399993896484,44,-43.7909088134766,0.23884305357933,0.289056807756424,0.609091758728027,-15.1886367797852,0.752789258956909,0.889896869659424,1.61136448383331,23.9250011444092,0.193181917071342,0.224747404456139,0.425000488758087,2012-02-22 10:59:37
1.00200009346008,34,-42.6088256835938,0.414706289768219,0.445479482412338,0.691174924373627,-18.4911766052246,0.429584711790085,0.548992455005646,1.59117710590363,23.788236618042,0.0643599256873131,0.0931938290596008,0.211763948202133,2012-02-22 10:59:38
1.01399993896484,47,-44.0361709594727,0.664825677871704,0.817735552787781,2.4361686706543,-13.8489360809326,1.82851982116699,2.05466508865356,3.9510645866394,23.9702129364014,0.149569973349571,0.182085886597633,0.429786533117294,2012-02-22 10:59:39
1.0090000629425,35,-43.1000022888184,0.925714433193207,1.02427697181702,1.80000138282776,-15.5657148361206,1.78383696079254,2.00655269622803,2.9657142162323,24.142858505249,0.158367618918419,0.188658162951469,0.442856818437576,2012-02-22 10:59:40
1.01399993896484,38,-41.8552627563477,0.202077835798264,0.241374850273132,0.555264711380005,-18.2578945159912,0.682548403739929,0.802506446838379,1.8578953742981,24.6289482116699,0.156786888837814,0.193183749914169,0.428946882486343,2012-02-22 10:59:41
1.0149998664856,38,-43.7815780639648,0.460110753774643,0.52508407831192,1.2815797328949,-14.2921056747437,0.822022199630737,0.975592017173767,2.1078941822052,24.5526313781738,0.178947448730469,0.206138387322426,0.447368025779724,2012-02-22 10:59:42
1.00600004196167,48,-43.90625,0.398437529802322,0.503904104232788,0.906250476837158,-14.4000005722046,0.650000035762787,0.736828804016113,1.20000040531158,24.4270839691162,0.194531098008156,0.219601511955261,0.427083849906921,2012-02-22 10:59:43
1.01699995994568,42,-43.8142852783203,0.306122869253159,0.34953835606575,0.685713469982147,-13.7976188659668,0.254421889781952,0.318843245506287,0.902380585670471,24.5952377319336,0.157143145799637,0.195122078061104,0.504762053489685,2012-02-22 10:59:44
1.00500011444092,38,-44.25,0.128946915268898,0.153468489646912,0.350001275539398,-13.5684213638306,0.229639813303947,0.258645504713058,0.468420892953873,24.2131576538086,0.198753461241722,0.23415145277977,0.486842662096024,2012-02-22 10:59:45
1.01399993896484,40,-43.9200019836426,0.316999882459641,0.380919933319092,0.819998562335968,-13.9175004959106,0.275999933481216,0.348487764596939,0.882499992847443,23.9650001525879,0.168500036001205,0.219715759158134,0.565000653266907,2012-02-22 10:59:46
1.01099991798401,40,-43.9324989318848,0.204124912619591,0.237052023410797,0.432500660419464,-15.0574998855591,0.288124978542328,0.331577688455582,0.557500183582306,23.3575000762939,0.10887448489666,0.135807529091835,0.35750025510788,2012-02-22 10:59:48
1.00300002098083,48,-44.0520858764648,0.277083486318588,0.319498121738434,0.552084028720856,-14.622917175293,0.365190923213959,0.438386976718903,0.877083122730255,23.5083332061768,0.159375131130219,0.224381893873215,0.608334004878998,2012-02-22 10:59:49
1.01700019836426,36,-43.7694435119629,0.206172451376915,0.254754185676575,0.46944585442543,-14.7722225189209,0.2040124386549,0.252334833145142,0.627778172492981,23.7749996185303,0.0958332121372223,0.111492127180099,0.224999532103539,2012-02-22 10:59:50
1.00299978256226,36,-43.9222221374512,0.182098761200905,0.234652519226074,0.622223734855652,-14.7805557250977,0.182716146111488,0.207925513386726,0.419443964958191,23.7944450378418,0.100925736129284,0.122348122298717,0.305555492639542,2012-02-22 10:59:51
1.00100016593933,43,-43.8162803649902,0.525148749351501,0.581869542598724,0.983719229698181,-14.3069772720337,0.310113608837128,0.353320002555847,0.693022966384888,23.5348834991455,0.165927812457085,0.185376882553101,0.365115493535995,2012-02-22 10:59:52
1.30999994277954,44,-44.2386360168457,0.250206649303436,0.283016353845596,0.561361908912659,-13.8477277755737,0.535640478134155,0.600941896438599,1.05227303504944,23.6568183898926,0.17954558134079,0.206042483448982,0.443181902170181,2012-02-22 10:59:53
1.00600004196167,51,-42.8764724731445,0.46020770072937,0.564848721027374,1.17647051811218,-17.3568630218506,0.874740481376648,1.06830549240112,2.34313750267029,23.6568622589111,0.364475220441818,0.40885055065155,0.756863474845886,2012-02-22 10:59:54
1,38,-42.5552635192871,0.52368426322937,0.626896023750305,1.14473688602448,-18.3078956604004,1.023268699646,1.19591009616852,2.1078941822052,23.7631587982178,0.138227015733719,0.169241338968277,0.363158673048019,2012-02-22 10:59:55
1.02900004386902,41,-43.424388885498,0.380011945962906,0.42871367931366,0.824388265609741,-15.9390249252319,0.265437453985214,0.313810855150223,0.939024806022644,23.7000007629395,0.15121965110302,0.187408477067947,0.39999994635582,2012-02-22 10:59:56
1.01300001144409,44,-42.7886390686035,0.377995580434799,0.454880505800247,1.01136195659637,-16.9750003814697,0.675000071525574,0.842378973960876,1.97500038146973,24.106819152832,0.37830576300621,0.419088661670685,0.906817734241486,2012-02-22 10:59:57
1.0149998664856,40,-43.2975006103516,0.331874936819077,0.37315371632576,0.702499032020569,-15.8825006484985,0.355125159025192,0.509846866130829,1.18250048160553,24.2900009155273,0.114999912679195,0.144568145275116,0.410000175237656,2012-02-22 10:59:58
1.08400011062622,40,-43.1575012207031,0.340249925851822,0.435825318098068,0.957499802112579,-14.5524997711182,0.818250060081482,1.00647604465485,2.64750051498413,25.4050006866455,0.353750020265579,0.41469869017601,0.905000567436218,2012-02-22 10:59:59
