"diffSecs","level","azimuth.mean","azimuth.absolute.deviation","azimuth.standard.deviation","azimuth.max.deviation","pitch.mean","pitch.absolute.deviation","pitch.standard.deviation","pitch.max.deviation","roll.mean","roll.absolute.deviation","roll.standard.deviation","roll.max.deviation","time"
1.49399995803833,14,-12.8142862319946,0.171428605914116,0.223150014877319,0.514285683631897,-46.9928588867188,0.0826530084013939,0.12797500193119,0.292856752872467,14.5500001907349,0.192857056856155,0.212972149252892,0.350000381469727,2012-01-08 12:00:01
1.00999999046326,75,-14.4466667175293,1.27128899097443,1.73991072177887,4.45333290100098,-45.6866683959961,0.323377668857574,0.440403997898102,0.913334965705872,15.3600006103516,0.691200196743011,0.811582982540131,1.75999987125397,2012-01-08 12:00:02
1,49,-18.8346939086914,0.360682904720306,0.478326708078384,1.13469350337982,-45.3591842651367,0.547022342681885,0.636931121349335,1.05918526649475,13.2469387054443,0.752353250980377,0.864752531051636,1.54693913459778,2012-01-08 12:00:03
1.01400017738342,42,-17.5142860412598,0.956462562084198,1.05052626132965,1.88571357727051,-45.7785720825195,0.65034008026123,0.745952725410461,1.3785707950592,11.8285713195801,0.799319744110107,0.968869149684906,2.07142901420593,2012-01-08 12:00:04
1.00999999046326,38,-16.9631576538086,0.48670357465744,0.55460798740387,1.06315767765045,-46.0447387695312,0.415512412786484,0.482699424028397,1.05526494979858,12.3078947067261,0.409141272306442,0.497563302516937,1.10789513587952,2012-01-08 12:00:05
1.13699984550476,48,-17.1520843505859,0.582899332046509,0.682821810245514,1.2520831823349,-46.8604164123535,0.370312839746475,0.44240814447403,0.860417425632477,11.122917175293,0.413281232118607,0.476200073957443,0.977083563804626,2012-01-08 12:00:06
1.01500010490417,44,-16.3931827545166,0.498347133398056,0.561814367771149,1.10681796073914,-46.1227264404297,0.195041313767433,0.250330626964569,0.577272832393646,12.3181819915771,0.57190078496933,0.658604800701141,1.11818218231201,2012-01-08 12:00:07
