"diffSecs","N.samples","x.mean","x.absolute.deviation","x.standard.deviation","x.max.deviation","x.PSD.1","x.PSD.3","x.PSD.6","x.PSD.10","y.mean","y.absolute.deviation","y.standard.deviation","y.max.deviation","y.PSD.1","y.PSD.3","y.PSD.6","y.PSD.10","z.mean","z.absolute.deviation","z.standard.deviation","z.max.deviation","z.PSD.1","z.PSD.3","z.PSD.6","z.PSD.10","time"
4.48299980163574,11,3.01866507530212,0.0200996287167072,0.0228339377790689,0.037443682551384,3.72604190488346e-05,8.51054428494535e-05,0.000283072702586651,0.000434134213719517,3.00083470344543,0.0249624494463205,0.0280508790165186,0.058839950710535,3.90938184864353e-05,0.000106209379737265,0.000353244482539594,0.00042021760600619,-8.88571643829346,0.0207479186356068,0.0238218978047371,0.0481416545808315,3.25410182995256e-05,8.71895681484602e-05,0.000296778744086623,0.0003848941414617,2012-03-02 01:00:04
0.522000074386597,99,3.01460385322571,0.0242519993335009,0.0300543438643217,0.0842974931001663,0.239179059863091,0.216603204607964,0.174934029579163,0.0563288852572441,3.01153302192688,0.028348371386528,0.0352370701730251,0.116788186132908,0.000912508403416723,0.507597088813782,0.288436353206635,0.243571206927299,-8.84163570404053,0.0400249920785427,0.0510409362614155,0.162750482559204,0.0224796030670404,0.234076827764511,0.500065624713898,0.16647657752037,2012-03-02 01:00:05
0.411999940872192,99,3.02441048622131,0.0235775895416737,0.0278045441955328,0.0450709387660027,0.178600251674652,0.164975553750992,0.158338576555252,0.11488988250494,3.00717449188232,0.0236756820231676,0.0303244441747665,0.0721134915947914,0.0306904930621386,0.271080374717712,0.190617233514786,0.101333543658257,-8.8312349319458,0.0274637751281261,0.0350496284663677,0.0928163155913353,0.00968833174556494,0.0941519811749458,0.220695897936821,0.0614057034254074,2012-03-02 01:00:05
1.01900005340576,61,3.02076959609985,0.0274196062237024,0.0363897047936916,0.0879382193088531,0.0761530101299286,0.294384121894836,0.309228956699371,0.0951622575521469,3.0122492313385,0.0228549595922232,0.0300393793731928,0.0800608992576599,0.097616545855999,0.145836919546127,0.0115298256278038,0.0482090190052986,-8.83547019958496,0.0248578768223524,0.0325959622859955,0.0977448001503944,0.00222443323582411,0.2964848279953,0.0585942380130291,0.110886998474598,2012-03-02 01:00:06
1.1340000629425,47,3.02316069602966,0.0174202155321836,0.0201994124799967,0.0365140736103058,0.0128168966621161,0.0160936713218689,0.00385905662551522,0.0105584962293506,3.00041747093201,0.0205101408064365,0.0249372571706772,0.0494505688548088,3.51257658621762e-05,0.000522180635016412,0.0397269204258919,0.0883035659790039,-8.82076835632324,0.0287495497614145,0.035952340811491,0.092850036919117,0.00113999377936125,0.00846614502370358,0.0675580725073814,0.0728995352983475,2012-03-02 01:00:07
1.02199983596802,51,3.0296778678894,0.0173058472573757,0.0220921244472265,0.0496100448071957,0.00200024782679975,0.056396808475256,0.0582221634685993,0.071236364543438,2.99545073509216,0.029159864410758,0.0357199497520924,0.073069155216217,0.10588638484478,0.0913345366716385,0.01668706163764,0.019935080781579,-8.83906078338623,0.0262792129069567,0.0322434827685356,0.0751841887831688,0.0380102843046188,0.0492325276136398,0.0228858459740877,0.0694761052727699,2012-03-02 01:00:08
1.01600003242493,40,3.02878379821777,0.0235359482467175,0.0302698463201523,0.0769822746515274,0.0236919410526752,0.0657990425825119,0.0817224755883217,0.0415087006986141,3.01235771179199,0.0138273807242513,0.0171108022332191,0.0375104062259197,0.00124026322737336,0.00287854601629078,0.00762285059317946,0.00584627827629447,-8.84314632415771,0.0246391650289297,0.0284856949001551,0.0612914562225342,0.0152561962604523,0.0552489794790745,0.0328755490481853,0.00740984454751015,2012-03-02 01:00:09
1.01399993896484,41,3.04771542549133,0.0216550994664431,0.0255828592926264,0.0511858388781548,0.0236737262457609,0.0248048864305019,0.0106283314526081,0.00933775212615728,3.00011730194092,0.0252021718770266,0.0309652388095856,0.0693640932440758,0.0164789743721485,0.0370566323399544,0.0190430674701929,0.0207694340497255,-8.85684013366699,0.0465771295130253,0.0552866831421852,0.099501445889473,0.0363824591040611,0.099066823720932,0.114948652684689,0.0127404564991593,2012-03-02 01:00:10
1.01999998092651,43,3.02250075340271,0.011148490011692,0.0153327947482467,0.0469806231558323,3.02397893392481e-06,0.00026339283795096,0.010744534432888,0.0212909802794456,2.98487043380737,0.0265400595963001,0.0314427837729454,0.064997598528862,0.0286971479654312,0.0606814436614513,0.0283259842544794,0.0097048282623291,-8.83419513702393,0.0373596139252186,0.0457500144839287,0.135696426033974,0.0376971736550331,0.0850583910942078,0.0846644639968872,0.0307018291205168,2012-03-02 01:00:11
1.16900014877319,46,3.03665041923523,0.0184639152139425,0.0261239912360907,0.0818640738725662,0.00208069267682731,0.0156602337956429,0.0329703465104103,0.0170318149030209,3.01213383674622,0.0254342705011368,0.0314775817096233,0.0799455568194389,0.05711455270648,0.164785295724869,0.209115952253342,0.0339817553758621,-8.8389892578125,0.031755693256855,0.0382581315934658,0.0850618854165077,0.00342956301756203,0.0593100152909756,0.297749608755112,0.09286829829216,2012-03-02 01:00:12
1.00099992752075,49,3.02825355529785,0.0215819738805294,0.0285724811255932,0.0764519274234772,0.0192353166639805,0.0804980546236038,0.0812926217913628,0.0525823794305325,2.99643182754517,0.0208223629742861,0.0266594458371401,0.0642435923218727,0.0039761820808053,0.0424854084849358,0.194781795144081,0.0307116974145174,-8.85660552978516,0.0397493354976177,0.0480274856090546,0.0992671400308609,0.0177147407084703,0.072816014289856,0.0507094636559486,0.126543000340462,2012-03-02 01:00:13
1.00800013542175,40,3.03981637954712,0.0267843957990408,0.034774724394083,0.0880147442221642,0.00142435648012906,0.00269391085021198,0.0259877443313599,0.0625261664390564,3.02142882347107,0.0177010074257851,0.0220158956944942,0.0500140301883221,0.00128365820273757,0.0123955504968762,0.0119829997420311,0.0211188308894634,-8.84510803222656,0.0397413820028305,0.0461511239409447,0.0985566601157188,0.00731560448184609,0.0712496787309647,0.181086048483849,0.0214071925729513,2012-03-02 01:00:14
1.00299978256226,44,3.03404378890991,0.0269986800849438,0.0310969445854425,0.0724355578422546,0.0229592341929674,0.0920782536268234,0.0405364893376827,0.031324926763773,3.00707530975342,0.0250839963555336,0.0309472475200891,0.0722125768661499,0.0403648316860199,0.0377354472875595,0.0142509592697024,0.0515600815415382,-8.80391979217529,0.0358833633363247,0.04218640178442,0.0809047222137451,0.0232302397489548,0.134402766823769,0.0508634299039841,0.0162203628569841,2012-03-02 01:00:15
1,52,3.03817558288574,0.0310882069170475,0.0354126244783401,0.0705323442816734,0.0533150359988213,0.243282601237297,0.0872345939278603,0.101128831505775,2.98555898666382,0.0223551467061043,0.0268162433058023,0.0545024126768112,0.0334330089390278,0.0608799606561661,0.183788195252419,0.0444370023906231,-8.81674385070801,0.0323575362563133,0.0426774248480797,0.0986320972442627,0.0430559292435646,0.224452048540115,0.117917515337467,0.0460670180618763,2012-03-02 01:00:16
1.01200008392334,41,3.01877379417419,0.0231602732092142,0.0282321441918612,0.0605141520500183,7.39743791200453e-06,0.034955196082592,0.0278720147907734,0.0231686979532242,3.01757788658142,0.0194849744439125,0.0243360158056021,0.0519034452736378,0.0102032357826829,0.0251139011234045,0.0172446183860302,0.0113004976883531,-8.82885551452637,0.0501824244856834,0.0613091588020325,0.154035896062851,0.127780795097351,0.520891785621643,0.493547976016998,0.202516958117485,2012-03-02 01:00:17
1.00200009346008,42,2.99383020401001,0.0232158210128546,0.0281704105436802,0.0616418197751045,0.031958531588316,0.0585033558309078,0.0519600994884968,0.0130412811413407,3.0055046081543,0.018634894862771,0.0226715952157974,0.0541700571775436,0.000921901839319617,0.00858683511614799,0.0288897547870874,0.015601527877152,-8.82575130462646,0.0366914831101894,0.0444523468613625,0.0884931907057762,0.0684325248003006,0.232893273234367,0.104769825935364,0.0281214453279972,2012-03-02 01:00:18
1.01600003242493,47,3.00312995910645,0.0277463141828775,0.0368718691170216,0.105577901005745,0.0684826225042343,0.121898807585239,0.0586085729300976,0.0436463467776775,3.03192400932312,0.0144990831613541,0.0172033477574587,0.0408959798514843,0.00032117692171596,0.00956725608557463,0.0207801479846239,0.039254404604435,-8.83996486663818,0.0398480482399464,0.0477324835956097,0.0924327298998833,0.0178759358823299,0.0696575716137886,0.171839401125908,0.0954407602548599,2012-03-02 01:00:19
1.01899981498718,41,2.9922239780426,0.0227402858436108,0.0348031036555767,0.0968705713748932,0.0567404478788376,0.130564332008362,0.117142967879772,0.0622195117175579,3.04101824760437,0.0226468462496996,0.0257922112941742,0.0480764210224152,0.00068732030922547,0.0298001654446125,0.0604372844099998,0.0216331798583269,-8.83387851715088,0.039168193936348,0.0487317964434624,0.115766108036041,0.0262095686048269,0.199290201067924,0.153158217668533,0.0371887013316154,2012-03-02 01:00:20
1.14200019836426,39,3.00561237335205,0.0283174682408571,0.0346092619001865,0.0638689175248146,0.00960926059633493,0.0496132597327232,0.0811890736222267,0.00737000396475196,3.01466464996338,0.0312833115458488,0.0353038311004639,0.0744299218058586,0.0832814127206802,0.122224241495132,0.0262139141559601,0.0233260542154312,-8.84408950805664,0.0358996279537678,0.0427483394742012,0.0867509841918945,0.0818241760134697,0.205762147903442,0.227748110890388,0.0191832538694143,2012-03-02 01:00:22
1.01199984550476,45,3.03221607208252,0.023100096732378,0.0290618315339088,0.0706079676747322,0.000465998105937615,0.0128959259018302,0.0820652320981026,0.0828374028205872,3.00650095939636,0.0308195650577545,0.0354784280061722,0.0841192528605461,0.00360956136137247,0.0994251072406769,0.175083667039871,0.054336316883564,-8.85061073303223,0.0299768187105656,0.0364371947944164,0.073658712208271,0.00181823421735317,0.129100173711777,0.124971397221088,0.033334594219923,2012-03-02 01:00:23
1.01699995994568,40,3.03515815734863,0.0186326019465923,0.0217079073190689,0.0441298484802246,0.0245927646756172,0.064425490796566,0.0354504138231277,0.00254855607636273,3.02142882347107,0.0223101172596216,0.0266589447855949,0.0500140301883221,0.039399579167366,0.0557196624577045,0.007760941516608,0.00188437628094107,-8.82451438903809,0.0333425514400005,0.041580006480217,0.0995373278856277,0.0131333451718092,0.0103674335405231,0.0773860141634941,0.135302275419235,2012-03-02 01:00:24
1.07100009918213,44,3.03248357772827,0.0368559770286083,0.0452239960432053,0.105644248425961,0.0161303263157606,0.130828574299812,0.082370288670063,0.146657079458237,3.01465320587158,0.0377272553741932,0.0440217480063438,0.0940546318888664,5.17894420681841e-07,0.161753311753273,0.202666267752647,0.0728994235396385,-8.82308769226074,0.0367748737335205,0.0450163967907429,0.0853622853755951,0.000709105632267892,0.150291547179222,0.205766290426254,0.0622399039566517,2012-03-02 01:00:25
1.0090000629425,49,3.01284289360046,0.0327569283545017,0.040712758898735,0.110074609518051,0.203376948833466,0.302602767944336,0.08763637393713,0.169173181056976,3.03765988349915,0.0250618699938059,0.030790975317359,0.0710480734705925,0.0183990076184273,0.0314105376601219,0.0384827442467213,0.0608439743518829,-8.82718563079834,0.0324464365839958,0.0442412346601486,0.118880406022072,0.302059233188629,0.273615032434464,0.036364633589983,0.110355243086815,2012-03-02 01:00:26
1.00399994850159,41,3.04364919662476,0.0238952934741974,0.0287143178284168,0.0650586485862732,0.00147898134309798,0.00417756335809827,0.0692846104502678,0.0330051593482494,3.0362343788147,0.0194966048002243,0.0238131694495678,0.0648196786642075,0.00517743499949574,0.00434867199510336,0.0471897795796394,0.0426393486559391,-8.86688613891602,0.0406266450881958,0.0473491959273815,0.0963920280337334,0.00101412809453905,0.0146529292687774,0.0402274578809738,0.0774166285991669,2012-03-02 01:00:27
1.01799988746643,41,3.05823969841003,0.0246420092880726,0.0312044005841017,0.0700815469026566,0.0117103615775704,0.0244467761367559,0.0457194596529007,0.0321547910571098,3.01925230026245,0.0251437705010176,0.0322857685387135,0.0894556790590286,0.0628026351332664,0.107384651899338,0.0583503879606724,0.00904369447380304,-8.86305904388428,0.0282006338238716,0.0337294898927212,0.0806057378649712,0.00458050332963467,0.0272501781582832,0.101016588509083,0.044887188822031,2012-03-02 01:00:28
1,50,3.02535152435303,0.0405995100736618,0.0524541139602661,0.132389828562737,0.0932350531220436,0.349814236164093,0.56269109249115,0.0785627067089081,3.00946474075317,0.0328562408685684,0.0409368798136711,0.0992432311177254,0.0183281023055315,0.0505362749099731,0.154150426387787,0.182301178574562,-8.86795711517334,0.0477936081588268,0.0561309605836868,0.100812189280987,0.132468521595001,0.438544988632202,0.496053636074066,0.107907108962536,2012-03-02 01:00:29
1.01900005340576,37,3.00003957748413,0.0426507331430912,0.0527059063315392,0.107077948749065,0.00316481338813901,0.0140725299715996,0.150166198611259,0.115579351782799,3.01594233512878,0.0247709676623344,0.0298666935414076,0.0633456334471703,0.00334498914889991,0.0137386554852128,0.0343531109392643,0.0332217775285244,-8.81458759307861,0.0255731772631407,0.0313043929636478,0.0702366977930069,0.00254807504825294,0.00210858485661447,0.020205894485116,0.0525630936026573,2012-03-02 01:00:30
1.00300002098083,41,3.01231575012207,0.0256338305771351,0.0329123102128506,0.0899341627955437,0.0021906066685915,0.0258696954697371,0.0708564519882202,0.0118617489933968,3.00394415855408,0.0178165379911661,0.0229669418185949,0.0557304956018925,0.0157126262784004,0.0300871673971415,0.0425987392663956,0.0264162998646498,-8.83148670196533,0.0367296598851681,0.0446542054414749,0.103567615151405,0.0195705220103264,0.0458158478140831,0.0363104678690434,0.119087122380733,2012-03-02 01:00:31
1.00999999046326,41,3.04269242286682,0.0210017133504152,0.0245069544762373,0.0464021153748035,0.00399483600631356,0.0169130526483059,0.0175155270844698,0.0188293009996414,2.99605107307434,0.0309659764170647,0.0361860543489456,0.0834761038422585,0.0169083960354328,0.0549233816564083,0.0410243831574917,0.0206765253096819,-8.81211185455322,0.0465421266853809,0.0539734587073326,0.133226692676544,0.0969912484288216,0.127353563904762,0.0660707205533981,0.110050484538078,2012-03-02 01:00:32
1.00999999046326,47,3.03171539306641,0.0189562495797873,0.0222505666315556,0.0504939518868923,0.0306091904640198,0.0265332944691181,0.0258302371948957,0.0103307738900185,3.0198221206665,0.0196044333279133,0.0257801730185747,0.0680206790566444,0.0229191798716784,0.0215720981359482,0.0135533548891544,0.0223142299801111,-8.83600044250488,0.0323365852236748,0.0392520502209663,0.0880510434508324,0.00595775526016951,0.167578563094139,0.144289061427116,0.0126401344314218,2012-03-02 01:00:33
1.01999998092651,40,3.00353169441223,0.0228005107492208,0.0271227955818176,0.0463364310562611,0.000232968930504285,0.0197403319180012,0.0451033189892769,0.0200354233384132,3.03025484085083,0.0181422829627991,0.0220376905053854,0.0490333922207355,0.00519047491252422,0.0143416915088892,0.00741845183074474,0.0272731315344572,-8.83186912536621,0.0311850924044847,0.0387827232480049,0.0921823531389236,0.000527043652255088,0.0163707844913006,0.0152287501841784,0.0385542139410973,2012-03-02 01:00:34
1.00600004196167,41,3.0496289730072,0.0299157910048962,0.0362744107842445,0.078692264854908,0.00590436765924096,0.0313516110181808,0.0399521067738533,0.0510627366602421,2.99700784683228,0.0290874913334846,0.035647664219141,0.0648195669054985,0.000941191334277391,0.0640858039259911,0.0965831354260445,0.0801942050457001,-8.84224987030029,0.0235219188034534,0.0297457594424486,0.0719950348138809,9.35255627609877e-07,0.010328708216548,0.0326715931296349,0.0102737080305815,2012-03-02 01:00:35
1,48,3.04292178153992,0.0244655106216669,0.0295529719442129,0.0755928009748459,0.00439859228208661,0.00812129303812981,0.0182177294045687,0.0337448753416538,3.00982427597046,0.0140630444511771,0.0178857911378145,0.0482161343097687,0.0189235452562571,0.0275312233716249,0.00844765920192003,0.0295353513211012,-8.83946895599365,0.0268150120973587,0.0350524261593819,0.0821305513381958,0.0304567590355873,0.104213997721672,0.0589218065142632,0.0136104542762041,2012-03-02 01:00:36
1.00999999046326,40,3.01186728477478,0.0169777907431126,0.0204754658043385,0.0404525399208069,0.0163951367139816,0.0188087094575167,0.0104673821479082,0.0070268614217639,2.98955726623535,0.0271154306828976,0.0346405580639839,0.0701175630092621,0.0234050173312426,0.0654674619436264,0.0880767107009888,0.0079303327947855,-8.87771511077881,0.029481191188097,0.0414895638823509,0.130183055996895,0.053529255092144,0.0631880760192871,0.0210020653903484,0.0278239492326975,2012-03-02 01:00:37
1.01900005340576,41,3.02379679679871,0.0313625894486904,0.0403821617364883,0.0947177782654762,0.0532221421599388,0.0515732727944851,0.0156833343207836,0.0121046062558889,3.01231575012207,0.0241987127810717,0.0282321609556675,0.0605142638087273,1.97687609215791e-06,0.0120283076539636,0.0418953038752079,0.0452057980000973,-8.8408145904541,0.0405333042144775,0.0470619685947895,0.103089243173599,0.0367381907999516,0.0924091711640358,0.0858890414237976,0.0342698432505131,2012-03-02 01:00:38
1.13100004196167,48,3.0333194732666,0.0197920333594084,0.0246921665966511,0.075388491153717,0.0401723310351372,0.0315864346921444,0.0284234378486872,0.0200483519583941,3.00001764297485,0.0209754146635532,0.0252282321453094,0.0580227188766003,0.00274844653904438,0.0176554787904024,0.0857498571276665,0.036167036741972,-8.82128620147705,0.0281515065580606,0.0353010185062885,0.0737540498375893,0.00193924864288419,0.137907132506371,0.226657018065453,0.104606613516808,2012-03-02 01:00:39
1.00399994850159,47,3.05091142654419,0.0341212265193462,0.0375874526798725,0.0774098113179207,0.0236299727112055,0.184271886944771,0.159343153238297,0.0161664877086878,3.01272797584534,0.0286608319729567,0.0352677889168262,0.0805397555232048,0.128012657165527,0.201862305402756,0.100003376603127,0.00573592446744442,-8.8593692779541,0.0405228361487389,0.0453547686338425,0.0726108178496361,0.155047342181206,0.390812456607819,0.243006989359856,0.0497442558407784,2012-03-02 01:00:40
1.0090000629425,43,3.05762219429016,0.0315573327243328,0.0394289270043373,0.1001191213727,0.00253666890785098,0.0100645469501615,0.0411468707025051,0.0312585942447186,3.01588702201843,0.0220318380743265,0.0252335891127586,0.0444721132516861,0.00218845321796834,0.0302637293934822,0.0741502121090889,0.0271803475916386,-8.81024837493896,0.0248533710837364,0.0304391272366047,0.0647693872451782,0.00136522809043527,0.0033845400903374,0.0831665396690369,0.0191776491701603,2012-03-02 01:00:41
1.01099991798401,40,3.02853870391846,0.0357207208871841,0.0442326404154301,0.10615698993206,0.0503608882427216,0.0400248765945435,0.0975729674100876,0.0203309450298548,3.00353169441223,0.0190126784145832,0.0238190554082394,0.0517301559448242,8.62761880853213e-05,0.00381042389199138,0.00867030583322048,0.0342461802065372,-8.8747730255127,0.0218442752957344,0.0297035370022058,0.0983114987611771,0.0296354480087757,0.0666063576936722,0.0633080154657364,0.0341803431510925,2012-03-02 01:00:42
1.01900005340576,39,3.04509043693542,0.0259834192693233,0.0322487205266953,0.0638690516352654,0.0688996687531471,0.151723593473434,0.0766936615109444,0.0151520147919655,3.00309801101685,0.0214315541088581,0.0261317677795887,0.0512963756918907,0.0319474563002586,0.0335782393813133,0.0367479212582111,0.0369679443538189,-8.82824802398682,0.0250678434967995,0.0305677261203527,0.0709095001220703,6.15290662864254e-09,0.0215840227901936,0.0406343303620815,0.00647183135151863,2012-03-02 01:00:43
1.00799989700317,48,3.01002860069275,0.0170339960604906,0.0213174093514681,0.0594527833163738,0.0182428155094385,0.0466355979442596,0.00872772559523582,0.00126196199562401,3.016361951828,0.0213499180972576,0.0258557442575693,0.0645605176687241,0.00780131807550788,0.0530527010560036,0.0424224697053432,0.0383782126009464,-8.8302755355835,0.0456110574305058,0.0589726604521275,0.131776630878448,0.000486024015117437,0.0697721615433693,0.537985146045685,0.210293173789978,2012-03-02 01:00:44
1.02800011634827,35,3.01820659637451,0.021054295822978,0.0288146678358316,0.0708879977464676,0.00154854019638151,0.00248985434882343,0.00798638630658388,0.00477653089910746,3.01904726028442,0.0224952846765518,0.0270496178418398,0.0770523026585579,0.0071803005412221,0.012523234821856,0.0082571879029274,0.00996990036219358,-8.83270931243896,0.0491212233901024,0.0593869574368,0.11095504462719,0.146016731858253,0.247949838638306,0.0842905938625336,0.0915792658925056,2012-03-02 01:00:45
1.01300001144409,41,3.05106401443481,0.022938558831811,0.0301830228418112,0.0796492174267769,0.000155269764945842,0.0368234068155289,0.0272507984191179,0.0480812974274158,3.02212238311768,0.0149462502449751,0.018366064876318,0.0409010462462902,0.0025986791588366,0.00440642284229398,0.00360957765951753,0.00783542357385159,-8.83196449279785,0.0374297201633453,0.0451675690710545,0.0920866727828979,0.0927825048565865,0.0872618705034256,0.0223804991692305,0.0142019893974066,2012-03-02 01:00:46
1.00699996948242,43,3.03253555297852,0.0170356538146734,0.0263171587139368,0.0905405357480049,3.79897159064058e-07,0.0151779940351844,0.0639541745185852,0.0191184505820274,3.01497459411621,0.0294677056372166,0.0350280925631523,0.0741199851036072,0.108805745840073,0.136138617992401,0.0118147237226367,0.0195801630616188,-8.83556365966797,0.0308147855103016,0.0386225581169128,0.0982943922281265,0.0761640816926956,0.149179860949516,0.154080212116241,0.0256591346114874,2012-03-02 01:00:47
1.00999999046326,36,3.02262735366821,0.0361998565495014,0.0439850799739361,0.090439110994339,0.00129471113905311,0.0150386737659574,0.0595459528267384,0.0029222397133708,3.0054657459259,0.018826425075531,0.0214960630983114,0.0438575819134712,0.000570586009416729,0.00089333375217393,0.00320062064565718,0.00527052860707045,-8.85867404937744,0.0217925179749727,0.0295105613768101,0.0751841887831688,2.55912757651799e-09,0.00941478926688433,0.0314764492213726,0.00705065252259374,2012-03-02 01:00:48
1.00300002098083,42,3.01858019828796,0.0346457324922085,0.0408977344632149,0.0961985662579536,0.0352984219789505,0.0343511775135994,0.165216967463493,0.105815425515175,3.0104079246521,0.0273630544543266,0.0322058126330376,0.0782197266817093,0.0178246293216944,0.0505432039499283,0.0534947961568832,0.0103919915854931,-8.83135509490967,0.027829933911562,0.0317556709051132,0.0632761344313622,0.00781423319131136,0.0184749066829681,0.0262112375348806,0.0193219073116779,2012-03-02 01:00:49
1.01300001144409,48,3.01697492599487,0.0319312140345573,0.0416296645998955,0.114206582307816,0.0310816038399935,0.13919460773468,0.349778085947037,0.209050878882408,3.0208568572998,0.0139438239857554,0.0181222390383482,0.0494419932365417,0.00475079705938697,0.00352288782596588,0.0275892466306686,0.0183745045214891,-8.83088874816895,0.0386136174201965,0.0459536090493202,0.093163013458252,0.110328324139118,0.232739374041557,0.150880843400955,0.012377948500216,2012-03-02 01:00:50
1.00399994850159,31,3.00241661071777,0.0256749093532562,0.02927166223526,0.0572581924498081,0.0103399585932493,0.019774267449975,0.0191014166921377,0.00947601348161697,3.02013182640076,0.0199194345623255,0.0252163726836443,0.0493495389819145,2.47454463533359e-05,0.00121445313561708,0.0117480242624879,0.011911828070879,-8.83515930175781,0.0291647836565971,0.0389834195375443,0.0986990183591843,0.00122428976465017,0.00533875124529004,0.00575055927038193,0.0194558072835207,2012-03-02 01:00:51
1.03900003433228,33,3.00826406478882,0.022657074034214,0.0283639300614595,0.0662692487239838,0.0144011406227946,0.022062636911869,0.02648707292974,0.016002893447876,3.02550005912781,0.0173979997634888,0.0205026399344206,0.0442786663770676,0.00115638959687203,0.0044200774282217,0.0180675759911537,0.012805144302547,-8.84470653533936,0.0362007953226566,0.0432789102196693,0.0775615498423576,0.00549036124721169,0.0354693531990051,0.0965717136859894,0.00990147143602371,2012-03-02 01:00:52
1.00399994850159,44,3.04942226409912,0.030676145106554,0.0450831614434719,0.147545471787453,0.0216583795845509,0.0272553097456694,0.0398409925401211,0.0343016311526299,2.99481701850891,0.0324187390506268,0.0380509346723557,0.0844708755612373,0.00412141950801015,0.0313680246472359,0.0949804186820984,0.103375717997551,-8.83601474761963,0.0616865567862988,0.0747871175408363,0.166935637593269,0.0787396058440208,0.347243785858154,0.299625366926193,0.108145594596863,2012-03-02 01:00:53
1.00999999046326,49,3.03525829315186,0.024310352280736,0.0289913713932037,0.0636430755257607,0.0426920391619205,0.0335991084575653,0.0996534749865532,0.0558720678091049,3.00383687019348,0.0291708502918482,0.0352307446300983,0.0912618413567543,0.0171460621058941,0.0716566294431686,0.123636797070503,0.149377316236496,-8.83659172058105,0.0320053212344646,0.0395671203732491,0.108673505485058,0.00636585056781769,0.0732362791895866,0.0953825190663338,0.132197931408882,2012-03-02 01:00:54
1.00799989700317,40,3.05158424377441,0.0319696329534054,0.0388501025736332,0.0767369121313095,0.0112554207444191,0.0359252169728279,0.0306855458766222,0.0431519784033298,3.02093839645386,0.0240508187562227,0.0270306449383497,0.0495236814022064,0.00156361109111458,0.0288789719343185,0.0732704326510429,0.00705058826133609,-8.84486293792725,0.0283779446035624,0.0369143523275852,0.0973308309912682,0.0194722972810268,0.0816356763243675,0.078612707555294,0.0361397601664066,2012-03-02 01:00:55
1.00200009346008,43,3.03025484085083,0.0228061769157648,0.0274129863828421,0.0588398426771164,0.00122234574519098,0.00165335752535611,0.00546293193474412,0.035614836961031,2.99901032447815,0.0195391271263361,0.0236701741814613,0.0472088195383549,0.000221601949306205,0.0161368642002344,0.0406911261379719,0.0123842982575297,-8.81595039367676,0.0308147855103016,0.0368444211781025,0.0786811262369156,0.0934557989239693,0.112821668386459,0.0373173393309116,0.0696844682097435,2012-03-02 01:00:56
1.01200008392334,44,3.01487612724304,0.023787222802639,0.0286214761435986,0.0630746558308601,0.00679104123264551,0.0640666261315346,0.053001519292593,0.0270145870745182,3.02245402336121,0.0276875756680965,0.0374932922422886,0.115673750638962,0.000251009099883959,0.0253093484789133,0.0128537574782968,0.0284355320036411,-8.86053085327148,0.0374333783984184,0.0430766195058823,0.103192523121834,0.0297616589814425,0.100980415940285,0.339930474758148,0.0325294323265553,2012-03-02 01:00:57
1.01300001144409,42,3.04309678077698,0.017333947122097,0.0209114849567413,0.0459977798163891,0.00959837529808283,0.00576520664617419,0.0232910495251417,0.00823482591658831,3.0041036605835,0.0230378806591034,0.0346166789531708,0.114410795271397,0.0741752684116364,0.134105712175369,0.0451784729957581,0.073473297059536,-8.8498010635376,0.0384259894490242,0.047810435295105,0.131689071655273,0.0369019322097301,0.026911148801446,0.0949978604912758,0.103243619203568,2012-03-02 01:00:58
1.01599979400635,38,3.02741599082947,0.0291618853807449,0.0354233123362064,0.0714852511882782,0.000626443652436137,0.0529649592936039,0.0772117227315903,0.0830038487911224,3.02277064323425,0.0345677882432938,0.0424750261008739,0.0957437977194786,0.000159294679178856,0.0683303028345108,0.0667714700102806,0.0282649639993906,-8.86676025390625,0.0244215037673712,0.0271402522921562,0.0474847480654716,8.16729952930473e-05,0.00482751009985805,0.0204729363322258,0.0304050445556641,2012-03-02 01:00:59
1.13900017738342,49,3.02224946022034,0.0230523645877838,0.0287569463253021,0.0704478472471237,0.000557655992452055,0.0300112906843424,0.0907792001962662,0.116943024098873,3.01904726028442,0.0230442173779011,0.0278080869466066,0.0672456622123718,0.0428352802991867,0.0344088524580002,0.027241412550211,0.0420992150902748,-8.83779335021973,0.0291789192706347,0.0395245812833309,0.109874315559864,0.0822396874427795,0.0816174000501633,0.0165499486029148,0.0266314949840307,2012-03-02 01:01:00
1.01900005340576,48,3.0284161567688,0.0267639812082052,0.0309244245290756,0.0606785863637924,4.09127751481719e-05,0.0875373110175133,0.0743832141160965,0.0280899573117495,3.0214695930481,0.02818563580513,0.0329679623246193,0.059861496090889,0.0554090179502964,0.147187724709511,0.0488992594182491,0.0517617538571358,-8.8302755355835,0.0305435750633478,0.0366332903504372,0.102356731891632,0.015163466334343,0.109896302223206,0.208503574132919,0.058903981000185,2012-03-02 01:01:01
1,41,3.01781702041626,0.037616454064846,0.0463540889322758,0.0954354703426361,0.195440620183945,0.265992701053619,0.175860807299614,0.0640691593289375,2.98959302902222,0.0313976593315601,0.0389000326395035,0.0896949619054794,0.0682207271456718,0.200544595718384,0.0979808792471886,0.0560329519212246,-8.82718086242676,0.0281306263059378,0.0350715778768063,0.079648993909359,0.0150989275425673,0.0122699327766895,0.0376818999648094,0.0427866317331791,2012-03-02 01:01:02
1.01799988746643,43,3.05671000480652,0.0440848395228386,0.0547253005206585,0.12064466625452,0.107304714620113,0.175076231360435,0.101489827036858,0.0676648020744324,3.0197639465332,0.0281629804521799,0.0338654480874538,0.0693306773900986,0.0453562065958977,0.097984105348587,0.140228122472763,0.0203439462929964,-8.82917785644531,0.040976770222187,0.0453469231724739,0.0752602070569992,0.0668330192565918,0.100451439619064,0.191193416714668,0.0670261159539223,2012-03-02 01:01:03
1.01900005340576,40,3.02510643005371,0.0244798436760902,0.0301454849541187,0.0639883205294609,0.0220314357429743,0.0353300981223583,0.0222134236246347,0.0336234420537949,3.00990605354309,0.0295548271387815,0.0377516411244869,0.098801925778389,0.0359344221651554,0.0218402687460184,0.0528572238981724,0.0482721552252769,-8.81936550140381,0.0308050867170095,0.0381947569549084,0.101253487169743,0.0523640774190426,0.110566735267639,0.0904655084013939,0.00472237123176455,2012-03-02 01:01:04
1.0090000629425,48,3.03229784965515,0.0228821635246277,0.0264778193086386,0.0510764308273792,0.000567075214348733,0.010978433303535,0.0615111887454987,0.0779052674770355,3.01166296005249,0.0182001888751984,0.0264233965426683,0.0774315968155861,0.00207528425380588,0.0216781161725521,0.00937813799828291,0.00761023256927729,-8.85172748565674,0.0298795849084854,0.0343013182282448,0.0747755765914917,0.000642876839265227,0.0771678239107132,0.211590841412544,0.02262251265347,2012-03-02 01:01:05
1.01399993896484,44,3.00752115249634,0.0329657793045044,0.0393252782523632,0.0753329321742058,0.0706780776381493,0.12882000207901,0.0756225138902664,0.0635092109441757,3.04607915878296,0.0267960280179977,0.0315157920122147,0.0648577287793159,0.0219641998410225,0.0433769673109055,0.102872967720032,0.0255429781973362,-8.80258274078369,0.0540580749511719,0.0640754550695419,0.172731399536133,0.176762327551842,0.475562781095505,0.0867989808320999,0.13698148727417,2012-03-02 01:01:06
1.01199984550476,42,3.01087498664856,0.0352683961391449,0.0418523885309696,0.0982999578118324,0.0948284119367599,0.207453832030296,0.0548625029623508,0.0410005040466785,3.0181131362915,0.0233269557356834,0.028374794870615,0.066311702132225,0.00236869812943041,0.0248251464217901,0.0626419186592102,0.0232606884092093,-8.85190200805664,0.0211142804473639,0.0273902267217636,0.0553374290466309,0.0118393106386065,0.038387980312109,0.0320655591785908,0.0403406582772732,2012-03-02 01:01:07
1.02600002288818,40,3.03270649909973,0.0201036147773266,0.0240962337702513,0.0612916760146618,0.0174921210855246,0.0230778492987156,0.0157201290130615,0.0481589697301388,3.00843501091003,0.0264044515788555,0.0318895652890205,0.0664401054382324,0.00917523168027401,0.0505925267934799,0.0821293890476227,0.0168059747666121,-8.8441276550293,0.0125524904578924,0.0151209887117147,0.0377555377781391,0.00638983910903335,0.0162697955965996,0.0149048678576946,0.00501668639481068,2012-03-02 01:01:08
1.01100015640259,46,3.03750324249268,0.0311254262924194,0.0379498414695263,0.0810113400220871,0.00787217170000076,0.010133326984942,0.18792861700058,0.124848783016205,3.00659084320068,0.0155164431780577,0.0183552950620651,0.0351761355996132,0.00175864691846073,0.0194914434105158,0.0119934091344476,0.0129161747172475,-8.7969913482666,0.0302541106939316,0.0412505753338337,0.118105970323086,0.000590309908147901,0.00351766240783036,0.0703281611204147,0.0617550238966942,2012-03-02 01:01:09
1.01399993896484,43,2.99786996841431,0.0289479736238718,0.0361735112965107,0.085295058786869,0.0931199789047241,0.120080098509789,0.0294368267059326,0.0145703135058284,3.00836086273193,0.0269325338304043,0.0317129120230675,0.0513138547539711,0.0196725726127625,0.0098084295168519,0.0953319892287254,0.0111427158117294,-8.83237075805664,0.0255322512239218,0.0312185753136873,0.0622607171535492,0.0472057312726974,0.139614328742027,0.172286331653595,0.0188064128160477,2012-03-02 01:01:10
1.01799988746643,42,3.0440309047699,0.0231156516820192,0.0294245686382055,0.0726160034537315,0.000483943556901067,0.00577037548646331,0.0309550501406193,0.0384198538959026,3.02138209342957,0.0215701870620251,0.0254837945103645,0.04996732249856,0.00195214583072811,0.00941406283527613,0.0145523762330413,0.00779449194669724,-8.84793281555176,0.0471652336418629,0.0531478635966778,0.0905946120619774,0.247868523001671,0.382830411195755,0.074089914560318,0.0248121600598097,2012-03-02 01:01:11
1.007000207901,41,3.02714538574219,0.0234752707183361,0.0305878352373838,0.0717558786273003,0.0322035476565361,0.0613328106701374,0.0526239350438118,0.0404084473848343,3.02284002304077,0.0173964407294989,0.0221709348261356,0.0564479604363441,0.00739325350150466,0.0199840515851974,0.0184481460601091,0.0096638984978199,-8.85349178314209,0.0218651164323092,0.0333593972027302,0.11959308385849,0.0273500792682171,0.0330568663775921,0.025859147310257,0.0126924030482769,2012-03-02 01:01:12
1.13199996948242,48,3.03045916557312,0.032161008566618,0.0409013405442238,0.0978620573878288,0.0413623936474323,0.0412847995758057,0.136130318045616,0.0739977061748505,3.02269554138184,0.0266362838447094,0.0331497490406036,0.0663991197943687,0.0231820698827505,0.0358909890055656,0.11315131187439,0.0399025678634644,-8.83109283447266,0.0379921905696392,0.0429327115416527,0.103173948824406,0.139952212572098,0.279988378286362,0.09006367623806,0.0196290202438831,2012-03-02 01:01:14
1.13800001144409,48,3.02003955841064,0.0254360157996416,0.0326454117894173,0.0780446454882622,0.00147374137304723,0.0945297554135323,0.253893464803696,0.0328965038061142,3.00042629241943,0.0270705055445433,0.0325224548578262,0.0682379677891731,0.000511813152115792,0.142821505665779,0.164201319217682,0.0543856024742126,-8.85581302642822,0.0221159998327494,0.0291433557868004,0.0592484064400196,0.0613747537136078,0.125008106231689,0.0538671687245369,0.0325607173144817,2012-03-02 01:01:15
1.01099991798401,46,3.01149415969849,0.0268617253750563,0.0342059172689915,0.0891126096248627,0.111472651362419,0.153733164072037,0.0513510666787624,0.0256344880908728,3.00488543510437,0.0256196949630976,0.0298836585134268,0.072697140276432,0.0361490212380886,0.0794702619314194,0.0272993594408035,0.0196549668908119,-8.86435890197754,0.0261201243847609,0.0303865354508162,0.067793682217598,0.0438406877219677,0.0466659739613533,0.0749374106526375,0.021130109205842,2012-03-02 01:01:16
1,39,3.04861092567444,0.0233528167009354,0.0299745444208384,0.0771960392594337,0.0078851580619812,0.027755668386817,0.0297397449612617,0.00683381501585245,2.99429702758789,0.0122374538332224,0.0154393371194601,0.0359577871859074,0.000780725211370736,0.00103092822246253,0.00547701632604003,0.0166854932904243,-8.8554048538208,0.0246423091739416,0.0310907103121281,0.0784530639648438,0.0430094301700592,0.0546212121844292,0.0180307552218437,0.0126236071810126,2012-03-02 01:01:17
1.00300002098083,42,3.02301669120789,0.018323540687561,0.0222455374896526,0.0562714263796806,0.00801501329988241,0.0126358307898045,0.00398391066119075,0.0230262000113726,3.00176882743835,0.0205473210662603,0.0253034830093384,0.069580540060997,0.0110756922513247,0.021692706272006,0.0129676219075918,0.00792628712952137,-8.83112144470215,0.0403828695416451,0.0492771677672863,0.103203140199184,0.2843376994133,0.395438194274902,0.0969834998250008,0.0303392354398966,2012-03-02 01:01:18
1.01300001144409,48,3.02555584907532,0.0247209370136261,0.0298250783234835,0.0635388568043709,0.0201331172138453,0.0713942870497704,0.0821265429258347,0.0372042991220951,3.00308227539062,0.0342126563191414,0.0412307195365429,0.080700546503067,0.202696651220322,0.44761198759079,0.118677876889706,0.018967917189002,-8.84375953674316,0.0346296727657318,0.0422110855579376,0.0900984406471252,0.0842503756284714,0.0485936477780342,0.0831701084971428,0.0422858372330666,2012-03-02 01:01:19
1.00300002098083,40,3.03859043121338,0.0233398154377937,0.0271725580096245,0.0573690161108971,0.0182539131492376,0.0283524561673403,0.0144386729225516,0.00383163685910404,3.01726102828979,0.0185468383133411,0.021304115653038,0.0458462052047253,0.0222633257508278,0.037361741065979,0.0277298409491777,0.00371563481166959,-8.83186912536621,0.0334406197071075,0.0398829877376556,0.103950306773186,0.0188018716871738,0.0393739230930805,0.0935358926653862,0.0223062299191952,2012-03-02 01:01:20
1.00399994850159,41,3.05178165435791,0.0289357099682093,0.0368347056210041,0.09615308791399,0.0330249480903149,0.0454360842704773,0.0304481107741594,0.0285377092659473,3.01925230026245,0.0237669944763184,0.0312521010637283,0.0772573202848434,0.0131168691441417,0.0338343530893326,0.0167257059365511,0.0451227650046349,-8.84057521820068,0.0192632377147675,0.0232392475008965,0.0538168884813786,0.00574431847780943,0.00552148278802633,0.00969911087304354,0.0073355189524591,2012-03-02 01:01:21
1.00099992752075,46,3.01128101348877,0.0352594554424286,0.04673682898283,0.117040112614632,0.099420465528965,0.13598544895649,0.0356541648507118,0.135965213179588,2.99699735641479,0.0271212980151176,0.0338157191872597,0.0844224318861961,0.0166599694639444,0.0164850931614637,0.0115709593519568,0.045316606760025,-8.82896995544434,0.0194834992289543,0.0255291685461998,0.07163105905056,0.000447023427113891,0.00464269611984491,0.0400990098714828,0.109417676925659,2012-03-02 01:01:22
1.14900016784668,41,3.00203084945679,0.0284340810030699,0.0356685183942318,0.0894557759165764,0.0110533777624369,0.0286071170121431,0.0258920080959797,0.0364928059279919,3.03671288490295,0.033719465136528,0.0387216471135616,0.0818017199635506,0.0671469271183014,0.169976532459259,0.195718228816986,0.010799159295857,-8.85731792449951,0.037931427359581,0.0443469472229481,0.0961528420448303,0.0170537438243628,0.0342417657375336,0.0767864286899567,0.0588064566254616,2012-03-02 01:01:23
1.01099991798401,48,3.04680347442627,0.0311054401099682,0.03809455037117,0.0950019732117653,0.109144873917103,0.266959756612778,0.256336659193039,0.0590089224278927,3.0184051990509,0.0183364078402519,0.0255537014454603,0.0764102190732956,0.00906847510486841,0.00390865653753281,0.00843801535665989,0.00948664173483849,-8.8582649230957,0.0402821078896523,0.047029186040163,0.0813133344054222,0.230074897408485,0.36226087808609,0.451815724372864,0.0296549703925848,2012-03-02 01:01:24
1.00600004196167,41,3.02116584777832,0.0202783569693565,0.0248270779848099,0.079170823097229,0.00800797902047634,0.0110157001763582,0.0103669390082359,0.00902901124209166,3.01733875274658,0.0250154379755259,0.0306644570082426,0.085150457918644,0.0290580913424492,0.0376524329185486,0.0133594935759902,0.0147665403783321,-8.83411693572998,0.0464487858116627,0.0502336509525776,0.0865853950381279,0.0402487106621265,0.235635042190552,0.197473004460335,0.0271687582135201,2012-03-02 01:01:25
1.0149998664856,42,3.03842711448669,0.0238939728587866,0.0315179117023945,0.0702808946371078,0.0150882257148623,0.038870994001627,0.0871068984270096,0.0351703688502312,3.01577830314636,0.0291976016014814,0.0352441221475601,0.0831229686737061,0.048398457467556,0.102271780371666,0.211764022707939,0.0542604252696037,-8.8248176574707,0.0238605830818415,0.0301276110112667,0.0674789771437645,0.00712505588307977,0.00346726807765663,0.0325565114617348,0.0925230011343956,2012-03-02 01:01:26
1.0220000743866,38,3.02664184570312,0.0141259115189314,0.0170482322573662,0.0356137864291668,0.00363427470438182,0.00283016171306372,0.00797957554459572,0.0046513476409018,3.0098671913147,0.0231312569230795,0.0275893807411194,0.0580657459795475,0.000122414683573879,0.00259299040772021,0.0173385441303253,0.0243203267455101,-8.83888816833496,0.0274368394166231,0.0378544628620148,0.120776429772377,0.0369509905576706,0.098967619240284,0.143824696540833,0.0841662734746933,2012-03-02 01:01:27
1.01600003242493,47,3.02754235267639,0.0267873965203762,0.0313200876116753,0.0615523271262646,0.000664675782900304,0.0366317816078663,0.154243752360344,0.0230310410261154,3.03129816055298,0.0282790139317513,0.03193673864007,0.0598832480609417,0.00151973194442689,0.0548726432025433,0.169545575976372,0.0272655691951513,-8.81409168243408,0.0374507717788219,0.0457266420125961,0.100152850151062,0.0364087633788586,0.193780973553658,0.151075601577759,0.0490656718611717,2012-03-02 01:01:28
1.01900005340576,44,3.00707530975342,0.029744191095233,0.0338482223451138,0.0624059438705444,0.0390420220792294,0.0773889273405075,0.03023362159729,0.0386768393218517,2.99927473068237,0.0155914481729269,0.0192697029560804,0.0407867804169655,0.000787496042903513,0.00793964602053165,0.00785187724977732,0.00286989007145166,-8.84515285491943,0.041860543191433,0.049342192709446,0.118125349283218,0.0100772846490145,0.299035102128983,0.334508299827576,0.0704319626092911,2012-03-02 01:01:29
1.01799988746643,49,2.9990336894989,0.0214840341359377,0.0282056909054518,0.0900610536336899,0.0166501589119434,0.0655586570501328,0.202652230858803,0.111584447324276,3.00003433227539,0.0153574412688613,0.0190896950662136,0.048232764005661,0.00191646674647927,0.0084200594574213,0.0319635346531868,0.00620327051728964,-8.85320377349854,0.0254212766885757,0.0294042378664017,0.0512346550822258,0.00850055925548077,0.0326852910220623,0.154517948627472,0.0488837882876396,2012-03-02 01:01:30
1.01300001144409,42,3.01694583892822,0.0223484970629215,0.0284563209861517,0.0749508887529373,0.0170718692243099,0.037797674536705,0.0401688106358051,0.0215177368372679,3.00457072257996,0.0235271323472261,0.0272336322814226,0.0551040507853031,0.00239052996039391,0.0460916273295879,0.051156472414732,0.0165079366415739,-8.81944751739502,0.0259953606873751,0.0293159410357475,0.0523020438849926,0.000869875948410481,0.00166900886688381,0.0208483953028917,0.00941642560064793,2012-03-02 01:01:31
1.01799988746643,40,3.00255107879639,0.0375717580318451,0.0451472364366055,0.0997826531529427,0.0177178811281919,0.0585272051393986,0.0837221741676331,0.00787807535380125,3.04275822639465,0.031491581350565,0.0357631780207157,0.061536829918623,0.0732279941439629,0.108205854892731,0.0324956588447094,0.0144456503912807,-8.84363651275635,0.0246146488934755,0.03290706127882,0.086298368871212,0.00409548822790384,0.0289794057607651,0.0155516313388944,0.0413067899644375,2012-03-02 01:01:32
1.00100016593933,43,3.0245532989502,0.0242700073868036,0.0284721180796623,0.0547347441315651,0.0417813919484615,0.076173759996891,0.0343163385987282,0.0710881426930428,3.00767660140991,0.0257975216954947,0.0321122109889984,0.0754884332418442,0.00681073358282447,0.0337444990873337,0.0763843655586243,0.0435655117034912,-8.82712554931641,0.0371474623680115,0.0460559464991093,0.106732659041882,0.0693744719028473,0.101998828351498,0.0968675315380096,0.13520972430706,2012-03-02 01:01:33
1.01699995994568,42,3.04356384277344,0.027518616989255,0.0345606617629528,0.0945639684796333,0.0200645960867405,0.0319169387221336,0.058564331382513,0.0936220288276672,3.00713920593262,0.0229489356279373,0.0297928731888533,0.0819555148482323,0.00160499883349985,0.0509396828711033,0.0455751903355122,0.0439398400485516,-8.83252239227295,0.0225708223879337,0.029001833871007,0.0719153061509132,0.00180807034485042,0.0112861376255751,0.0126164630055428,0.0258482918143272,2012-03-02 01:01:34
1.00999999046326,48,3.01983523368835,0.0293433498591185,0.0370953418314457,0.0876469686627388,0.122094951570034,0.112495578825474,0.0142292873933911,0.0500112250447273,3.02678155899048,0.0274620316922665,0.0325551368296146,0.0721196606755257,0.0307994205504656,0.0881236419081688,0.137396067380905,0.0267407409846783,-8.81393051147461,0.0331144109368324,0.0391365140676498,0.0905070528388023,0.025564219802618,0.103384703397751,0.133807376027107,0.100192978978157,2012-03-02 01:01:35
1.00999999046326,43,3.02911448478699,0.0240260157734156,0.0289377700537443,0.0599801316857338,0.019060367718339,0.0675755813717842,0.0664752498269081,0.0299938581883907,2.99422097206116,0.0186162795871496,0.0232377331703901,0.0522261261940002,0.00304955570027232,0.00991598982363939,0.0232068933546543,0.00862277951091528,-8.82917785644531,0.030782962217927,0.0395513661205769,0.114486739039421,0.0219416599720716,0.027466993778944,0.112751595675945,0.0870535746216774,2012-03-02 01:01:36
1.00500011444092,42,3.02651882171631,0.0338674448430538,0.0384574644267559,0.0649107322096825,0.167134836316109,0.24100150167942,0.0747961699962616,0.018667696043849,3.02021479606628,0.0189684126526117,0.0259890053421259,0.0880264192819595,0.00807268731296062,0.0195997301489115,0.0138715580105782,0.019129853695631,-8.87081527709961,0.0292864758521318,0.0358817651867867,0.0938634872436523,0.0120887318626046,0.0528358854353428,0.124815292656422,0.11287946999073,2012-03-02 01:01:37
1.00899982452393,49,3.03525829315186,0.0353055596351624,0.0431857407093048,0.112876549363136,0.0850286707282066,0.336607664823532,0.0791165456175804,0.0170954223722219,3.01604509353638,0.0328712947666645,0.0416089929640293,0.102469384670258,0.0424550734460354,0.110346227884293,0.0501338355243206,0.0479632057249546,-8.82898712158203,0.0262789987027645,0.0329865328967571,0.0716484636068344,0.0761116147041321,0.121142864227295,0.0427589528262615,0.113596633076668,2012-03-02 01:01:38
1.01600003242493,33,3.00558948516846,0.0254126712679863,0.0329364687204361,0.0638917684555054,0.0143982479348779,0.0251037236303091,0.0174388866871595,0.00770164141431451,3.00915575027466,0.0206399187445641,0.0259034112095833,0.0573541261255741,0.000265600101556629,0.001781958155334,0.0119399782270193,0.00738866534084082,-8.86818313598633,0.0298611521720886,0.0379029549658298,0.0912314057350159,0.0106393415480852,0.0220643244683743,0.0211266335099936,0.0227095615118742,2012-03-02 01:01:39
1.01800012588501,40,3.00941562652588,0.0281941648572683,0.0347540229558945,0.0796789899468422,0.00113293051254004,0.0623623989522457,0.119102329015732,0.0714846104383469,3.01113176345825,0.016744876280427,0.0218129530549049,0.0495236739516258,0.00154391943942755,0.00655071577057242,0.0280093401670456,0.0113018825650215,-8.84584331512451,0.0189268011599779,0.0223073959350586,0.0487879998981953,0.0279323197901249,0.0488998368382454,0.0164179522544146,0.00909549091011286,2012-03-02 01:01:40
1.00699996948242,47,3.03067207336426,0.0208918415009975,0.0256650671362877,0.0494506768882275,0.00702361622825265,0.0171887222677469,0.0412731282413006,0.0302784647792578,3.03609704971313,0.02207269705832,0.0276382956653833,0.0824174508452415,0.00258067087270319,0.0228234548121691,0.129792183637619,0.0485761053860188,-8.83203601837158,0.0257573947310448,0.0333973206579685,0.0943105965852737,0.0170541703701019,0.139079317450523,0.0885944738984108,0.0732953250408173,2012-03-02 01:01:41
1.02900004386902,40,3.04913258552551,0.0276669692248106,0.0328476577997208,0.0693819373846054,0.0157592296600342,0.037720687687397,0.0716157928109169,0.019499571993947,3.00500273704529,0.0216114614158869,0.0263037700206041,0.0546720698475838,0.000305194756947458,0.00969279929995537,0.0318777076900005,0.00408344017341733,-8.84682369232178,0.0443137213587761,0.0529552511870861,0.106647133827209,0.0514574870467186,0.0400978587567806,0.0475252158939838,0.00450584664940834,2012-03-02 01:01:42
1.01199984550476,43,3.01793956756592,0.023888137191534,0.0286178942769766,0.0759445801377296,2.21172867895802e-05,0.000919477897696197,0.0112881436944008,0.0552313737571239,2.99901032447815,0.0284600257873535,0.0372530408203602,0.0864353701472282,0.0554427541792393,0.0862040519714355,0.0427919402718544,0.0377342440187931,-8.80796813964844,0.0455698147416115,0.0508878156542778,0.0866632685065269,0.00953142624348402,0.149238109588623,0.183793038129807,0.0562857463955879,2012-03-02 01:01:43
1.01800012588501,40,3.03810024261475,0.019319074228406,0.0225978661328554,0.0470720715820789,0.00833502411842346,0.0335916355252266,0.0269581489264965,0.0130672669038177,2.99078297615051,0.0272012427449226,0.0329281613230705,0.0786983817815781,0.0235840491950512,0.039803646504879,0.0363891907036304,0.0486625283956528,-8.84878540039062,0.0204836055636406,0.0278573539108038,0.0850725397467613,0.000423182704253122,0.00964505691081285,0.0295820720493793,0.0289972648024559,2012-03-02 01:01:44
1.02799987792969,42,3.01414394378662,0.0272184610366821,0.0344279631972313,0.0847573950886726,0.0259040221571922,0.0637004822492599,0.0442628376185894,0.00965124927461147,3.01647877693176,0.0302983392030001,0.0358765311539173,0.0726158693432808,0.128086343407631,0.253787308931351,0.130571693181992,0.0221810322254896,-8.84489822387695,0.0363912805914879,0.0480612143874168,0.136592388153076,0.101568229496479,0.137597441673279,0.025139732286334,0.00891198869794607,2012-03-02 01:01:45
1.0090000629425,46,3.02940201759338,0.0275661274790764,0.0345101244747639,0.0793058574199677,0.11024085432291,0.0886937007308006,0.0104369437322021,0.0392076820135117,2.99955558776855,0.0258421711623669,0.0309850051999092,0.0601190589368343,0.017748361453414,0.0719211101531982,0.0593593716621399,0.0258590131998062,-8.8225736618042,0.0230428073555231,0.0290060620754957,0.0652354285120964,9.15679047466256e-05,0.0163981392979622,0.0252860393375158,0.0377024933695793,2012-03-02 01:01:46
1.00999999046326,37,3.03555560112,0.0220345128327608,0.0297795049846172,0.0837541595101357,0.0182385817170143,0.0486822165548801,0.0577839612960815,0.030034089460969,3.02044820785522,0.0355159714818001,0.0432599633932114,0.0784532502293587,0.0491872169077396,0.0543820410966873,0.0540493167936802,0.00682919519022107,-8.84877872467041,0.0352723598480225,0.0437411144375801,0.0914402231574059,0.0689017176628113,0.138656988739967,0.0604443401098251,0.0101178986951709,2012-03-02 01:01:47
1.01399993896484,42,3.02605199813843,0.0206139702349901,0.0282399468123913,0.0840570703148842,0.000155937304953113,0.000690488843247294,0.0120729831978679,0.0112316804006696,3.02862048149109,0.02194819226861,0.0258501544594765,0.067012220621109,0.0224134735763073,0.0430000722408295,0.0275260414928198,0.0125535139814019,-8.85633850097656,0.0437629334628582,0.0539602302014828,0.118613563477993,0.000407502899179235,0.0475412085652351,0.0710729956626892,0.253962159156799,2012-03-02 01:01:48
1.00500011444092,48,3.03556680679321,0.029726417735219,0.035694420337677,0.0829478204250336,0.047091506421566,0.122380062937737,0.0617746971547604,0.0713418126106262,3.0188136100769,0.022133082151413,0.0262021198868752,0.0506676584482193,0.000159194707521237,0.0350964665412903,0.047419760376215,0.0916629284620285,-8.83579158782959,0.0367748737335205,0.0469883382320404,0.10787296295166,0.0189425237476826,0.125217646360397,0.0914454236626625,0.0699973851442337,2012-03-02 01:01:49
1.00499987602234,40,3.02339005470276,0.0209372043609619,0.0280991122126579,0.0715886205434799,0.00560677051544189,0.0164300855249166,0.0680018290877342,0.0609268210828304,2.98489904403687,0.0299103371798992,0.0364094935357571,0.0649690926074982,0.0956673324108124,0.133629471063614,0.099330723285675,0.0508539974689484,-8.86692810058594,0.0314792916178703,0.0397675298154354,0.115963436663151,0.035367839038372,0.0228132419288158,0.0178159531205893,0.0208960473537445,2012-03-02 01:01:50
1.00100016593933,42,3.03188920021057,0.022337356582284,0.029491201043129,0.0768186524510384,0.00684858066961169,0.0320175625383854,0.0774114429950714,0.0648550465703011,3.02138209342957,0.0252171009778976,0.028854900971055,0.0597739554941654,0.0322608463466167,0.0735853239893913,0.112411811947823,0.0121641950681806,-8.84629821777344,0.0235826168209314,0.0304444320499897,0.0693469047546387,0.0107282549142838,0.04650903865695,0.0314538329839706,0.0554659180343151,2012-03-02 01:01:51
1.00499987602234,44,3.02713465690613,0.0160269625484943,0.0186739433556795,0.0361064709722996,0.000306917238049209,0.019654544070363,0.0517567694187164,0.00540074147284031,3.02869462966919,0.0172325354069471,0.021418359130621,0.0572798810899258,0.00398817239329219,0.0056491382420063,0.0453214012086391,0.0114991730079055,-8.83066558837891,0.0276064816862345,0.0334190726280212,0.0737726241350174,0.00287582632154226,0.0405078716576099,0.144055008888245,0.0442627221345901,2012-03-02 01:01:52
1,37,3.02760434150696,0.0123066594824195,0.0159026775509119,0.0365763157606125,0.000222105227294378,0.00233158748596907,0.00715153710916638,0.0138575378805399,3.02230358123779,0.023739404976368,0.0310815125703812,0.0803085565567017,0.0324743837118149,0.048547338694334,0.0132333720102906,0.0192303005605936,-8.8429479598999,0.0290832221508026,0.0376474633812904,0.0909101366996765,0.017770629376173,0.0156291630119085,0.0107250483706594,0.0204847157001495,2012-03-02 01:01:53
1.00099992752075,44,3.00328660011292,0.0260768216103315,0.0321957468986511,0.0710982382297516,0.00266980356536806,0.0420098416507244,0.114708803594112,0.0821375325322151,3.00908136367798,0.0277889296412468,0.0339676067233086,0.0702066719532013,0.0107937585562468,0.0877700597047806,0.0580078661441803,0.0415265187621117,-8.87590980529785,0.0356199592351913,0.0461309067904949,0.138184368610382,0.103311210870743,0.219800055027008,0.175380229949951,0.0275041162967682,2012-03-02 01:01:54
1.00400018692017,41,3.02547097206116,0.0424468889832497,0.0487271957099438,0.0932827591896057,0.114375628530979,0.198442682623863,0.157867431640625,0.0498532615602016,3.00896716117859,0.0214101672172546,0.0255269818007946,0.057165652513504,0.00223340350203216,0.0232588276267052,0.017869109287858,0.0399905852973461,-8.85109996795654,0.0292273834347725,0.0342495888471603,0.0643410831689835,0.0766463801264763,0.144153341650963,0.112977966666222,0.0385152660310268,2012-03-02 01:01:55
1.14199995994568,48,3.03434085845947,0.0384774729609489,0.0435280352830887,0.0743670240044594,0.025208156555891,0.154070854187012,0.28410816192627,0.0984693840146065,3.01677060127258,0.0244655720889568,0.0293944329023361,0.0747757628560066,0.0595676973462105,0.0960343554615974,0.0206927619874477,0.0620525367558002,-8.80310249328613,0.0266958344727755,0.0316085442900658,0.0719153061509132,0.00652532046660781,0.0732741951942444,0.10144567489624,0.099513091146946,2012-03-02 01:01:56
1.00699996948242,47,3.02128267288208,0.0230405237525702,0.0275025554001331,0.0596745982766151,0.0440056174993515,0.0572882331907749,0.0425643473863602,0.0182498227804899,3.01064157485962,0.0221171639859676,0.0273660998791456,0.0588399767875671,0.00584694184362888,0.104986362159252,0.149095445871353,0.0484754964709282,-8.85248374938965,0.044207539409399,0.0564587153494358,0.134371742606163,0.200008675456047,0.18059167265892,0.044885516166687,0.0599607490003109,2012-03-02 01:01:57
1.01600003242493,43,3.02022004127502,0.0248746499419212,0.0294950176030397,0.049261286854744,0.00227555725723505,0.0321670547127724,0.036241702735424,0.0287075024098158,2.99764204025269,0.0316953249275684,0.041104294359684,0.0914526656270027,0.00114489742554724,0.0124701159074903,0.0445860326290131,0.00648612203076482,-8.85015964508057,0.0393326058983803,0.0490262694656849,0.122925005853176,0.135585322976112,0.427621185779572,0.255350112915039,0.0104504432529211,2012-03-02 01:01:58
1.15400004386902,36,3.05804038047791,0.0204304847866297,0.0258943811058998,0.0702808722853661,0.00187129015102983,0.00459096068516374,0.00859290547668934,0.00467991083860397,3.00710034370422,0.0198857318609953,0.0266722720116377,0.0623811408877373,0.00331227411516011,0.00754686677828431,0.0162772238254547,0.00738463224843144,-8.8295259475708,0.0308273322880268,0.0406415499746799,0.094525046646595,0.0285757295787334,0.0559066347777843,0.0287585314363241,0.0220626704394817,2012-03-02 01:02:00
1.00599980354309,43,3.03367567062378,0.0287463534623384,0.0346158072352409,0.0750321820378304,0.0257968138903379,0.0531769543886185,0.0311065223067999,0.0255197025835514,2.99764204025269,0.0276008322834969,0.0327457562088966,0.0620327815413475,0.0621629953384399,0.0728355497121811,0.0180579330772161,0.0515309236943722,-8.81366920471191,0.0305071678012609,0.0368811041116714,0.0809617340564728,0.00857815146446228,0.0341356284916401,0.0366449877619743,0.113876588642597,2012-03-02 01:02:01
1.01800012588501,49,3.01044130325317,0.0342518389225006,0.0425155535340309,0.117479614913464,0.000739827519282699,0.0564763322472572,0.292464256286621,0.110899709165096,3.01044130325317,0.0202096551656723,0.0244657564908266,0.0492333695292473,0.0127304522320628,0.0447549223899841,0.0392494648694992,0.0152704268693924,-8.85040187835693,0.0361305586993694,0.0446602404117584,0.0932630822062492,0.190411299467087,0.216231152415276,0.0410043150186539,0.0481911413371563,2012-03-02 01:02:02
1.00699996948242,42,3.0412290096283,0.0226486641913652,0.0269164107739925,0.0600074827671051,0.000412614230299369,0.0190995465964079,0.0284945629537106,0.0079565616324544,3.00387024879456,0.0194910205900669,0.025723360478878,0.0656111165881157,0.0188978146761656,0.0494142919778824,0.0592142678797245,0.0137269115075469,-8.86194229125977,0.0364246368408203,0.0430485941469669,0.0849908217787743,0.125462293624878,0.204154536128044,0.0477499961853027,0.031414657831192,2012-03-02 01:02:03
1.01999998092651,40,3.02363538742065,0.0151144731789827,0.0173202324658632,0.036039374768734,0.00364668853580952,0.00422102026641369,0.0120676122605801,0.00644477130845189,3.0003445148468,0.0235605537891388,0.0284181907773018,0.0691368728876114,0.00490560987964272,0.0145878801122308,0.0100143793970346,0.0267620161175728,-8.84461784362793,0.033832885324955,0.0432938151061535,0.099046990275383,0.0355053506791592,0.126709923148155,0.253859221935272,0.03802839666605,2012-03-02 01:02:04
1.00399994850159,41,3.021644115448,0.0167663898319006,0.0229419860988855,0.0600359365344048,1.07546964045468e-06,0.00165378744713962,0.00568125583231449,0.00470537086948752,3.01446843147278,0.0298575162887573,0.0347817428410053,0.0648195296525955,0.0636550188064575,0.131370946764946,0.0434662960469723,0.0243244804441929,-8.84607696533203,0.0244553275406361,0.0307798311114311,0.0593181699514389,0.0221028514206409,0.0231236852705479,0.00497266044840217,0.0560427345335484,2012-03-02 01:02:05
1.00100016593933,48,3.01860952377319,0.0309011843055487,0.0402180515229702,0.106034398078918,0.0346715562045574,0.152522668242455,0.13145886361599,0.0531438253819942,3.00369501113892,0.0200219545513391,0.0241011399775743,0.0518935918807983,0.00992622040212154,0.0435155555605888,0.133266761898994,0.0165482480078936,-8.85785675048828,0.0337103009223938,0.0394048914313316,0.0907113552093506,0.00176824035588652,0.0592579618096352,0.193400904536247,0.0285309366881847,2012-03-02 01:02:06
1.01099991798401,39,3.04735350608826,0.0170342698693275,0.0213837828487158,0.0515476875007153,0.00120539963245392,0.00127273506950587,0.0296651422977448,0.0178095754235983,3.01089286804199,0.0244102720171213,0.0312085300683975,0.0787046775221825,0.00248187058605254,0.0191763862967491,0.0995995178818703,0.0341739133000374,-8.85087871551514,0.0154739767313004,0.0208144038915634,0.0739269256591797,0.00609838264063001,0.00807116273790598,0.00272881588898599,0.00288548786193132,2012-03-02 01:02:07
1,38,3.02380299568176,0.0349888242781162,0.0451798997819424,0.111228048801422,0.0445001162588596,0.118540666997433,0.175081640481949,0.125003173947334,2.99954438209534,0.0223163198679686,0.0283841956406832,0.0699369087815285,0.00531983701512218,0.0107702519744635,0.0132049014791846,0.0113603137433529,-8.828049659729,0.0471859313547611,0.054608341306448,0.115615040063858,0.204378500580788,0.290960937738419,0.0639860853552818,0.022188950330019,2012-03-02 01:02:08
1.02099990844727,40,3.01015114784241,0.0236830953508615,0.0308520384132862,0.0681562796235085,0.026424927636981,0.0397815778851509,0.0179243534803391,0.0128179751336575,3.01897716522217,0.03089096583426,0.036925021559,0.0799241289496422,0.047847606241703,0.0521311424672604,0.00357708986848593,0.0552777014672756,-8.80342960357666,0.0320186577737331,0.0361783690750599,0.0715884193778038,0.000145604135468602,0.0208729524165392,0.0865942016243935,0.0154200037941337,2012-03-02 01:02:09
1.0090000629425,49,3.01484441757202,0.0257317647337914,0.0299816746264696,0.0742502957582474,0.00023101078113541,0.025416050106287,0.0427987314760685,0.130969196557999,2.9976327419281,0.0214105192571878,0.0281858015805483,0.0654443949460983,0.0198084190487862,0.0764936804771423,0.0324373915791512,0.0271882377564907,-8.86040782928467,0.041334081441164,0.0498517863452435,0.10286957770586,0.141054317355156,0.272452473640442,0.358182996511459,0.0485104024410248,2012-03-02 01:02:10
1.01099991798401,42,3.04006147384644,0.0214811954647303,0.0249562729150057,0.0490331649780273,0.00010688864858821,0.00143584748730063,0.0126261003315449,0.0158357862383127,2.99289608001709,0.0190352126955986,0.023852800950408,0.0509011931717396,4.51760251962696e-06,0.00450873235240579,0.0332769528031349,0.0116785578429699,-8.83532428741455,0.0239495318382978,0.0294161923229694,0.0583728142082691,0.00221276027150452,0.00501026771962643,0.0827490016818047,0.0259940922260284,2012-03-02 01:02:11
1.00800013542175,43,3.05807828903198,0.0274734366685152,0.0328962281346321,0.0768568590283394,0.00370160024613142,0.0101656531915069,0.147276520729065,0.0518333651125431,3.01588702201843,0.0183192007243633,0.021500812843442,0.0444721356034279,0.0164977181702852,0.0245595052838326,0.00874202325940132,0.00392633443698287,-8.81823062896729,0.036404937505722,0.0454866401851177,0.105820409953594,0.0455879308283329,0.112229235470295,0.0672877952456474,0.12176801264286,2012-03-02 01:02:12
1.01399993896484,49,3.01604509353638,0.0201034471392632,0.0259127710014582,0.0632428303360939,0.0123700778931379,0.0615949630737305,0.0619823969900608,0.0320844873785973,3.02965450286865,0.0187719110399485,0.0231397096067667,0.0484329722821712,7.18658111509285e-06,0.00516503490507603,0.0968277752399445,0.0256430264562368,-8.82018089294434,0.0364164672791958,0.04465127363801,0.092262402176857,0.00393447047099471,0.0807485356926918,0.0745722353458405,0.0486628003418446,2012-03-02 01:02:13
1.00800013542175,41,3.01279425621033,0.0276173260062933,0.0336599685251713,0.0806059166789055,0.00106897263322026,0.00752801401540637,0.0589535161852837,0.0484518446028233,3.03336429595947,0.0357379615306854,0.0429071635007858,0.10117594897747,0.122358813881874,0.198471784591675,0.268064379692078,0.0574844293296337,-8.82574558258057,0.0189715474843979,0.0224554929882288,0.0487939789891243,0.0050194738432765,0.0186788327991962,0.0222393702715635,0.0109928688034415,2012-03-02 01:02:14
1.01599979400635,43,3.0341317653656,0.0306132938712835,0.0396315827965736,0.10194356739521,0.0089304456487298,0.0719917267560959,0.194206640124321,0.172611653804779,3.02614974975586,0.0145004568621516,0.0174701567739248,0.0433316379785538,9.20105492241419e-07,0.000253259931923822,0.0122702950611711,0.0144621329382062,-8.83693218231201,0.0260414108633995,0.0322285294532776,0.0894000008702278,0.0288098659366369,0.0249685924500227,0.01286690402776,0.0269148852676153,2012-03-02 01:02:15
1.01200008392334,43,3.02295684814453,0.0252459011971951,0.0307283066213131,0.0809619352221489,1.47935479617445e-05,0.0321376249194145,0.0631371811032295,0.00648993859067559,3.02022004127502,0.02354871109128,0.02972162514925,0.0782251879572868,0.0102212755009532,0.0064768185839057,0.0680864155292511,0.0531677752733231,-8.84491443634033,0.0216817278414965,0.0260229762643576,0.059523981064558,0.0216408204287291,0.0264443922787905,0.00467427633702755,0.0189609937369823,2012-03-02 01:02:16
1.00999999046326,42,3.04776668548584,0.0251837074756622,0.0322801247239113,0.090361125767231,0.000214971994864754,0.00873881857842207,0.073438823223114,0.121577993035316,3.0097074508667,0.0215702503919601,0.0258407332003117,0.0597738586366177,0.0215465165674686,0.0553816743195057,0.0509365051984787,0.00245149014517665,-8.82318305969238,0.0413613095879555,0.0478172786533833,0.0910615921020508,0.186760574579239,0.313726663589478,0.160775974392891,0.0131219774484634,2012-03-02 01:02:17
1.00099992752075,48,3.00492095947266,0.0326888673007488,0.0419816300272942,0.0939803197979927,0.283827692270279,0.312719166278839,0.172420471906662,0.0955935940146446,3.01166296005249,0.0191280990839005,0.0250213723629713,0.0774316042661667,0.00518292794004083,0.0201931595802307,0.0191006399691105,0.0160303730517626,-8.84253406524658,0.0264830160886049,0.0345069617033005,0.095001757144928,0.0339259468019009,0.029865238815546,0.00956287514418364,0.10580126196146,2012-03-02 01:02:18
1.00200009346008,40,3.02927422523499,0.017553923651576,0.0224484726786613,0.0480527058243752,0.0200015511363745,0.0393903441727161,0.0545582212507725,0.0153577951714396,3.02559661865234,0.0235237050801516,0.0274750478565693,0.054181843996048,0.0368376895785332,0.0450166612863541,0.0174761768430471,0.0157888066023588,-8.80637168884277,0.0289295669645071,0.032227884978056,0.0588397979736328,0.00595151167362928,0.0314570851624012,0.0691304802894592,0.0325489267706871,2012-03-02 01:02:19
1.01799988746643,41,3.03336429595947,0.0392382629215717,0.0445169918239117,0.101175934076309,0.0332883037626743,0.180923566222191,0.172424703836441,0.0132976360619068,3.00370502471924,0.022810285910964,0.0284260399639606,0.071516826748848,0.0012003235751763,0.0166785772889853,0.0374313332140446,0.0089251296594739,-8.86401557922363,0.026882192119956,0.0352716483175755,0.0894556269049644,8.60780637594871e-05,0.013206509873271,0.109507255256176,0.0327753722667694,2012-03-02 01:02:20
1.00300002098083,49,3.03445768356323,0.0212715491652489,0.0257561430335045,0.0644436106085777,0.0104292687028646,0.0730917751789093,0.0484295934438705,0.0364978238940239,3.02204918861389,0.0275206957012415,0.0355712808668613,0.0898609757423401,0.00791502930223942,0.180380642414093,0.249861896038055,0.191547840833664,-8.82638549804688,0.0332633145153522,0.0396722629666328,0.0878594294190407,0.126759812235832,0.251261681318283,0.16935507953167,0.166607409715652,2012-03-02 01:02:21
1.00800013542175,35,3.02717280387878,0.0253772176802158,0.0374910682439804,0.120761953294277,0.00900901947170496,0.0128925647586584,0.0121385464444757,0.0313412062823772,3.02381038665771,0.0223031267523766,0.0272318311035633,0.0720089077949524,0.00067142944317311,0.0142958294600248,0.0285827368497849,0.0117293763905764,-8.81869983673096,0.0252810996025801,0.0305958744138479,0.0711681395769119,0.0048770559951663,0.00884545594453812,0.0183436069637537,0.02059574611485,2012-03-02 01:02:22
1.00799989700317,43,3.02113246917725,0.0178630445152521,0.0254142917692661,0.0679622739553452,0.0124845523387194,0.02006302960217,0.00305541954003274,0.0212814416736364,2.99444913864136,0.0254156831651926,0.0313616245985031,0.0652256533503532,0.0397906303405762,0.0748170167207718,0.0143139911815524,0.0799156278371811,-8.83966827392578,0.0227636937052011,0.0275057349354029,0.0823301076889038,0.00419382797554135,0.0116859059780836,0.0196479726582766,0.00832945574074984,2012-03-02 01:02:23
1.09400010108948,46,3.00595140457153,0.0309215765446424,0.0359296537935734,0.073336660861969,0.00198594387620687,0.100995525717735,0.111629292368889,0.0442045703530312,2.99976897239685,0.0216711070388556,0.0279048848897219,0.0697124749422073,0.0331302881240845,0.0489015318453312,0.122227743268013,0.0308705624192953,-8.82662487030029,0.0309400204569101,0.0378376580774784,0.0888992622494698,0.110524632036686,0.177050456404686,0.0374560803174973,0.0223625022917986,2012-03-02 01:02:24
1.09500002861023,45,3.02589631080627,0.0325919762253761,0.0413254946470261,0.0839013755321503,0.00862613320350647,0.01386374887079,0.1188825070858,0.0167847387492657,3.0041036605835,0.0184510909020901,0.022170701995492,0.0523021891713142,0.0296345297247171,0.0605049282312393,0.0282895304262638,0.0145319271832705,-8.83949661254883,0.0295022260397673,0.0389690175652504,0.0845549702644348,0.0265304390341043,0.124012224376202,0.23602856695652,0.122189186513424,2012-03-02 01:02:25
1.01099991798401,50,2.99965810775757,0.0301888454705477,0.0381649099290371,0.0968896895647049,0.0101663116365671,0.161561012268066,0.163123548030853,0.0861478745937347,3.00789570808411,0.0317108370363712,0.0384861007332802,0.0953206121921539,0.16293740272522,0.124272659420967,0.0740977823734283,0.09964369982481,-8.81774711608887,0.0320873036980629,0.0396828278899193,0.0996353924274445,0.0123826321214437,0.0560145080089569,0.116934038698673,0.114757910370827,2012-03-02 01:02:26
1.00200009346008,42,3.01647877693176,0.0391710251569748,0.0466919206082821,0.12164905667305,0.0241154786199331,0.241199851036072,0.277385354042053,0.0758666768670082,3.00854015350342,0.0459311679005623,0.0526165179908276,0.100167833268642,0.0516305156052113,0.186338007450104,0.217138960957527,0.0249088015407324,-8.8220157623291,0.030109254643321,0.037742618471384,0.0922290459275246,0.00646684085950255,0.0258949603885412,0.194086000323296,0.12845005095005,2012-03-02 01:02:27
1.01199984550476,41,3.04508447647095,0.0266955215483904,0.0358604080975056,0.1126569211483,0.0882957577705383,0.178445354104042,0.126642599701881,0.056777186691761,3.0209264755249,0.0140944821760058,0.018244119361043,0.0485547930002213,0.00900620501488447,0.0252473820000887,0.0293669458478689,0.0152713358402252,-8.79441261291504,0.0286206677556038,0.0342813096940517,0.0806057378649712,0.0153252184391022,0.031369537115097,0.0259095691144466,0.0293589364737272,2012-03-02 01:02:28
1.0090000629425,49,3.0252513885498,0.0199318770319223,0.0235361717641354,0.0538366287946701,0.0205472391098738,0.0412040874361992,0.00649693980813026,0.0168712679296732,3.02405071258545,0.0245962701737881,0.0305454712361097,0.0918623358011246,0.0761631727218628,0.133631333708763,0.0448751039803028,0.0323274061083794,-8.8353910446167,0.0288113243877888,0.038720890879631,0.118079863488674,0.066522441804409,0.13863468170166,0.235839858651161,0.193169176578522,2012-03-02 01:02:29
1.0090000629425,35,3.03445768356323,0.0166512690484524,0.0207416135817766,0.0546369627118111,3.36985103785992e-05,0.0065143727697432,0.0226540621370077,0.00988629087805748,3.01148200035095,0.0249129142612219,0.0305985249578953,0.0792938098311424,0.00127951428294182,0.00157474295701832,0.00150528294034302,0.0261930003762245,-8.85064125061035,0.035415954887867,0.0490819737315178,0.112916372716427,0.0715126097202301,0.142827749252319,0.112137511372566,0.0996147245168686,2012-03-02 01:02:30
1.0090000629425,42,3.0055046081543,0.0224152635782957,0.0250697154551744,0.0537031255662441,0.0116613209247589,0.0419506020843983,0.0436260960996151,0.0132178105413914,3.01414394378662,0.0201803725212812,0.0243828743696213,0.0553374923765659,0.00384553475305438,0.0223375465720892,0.038067702203989,0.0142706977203488,-8.84886741638184,0.0474765561521053,0.0531847774982452,0.104604087769985,0.00823197141289711,0.0480395406484604,0.155186355113983,0.0413849763572216,2012-03-02 01:02:31
1.25799989700317,49,3.04246306419373,0.0301755499094725,0.0348006002604961,0.0808548927307129,0.0635850206017494,0.176639765501022,0.0738758146762848,0.0582648143172264,3.01304316520691,0.0188617985695601,0.022109379991889,0.0466316044330597,0.0627814829349518,0.0619704574346542,0.00692258635535836,0.0105495443567634,-8.83559131622314,0.0402312949299812,0.0501801259815693,0.11787973344326,1.75208026576001e-06,0.197857141494751,0.307246446609497,0.114671275019646,2012-03-02 01:02:32
1,43,3.02820229530334,0.0227212980389595,0.0276208966970444,0.0567874535918236,0.0270895771682262,0.0488163121044636,0.0246827825903893,0.0125179477035999,3.00836086273193,0.035736758261919,0.0402307771146297,0.0663659647107124,0.214345455169678,0.362835347652435,0.117507137358189,0.0294479001313448,-8.84103679656982,0.0438620075583458,0.0513436682522297,0.10262755304575,0.0195011254400015,0.137243628501892,0.117071449756622,0.198083505034447,2012-03-02 01:02:33
1.01999998092651,42,3.0160117149353,0.0302872434258461,0.0356295146048069,0.0740168914198875,0.0110792089253664,0.0167717579752207,0.0763176307082176,0.109943151473999,3.0181131362915,0.0290641747415066,0.035410787910223,0.0761183202266693,0.050411656498909,0.0967741683125496,0.12680771946907,0.0520826913416386,-8.79889965057373,0.0201914347708225,0.0262799579650164,0.0611747093498707,0.011847716756165,0.0114411832764745,0.0210199747234583,0.0265090111643076,2012-03-02 01:02:34
1.00099992752075,38,3.01373839378357,0.016706632450223,0.0223971493542194,0.0717434659600258,0.000216011874726973,0.000773484818637371,0.00248647970147431,0.017867736518383,3.00677037239075,0.0193552784621716,0.0227819252759218,0.0430976524949074,0.0197580419480801,0.0342436246573925,0.0209298338741064,0.00227150996215641,-8.83940410614014,0.0148321930319071,0.0180574748665094,0.0356135629117489,0.00201246771030128,0.0032365620136261,0.00804005097597837,0.00493181124329567,2012-03-02 01:02:35
1.01300001144409,44,3.03872418403625,0.0201198179274797,0.0264127124100924,0.0699837133288383,0.033156406134367,0.040845200419426,0.0577424988150597,0.0332344733178616,2.99169683456421,0.0256614834070206,0.0332163944840431,0.0889284461736679,0.000366620515706018,0.0416200794279575,0.128586202859879,0.0258453041315079,-8.83222579956055,0.0434004291892052,0.0490372180938721,0.0945002809166908,0.271089851856232,0.414739787578583,0.0668184831738472,0.0385889261960983,2012-03-02 01:02:36
1.01600003242493,39,3.01466464996338,0.0259576588869095,0.0322369895875454,0.0726698338985443,0.0234071332961321,0.0284505039453506,0.069851741194725,0.0497303493320942,3.01365900039673,0.0254160929471254,0.0304621458053589,0.0754357203841209,0.037920955568552,0.053463526070118,0.0230629593133926,0.047905296087265,-8.86043357849121,0.0262799710035324,0.0319413505494595,0.0734240189194679,0.00253744493238628,0.00898945704102516,0.0646720975637436,0.0435616299510002,2012-03-02 01:02:37
1.00099992752075,42,3.03072190284729,0.0182345770299435,0.0237290076911449,0.0593069978058338,0.00136550317984074,0.00926334597170353,0.00776999955996871,0.0188150871545076,3.02091503143311,0.0374476090073586,0.0454439856112003,0.0985334739089012,0.00559073220938444,0.0738431885838509,0.0883926302194595,0.0542100146412849,-8.82855319976807,0.0280300695449114,0.0361308380961418,0.115111194550991,0.0647419393062592,0.0806271582841873,0.0312620028853416,0.0187581852078438,2012-03-02 01:02:38
1.01400017738342,41,3.03408169746399,0.0356796123087406,0.0436893664300442,0.0844327583909035,0.126154661178589,0.181606099009514,0.0558339580893517,0.0383040830492973,3.00537943840027,0.0239770170301199,0.032205943018198,0.0739086046814919,0.0073240390047431,0.0241954531520605,0.0456267632544041,0.0387534163892269,-8.82813739776611,0.0285156592726707,0.0356892682611942,0.0861070230603218,0.0444685742259026,0.041538804769516,0.00675436714664102,0.020720986649394,2012-03-02 01:02:39
1.00600004196167,48,3.03720116615295,0.0271385088562965,0.0323989354074001,0.0715067163109779,0.00314948195591569,0.0405229963362217,0.0566295422613621,0.0523365698754787,2.99102807044983,0.0224736407399178,0.0283800903707743,0.0686465874314308,0.0151351457461715,0.0131213264539838,0.0329369604587555,0.0163688752800226,-8.85193157196045,0.0314033590257168,0.0394551753997803,0.091732881963253,0.00156158162280917,0.0872324109077454,0.0894820690155029,0.0450285114347935,2012-03-02 01:02:40
1.01299977302551,42,3.03165578842163,0.0206806641072035,0.0255521219223738,0.070047602057457,0.000403240585001186,0.000332814699504524,0.00814042985439301,0.0286890398710966,2.99756598472595,0.0213256534188986,0.0270407609641552,0.0621087998151779,0.00215988722629845,0.0545406341552734,0.081836424767971,0.039506446570158,-8.83322334289551,0.0284970533102751,0.0328094698488712,0.0856912955641747,0.00109074683859944,0.00121681008022279,0.0547003895044327,0.0659427121281624,2012-03-02 01:02:41
1.01600003242493,42,3.02231597900391,0.0338896587491035,0.0412877798080444,0.106005109846592,0.116562098264694,0.16607066988945,0.0405244678258896,0.0416090600192547,2.98892664909363,0.0231157317757607,0.0276990905404091,0.0567384734749794,0.068136565387249,0.107706114649773,0.0371485725045204,0.0162112191319466,-8.85073471069336,0.0282413233071566,0.0334439054131508,0.0635096207261086,0.00684995809569955,0.0059318644925952,0.0546531826257706,0.0279922410845757,2012-03-02 01:02:42
1.14499998092651,49,3.02625203132629,0.0246616248041391,0.0294478628784418,0.064643919467926,0.0211661346256733,0.0373707190155983,0.0935921221971512,0.0958645343780518,3.01164221763611,0.0227174684405327,0.02725525572896,0.067645825445652,0.012269371189177,0.0366482734680176,0.0309337880462408,0.104843452572823,-8.83198928833008,0.0417506881058216,0.0522617772221565,0.131288796663284,0.000918981852009892,0.0657001659274101,0.155322775244713,0.138825729489326,2012-03-02 01:02:44
1.04000020027161,38,3.00831890106201,0.0163806676864624,0.0217469073832035,0.0513558462262154,0.000313376425765455,0.00195289112161845,0.00214372971095145,0.0106850480660796,3.01167368888855,0.0237424429506063,0.0288807954639196,0.0696788802742958,0.000384972459869459,0.0230526998639107,0.0442577227950096,0.00350146344862878,-8.83734035491943,0.0283876210451126,0.0330288372933865,0.070194847881794,0.0577059909701347,0.124542556703091,0.0582273527979851,0.0299487598240376,2012-03-02 01:02:45
1.0389997959137,45,3.02872920036316,0.0308292042464018,0.0352649129927158,0.0701719596982002,0.0855414122343063,0.100120231509209,0.0801852270960808,0.0222100298851728,3.01783299446106,0.0179280042648315,0.0261019933968782,0.0660315379500389,0.00152533710934222,0.00957591738551855,0.0105052124708891,0.0108342794701457,-8.84450817108154,0.0295409690588713,0.0401538610458374,0.12857586145401,0.0170013122260571,0.0159498546272516,0.0853035375475883,0.13683608174324,2012-03-02 01:02:46
1.19700002670288,39,3.00561237335205,0.0139653561636806,0.016747634857893,0.0442556589841843,0.00397356878966093,0.0128154521808028,0.0120425838977098,0.00516296364367008,3.01466488838196,0.0129723818972707,0.0158155728131533,0.0334433391690254,0.00297913956455886,0.00694748293608427,0.00247952854260802,0.00666884053498507,-8.82145881652832,0.0289750229567289,0.0381975546479225,0.113153457641602,0.000570008880458772,0.0466338917613029,0.0747964680194855,0.0109433894976974,2012-03-02 01:02:47
1.01500010490417,52,3.05099964141846,0.0504694022238255,0.0656345263123512,0.185194745659828,0.446316570043564,1.66871643066406,0.473358809947968,0.150212749838829,3.02931189537048,0.0281360987573862,0.0333814062178135,0.0793960615992546,0.00137686531525105,0.00881759263575077,0.151315525174141,0.0336552709341049,-8.82070446014404,0.0428532436490059,0.0559877790510654,0.142573356628418,0.0230962131172419,0.23167996108532,0.558449864387512,0.560166299343109,2012-03-02 01:02:48
1.01399993896484,42,3.4505398273468,0.0891938209533691,0.110837489366531,0.285793870687485,0.930926203727722,1.95732879638672,1.76661765575409,0.269062012434006,3.11221027374268,0.104270696640015,0.143838629126549,0.46721687912941,0.0146623970940709,1.34714531898499,1.34039294719696,0.513431787490845,-8.63288688659668,0.118058077991009,0.147076338529587,0.356074601411819,0.159580454230309,2.57439422607422,3.33834075927734,0.909934043884277,2012-03-02 01:02:49
1.01300001144409,48,3.43641352653503,0.0667397156357765,0.0798161625862122,0.210025757551193,1.2446950674057,1.85096001625061,0.44387811422348,0.290644079446793,3.08357834815979,0.0317694246768951,0.0394255854189396,0.102356977760792,0.0449691377580166,0.10274562984705,0.159375444054604,0.111270621418953,-8.67234706878662,0.0676933825016022,0.0844867825508118,0.24843518435955,0.0909730345010757,0.575770914554596,0.732964992523193,0.221481755375862,2012-03-02 01:02:50
1.00699996948242,40,2.86844515800476,0.202507302165031,0.256645858287811,0.554075837135315,6.29462432861328,8.06739902496338,2.48302865028381,0.591546535491943,3.10919833183289,0.0657535791397095,0.091284841299057,0.283902436494827,0.220399737358093,0.35194143652916,0.389711707830429,0.160922989249229,-8.85123729705811,0.139291077852249,0.166480422019958,0.329258531332016,0.00135719252284616,0.0167209673672915,0.519558668136597,0.781390249729156,2012-03-02 01:02:51
1.01200008392334,40,2.38840961456299,0.0270417984575033,0.0360952205955982,0.0936535745859146,0.00587485311552882,0.0361902415752411,0.149253636598587,0.12371576577425,3.27468538284302,0.0329871699213982,0.0399786680936813,0.118415236473083,0.0180054325610399,0.0239233318716288,0.0862329676747322,0.040093794465065,-8.97406482696533,0.046581506729126,0.0643736571073532,0.185345366597176,0.00664822617545724,0.00996327307075262,0.0205076169222593,0.050591379404068,2012-03-02 01:02:52
