"diffSecs","level","azimuth.mean","azimuth.absolute.deviation","azimuth.standard.deviation","azimuth.max.deviation","pitch.mean","pitch.absolute.deviation","pitch.standard.deviation","pitch.max.deviation","roll.mean","roll.absolute.deviation","roll.standard.deviation","roll.max.deviation","time"
3.29800009727478,12,27.625,0.895833373069763,1.03450882434845,1.7749992609024,22.7083339691162,0.975000083446503,1.11539101600647,1.89166676998138,2.19166660308838,0.958333313465118,1.13685119152069,1.99166667461395,2012-01-17 17:08:03
0.312999963760376,99,30.5848484039307,0.451790660619736,0.5446457862854,1.11515188217163,18.353536605835,0.831486523151398,1.01128113269806,2.74646472930908,4.53030300140381,0.68013471364975,0.802326738834381,1.56969678401947,2012-01-17 17:08:03
1.00300002098083,96,28.9093761444092,0.333463549613953,0.406734526157379,0.990624189376831,21.0239582061768,0.396050363779068,0.492600321769714,1.32395792007446,1.80000007152557,0.491666674613953,0.577169835567474,1.39999997615814,2012-01-17 17:08:04
1.01099991798401,43,27.804651260376,0.289561867713928,0.367868632078171,0.895349383354187,20.8116283416748,0.089561402797699,0.118535965681076,0.288371950387955,1.22093021869659,0.131314218044281,0.162191584706306,0.420930236577988,2012-01-17 17:08:05
1.02699995040894,44,27.60227394104,0.189049735665321,0.240726798772812,0.502272665500641,20.6931819915771,0.112913429737091,0.137175679206848,0.39318123459816,1.01363635063171,0.153719022870064,0.181647658348083,0.386363595724106,2012-01-17 17:08:06
1.00699996948242,44,27.9750003814697,0.373863697052002,0.418940842151642,0.725000441074371,20.8409099578857,0.11735487729311,0.138691961765289,0.25909087061882,0.756818175315857,0.141942158341408,0.171089723706245,0.356818199157715,2012-01-17 17:08:07
1.05800008773804,31,27.5322589874268,0.196878373622894,0.263214737176895,0.667742431163788,20.7129039764404,0.0988554507493973,0.118435934185982,0.212903797626495,0.680645167827606,0.114047862589359,0.14009065926075,0.280645161867142,2012-01-17 17:08:08
1.01099991798401,51,27.619607925415,0.222222447395325,0.29105606675148,0.880391776561737,20.6980400085449,0.104498513042927,0.130594864487648,0.298040121793747,0.61176472902298,0.113956160843372,0.133793890476227,0.311764687299728,2012-01-17 17:08:09
1.04900002479553,23,27.3043479919434,0.153118774294853,0.194440677762032,0.404348611831665,20.6043472290039,0.100945465266705,0.126760110259056,0.295651465654373,0.508695662021637,0.0982986837625504,0.124806091189384,0.291304349899292,2012-01-17 17:08:10
1.0220000743866,53,27.9962272644043,0.38483452796936,0.429551094770432,0.803774178028107,20.8811321258545,0.129369422793388,0.15907333791256,0.418868631124496,0.286792457103729,0.099964402616024,0.122916966676712,0.286792457103729,2012-01-17 17:08:11
1.01699995994568,48,27.4500007629395,0.193750157952309,0.238921329379082,0.450000286102295,20.7604179382324,0.0879340320825577,0.111316964030266,0.339583039283752,0.347916662693024,0.0999131947755814,0.124146394431591,0.347916662693024,2012-01-17 17:08:12
1.01200008392334,44,27.3318176269531,0.148759976029396,0.176805779337883,0.431818693876266,20.8363647460938,0.19752049446106,0.22872269153595,0.463636994361877,0.306818187236786,0.103202477097511,0.125041320919991,0.306818187236786,2012-01-17 17:08:13
1.01099991798401,43,27.8395347595215,0.427474170923233,0.475022315979004,0.760465025901794,20.9674415588379,0.135532572865486,0.156592845916748,0.332558840513229,0.181395351886749,0.101892918348312,0.129858270287514,0.318604648113251,2012-01-17 17:08:14
1.0090000629425,46,27.3304347991943,0.153118744492531,0.197670757770538,0.469565898180008,20.8586959838867,0.0778821408748627,0.0968546867370605,0.258695632219315,0.184782609343529,0.0967863947153091,0.11222530156374,0.215217396616936,2012-01-17 17:08:15
1.00699996948242,45,27.1577777862549,0.139062002301216,0.169297903776169,0.357777059078217,20.9155559539795,0.103802382946014,0.124642446637154,0.215555101633072,0.0799999982118607,0.0871111154556274,0.10022197663784,0.280000001192093,2012-01-17 17:08:16
1.02099990844727,44,27.4590911865234,0.403512507677078,0.448896825313568,0.840909719467163,20.9386367797852,0.146694257855415,0.179919064044952,0.361364454030991,-0.052272729575634,0.123037189245224,0.148459732532501,0.352272748947144,2012-01-17 17:08:17
1.13300013542175,26,27.0038471221924,0.205029726028442,0.280769288539886,0.603846609592438,21.1692314147949,0.210651010274887,0.246153995394707,0.530769944190979,-0.56538462638855,0.178106516599655,0.207442864775658,0.43461537361145,2012-01-17 17:08:19
1.07599997520447,50,26.3859996795654,0.3019999563694,0.345259428024292,0.714000105857849,22.0580005645752,0.210640117526054,0.254629105329514,0.558000206947327,-1.05400002002716,0.214320003986359,0.253937005996704,0.445999979972839,2012-01-17 17:08:20
1.40899991989136,46,26.447826385498,0.206805482506752,0.259380012750626,0.547826707363129,21.8478260040283,0.106615714728832,0.126386135816574,0.252173960208893,-0.713043510913849,0.0984877198934555,0.122667275369167,0.286956518888474,2012-01-17 17:08:21
1.01699995994568,53,26.6301898956299,0.316055595874786,0.365278363227844,0.669811964035034,22.0830192565918,0.121751792728901,0.155084922909737,0.416980773210526,-1.066037774086,0.108793176710606,0.131670549511909,0.333962202072144,2012-01-17 17:08:22
1.32200002670288,45,26.3688888549805,0.144295901060104,0.177416205406189,0.431111872196198,21.8999996185303,0.106666684150696,0.147572830319405,0.400000840425491,-0.855555593967438,0.138765439391136,0.165402621030807,0.355555564165115,2012-01-17 17:08:23
1.01900005340576,53,26.4528312683105,0.267354905605316,0.308131098747253,0.54716944694519,21.9660377502441,0.0925596058368683,0.113176017999649,0.266037166118622,-1.00188684463501,0.0895692482590675,0.128107517957687,0.398113161325455,2012-01-17 17:08:24
1.01999998092651,48,26.1458339691162,0.145833492279053,0.175544813275337,0.354166358709335,21.8937492370605,0.0919266119599342,0.121460042893887,0.293749809265137,-1.02083337306976,0.0993055626749992,0.120689578354359,0.220833346247673,2012-01-17 17:08:25
1.01699995994568,45,26.1644439697266,0.302716106176376,0.353494048118591,0.664444804191589,21.9799995422363,0.0826667696237564,0.100222013890743,0.279999315738678,-1.00444447994232,0.0855308696627617,0.107404857873917,0.204444453120232,2012-01-17 17:08:26
1,39,26.5102558135986,0.332544416189194,0.384837508201599,0.710255563259125,22.0102558135986,0.12649604678154,0.158186882734299,0.310255944728851,-1.04871797561646,0.15516109764576,0.185184329748154,0.351282000541687,2012-01-17 17:08:27
1.00699996948242,49,26.0571441650391,0.182507455348969,0.2213134765625,0.457143038511276,22.0102043151855,0.140275061130524,0.18097797036171,0.489795804023743,-1.0306122303009,0.0745522752404213,0.0885347425937653,0.230612248182297,2012-01-17 17:08:28
1.02000021934509,48,26.1770839691162,0.190798610448837,0.23999947309494,0.577083468437195,22.0166664123535,0.106944717466831,0.129636436700821,0.316666126251221,-1.20833337306976,0.11458332836628,0.142643690109253,0.308333337306976,2012-01-17 17:08:29
1,30,26.2066669464111,0.187555551528931,0.242120146751404,0.506666481494904,22.0566673278809,0.10711146146059,0.125654190778732,0.256665796041489,-1.13999998569489,0.120000019669533,0.13808211684227,0.259999930858612,2012-01-17 17:08:30
1.01899981498718,49,26.191837310791,0.301874428987503,0.36802676320076,0.691837131977081,22.018367767334,0.122282639145851,0.149384558200836,0.318366885185242,-1.14897966384888,0.119283638894558,0.143031969666481,0.351020395755768,2012-01-17 17:08:31
1.01700019836426,39,26.2153854370117,0.270611375570297,0.308460474014282,0.515384256839752,22.0256404876709,0.0982251539826393,0.119224146008492,0.274359911680222,-1.26410257816315,0.0925706848502159,0.116546854376793,0.264102607965469,2012-01-17 17:08:32
1.00999999046326,48,26.122917175293,0.310069471597672,0.345952481031418,0.677084028720856,22.1312503814697,0.140885636210442,0.172187328338623,0.368749648332596,-1.29791665077209,0.0943576321005821,0.116349995136261,0.202083304524422,2012-01-17 17:08:33
1.00499987602234,47,26.1255321502686,0.152648508548737,0.188463196158409,0.525532007217407,21.638298034668,0.261385083198547,0.307046949863434,0.638298034667969,-1.27872347831726,0.112901762127876,0.141325280070305,0.32127657532692,2012-01-17 17:08:34
1.0090000629425,48,26.685417175293,0.513455033302307,0.577346622943878,0.885415971279144,20.1395835876465,0.343663185834885,0.39409151673317,0.76041579246521,-0.977083325386047,0.615190982818604,0.693793773651123,1.27708339691162,2012-01-17 17:08:35
1.01199984550476,21,26.5285720825195,0.525170087814331,0.562429189682007,0.771429240703583,21.2904758453369,0.811791241168976,0.847913146018982,1.29047667980194,-0.661904811859131,0.704308390617371,0.755598902702332,1.16190481185913,2012-01-17 17:08:36
1.03299999237061,49,25.036735534668,0.549854278564453,0.632356703281403,1.13673555850983,22.4122447967529,0.13644303381443,0.162421137094498,0.312244921922684,-3.4693877696991,0.520366489887238,0.63187575340271,1.56938779354095,2012-01-17 17:08:38
1.01500010490417,32,23.9437503814697,0.245312467217445,0.324939906597137,0.843750178813934,22.4875011444092,0.144531190395355,0.196452811360359,0.612500071525574,-4.47812509536743,0.136328056454659,0.183259293437004,0.421875029802322,2012-01-17 17:08:39
1.00500011444092,42,23.5928573608398,0.297279059886932,0.358829438686371,0.707143545150757,22.7642860412598,0.153401449322701,0.18493427336216,0.435714572668076,-5.22857141494751,0.123809553682804,0.154743611812592,0.428571343421936,2012-01-17 17:08:40
1.01599979400635,48,23.2000007629395,0.195833519101143,0.240658938884735,0.500000476837158,22.5416660308838,0.0923613309860229,0.109608039259911,0.241665795445442,-5.48958349227905,0.138020813465118,0.183983251452446,0.410416692495346,2012-01-17 17:08:41
1.0090000629425,44,23.1272735595703,0.126446530222893,0.154278010129929,0.372726917266846,22.4977264404297,0.0759298577904701,0.101104527711868,0.297726631164551,-5.65909099578857,0.112810045480728,0.140321418642998,0.359090834856033,2012-01-17 17:08:42
1.0090000629425,36,23.1805553436279,0.345061749219894,0.390739560127258,0.819444060325623,22.5972232818604,0.0975312367081642,0.11899184435606,0.202778548002243,-5.73888874053955,0.143209874629974,0.167129009962082,0.361110925674438,2012-01-17 17:08:43
1.00200009346008,52,22.9538459777832,0.357692390680313,0.417622298002243,0.753845751285553,22.7769241333008,0.240236788988113,0.260632038116455,0.423077523708344,-6.02500009536743,0.10384614020586,0.126908496022224,0.324999779462814,2012-01-17 17:08:44
1.01899981498718,48,22.783332824707,0.285416662693024,0.327448070049286,0.616665959358215,22.783332824707,0.304166704416275,0.330613940954208,0.58333295583725,-5.96250009536743,0.0781249329447746,0.0949231460690498,0.262499749660492,2012-01-17 17:08:45
1.01900005340576,36,22.9361114501953,0.129012271761894,0.156618297100067,0.363889634609222,22.4194450378418,0.087037019431591,0.112594090402126,0.280556082725525,-6.11388874053955,0.0970680117607117,0.129427805542946,0.286111176013947,2012-01-17 17:08:46
1.00999999046326,44,23.0477275848389,0.340599328279495,0.396856307983398,0.752273499965668,22.5136375427246,0.133057966828346,0.164580598473549,0.313636094331741,-6.04545450210571,0.1384297311306,0.169832184910774,0.454545378684998,2012-01-17 17:08:47
1.01699995994568,48,22.7208347320557,0.156597286462784,0.207121476531029,0.620833456516266,22.3895835876465,0.0805550143122673,0.106535248458385,0.210416838526726,-6.25416660308838,0.0909722372889519,0.111725762486458,0.254166811704636,2012-01-17 17:08:48
1.00600004196167,39,22.9384613037109,0.251282036304474,0.302650928497314,0.761538743972778,22.5564117431641,0.16199891269207,0.18228605389595,0.356410056352615,-6.34358978271484,0.0908612161874771,0.108118765056133,0.243589967489243,2012-01-17 17:08:49
1.0220000743866,46,22.7869567871094,0.193950891494751,0.292373150587082,0.913043797016144,22.3934783935547,0.11257042735815,0.137369722127914,0.393478572368622,-6.14782619476318,0.102079533040524,0.122898288071156,0.25217393040657,2012-01-17 17:08:50
1.01099991798401,45,22.728889465332,0.125431969761848,0.162784308195114,0.528888523578644,22.466667175293,0.0844445377588272,0.101105041801929,0.233334004878998,-6.22000026702881,0.0968888774514198,0.130979239940643,0.32000008225441,2012-01-17 17:08:51
1.26099991798401,43,22.6209316253662,0.127636685967445,0.175946786999702,0.420929938554764,22.3372097015381,0.0979983508586884,0.122042879462242,0.337209522724152,-6.2488374710083,0.0871822461485863,0.108632296323776,0.251162618398666,2012-01-17 17:08:52
1.52500009536743,44,22.9068183898926,0.281714826822281,0.355091333389282,0.793182075023651,22.4386367797852,0.144214764237404,0.172173067927361,0.361364394426346,-6.44999980926514,0.0931817293167114,0.109751679003239,0.249999761581421,2012-01-17 17:08:53
1.43099999427795,50,22.996000289917,0.312159985303879,0.348114907741547,0.603999972343445,22.7000007629395,0.240000173449516,0.272029519081116,0.500000476837158,-6.40999984741211,0.0735999271273613,0.0943397209048271,0.209999799728394,2012-01-17 17:08:55
1.00099992752075,51,22.9333343505859,0.299346446990967,0.350163400173187,0.766667127609253,22.3588237762451,0.0966545790433884,0.11745048314333,0.258823722600937,-6.48627471923828,0.0895808860659599,0.10850065946579,0.213725715875626,2012-01-17 17:08:56
1.01600003242493,45,22.5555553436279,0.203456804156303,0.249938145279884,0.644444823265076,22.3511123657227,0.0879006311297417,0.108775094151497,0.251111209392548,-6.41777801513672,0.104987569153309,0.128735437989235,0.282222419977188,2012-01-17 17:08:57
1.20000004768372,45,22.4622230529785,0.202567920088768,0.275913745164871,0.662221252918243,22.3355560302734,0.0719005540013313,0.0847358480095863,0.23555551469326,-6.55555582046509,0.100246906280518,0.118425913155079,0.255555421113968,2012-01-17 17:08:58
1.00300002098083,46,22.7282619476318,0.276654183864594,0.311143279075623,0.571739971637726,22.4043483734131,0.131568983197212,0.166754752397537,0.404348164796829,-6.59999990463257,0.113043591380119,0.139875784516335,0.300000011920929,2012-01-17 17:08:59
1.0090000629425,46,23.0304355621338,0.316068023443222,0.360476344823837,0.730433821678162,22.3260879516602,0.0871449634432793,0.105159491300583,0.226087033748627,-6.25,0.158695682883263,0.187373161315918,0.349999964237213,2012-01-17 17:09:00
1.00699996948242,39,23.2794876098633,0.136883780360222,0.201506525278091,0.620511710643768,22.2435894012451,0.118080087006092,0.144638910889626,0.343590557575226,-6.00512838363647,0.0940170660614967,0.129987582564354,0.394871860742569,2012-01-17 17:09:01
1.01600003242493,50,23.1180000305176,0.266320049762726,0.327835321426392,0.682000756263733,22.2220001220703,0.107279933989048,0.128514498472214,0.277999520301819,-6.13600015640259,0.11200013011694,0.141081586480141,0.363999903202057,2012-01-17 17:09:02
1.0479998588562,36,22.8611106872559,0.173456504940987,0.211184218525887,0.438889503479004,22.2000007629395,0.0833334773778915,0.113038793206215,0.200000494718552,-6.23611116409302,0.101697519421577,0.127263471484184,0.363888651132584,2012-01-17 17:09:03
1.01300001144409,40,23.2399997711182,0.221000090241432,0.251793593168259,0.460000455379486,22.4500007629395,0.277499794960022,0.309838443994522,0.549999594688416,-6.27750015258789,0.105375029146671,0.135069444775581,0.277500122785568,2012-01-17 17:09:04
1.00500011444092,47,22.7255325317383,0.169760063290596,0.198363646864891,0.474468559026718,22.2148933410645,0.0985966846346855,0.122002340853214,0.214894145727158,-6.34255313873291,0.120054252445698,0.144022226333618,0.35744696855545,2012-01-17 17:09:05
1.02099990844727,44,22.7772731781006,0.208677530288696,0.250330209732056,0.477271914482117,22.1363639831543,0.113636754453182,0.129844561219215,0.263635516166687,-6.16363668441772,0.138016641139984,0.15824456512928,0.263636350631714,2012-01-17 17:09:06
1.07299995422363,35,22.8285713195801,0.115101523697376,0.140552595257759,0.328571766614914,22.082857131958,0.120490148663521,0.148296743631363,0.417142659425735,-6.07999992370605,0.0948571488261223,0.119043856859207,0.279999881982803,2012-01-17 17:09:07
1.00500011444092,44,23.2022724151611,0.220971047878265,0.264135599136353,0.597728192806244,22.2204551696777,0.141425713896751,0.173963963985443,0.379545390605927,-6.20227289199829,0.0984504073858261,0.135661110281944,0.302272796630859,2012-01-17 17:09:08
1.00099992752075,48,22.752082824707,0.216406226158142,0.24747858941555,0.552082717418671,22.4291667938232,0.180902734398842,0.2081248909235,0.429167062044144,-6.21875,0.10859376937151,0.134870737791061,0.318750023841858,2012-01-17 17:09:09
1.00099992752075,48,22.7895832061768,0.104687482118607,0.137294515967369,0.310416489839554,22.0416679382324,0.0993057861924171,0.123884066939354,0.258334159851074,-6.19166660308838,0.0659723579883575,0.0885846391320229,0.208333268761635,2012-01-17 17:09:10
1,14,22.6928577423096,0.108163557946682,0.133439779281616,0.30714225769043,22.0928573608398,0.0806125551462173,0.0960976779460907,0.192857876420021,-6.12857151031494,0.0653062760829926,0.0795396119356155,0.171428710222244,2012-01-17 17:09:11
1,50,22.9640007019043,0.219679832458496,0.293775260448456,0.9359992146492,22.2100009918213,0.108400031924248,0.137477323412895,0.310000866651535,-6.2960000038147,0.121120020747185,0.142772570252419,0.296000093221664,2012-01-17 17:09:12
1.00800013542175,49,23.2653064727783,0.29537707567215,0.363964229822159,0.865306913852692,22.2244911193848,0.216659843921661,0.280328363180161,0.675509333610535,-6.23061227798462,0.113785915076733,0.140268102288246,0.330612272024155,2012-01-17 17:09:13
1.05299997329712,33,22.8151512145996,0.148943603038788,0.187683135271072,0.484849363565445,22.4212131500244,0.242607951164246,0.285781919956207,0.578787446022034,-6.20909118652344,0.0958678051829338,0.118994943797588,0.309090942144394,2012-01-17 17:09:14
1.0239999294281,51,23.168628692627,0.273664057254791,0.332837045192719,0.768628239631653,22.1333332061768,0.166013181209564,0.194701105356216,0.366666525602341,-6.26862764358521,0.106497474014759,0.130594700574875,0.331372320652008,2012-01-17 17:09:15
1.00300002098083,42,22.7095241546631,0.121315203607082,0.157070755958557,0.30952462553978,22.0428581237793,0.0904764458537102,0.113689117133617,0.342856645584106,-6.26428604125977,0.107142858207226,0.121148161590099,0.235714167356491,2012-01-17 17:09:16
1.00100016593933,33,22.5424251556396,0.208264589309692,0.239987760782242,0.45757520198822,21.9484844207764,0.0833792090415955,0.0957305505871773,0.151515379548073,-6.33030319213867,0.0712579637765884,0.0834296196699142,0.169696807861328,2012-01-17 17:09:17
1.02099990844727,47,22.9042549133301,0.33698508143425,0.401039838790894,0.795745015144348,22.1957454681396,0.170484527945518,0.214334696531296,0.604256153106689,-6.28297901153564,0.108918026089668,0.130985036492348,0.282978862524033,2012-01-17 17:09:18
1.0149998664856,47,22.8319149017334,0.201629444956779,0.245041325688362,0.631914377212524,22.0936164855957,0.211317420005798,0.257156401872635,0.506383061408997,-6.10425519943237,0.153282150626183,0.213339701294899,0.704255342483521,2012-01-17 17:09:19
1.007000207901,33,24.533332824707,0.444444328546524,0.536354839801788,1.33333277702332,21.754545211792,0.172451928257942,0.236247017979622,0.645453572273254,-3.6393940448761,0.613774120807648,0.764729917049408,1.66060614585876,2012-01-17 17:09:20
1.02799987792969,48,24.4270839691162,1.58203125,1.79568219184875,3.82708334922791,22.8833332061768,0.148610755801201,0.187453657388687,0.383333683013916,-3.45625019073486,1.69114589691162,1.99967777729034,4.74374961853027,2012-01-17 17:09:21
1.01099991798401,48,16.372917175293,2.27821183204651,2.66963958740234,4.87291717529297,22.8062515258789,0.302864491939545,0.357308387756348,0.693749368190765,-12.8854169845581,2.32413196563721,2.65847635269165,4.38541698455811,2012-01-17 17:09:22
1.01900005340576,36,10.4222221374512,1.66419744491577,2.44484853744507,6.92222261428833,29.1888885498047,6.08456802368164,8.65065097808838,23.6111106872559,-13.8805561065674,4.794753074646,6.55310869216919,16.6805553436279,2012-01-17 17:09:24
1.00999999046326,49,-3.08979606628418,3.12269902229309,3.85217905044556,11.389796257019,55.4510231018066,1.74352359771729,2.33702445030212,7.65102195739746,3.53673481941223,4.03473567962646,5.11531114578247,12.7367343902588,2012-01-17 17:09:25
1.00699996948242,45,7.25777769088745,5.71101236343384,6.5025634765625,12.35777759552,46.135555267334,2.73441982269287,3.19507646560669,5.66444301605225,-9.1511116027832,2.01866674423218,2.37595582008362,4.75111103057861,2012-01-17 17:09:26
1.01300001144409,40,-0.574999988079071,3.45875000953674,4.02422380447388,7.92500019073486,52.6800003051758,1.20600008964539,1.40929079055786,2.92000126838684,1.32249999046326,5.94700002670288,6.84213018417358,12.8774995803833,2012-01-17 17:09:27
1.01100015640259,48,-0.658333361148834,5.58888912200928,6.5290961265564,15.1416664123535,55.5395851135254,0.82300341129303,0.943340539932251,1.73958444595337,18.6416664123535,2.12743043899536,2.4648220539093,5.04166650772095,2012-01-17 17:09:28
1.01099991798401,48,-2.00416660308838,7.32083320617676,8.20360565185547,13.0958337783813,55.2145843505859,0.856163263320923,1.01509237289429,1.71458399295807,23.8604164123535,3.33211827278137,3.74737358093262,6.23958349227905,2012-01-17 17:09:29
1.00600004196167,32,1.015625,4.8251953125,5.5017671585083,10.6156253814697,54.3218765258789,1.10312509536743,1.20123243331909,1.92187428474426,27.4187507629395,4.52031278610229,5.288161277771,8.21875,2012-01-17 17:09:30
1.01099991798401,47,-2.41063833236694,6.72575855255127,7.49647378921509,11.4893617630005,52.5297889709473,0.246175095438957,0.307297766208649,0.670212626457214,25.8319149017334,3.00860142707825,3.39104628562927,6.43191576004028,2012-01-17 17:09:31
1.00300002098083,48,5.37916660308838,3.79583334922791,4.40733098983765,9.57916736602783,46.8937492370605,2.12994813919067,2.44526815414429,5.10624933242798,32.2916679382324,4.76250028610229,5.35773754119873,9.40833377838135,2012-01-17 17:09:32
1.2810001373291,45,5.38000011444092,6.84533357620239,7.44901514053345,11.3800001144409,47.993335723877,0.940148174762726,1.09775531291962,2.49333453178406,35.5377769470215,3.39367890357971,3.90801382064819,6.66222190856934,2012-01-17 17:09:33
1.00999999046326,40,10.3400001525879,7.98800039291382,8.90763187408447,14.3400001525879,48.6625022888184,2.01375007629395,2.30539441108704,4.06249856948853,31.3924999237061,3.84600019454956,4.35151672363281,7.20750188827515,2012-01-17 17:09:34
1.08899998664856,44,18.3340911865234,10.5129137039185,12.1937007904053,24.5659103393555,46.6227264404297,3.66508293151855,4.20053386688232,10.02272605896,29.5159091949463,3.49917387962341,3.79892015457153,6.58409261703491,2012-01-17 17:09:35
1.00099992752075,28,29.4285717010498,5.40204095840454,6.19843626022339,12.3714275360107,39.2999992370605,3.05714297294617,3.66761875152588,11.6000003814697,25.0607147216797,3.12602043151855,5.35018968582153,18.3607139587402,2012-01-17 17:09:36
1.01699995994568,51,23.7392158508301,3.57962346076965,4.06192636489868,6.53921508789062,38.3235282897949,5.64659738540649,6.40096759796143,10.5235290527344,8.41372585296631,3.19938492774963,3.58930993080139,6.08627414703369,2012-01-17 17:09:37
1.05900001525879,44,20.3500003814697,3.42272734642029,4.16557884216309,8.35000038146973,38.2363662719727,4.29132223129272,5.08791303634644,10.3636379241943,-2.00227284431458,2.3701446056366,2.73475027084351,5.20227289199829,2012-01-17 17:09:38
1.08500003814697,34,16.2588233947754,2.53460216522217,3.17602396011353,7.25882387161255,41.841178894043,3.07577848434448,4.07280206680298,8.85882377624512,-1.2470588684082,3.81211090087891,4.01264429092407,5.9470591545105,2012-01-17 17:09:39
1.0149998664856,50,25.2779998779297,2.54776000976562,2.8979504108429,5.37800073623657,37.5940017700195,2.62152004241943,2.94247579574585,4.40599966049194,13.9499998092651,6.7960000038147,7.94406080245972,17.1499996185303,2012-01-17 17:09:40
1.00100016593933,41,12.8682928085327,4.10541343688965,4.77551889419556,10.4682931900024,42.1390266418457,0.789887070655823,0.959135472774506,2.26097631454468,40.1439018249512,3.18215370178223,3.6734414100647,8.1439037322998,2012-01-17 17:09:41
1.12100005149841,38,0.639473676681519,0.634349048137665,0.804114282131195,1.73947370052338,50.9078941345215,2.55886387825012,2.92119073867798,6.00789403915405,31.1921062469482,7.5228533744812,8.24309539794922,13.207896232605,2012-01-17 17:09:42
1.14699983596802,38,-1.66052639484406,0.598337948322296,0.722036421298981,2.26052641868591,54.4263153076172,0.173407286405563,0.264261215925217,0.926316797733307,18.0052642822266,2.20581722259521,2.50462174415588,4.99473667144775,2012-01-17 17:09:43
1.06900000572205,33,-3.25454545021057,0.552617073059082,0.672891080379486,1.454545378685,54.8272743225098,0.276033341884613,0.315530389547348,0.727271437644958,12.5424242019653,0.742332398891449,0.908888816833496,2.15757536888123,2012-01-17 17:09:44
1.00800013542175,49,-7.25102043151855,1.11895048618317,1.36144018173218,3.45102071762085,54.8693885803223,0.11978405714035,0.147363647818565,0.330612421035767,11.6183671951294,0.355685085058212,0.414863377809525,0.781633019447327,2012-01-17 17:09:45
1.04699993133545,22,-7.93181800842285,0.768595039844513,0.950782656669617,1.93181824684143,55.0454559326172,0.0677694529294968,0.0782034173607826,0.154545173048973,16.8045463562012,1.76735544204712,2.17474699020386,4.00454568862915,2012-01-17 17:09:47
1.00300002098083,55,-5.17636394500732,0.543404936790466,0.593591094017029,1.07636380195618,54.8363647460938,0.0995048135519028,0.125573426485062,0.336363971233368,19.569091796875,0.394512474536896,0.475537121295929,1.03090929985046,2012-01-17 17:09:48
1.10199999809265,32,-2.90000009536743,1.06875002384186,1.22856628894806,1.90000009536743,54.4812507629395,0.268359363079071,0.301493555307388,0.481251001358032,15.1968755722046,2.77265620231628,3.098637342453,4.69687509536743,2012-01-17 17:09:49
1.01799988746643,50,-3.53400015830994,0.380720019340515,0.526349723339081,2.03400015830994,54.7560005187988,0.327199667692184,0.404059171676636,0.756000757217407,17.3080005645752,2.68176007270813,3.14527201652527,7.00799989700317,2012-01-17 17:09:50
1.01699995994568,48,-2.4375,0.267187505960464,0.335177212953568,0.862499892711639,54.3583335876465,0.145833805203438,0.175396576523781,0.458332687616348,20.5187511444092,0.932812571525574,1.15680170059204,2.51875042915344,2012-01-17 17:09:51
1.01200008392334,43,-2.74651169776917,0.105895042419434,0.13002473115921,0.346511572599411,54.502326965332,0.0731212198734283,0.104522310197353,0.202327013015747,15.2697677612305,1.2588427066803,1.4505068063736,2.66976737976074,2012-01-17 17:09:52
1,20,-2.62000012397766,0.21399998664856,0.250199913978577,0.480000108480453,54.0849990844727,0.135000228881836,0.162095502018929,0.315000534057617,11.7250003814697,0.470000028610229,0.638650953769684,1.42499995231628,2012-01-17 17:09:53
1.00399994850159,52,-3.35769248008728,1.07307696342468,1.14897048473358,2.04230761528015,54.6230773925781,0.454733282327652,0.518731653690338,0.923076868057251,13.6653852462769,3.04334330558777,3.42585682868958,5.93461561203003,2012-01-17 17:09:54
1.0090000629425,45,-2.91333341598511,0.445333331823349,0.528562009334564,1.11333334445953,54.7933349609375,0.243851691484451,0.277608871459961,0.59333324432373,19.5822219848633,0.154370576143265,0.181706622242928,0.382221728563309,2012-01-17 17:09:55
1.00699996948242,37,-2.5,1.11351346969604,1.14325284957886,1.59999990463257,54.5486488342285,0.17472642660141,0.207457765936852,0.351351976394653,17.5810813903809,1.60423672199249,1.64823222160339,2.01891899108887,2012-01-17 17:09:56
1,42,-5.12142848968506,0.609183669090271,0.675959885120392,1.27857136726379,54.6976203918457,0.0794779732823372,0.112308956682682,0.3023801445961,13.6023807525635,1.00260770320892,1.13420581817627,1.99761915206909,2012-01-17 17:09:57
1.01100015640259,46,-6.76739120483398,0.46011346578598,0.540553033351898,1.0326087474823,54.5478286743164,0.11777001619339,0.14852799475193,0.347826331853867,10.6260871887207,0.87599241733551,1.00832080841064,1.92608737945557,2012-01-17 17:09:58
1,42,-7.25952386856079,0.415759652853012,0.481594353914261,1.04047632217407,54.8619041442871,0.388662576675415,0.447188585996628,0.938093900680542,12.66428565979,3.52619051933289,3.80850076675415,4.93571424484253,2012-01-17 17:09:59
