"diffSecs","level","azimuth.mean","azimuth.absolute.deviation","azimuth.standard.deviation","azimuth.max.deviation","pitch.mean","pitch.absolute.deviation","pitch.standard.deviation","pitch.max.deviation","roll.mean","roll.absolute.deviation","roll.standard.deviation","roll.max.deviation","time"
1.01799988746643,9,2.61111116409302,0.814814805984497,0.993807971477509,1.78888893127441,-32.1111106872559,1.3654317855835,1.56307697296143,2.811110496521,34.2444458007812,0.481480926275253,0.643101692199707,1.4555549621582,2012-01-12 18:14:19
1.03099989891052,44,2.87045454978943,2.64586782455444,3.13677453994751,6.97045469284058,-32.3727264404297,1.64876055717468,1.93981790542603,3.7272744178772,38.0295448303223,1.67231416702271,1.9623247385025,4.42954444885254,2012-01-12 18:14:20
1,49,-8.9530611038208,2.17734289169312,2.41737771034241,4.85306119918823,-37.9755096435547,1.29954195022583,1.4686564207077,2.52448892593384,12.7530612945557,12.686297416687,13.7520627975464,20.2530612945557,2012-01-12 18:14:21
1.00200009346008,41,-13.2780485153198,0.702677011489868,0.791267037391663,1.42195081710815,-34.1658554077148,2.06936359405518,2.48611855506897,6.0658540725708,-14.6658544540405,2.56811428070068,3.17279696464539,6.76585388183594,2012-01-12 18:14:22
1.00600004196167,43,-13.1558141708374,1.49172532558441,1.6017872095108,2.35581398010254,-33.9139556884766,3.65484070777893,4.09608936309814,6.41395425796509,-15.8302326202393,3.39513278007507,3.84384369850159,6.43023252487183,2012-01-12 18:14:23
1.00099992752075,49,-10.1693878173828,2.02740526199341,2.56985712051392,8.06938743591309,-38.5102043151855,1.7785085439682,1.98537933826447,4.21020555496216,9.92040824890137,11.8763847351074,13.1810779571533,21.9795913696289,2012-01-12 18:14:24
1.00699996948242,40,0.415000021457672,3.16799998283386,3.69550752639771,10.6850004196167,-17.1599998474121,10.6700000762939,11.6001033782959,18.2400016784668,57.7875022888184,12.3850002288818,13.6500768661499,24.8875007629395,2012-01-12 18:14:25
1.0090000629425,42,-5.10476207733154,4.2020411491394,5.25755500793457,11.0952386856079,-3.66666674613953,2.96349215507507,3.85534071922302,7.96666669845581,65.6619033813477,6.78571510314941,7.38079786300659,13.9619054794312,2012-01-12 18:14:26
