"diffSecs","level","azimuth.mean","azimuth.absolute.deviation","azimuth.standard.deviation","azimuth.max.deviation","pitch.mean","pitch.absolute.deviation","pitch.standard.deviation","pitch.max.deviation","roll.mean","roll.absolute.deviation","roll.standard.deviation","roll.max.deviation","time"
0.798999786376953,12,12.1166667938232,0.11944430321455,0.140435710549355,0.216666296124458,-13.5833339691162,0.102777853608131,0.140435859560966,0.316666930913925,4.09999990463257,0.133333429694176,0.168325141072273,0.300000101327896,2012-01-25 19:46:00
1.25800013542175,11,12.4818181991577,0.114049516618252,0.146586507558823,0.318181812763214,-13.5818185806274,0.0809916481375694,0.102851681411266,0.181817829608917,4.03636360168457,0.160330608487129,0.191988348960876,0.336363613605499,2012-01-25 19:46:02
1.00099992752075,76,12.8263158798218,0.270221680402756,0.344646453857422,0.826315999031067,-13.4868421554565,0.107132859528065,0.139870300889015,0.386841922998428,4.11842107772827,0.232340797781944,0.288695156574249,0.681579053401947,2012-01-25 19:46:03
1.23300004005432,37,12.0054054260254,0.195909380912781,0.274054527282715,0.89459490776062,-13.343243598938,0.26837095618248,0.292741388082504,0.456756830215454,4.43783807754517,0.309130758047104,0.345121502876282,0.562162041664124,2012-01-25 19:46:04
1.00799989700317,57,13.0701761245728,0.304339826107025,0.417160362005234,1.17017507553101,-13.2824563980103,0.131548210978508,0.165564224123955,0.382455796003342,4.57192993164062,0.280209302902222,0.324310004711151,0.671929836273193,2012-01-25 19:46:05
1.01100015640259,49,12.3061227798462,0.171012192964554,0.21703776717186,0.593877971172333,-13.7204084396362,0.100041747093201,0.122856490314007,0.320407748222351,3.93061232566833,0.191670119762421,0.240920081734657,0.530612230300903,2012-01-25 19:46:06
1.02999997138977,37,12.3837842941284,0.120233871042728,0.16359731554985,0.516216576099396,-13.527027130127,0.109276853501797,0.140748247504234,0.372973322868347,4.1945948600769,0.168005928397179,0.20261262357235,0.405405253171921,2012-01-25 19:46:07
1.0239999294281,43,12.8744192123413,0.201838880777359,0.245984509587288,0.674418926239014,-13.4069766998291,0.101135648787022,0.124630369246006,0.306976586580276,4.36744213104248,0.199242785573006,0.241815730929375,0.532558143138885,2012-01-25 19:46:08
1.01900005340576,45,12.5822219848633,0.327209860086441,0.37611398100853,0.717777788639069,-13.4888887405396,0.171357929706573,0.200246721506119,0.411111444234848,4.1777777671814,0.217284008860588,0.25896281003952,0.622222363948822,2012-01-25 19:46:09
1.15299987792969,40,12.3325004577637,0.167375043034554,0.200483784079552,0.432499587535858,-13.625,0.0849998295307159,0.106653571128845,0.275000423192978,4.06500005722046,0.168000042438507,0.201928243041039,0.434999942779541,2012-01-25 19:46:10
1.00300002098083,50,12.6579999923706,0.539279997348785,0.61419540643692,1.14200007915497,-13.4940004348755,0.123679935932159,0.154155761003494,0.305999994277954,4.27400016784668,0.251040011644363,0.299205631017685,0.626000046730042,2012-01-25 19:46:11
1.00800013542175,35,12.460000038147,0.298285663127899,0.34574967622757,0.559999704360962,-13.4685716629028,0.16375495493412,0.184810876846313,0.368571132421494,4.42000007629395,0.249142810702324,0.303126573562622,0.620000123977661,2012-01-25 19:46:12
1.02900004386902,29,12.124137878418,0.157669350504875,0.194147393107414,0.475862294435501,-13.6655178070068,0.122948795557022,0.144498810172081,0.334482580423355,4.11034488677979,0.225921601057053,0.272086262702942,0.58965539932251,2012-01-25 19:46:13
1.01300001144409,44,12.25,0.175000086426735,0.221051216125488,0.550000369548798,-13.5386362075806,0.144937962293625,0.16951248049736,0.338636755943298,4.22499990463257,0.193181872367859,0.22974793612957,0.525000035762787,2012-01-25 19:46:14
1.00099992752075,25,12.96399974823,0.258560031652451,0.292410761117935,0.464000195264816,-13.5040006637573,0.100799940526485,0.118253827095032,0.20400008559227,4.14800024032593,0.14208011329174,0.169988289475441,0.348000138998032,2012-01-25 19:46:15
1.00999999046326,42,13.0642862319946,0.616666674613953,0.684460699558258,1.06428587436676,-13.3476190567017,0.21405902504921,0.256569027900696,0.55238139629364,4.56666660308838,0.311111152172089,0.359673619270325,0.666666626930237,2012-01-25 19:46:16
1,41,12.7439022064209,0.285187423229218,0.326136857271194,0.743902623653412,-13.4146347045898,0.159309864044189,0.190712347626686,0.385365843772888,4.39512205123901,0.32790008187294,0.383788108825684,0.695122003555298,2012-01-25 19:46:17
1.11400008201599,33,12.221212387085,0.167309492826462,0.18870784342289,0.321211755275726,-13.6060609817505,0.0929291471838951,0.120452053844929,0.206060230731964,4.12424230575562,0.214325129985809,0.249885201454163,0.475757420063019,2012-01-25 19:46:18
1,33,12.7606067657471,0.365289241075516,0.415560454130173,0.860605716705322,-13.3606061935425,0.0793389901518822,0.0919137299060822,0.160606503486633,4.30000019073486,0.278787881135941,0.329370379447937,0.699999928474426,2012-01-25 19:46:19
1.01599979400635,45,12.4622220993042,0.226370304822922,0.267738580703735,0.562221884727478,-13.5422220230103,0.147259205579758,0.17699821293354,0.457777589559555,4.19111108779907,0.178765520453453,0.218908652663231,0.508889079093933,2012-01-25 19:46:20
1.01800012588501,32,12.2624998092651,0.179687574505806,0.230149433016777,0.562500357627869,-13.6343755722046,0.128124833106995,0.153316125273705,0.265625357627869,4,0.112500041723251,0.145773857831955,0.300000131130219,2012-01-25 19:46:21
1.01900005340576,35,12.7399997711182,0.324571430683136,0.359523475170135,0.540000259876251,-13.4857149124146,0.090612031519413,0.112485662102699,0.214285284280777,4.28857135772705,0.1800816655159,0.228999644517899,0.488571584224701,2012-01-25 19:46:22
1.01799988746643,44,12.0659093856812,0.283987522125244,0.366769134998322,0.934090733528137,-13.490909576416,0.107437953352928,0.134533181786537,0.309090882539749,4.23181819915771,0.227066114544868,0.286652117967606,0.631818115711212,2012-01-25 19:46:23
1.29699993133545,46,12.3195657730103,0.193478271365166,0.225175812840462,0.419564843177795,-13.5,0.0695653036236763,0.102150790393353,0.300000429153442,4.22173929214478,0.209640875458717,0.253594219684601,0.678260922431946,2012-01-25 19:46:25
1.007000207901,35,12.4228572845459,0.37730610370636,0.424994587898254,0.777142524719238,-13.4657144546509,0.0924079865217209,0.111976593732834,0.265714764595032,4.45142889022827,0.230040818452835,0.276065677404404,0.551428556442261,2012-01-25 19:46:26
1.00599980354309,45,12.7488889694214,0.268049418926239,0.307406544685364,0.748889148235321,-13.466667175293,0.0992590934038162,0.121105946600437,0.333333224058151,4.21333360671997,0.219259291887283,0.271293252706528,0.586666762828827,2012-01-25 19:46:27
1.47000002861023,40,12.397500038147,0.258000016212463,0.306175947189331,0.502500414848328,-13.5775003433228,0.0997499451041222,0.117233604192734,0.322500437498093,4.08750009536743,0.222500056028366,0.2675701379776,0.612500250339508,2012-01-25 19:46:28
1.10199999809265,37,12.3297300338745,0.30182620882988,0.357819885015488,0.870269894599915,-13.4297304153442,0.108838446438313,0.141162842512131,0.370270192623138,4.41081094741821,0.28078892827034,0.321132987737656,0.589189112186432,2012-01-25 19:46:29
1.00300002098083,84,12.3928575515747,0.299149692058563,0.383525520563126,1.00714313983917,-13.4916667938232,0.105753861367702,0.12836728990078,0.291667073965073,4.20714282989502,0.189455807209015,0.236434727907181,0.692857146263123,2012-01-25 19:46:30
1.01800012588501,35,12.3828573226929,0.144326612353325,0.188960626721382,0.417142808437347,-13.6114292144775,0.110203891992569,0.132603287696838,0.211428180336952,4,0.148571446537971,0.174027964472771,0.400000065565109,2012-01-25 19:46:31
1.01899981498718,24,12.3874998092651,0.271874994039536,0.320562571287155,0.61249977350235,-13.5,0.116666659712791,0.141421273350716,0.19999997317791,4.35833358764648,0.211805507540703,0.262863487005234,0.558333456516266,2012-01-25 19:46:32
1.01600003242493,50,12.3780002593994,0.357120037078857,0.406590729951859,0.777999877929688,-13.539999961853,0.159999966621399,0.193907171487808,0.43999981880188,4.23199987411499,0.227999985218048,0.281737476587296,0.732000112533569,2012-01-25 19:46:33
1.01300001144409,21,12.1523809432983,0.126076921820641,0.178936123847961,0.452381312847137,-13.6047620773315,0.0925169438123703,0.117417402565479,0.204761505126953,4.08095264434814,0.183673545718193,0.212958917021751,0.419047504663467,2012-01-25 19:46:34
1.05599999427795,32,12.4812498092651,0.306640625,0.371178478002548,0.918750286102295,-13.5749998092651,0.0843750387430191,0.103077568113804,0.225000023841858,4.06562519073486,0.16347661614418,0.202499061822891,0.534374833106995,2012-01-25 19:46:35
1.00200009346008,49,12.6244897842407,0.279050320386887,0.335352748632431,0.775510609149933,-13.5,0.146938771009445,0.199999988079071,0.600000202655792,4.28979587554932,0.20916286110878,0.254145175218582,0.710204005241394,2012-01-25 19:46:36
1.01200008392334,31,12.8838710784912,0.188553631305695,0.245076313614845,0.583870947360992,-13.3451614379883,0.111134350299835,0.134016677737236,0.254838854074478,4.59999990463257,0.270967751741409,0.318261384963989,0.800000131130219,2012-01-25 19:46:37
1.0019998550415,45,12.3933334350586,0.233185306191444,0.286278873682022,0.606666445732117,-13.546667098999,0.114073999226093,0.13266484439373,0.253333359956741,4.08888912200928,0.211851894855499,0.249641746282578,0.511110961437225,2012-01-25 19:46:38
1.00800013542175,31,12.6838712692261,0.203538045287132,0.248993933200836,0.583870768547058,-13.5774192810059,0.16233092546463,0.212070673704147,0.422580450773239,4.18387126922607,0.159625485539436,0.191928744316101,0.416128844022751,2012-01-25 19:46:39
1.29099988937378,47,12.4510641098022,0.3628790974617,0.41813787817955,0.848936200141907,-13.5808515548706,0.0832050889730453,0.106467977166176,0.319149315357208,4.12127685546875,0.214124098420143,0.249199748039246,0.578723609447479,2012-01-25 19:46:41
1.00999999046326,49,12.3959188461304,0.201249524950981,0.267992675304413,0.695918798446655,-13.5979595184326,0.0965431332588196,0.130133017897606,0.302041232585907,4.13265323638916,0.158517390489578,0.189938560128212,0.432653099298477,2012-01-25 19:46:42
1.1560001373291,23,12.7869567871094,0.167864039540291,0.194051474332809,0.386956095695496,-13.5304346084595,0.0952740982174873,0.115851305425167,0.230434745550156,3.98260879516602,0.213610604405403,0.26152092218399,0.617391169071198,2012-01-25 19:46:43
1.35999989509583,45,12.3711109161377,0.332345694303513,0.390226274728775,0.728889048099518,-13.5600004196167,0.118222251534462,0.146666646003723,0.360000342130661,4.15777778625488,0.189135894179344,0.237101867794991,0.542222380638123,2012-01-25 19:46:44
1.01200008392334,47,12.6617021560669,0.297057449817657,0.349195539951324,0.838297665119171,-13.3127660751343,0.124219253659248,0.146762326359749,0.312766164541245,4.73191499710083,0.220009058713913,0.268253892660141,0.73191499710083,2012-01-25 19:46:45
1.01399993896484,33,12.5606060028076,0.344903528690338,0.39995402097702,0.739394009113312,-13.2818183898926,0.120661333203316,0.138070225715637,0.318182021379471,4.91515159606934,0.211386546492577,0.261836409568787,0.515151500701904,2012-01-25 19:46:46
1.03999996185303,37,12.4675674438477,0.200876489281654,0.226672813296318,0.467567652463913,-13.3675680160522,0.128707185387611,0.159482389688492,0.367567807435989,4.68108129501343,0.184660390019417,0.225217998027802,0.418918699026108,2012-01-25 19:46:47
1.01500010490417,36,12.8194446563721,0.207098782062531,0.248125672340393,0.619444727897644,-13.2833337783813,0.125925987958908,0.15365906059742,0.383332967758179,4.64444446563721,0.272222250699997,0.313088923692703,0.644444525241852,2012-01-25 19:46:48
1.02499985694885,50,12.4160003662109,0.342559963464737,0.400179952383041,0.88400000333786,-13.5300006866455,0.0940000116825104,0.111803315579891,0.230000033974648,4.17799997329712,0.206880077719688,0.25083065032959,0.622000098228455,2012-01-25 19:46:49
1.00500011444092,35,12.5571432113647,0.309387683868408,0.356399178504944,0.657142400741577,-13.3657140731812,0.124898038804531,0.143313586711884,0.265714079141617,4.4228572845459,0.21518363058567,0.269481718540192,0.577142775058746,2012-01-25 19:46:50
1.01300001144409,48,12.6062498092651,0.332031220197678,0.384819358587265,0.706249594688416,-13.4312505722046,0.155208274722099,0.180458024144173,0.33124977350235,4.35625028610229,0.195572897791862,0.23532447218895,0.543750047683716,2012-01-25 19:46:51
1.01300001144409,33,12.2393941879272,0.25399449467659,0.288086026906967,0.460605621337891,-13.3666667938232,0.0888890326023102,0.109175123274326,0.266666561365128,4.563636302948,0.249586820602417,0.29213759303093,0.763636529445648,2012-01-25 19:46:52
1.00899982452393,29,12.562068939209,0.292746782302856,0.368045896291733,0.762068927288055,-13.2896556854248,0.0901308506727219,0.118452176451683,0.210344612598419,4.48965549468994,0.245897725224495,0.283262819051743,0.589655220508575,2012-01-25 19:46:53
1.00500011444092,48,12.2854166030884,0.284809023141861,0.344594866037369,0.714583158493042,-13.4812498092651,0.120833247900009,0.156333282589912,0.381249755620956,4.25208330154419,0.266927093267441,0.327865332365036,0.747916579246521,2012-01-25 19:46:54
1.01200008392334,29,12.1034488677979,0.183353021740913,0.218904346227646,0.403448671102524,-13.4896554946899,0.0825206488370895,0.112479284405708,0.310344785451889,4.20000028610229,0.248275950551033,0.32055988907814,0.799999892711639,2012-01-25 19:46:55
1.01699995994568,31,12.4161291122437,0.247658625245094,0.313252151012421,0.683871150016785,-13.4774198532104,0.165244430303574,0.186148822307587,0.322580724954605,4.33870983123779,0.160041555762291,0.202687412500381,0.638709723949432,2012-01-25 19:46:56
1,49,12.7979593276978,0.328779757022858,0.424018561840057,0.902040481567383,-13.2204084396362,0.16376519203186,0.20200988650322,0.4204081594944,4.63877534866333,0.291961699724197,0.347478538751602,0.738775491714478,2012-01-25 19:46:57
1.05200004577637,29,12.6310348510742,0.248989298939705,0.306373119354248,0.631034672260284,-13.2344827651978,0.132461473345757,0.162472039461136,0.365517526865005,4.55517244338989,0.200475603342056,0.264687478542328,0.655172348022461,2012-01-25 19:46:58
1.01899981498718,48,12.4750003814697,0.218749940395355,0.249583005905151,0.47500017285347,-13.3937501907349,0.128385484218597,0.157329604029655,0.306249588727951,4.39583349227905,0.283159732818604,0.326572090387344,0.604166567325592,2012-01-25 19:46:59
1.01500010490417,29,12.6137933731079,0.172889336943626,0.220851242542267,0.613793253898621,-13.3620691299438,0.0979786813259125,0.121524199843407,0.262068867683411,4.40689659118652,0.207134306430817,0.244851857423782,0.506896555423737,2012-01-25 19:47:00
1.00099992752075,42,12.1833333969116,0.303174525499344,0.365745574235916,0.683333456516266,-13.4214286804199,0.126190394163132,0.152027130126953,0.32142835855484,4.45952415466309,0.207142844796181,0.246942773461342,0.459523916244507,2012-01-25 19:47:01
1.01500010490417,50,12.1280002593994,0.225279971957207,0.27931347489357,0.828000009059906,-13.3900003433228,0.0956000760197639,0.115325637161732,0.309999614953995,4.3580002784729,0.196719959378242,0.249871954321861,0.657999992370605,2012-01-25 19:47:02
1.08200001716614,25,12.0200004577637,0.151999920606613,0.193907096982002,0.479999780654907,-13.3760004043579,0.0867200866341591,0.106883116066456,0.275999873876572,4.52799987792969,0.181120008230209,0.210751056671143,0.428000211715698,2012-01-25 19:47:03
1.01099991798401,52,12.3384618759155,0.299112349748611,0.33977010846138,0.661538302898407,-13.3538465499878,0.0997043326497078,0.118421711027622,0.253845989704132,4.5173077583313,0.237869799137115,0.282653033733368,0.58269214630127,2012-01-25 19:47:05
1.05599999427795,49,12.3551025390625,0.149271219968796,0.179638236761093,0.455101728439331,-13.3816328048706,0.0911288186907768,0.110052883625031,0.218367502093315,4.52040815353394,0.19316953420639,0.233849406242371,0.479591727256775,2012-01-25 19:47:06
1.22499990463257,25,12.1960000991821,0.108159862458706,0.131087690591812,0.303999811410904,-13.5159997940063,0.0991999208927155,0.115516051650047,0.216000065207481,4.2960000038147,0.188800051808357,0.237453207373619,0.504000067710876,2012-01-25 19:47:07
1.01999998092651,43,12.597674369812,0.369821488857269,0.418462455272675,0.797674417495728,-13.2581396102905,0.0990807041525841,0.124326288700104,0.258139699697495,4.87674427032471,0.200216293334961,0.237072438001633,0.576744019985199,2012-01-25 19:47:08
1.41900014877319,50,12.1640005111694,0.14911986887455,0.187360540032387,0.535999596118927,-13.4800004959106,0.109599895775318,0.13711304962635,0.280000329017639,4.61400032043457,0.212880060076714,0.258464694023132,0.614000141620636,2012-01-25 19:47:09
1.19300007820129,37,12.464864730835,0.306062787771225,0.363330096006393,0.735134780406952,-13.4162158966064,0.121110208332539,0.146146014332771,0.283783435821533,4.62972974777222,0.204528898000717,0.252409845590591,0.570270478725433,2012-01-25 19:47:10
1.02099990844727,43,12.7651166915894,0.231260225176811,0.291654318571091,0.765116512775421,-13.2976741790771,0.0914008989930153,0.121019721031189,0.297674566507339,4.44186067581177,0.198269307613373,0.228475823998451,0.458139538764954,2012-01-25 19:47:11
1,48,12.2104167938232,0.363020867109299,0.452419251203537,0.98958295583725,-13.4020833969116,0.119183950126171,0.152054846286774,0.302083164453506,4.41249990463257,0.177604138851166,0.209786608815193,0.412500143051147,2012-01-25 19:47:12
1.01399993896484,35,12.165714263916,0.172408118844032,0.192640081048012,0.334285467863083,-13.460000038147,0.0982855334877968,0.122357688844204,0.359999895095825,4.38285732269287,0.205224454402924,0.247831419110298,0.517142832279205,2012-01-25 19:47:13
1.00800013542175,32,12.6343755722046,0.436718761920929,0.487730324268341,0.865624725818634,-13.3687505722046,0.11445327848196,0.135640949010849,0.268749833106995,4.37187528610229,0.256640613079071,0.29393282532692,0.571875154972076,2012-01-25 19:47:14
1.02499985694885,50,12.2180004119873,0.305600017309189,0.380362987518311,0.882000207901001,-13.4020004272461,0.114399947226048,0.137826025485992,0.301999866962433,4.46000003814697,0.259999960660934,0.31937438249588,0.740000188350677,2012-01-25 19:47:15
1.01800012588501,18,12.1944446563721,0.0851850882172585,0.112902298569679,0.205556020140648,-13.3722219467163,0.0944444835186005,0.104379422962666,0.172222554683685,4.41111135482788,0.25679013133049,0.31778559088707,0.611111283302307,2012-01-25 19:47:17
1.01300001144409,26,12.7269229888916,0.354142069816589,0.461233884096146,1.1730774641037,-13.3192310333252,0.14556223154068,0.207585453987122,0.619231283664703,4.49230766296387,0.193491101264954,0.226890504360199,0.407692283391953,2012-01-25 19:47:18
1.00699996948242,48,13.2104167938232,0.367881953716278,0.467368274927139,1.11041641235352,-13.1500005722046,0.156249925494194,0.189296931028366,0.349999994039536,4.82083320617676,0.199999943375587,0.260574907064438,0.620833158493042,2012-01-25 19:47:19
1.01099991798401,36,12.1694450378418,0.161728262901306,0.195532605051994,0.430555671453476,-13.4750003814697,0.0777775794267654,0.0924210250377655,0.224999502301216,4.43333339691162,0.185185134410858,0.224845603108406,0.533333361148834,2012-01-25 19:47:20
1.37599992752075,38,12.581579208374,0.213157847523689,0.271307945251465,0.618420779705048,-13.3973684310913,0.10360124707222,0.132757961750031,0.297368288040161,4.56578969955444,0.202631607651711,0.24091525375843,0.53421026468277,2012-01-25 19:47:21
1.01600003242493,48,12.6750001907349,0.16770826280117,0.204633802175522,0.524999618530273,-13.3708333969116,0.0894098430871964,0.111725769937038,0.270833224058151,4.38958358764648,0.273784697055817,0.334937572479248,0.8104168176651,2012-01-25 19:47:22
1.02400016784668,32,12.1031255722046,0.184765502810478,0.222884997725487,0.496875137090683,-13.4718751907349,0.0833982974290848,0.0975780561566353,0.171875089406967,4.36875009536743,0.206249982118607,0.245506510138512,0.53125,2012-01-25 19:47:23
1.00399994850159,46,12.4695653915405,0.315122872591019,0.373508423566818,0.730434417724609,-13.4130439758301,0.0827976167201996,0.111528322100639,0.313043415546417,4.48913049697876,0.142249464988708,0.172233715653419,0.410869598388672,2012-01-25 19:47:24
1.01399993896484,35,12.8542861938477,0.209632769227028,0.251103699207306,0.554285705089569,-13.4057140350342,0.115755029022694,0.1392692476511,0.294285327196121,4.39142847061157,0.225469395518303,0.265514552593231,0.508571445941925,2012-01-25 19:47:25
1.14400005340576,34,12.1294116973877,0.103460058569908,0.127254694700241,0.270588636398315,-13.5794115066528,0.0830449908971786,0.0993489846587181,0.22058829665184,4.11176490783691,0.166090056300163,0.20688833296299,0.488235116004944,2012-01-25 19:47:26
1.01799988746643,45,12.3088893890381,0.322962999343872,0.390909016132355,0.89111065864563,-13.4577779769897,0.100938156247139,0.12016449123621,0.34222212433815,4.42000007629395,0.195555537939072,0.236267283558846,0.579999923706055,2012-01-25 19:47:27
1.03700017929077,25,12.1840000152588,0.203200057148933,0.230963304638863,0.384000092744827,-13.5440006256104,0.0732800513505936,0.0852290242910385,0.155999645590782,4.3600001335144,0.169599935412407,0.201990067958832,0.459999978542328,2012-01-25 19:47:28
1.01099991798401,52,12.375,0.15865395963192,0.201794847846031,0.62499988079071,-13.5211544036865,0.110650911927223,0.143227264285088,0.37884646654129,4.25769233703613,0.184023663401604,0.226466298103333,0.457692444324493,2012-01-25 19:47:29
1.1159999370575,40,12.2875003814697,0.189375102519989,0.232580676674843,0.68749988079071,-13.647500038147,0.087499812245369,0.104850977659225,0.24749955534935,4.10500001907349,0.156000092625618,0.193584635853767,0.494999825954437,2012-01-25 19:47:30
1.0789999961853,38,12.5026321411133,0.22409975528717,0.271919995546341,0.597368717193604,-13.4552631378174,0.113157771527767,0.133174493908882,0.255263566970825,4.39736843109131,0.176731273531914,0.217021524906158,0.502631545066833,2012-01-25 19:47:31
1.12700009346008,40,12.4300003051758,0.273500055074692,0.318747639656067,0.629999995231628,-13.414999961853,0.119499929249287,0.152561515569687,0.384999960660934,4.42500019073486,0.247499987483025,0.313647925853729,0.725000023841858,2012-01-25 19:47:33
1.06200003623962,51,12.394118309021,0.176470637321472,0.227011039853096,0.494117319583893,-13.5176477432251,0.0913494676351547,0.111506305634975,0.317647486925125,4.31176471710205,0.200691998004913,0.237343996763229,0.488235414028168,2012-01-25 19:47:34
1.30799984931946,35,12.294285774231,0.116734772920609,0.156648591160774,0.394285351037979,-13.5200004577637,0.0708572268486023,0.0919626951217651,0.219999998807907,4.12285709381104,0.157551109790802,0.195792511105537,0.477142691612244,2012-01-25 19:47:35
1.01300001144409,48,12.5666666030884,0.423611134290695,0.492160767316818,0.866667032241821,-13.3833332061768,0.140277922153473,0.163724139332771,0.383333534002304,4.47708320617676,0.275781273841858,0.329923987388611,0.677083492279053,2012-01-25 19:47:36
1.33700013160706,43,12.3116283416748,0.262736707925797,0.33840212225914,0.888371706008911,-13.5558137893677,0.101568430662155,0.126311346888542,0.344186395406723,4.24186038970947,0.182368859648705,0.224367395043373,0.541860520839691,2012-01-25 19:47:37
1.06299996376038,44,12.6090908050537,0.336776822805405,0.384245485067368,0.7090904712677,-13.377272605896,0.13946296274662,0.16357333958149,0.377272933721542,4.50454568862915,0.304752081632614,0.363039314746857,0.704545617103577,2012-01-25 19:47:38
1.01199984550476,41,13.0804882049561,0.625698983669281,0.713363528251648,1.28048777580261,-13.3146343231201,0.198334351181984,0.22367325425148,0.414633750915527,4.53170728683472,0.380606800317764,0.418731540441513,0.731707453727722,2012-01-25 19:47:39
1.01800012588501,32,12.1937503814697,0.152343705296516,0.206060528755188,0.506249666213989,-13.6000003814697,0.124999955296516,0.162018477916718,0.400000423192978,4.24687528610229,0.156054720282555,0.19997563958168,0.453125178813934,2012-01-25 19:47:40
1.00999999046326,45,12.5266666412354,0.256592631340027,0.316508769989014,0.773333311080933,-13.5133333206177,0.078814871609211,0.100221924483776,0.286666601896286,4.16222238540649,0.203061804175377,0.244303002953529,0.462222218513489,2012-01-25 19:47:41
1.11700010299683,36,12.5055561065674,0.27870374917984,0.32655143737793,0.594444692134857,-13.4777784347534,0.137654200196266,0.163488164544106,0.322222143411636,4.38055562973022,0.23719134926796,0.289462596178055,0.580555737018585,2012-01-25 19:47:42
1.30199980735779,47,12.3659572601318,0.254504412412643,0.292659640312195,0.534042954444885,-13.5042552947998,0.132367581129074,0.162372589111328,0.404255151748657,4.25957441329956,0.205522879958153,0.252358734607697,0.640425562858582,2012-01-25 19:47:44
1.02300000190735,51,12.4647064208984,0.215916931629181,0.274985641241074,0.735293745994568,-13.5960788726807,0.114417538046837,0.142747208476067,0.303921967744827,4.06078433990479,0.212687447667122,0.275878965854645,0.839215695858002,2012-01-25 19:47:45
1.0090000629425,25,12.8400001525879,0.238400042057037,0.281424909830093,0.539999961853027,-13.4160003662109,0.0899198725819588,0.108369752764702,0.216000407934189,4.38400030136108,0.209919989109039,0.258735418319702,0.515999972820282,2012-01-25 19:47:46
1.37400007247925,39,12.4333333969116,0.288888901472092,0.360436618328094,0.866666674613953,-13.5384616851807,0.108086735010147,0.127330213785172,0.261538475751877,4.32307720184326,0.178303748369217,0.222412839531898,0.576923072338104,2012-01-25 19:47:47
1.00099992752075,47,12.3340425491333,0.359710335731506,0.416304230690002,0.765957653522491,-13.4553194046021,0.0990491807460785,0.116342231631279,0.244680404663086,4.30000019073486,0.1914893835783,0.238791301846504,0.600000023841858,2012-01-25 19:47:48
1.0239999294281,26,12.4000005722046,0.123077027499676,0.154422044754028,0.399999976158142,-13.4499998092651,0.0923075899481773,0.111803434789181,0.250000357627869,4.35384607315063,0.245562136173248,0.293822020292282,0.546153843402863,2012-01-25 19:47:49
1.00500011444092,51,12.4764709472656,0.273356407880783,0.352908551692963,0.923529803752899,-13.394118309021,0.0973472446203232,0.117842994630337,0.294117480516434,4.43137264251709,0.180007621645927,0.20721323788166,0.43137264251709,2012-01-25 19:47:50
1.17599987983704,38,12.2210531234741,0.154847756028175,0.190784990787506,0.478947043418884,-13.5894737243652,0.113850444555283,0.151812672615051,0.310526698827744,4.23421049118042,0.260526359081268,0.321408361196518,0.865789294242859,2012-01-25 19:47:51
1.08500003814697,38,12.5736846923828,0.214404374361038,0.257195591926575,0.573684453964233,-13.4499998092651,0.123684123158455,0.14644917845726,0.250000327825546,4.42631578445435,0.162049785256386,0.208609640598297,0.573684096336365,2012-01-25 19:47:52
1.21500015258789,44,12.4431819915771,0.356818228960037,0.388702869415283,0.743182241916656,-13.5159091949463,0.0915288999676704,0.108592480421066,0.215909153223038,4.30454540252686,0.182644620537758,0.231550678610802,0.604545474052429,2012-01-25 19:47:54
1.03999996185303,49,12.5653066635132,0.25597670674324,0.309410899877548,0.665305614471436,-13.5122451782227,0.119616873562336,0.156012356281281,0.412244707345963,4.59183692932129,0.205580994486809,0.257013261318207,0.608163475990295,2012-01-25 19:47:55
1.23000001907349,30,12.3000001907349,0.153333410620689,0.191485419869423,0.399999618530273,-13.2233333587646,0.278666704893112,0.322162836790085,0.723333537578583,4.97333335876465,0.561777770519257,0.602181255817413,0.973333477973938,2012-01-25 19:47:56
1.00799989700317,41,13.1121950149536,0.460678100585938,0.494454592466354,0.712194740772247,-12.2951221466064,0.68768584728241,0.806362211704254,1.50487792491913,5.62682962417603,0.248899504542351,0.318551898002625,0.726829290390015,2012-01-25 19:47:57
1.26300001144409,46,12.2913045883179,0.26162576675415,0.304906338453293,0.6913041472435,-13.8086957931519,0.13988670706749,0.165274664759636,0.308695822954178,4.73260879516602,0.308034032583237,0.36299142241478,0.767391204833984,2012-01-25 19:47:58
1.02800011634827,45,13.3088893890381,0.527506232261658,0.624970138072968,1.10888934135437,-13.6844444274902,0.130073979496956,0.156283989548683,0.315555393695831,4.72222232818604,0.279506146907806,0.337894678115845,0.722222328186035,2012-01-25 19:47:59
