"diffSecs","latitude","longitude","altitude","time"
1.49799990653992,42.375715970993,-70.9943604469299,50,2012-02-28 08:00:01
0.00300002098083496,42.375715970993,-70.9943604469299,50,2012-02-28 08:00:01
0.765000104904175,42.375715970993,-70.9943604469299,50,2012-02-28 08:00:02
1.66499996185303,42.375715970993,-70.9943604469299,50,2012-02-28 08:00:03
0.337999820709229,42.375715970993,-70.9943604469299,50,2012-02-28 08:00:04
0.992000102996826,42.375715970993,-70.9943604469299,50,2012-02-28 08:00:05
1.04299998283386,42.375715970993,-70.9943604469299,50,2012-02-28 08:00:06
1.15499997138977,42.375715970993,-70.9943604469299,50,2012-02-28 08:00:07
1.34500002861023,42.375715970993,-70.9943604469299,50,2012-02-28 08:00:08
0.431999921798706,42.375715970993,-70.9943604469299,50,2012-02-28 08:00:09
1.00600004196167,42.375715970993,-70.9943604469299,50,2012-02-28 08:00:10
1.28900003433228,42.375715970993,-70.9943604469299,50,2012-02-28 08:00:11
0.709000110626221,42.375715970993,-70.9943604469299,50,2012-02-28 08:00:12
0.998999834060669,42.375715970993,-70.9943604469299,50,2012-02-28 08:00:13
0.999000072479248,42.375715970993,-70.9943604469299,50,2012-02-28 08:00:14
1.00200009346008,42.375715970993,-70.9943604469299,50,2012-02-28 08:00:15
0.998999834060669,42.375715970993,-70.9943604469299,50,2012-02-28 08:00:16
1,42.375715970993,-70.9943604469299,50,2012-02-28 08:00:17
1.00100016593933,42.375715970993,-70.9943604469299,50,2012-02-28 08:00:18
1.00099992752075,42.375715970993,-70.9943604469299,50,2012-02-28 08:00:19
1.00699996948242,42.375715970993,-70.9943604469299,50,2012-02-28 08:00:20
1.0090000629425,42.375715970993,-70.9943604469299,50,2012-02-28 08:00:21
0.990999937057495,42.375715970993,-70.9943604469299,50,2012-02-28 08:00:22
1.16000008583069,42.375715970993,-70.9943604469299,50,2012-02-28 08:00:23
0.837999820709229,42.375715970993,-70.9943604469299,50,2012-02-28 08:00:24
1,42.375715970993,-70.9943604469299,50,2012-02-28 08:00:25
3.99900007247925,42.375715970993,-70.9943604469299,50,2012-02-28 08:00:29
0.992000102996826,42.375715970993,-70.9943604469299,50,2012-02-28 08:00:30
0.998999834060669,42.375715970993,-70.9943604469299,50,2012-02-28 08:00:31
1.00200009346008,42.375715970993,-70.9943604469299,50,2012-02-28 08:00:32
0.997999906539917,42.375715970993,-70.9943604469299,50,2012-02-28 08:00:33
1.00100016593933,42.375715970993,-70.9943604469299,50,2012-02-28 08:00:34
1.00099992752075,42.375715970993,-70.9943604469299,50,2012-02-28 08:00:35
1.11899995803833,42.375715970993,-70.9943604469299,50,2012-02-28 08:00:36
0.88100004196167,42.375715970993,-70.9943604469299,50,2012-02-28 08:00:37
1.00200009346008,42.375715970993,-70.9943604469299,50,2012-02-28 08:00:38
0.998999834060669,42.375715970993,-70.9943604469299,50,2012-02-28 08:00:39
1.00100016593933,42.375715970993,-70.9943604469299,50,2012-02-28 08:00:40
1.00099992752075,42.375715970993,-70.9943604469299,50,2012-02-28 08:00:41
1,42.375715970993,-70.9943604469299,50,2012-02-28 08:00:42
1,42.375715970993,-70.9943604469299,50,2012-02-28 08:00:43
1.00699996948242,42.375715970993,-70.9943604469299,50,2012-02-28 08:00:44
0.999000072479248,42.375715970993,-70.9943604469299,50,2012-02-28 08:00:45
1,42.375715970993,-70.9943604469299,50,2012-02-28 08:00:46
1,42.375715970993,-70.9943604469299,50,2012-02-28 08:00:47
1,42.375715970993,-70.9943604469299,50,2012-02-28 08:00:48
0.998999834060669,42.375715970993,-70.9943604469299,50,2012-02-28 08:00:49
1.00200009346008,42.375715970993,-70.9943604469299,50,2012-02-28 08:00:50
0.999000072479248,42.375715970993,-70.9943604469299,50,2012-02-28 08:00:51
1.27300000190735,42.375715970993,-70.9943604469299,50,2012-02-28 08:00:52
1.00399994850159,42.375715970993,-70.9943604469299,50,2012-02-28 08:00:53
0.997999906539917,42.375715970993,-70.9943604469299,50,2012-02-28 08:00:54
1,42.375715970993,-70.9943604469299,50,2012-02-28 08:00:55
4.0090000629425,42.375715970993,-70.9943604469299,50,2012-02-28 08:00:59
0.983000040054321,42.375715970993,-70.9943604469299,50,2012-02-28 08:01:00
1.00699996948242,42.375715970993,-70.9943604469299,50,2012-02-28 08:01:01
1.56299996376038,42.375715970993,-70.9943604469299,50,2012-02-28 08:01:03
0.907999992370605,42.3863911628723,-71.0135436058044,50,2012-02-28 08:01:03
0.999000072479248,42.3863911628723,-71.0135436058044,50,2012-02-28 08:01:04
1.00300002098083,42.375715970993,-70.9943604469299,50,2012-02-28 08:01:05
1.16000008583069,42.375715970993,-70.9943604469299,50,2012-02-28 08:01:07
0.835999965667725,42.375715970993,-70.9943604469299,50,2012-02-28 08:01:07
1.00099992752075,42.375715970993,-70.9943604469299,50,2012-02-28 08:01:08
1,42.375715970993,-70.9943604469299,50,2012-02-28 08:01:09
1,42.375715970993,-70.9943604469299,50,2012-02-28 08:01:10
1.00099992752075,42.375715970993,-70.9943604469299,50,2012-02-28 08:01:11
1.1710000038147,42.375715970993,-70.9943604469299,50,2012-02-28 08:01:13
0.830000162124634,42.375715970993,-70.9943604469299,50,2012-02-28 08:01:13
1,42.375715970993,-70.9943604469299,50,2012-02-28 08:01:14
1.00099992752075,42.375715970993,-70.9943604469299,50,2012-02-28 08:01:15
1.00300002098083,42.375715970993,-70.9943604469299,50,2012-02-28 08:01:16
1.00300002098083,42.375715970993,-70.9943604469299,50,2012-02-28 08:01:18
0.998999834060669,42.375715970993,-70.9943604469299,50,2012-02-28 08:01:18
0.38700008392334,42.375715970993,-70.9943604469299,50,2012-02-28 08:01:19
1.14000010490417,42.375715970993,-70.9943604469299,50,2012-02-28 08:01:20
0.860999822616577,42.3863911628723,-71.0135436058044,50,2012-02-28 08:01:21
0.996000051498413,42.3863911628723,-71.0135436058044,50,2012-02-28 08:01:22
1.05100011825562,42.3863911628723,-71.0135436058044,50,2012-02-28 08:01:23
0.950999975204468,42.3863911628723,-71.0135436058044,50,2012-02-28 08:01:24
1,42.3863911628723,-71.0135436058044,50,2012-02-28 08:01:25
2.99399995803833,42.3863911628723,-71.0135436058044,50,2012-02-28 08:01:28
1.00300002098083,42.3863911628723,-71.0135436058044,50,2012-02-28 08:01:29
1.0019998550415,42.3863911628723,-71.0135436058044,50,2012-02-28 08:01:30
1.00300002098083,42.3863911628723,-71.0135436058044,50,2012-02-28 08:01:31
1.01600003242493,42.3863911628723,-71.0135436058044,50,2012-02-28 08:01:32
0.980000019073486,42.3863911628723,-71.0135436058044,50,2012-02-28 08:01:33
1.00200009346008,42.3863911628723,-71.0135436058044,50,2012-02-28 08:01:34
1.0019998550415,42.3863911628723,-71.0135436058044,50,2012-02-28 08:01:35
1.0860002040863,42.389931678772,-71.0418033599854,50,2012-02-28 08:01:36
0.910999774932861,42.389931678772,-71.0418033599854,50,2012-02-28 08:01:37
1.00100016593933,42.389931678772,-71.0418033599854,50,2012-02-28 08:01:38
1.0019998550415,42.389931678772,-71.0418033599854,50,2012-02-28 08:01:39
0.999000072479248,42.389931678772,-71.0418033599854,50,2012-02-28 08:01:40
1.00099992752075,42.389931678772,-71.0418033599854,50,2012-02-28 08:01:41
1,42.389931678772,-71.0418033599854,50,2012-02-28 08:01:42
1.00600004196167,42.389931678772,-71.0418033599854,50,2012-02-28 08:01:43
0.996000051498413,42.389931678772,-71.0418033599854,50,2012-02-28 08:01:44
1.00200009346008,42.389931678772,-71.0418033599854,50,2012-02-28 08:01:45
1.00099992752075,42.389931678772,-71.0418033599854,50,2012-02-28 08:01:46
1.00499987602234,42.389931678772,-71.0418033599854,50,2012-02-28 08:01:47
0.996000051498413,42.389931678772,-71.0418033599854,50,2012-02-28 08:01:48
2,42.375715970993,-70.9943604469299,50,2012-02-28 08:01:50
1,42.375715970993,-70.9943604469299,50,2012-02-28 08:01:51
1.00200009346008,42.375715970993,-70.9943604469299,50,2012-02-28 08:01:52
1.15700006484985,42.375715970993,-70.9943604469299,50,2012-02-28 08:01:53
0.842999935150146,42.375715970993,-70.9943604469299,50,2012-02-28 08:01:54
1,42.375715970993,-70.9943604469299,50,2012-02-28 08:01:55
4,42.375715970993,-70.9943604469299,50,2012-02-28 08:01:59
1.00099992752075,42.375715970993,-70.9943604469299,50,2012-02-28 08:02:00
0.997999906539917,42.375715970993,-70.9943604469299,50,2012-02-28 08:02:01
1.00300002098083,42.375715970993,-70.9943604469299,50,2012-02-28 08:02:02
1.00100016593933,42.375715970993,-70.9943604469299,50,2012-02-28 08:02:03
0.996999979019165,42.375715970993,-70.9943604469299,50,2012-02-28 08:02:04
1.08899998664856,42.375715970993,-70.9943604469299,50,2012-02-28 08:02:05
0.911999940872192,42.375715970993,-70.9943604469299,50,2012-02-28 08:02:06
1.00600004196167,42.375715970993,-70.9943604469299,50,2012-02-28 08:02:07
0.994999885559082,42.375715970993,-70.9943604469299,50,2012-02-28 08:02:08
1,42.375715970993,-70.9943604469299,50,2012-02-28 08:02:09
1.00100016593933,42.375715970993,-70.9943604469299,50,2012-02-28 08:02:10
1.00099992752075,42.375715970993,-70.9943604469299,50,2012-02-28 08:02:11
1.00300002098083,42.375715970993,-70.9943604469299,50,2012-02-28 08:02:12
1.00099992752075,42.375715970993,-70.9943604469299,50,2012-02-28 08:02:13
1.12000012397766,42.375715970993,-70.9943604469299,50,2012-02-28 08:02:14
0.879999876022339,42.375715970993,-70.9943604469299,50,2012-02-28 08:02:15
1.00200009346008,42.375715970993,-70.9943604469299,50,2012-02-28 08:02:16
0.999000072479248,42.375715970993,-70.9943604469299,50,2012-02-28 08:02:17
1.00099992752075,42.375715970993,-70.9943604469299,50,2012-02-28 08:02:18
0.999000072479248,42.375715970993,-70.9943604469299,50,2012-02-28 08:02:19
1.00099992752075,42.375715970993,-70.9943604469299,50,2012-02-28 08:02:20
1.00300002098083,42.375715970993,-70.9943604469299,50,2012-02-28 08:02:21
0.997999906539917,42.375715970993,-70.9943604469299,50,2012-02-28 08:02:22
1.00200009346008,42.375715970993,-70.9943604469299,50,2012-02-28 08:02:23
0.998999834060669,42.375715970993,-70.9943604469299,50,2012-02-28 08:02:24
1.00100016593933,42.375715970993,-70.9943604469299,50,2012-02-28 08:02:25
3.99799990653992,42.375715970993,-70.9943604469299,50,2012-02-28 08:02:29
1.80699992179871,42.375715970993,-70.9943604469299,50,2012-02-28 08:02:31
0.13700008392334,42.375715970993,-70.9943604469299,50,2012-02-28 08:02:31
0.964999914169312,42.375715970993,-70.9943604469299,50,2012-02-28 08:02:32
1.00300002098083,42.375715970993,-70.9943604469299,50,2012-02-28 08:02:33
0.956000089645386,42.375715970993,-70.9943604469299,50,2012-02-28 08:02:34
1,42.375715970993,-70.9943604469299,50,2012-02-28 08:02:35
1.08699989318848,42.375715970993,-70.9943604469299,50,2012-02-28 08:02:36
0.913000106811523,42.375715970993,-70.9943604469299,50,2012-02-28 08:02:37
1.00200009346008,42.375715970993,-70.9943604469299,50,2012-02-28 08:02:38
1,42.375715970993,-70.9943604469299,50,2012-02-28 08:02:39
1.13199996948242,42.375715970993,-70.9943604469299,50,2012-02-28 08:02:40
0.869999885559082,42.375715970993,-70.9943604469299,50,2012-02-28 08:02:41
1.1340000629425,42.375715970993,-70.9943604469299,50,2012-02-28 08:02:42
0.867000102996826,42.375715970993,-70.9943604469299,50,2012-02-28 08:02:43
1.00099992752075,42.375715970993,-70.9943604469299,50,2012-02-28 08:02:44
1.00099992752075,42.375715970993,-70.9943604469299,50,2012-02-28 08:02:45
1.0239999294281,42.375715970993,-70.9943604469299,50,2012-02-28 08:02:46
0.978000164031982,42.375715970993,-70.9943604469299,50,2012-02-28 08:02:47
1.0699999332428,42.375715970993,-70.9943604469299,50,2012-02-28 08:02:48
0.930000066757202,42.375715970993,-70.9943604469299,50,2012-02-28 08:02:49
1,42.375715970993,-70.9943604469299,50,2012-02-28 08:02:50
1.0019998550415,42.375715970993,-70.9943604469299,50,2012-02-28 08:02:51
1.00100016593933,42.375715970993,-70.9943604469299,50,2012-02-28 08:02:52
1.07599997520447,42.375715970993,-70.9943604469299,50,2012-02-28 08:02:53
0.927000045776367,42.375715970993,-70.9943604469299,50,2012-02-28 08:02:54
0.998999834060669,42.375715970993,-70.9943604469299,50,2012-02-28 08:02:55
3.99000000953674,42.375715970993,-70.9943604469299,50,2012-02-28 08:02:59
1.00399994850159,42.375715970993,-70.9943604469299,50,2012-02-28 08:03:00
1.07200002670288,42.375715970993,-70.9943604469299,50,2012-02-28 08:03:01
0.927000045776367,42.375715970993,-70.9943604469299,50,2012-02-28 08:03:02
1.00099992752075,42.375715970993,-70.9943604469299,50,2012-02-28 08:03:03
1.05900001525879,42.375715970993,-70.9943604469299,50,2012-02-28 08:03:04
0.999000072479248,42.375715970993,-70.9943604469299,50,2012-02-28 08:03:05
1,42.375715970993,-70.9943604469299,50,2012-02-28 08:03:06
1.1010000705719,42.375715970993,-70.9943604469299,50,2012-02-28 08:03:07
0.899999856948853,42.375715970993,-70.9943604469299,50,2012-02-28 08:03:08
1.00100016593933,42.375715970993,-70.9943604469299,50,2012-02-28 08:03:09
1.0019998550415,42.375715970993,-70.9943604469299,50,2012-02-28 08:03:10
1,42.375715970993,-70.9943604469299,50,2012-02-28 08:03:11
1.00200009346008,42.375715970993,-70.9943604469299,50,2012-02-28 08:03:12
0.999000072479248,42.375715970993,-70.9943604469299,50,2012-02-28 08:03:13
1.00099992752075,42.375715970993,-70.9943604469299,50,2012-02-28 08:03:14
1.06599998474121,42.375715970993,-70.9943604469299,50,2012-02-28 08:03:15
0.938999891281128,42.375715970993,-70.9943604469299,50,2012-02-28 08:03:16
0.997000217437744,42.375715970993,-70.9943604469299,50,2012-02-28 08:03:17
1.00099992752075,42.389931678772,-71.0418033599854,50,2012-02-28 08:03:18
1.0019998550415,42.389931678772,-71.0418033599854,50,2012-02-28 08:03:19
1.00400018692017,42.389931678772,-71.0418033599854,50,2012-02-28 08:03:20
0.997999906539917,42.389931678772,-71.0418033599854,50,2012-02-28 08:03:21
1.18899989128113,42.389931678772,-71.0418033599854,50,2012-02-28 08:03:22
1.00300002098083,42.389931678772,-71.0418033599854,50,2012-02-28 08:03:23
1.00800013542175,42.389931678772,-71.0418033599854,50,2012-02-28 08:03:24
0.996999979019165,42.389931678772,-71.0418033599854,50,2012-02-28 08:03:25
2.99600005149841,42.389931678772,-71.0418033599854,50,2012-02-28 08:03:28
1.0019998550415,42.389931678772,-71.0418033599854,50,2012-02-28 08:03:29
1.06800007820129,42.389931678772,-71.0418033599854,50,2012-02-28 08:03:30
1.24300003051758,42.389931678772,-71.0418033599854,50,2012-02-28 08:03:31
1.17400002479553,42.389931678772,-71.0418033599854,50,2012-02-28 08:03:33
0.828999996185303,42.389931678772,-71.0418033599854,50,2012-02-28 08:03:33
0.998999834060669,42.389931678772,-71.0418033599854,50,2012-02-28 08:03:34
1.00100016593933,42.389931678772,-71.0418033599854,50,2012-02-28 08:03:35
1.04699993133545,42.389931678772,-71.0418033599854,50,2012-02-28 08:03:36
0.957000017166138,42.389931678772,-71.0418033599854,50,2012-02-28 08:03:37
0.997999906539917,42.389931678772,-71.0418033599854,50,2012-02-28 08:03:38
1.00100016593933,42.389931678772,-71.0418033599854,50,2012-02-28 08:03:39
1.10199999809265,42.389931678772,-71.0418033599854,50,2012-02-28 08:03:40
0.901000022888184,42.3863911628723,-71.0135436058044,50,2012-02-28 08:03:41
1.00599980354309,42.3863911628723,-71.0135436058044,50,2012-02-28 08:03:42
0.996999979019165,42.3863911628723,-71.0135436058044,50,2012-02-28 08:03:43
0.997000217437744,42.3863911628723,-71.0135436058044,50,2012-02-28 08:03:44
1.00399994850159,42.3863911628723,-71.0135436058044,50,2012-02-28 08:03:45
0.998999834060669,42.3863911628723,-71.0135436058044,50,2012-02-28 08:03:46
1.00100016593933,42.3863911628723,-71.0135436058044,50,2012-02-28 08:03:47
0.997999906539917,42.3863911628723,-71.0135436058044,50,2012-02-28 08:03:48
1.0090000629425,42.3863911628723,-71.0135436058044,50,2012-02-28 08:03:49
1.06699991226196,42.3863911628723,-71.0135436058044,50,2012-02-28 08:03:50
0.952000141143799,42.3863911628723,-71.0135436058044,50,2012-02-28 08:03:51
0.97599983215332,42.3863911628723,-71.0135436058044,50,2012-02-28 08:03:52
1.00600004196167,42.3863911628723,-71.0135436058044,50,2012-02-28 08:03:53
1.04800009727478,42.3863911628723,-71.0135436058044,50,2012-02-28 08:03:54
0.947999954223633,42.3863911628723,-71.0135436058044,50,2012-02-28 08:03:55
3.01600003242493,42.3863911628723,-71.0135436058044,50,2012-02-28 08:03:58
1.00399994850159,42.3863911628723,-71.0135436058044,50,2012-02-28 08:03:59
0.996999979019165,42.3863911628723,-71.0135436058044,50,2012-02-28 08:04:00
1.01900005340576,42.3863911628723,-71.0135436058044,50,2012-02-28 08:04:01
1.04299998283386,42.3863911628723,-71.0135436058044,50,2012-02-28 08:04:02
0.943000078201294,42.3863911628723,-71.0135436058044,50,2012-02-28 08:04:03
1.00899982452393,42.3863911628723,-71.0135436058044,50,2012-02-28 08:04:04
0.997000217437744,42.3863911628723,-71.0135436058044,50,2012-02-28 08:04:05
0.995999813079834,42.3863911628723,-71.0135436058044,50,2012-02-28 08:04:06
0.998000144958496,42.3863911628723,-71.0135436058044,50,2012-02-28 08:04:07
1.00099992752075,42.3863911628723,-71.0135436058044,50,2012-02-28 08:04:08
1.00600004196167,42.389931678772,-71.0418033599854,50,2012-02-28 08:04:09
0.996000051498413,42.389931678772,-71.0418033599854,50,2012-02-28 08:04:10
1.01199984550476,42.389931678772,-71.0418033599854,50,2012-02-28 08:04:11
0.989000082015991,42.389931678772,-71.0418033599854,50,2012-02-28 08:04:12
1.00399994850159,42.389931678772,-71.0418033599854,50,2012-02-28 08:04:13
0.996999979019165,42.389931678772,-71.0418033599854,50,2012-02-28 08:04:14
1.00500011444092,42.389931678772,-71.0418033599854,50,2012-02-28 08:04:15
0.996999979019165,42.389931678772,-71.0418033599854,50,2012-02-28 08:04:16
1.00399994850159,42.389931678772,-71.0418033599854,50,2012-02-28 08:04:17
0.996999979019165,42.389931678772,-71.0418033599854,50,2012-02-28 08:04:18
1.00300002098083,42.389931678772,-71.0418033599854,50,2012-02-28 08:04:19
0.999000072479248,42.389931678772,-71.0418033599854,50,2012-02-28 08:04:20
1.02099990844727,42.389931678772,-71.0418033599854,50,2012-02-28 08:04:21
0.980999946594238,42.389931678772,-71.0418033599854,50,2012-02-28 08:04:22
1.00100016593933,42.389931678772,-71.0418033599854,50,2012-02-28 08:04:23
0.998999834060669,42.389931678772,-71.0418033599854,50,2012-02-28 08:04:24
1.0090000629425,42.389931678772,-71.0418033599854,50,2012-02-28 08:04:25
2.98699998855591,42.389931678772,-71.0418033599854,50,2012-02-28 08:04:28
1.0090000629425,42.389931678772,-71.0418033599854,50,2012-02-28 08:04:29
0.993000030517578,42.3863911628723,-71.0135436058044,50,2012-02-28 08:04:30
1.00399994850159,42.3863911628723,-71.0135436058044,50,2012-02-28 08:04:31
0.996999979019165,42.3863911628723,-71.0135436058044,50,2012-02-28 08:04:32
1.00399994850159,42.3863911628723,-71.0135436058044,50,2012-02-28 08:04:33
0.998000144958496,42.3863911628723,-71.0135436058044,50,2012-02-28 08:04:34
1.00300002098083,42.3863911628723,-71.0135436058044,50,2012-02-28 08:04:35
0.997999906539917,42.3863911628723,-71.0135436058044,50,2012-02-28 08:04:36
1.00499987602234,42.3863911628723,-71.0135436058044,50,2012-02-28 08:04:37
0.997000217437744,42.3863911628723,-71.0135436058044,50,2012-02-28 08:04:38
1.00499987602234,42.3863911628723,-71.0135436058044,50,2012-02-28 08:04:39
0.999000072479248,42.3863911628723,-71.0135436058044,50,2012-02-28 08:04:40
1.00399994850159,42.3863911628723,-71.0135436058044,50,2012-02-28 08:04:41
1.01600003242493,42.3863911628723,-71.0135436058044,50,2012-02-28 08:04:42
0.983000040054321,42.3863911628723,-71.0135436058044,50,2012-02-28 08:04:43
1,42.3863911628723,-71.0135436058044,50,2012-02-28 08:04:44
1.0019998550415,42.3863911628723,-71.0135436058044,50,2012-02-28 08:04:45
1.00200009346008,42.3863911628723,-71.0135436058044,50,2012-02-28 08:04:46
0.997999906539917,42.3863911628723,-71.0135436058044,50,2012-02-28 08:04:47
1.00200009346008,42.3863911628723,-71.0135436058044,50,2012-02-28 08:04:48
1.32099986076355,42.3863911628723,-71.0135436058044,50,2012-02-28 08:04:50
0.680000066757202,42.389931678772,-71.0418033599854,50,2012-02-28 08:04:50
1.00200009346008,42.389931678772,-71.0418033599854,50,2012-02-28 08:04:51
1,42.389931678772,-71.0418033599854,50,2012-02-28 08:04:52
1.16799998283386,42.389931678772,-71.0418033599854,50,2012-02-28 08:04:54
0.833999872207642,42.389931678772,-71.0418033599854,50,2012-02-28 08:04:54
1,42.389931678772,-71.0418033599854,50,2012-02-28 08:04:55
3.02100014686584,42.389931678772,-71.0418033599854,50,2012-02-28 08:04:58
0.961999893188477,42.389931678772,-71.0418033599854,50,2012-02-28 08:04:59
1.09599995613098,42.389931678772,-71.0418033599854,50,2012-02-28 08:05:01
0.907999992370605,42.389931678772,-71.0418033599854,50,2012-02-28 08:05:01
1.00400018692017,42.389931678772,-71.0418033599854,50,2012-02-28 08:05:02
0.997999906539917,42.389931678772,-71.0418033599854,50,2012-02-28 08:05:03
1.00800013542175,42.389931678772,-71.0418033599854,50,2012-02-28 08:05:04
0.995999813079834,42.389931678772,-71.0418033599854,50,2012-02-28 08:05:05
1.08899998664856,42.389931678772,-71.0418033599854,50,2012-02-28 08:05:07
1.00200009346008,42.389931678772,-71.0418033599854,50,2012-02-28 08:05:08
1.00399994850159,42.389931678772,-71.0418033599854,50,2012-02-28 08:05:09
0.996000051498413,42.389931678772,-71.0418033599854,50,2012-02-28 08:05:10
0.549999952316284,42.389931678772,-71.0418033599854,50,2012-02-28 08:05:10
0.999000072479248,42.389931678772,-71.0418033599854,50,2012-02-28 08:05:11
1.00300002098083,42.389931678772,-71.0418033599854,50,2012-02-28 08:05:12
1.0019998550415,42.389931678772,-71.0418033599854,50,2012-02-28 08:05:13
0.996999979019165,42.389931678772,-71.0418033599854,50,2012-02-28 08:05:14
1.00300002098083,42.389931678772,-71.0418033599854,50,2012-02-28 08:05:15
1.00400018692017,42.389931678772,-71.0418033599854,50,2012-02-28 08:05:16
0.997999906539917,42.389931678772,-71.0418033599854,50,2012-02-28 08:05:17
1.00699996948242,42.389931678772,-71.0418033599854,50,2012-02-28 08:05:18
0.993000030517578,42.389931678772,-71.0418033599854,50,2012-02-28 08:05:19
1.00399994850159,42.389931678772,-71.0418033599854,50,2012-02-28 08:05:20
0.996999979019165,42.389931678772,-71.0418033599854,50,2012-02-28 08:05:21
1.00100016593933,42.389931678772,-71.0418033599854,50,2012-02-28 08:05:22
1.00699996948242,42.389931678772,-71.0418033599854,50,2012-02-28 08:05:23
1.16199994087219,42.389931678772,-71.0418033599854,50,2012-02-28 08:05:24
1.01600003242493,42.389931678772,-71.0418033599854,50,2012-02-28 08:05:25
2.9760000705719,42.389931678772,-71.0418033599854,50,2012-02-28 08:05:28
1.00699996948242,42.389931678772,-71.0418033599854,50,2012-02-28 08:05:29
0.995999813079834,42.389931678772,-71.0418033599854,50,2012-02-28 08:05:30
1,42.389931678772,-71.0418033599854,50,2012-02-28 08:05:31
1.17400002479553,42.389931678772,-71.0418033599854,50,2012-02-28 08:05:32
0.832000017166138,42.389931678772,-71.0418033599854,50,2012-02-28 08:05:33
0.996000051498413,42.389931678772,-71.0418033599854,50,2012-02-28 08:05:34
1.05299997329712,42.389931678772,-71.0418033599854,50,2012-02-28 08:05:35
0.950000047683716,42.389931678772,-71.0418033599854,50,2012-02-28 08:05:36
1.00300002098083,42.389931678772,-71.0418033599854,50,2012-02-28 08:05:37
0.996999979019165,42.389931678772,-71.0418033599854,50,2012-02-28 08:05:38
1.01200008392334,42.389931678772,-71.0418033599854,50,2012-02-28 08:05:39
0.995999813079834,42.389931678772,-71.0418033599854,50,2012-02-28 08:05:40
0.994000196456909,42.389931678772,-71.0418033599854,50,2012-02-28 08:05:41
1.00099992752075,42.389931678772,-71.0418033599854,50,2012-02-28 08:05:42
1.00300002098083,42.389931678772,-71.0418033599854,50,2012-02-28 08:05:43
0.998999834060669,42.389931678772,-71.0418033599854,50,2012-02-28 08:05:44
1.00300002098083,42.389931678772,-71.0418033599854,50,2012-02-28 08:05:45
0.996999979019165,42.389931678772,-71.0418033599854,50,2012-02-28 08:05:46
1.007000207901,42.389931678772,-71.0418033599854,50,2012-02-28 08:05:47
0.99399995803833,42.389931678772,-71.0418033599854,50,2012-02-28 08:05:48
1.00099992752075,42.389931678772,-71.0418033599854,50,2012-02-28 08:05:49
1.00099992752075,42.389931678772,-71.0418033599854,50,2012-02-28 08:05:50
1.00200009346008,42.389931678772,-71.0418033599854,50,2012-02-28 08:05:51
1.00200009346008,42.389931678772,-71.0418033599854,50,2012-02-28 08:05:52
1,42.389931678772,-71.0418033599854,50,2012-02-28 08:05:53
1.00899982452393,42.389931678772,-71.0418033599854,50,2012-02-28 08:05:54
1.02100014686584,42.389931678772,-71.0418033599854,50,2012-02-28 08:05:55
2.95799994468689,42.389931678772,-71.0418033599854,50,2012-02-28 08:05:58
1.00099992752075,42.389931678772,-71.0418033599854,50,2012-02-28 08:05:59
1,42.389931678772,-71.0418033599854,50,2012-02-28 08:06:00
1.00100016593933,42.389931678772,-71.0418033599854,50,2012-02-28 08:06:01
1,42.389931678772,-71.0418033599854,50,2012-02-28 08:06:02
1.00499987602234,42.389931678772,-71.0418033599854,50,2012-02-28 08:06:03
0.996000051498413,42.389931678772,-71.0418033599854,50,2012-02-28 08:06:04
1.0019998550415,42.389931678772,-71.0418033599854,50,2012-02-28 08:06:05
0.999000072479248,42.389931678772,-71.0418033599854,50,2012-02-28 08:06:06
1.00099992752075,42.389931678772,-71.0418033599854,50,2012-02-28 08:06:07
1,42.389931678772,-71.0418033599854,50,2012-02-28 08:06:08
1.00100016593933,42.389931678772,-71.0418033599854,50,2012-02-28 08:06:09
1,42.389931678772,-71.0418033599854,50,2012-02-28 08:06:10
1.00099992752075,42.389931678772,-71.0418033599854,50,2012-02-28 08:06:11
1,42.389931678772,-71.0418033599854,50,2012-02-28 08:06:12
1.00300002098083,42.389931678772,-71.0418033599854,50,2012-02-28 08:06:13
0.999000072479248,42.389931678772,-71.0418033599854,50,2012-02-28 08:06:14
1.00300002098083,42.389931678772,-71.0418033599854,50,2012-02-28 08:06:15
1,42.389931678772,-71.0418033599854,50,2012-02-28 08:06:16
1,42.389931678772,-71.0418033599854,50,2012-02-28 08:06:17
0.998999834060669,42.389931678772,-71.0418033599854,50,2012-02-28 08:06:18
1.00100016593933,42.389931678772,-71.0418033599854,50,2012-02-28 08:06:19
1,42.389931678772,-71.0418033599854,50,2012-02-28 08:06:20
1.00399994850159,42.389931678772,-71.0418033599854,50,2012-02-28 08:06:21
0.996999979019165,42.389931678772,-71.0418033599854,50,2012-02-28 08:06:22
1.00099992752075,42.389931678772,-71.0418033599854,50,2012-02-28 08:06:23
1,42.389931678772,-71.0418033599854,50,2012-02-28 08:06:24
1.0090000629425,42.389931678772,-71.0418033599854,50,2012-02-28 08:06:25
2.99000000953674,42.389931678772,-71.0418033599854,50,2012-02-28 08:06:28
1.00200009346008,42.389931678772,-71.0418033599854,50,2012-02-28 08:06:29
0.998999834060669,42.3863911628723,-71.0135436058044,50,2012-02-28 08:06:30
1.00100016593933,42.3863911628723,-71.0135436058044,50,2012-02-28 08:06:31
0.996999979019165,42.3863911628723,-71.0135436058044,50,2012-02-28 08:06:32
1.08799982070923,42.3863911628723,-71.0135436058044,50,2012-02-28 08:06:33
0.914000034332275,42.3863911628723,-71.0135436058044,50,2012-02-28 08:06:34
1.00100016593933,42.3863911628723,-71.0135436058044,50,2012-02-28 08:06:35
1.00099992752075,42.3863911628723,-71.0135436058044,50,2012-02-28 08:06:36
1,42.3863911628723,-71.0135436058044,50,2012-02-28 08:06:37
1.00300002098083,42.3863911628723,-71.0135436058044,50,2012-02-28 08:06:38
0.998999834060669,42.3863911628723,-71.0135436058044,50,2012-02-28 08:06:39
0.999000072479248,42.3863911628723,-71.0135436058044,50,2012-02-28 08:06:40
1.08599996566772,42.3863911628723,-71.0135436058044,50,2012-02-28 08:06:41
0.914999961853027,42.3863911628723,-71.0135436058044,50,2012-02-28 08:06:42
1.007000207901,42.389931678772,-71.0418033599854,50,2012-02-28 08:06:43
0.996999979019165,42.389931678772,-71.0418033599854,50,2012-02-28 08:06:44
1.00099992752075,42.389931678772,-71.0418033599854,50,2012-02-28 08:06:45
0.999000072479248,42.389931678772,-71.0418033599854,50,2012-02-28 08:06:46
1,42.389931678772,-71.0418033599854,50,2012-02-28 08:06:47
1.0019998550415,42.389931678772,-71.0418033599854,50,2012-02-28 08:06:48
1.00100016593933,42.389931678772,-71.0418033599854,50,2012-02-28 08:06:49
0.635999917984009,42.389931678772,-71.0418033599854,50,2012-02-28 08:06:50
0.960000038146973,42.389931678772,-71.0418033599854,50,2012-02-28 08:06:51
1.0019998550415,42.389931678772,-71.0418033599854,50,2012-02-28 08:06:52
0.998000144958496,42.389931678772,-71.0418033599854,50,2012-02-28 08:06:53
1.00099992752075,42.389931678772,-71.0418033599854,50,2012-02-28 08:06:54
1.00099992752075,42.389931678772,-71.0418033599854,50,2012-02-28 08:06:55
2.99500012397766,42.389931678772,-71.0418033599854,50,2012-02-28 08:06:58
1.0019998550415,42.389931678772,-71.0418033599854,50,2012-02-28 08:06:59
0.996000051498413,42.389931678772,-71.0418033599854,50,2012-02-28 08:07:00
1.00200009346008,42.389931678772,-71.0418033599854,50,2012-02-28 08:07:01
1.0019998550415,42.389931678772,-71.0418033599854,50,2012-02-28 08:07:02
0.998000144958496,42.389931678772,-71.0418033599854,50,2012-02-28 08:07:03
1.00799989700317,42.389931678772,-71.0418033599854,50,2012-02-28 08:07:04
0.99399995803833,42.389931678772,-71.0418033599854,50,2012-02-28 08:07:05
1.00300002098083,42.389931678772,-71.0418033599854,50,2012-02-28 08:07:06
0.998000144958496,42.389931678772,-71.0418033599854,50,2012-02-28 08:07:07
1.00799989700317,42.389931678772,-71.0418033599854,50,2012-02-28 08:07:08
1.0460000038147,42.389931678772,-71.0418033599854,50,2012-02-28 08:07:09
1.00300002098083,42.389931678772,-71.0418033599854,50,2012-02-28 08:07:10
0.996999979019165,42.389931678772,-71.0418033599854,50,2012-02-28 08:07:11
1,42.389931678772,-71.0418033599854,50,2012-02-28 08:07:12
1.00500011444092,42.389931678772,-71.0418033599854,50,2012-02-28 08:07:13
0.996999979019165,42.389931678772,-71.0418033599854,50,2012-02-28 08:07:14
1.04200005531311,42.389931678772,-71.0418033599854,50,2012-02-28 08:07:15
0.958999872207642,42.389931678772,-71.0418033599854,50,2012-02-28 08:07:16
1,42.389931678772,-71.0418033599854,50,2012-02-28 08:07:17
1.00099992752075,42.389931678772,-71.0418033599854,50,2012-02-28 08:07:18
1.00300002098083,42.389931678772,-71.0418033599854,50,2012-02-28 08:07:19
1,42.389931678772,-71.0418033599854,50,2012-02-28 08:07:20
1.00400018692017,42.389931678772,-71.0418033599854,50,2012-02-28 08:07:21
1,42.389931678772,-71.0418033599854,50,2012-02-28 08:07:22
0.997999906539917,42.389931678772,-71.0418033599854,50,2012-02-28 08:07:23
1,42.389931678772,-71.0418033599854,50,2012-02-28 08:07:24
1,42.389931678772,-71.0418033599854,50,2012-02-28 08:07:25
3.50600004196167,42.389931678772,-71.0418033599854,50,2012-02-28 08:07:28
1,42.389931678772,-71.0418033599854,50,2012-02-28 08:07:29
1.00099992752075,42.389931678772,-71.0418033599854,50,2012-02-28 08:07:30
1.00200009346008,42.389931678772,-71.0418033599854,50,2012-02-28 08:07:31
1.0019998550415,42.389931678772,-71.0418033599854,50,2012-02-28 08:07:32
1,42.389931678772,-71.0418033599854,50,2012-02-28 08:07:33
1,42.389931678772,-71.0418033599854,50,2012-02-28 08:07:34
1.00100016593933,42.389931678772,-71.0418033599854,50,2012-02-28 08:07:35
1,42.389931678772,-71.0418033599854,50,2012-02-28 08:07:36
1.07699990272522,42.389931678772,-71.0418033599854,50,2012-02-28 08:07:38
0.924000024795532,42.389931678772,-71.0418033599854,50,2012-02-28 08:07:38
1.00099992752075,42.389931678772,-71.0418033599854,50,2012-02-28 08:07:39
1,42.389931678772,-71.0418033599854,50,2012-02-28 08:07:40
1.00200009346008,42.389931678772,-71.0418033599854,50,2012-02-28 08:07:41
0.998999834060669,42.389931678772,-71.0418033599854,50,2012-02-28 08:07:42
1.00400018692017,42.389931678772,-71.0418033599854,50,2012-02-28 08:07:43
1.00099992752075,42.389931678772,-71.0418033599854,50,2012-02-28 08:07:44
1.00300002098083,42.389931678772,-71.0418033599854,50,2012-02-28 08:07:45
1.00699996948242,42.389931678772,-71.0418033599854,50,2012-02-28 08:07:46
0.996000051498413,42.389931678772,-71.0418033599854,50,2012-02-28 08:07:47
0.997999906539917,42.389931678772,-71.0418033599854,50,2012-02-28 08:07:48
0.996000051498413,42.389931678772,-71.0418033599854,50,2012-02-28 08:07:49
1.00099992752075,42.389931678772,-71.0418033599854,50,2012-02-28 08:07:50
1.00100016593933,42.389931678772,-71.0418033599854,50,2012-02-28 08:07:51
1.00099992752075,42.3863911628723,-71.0135436058044,50,2012-02-28 08:07:52
1,42.3863911628723,-71.0135436058044,50,2012-02-28 08:07:53
1,42.3863911628723,-71.0135436058044,50,2012-02-28 08:07:54
1.00099992752075,42.3863911628723,-71.0135436058044,50,2012-02-28 08:07:55
3.05200004577637,42.3863911628723,-71.0135436058044,50,2012-02-28 08:07:59
0.937999963760376,42.3863911628723,-71.0135436058044,50,2012-02-28 08:07:59
1.00200009346008,42.3863911628723,-71.0135436058044,50,2012-02-28 08:08:00
0.998999834060669,42.3863911628723,-71.0135436058044,50,2012-02-28 08:08:01
1.00100016593933,42.3863911628723,-71.0135436058044,50,2012-02-28 08:08:02
1.00600004196167,42.3863911628723,-71.0135436058044,50,2012-02-28 08:08:03
1,42.389931678772,-71.0418033599854,50,2012-02-28 08:08:04
1.00099992752075,42.389931678772,-71.0418033599854,50,2012-02-28 08:08:05
1.00099992752075,42.389931678772,-71.0418033599854,50,2012-02-28 08:08:06
1.00800013542175,42.389931678772,-71.0418033599854,50,2012-02-28 08:08:07
0.988999843597412,42.389931678772,-71.0418033599854,50,2012-02-28 08:08:08
1.00200009346008,42.389931678772,-71.0418033599854,50,2012-02-28 08:08:09
1.00099992752075,42.389931678772,-71.0418033599854,50,2012-02-28 08:08:10
0.998000144958496,42.389931678772,-71.0418033599854,50,2012-02-28 08:08:11
1,42.389931678772,-71.0418033599854,50,2012-02-28 08:08:12
1.00099992752075,42.389931678772,-71.0418033599854,50,2012-02-28 08:08:13
1.00099992752075,42.389931678772,-71.0418033599854,50,2012-02-28 08:08:14
1.00100016593933,42.389931678772,-71.0418033599854,50,2012-02-28 08:08:15
1.00099992752075,42.389931678772,-71.0418033599854,50,2012-02-28 08:08:16
1.00099992752075,42.389931678772,-71.0418033599854,50,2012-02-28 08:08:17
1.00500011444092,42.389931678772,-71.0418033599854,50,2012-02-28 08:08:18
0.995999813079834,42.389931678772,-71.0418033599854,50,2012-02-28 08:08:19
1.09700012207031,42.389931678772,-71.0418033599854,50,2012-02-28 08:08:21
0.904999971389771,42.389931678772,-71.0418033599854,50,2012-02-28 08:08:21
1.00200009346008,42.389931678772,-71.0418033599854,50,2012-02-28 08:08:22
1.05099987983704,42.3834729194641,-70.9997248649597,50,2012-02-28 08:08:24
1,42.3834729194641,-70.9997248649597,50,2012-02-28 08:08:25
1.00099992752075,42.3834729194641,-70.9997248649597,50,2012-02-28 08:08:26
2.99100017547607,42.389931678772,-71.0418033599854,50,2012-02-28 08:08:29
1.00099992752075,42.389931678772,-71.0418033599854,50,2012-02-28 08:08:30
0.997999906539917,42.389931678772,-71.0418033599854,50,2012-02-28 08:08:30
1,42.389931678772,-71.0418033599854,50,2012-02-28 08:08:31
1.00100016593933,42.389931678772,-71.0418033599854,50,2012-02-28 08:08:33
1.18599987030029,42.389931678772,-71.0418033599854,50,2012-02-28 08:08:34
0.815000057220459,42.389931678772,-71.0418033599854,50,2012-02-28 08:08:35
1.00200009346008,42.389931678772,-71.0418033599854,50,2012-02-28 08:08:36
1,42.389931678772,-71.0418033599854,50,2012-02-28 08:08:37
2.60599994659424,42.389931678772,-71.0418033599854,50,2012-02-28 08:08:39
0.00300002098083496,42.389931678772,-71.0418033599854,50,2012-02-28 08:08:39
0.391999959945679,42.389931678772,-71.0418033599854,50,2012-02-28 08:08:40
1.16000008583069,42.389931678772,-71.0418033599854,50,2012-02-28 08:08:41
1.16599988937378,42.389931678772,-71.0418033599854,50,2012-02-28 08:08:42
0.677999973297119,42.389931678772,-71.0418033599854,50,2012-02-28 08:08:43
1.04100012779236,42.389931678772,-71.0418033599854,50,2012-02-28 08:08:44
0.960999965667725,42.389931678772,-71.0418033599854,50,2012-02-28 08:08:45
0.998999834060669,42.389931678772,-71.0418033599854,50,2012-02-28 08:08:46
1.00400018692017,42.389931678772,-71.0418033599854,50,2012-02-28 08:08:47
1.00300002098083,42.389931678772,-71.0418033599854,50,2012-02-28 08:08:48
1.01799988746643,42.389931678772,-71.0418033599854,50,2012-02-28 08:08:49
0.977999925613403,42.389931678772,-71.0418033599854,50,2012-02-28 08:08:50
1.11500000953674,42.389931678772,-71.0418033599854,50,2012-02-28 08:08:51
0.888000011444092,42.389931678772,-71.0418033599854,50,2012-02-28 08:08:52
1,42.389931678772,-71.0418033599854,50,2012-02-28 08:08:53
1.00699996948242,42.389931678772,-71.0418033599854,50,2012-02-28 08:08:54
1.03700017929077,42.389931678772,-71.0418033599854,50,2012-02-28 08:08:55
0.964999914169312,42.3834729194641,-70.9997248649597,50,2012-02-28 08:08:56
