"diffSecs","level","azimuth.mean","azimuth.absolute.deviation","azimuth.standard.deviation","azimuth.max.deviation","pitch.mean","pitch.absolute.deviation","pitch.standard.deviation","pitch.max.deviation","roll.mean","roll.absolute.deviation","roll.standard.deviation","roll.max.deviation","time"
3.98799991607666,12,-2.47500014305115,0.183333337306976,0.25535923242569,0.47500005364418,-34.75,0.133332565426826,0.155455783009529,0.25000062584877,68.8833312988281,0.302777707576752,0.353160500526428,0.583331406116486,2012-01-18 15:54:03
0.473999977111816,99,-1.71717178821564,0.553678214550018,0.65181028842926,1.31717169284821,-35.1484870910645,0.331680417060852,0.381481409072876,0.748484313488007,70.3333358764648,2.01010131835938,2.24966931343079,3.56666684150696,2012-01-18 15:54:04
0.707000017166138,99,-1.18686866760254,0.311560064554214,0.403681665658951,0.913131415843964,-35.3242416381836,0.498316377401352,0.57491147518158,1.12424254417419,70.7212142944336,1.74423027038574,1.96418821811676,3.07878947257996,2012-01-18 15:54:05
1.00799989700317,42,-1.39761912822723,0.792743742465973,0.850626707077026,1.39761912822723,-35.783332824707,0.229364827275276,0.303092539310455,0.683331549167633,72.6261901855469,1.11519289016724,1.31040859222412,2.92618751525879,2012-01-18 15:54:06
1.10199999809265,43,-2.75813961029053,0.216873958706856,0.286301612854004,0.658139407634735,-35.3860473632812,0.245538428425789,0.28739532828331,0.713954567909241,68.8744201660156,0.796971380710602,0.995827317237854,2.62558054924011,2012-01-18 15:54:07
1.00200009346008,10,-1.25999999046326,0.372000008821487,0.424735248088837,0.840000092983246,-35.7400016784668,0.0879991129040718,0.111354477703571,0.259999454021454,73.4300003051758,0.670000433921814,0.772075474262238,1.43000102043152,2012-01-18 15:54:08
1.01399993896484,58,-2.35172414779663,0.555053532123566,0.733024299144745,1.75172412395477,-35.3706893920898,0.286920696496964,0.368130624294281,0.929309010505676,69.6758651733398,1.77610003948212,2.08916020393372,4.52414131164551,2012-01-18 15:54:09
1.00100016593933,49,-1.31224489212036,0.316034972667694,0.391560286283493,0.912244915962219,-36.0979614257812,0.292711287736893,0.350212544202805,0.79796040058136,72.8816375732422,1.00316560268402,1.16648352146149,2.58163118362427,2012-01-18 15:54:10
1.00399994850159,39,-2.4948718547821,0.272189348936081,0.31374391913414,0.605128288269043,-35.4051284790039,0.109927475452423,0.16004604101181,0.494872748851776,68.6743621826172,0.608284473419189,0.722076416015625,1.52564358711243,2012-01-18 15:54:11
1.13299989700317,37,-1.37837839126587,0.495544195175171,0.623908877372742,1.22162175178528,-36.0891914367676,0.217092916369438,0.242491409182549,0.489187300205231,72.5729751586914,0.805112838745117,0.9632847905159,2.07297444343567,2012-01-18 15:54:12
1.01500010490417,44,-2.79545450210571,0.272727251052856,0.330945283174515,0.704545378684998,-35.2090911865234,0.271901041269302,0.334948122501373,0.790908217430115,69.2977294921875,0.856404602527618,1.04631114006042,2.70227122306824,2012-01-18 15:54:13
1.01300001144409,39,-1.62307691574097,0.282445758581161,0.343034386634827,0.976923167705536,-36.3538475036621,0.182248800992966,0.22054286301136,0.553847670555115,73.0205154418945,0.815779566764832,1.00286304950714,2.42051649093628,2012-01-18 15:54:14
1.15899991989136,32,-2.80312514305115,0.571093738079071,0.675224244594574,1.40312504768372,-35.6468772888184,0.141015335917473,0.199975594878197,0.553124785423279,68.9093780517578,0.82363349199295,0.969652593135834,2.19062256813049,2012-01-18 15:54:15
1.15300011634827,41,-1.4195122718811,0.257108867168427,0.296499520540237,0.519512176513672,-36.190242767334,0.19869090616703,0.254524648189545,0.690244376659393,72.9829254150391,0.611065089702606,0.712913513183594,1.88292992115021,2012-01-18 15:54:16
1.01799988746643,49,-2.4408164024353,0.316035002470016,0.359090894460678,0.65918380022049,-35.5836753845215,0.111870460212231,0.141921028494835,0.416325628757477,68.8755111694336,1.22515559196472,1.48124694824219,3.32449245452881,2012-01-18 15:54:17
1.42700004577637,31,-1.9709677696228,0.226222679018974,0.254245936870575,0.429032325744629,-36.0967750549316,0.171696230769157,0.20554219186306,0.403225064277649,72.8032302856445,0.325077176094055,0.409943372011185,1.10322248935699,2012-01-18 15:54:19
1.04999995231628,42,-2.25,0.445238083600998,0.51281201839447,0.949999988079071,-35.5928573608398,0.103061802685261,0.145394220948219,0.607142865657806,68.7119064331055,0.749773383140564,0.981787323951721,2.68809533119202,2012-01-18 15:54:20
1.03500008583069,55,-2.04727268218994,0.550942182540894,0.640413105487823,1.24727272987366,-35.6836357116699,0.166280642151833,0.199784845113754,0.483636200428009,69.5600051879883,0.115636996924877,0.132939681410789,0.259998381137848,2012-01-18 15:54:21
1.01999998092651,33,-2.16969704627991,0.359779596328735,0.42461022734642,0.869696915149689,-35.457576751709,0.24885205924511,0.287128001451492,0.557574868202209,69.5303039550781,0.109458789229393,0.138136953115463,0.330299854278564,2012-01-18 15:54:22
1.00600004196167,35,-2.45714282989502,0.195918366312981,0.235779210925102,0.542857110500336,-35.391429901123,0.237387418746948,0.251135736703873,0.40856945514679,69.1914291381836,0.140736535191536,0.182634547352791,0.508574545383453,2012-01-18 15:54:23
1.00299978256226,20,-2.20499992370605,0.166499987244606,0.203654125332832,0.395000100135803,-35.7150001525879,0.0894995108246803,0.110792234539986,0.215000912547112,69.4250030517578,0.112498700618744,0.137385129928589,0.325002282857895,2012-01-18 15:54:24
1.01500010490417,38,-2.10263156890869,0.270498603582382,0.354287177324295,0.802631556987762,-35.663158416748,0.126869335770607,0.162903040647507,0.363159567117691,69.4368438720703,0.0770071372389793,0.0900893732905388,0.236838489770889,2012-01-18 15:54:25
1.02500009536743,41,-1.86829268932343,0.489470541477203,0.572303414344788,1.168292760849,-35.5829277038574,0.127305194735527,0.146341070532799,0.282928466796875,69.3463439941406,0.113145552575588,0.128967568278313,0.253655046224594,2012-01-18 15:54:26
1.00399994850159,35,-2.19428586959839,0.172897949814796,0.212391644716263,0.494285702705383,-35.7171440124512,0.126203581690788,0.152100816369057,0.417144238948822,69.1142883300781,0.118369325995445,0.141710698604584,0.385712534189224,2012-01-18 15:54:27
1.21399998664856,43,-2.2651162147522,0.407571643590927,0.491264969110489,1.0348836183548,-35.3930244445801,0.193834915757179,0.234665125608444,0.506977438926697,68.8441848754883,0.224986732006073,0.273056179285049,0.555813789367676,2012-01-18 15:54:28
1.01399993896484,49,-2.08571434020996,0.184256598353386,0.249897956848145,0.614285707473755,-35.5857162475586,0.109621427953243,0.137023717164993,0.314286381006241,68.4959182739258,0.0833810046315193,0.115985356271267,0.304084002971649,2012-01-18 15:54:29
1.00300002098083,37,-1.46756756305695,0.545069396495819,0.603617072105408,0.867567598819733,-35.4297294616699,0.176479771733284,0.199817880988121,0.429730385541916,68.8810806274414,0.391380786895752,0.445904910564423,0.818922102451324,2012-01-18 15:54:30
1.03399991989136,33,-2.53030300140381,0.340863168239594,0.430281668901443,1.23030304908752,-35.6424255371094,0.119007542729378,0.153800666332245,0.442424416542053,69.5363616943359,0.0898066908121109,0.100959539413452,0.163640573620796,2012-01-18 15:54:31
1.01800012588501,37,-2.13243246078491,0.153980985283852,0.193200707435608,0.432432442903519,-35.4297294616699,0.328999102115631,0.371166706085205,0.729729652404785,69.037841796875,0.163184434175491,0.199121087789536,0.462160676717758,2012-01-18 15:54:32
1.00300002098083,41,-2.17073178291321,0.419393211603165,0.470725387334824,0.929268419742584,-35.3902435302734,0.224033460021019,0.280943632125854,0.59024566411972,68.9829254150391,0.260558605194092,0.304360330104828,0.582927048206329,2012-01-18 15:54:33
1.00300002098083,53,-2.37169814109802,0.367817729711533,0.481498211622238,1.37169814109802,-35.5377349853516,0.0983984991908073,0.120104536414146,0.262262672185898,69.3094329833984,0.294267803430557,0.39823392033577,1.009432554245,2012-01-18 15:54:34
1.12899994850159,40,-2.08249998092651,0.503374993801117,0.567400872707367,1.0825001001358,-35.5750007629395,0.125000089406967,0.142740696668625,0.275001436471939,69.0100021362305,0.333500504493713,0.409145414829254,1.01000189781189,2012-01-18 15:54:35
1.04900002479553,45,-2.62888884544373,0.146370366215706,0.178415521979332,0.428888887166977,-35.6377792358398,0.0819748491048813,0.10173787176609,0.262222558259964,69.3466644287109,0.112591817975044,0.135973319411278,0.253330320119858,2012-01-18 15:54:36
1,33,-2.04545450210571,0.225344374775887,0.278623133897781,0.645454585552216,-35.1878814697266,0.145086765289307,0.168338492512703,0.312120139598846,69.2727279663086,0.123415440320969,0.150297746062279,0.327269107103348,2012-01-18 15:54:37
1.00799989700317,45,-2.28444457054138,0.343802481889725,0.411477327346802,0.88444447517395,-35.5444450378418,0.0962969660758972,0.12028793245554,0.255553930997849,69.3755569458008,0.135999411344528,0.172762408852577,0.475555241107941,2012-01-18 15:54:38
1.01900005340576,36,-2.16944456100464,0.309567898511887,0.41754537820816,1.26944446563721,-35.4972229003906,0.114969380199909,0.14997461438179,0.397220820188522,69.4250030517578,0.0777765884995461,0.0953779071569443,0.224996566772461,2012-01-18 15:54:39
1.03399991989136,19,-1.58421051502228,0.279778391122818,0.297822177410126,0.484210520982742,-35.336841583252,0.0703609362244606,0.080854594707489,0.163157418370247,69.4947357177734,0.2077556848526,0.258484780788422,0.59473580121994,2012-01-18 15:54:40
1.02400016784668,45,-1.81333339214325,0.609185218811035,0.636867344379425,1.01333332061768,-35.4911117553711,0.127012193202972,0.179904028773308,0.49111208319664,68.5511093139648,0.136987969279289,0.17965666949749,0.548886299133301,2012-01-18 15:54:41
1.02499985694885,44,-2.38181829452515,0.309917360544205,0.36072701215744,0.618181765079498,-35.1295471191406,0.214875757694244,0.268480062484741,0.670453011989594,68.4613647460938,0.128821536898613,0.148041158914566,0.338637799024582,2012-01-18 15:54:42
1.01300001144409,37,-2.0702702999115,0.374872177839279,0.431756228208542,0.729729652404785,-35.5081100463867,0.10693982988596,0.128143668174744,0.308108448982239,68.6189193725586,0.306354999542236,0.405927151441574,0.981078505516052,2012-01-18 15:54:43
1.00500011444092,26,-2.22307705879211,0.199999988079071,0.248546078801155,0.523076891899109,-35.503849029541,0.111243434250355,0.134396061301231,0.303846806287766,69.0846176147461,0.0597633048892021,0.0769241005182266,0.184614032506943,2012-01-18 15:54:44
1.35500001907349,22,-2.05454540252686,0.231404975056648,0.280789911746979,0.654545485973358,-35.472728729248,0.093388520181179,0.109469562768936,0.227272555232048,69.2363662719727,0.119008213281631,0.146304607391357,0.263634771108627,2012-01-18 15:54:46
1.00999999046326,38,-1.66315793991089,0.307756215333939,0.369509667158127,0.663157939910889,-35.3894729614258,0.108033813536167,0.135315760970116,0.289472281932831,69.3131561279297,0.120497450232506,0.143583059310913,0.313159942626953,2012-01-18 15:54:47
1.00099992752075,67,-2.44477605819702,0.311116069555283,0.37666392326355,0.844776153564453,-35.4194030761719,0.234618246555328,0.290773242712021,0.680598556995392,69.5626907348633,0.221875593066216,0.289536535739899,1.03731024265289,2012-01-18 15:54:48
1.04399991035461,33,-2.05151510238647,0.322865039110184,0.363585859537125,0.648484826087952,-36.430305480957,0.173003017902374,0.20521242916584,0.430303990840912,72.3515167236328,0.950045704841614,1.00908601284027,1.65151190757751,2012-01-18 15:54:49
1.01200008392334,44,-2.68181824684143,0.457851231098175,0.534395456314087,1.08181822299957,-35.0272750854492,0.55165308713913,0.689651846885681,1.47272634506226,68.3681869506836,1.85475194454193,2.20297026634216,4.43181991577148,2012-01-18 15:54:50
1.00399994850159,44,-3.34545469284058,0.350826472043991,0.423971772193909,0.845454573631287,-34.7295455932617,0.344524949789047,0.373910486698151,0.870455980300903,67.0227279663086,1.11012399196625,1.26380789279938,2.877272605896,2012-01-18 15:54:51
1.02800011634827,44,-1.670454621315,0.360020667314529,0.458544909954071,1.12954533100128,-35.9954566955566,0.34152889251709,0.412836372852325,0.895453095436096,72.6681823730469,1.13781011104584,1.3444789648056,2.86818027496338,2012-01-18 15:54:52
1.01300001144409,42,-3.15476202964783,0.440022677183151,0.562393844127655,1.55476188659668,-34.9285736083984,0.255102396011353,0.294623225927353,0.571427583694458,67.5785751342773,1.1819726228714,1.38607585430145,3.22142934799194,2012-01-18 15:54:53
1.00499987602234,45,-1.74666666984558,0.444740742444992,0.546747982501984,1.35333347320557,-36.2955551147461,0.268345713615417,0.3392513692379,0.895554780960083,72.2644500732422,1.29945695400238,1.67480111122131,5.26444625854492,2012-01-18 15:54:54
1.05999994277954,27,-2.57407402992249,0.55829906463623,0.629869222640991,1.07407414913177,-35.6222229003906,0.226337403059006,0.27125683426857,0.677776455879211,69.6444473266602,1.37942445278168,1.57134902477264,2.7444441318512,2012-01-18 15:54:55
1.00100016593933,46,-2.22173929214478,0.763705134391785,0.874248266220093,1.52173924446106,-35.7521743774414,0.371833652257919,0.415325522422791,0.747825443744659,69.7282638549805,2.01767492294312,2.26654887199402,3.8717360496521,2012-01-18 15:54:56
1.00399994850159,40,-2.51749992370605,0.464875042438507,0.550857305526733,1.1175000667572,-35.6700019836426,0.460499674081802,0.52402263879776,0.870001494884491,70.5975036621094,1.47725009918213,1.67920935153961,2.80250024795532,2012-01-18 15:54:57
1.03600001335144,33,-2.718181848526,0.559228658676147,0.606257557868958,0.918181777000427,-35.4424247741699,0.222038626670837,0.280724585056305,0.757575869560242,69.6848526000977,0.677135169506073,0.760032474994659,1.31515038013458,2012-01-18 15:54:58
1.03299999237061,43,-2.11395359039307,0.79891836643219,0.924745440483093,2.21395349502563,-35.6325607299805,0.228447899222374,0.271705448627472,0.567441642284393,69.6883773803711,1.53066599369049,1.61320352554321,2.2116277217865,2012-01-18 15:54:59
1.01300001144409,46,-2.36739134788513,0.405009478330612,0.48456808924675,1.06739127635956,-35.597827911377,0.146030396223068,0.170024380087852,0.302174866199493,69.3956527709961,0.930812537670135,1.04942095279694,1.69564986228943,2012-01-18 15:55:00
1.0149998664856,32,-1.86250007152557,0.577343761920929,0.623874008655548,1.0625,-35.8312492370605,0.141797363758087,0.175779670476913,0.331250309944153,71.0906295776367,0.243554994463921,0.311608552932739,0.690624475479126,2012-01-18 15:55:01
1.03600001335144,44,-2.76136374473572,0.419421494007111,0.48720720410347,0.938636362552643,-35.0204544067383,0.265082985162735,0.320212781429291,0.879546523094177,69.1545486450195,0.319835275411606,0.408686935901642,1.24545443058014,2012-01-18 15:55:02
1.01600003242493,48,-2.23333334922791,0.443055540323257,0.510038137435913,1.16666674613953,-35.7291679382324,0.246874704957008,0.328480243682861,0.829165875911713,70.8354187011719,0.3738714158535,0.459841579198837,1.23541975021362,2012-01-18 15:55:03
1.00999999046326,34,-2.52058839797974,0.30761244893074,0.346222788095474,0.679411768913269,-35.6323547363281,0.126124426722527,0.174424707889557,0.467648237943649,69.9147033691406,0.550865411758423,0.63344669342041,1.18529152870178,2012-01-18 15:55:04
1.00400018692017,39,-2.32307696342468,0.371203154325485,0.438214063644409,0.776923179626465,-35.792308807373,0.264299541711807,0.322159737348557,0.592307567596436,70.523078918457,0.748323559761047,0.841690003871918,1.52307856082916,2012-01-18 15:55:05
1.0019998550415,48,-2.37916660308838,0.318402767181396,0.380218327045441,0.720833420753479,-35.8645858764648,0.146701484918594,0.172589868307114,0.435415118932724,70.3854217529297,0.365711957216263,0.432526797056198,0.914584636688232,2012-01-18 15:55:06
1.36400008201599,30,-2.76999998092651,0.298666685819626,0.348472863435745,0.630000054836273,-35.4266662597656,0.125333353877068,0.156914815306664,0.373331964015961,70.1266708374023,0.10666885226965,0.133999332785606,0.326665490865707,2012-01-18 15:55:08
1.1489999294281,44,-2.47045469284058,0.395867764949799,0.475097864866257,0.970454573631287,-35.3704566955566,0.209504336118698,0.247330769896507,0.470453768968582,70.0431823730469,0.109400644898415,0.130380243062973,0.343178153038025,2012-01-18 15:55:09
1.00300002098083,47,-2.5191490650177,0.260479867458344,0.29724857211113,0.68085104227066,-35.6106376647949,0.0778627097606659,0.107651807367802,0.310640305280685,69.9617004394531,0.098686158657074,0.11769550293684,0.261698633432388,2012-01-18 15:55:10
1,28,-1.89642858505249,0.396428555250168,0.465588837862015,0.803571462631226,-35.5071449279785,0.0867354720830917,0.103263661265373,0.207144871354103,70.1750030517578,0.0553596280515194,0.0687925890088081,0.175002500414848,2012-01-18 15:55:11
1.26300001144409,49,-2.04081630706787,0.394502282142639,0.448543399572372,0.759183585643768,-35.4979591369629,0.112702891230583,0.154510170221329,0.402041673660278,70.0653076171875,0.144190415740013,0.169695258140564,0.365303188562393,2012-01-18 15:55:12
1.16499996185303,51,-2.39607858657837,0.223452538251877,0.273654133081436,0.60392153263092,-35.4254913330078,0.199461713433266,0.240785539150238,0.525489628314972,70.0568618774414,0.0770471021533012,0.0912980362772942,0.243140131235123,2012-01-18 15:55:13
1.02099990844727,48,-2.47500014305115,0.200000002980232,0.241091266274452,0.575000107288361,-35.6083335876465,0.118055135011673,0.144096612930298,0.308334976434708,70.033332824707,0.0986106693744659,0.121334843337536,0.333329349756241,2012-01-18 15:55:14
1.02000021934509,35,-2.17714285850525,0.359346926212311,0.408541440963745,0.677142918109894,-35.4742851257324,0.133714288473129,0.166206270456314,0.325713008642197,70.0228576660156,0.0876728445291519,0.101659283041954,0.222854390740395,2012-01-18 15:55:15
1.11299991607666,43,-2.31627917289734,0.181611701846123,0.243931204080582,0.683720886707306,-35.5674438476562,0.0921584963798523,0.109376676380634,0.267443627119064,70.0116271972656,0.101892188191414,0.12796975672245,0.311623871326447,2012-01-18 15:55:16
1.01099991798401,32,-2.29062509536743,0.240624994039536,0.294065654277802,0.609375059604645,-35.2718772888184,0.221874594688416,0.245247557759285,0.428124785423279,69.9031295776367,0.0978503972291946,0.135747790336609,0.303127527236938,2012-01-18 15:55:17
1.00600004196167,39,-2.49743604660034,0.30046021938324,0.356253415346146,0.702564120292664,-35.6230773925781,0.120709754526615,0.152687817811966,0.376922130584717,70.033332824707,0.092307336628437,0.111707732081413,0.266669243574142,2012-01-18 15:55:18
1.04699993133545,44,-2.32500004768372,0.203409105539322,0.240383222699165,0.474999904632568,-35.5636367797852,0.0793396830558777,0.0979126021265984,0.263638228178024,70.0613632202148,0.0921486169099808,0.11122490465641,0.23863896727562,2012-01-18 15:55:19
1.01700019836426,43,-2.12093019485474,0.531855046749115,0.615141570568085,1.42093026638031,-35.4511642456055,0.161275923252106,0.205020427703857,0.451163619756699,70.044189453125,0.110870867967606,0.126311883330345,0.244184270501137,2012-01-18 15:55:20
1.09999990463257,35,-2.41142868995667,0.218775510787964,0.256093084812164,0.511428654193878,-35.5657157897949,0.0811434537172318,0.098395362496376,0.234283670783043,70.0914306640625,0.102694399654865,0.125064343214035,0.291427165269852,2012-01-18 15:55:21
1.00699996948242,51,-2.1372549533844,0.338485211133957,0.410146206617355,0.862745046615601,-35.341178894043,0.193310484290123,0.225072100758553,0.458821833133698,69.9862747192383,0.151787146925926,0.173792123794556,0.313726544380188,2012-01-18 15:55:22
1.00800013542175,34,-2.20294117927551,0.134083062410355,0.190178409218788,0.39705890417099,-35.529411315918,0.101730667054653,0.117647349834442,0.229413643479347,69.9941177368164,0.0781998187303543,0.0998262390494347,0.205886393785477,2012-01-18 15:55:23
1.00799989700317,32,-2.37812495231628,0.150976598262787,0.199584528803825,0.421874910593033,-35.5968742370605,0.091602198779583,0.118544489145279,0.296876549720764,69.9593734741211,0.0880853533744812,0.108568385243416,0.240628242492676,2012-01-18 15:55:24
1.01500010490417,47,-2.26595759391785,0.311453133821487,0.391547173261642,0.965957403182983,-35.472339630127,0.129198789596558,0.153958141803741,0.327658295631409,69.9723434448242,0.111452028155327,0.13479945063591,0.327661544084549,2012-01-18 15:55:25
1.00799989700317,23,-2.30869579315186,0.175047293305397,0.226337671279907,0.508695602416992,-35.6304359436035,0.106615535914898,0.123128198087215,0.23043392598629,70.0391311645508,0.0669180378317833,0.0765509083867073,0.160874411463737,2012-01-18 15:55:26
1.02300000190735,41,-2.46829271316528,0.287923872470856,0.348123222589493,0.768292665481567,-35.2634162902832,0.210469886660576,0.257337361574173,0.563414573669434,70.0121994018555,0.116121046245098,0.140026092529297,0.312191665172577,2012-01-18 15:55:28
1.00099992752075,46,-2.11304354667664,0.271266549825668,0.33854466676712,0.786956548690796,-35.4347839355469,0.0984876304864883,0.120176546275616,0.33478108048439,70.0413055419922,0.0691866055130959,0.0822931528091431,0.241301164031029,2012-01-18 15:55:29
1.00100016593933,37,-2.281081199646,0.261358648538589,0.313513517379761,0.61891895532608,-35.3054046630859,0.125931620597839,0.159298956394196,0.394594669342041,69.7162170410156,0.221182942390442,0.268643200397491,0.616219162940979,2012-01-18 15:55:30
1.09599995613098,41,-2.79999995231628,0.317073166370392,0.388869524002075,0.899999976158142,-34.8024406433105,0.14467591047287,0.175981879234314,0.3975610435009,67.8585357666016,0.575847744941711,0.65703547000885,1.14146196842194,2012-01-18 15:55:31
1,47,-2.40638303756714,0.280217289924622,0.323152214288712,0.593616962432861,-35.7595748901367,0.620823740959167,0.689637243747711,1.14042627811432,70.0404281616211,1.50511503219604,1.64338231086731,2.74042367935181,2012-01-18 15:55:32
1.01899981498718,33,-2.45757579803467,0.232506886124611,0.276372939348221,0.557575821876526,-37.0727272033691,0.477685898542404,0.586346089839935,1.12727248668671,72.9000015258789,0.745455205440521,0.899158716201782,1.80000400543213,2012-01-18 15:55:33
1.13000011444092,44,-1.91363632678986,0.364256203174591,0.461022019386292,0.886363565921783,-38.9795455932617,0.197830602526665,0.269325345754623,0.879543840885162,77.2249984741211,1.5193178653717,1.68995988368988,2.52499747276306,2012-01-18 15:55:34
1.01200008392334,43,-0.930232584476471,0.273228764533997,0.324599862098694,0.630232572555542,-37.7372093200684,0.413087695837021,0.474965214729309,0.837208867073059,80.1325607299805,0.441321313381195,0.834913372993469,3.23255848884583,2012-01-18 15:55:35
1.03099989891052,37,-1.55945944786072,0.26325786113739,0.314908355474472,0.659459471702576,-37.1324348449707,0.422497659921646,0.50780576467514,0.932432234287262,78.0351333618164,1.51848018169403,1.63164877891541,2.63513469696045,2012-01-18 15:55:36
1.21799993515015,45,-1.67555558681488,0.348246932029724,0.43366938829422,0.775555551052094,-37.2422218322754,0.380938142538071,0.4567950963974,1.04222214221954,77.553337097168,0.519407451152802,0.622754037380219,1.64666986465454,2012-01-18 15:55:37
1.01300001144409,29,-1.11379313468933,0.419976234436035,0.558769702911377,1.2862069606781,-35.9931030273438,0.133174702525139,0.17406103014946,0.393101781606674,77.2724151611328,0.192865639925003,0.221120044589043,0.372413367033005,2012-01-18 15:55:38
1.00500011444092,41,-1.03414630889893,0.386079728603363,0.414734572172165,0.665853679180145,-35.573169708252,0.167043700814247,0.211872428655624,0.573171555995941,76.6439056396484,0.19345711171627,0.223113983869553,0.356096208095551,2012-01-18 15:55:39
1.04500007629395,43,-0.962790727615356,0.254948616027832,0.31328958272934,0.662790715694427,-35.4069786071777,0.115738220512867,0.156108900904655,0.406977713108063,76.4651184082031,0.166143253445625,0.211180284619331,0.46511697769165,2012-01-18 15:55:40
1.00999999046326,35,-1.16857147216797,0.344489812850952,0.406919747591019,0.768571436405182,-36.1114311218262,0.114611551165581,0.161725029349327,0.511427283287048,75.9800033569336,0.156570836901665,0.187920704483986,0.419999480247498,2012-01-18 15:55:41
1.00399994850159,36,-1.64166665077209,0.393055558204651,0.480378895998001,1.14166665077209,-36.1111106872559,0.169135570526123,0.214447483420372,0.411111086606979,76.1083374023438,0.0884280949831009,0.118732750415802,0.208332911133766,2012-01-18 15:55:42
1.13100004196167,46,-1.51304352283478,0.319092631340027,0.395962595939636,0.91304349899292,-36.2260894775391,0.129489228129387,0.162098497152328,0.326086044311523,76.1608734130859,0.125143647193909,0.151052623987198,0.339128732681274,2012-01-18 15:55:43
1.00999999046326,46,-1.54565215110779,0.371739119291306,0.430220633745193,0.754347741603851,-36.197826385498,0.085538387298584,0.117008149623871,0.202174469828606,76.0782623291016,0.129300430417061,0.165389075875282,0.378257930278778,2012-01-18 15:55:44
1.0149998664856,38,-1.47631585597992,0.219390586018562,0.257961869239807,0.676315784454346,-36.2368431091309,0.105816744267941,0.128597572445869,0.263157188892365,76.2131576538086,0.144737645983696,0.164110913872719,0.313157737255096,2012-01-18 15:55:45
1.0239999294281,36,-1.33333337306976,0.37777778506279,0.43461349606514,0.833333373069763,-36.1000022888184,0.144444599747658,0.169967278838158,0.300001472234726,76.2916717529297,0.12546281516552,0.155232816934586,0.408336013555527,2012-01-18 15:55:46
1.00200009346008,48,-1.45625007152557,0.255729168653488,0.327812343835831,0.743750035762787,-36.1416664123535,0.146527364850044,0.182383865118027,0.441666603088379,76.1666641235352,0.105557732284069,0.128020286560059,0.333332389593124,2012-01-18 15:55:47
1.03999996185303,28,-1.68928575515747,0.297193884849548,0.343656063079834,0.589285731315613,-36.2750015258789,0.080356664955616,0.0949622020125389,0.17499828338623,76.3678588867188,0.0818865075707436,0.0965592861175537,0.167854577302933,2012-01-18 15:55:48
1.01999998092651,45,-1.03555560112,0.45570370554924,0.535892009735107,1.03555560112,-35.4711112976074,0.19713594019413,0.228640705347061,0.471111804246902,76.1844482421875,0.122273236513138,0.156284615397453,0.484441965818405,2012-01-18 15:55:49
1.01100015640259,46,-0.960869610309601,0.313799619674683,0.363245189189911,0.739130437374115,-35.3978271484375,0.15907396376133,0.193917408585548,0.402172595262527,75.9978256225586,0.146407842636108,0.19503553211689,0.497827291488647,2012-01-18 15:55:50
1.05199980735779,31,-1.43548393249512,0.249531731009483,0.283467471599579,0.464516073465347,-36.083869934082,0.177731931209564,0.211136609315872,0.383870899677277,76.0580673217773,0.121748477220535,0.149783462285995,0.341935932636261,2012-01-18 15:55:51
1.03700017929077,43,-1.83720934391022,0.953163862228394,1.23890864849091,2.5627908706665,-36.0186042785645,0.760627269744873,0.830594003200531,1.31860458850861,73.5093002319336,3.35662531852722,3.63732695579529,6.80929899215698,2012-01-18 15:55:52
1.0239999294281,49,-7.78571462631226,0.563848435878754,0.747239828109741,2.38571429252625,-38.438777923584,0.839816927909851,0.954007029533386,1.73877537250519,62.3673477172852,0.734027683734894,0.834067463874817,1.73265063762665,2012-01-18 15:55:53
1.03299999237061,30,-6.003333568573,0.496444433927536,0.648836553096771,1.40333354473114,-35.8533325195312,1.71955561637878,1.941774725914,3.65333318710327,63.4233322143555,0.293555468320847,0.343203693628311,0.676664471626282,2012-01-18 15:55:55
1.00200009346008,42,-2.08809518814087,0.661451280117035,0.841824114322662,2.31190490722656,-3.87857151031494,6.43537425994873,8.46265029907227,27.9214286804199,71.3119049072266,3.48696136474609,4.01717758178711,8.91190528869629,2012-01-18 15:55:56
1.02300000190735,47,-2.98936176300049,0.60371208190918,0.693506062030792,1.38936173915863,-1.06595742702484,4.5823450088501,4.94330739974976,7.56595754623413,69.2744674682617,5.0047082901001,5.43692922592163,8.02553367614746,2012-01-18 15:55:57
1.02300000190735,34,-4.95588254928589,1.2911764383316,1.53779661655426,3.4441180229187,5.40588235855103,3.25847768783569,3.73528027534485,7.00588226318359,78.4735336303711,3.33979249000549,4.01198959350586,9.27352523803711,2012-01-18 15:55:58
1.00799989700317,40,-5.13000011444092,2.74200010299683,3.08830046653748,5.43000030517578,7.51999998092651,3.31500005722046,3.79744648933411,6.72000026702881,78.2600021362305,2.99200034141541,3.86890196800232,10.0400018692017,2012-01-18 15:55:59
1.00200009346008,45,-4.30222225189209,2.10024690628052,2.54649996757507,4.5977783203125,4.84888887405396,2.08790135383606,2.37108707427979,4.04888916015625,95.2622222900391,3.13027167320251,3.65721726417542,6.36222171783447,2012-01-18 15:56:00
