"diffSecs","latitude","longitude","altitude","time"
1.07099986076355,42.37693138,-70.98541109,-19.6000003814697,2012-02-04 14:00:01
1.09700012207031,42.37693139,-70.98541105,-19.6000003814697,2012-02-04 14:00:02
1.03600001335144,42.37693142,-70.98541111,-19.6000003814697,2012-02-04 14:00:03
0.858999967575073,42.37693145,-70.98541113,-19.6000003814697,2012-02-04 14:00:04
0.898999929428101,42.3769315,-70.98541117,-19.6000003814697,2012-02-04 14:00:04
1.08800005912781,42.37693155,-70.98541123,-19.6000003814697,2012-02-04 14:00:06
0.918999910354614,42.37693161,-70.98541128,-19.5,2012-02-04 14:00:06
1.21300005912781,42.3769316,-70.9854113,-19.5,2012-02-04 14:00:08
0.783999919891357,42.37693164,-70.98541139,-19.5,2012-02-04 14:00:08
1.04400014877319,42.37693167,-70.98541142,-19.5,2012-02-04 14:00:10
1.0479998588562,42.37693173,-70.98541144,-19.5,2012-02-04 14:00:11
1.05900001525879,42.37693174,-70.98541144,-19.5,2012-02-04 14:00:12
0.878000020980835,42.37693178,-70.98541147,-19.5,2012-02-04 14:00:12
1.24900007247925,42.37693181,-70.9854115,-19.5,2012-02-04 14:00:14
0.815000057220459,42.37693182,-70.98541151,-19.5,2012-02-04 14:00:15
0.924999952316284,42.37693182,-70.9854115,-19.5,2012-02-04 14:00:15
0.99399995803833,42.37693183,-70.98541154,-19.5,2012-02-04 14:00:16
1.0460000038147,42.37693187,-70.98541159,-19.5,2012-02-04 14:00:18
0.943000078201294,42.37693191,-70.98541159,-19.5,2012-02-04 14:00:18
1.00799989700317,42.37693189,-70.98541156,-19.5,2012-02-04 14:00:19
0.993000030517578,42.37693181,-70.98541147,-19.5,2012-02-04 14:00:20
1.02500009536743,42.37693183,-70.98541149,-19.5,2012-02-04 14:00:21
0.973999977111816,42.37693181,-70.98541146,-19.5,2012-02-04 14:00:22
1.0019998550415,42.37693166,-70.98541137,-19.5,2012-02-04 14:00:23
1.01500010490417,42.3769316,-70.98541134,-19.5,2012-02-04 14:00:24
1.01999998092651,42.37693155,-70.98541135,-19.5,2012-02-04 14:00:26
0.967000007629395,42.37693154,-70.98541142,-19.5,2012-02-04 14:00:26
1.12199997901917,42.37693158,-70.98541153,-19.5,2012-02-04 14:00:28
0.884999990463257,42.37693165,-70.98541159,-19.5,2012-02-04 14:00:28
1.0460000038147,42.37693165,-70.98541163,-19.5,2012-02-04 14:00:30
0.943000078201294,42.37693167,-70.98541164,-19.5,2012-02-04 14:00:30
1.14100003242493,42.37693167,-70.98541167,-19.5,2012-02-04 14:00:32
0.915999889373779,42.37693164,-70.98541168,-19.5,2012-02-04 14:00:33
0.95199990272522,42.37693165,-70.9854117,-19.3999996185303,2012-02-04 14:00:33
1.06400012969971,42.37693165,-70.98541174,-19.3999996185303,2012-02-04 14:00:35
0.925999879837036,42.37693167,-70.98541179,-19.3999996185303,2012-02-04 14:00:35
1.08400011062622,42.37693169,-70.98541185,-19.3999996185303,2012-02-04 14:00:37
0.91700005531311,42.37693168,-70.98541184,-19.3999996185303,2012-02-04 14:00:37
1.10999989509583,42.37693169,-70.9854119,-19.3999996185303,2012-02-04 14:00:39
0.891000032424927,42.37693169,-70.98541191,-19.3999996185303,2012-02-04 14:00:39
1.05200004577637,42.37693172,-70.98541203,-19.3999996185303,2012-02-04 14:00:41
0.963000059127808,42.37693171,-70.98541203,-19.3999996185303,2012-02-04 14:00:41
1.00899982452393,42.37693172,-70.98541204,-19.3999996185303,2012-02-04 14:00:42
0.981000185012817,42.37693175,-70.98541206,-19.3999996185303,2012-02-04 14:00:43
0.99399995803833,42.37693179,-70.98541212,-19.3999996185303,2012-02-04 14:00:44
1.0789999961853,42.37693185,-70.98541218,-19.3999996185303,2012-02-04 14:00:46
0.924000024795532,42.37693188,-70.98541224,-19.3999996185303,2012-02-04 14:00:46
1.08699989318848,42.37693195,-70.9854124,-19.3999996185303,2012-02-04 14:00:48
0.910000085830688,42.37693199,-70.98541243,-19.3999996185303,2012-02-04 14:00:48
1.03600001335144,42.37693203,-70.98541247,-19.3999996185303,2012-02-04 14:00:50
0.983999967575073,42.37693205,-70.98541251,-19.3999996185303,2012-02-04 14:00:50
1.04399991035461,42.37693201,-70.98541246,-19.3999996185303,2012-02-04 14:00:52
0.940999984741211,42.376932,-70.98541246,-19.3999996185303,2012-02-04 14:00:52
1.07400012016296,42.37693197,-70.98541238,-19.3999996185303,2012-02-04 14:00:54
0.924999952316284,42.37693196,-70.98541236,-19.3999996185303,2012-02-04 14:00:54
1.01699995994568,42.37693191,-70.98541227,-19.3999996185303,2012-02-04 14:00:55
1.17000007629395,42.37693195,-70.98541231,-19.3999996185303,2012-02-04 14:00:57
0.809000015258789,42.37693196,-70.98541227,-19.3999996185303,2012-02-04 14:00:57
1.00899982452393,42.37693195,-70.98541225,-19.3999996185303,2012-02-04 14:00:58
1.08899998664856,42.37693199,-70.98541223,-19.3999996185303,2012-02-04 14:01:00
0.906000137329102,42.37693201,-70.98541227,-19.3999996185303,2012-02-04 14:01:00
1.03999996185303,42.37693205,-70.98541233,-19.3999996185303,2012-02-04 14:01:02
1.08800005912781,42.37693219,-70.98541246,-19.3999996185303,2012-02-04 14:01:03
0.869999885559082,42.37693227,-70.98541253,-19.3999996185303,2012-02-04 14:01:03
1.08000016212463,42.37693239,-70.98541268,-19.3999996185303,2012-02-04 14:01:05
0.918999910354614,42.37693249,-70.98541278,-19.3999996185303,2012-02-04 14:01:05
1.07400012016296,42.37693255,-70.9854128,-19.3999996185303,2012-02-04 14:01:07
0.923999786376953,42.37693258,-70.98541288,-19.3999996185303,2012-02-04 14:01:07
1.04800009727478,42.3769327,-70.98541304,-19.3999996185303,2012-02-04 14:01:09
0.950000047683716,42.37693269,-70.98541303,-19.3999996185303,2012-02-04 14:01:09
1.00600004196167,42.37693271,-70.98541309,-19.3999996185303,2012-02-04 14:01:10
1.01899981498718,42.37693277,-70.9854132,-19.3999996185303,2012-02-04 14:01:11
1.03600001335144,42.37693286,-70.98541334,-19.3999996185303,2012-02-04 14:01:13
0.942000150680542,42.37693283,-70.98541332,-19.3999996185303,2012-02-04 14:01:13
1.06399989128113,42.37693282,-70.98541329,-19.3999996185303,2012-02-04 14:01:15
0.939000129699707,42.37693285,-70.98541332,-19.3999996185303,2012-02-04 14:01:15
1.00099992752075,42.37693284,-70.98541335,-19.3999996185303,2012-02-04 14:01:16
1.04800009727478,42.37693284,-70.98541343,-19.3999996185303,2012-02-04 14:01:18
0.952999830245972,42.37693287,-70.98541343,-19.3999996185303,2012-02-04 14:01:18
0.996999979019165,42.37693287,-70.98541344,-19.3999996185303,2012-02-04 14:01:19
1.00100016593933,42.37693291,-70.98541348,-19.3999996185303,2012-02-04 14:01:20
1.07099986076355,42.37693295,-70.9854135,-19.3999996185303,2012-02-04 14:01:22
0.924000024795532,42.37693295,-70.9854135,-19.3999996185303,2012-02-04 14:01:22
1.00399994850159,42.37693294,-70.98541351,-19.3999996185303,2012-02-04 14:01:23
1.01699995994568,42.37693296,-70.98541352,-19.3999996185303,2012-02-04 14:01:24
1.0220000743866,42.37693301,-70.98541353,-19.3999996185303,2012-02-04 14:01:26
0.962000131607056,42.37693302,-70.98541356,-19.3999996185303,2012-02-04 14:01:26
1.00699996948242,42.37693301,-70.9854136,-19.3999996185303,2012-02-04 14:01:27
1.01600003242493,42.37693296,-70.98541363,-19.3999996185303,2012-02-04 14:01:28
1.01399993896484,42.37693292,-70.98541366,-19.3999996185303,2012-02-04 14:01:30
0.963000059127808,42.37693291,-70.98541369,-19.3999996185303,2012-02-04 14:01:30
1.10599994659424,42.37693294,-70.98541369,-19.3999996185303,2012-02-04 14:01:32
0.918999910354614,42.37693293,-70.98541371,-19.3999996185303,2012-02-04 14:01:32
1.02400016784668,42.37693295,-70.98541371,-19.3999996185303,2012-02-04 14:01:34
0.950999975204468,42.37693292,-70.98541375,-19.3999996185303,2012-02-04 14:01:34
1.05599999427795,42.37693285,-70.98541376,-19.3999996185303,2012-02-04 14:01:36
1.11099982261658,42.37693295,-70.98541392,-19.3999996185303,2012-02-04 14:01:37
0.853000164031982,42.37693295,-70.98541395,-19.3999996185303,2012-02-04 14:01:37
1.05099987983704,42.37693293,-70.98541397,-19.3999996185303,2012-02-04 14:01:39
0.953000068664551,42.37693294,-70.98541405,-19.3999996185303,2012-02-04 14:01:39
1.23399996757507,42.37693299,-70.98541406,-19.3999996185303,2012-02-04 14:01:41
0.778000116348267,42.37693304,-70.98541412,-19.3999996185303,2012-02-04 14:01:42
0.98199987411499,42.3769331,-70.98541423,-19.3999996185303,2012-02-04 14:01:42
0.976999998092651,42.37693309,-70.98541423,-19.3999996185303,2012-02-04 14:01:43
1.00500011444092,42.37693311,-70.98541426,-19.2999992370605,2012-02-04 14:01:44
0.998999834060669,42.37693308,-70.98541427,-19.2999992370605,2012-02-04 14:01:45
1.00100016593933,42.37693309,-70.98541428,-19.2999992370605,2012-02-04 14:01:46
1.26300001144409,42.37693304,-70.98541422,-19.2999992370605,2012-02-04 14:01:48
0.733999967575073,42.37693308,-70.98541426,-19.2999992370605,2012-02-04 14:01:48
1.00899982452393,42.37693305,-70.98541423,-19.2999992370605,2012-02-04 14:01:49
0.985000133514404,42.37693306,-70.98541418,-19.2999992370605,2012-02-04 14:01:50
1.08899998664856,42.37693304,-70.98541421,-19.2999992370605,2012-02-04 14:01:52
0.935999870300293,42.37693304,-70.98541422,-19.2999992370605,2012-02-04 14:01:52
1.19100022315979,42.37693301,-70.98541426,-19.2999992370605,2012-02-04 14:01:54
0.784999847412109,42.37693299,-70.98541423,-19.2999992370605,2012-02-04 14:01:54
1.04299998283386,42.37693299,-70.98541423,-19.2999992370605,2012-02-04 14:01:56
0.956000089645386,42.37693298,-70.98541425,-19.2999992370605,2012-02-04 14:01:56
1.09800004959106,42.376933,-70.98541432,-19.2999992370605,2012-02-04 14:01:58
0.907999992370605,42.37693307,-70.98541441,-19.2999992370605,2012-02-04 14:01:58
1.00999999046326,42.3769331,-70.98541442,-19.2999992370605,2012-02-04 14:01:59
0.988999843597412,42.3769331,-70.98541442,-19.2999992370605,2012-02-04 14:02:00
1.1230001449585,42.37693313,-70.98541443,-19.2999992370605,2012-02-04 14:02:02
0.884999990463257,42.37693311,-70.98541443,-19.2999992370605,2012-02-04 14:02:02
1.00300002098083,42.37693311,-70.98541444,-19.2999992370605,2012-02-04 14:02:03
1.0239999294281,42.37693311,-70.98541446,-19.2999992370605,2012-02-04 14:02:05
0.973999977111816,42.37693312,-70.98541448,-19.2999992370605,2012-02-04 14:02:05
1.08400011062622,42.37693313,-70.98541449,-19.2999992370605,2012-02-04 14:02:07
0.914000034332275,42.37693314,-70.98541451,-19.2999992370605,2012-02-04 14:02:07
1.08799982070923,42.37693315,-70.98541452,-19.2999992370605,2012-02-04 14:02:09
0.912000179290771,42.37693315,-70.98541453,-19.2999992370605,2012-02-04 14:02:09
1.01699995994568,42.37693315,-70.98541455,-19.2999992370605,2012-02-04 14:02:10
0.983000040054321,42.37693318,-70.98541459,-19.2999992370605,2012-02-04 14:02:11
1.04399991035461,42.37693329,-70.98541473,-19.2999992370605,2012-02-04 14:02:13
0.956000089645386,42.37693329,-70.98541475,-19.2999992370605,2012-02-04 14:02:13
0.995999813079834,42.3769333,-70.98541476,-19.2999992370605,2012-02-04 14:02:14
1.01200008392334,42.37693333,-70.98541483,-19.2999992370605,2012-02-04 14:02:15
1.02799987792969,42.37693338,-70.98541487,-19.2999992370605,2012-02-04 14:02:17
0.970000028610229,42.37693336,-70.98541489,-19.2999992370605,2012-02-04 14:02:17
1.07400012016296,42.37693341,-70.98541494,-19.2999992370605,2012-02-04 14:02:19
0.924000024795532,42.3769334,-70.98541491,-19.2999992370605,2012-02-04 14:02:19
1.01600003242493,42.37693344,-70.98541498,-19.2999992370605,2012-02-04 14:02:20
0.977999925613403,42.37693345,-70.98541501,-19.2999992370605,2012-02-04 14:02:21
1.00799989700317,42.3769334,-70.98541497,-19.2999992370605,2012-02-04 14:02:22
1.00200009346008,42.37693344,-70.98541506,-19.2000007629395,2012-02-04 14:02:23
0.990999937057495,42.37693348,-70.98541511,-19.2000007629395,2012-02-04 14:02:24
1.00600004196167,42.3769335,-70.98541513,-19.2000007629395,2012-02-04 14:02:25
1.08800005912781,42.37693355,-70.98541518,-19.2000007629395,2012-02-04 14:02:27
0.904999971389771,42.37693348,-70.98541511,-19.2000007629395,2012-02-04 14:02:27
1.00499987602234,42.3769335,-70.98541515,-19.2000007629395,2012-02-04 14:02:28
1.01100015640259,42.37693355,-70.98541522,-19.2000007629395,2012-02-04 14:02:29
1.06900000572205,42.37693354,-70.98541523,-19.2000007629395,2012-02-04 14:02:31
1.59299993515015,42.37693359,-70.98541527,-19.2000007629395,2012-02-04 14:02:32
0.309999942779541,42.37693362,-70.98541528,-19.2000007629395,2012-02-04 14:02:32
1.01200008392334,42.37693361,-70.98541523,-19.2000007629395,2012-02-04 14:02:33
1.09500002861023,42.37693363,-70.98541522,-19.2000007629395,2012-02-04 14:02:35
0.901999950408936,42.3769336,-70.98541525,-19.2000007629395,2012-02-04 14:02:35
1.07200002670288,42.3769336,-70.98541526,-19.2000007629395,2012-02-04 14:02:37
0.930999994277954,42.37693357,-70.98541528,-19.2000007629395,2012-02-04 14:02:37
1.07500004768372,42.37693358,-70.98541529,-19.2000007629395,2012-02-04 14:02:39
0.921999931335449,42.37693359,-70.98541534,-19.2000007629395,2012-02-04 14:02:39
1.08599996566772,42.37693362,-70.9854154,-19.2000007629395,2012-02-04 14:02:41
0.914999961853027,42.37693364,-70.98541542,-19.2000007629395,2012-02-04 14:02:41
1.0550000667572,42.37693366,-70.98541546,-19.2000007629395,2012-02-04 14:02:43
0.946000099182129,42.37693366,-70.98541548,-19.2000007629395,2012-02-04 14:02:43
1.09699988365173,42.37693366,-70.98541547,-19.2000007629395,2012-02-04 14:02:45
0.901999950408936,42.37693366,-70.98541548,-19.2000007629395,2012-02-04 14:02:45
1.0770001411438,42.37693366,-70.9854155,-19.2000007629395,2012-02-04 14:02:47
0.921999931335449,42.37693368,-70.98541551,-19.2000007629395,2012-02-04 14:02:47
1.0699999332428,42.37693371,-70.98541551,-19.2000007629395,2012-02-04 14:02:49
0.949000120162964,42.37693373,-70.98541553,-19.2000007629395,2012-02-04 14:02:49
1.01999998092651,42.37693376,-70.98541554,-19.2000007629395,2012-02-04 14:02:51
1.06299996376038,42.37693376,-70.98541556,-19.2000007629395,2012-02-04 14:02:52
0.900000095367432,42.37693375,-70.98541557,-19.2000007629395,2012-02-04 14:02:52
1.09899997711182,42.37693377,-70.98541561,-19.2000007629395,2012-02-04 14:02:54
0.904999971389771,42.37693377,-70.98541562,-19.2000007629395,2012-02-04 14:02:54
1.0939998626709,42.37693379,-70.98541563,-19.2000007629395,2012-02-04 14:02:56
0.906000137329102,42.37693387,-70.98541567,-19.2000007629395,2012-02-04 14:02:56
1.00499987602234,42.37693393,-70.9854158,-19.2000007629395,2012-02-04 14:02:57
1.20000004768372,42.37693401,-70.98541587,-19.2000007629395,2012-02-04 14:02:59
0.858000040054321,42.37693397,-70.98541586,-19.2000007629395,2012-02-04 14:03:00
0.417999982833862,42.37693401,-70.98541589,-19.2000007629395,2012-02-04 14:03:00
1.01999998092651,42.37693409,-70.98541599,-19.2000007629395,2012-02-04 14:03:01
0.992000102996826,42.37693416,-70.98541608,-19.2000007629395,2012-02-04 14:03:02
1.0149998664856,42.3769342,-70.98541617,-19.2000007629395,2012-02-04 14:03:03
0.973999977111816,42.3769342,-70.98541617,-19.2000007629395,2012-02-04 14:03:04
1.1100001335144,42.37693422,-70.9854162,-19.2000007629395,2012-02-04 14:03:05
0.878000020980835,42.37693422,-70.98541621,-19.2000007629395,2012-02-04 14:03:06
1.02999997138977,42.3769343,-70.98541631,-19.2000007629395,2012-02-04 14:03:07
1.03399991989136,42.37693442,-70.98541647,-19.2000007629395,2012-02-04 14:03:08
0.931999921798706,42.37693447,-70.98541652,-19.2000007629395,2012-02-04 14:03:09
1.09300017356873,42.37693451,-70.98541661,-19.2000007629395,2012-02-04 14:03:10
0.912999868392944,42.37693451,-70.98541659,-19.2000007629395,2012-02-04 14:03:11
1.07300019264221,42.37693453,-70.98541664,-19.2000007629395,2012-02-04 14:03:12
0.929999828338623,42.37693454,-70.98541663,-19.2000007629395,2012-02-04 14:03:13
1.09200000762939,42.37693447,-70.9854166,-19.2000007629395,2012-02-04 14:03:14
0.907000064849854,42.37693445,-70.98541661,-19.2000007629395,2012-02-04 14:03:15
0.99399995803833,42.37693442,-70.98541665,-19.1000003814697,2012-02-04 14:03:16
1.01200008392334,42.37693438,-70.98541666,-19.1000003814697,2012-02-04 14:03:17
1.12399983406067,42.37693437,-70.98541674,-19.1000003814697,2012-02-04 14:03:18
0.868000030517578,42.37693434,-70.98541676,-19.1000003814697,2012-02-04 14:03:19
1.0090000629425,42.37693432,-70.98541676,-19.1000003814697,2012-02-04 14:03:20
1.12199997901917,42.37693428,-70.98541677,-19.1000003814697,2012-02-04 14:03:21
0.870000123977661,42.37693425,-70.98541675,-19.1000003814697,2012-02-04 14:03:22
1.13599991798401,42.37693424,-70.98541677,-19.1000003814697,2012-02-04 14:03:23
0.861999988555908,42.37693421,-70.98541678,-19.1000003814697,2012-02-04 14:03:24
1.13199996948242,42.3769342,-70.98541679,-19.1000003814697,2012-02-04 14:03:25
0.871000051498413,42.37693418,-70.9854168,-19.1000003814697,2012-02-04 14:03:26
1.00200009346008,42.37693418,-70.98541678,-19.1000003814697,2012-02-04 14:03:27
1.13399982452393,42.37693415,-70.98541674,-19.1000003814697,2012-02-04 14:03:28
0.864000082015991,42.37693414,-70.98541674,-19.1000003814697,2012-02-04 14:03:29
1.13700008392334,42.37693413,-70.98541675,-19.1000003814697,2012-02-04 14:03:30
0.86299991607666,42.37693411,-70.98541675,-19.1000003814697,2012-02-04 14:03:31
1.01600003242493,42.37693412,-70.98541674,-19.1000003814697,2012-02-04 14:03:32
0.974999904632568,42.37693412,-70.98541675,-19.1000003814697,2012-02-04 14:03:33
1.00999999046326,42.37693409,-70.9854167,-19.1000003814697,2012-02-04 14:03:34
1.00200009346008,42.37693411,-70.98541672,-19.1000003814697,2012-02-04 14:03:35
1.11500000953674,42.37693417,-70.98541676,-19.1000003814697,2012-02-04 14:03:36
0.886999845504761,42.37693416,-70.98541673,-19.1000003814697,2012-02-04 14:03:37
0.986000061035156,42.3769342,-70.98541676,-19.1000003814697,2012-02-04 14:03:38
1.17799997329712,42.37693422,-70.98541675,-19.1000003814697,2012-02-04 14:03:39
0.832000017166138,42.3769342,-70.98541677,-19.1000003814697,2012-02-04 14:03:40
1.00399994850159,42.3769342,-70.98541676,-19.1000003814697,2012-02-04 14:03:41
1.12700009346008,42.37693422,-70.98541675,-19.1000003814697,2012-02-04 14:03:42
0.865999937057495,42.37693424,-70.98541674,-19.1000003814697,2012-02-04 14:03:43
1.20000004768372,42.37693423,-70.98541674,-19.1000003814697,2012-02-04 14:03:44
0.799999952316284,42.37693424,-70.98541676,-19.1000003814697,2012-02-04 14:03:45
1.24600005149841,42.37693425,-70.98541678,-19.1000003814697,2012-02-04 14:03:46
0.759000062942505,42.37693428,-70.98541684,-19.1000003814697,2012-02-04 14:03:47
1.13100004196167,42.37693436,-70.98541691,-19.1000003814697,2012-02-04 14:03:48
0.903999805450439,42.37693438,-70.98541694,-19.1000003814697,2012-02-04 14:03:49
0.979000091552734,42.37693444,-70.98541697,-19.1000003814697,2012-02-04 14:03:50
1.19799995422363,42.37693446,-70.98541701,-19.1000003814697,2012-02-04 14:03:51
1.02500009536743,42.37693451,-70.98541705,-19.1000003814697,2012-02-04 14:03:52
0.757999897003174,42.37693455,-70.98541705,-19.1000003814697,2012-02-04 14:03:53
0.993000030517578,42.37693457,-70.98541704,-19.1000003814697,2012-02-04 14:03:54
1.00500011444092,42.3769346,-70.98541703,-19.1000003814697,2012-02-04 14:03:55
1.00399994850159,42.37693459,-70.98541705,-19.1000003814697,2012-02-04 14:03:56
0.994999885559082,42.37693459,-70.98541705,-19.1000003814697,2012-02-04 14:03:57
1.01500010490417,42.37693461,-70.98541705,-19.1000003814697,2012-02-04 14:03:58
0.98199987411499,42.37693461,-70.98541705,-19.1000003814697,2012-02-04 14:03:59
1.16500020027161,42.37693462,-70.98541706,-19.1000003814697,2012-02-04 14:04:00
0.840999841690063,42.37693463,-70.98541706,-19.1000003814697,2012-02-04 14:04:01
1.00500011444092,42.37693464,-70.98541705,-19.1000003814697,2012-02-04 14:04:02
0.986999988555908,42.37693465,-70.98541705,-19.1000003814697,2012-02-04 14:04:03
1.00699996948242,42.37693465,-70.98541707,-19.1000003814697,2012-02-04 14:04:04
1.03099989891052,42.37693467,-70.98541707,-19.1000003814697,2012-02-04 14:04:05
0.978000164031982,42.37693469,-70.98541707,-19.1000003814697,2012-02-04 14:04:06
0.986999988555908,42.3769347,-70.98541707,-19.1000003814697,2012-02-04 14:04:07
1.00099992752075,42.3769347,-70.9854171,-19.1000003814697,2012-02-04 14:04:08
1.25300002098083,42.3769347,-70.98541713,-19.1000003814697,2012-02-04 14:04:09
0.750999927520752,42.37693471,-70.98541714,-19.1000003814697,2012-02-04 14:04:10
1,42.37693471,-70.98541717,-19.1000003814697,2012-02-04 14:04:11
1.23600006103516,42.37693474,-70.98541721,-19.1000003814697,2012-02-04 14:04:12
0.763000011444092,42.37693476,-70.98541726,-19.1000003814697,2012-02-04 14:04:13
1.24300003051758,42.37693476,-70.98541725,-19.1000003814697,2012-02-04 14:04:14
0.757999897003174,42.37693476,-70.98541726,-19.1000003814697,2012-02-04 14:04:15
0.996000051498413,42.37693475,-70.98541728,-19.1000003814697,2012-02-04 14:04:16
1.00699996948242,42.37693477,-70.98541729,-19.1000003814697,2012-02-04 14:04:17
1.24600005149841,42.37693479,-70.98541734,-19.1000003814697,2012-02-04 14:04:18
0.884000062942505,42.37693481,-70.98541735,-19.1000003814697,2012-02-04 14:04:19
0.881999969482422,42.37693485,-70.98541739,-19.1000003814697,2012-02-04 14:04:20
1.14599990844727,42.37693486,-70.98541736,-19.1000003814697,2012-02-04 14:04:21
0.832000017166138,42.37693485,-70.98541736,-19.1000003814697,2012-02-04 14:04:22
1.03200006484985,42.37693484,-70.98541739,-19.1000003814697,2012-02-04 14:04:23
0.980000019073486,42.37693488,-70.98541742,-19.1000003814697,2012-02-04 14:04:24
1.01099991798401,42.37693487,-70.98541745,-19,2012-02-04 14:04:25
0.976999998092651,42.37693484,-70.98541746,-19,2012-02-04 14:04:26
1.0789999961853,42.37693487,-70.98541746,-19.1000003814697,2012-02-04 14:04:27
0.927999973297119,42.37693492,-70.98541752,-19,2012-02-04 14:04:28
1.00600004196167,42.37693492,-70.98541755,-19,2012-02-04 14:04:29
1.26900005340576,42.3769349,-70.9854176,-19,2012-02-04 14:04:30
0.727999925613403,42.37693491,-70.98541764,-19,2012-02-04 14:04:31
1.29100012779236,42.37693493,-70.98541768,-19,2012-02-04 14:04:32
0.707000017166138,42.37693492,-70.98541772,-19,2012-02-04 14:04:33
0.991999864578247,42.37693496,-70.98541777,-19,2012-02-04 14:04:34
1.00500011444092,42.37693501,-70.98541777,-19,2012-02-04 14:04:35
1.24599981307983,42.37693505,-70.98541779,-19,2012-02-04 14:04:36
0.75600004196167,42.37693507,-70.98541776,-19,2012-02-04 14:04:37
1,42.376935,-70.98541772,-19,2012-02-04 14:04:38
1.28299999237061,42.37693496,-70.98541765,-19,2012-02-04 14:04:39
0.749000072479248,42.37693499,-70.98541767,-19,2012-02-04 14:04:40
1.08899998664856,42.37693503,-70.98541772,-19,2012-02-04 14:04:41
0.878999948501587,42.37693503,-70.98541772,-19,2012-02-04 14:04:42
1.19099998474121,42.37693503,-70.98541775,-19,2012-02-04 14:04:43
0.812000036239624,42.37693502,-70.98541781,-19,2012-02-04 14:04:44
0.990999937057495,42.37693505,-70.98541782,-19,2012-02-04 14:04:45
1.00300002098083,42.37693502,-70.98541781,-19,2012-02-04 14:04:46
1.02100014686584,42.37693503,-70.98541785,-19,2012-02-04 14:04:47
0.990000009536743,42.37693504,-70.98541787,-19,2012-02-04 14:04:48
0.98799991607666,42.37693503,-70.98541789,-19,2012-02-04 14:04:49
1.00699996948242,42.37693504,-70.98541792,-19,2012-02-04 14:04:50
1.02600002288818,42.37693506,-70.98541796,-19,2012-02-04 14:04:51
0.973999977111816,42.37693503,-70.98541795,-19,2012-02-04 14:04:52
0.996000051498413,42.37693496,-70.98541789,-19,2012-02-04 14:04:53
0.993000030517578,42.37693494,-70.98541789,-19,2012-02-04 14:04:54
1.00499987602234,42.37693494,-70.9854179,-19,2012-02-04 14:04:55
1.14800000190735,42.37693495,-70.98541792,-19,2012-02-04 14:04:56
0.858000040054321,42.37693492,-70.98541792,-19,2012-02-04 14:04:57
1.27900004386902,42.37693492,-70.98541793,-19,2012-02-04 14:04:58
0.953999996185303,42.37693495,-70.98541794,-19,2012-02-04 14:04:59
0.99399995803833,42.37693501,-70.98541798,-19,2012-02-04 14:05:00
1.00100016593933,42.37693505,-70.98541802,-19,2012-02-04 14:05:01
1.02999997138977,42.37693508,-70.98541807,-19,2012-02-04 14:05:02
0.97599983215332,42.37693511,-70.98541809,-19,2012-02-04 14:05:03
1.00999999046326,42.37693506,-70.98541808,-19,2012-02-04 14:05:04
1.00800013542175,42.3769351,-70.98541812,-19,2012-02-04 14:05:05
0.980000019073486,42.37693514,-70.98541809,-19,2012-02-04 14:05:06
1.09299993515015,42.37693514,-70.98541809,-19,2012-02-04 14:05:07
1.03500008583069,42.37693514,-70.98541814,-19,2012-02-04 14:05:08
0.875999927520752,42.37693513,-70.98541817,-19,2012-02-04 14:05:09
1.02799987792969,42.37693517,-70.98541823,-19,2012-02-04 14:05:10
0.968000173568726,42.3769352,-70.98541824,-19,2012-02-04 14:05:11
1.16400003433228,42.37693523,-70.98541826,-19,2012-02-04 14:05:12
0.842999935150146,42.37693524,-70.98541826,-19,2012-02-04 14:05:13
1.03399991989136,42.37693524,-70.98541826,-19,2012-02-04 14:05:14
0.955000162124634,42.37693523,-70.98541828,-19,2012-02-04 14:05:15
1.00999999046326,42.37693523,-70.98541828,-19,2012-02-04 14:05:16
1.00399994850159,42.37693523,-70.98541828,-19,2012-02-04 14:05:17
1,42.37693522,-70.98541829,-19,2012-02-04 14:05:18
1.03799986839294,42.37693523,-70.9854183,-19,2012-02-04 14:05:19
0.947000026702881,42.37693527,-70.98541831,-19,2012-02-04 14:05:20
1.02400016784668,42.37693527,-70.98541831,-19,2012-02-04 14:05:21
0.980999946594238,42.37693529,-70.98541829,-19,2012-02-04 14:05:22
0.998999834060669,42.37693528,-70.98541832,-19,2012-02-04 14:05:23
1.03400015830994,42.37693531,-70.98541831,-19,2012-02-04 14:05:24
0.973000049591064,42.37693535,-70.98541832,-19,2012-02-04 14:05:25
1.01699995994568,42.37693534,-70.98541833,-19,2012-02-04 14:05:26
0.978999853134155,42.37693531,-70.98541832,-19,2012-02-04 14:05:27
1.05900001525879,42.37693524,-70.98541821,-19,2012-02-04 14:05:28
0.988000154495239,42.37693516,-70.98541816,-19,2012-02-04 14:05:29
0.950999975204468,42.37693514,-70.98541816,-19,2012-02-04 14:05:30
0.997999906539917,42.37693512,-70.98541817,-19,2012-02-04 14:05:31
1.01600003242493,42.37693504,-70.98541816,-18.8999996185303,2012-02-04 14:05:32
1.03099989891052,42.37693503,-70.9854182,-18.8999996185303,2012-02-04 14:05:33
0.967000007629395,42.37693502,-70.98541819,-18.8999996185303,2012-02-04 14:05:34
1.06200003623962,42.376935,-70.98541825,-18.8999996185303,2012-02-04 14:05:35
0.968000173568726,42.376935,-70.9854183,-18.8999996185303,2012-02-04 14:05:36
1.01099991798401,42.37693498,-70.98541833,-18.8999996185303,2012-02-04 14:05:37
0.95799994468689,42.37693498,-70.98541836,-18.8999996185303,2012-02-04 14:05:38
1.00600004196167,42.37693499,-70.98541838,-18.8999996185303,2012-02-04 14:05:39
1.05299997329712,42.37693496,-70.98541843,-18.8999996185303,2012-02-04 14:05:40
0.937999963760376,42.37693497,-70.98541844,-18.8999996185303,2012-02-04 14:05:41
0.995000123977661,42.37693495,-70.98541848,-18.8999996185303,2012-02-04 14:05:42
1.03199982643127,42.37693492,-70.98541848,-18.8999996185303,2012-02-04 14:05:43
1.03299999237061,42.37693489,-70.9854185,-18.8999996185303,2012-02-04 14:05:44
0.937000036239624,42.37693486,-70.98541852,-18.8999996185303,2012-02-04 14:05:45
1.33100008964539,42.37693483,-70.98541856,-18.8999996185303,2012-02-04 14:05:47
0.66700005531311,42.37693483,-70.98541859,-18.8999996185303,2012-02-04 14:05:47
1.0019998550415,42.37693483,-70.98541861,-18.8999996185303,2012-02-04 14:05:48
1.05100011825562,42.3769348,-70.98541862,-18.7999992370605,2012-02-04 14:05:49
0.955999851226807,42.37693477,-70.98541866,-18.7999992370605,2012-02-04 14:05:50
1.09000015258789,42.37693473,-70.98541865,-18.7999992370605,2012-02-04 14:05:51
0.907999992370605,42.37693465,-70.98541867,-18.7999992370605,2012-02-04 14:05:52
1.03200006484985,42.3769346,-70.98541872,-18.7999992370605,2012-02-04 14:05:53
0.970999956130981,42.37693452,-70.98541874,-18.7999992370605,2012-02-04 14:05:54
1.18999981880188,42.3769345,-70.9854188,-18.7999992370605,2012-02-04 14:05:55
0.811000108718872,42.37693443,-70.9854188,-18.7999992370605,2012-02-04 14:05:56
0.986999988555908,42.37693449,-70.98541888,-18.7999992370605,2012-02-04 14:05:57
1.0550000667572,42.37693448,-70.98541891,-18.7999992370605,2012-02-04 14:05:58
0.947999954223633,42.37693443,-70.98541898,-18.7999992370605,2012-02-04 14:05:59
1.27500009536743,42.37693445,-70.98541908,-18.7999992370605,2012-02-04 14:06:00
0.723999977111816,42.37693444,-70.98541913,-18.7999992370605,2012-02-04 14:06:01
1.0699999332428,42.37693438,-70.98541911,-18.7999992370605,2012-02-04 14:06:02
0.930000066757202,42.3769344,-70.98541913,-18.7999992370605,2012-02-04 14:06:03
1.01099991798401,42.37693437,-70.98541908,-18.7999992370605,2012-02-04 14:06:04
0.986999988555908,42.37693429,-70.98541901,-18.7999992370605,2012-02-04 14:06:05
1.0699999332428,42.37693431,-70.98541904,-18.7999992370605,2012-02-04 14:06:06
0.93500018119812,42.37693443,-70.98541902,-18.7999992370605,2012-02-04 14:06:07
0.998999834060669,42.3769345,-70.98541902,-18.7999992370605,2012-02-04 14:06:08
0.996000051498413,42.37693455,-70.985419,-18.7999992370605,2012-02-04 14:06:09
1.00399994850159,42.37693453,-70.98541891,-18.7999992370605,2012-02-04 14:06:10
1.09599995613098,42.37693458,-70.98541892,-18.7999992370605,2012-02-04 14:06:11
0.902000188827515,42.37693464,-70.98541892,-18.7999992370605,2012-02-04 14:06:12
0.998999834060669,42.37693475,-70.98541898,-18.7999992370605,2012-02-04 14:06:13
1.00400018692017,42.37693481,-70.98541898,-18.7999992370605,2012-02-04 14:06:14
1.17499995231628,42.37693499,-70.98541906,-18.7999992370605,2012-02-04 14:06:15
0.932999849319458,42.37693512,-70.98541911,-18.7999992370605,2012-02-04 14:06:16
0.897000074386597,42.37693528,-70.98541915,-18.7999992370605,2012-02-04 14:06:17
0.999000072479248,42.37693544,-70.98541922,-18.7999992370605,2012-02-04 14:06:18
1.08299994468689,42.37693548,-70.98541924,-18.7999992370605,2012-02-04 14:06:19
0.911999940872192,42.37693547,-70.98541922,-18.7999992370605,2012-02-04 14:06:20
1.09200000762939,42.3769355,-70.98541923,-18.7999992370605,2012-02-04 14:06:21
0.907999992370605,42.37693558,-70.98541927,-18.7999992370605,2012-02-04 14:06:22
1,42.37693568,-70.98541936,-18.7999992370605,2012-02-04 14:06:23
1.05900001525879,42.37693587,-70.98541951,-18.7999992370605,2012-02-04 14:06:24
0.947000026702881,42.37693601,-70.98541961,-18.7999992370605,2012-02-04 14:06:25
0.999000072479248,42.37693616,-70.98541968,-18.7999992370605,2012-02-04 14:06:26
0.997999906539917,42.37693632,-70.98541976,-18.8999996185303,2012-02-04 14:06:27
1.06700015068054,42.37693645,-70.98541981,-18.8999996185303,2012-02-04 14:06:28
0.936999797821045,42.37693664,-70.98541993,-18.8999996185303,2012-02-04 14:06:29
1.08200001716614,42.37693675,-70.98541996,-18.8999996185303,2012-02-04 14:06:30
0.922000169754028,42.37693689,-70.98541999,-18.8999996185303,2012-02-04 14:06:31
1.04900002479553,42.37693686,-70.98541999,-18.8999996185303,2012-02-04 14:06:32
0.935999870300293,42.37693683,-70.98541997,-18.8999996185303,2012-02-04 14:06:33
1.05399990081787,42.37693682,-70.98541999,-18.8999996185303,2012-02-04 14:06:34
0.953000068664551,42.37693681,-70.98542002,-18.8999996185303,2012-02-04 14:06:35
1,42.3769368,-70.98542007,-18.8999996185303,2012-02-04 14:06:36
1.0550000667572,42.37693675,-70.98542003,-18.8999996185303,2012-02-04 14:06:37
0.940000057220459,42.37693684,-70.98542014,-18.8999996185303,2012-02-04 14:06:38
1.01399993896484,42.37693695,-70.98542026,-18.8999996185303,2012-02-04 14:06:39
0.990000009536743,42.37693694,-70.98542027,-18.8999996185303,2012-02-04 14:06:40
0.99399995803833,42.37693688,-70.98542029,-18.8999996185303,2012-02-04 14:06:41
1.00399994850159,42.3769369,-70.98542034,-18.7999992370605,2012-02-04 14:06:42
1.16400003433228,42.37693691,-70.98542032,-18.7999992370605,2012-02-04 14:06:43
0.837000131607056,42.37693691,-70.98542029,-18.7999992370605,2012-02-04 14:06:44
0.998999834060669,42.37693697,-70.98542036,-18.7999992370605,2012-02-04 14:06:45
1.10899996757507,42.37693697,-70.98542036,-18.7999992370605,2012-02-04 14:06:46
0.891000032424927,42.37693702,-70.98542039,-18.8999996185303,2012-02-04 14:06:47
1.01100015640259,42.37693702,-70.98542039,-18.8999996185303,2012-02-04 14:06:48
0.998999834060669,42.37693705,-70.98542043,-18.8999996185303,2012-02-04 14:06:49
0.996000051498413,42.37693709,-70.9854205,-18.8999996185303,2012-02-04 14:06:50
1.0550000667572,42.37693707,-70.9854205,-18.7999992370605,2012-02-04 14:06:51
0.937999963760376,42.37693717,-70.98542059,-18.7999992370605,2012-02-04 14:06:52
1.01900005340576,42.37693721,-70.98542067,-18.7999992370605,2012-02-04 14:06:53
0.997999906539917,42.37693724,-70.98542073,-18.7999992370605,2012-02-04 14:06:54
0.993000030517578,42.3769373,-70.98542076,-18.7999992370605,2012-02-04 14:06:55
1.09700012207031,42.37693726,-70.98542071,-18.7999992370605,2012-02-04 14:06:56
0.913999795913696,42.37693733,-70.98542077,-18.7999992370605,2012-02-04 14:06:57
0.985000133514404,42.37693738,-70.98542082,-18.7999992370605,2012-02-04 14:06:58
1.08299994468689,42.37693741,-70.98542087,-18.7999992370605,2012-02-04 14:06:59
0.914999961853027,42.37693741,-70.9854209,-18.7999992370605,2012-02-04 14:07:00
1.21900010108948,42.37693764,-70.98542118,-18.7999992370605,2012-02-04 14:07:01
0.91100001335144,42.37693783,-70.98542141,-18.7999992370605,2012-02-04 14:07:02
1.0149998664856,42.37693797,-70.98542159,-18.7999992370605,2012-02-04 14:07:03
0.969000101089478,42.37693807,-70.9854217,-18.7999992370605,2012-02-04 14:07:04
1.03900003433228,42.37693814,-70.98542177,-18.7999992370605,2012-02-04 14:07:05
0.967000007629395,42.37693825,-70.98542192,-18.7999992370605,2012-02-04 14:07:06
0.99399995803833,42.37693833,-70.98542201,-18.7999992370605,2012-02-04 14:07:07
1.00499987602234,42.37693844,-70.98542214,-18.7999992370605,2012-02-04 14:07:08
1.04400014877319,42.37693852,-70.9854222,-18.7999992370605,2012-02-04 14:07:09
0.952999830245972,42.3769386,-70.98542227,-18.7999992370605,2012-02-04 14:07:10
1.02800011634827,42.37693869,-70.98542235,-18.7999992370605,2012-02-04 14:07:11
1.04399991035461,42.37693871,-70.98542236,-18.7999992370605,2012-02-04 14:07:12
0.936000108718872,42.37693877,-70.9854224,-18.7999992370605,2012-02-04 14:07:13
1.06200003623962,42.37693876,-70.98542239,-18.7999992370605,2012-02-04 14:07:14
0.937000036239624,42.37693877,-70.9854224,-18.7999992370605,2012-02-04 14:07:15
1.10399985313416,42.37693878,-70.98542244,-18.7999992370605,2012-02-04 14:07:16
0.891999959945679,42.37693881,-70.9854225,-18.7999992370605,2012-02-04 14:07:17
1.09300017356873,42.37693889,-70.98542259,-18.7999992370605,2012-02-04 14:07:18
0.921000003814697,42.37693893,-70.98542261,-18.7999992370605,2012-02-04 14:07:19
1.07599997520447,42.37693896,-70.98542267,-18.7999992370605,2012-02-04 14:07:20
0.907999992370605,42.37693899,-70.98542271,-18.7999992370605,2012-02-04 14:07:21
1.0019998550415,42.37693898,-70.98542271,-18.7999992370605,2012-02-04 14:07:22
0.996999979019165,42.37693902,-70.98542272,-18.7999992370605,2012-02-04 14:07:23
1.01800012588501,42.37693902,-70.98542272,-18.7999992370605,2012-02-04 14:07:24
1.05399990081787,42.37693901,-70.98542275,-18.7999992370605,2012-02-04 14:07:25
0.942000150680542,42.37693903,-70.98542274,-18.7999992370605,2012-02-04 14:07:26
1.00399994850159,42.37693903,-70.98542272,-18.7999992370605,2012-02-04 14:07:27
0.993000030517578,42.37693902,-70.98542272,-18.7999992370605,2012-02-04 14:07:28
0.993000030517578,42.37693891,-70.98542261,-18.7000007629395,2012-02-04 14:07:29
1.08099985122681,42.3769388,-70.98542251,-18.7000007629395,2012-02-04 14:07:30
0.922000169754028,42.37693878,-70.98542247,-18.7000007629395,2012-02-04 14:07:31
1.00499987602234,42.37693878,-70.9854225,-18.7000007629395,2012-02-04 14:07:32
1.01399993896484,42.37693874,-70.98542245,-18.7000007629395,2012-02-04 14:07:33
1.05900001525879,42.37693872,-70.98542243,-18.7000007629395,2012-02-04 14:07:34
0.924999952316284,42.37693872,-70.98542242,-18.7000007629395,2012-02-04 14:07:35
0.990000009536743,42.37693868,-70.98542243,-18.7000007629395,2012-02-04 14:07:36
1.0090000629425,42.37693873,-70.98542252,-18.7000007629395,2012-02-04 14:07:37
1.0770001411438,42.37693873,-70.98542251,-18.7000007629395,2012-02-04 14:07:38
0.913999795913696,42.37693886,-70.98542261,-18.7000007629395,2012-02-04 14:07:39
1.01200008392334,42.37693883,-70.98542256,-18.7000007629395,2012-02-04 14:07:40
0.986999988555908,42.37693879,-70.98542251,-18.7000007629395,2012-02-04 14:07:41
1.00399994850159,42.3769388,-70.98542253,-18.7000007629395,2012-02-04 14:07:42
1.07100009918213,42.37693876,-70.98542247,-18.7000007629395,2012-02-04 14:07:43
0.930999994277954,42.37693875,-70.98542246,-18.7000007629395,2012-02-04 14:07:44
1.00099992752075,42.37693871,-70.9854224,-18.7000007629395,2012-02-04 14:07:45
1.10600018501282,42.37693864,-70.98542235,-18.7000007629395,2012-02-04 14:07:46
0.887999773025513,42.3769386,-70.98542231,-18.7000007629395,2012-02-04 14:07:47
1.05400013923645,42.37693852,-70.98542229,-18.7000007629395,2012-02-04 14:07:48
0.955999851226807,42.37693848,-70.98542228,-18.7000007629395,2012-02-04 14:07:49
1.02800011634827,42.37693843,-70.98542225,-18.7000007629395,2012-02-04 14:07:50
0.961999893188477,42.37693841,-70.98542224,-18.7000007629395,2012-02-04 14:07:51
1.00300002098083,42.37693842,-70.98542225,-18.7000007629395,2012-02-04 14:07:52
1.09700012207031,42.37693842,-70.98542225,-18.7000007629395,2012-02-04 14:07:53
0.904000043869019,42.37693841,-70.98542221,-18.7000007629395,2012-02-04 14:07:54
1.04999995231628,42.37693837,-70.98542221,-18.7000007629395,2012-02-04 14:07:55
0.94599986076355,42.37693832,-70.98542213,-18.7000007629395,2012-02-04 14:07:56
1.00400018692017,42.37693821,-70.985422,-18.7000007629395,2012-02-04 14:07:57
0.997999906539917,42.37693809,-70.98542188,-18.7000007629395,2012-02-04 14:07:58
1.01699995994568,42.376938,-70.98542179,-18.7000007629395,2012-02-04 14:07:59
1.07400012016296,42.37693793,-70.98542171,-18.7000007629395,2012-02-04 14:08:00
0.907999992370605,42.3769378,-70.98542159,-18.7000007629395,2012-02-04 14:08:01
1.01799988746643,42.37693775,-70.98542157,-18.7000007629395,2012-02-04 14:08:02
1.00800013542175,42.37693769,-70.98542151,-18.7000007629395,2012-02-04 14:08:03
1.03999996185303,42.37693769,-70.98542151,-18.7000007629395,2012-02-04 14:08:04
0.931999921798706,42.37693768,-70.9854215,-18.7000007629395,2012-02-04 14:08:05
1.13599991798401,42.37693767,-70.98542151,-18.7000007629395,2012-02-04 14:08:06
0.880000114440918,42.37693775,-70.9854216,-18.7000007629395,2012-02-04 14:08:07
1.03299999237061,42.37693774,-70.98542161,-18.7000007629395,2012-02-04 14:08:08
0.95199990272522,42.37693773,-70.98542162,-18.7000007629395,2012-02-04 14:08:09
1.05599999427795,42.37693769,-70.98542157,-18.7000007629395,2012-02-04 14:08:10
1.0090000629425,42.37693768,-70.98542157,-18.7000007629395,2012-02-04 14:08:11
0.944999933242798,42.37693767,-70.98542158,-18.7000007629395,2012-02-04 14:08:12
1.07300019264221,42.37693761,-70.98542154,-18.7000007629395,2012-02-04 14:08:13
0.921000003814697,42.37693753,-70.98542148,-18.7000007629395,2012-02-04 14:08:14
1.05299997329712,42.3769375,-70.98542148,-18.7000007629395,2012-02-04 14:08:15
0.95799994468689,42.37693749,-70.98542149,-18.7000007629395,2012-02-04 14:08:16
0.994999885559082,42.37693737,-70.98542136,-18.7000007629395,2012-02-04 14:08:17
1.03900003433228,42.37693732,-70.98542132,-18.7000007629395,2012-02-04 14:08:18
0.955000162124634,42.37693733,-70.98542131,-18.7000007629395,2012-02-04 14:08:19
1.00599980354309,42.37693734,-70.98542133,-18.7000007629395,2012-02-04 14:08:20
1,42.37693736,-70.98542136,-18.7000007629395,2012-02-04 14:08:21
1.00500011444092,42.37693734,-70.98542132,-18.7000007629395,2012-02-04 14:08:22
1.03500008583069,42.37693734,-70.98542132,-18.7000007629395,2012-02-04 14:08:23
0.970999956130981,42.3769373,-70.98542128,-18.7000007629395,2012-02-04 14:08:24
1.01699995994568,42.37693725,-70.98542123,-18.7000007629395,2012-02-04 14:08:25
1.01600003242493,42.37693724,-70.98542123,-18.7000007629395,2012-02-04 14:08:26
0.953000068664551,42.37693724,-70.98542127,-18.7000007629395,2012-02-04 14:08:27
1.00799989700317,42.37693722,-70.9854212,-18.7000007629395,2012-02-04 14:08:28
1.01600003242493,42.37693725,-70.98542121,-18.7000007629395,2012-02-04 14:08:29
0.971999883651733,42.37693728,-70.98542123,-18.7000007629395,2012-02-04 14:08:30
1.00200009346008,42.37693724,-70.9854212,-18.7000007629395,2012-02-04 14:08:31
0.993000030517578,42.3769372,-70.98542119,-18.7000007629395,2012-02-04 14:08:32
1.02900004386902,42.37693717,-70.98542116,-18.7000007629395,2012-02-04 14:08:33
1.00399994850159,42.37693717,-70.98542115,-18.7000007629395,2012-02-04 14:08:34
0.986000061035156,42.37693719,-70.98542121,-18.7000007629395,2012-02-04 14:08:35
0.982999801635742,42.37693716,-70.98542121,-18.7000007629395,2012-02-04 14:08:36
1.08000016212463,42.37693713,-70.98542116,-18.7000007629395,2012-02-04 14:08:37
0.924999952316284,42.37693713,-70.98542115,-18.7000007629395,2012-02-04 14:08:38
1.00200009346008,42.37693712,-70.98542114,-18.7000007629395,2012-02-04 14:08:39
1.07399988174438,42.37693707,-70.98542109,-18.7000007629395,2012-02-04 14:08:40
0.924999952316284,42.37693699,-70.98542102,-18.7000007629395,2012-02-04 14:08:41
0.992000102996826,42.37693691,-70.98542095,-18.7000007629395,2012-02-04 14:08:42
1.03600001335144,42.37693684,-70.98542086,-18.7000007629395,2012-02-04 14:08:43
0.973999977111816,42.3769367,-70.98542071,-18.7000007629395,2012-02-04 14:08:44
0.997999906539917,42.37693659,-70.98542059,-18.7000007629395,2012-02-04 14:08:45
1.07100009918213,42.37693647,-70.9854205,-18.7000007629395,2012-02-04 14:08:46
0.927999973297119,42.3769363,-70.98542027,-18.7000007629395,2012-02-04 14:08:47
1,42.37693621,-70.98542017,-18.7000007629395,2012-02-04 14:08:48
1.03299999237061,42.37693618,-70.98542015,-18.7000007629395,2012-02-04 14:08:49
0.970999956130981,42.37693613,-70.98542012,-18.7000007629395,2012-02-04 14:08:50
0.990999937057495,42.37693612,-70.98542012,-18.7000007629395,2012-02-04 14:08:51
1.0090000629425,42.37693612,-70.98542012,-18.7000007629395,2012-02-04 14:08:52
0.998000144958496,42.3769361,-70.98542013,-18.7000007629395,2012-02-04 14:08:53
1.41599988937378,42.37693609,-70.98542013,-18.7000007629395,2012-02-04 14:08:55
0.940999984741211,42.37693608,-70.98542012,-18.7000007629395,2012-02-04 14:08:56
1.00800013542175,42.37693606,-70.98542013,-18.7000007629395,2012-02-04 14:08:57
1.01099991798401,42.37693606,-70.98542013,-18.7000007629395,2012-02-04 14:08:58
0.977999925613403,42.37693605,-70.98542013,-18.7000007629395,2012-02-04 14:08:59
1.1010000705719,42.37693606,-70.98542013,-18.7000007629395,2012-02-04 14:09:00
0.908999919891357,42.37693605,-70.98542012,-18.7000007629395,2012-02-04 14:09:01
1.0770001411438,42.37693606,-70.98542012,-18.7000007629395,2012-02-04 14:09:02
0.912999868392944,42.37693607,-70.98542011,-18.7000007629395,2012-02-04 14:09:03
1.04699993133545,42.37693606,-70.98542012,-18.7000007629395,2012-02-04 14:09:04
1.04000020027161,42.37693606,-70.98542013,-18.7000007629395,2012-02-04 14:09:05
0.927999973297119,42.37693602,-70.98542013,-18.7000007629395,2012-02-04 14:09:06
1.05999994277954,42.37693604,-70.98542013,-18.7000007629395,2012-02-04 14:09:07
0.926000118255615,42.37693601,-70.98542014,-18.7000007629395,2012-02-04 14:09:08
1.22899985313416,42.37693601,-70.98542016,-18.7000007629395,2012-02-04 14:09:09
0.775000095367432,42.376936,-70.98542015,-18.7000007629395,2012-02-04 14:09:10
1.06299996376038,42.37693601,-70.98542016,-18.7000007629395,2012-02-04 14:09:11
0.933000087738037,42.37693602,-70.98542017,-18.7000007629395,2012-02-04 14:09:12
0.995999813079834,42.37693601,-70.98542017,-18.7000007629395,2012-02-04 14:09:13
1.02100014686584,42.37693602,-70.98542017,-18.7000007629395,2012-02-04 14:09:14
0.98199987411499,42.37693605,-70.98542018,-18.7000007629395,2012-02-04 14:09:15
1.07200002670288,42.37693605,-70.98542019,-18.7000007629395,2012-02-04 14:09:16
0.933000087738037,42.37693606,-70.98542021,-18.7000007629395,2012-02-04 14:09:17
1.00600004196167,42.37693607,-70.98542021,-18.7000007629395,2012-02-04 14:09:18
1.00099992752075,42.37693608,-70.98542021,-18.7000007629395,2012-02-04 14:09:19
0.989000082015991,42.37693608,-70.9854202,-18.7000007629395,2012-02-04 14:09:20
1.07099986076355,42.37693608,-70.9854202,-18.7000007629395,2012-02-04 14:09:21
1.0550000667572,42.37693607,-70.9854202,-18.7000007629395,2012-02-04 14:09:22
0.871000051498413,42.37693605,-70.98542019,-18.7000007629395,2012-02-04 14:09:23
1.00499987602234,42.37693604,-70.9854202,-18.7000007629395,2012-02-04 14:09:24
1.06400012969971,42.37693613,-70.98542031,-18.7000007629395,2012-02-04 14:09:25
0.947999954223633,42.3769362,-70.9854204,-18.7000007629395,2012-02-04 14:09:26
1,42.3769362,-70.9854204,-18.7000007629395,2012-02-04 14:09:27
1.00099992752075,42.37693619,-70.98542042,-18.7000007629395,2012-02-04 14:09:28
1.06299996376038,42.37693622,-70.9854205,-18.6000003814697,2012-02-04 14:09:29
0.921000003814697,42.37693626,-70.98542055,-18.7000007629395,2012-02-04 14:09:30
1.24399995803833,42.37693626,-70.9854206,-18.6000003814697,2012-02-04 14:09:31
0.794000148773193,42.37693633,-70.98542067,-18.6000003814697,2012-02-04 14:09:32
0.963000059127808,42.37693632,-70.98542067,-18.6000003814697,2012-02-04 14:09:33
1.00599980354309,42.37693634,-70.98542069,-18.6000003814697,2012-02-04 14:09:34
1.08000016212463,42.37693635,-70.98542066,-18.6000003814697,2012-02-04 14:09:35
0.929999828338623,42.37693635,-70.98542068,-18.6000003814697,2012-02-04 14:09:36
0.992000102996826,42.37693635,-70.98542067,-18.6000003814697,2012-02-04 14:09:37
1.03200006484985,42.37693635,-70.98542066,-18.6000003814697,2012-02-04 14:09:38
0.964999914169312,42.37693637,-70.98542071,-18.6000003814697,2012-02-04 14:09:39
1.0239999294281,42.37693638,-70.98542071,-18.6000003814697,2012-02-04 14:09:40
0.976999998092651,42.37693638,-70.98542071,-18.6000003814697,2012-02-04 14:09:41
0.992000102996826,42.37693641,-70.98542072,-18.6000003814697,2012-02-04 14:09:42
1.05099987983704,42.37693649,-70.98542073,-18.7000007629395,2012-02-04 14:09:43
0.951000213623047,42.37693656,-70.98542076,-18.7000007629395,2012-02-04 14:09:44
1.01699995994568,42.37693662,-70.98542077,-18.7000007629395,2012-02-04 14:09:45
1.01600003242493,42.3769367,-70.98542079,-18.7000007629395,2012-02-04 14:09:46
0.96399998664856,42.37693715,-70.98542121,-18.7000007629395,2012-02-04 14:09:47
1.05399990081787,42.37693734,-70.98542131,-18.7000007629395,2012-02-04 14:09:48
0.960000038146973,42.37693746,-70.98542133,-18.7000007629395,2012-02-04 14:09:49
1.01900005340576,42.37693766,-70.98542137,-18.7000007629395,2012-02-04 14:09:50
0.971999883651733,42.3769378,-70.98542142,-18.7000007629395,2012-02-04 14:09:51
1.0770001411438,42.37693805,-70.98542151,-18.7000007629395,2012-02-04 14:09:52
0.925999879837036,42.37693851,-70.98542161,-18.7000007629395,2012-02-04 14:09:53
1.00200009346008,42.37693877,-70.98542169,-18.7000007629395,2012-02-04 14:09:54
1.04699993133545,42.37693888,-70.98542171,-18.7000007629395,2012-02-04 14:09:55
0.953000068664551,42.37693926,-70.98542177,-18.7000007629395,2012-02-04 14:09:56
1.25799989700317,42.37693946,-70.98542183,-18.7000007629395,2012-02-04 14:09:57
0.763000011444092,42.37693968,-70.98542188,-18.7000007629395,2012-02-04 14:09:58
0.976999998092651,42.3769398,-70.9854219,-18.7000007629395,2012-02-04 14:09:59
0.984999895095825,42.3769398,-70.9854219,-18.7000007629395,2012-02-04 14:10:00
1.12700009346008,42.37693983,-70.98542191,-18.7000007629395,2012-02-04 14:10:01
0.884999990463257,42.37693986,-70.9854219,-18.7999992370605,2012-02-04 14:10:02
1.07400012016296,42.37693991,-70.98542189,-18.7999992370605,2012-02-04 14:10:03
0.955999851226807,42.37693994,-70.98542188,-18.7999992370605,2012-02-04 14:10:04
0.970000028610229,42.37693996,-70.98542185,-18.7999992370605,2012-02-04 14:10:05
0.996000051498413,42.37694,-70.98542184,-18.7999992370605,2012-02-04 14:10:06
1.01900005340576,42.37694002,-70.98542183,-18.7999992370605,2012-02-04 14:10:07
1.20899987220764,42.37694009,-70.98542184,-18.7999992370605,2012-02-04 14:10:08
0.77400016784668,42.37694011,-70.98542185,-18.7999992370605,2012-02-04 14:10:09
1.00499987602234,42.37694016,-70.98542187,-18.7999992370605,2012-02-04 14:10:10
1.03099989891052,42.3769402,-70.98542185,-18.7999992370605,2012-02-04 14:10:11
0.973000049591064,42.37694032,-70.98542184,-18.7999992370605,2012-02-04 14:10:12
0.998000144958496,42.37694035,-70.98542181,-18.7999992370605,2012-02-04 14:10:13
1.00599980354309,42.37694037,-70.98542182,-18.7999992370605,2012-02-04 14:10:14
0.987000226974487,42.37694039,-70.98542182,-18.7999992370605,2012-02-04 14:10:15
0.996999979019165,42.37694042,-70.98542182,-18.7999992370605,2012-02-04 14:10:16
1.06900000572205,42.37694042,-70.98542183,-18.7999992370605,2012-02-04 14:10:17
1.19299983978271,42.37694045,-70.98542182,-18.7999992370605,2012-02-04 14:10:18
0.742000102996826,42.37694049,-70.98542183,-18.7999992370605,2012-02-04 14:10:19
1.08099985122681,42.37694049,-70.98542184,-18.7999992370605,2012-02-04 14:10:20
0.921000003814697,42.37694051,-70.98542184,-18.7999992370605,2012-02-04 14:10:21
1.01700019836426,42.37694053,-70.98542184,-18.7999992370605,2012-02-04 14:10:22
0.978999853134155,42.37694054,-70.98542183,-18.7999992370605,2012-02-04 14:10:23
1.05800008773804,42.37694055,-70.98542182,-18.7999992370605,2012-02-04 14:10:24
