"diffSecs","N.samples","x.mean","x.absolute.deviation","x.standard.deviation","x.max.deviation","x.PSD.1","x.PSD.3","x.PSD.6","x.PSD.10","y.mean","y.absolute.deviation","y.standard.deviation","y.max.deviation","y.PSD.1","y.PSD.3","y.PSD.6","y.PSD.10","z.mean","z.absolute.deviation","z.standard.deviation","z.max.deviation","z.PSD.1","z.PSD.3","z.PSD.6","z.PSD.10","time"
1.00699996948242,32,-3.54541039466858,0.539059281349182,0.59019410610199,0.838775157928467,10.5004777908325,16.7595882415771,8.06238460540771,0.643312335014343,9.09352207183838,0.410366117954254,0.561683475971222,1.4345291852951,4.99578189849854,9.45983028411865,14.4359731674194,12.3241415023804,0.904969871044159,0.553175508975983,0.681642532348633,1.45414233207703,14.2969493865967,29.8782539367676,28.0034046173096,9.19706916809082,2012-01-13 15:30:10
1.00799989700317,49,-3.48076033592224,0.551614880561829,0.72666347026825,1.97173726558685,1.55040538311005,19.2435131072998,19.4722938537598,27.0489253997803,8.80276870727539,0.502936959266663,0.623725533485413,1.39874827861786,23.6096649169922,21.4116325378418,3.70485162734985,3.64047622680664,-0.303806006908417,0.496516287326813,0.597663998603821,1.76539707183838,43.9456596374512,65.3913803100586,9.63521003723145,2.82005739212036,2012-01-13 15:30:11
1.00300002098083,34,-4.15369319915771,0.627388060092926,0.788818597793579,1.94719684123993,9.71840381622314,11.6295595169067,2.51141095161438,1.25489008426666,8.65609931945801,0.41125151515007,0.506733596324921,1.18977773189545,5.23989725112915,6.49704933166504,1.05068016052246,0.297453224658966,-0.616665184497833,0.612525343894958,0.731978237628937,1.44042384624481,16.6576347351074,20.1020221710205,4.36436748504639,1.89813923835754,2012-01-13 15:30:12
1.00100016593933,43,-4.43100929260254,0.193046152591705,0.240351811051369,0.491929084062576,7.37553453445435,12.0127735137939,4.81058788299561,0.561908781528473,8.47203350067139,0.122633442282677,0.14816489815712,0.3129001557827,1.49864757061005,2.80695176124573,0.658638536930084,0.640181183815002,-1.51820623874664,0.13841749727726,0.156167104840279,0.296023994684219,3.06623339653015,4.38287687301636,0.770977258682251,0.371654808521271,2012-01-13 15:30:13
1.00899982452393,43,-3.44487071037292,0.506943881511688,0.593935072422028,1.52276742458344,1.6925253868103,10.7699337005615,27.7266731262207,18.8687877655029,9.01003074645996,0.333510905504227,0.397914469242096,0.890124142169952,6.80396604537964,8.52426815032959,4.87941455841064,7.38683605194092,-0.778830468654633,0.671010315418243,0.743401110172272,1.64181566238403,61.6612358093262,92.2820663452148,17.0602111816406,24.814266204834,2012-01-13 15:30:14
1.5310001373291,42,-4.282470703125,0.86421936750412,1.18498349189758,2.97445011138916,0.00154361233580858,16.3173732757568,30.087911605835,10.7621164321899,8.63779067993164,0.353039413690567,0.427334636449814,0.982532680034637,0.452905535697937,6.56511783599854,3.51807284355164,9.03370475769043,-0.839402496814728,0.641501665115356,0.780408978462219,1.99658727645874,16.1525611877441,17.5818901062012,8.19279193878174,9.25374126434326,2012-01-13 15:30:15
1.30200004577637,51,-4.07072114944458,0.589726150035858,0.696599125862122,1.48964929580688,75.9658813476562,129.676651000977,32.1429252624512,21.2736644744873,8.63831233978271,0.347979605197906,0.392280489206314,0.763572812080383,29.8511905670166,52.4312324523926,9.44339942932129,2.81816077232361,-0.482256412506104,0.517750382423401,0.623673379421234,1.31236052513123,81.0075378417969,116.559646606445,18.5823059082031,22.7722835540771,2012-01-13 15:30:16
1.03600001335144,44,-4.58906650543213,0.0959188416600227,0.119375512003899,0.293753951787949,1.01872277259827,1.70794475078583,0.531501710414886,0.577611684799194,8.49835300445557,0.0502691753208637,0.0694165304303169,0.229565277695656,0.190922647714615,0.509227097034454,0.309359461069107,0.229447081685066,-1.1048082113266,0.0902657583355904,0.11297868937254,0.277929395437241,0.00131399510428309,0.66388326883316,1.59207963943481,0.806950569152832,2012-01-13 15:30:17
1.03399991989136,47,-4.18389225006104,0.191977739334106,0.230603218078613,0.562526166439056,6.01992034912109,5.91265964508057,2.94190692901611,2.74469566345215,8.67450332641602,0.213313594460487,0.244709357619286,0.525177001953125,8.09007453918457,11.1701097488403,1.88042199611664,0.631287693977356,-0.669147372245789,0.396012842655182,0.50116378068924,1.19870638847351,37.0579490661621,54.2603302001953,7.46339750289917,19.2320861816406,2012-01-13 15:30:18
1.00699996948242,41,-3.40434265136719,0.153184428811073,0.18694294989109,0.420250713825226,0.807149589061737,1.11221015453339,0.560754060745239,0.500631868839264,9.02690124511719,0.105860315263271,0.122141994535923,0.240142941474915,0.6727374792099,1.0465499162674,0.511563122272491,0.273437708616257,0.429579108953476,0.214637875556946,0.261801481246948,0.635518729686737,1.36289715766907,1.57779920101166,0.836756467819214,0.734713912010193,2012-01-13 15:30:19
1.00399994850159,44,-3.49517917633057,0.0898605063557625,0.115283951163292,0.241154477000237,0.00601620459929109,0.0403496697545052,0.474100917577744,0.373015731573105,8.94812202453613,0.0484253168106079,0.0624599494040012,0.161363691091537,0.190470024943352,0.313783049583435,0.238541975617409,0.0826959982514381,0.583495676517487,0.11143920570612,0.138063058257103,0.308909505605698,1.00710368156433,2.85693764686584,0.963454008102417,1.79527235031128,2012-01-13 15:30:20
1.01500010490417,44,-3.55357336997986,0.0893134847283363,0.116767875850201,0.329860061407089,0.0463824905455112,0.146451890468597,0.232086345553398,0.642020344734192,8.97531318664551,0.0556789822876453,0.0743878558278084,0.20816807448864,0.0297670755535364,0.0363634303212166,0.142107039690018,0.0771173685789108,0.610018193721771,0.198848053812981,0.218330189585686,0.413885205984116,6.01872587203979,9.42274951934814,2.97984194755554,1.17062401771545,2012-01-13 15:30:21
1.00499987602234,46,-3.45918917655945,0.0519252009689808,0.0660841912031174,0.183768212795258,0.335868716239929,0.407495319843292,0.35745769739151,0.104374505579472,9.00015926361084,0.0366775505244732,0.0421642959117889,0.100411392748356,0.148465842008591,0.303455144166946,0.0888555720448494,0.0251362398266792,0.24516624212265,0.114695161581039,0.136453002691269,0.254972904920578,0.0241067875176668,0.574156284332275,0.71007889509201,1.47251486778259,2012-01-13 15:30:22
1.0090000629425,43,-3.37782073020935,0.0492824986577034,0.0598312877118587,0.13295990228653,0.0403084717690945,0.0989786013960838,0.13023766875267,0.0729391798377037,9.04332733154297,0.0265611782670021,0.0330995358526707,0.0964699015021324,0.000105688210169319,0.00385300139896572,0.0470995046198368,0.0716676935553551,0.185414105653763,0.0966769158840179,0.117085598409176,0.23627182841301,0.757570803165436,2.23460459709167,1.25395882129669,0.630776762962341,2012-01-13 15:30:23
1.01099991798401,44,-3.78157782554626,0.41415873169899,0.457481741905212,0.817740678787231,30.5832099914551,55.9209938049316,16.2471504211426,3.63839936256409,8.96238613128662,0.166875004768372,0.192134037613869,0.35214826464653,0.126549154520035,3.65809917449951,7.65298414230347,1.26411128044128,-0.145762473344803,0.542567074298859,0.637927830219269,1.55078792572021,58.2026824951172,111.144172668457,43.3612937927246,10.9085922241211,2012-01-13 15:30:24
1.00100016593933,41,-3.17376661300659,0.420945048332214,0.558648526668549,1.61450946331024,5.83848237991333,8.4251766204834,10.9484329223633,12.3907318115234,9.14529895782471,0.435121297836304,0.576275169849396,1.74988949298859,6.61883401870728,12.0230932235718,3.16942238807678,5.75450325012207,-0.708709836006165,1.07817149162292,1.28639268875122,2.85110402107239,67.9433135986328,171.093627929688,152.834121704102,37.856575012207,2012-01-13 15:30:25
1.01600003242493,43,-3.99404311180115,0.577642977237701,0.629398822784424,1.29721462726593,44.8366928100586,65.7117080688477,11.9718265533447,1.18110799789429,8.84126472473145,0.33977997303009,0.404727220535278,0.809619188308716,13.086296081543,34.3946304321289,18.0850429534912,1.01110696792603,0.314496964216232,0.375792503356934,0.503214716911316,1.46050655841827,1.35833060741425,13.0820846557617,20.9523506164551,5.31010103225708,2012-01-13 15:30:26
1.05399990081787,46,-4.38016128540039,0.350944578647614,0.442832589149475,1.05570709705353,18.2047863006592,25.4716968536377,16.9028244018555,9.25295162200928,8.5128116607666,0.231985554099083,0.305812060832977,0.793699383735657,5.92158174514771,13.2134504318237,10.0831174850464,6.62385892868042,-0.283113718032837,0.16506315767765,0.199311554431915,0.528279960155487,0.00835961662232876,0.913792729377747,0.431504875421524,3.17568707466125,2012-01-13 15:30:28
1.01200008392334,50,-3.9008891582489,0.103628821671009,0.134609118103981,0.341075152158737,0.200900435447693,0.146795213222504,1.09102606773376,0.448162347078323,8.82206249237061,0.130703002214432,0.159496054053307,0.300083756446838,0.582805335521698,1.05388128757477,0.941409647464752,2.13821458816528,-0.0943399667739868,0.219245299696922,0.30006355047226,0.927905201911926,0.237882673740387,0.239827543497086,6.44198989868164,11.6708459854126,2012-01-13 15:30:29
1.01899981498718,43,-3.68182682991028,0.095149427652359,0.114115603268147,0.231026411056519,0.971412897109985,1.3615562915802,0.152582287788391,0.245038464665413,8.8622465133667,0.0964965224266052,0.126677498221397,0.330461591482162,0.619285583496094,1.30558848381042,0.412423849105835,0.100625269114971,-0.497630447149277,0.315244793891907,0.354979515075684,0.732990026473999,1.66892886161804,1.08242774009705,0.84550803899765,9.92296600341797,2012-01-13 15:30:30
1,41,-3.4916455745697,0.135297924280167,0.167463392019272,0.481004118919373,0.0980320423841476,0.381523132324219,1.31534290313721,0.248289585113525,9.0206823348999,0.154001131653786,0.18292224407196,0.420251250267029,0.0151691967621446,0.167027950286865,1.14717698097229,1.49764466285706,-0.752720177173615,0.238276496529579,0.295645236968994,0.723300218582153,1.3677933216095,4.35568475723267,4.00339698791504,0.613293051719666,2012-01-13 15:30:31
1.01800012588501,44,-3.42876148223877,0.270169168710709,0.320040971040726,0.807711243629456,0.263112425804138,8.1385440826416,11.5316886901855,0.423328131437302,9.05956172943115,0.144060462713242,0.168256506323814,0.341449350118637,0.854138433933258,1.24169147014618,2.74577593803406,0.24815933406353,-0.60689789056778,0.428939610719681,0.507321119308472,1.0089704990387,27.5068817138672,35.5433197021484,18.617883682251,5.49538564682007,2012-01-13 15:30:32
1.0019998550415,47,-3.10432624816895,0.0833010226488113,0.105267830193043,0.259354561567307,0.219072535634041,0.420260012149811,0.523929059505463,0.563389837741852,9.11851501464844,0.0606244914233685,0.078016921877861,0.194463521242142,0.129995912313461,0.502061069011688,0.628682851791382,0.0865754559636116,0.0974405407905579,0.153345987200737,0.192525655031204,0.422311902046204,1.2658634185791,3.16295647621155,2.70836281776428,2.63171625137329,2012-01-13 15:30:33
1.01500010490417,44,-3.98796319961548,0.520279228687286,0.614523351192474,0.918481886386871,58.9248123168945,80.1822357177734,18.7658023834229,1.56759130954742,8.80748558044434,0.213102117180824,0.240060150623322,0.47941181063652,6.54556131362915,7.20879602432251,0.487559288740158,0.569692194461823,0.328077018260956,0.243626356124878,0.283680707216263,0.622276484966278,2.83004713058472,9.66348648071289,6.6329231262207,1.76113784313202,2012-01-13 15:30:34
1.00200009346008,43,-3.55890154838562,0.709579288959503,0.8674076795578,1.43268311023712,106.240409851074,146.99723815918,48.2280120849609,7.78765106201172,8.60978221893311,0.245839923620224,0.335292041301727,1.36358046531677,0.16939389705658,0.575082004070282,0.150407776236534,6.13132858276367,-1.84775531291962,0.929706454277039,1.0845422744751,2.2694411277771,144.018844604492,155.214630126953,14.4916543960571,9.42323780059814,2012-01-13 15:30:35
1.01099991798401,43,-3.49572849273682,0.282234191894531,0.355610579252243,1.02513694763184,0.739677488803864,3.40257477760315,2.18846249580383,1.51513051986694,9.1712703704834,0.485972762107849,0.725699901580811,2.70458245277405,4.58229494094849,3.88448119163513,0.986289441585541,5.56166219711304,-0.485543191432953,1.01044023036957,1.22745192050934,3.14291715621948,116.974090576172,156.086944580078,24.4263782501221,2.18490052223206,2012-01-13 15:30:36
1.01699995994568,43,-3.86176753044128,0.505925536155701,0.602504909038544,1.30633723735809,6.67085695266724,21.2530727386475,29.3840370178223,16.55690574646,8.74456691741943,0.397994011640549,0.492968738079071,0.98362934589386,2.4370801448822,12.8379392623901,27.4703254699707,10.8607902526855,-0.419861435890198,0.67932665348053,0.904757142066956,2.26716041564941,67.5191040039062,97.189453125,23.8099632263184,14.8580837249756,2012-01-13 15:30:37
1.01600003242493,43,-3.60086488723755,0.194266065955162,0.243157953023911,0.668676674365997,0.569317936897278,2.45254254341125,3.28326630592346,1.32674646377563,8.91356086730957,0.106520526111126,0.12591341137886,0.373337179422379,0.377956211566925,0.444502651691437,0.693980276584625,0.603124678134918,0.0321566835045815,0.398312270641327,0.474110424518585,1.10541462898254,7.29557704925537,9.70255088806152,12.2460622787476,25.085521697998,2012-01-13 15:30:38
1.00500011444092,49,-3.16674733161926,0.221064180135727,0.267554551362991,0.666051626205444,5.94661331176758,7.53410387039185,5.42392873764038,9.2583703994751,9.10837650299072,0.198657110333443,0.267328143119812,0.79634028673172,2.83046698570251,7.14345550537109,10.0366773605347,5.48148727416992,0.625624239444733,0.4513019323349,0.538241922855377,1.25725257396698,1.61888921260834,2.38334226608276,42.7782363891602,23.019006729126,2012-01-13 15:30:39
1.02499985694885,40,-4.01582288742065,0.404769480228424,0.530067324638367,1.21112132072449,7.86834335327148,12.1813936233521,8.16943168640137,3.59137177467346,8.60754203796387,0.472435355186462,0.579713106155396,1.27216768264771,1.11788904666901,17.8912830352783,33.0459632873535,8.05159854888916,-0.178726181387901,1.02225744724274,1.18232262134552,2.39502906799316,121.504165649414,168.674468994141,26.7840118408203,9.03967666625977,2012-01-13 15:30:40
1.0090000629425,43,-3.56962060928345,0.15690641105175,0.204408094286919,0.392265915870667,4.98941564559937,5.83274173736572,2.11209583282471,0.266884028911591,8.99566268920898,0.0566758699715137,0.0676300600171089,0.124521434307098,0.245410799980164,0.431846052408218,0.218299955129623,0.256354659795761,0.0421914011240005,0.301200449466705,0.335062354803085,0.552137196063995,12.8163013458252,14.8874425888062,2.0624783039093,3.07130670547485,2012-01-13 15:30:41
1.0090000629425,44,-3.28500485420227,0.0907014161348343,0.112349085509777,0.274809211492538,0.0759676098823547,0.0545561388134956,0.155526697635651,0.343110054731369,9.02746677398682,0.0884218439459801,0.10937125235796,0.240708336234093,0.116173669695854,0.0979144796729088,0.419587731361389,0.264837294816971,0.771827876567841,0.249167919158936,0.326534658670425,0.820861160755157,2.16949582099915,4.01447105407715,3.20311594009399,0.90127032995224,2012-01-13 15:30:42
1.00799989700317,50,-3.19265294075012,0.0896563157439232,0.113132536411285,0.289884507656097,0.446425557136536,0.206645473837852,0.867263317108154,0.166011616587639,9.12783336639404,0.094904899597168,0.122630894184113,0.311655044555664,0.000468999380245805,0.0131495092064142,0.264904499053955,1.26112222671509,0.73647940158844,0.320363640785217,0.403820872306824,1.20523726940155,11.6237239837646,9.12154197692871,16.2109069824219,5.50051832199097,2012-01-13 15:30:43
1.00200009346008,43,-3.09183144569397,0.130260303616524,0.169095039367676,0.399335920810699,0.108742184937,0.764369904994965,1.18823790550232,1.76406514644623,9.14869213104248,0.111729130148888,0.133942425251007,0.295111864805222,0.530231237411499,0.75618189573288,0.492621839046478,0.999040126800537,0.504016160964966,0.308466613292694,0.421763569116592,1.13369429111481,0.584352970123291,1.33445906639099,0.390922665596008,2.84713578224182,2012-01-13 15:30:44
1.01699995994568,41,-3.08072304725647,0.160161644220352,0.223106846213341,0.596770405769348,0.100122570991516,1.08117532730103,1.39386463165283,1.2426689863205,9.19122314453125,0.181595325469971,0.233104333281517,0.684073865413666,0.200759544968605,1.88431835174561,4.31049060821533,5.13401699066162,0.630495846271515,0.291282594203949,0.370292663574219,1.0072146654129,0.000118720228783786,0.320171147584915,1.66543221473694,11.9610290527344,2012-01-13 15:30:45
1.01099991798401,43,-3.68182682991028,0.662566721439362,0.844263255596161,2.30022931098938,8.27578926086426,38.8993339538574,64.6699905395508,65.5166168212891,9.13090324401855,1.10919630527496,1.70294034481049,6.51070308685303,3.11190366744995,195.646774291992,392.525177001953,289.779754638672,-1.50018930435181,1.88488161563873,2.18821597099304,5.06045961380005,653.313232421875,1089.28881835938,310.762420654297,137.042175292969,2012-01-13 15:30:46
1.00300002098083,42,-3.8528459072113,0.927306592464447,1.2092479467392,2.7862560749054,8.17767524719238,38.1576957702637,15.7168579101562,3.30081629753113,9.31655120849609,0.706290066242218,0.968483924865723,2.69659566879272,22.5347061157227,80.7588195800781,59.8008270263672,25.1526775360107,0.294199496507645,0.594936728477478,0.876992404460907,3.402907371521,3.11856245994568,3.22586989402771,25.2377910614014,7.2802996635437,2012-01-13 15:30:47
1.26300001144409,44,-3.60661840438843,0.929544806480408,1.2629029750824,3.02802586555481,12.863733291626,37.7148971557617,29.7981929779053,50.6031036376953,9.11260604858398,1.07012021541595,1.48074185848236,4.30289030075073,7.05108499526978,19.482723236084,45.1135711669922,19.7705402374268,-0.895079672336578,1.30452752113342,1.59956157207489,3.37081289291382,167.263916015625,211.110687255859,143.315734863281,36.7523078918457,2012-01-13 15:30:48
1.15400004386902,50,-3.74849390983582,0.625162184238434,0.872927486896515,2.83647537231445,32.5696220397949,52.505428314209,36.999439239502,72.612174987793,8.42136287689209,0.807393252849579,1.0441107749939,2.85628461837769,56.3944854736328,119.414085388184,36.713939666748,66.9989700317383,-1.04950761795044,1.29472100734711,1.72658264636993,4.85409545898438,41.1004867553711,291.323181152344,220.266876220703,115.669288635254,2012-01-13 15:30:49
1.03699994087219,46,-3.5864622592926,0.400951087474823,0.52555125951767,1.42899954319,0.306370675563812,34.082202911377,18.1718254089355,9.3536205291748,9.10888576507568,0.817084848880768,1.02668678760529,2.58064126968384,113.284301757812,183.91569519043,33.984935760498,11.3905010223389,-0.64702570438385,1.06189894676208,1.30239081382751,3.13834118843079,210.714096069336,408.783325195312,147.443206787109,80.4609298706055,2012-01-13 15:30:50
1.00500011444092,51,-3.58308053016663,0.73100072145462,0.900713980197906,2.54607558250427,0.949880957603455,39.8650703430176,93.0319671630859,53.8285942077637,9.56513690948486,0.781907796859741,1.18451058864594,4.56624507904053,27.4504852294922,16.0569553375244,57.6648597717285,10.8108320236206,-0.152868360280991,1.08495259284973,1.67520534992218,4.91716957092285,2.21617698669434,45.7661972045898,54.6402587890625,99.3230056762695,2012-01-13 15:30:51
1.01599979400635,44,-3.30952143669128,0.734597086906433,0.868271231651306,1.83852398395538,40.6627159118652,56.1719856262207,84.2896575927734,27.685131072998,8.88259601593018,0.785808444023132,0.995500862598419,3.32668304443359,50.0700149536133,77.2375030517578,18.0957355499268,47.1666603088379,-1.72039842605591,1.24993252754211,1.38750684261322,2.54549407958984,57.9718742370605,323.90576171875,231.872482299805,23.3501377105713,2012-01-13 15:30:52
1.01100015640259,40,-4.00871324539185,0.548056840896606,0.60482656955719,1.24323797225952,8.5228443145752,23.0002422332764,18.4117069244385,6.23469018936157,8.76371288299561,0.621937692165375,0.68972384929657,1.14100384712219,40.2574615478516,82.5261840820312,33.236644744873,5.30100679397583,-0.462628692388535,0.950301110744476,1.3298751115799,3.29331827163696,105.586700439453,233.49104309082,186.264282226562,98.706428527832,2012-01-13 15:30:53
1.01099991798401,43,-3.4058723449707,0.809374809265137,1.12322223186493,3.32148933410645,39.5622940063477,39.0779342651367,6.03486585617065,22.1580505371094,9.23193454742432,0.825710475444794,1.19091987609863,3.49504399299622,22.6380577087402,34.6015205383301,42.3272247314453,31.2413768768311,-1.46255922317505,1.60851335525513,1.89401352405548,4.71563005447388,395.769134521484,463.629974365234,49.984203338623,15.7123641967773,2012-01-13 15:30:54
1.00399994850159,42,-4.3235650062561,0.50655460357666,0.598960041999817,1.49925005435944,0.0138330543413758,6.12716722488403,47.4546089172363,29.5016708374023,8.00222587585449,0.577191352844238,0.713251411914825,1.91229665279388,6.67910861968994,14.5823526382446,8.09657096862793,29.7841720581055,-1.67973899841309,1.31262338161469,1.62498998641968,4.02773094177246,60.6083068847656,201.327972412109,287.071350097656,125.209625244141,2012-01-13 15:30:55
1.1340000629425,49,-3.76695442199707,0.589273035526276,0.705460369586945,1.80562436580658,84.3698654174805,108.666275024414,23.6430053710938,4.81385183334351,9.07915687561035,0.727603495121002,0.901357889175415,1.94972193241119,23.9161777496338,218.149459838867,201.14289855957,24.1498413085938,-0.733497381210327,0.723641693592072,1.0843026638031,4.94455289840698,7.09066009521484,10.7298946380615,207.851791381836,102.529769897461,2012-01-13 15:30:56
1.01300001144409,49,-3.81758856773376,0.718830287456512,0.892683327198029,2.11543440818787,12.5770235061646,62.0494232177734,37.0616149902344,17.2853603363037,8.85840702056885,0.621458113193512,0.961972713470459,3.44513630867004,92.7386322021484,105.279243469238,47.3207092285156,8.23860168457031,-0.78753399848938,0.785986006259918,1.35979378223419,4.56689643859863,98.1169509887695,77.8011245727539,2.38973927497864,10.1387948989868,2012-01-13 15:30:57
1.01800012588501,42,-4.10688495635986,0.971291959285736,1.18185687065125,3.05196976661682,14.6438407897949,11.9326133728027,161.790634155273,173.856903076172,8.72231483459473,1.35932171344757,1.83942890167236,5.48752069473267,87.8557281494141,185.83381652832,49.4324798583984,178.734649658203,-1.87283658981323,1.66270518302917,1.96810877323151,3.82482671737671,0.221775442361832,312.551513671875,577.201171875,199.080413818359,2012-01-13 15:30:58
1.00299978256226,39,-3.5140495300293,0.49083536863327,0.661782920360565,2.06593418121338,7.06486892700195,13.1921272277832,18.7222347259521,16.1910781860352,9.00300788879395,0.62665843963623,0.843412637710571,2.9120717048645,4.59618330001831,20.4569244384766,76.2285766601562,21.6679458618164,-0.513214707374573,0.574485301971436,0.744528591632843,1.66386163234711,11.5762195587158,43.9167137145996,39.8217697143555,6.15209770202637,2012-01-13 15:30:59
1.02000021934509,41,-3.45146226882935,0.719939947128296,1.03024351596832,3.03073310852051,5.4908766746521,21.8088150024414,12.0526037216187,16.6081085205078,9.01924705505371,0.907123804092407,1.28594624996185,4.54334878921509,11.9338836669922,5.63291501998901,29.1695098876953,10.8252696990967,-1.32557201385498,1.54591536521912,1.78251004219055,3.74446582794189,183.495330810547,224.818054199219,33.4962615966797,25.4244785308838,2012-01-13 15:31:00
1.00799989700317,49,-3.85281252861023,0.630950272083282,0.739121973514557,1.69534969329834,0.288987517356873,37.9595413208008,116.397773742676,40.1706008911133,8.41830825805664,0.981808543205261,1.17923200130463,3.45614337921143,153.446594238281,183.756866455078,22.899564743042,97.5318603515625,-1.74418270587921,1.52846503257751,1.89068460464478,4.21826028823853,496.50244140625,861.460815429688,415.994323730469,99.0603942871094,2012-01-13 15:31:01
1.00300002098083,44,-3.69086647033691,0.785626113414764,1.048180103302,2.3963885307312,97.9461822509766,162.836669921875,92.8338775634766,32.9705619812012,9.07917499542236,0.447945028543472,0.593621909618378,1.40413415431976,10.5258502960205,20.9571208953857,37.4749412536621,11.9129610061646,-0.277483612298965,0.717840671539307,0.872705638408661,1.83094608783722,47.4796829223633,47.478759765625,3.65024662017822,30.4463939666748,2012-01-13 15:31:02
1.01399993896484,40,-3.41099786758423,0.63981032371521,0.734281301498413,1.25353515148163,15.5852022171021,26.5089988708496,9.92539882659912,3.51006484031677,8.35894298553467,0.563330769538879,0.648592174053192,1.25157344341278,19.4014892578125,38.9599456787109,23.7651977539062,9.04933166503906,-1.82967567443848,1.32793068885803,1.4128110408783,2.15182423591614,66.1657333374023,210.073974609375,113.593063354492,19.1800498962402,2012-01-13 15:31:03
1.01300001144409,43,-3.98606109619141,0.533589959144592,0.631467163562775,1.32845890522003,12.0453290939331,29.9715061187744,18.4208641052246,11.1199073791504,8.59951972961426,0.580167531967163,0.65694785118103,1.10723912715912,57.9582061767578,79.0802459716797,21.9033298492432,7.24806690216064,-1.14281678199768,0.877114415168762,1.0985552072525,2.67196989059448,161.111053466797,272.217193603516,125.283210754395,41.6568031311035,2012-01-13 15:31:04
1.01600003242493,45,-3.66681528091431,0.440267711877823,0.586903631687164,1.7072286605835,0.00165445322636515,0.604752719402313,4.39812088012695,8.21329879760742,8.63987636566162,0.524900317192078,0.674399852752686,1.77522122859955,30.6036949157715,28.0873413085938,2.10368967056274,7.0589394569397,-1.36203467845917,1.23026239871979,1.4977924823761,3.02153778076172,330.342712402344,341.514739990234,55.8991966247559,48.9459266662598,2012-01-13 15:31:05
1.08800005912781,41,-4.28048324584961,0.108707427978516,0.154543414711952,0.544149398803711,0.298085570335388,0.306728005409241,1.1638799905777,0.382847607135773,8.68773460388184,0.130094304680824,0.19620244204998,0.608969271183014,1.1770281791687,1.16758131980896,2.07277989387512,2.07246065139771,-1.0086498260498,0.604897022247314,0.718704462051392,1.40091574192047,64.0304260253906,87.1178817749023,23.1604804992676,8.58746433258057,2012-01-13 15:31:07
1.01399993896484,50,-3.98816823959351,0.183988451957703,0.236138269305229,0.679797112941742,1.54615068435669,4.73989343643188,0.964058339595795,3.51314115524292,8.56297016143799,0.272577822208405,0.328601479530334,0.747070670127869,21.8878650665283,19.9054679870605,1.43116617202759,2.63498711585999,-1.5655335187912,0.620674610137939,0.708346366882324,1.31762158870697,91.1285629272461,106.846176147461,27.4208679199219,13.8414497375488,2012-01-13 15:31:08
1.02699995040894,18,-3.69002437591553,0.0104726115241647,0.0152645697817206,0.0463092736899853,0.000196543376659974,0.000389294844353572,0.00038333612610586,0.000139670955832116,8.94638824462891,0.0746393725275993,0.0818398967385292,0.144375428557396,0.000157213289639913,0.00145503273233771,0.0147681375965476,0.0206699185073376,-0.762739419937134,0.119859047234058,0.149032235145569,0.306185364723206,0.00971600785851479,0.0220137108117342,0.0586801841855049,0.034562561661005,2012-01-13 15:31:09
1.00200009346008,47,-4.30491065979004,0.0686954185366631,0.0841290354728699,0.176310941576958,0.00255515542812645,0.219500213861465,0.684818208217621,0.538016259670258,8.4606351852417,0.100215047597885,0.120658226311207,0.277090430259705,1.58862733840942,2.18918561935425,0.426496416330338,0.608415126800537,-1.81276965141296,0.250622272491455,0.314346879720688,0.802684783935547,8.30233573913574,9.02147006988525,0.747131168842316,8.36543560028076,2012-01-13 15:31:10
1.18199992179871,46,-4.32025575637817,0.0483567640185356,0.0597113929688931,0.152429446578026,0.333443582057953,0.399446964263916,0.0974436476826668,0.162884786725044,8.53285121917725,0.0621767416596413,0.0746916308999062,0.16777877509594,0.378046184778214,0.59240460395813,0.50484973192215,0.240385875105858,-1.42772030830383,0.234645873308182,0.273293167352676,0.621869564056396,9.85808086395264,16.2790355682373,6.41108179092407,0.752871215343475,2012-01-13 15:31:11
1.01900005340576,50,-3.95011854171753,0.0972819700837135,0.118640214204788,0.247127562761307,3.22069549560547,4.35424757003784,0.975081741809845,0.146871164441109,8.82421970367432,0.0631704106926918,0.0832741931080818,0.174754202365875,0.863915979862213,1.00736236572266,0.545885324478149,0.330848932266235,-0.644296884536743,0.105166509747505,0.128781139850616,0.287334859371185,0.459472119808197,1.37790966033936,1.31985867023468,1.94271039962769,2012-01-13 15:31:12
1.00600004196167,31,-3.76575350761414,0.0582072176039219,0.0678053647279739,0.117679812014103,0.104024931788445,0.139508262276649,0.0446769818663597,0.057197742164135,8.86552810668945,0.044573750346899,0.0555017441511154,0.147415831685066,0.0168111212551594,0.0213223826140165,0.0178626142442226,0.0218118075281382,-0.547906994819641,0.0853719413280487,0.10040307790041,0.187591716647148,0.00109122390858829,0.0153821585699916,0.14282763004303,0.097141295671463,2012-01-13 15:31:13
1.01300001144409,42,-3.71695375442505,0.137971326708794,0.174883991479874,0.411645919084549,0.00596461398527026,1.12259531021118,2.44663739204407,1.14369571208954,8.88202285766602,0.12294989824295,0.152904644608498,0.311011254787445,0.165160074830055,1.78247046470642,4.16285228729248,0.282882809638977,-0.748574256896973,0.281746596097946,0.393656700849533,1.00681602954865,7.73749971389771,24.797664642334,28.2377376556396,9.17976379394531,2012-01-13 15:31:14
1.02499985694885,41,-4.47278881072998,0.0946945250034332,0.12008311599493,0.25592964887619,0.689882755279541,0.736154794692993,0.199344977736473,0.0313030928373337,8.29833889007568,0.0928509533405304,0.118992283940315,0.29611337184906,0.672613739967346,0.658104181289673,1.20964622497559,0.648617565631866,-2.13115239143372,0.0887323915958405,0.11664754897356,0.326728850603104,0.595340967178345,0.798645973205566,0.499870121479034,0.166863217949867,2012-01-13 15:31:15
1.02900004386902,45,-4.61631679534912,0.0714215561747551,0.0961830019950867,0.267394870519638,0.710925161838531,0.583260715007782,0.820237994194031,0.759355187416077,8.24150848388672,0.0407955944538116,0.0504467375576496,0.143176838755608,0.0939481183886528,0.204256594181061,0.0252085570245981,0.0488964393734932,-2.0938286781311,0.100807510316372,0.127454966306686,0.259985208511353,1.41908586025238,1.91688024997711,0.339489579200745,0.226107493042946,2012-01-13 15:31:16
1.01200008392334,49,-4.89912223815918,0.0494622178375721,0.0586729720234871,0.141495943069458,0.000712214736267924,0.349831193685532,0.29624679684639,0.166704088449478,8.09568977355957,0.0417592413723469,0.0527587234973907,0.141896396875381,0.0198672283440828,0.28047052025795,0.23516471683979,0.284713238477707,-2.00636053085327,0.0620339028537273,0.0740761682391167,0.180522486567497,0.264697819948196,0.273909360170364,0.279240846633911,0.192158222198486,2012-01-13 15:31:17
1.00600004196167,43,-4.85908079147339,0.0400434955954552,0.0569616183638573,0.191115528345108,0.104175120592117,0.265416413545609,0.212445631623268,0.0640731975436211,8.1445369720459,0.0477764047682285,0.058358121663332,0.132504314184189,0.217932492494583,0.374243855476379,0.20276552438736,0.0516059994697571,-1.93487477302551,0.0395660363137722,0.0469374880194664,0.101031325757504,0.015692537650466,0.0379302240908146,0.201396599411964,0.15559609234333,2012-01-13 15:31:18
1.02300000190735,41,-4.84041881561279,0.0871689021587372,0.127990961074829,0.347299188375473,0.255454897880554,0.141598626971245,0.149594008922577,0.0880213677883148,8.07589626312256,0.0684775710105896,0.0873953029513359,0.240382760763168,0.298928707838058,0.314251363277435,0.0410748794674873,0.081692062318325,-2.04935073852539,0.0609867572784424,0.076162077486515,0.137532338500023,0.0134209431707859,0.355351150035858,0.701770544052124,0.182711809873581,2012-01-13 15:31:19
1.00899982452393,47,-4.73285627365112,0.0484871193766594,0.0565180592238903,0.101822063326836,0.0916609689593315,0.110103458166122,0.191103145480156,0.0473951250314713,8.19982051849365,0.0227297246456146,0.0302077028900385,0.0867991372942924,0.0122664039954543,0.0231860056519508,0.0687622353434563,0.0585940666496754,-2.0470860004425,0.0468979142606258,0.0550849549472332,0.139797002077103,0.139500007033348,0.167255565524101,0.112106263637543,0.307401090860367,2012-01-13 15:31:20
1.23800015449524,44,-4.80124664306641,0.0481619387865067,0.0559970214962959,0.102078579366207,0.332082033157349,0.301876425743103,0.110420636832714,0.0710694789886475,8.13060474395752,0.0290552880614996,0.0380281396210194,0.116788193583488,0.103801608085632,0.0998729541897774,0.0866697579622269,0.037298422306776,-2.11021280288696,0.0399559885263443,0.0475520193576813,0.119462765753269,0.00946309603750706,0.0984571054577827,0.191812843084335,0.0788207054138184,2012-01-13 15:31:21
1,42,-4.79031467437744,0.0352460741996765,0.0423823930323124,0.113010235130787,0.0216042324900627,0.030361307784915,0.0455865189433098,0.104064613580704,8.15446281433105,0.0281747337430716,0.0377536751329899,0.122817263007164,0.0697226524353027,0.0831756293773651,0.0165892727673054,0.00395239004865289,-2.08531403541565,0.0399270355701447,0.0491182021796703,0.133790701627731,0.103639885783195,0.194520086050034,0.177062854170799,0.0734002366662025,2012-01-13 15:31:22
1.01099991798401,50,-4.81702613830566,0.0338133089244366,0.0421115420758724,0.105912074446678,0.0381940975785255,0.104363784193993,0.206096187233925,0.152160689234734,8.12088680267334,0.0420119240880013,0.0501294359564781,0.0990476831793785,0.036845751106739,0.144225209951401,0.378997206687927,0.171021178364754,-2.0950927734375,0.0615857392549515,0.0750131085515022,0.172989249229431,0.589165866374969,0.809105932712555,0.761832058429718,0.231916174292564,2012-01-13 15:31:23
1.01999998092651,44,-4.81484222412109,0.0626490712165833,0.076492115855217,0.1959098726511,0.00168853835202754,0.352173149585724,0.548142850399017,0.179771810770035,8.07332420349121,0.0393382459878922,0.0521494559943676,0.139744937419891,0.0283740106970072,0.109081409871578,0.249628663063049,0.281738072633743,-2.20270729064941,0.0613928847014904,0.0717969760298729,0.141082093119621,0.169040635228157,0.454591661691666,0.612266898155212,0.354946225881577,2012-01-13 15:31:24
1.01300001144409,44,-4.87056159973145,0.0615753382444382,0.0785352066159248,0.189669489860535,0.163524761795998,0.0809090808033943,0.220410764217377,0.00704375561326742,8.07131862640381,0.0428335219621658,0.0516369007527828,0.0976210832595825,0.00182870333082974,0.051632959395647,0.0432046540081501,0.0622237883508205,-2.27068519592285,0.0560843199491501,0.0687882527709007,0.162255510687828,0.0274451728910208,0.30585178732872,0.362336724996567,0.227072775363922,2012-01-13 15:31:25
1.02699995040894,44,-4.85897207260132,0.0503199398517609,0.065167136490345,0.17183929681778,0.0659769251942635,0.360572874546051,0.742009937763214,0.184208691120148,8.10408210754395,0.0235442128032446,0.0339209474623203,0.104084298014641,0.0734072327613831,0.0753170773386955,0.0207992102950811,0.0134079493582249,-2.14163851737976,0.0506339445710182,0.0670427083969116,0.231570661067963,0.364412188529968,0.399007976055145,0.0390780493617058,0.0186791364103556,2012-01-13 15:31:26
1.00099992752075,43,-4.85315132141113,0.0396403633058071,0.0508123002946377,0.136152729392052,0.0541249662637711,0.0942866653203964,0.0722879990935326,0.119264200329781,8.11990642547607,0.0351216904819012,0.0411197021603584,0.0784537717700005,0.0370500758290291,0.206470966339111,0.208527415990829,0.0853010788559914,-2.10820174217224,0.0723008289933205,0.0818706303834915,0.146871700882912,0.0390163958072662,0.387747466564178,0.813603281974792,0.0222372785210609,2012-01-13 15:31:27
1.01600003242493,43,-4.81985425949097,0.0480202175676823,0.0536037124693394,0.102855689823627,0.122969105839729,0.331804305315018,0.171961411833763,0.0181039776653051,8.09367942810059,0.0461536236107349,0.0548556037247181,0.101259306073189,0.146661058068275,0.515424370765686,0.379305511713028,0.0323674455285072,-2.13579702377319,0.0525390394032001,0.0592020899057388,0.100119031965733,0.0763641521334648,0.0570310391485691,0.146028101444244,0.205006957054138,2012-01-13 15:31:28
1.01300001144409,51,-4.91236257553101,0.042167492210865,0.0522845014929771,0.138062134385109,0.0382989719510078,0.172544404864311,0.214286744594574,0.290389120578766,8.07606410980225,0.039113849401474,0.0485641025006771,0.132678493857384,0.000220881120185368,0.0428683273494244,0.0242824628949165,0.21144562959671,-2.19476675987244,0.0378089584410191,0.0457514487206936,0.119602777063847,0.135333180427551,0.221774086356163,0.0895503908395767,0.132924258708954,2012-01-13 15:31:29
1.01999998092651,41,-4.81817436218262,0.0355629101395607,0.0419674776494503,0.101175762712955,0.0109113315120339,0.0582613833248615,0.171629890799522,0.0696356073021889,8.07087230682373,0.0282243229448795,0.0342466160655022,0.0784537121653557,0.0024666334502399,0.0590162612497807,0.127631768584251,0.0560155548155308,-2.26796722412109,0.0517459996044636,0.0639966204762459,0.14973084628582,0.112184450030327,0.163780763745308,0.13529746234417,0.0970576629042625,2012-01-13 15:31:30
1.007000207901,42,-4.84938812255859,0.0366582199931145,0.0454086288809776,0.102969758212566,0.0246032234281301,0.106430605053902,0.381936281919479,0.16604907810688,8.07087230682373,0.0238164979964495,0.0307893380522728,0.0686467736959457,0.023426741361618,0.0201186221092939,0.0491014644503593,0.028065262362361,-2.26486897468567,0.0659558176994324,0.0801553428173065,0.156439423561096,0.212822288274765,0.450616747140884,0.319579869508743,0.0235017873346806,2012-01-13 15:31:31
1.00499987602234,43,-4.89237785339355,0.0402874872088432,0.0486537292599678,0.128626763820648,0.169005215167999,0.298409968614578,0.211969971656799,0.0596656464040279,8.03575134277344,0.0325543656945229,0.039239764213562,0.084155336022377,0.0118843829259276,0.0703429505228996,0.141312167048454,0.0256083905696869,-2.21516251564026,0.0407964736223221,0.0456658639013767,0.0969262272119522,0.0308328736573458,0.0900985896587372,0.08820541203022,0.0719971731305122,2012-01-13 15:31:32
1.00500011444092,50,-4.91234683990479,0.0286982543766499,0.0326925851404667,0.059624444693327,6.1585298681166e-05,0.202790126204491,0.0722972750663757,0.0304600819945335,8.07459926605225,0.0309971962124109,0.0354613661766052,0.0845337808132172,0.000747347075957805,0.0875710770487785,0.134770542383194,0.0578322522342205,-2.08097100257874,0.0687249973416328,0.0821654573082924,0.164751693606377,0.106441617012024,0.728352129459381,0.205300971865654,0.145410656929016,2012-01-13 15:31:33
1.01699995994568,43,-4.85497570037842,0.0590521655976772,0.0683493539690971,0.116995669901371,0.12527571618557,0.2668796479702,0.314845740795135,0.0525536760687828,8.09550380706787,0.0292982924729586,0.0345183461904526,0.0932776406407356,0.0011883454862982,0.0325810723006725,0.131521567702293,0.059972271323204,-2.19668960571289,0.0656817480921745,0.0755190551280975,0.156906291842461,0.184076488018036,0.391481965780258,0.930656671524048,0.160666584968567,2012-01-13 15:31:34
1.01699995994568,42,-4.81343030929565,0.026773689314723,0.0325191058218479,0.0800879597663879,0.0221822503954172,0.0277224872261286,0.0332435853779316,0.0310565494000912,8.04285335540771,0.0357576422393322,0.0436773709952831,0.0994676053524017,0.0180876608937979,0.118368819355965,0.0816344171762466,0.0504536107182503,-2.29989290237427,0.0358688086271286,0.0447987876832485,0.113009937107563,0.0354434922337532,0.174842968583107,0.215183794498444,0.102907039225101,2012-01-13 15:31:35
1.00699996948242,42,-4.83607912063599,0.0328890010714531,0.0398964062333107,0.0868591442704201,1.5467590856133e-05,0.0626005083322525,0.133580058813095,0.0474345162510872,8.05592918395996,0.0125863905996084,0.0172848831862211,0.0443642027676105,0.00261565763503313,0.00534273870289326,0.00532386591657996,0.0167397409677505,-2.33678460121155,0.0517017208039761,0.0584606379270554,0.12048164755106,0.291585296392441,0.548357725143433,0.336642742156982,0.0508574768900871,2012-01-13 15:31:36
1.01099991798401,44,-4.79366874694824,0.0253270473331213,0.0319330617785454,0.0766700431704521,0.0282123498618603,0.0232255645096302,0.0857575163245201,0.0889293551445007,8.07666778564453,0.043866828083992,0.0588519126176834,0.152894794940948,0.276772320270538,0.462483406066895,0.402484774589539,0.227937117218971,-2.40106916427612,0.0563173070549965,0.0700317025184631,0.158466458320618,0.119022257626057,0.523397505283356,0.604831039905548,0.185761481523514,2012-01-13 15:31:37
1.01800012588501,43,-4.70582342147827,0.0668272525072098,0.0770313888788223,0.168081134557724,0.531350672245026,0.781366884708405,0.106490217149258,0.0674209669232368,8.08113574981689,0.0433215014636517,0.0491908527910709,0.107417307794094,0.25057265162468,0.328561335802078,0.0477274544537067,0.0468234270811081,-2.48746824264526,0.0311436355113983,0.0372906625270844,0.0720673725008965,0.0134925786405802,0.0776183158159256,0.0971867889165878,0.0226717051118612,2012-01-13 15:31:38
1.0149998664856,49,-4.63093996047974,0.0459250919520855,0.0548438392579556,0.105671666562557,0.0716757401823997,0.349830806255341,0.109035789966583,0.118826419115067,8.10389518737793,0.0218354519456625,0.0259609073400497,0.0624428950250149,0.00371782993897796,0.0547384060919285,0.0690106749534607,0.0543074235320091,-2.52211022377014,0.0663551986217499,0.0768781825900078,0.148900970816612,0.294934749603271,0.392617225646973,0.576838076114655,0.677443742752075,2012-01-13 15:31:39
1.01600003242493,42,-4.47299957275391,0.0535250939428806,0.065930999815464,0.138460323214531,0.146358117461205,0.220973953604698,0.0950053781270981,0.0407712012529373,8.16240215301514,0.0193019434809685,0.0265277307480574,0.0751841887831688,0.0159140340983868,0.0154258226975799,0.0143702300265431,0.0303604640066624,-2.70943737030029,0.0533028282225132,0.0614025332033634,0.120481617748737,0.0180339068174362,0.123795762658119,0.126757621765137,0.128863871097565,2012-01-13 15:31:40
1.00300002098083,40,-4.45810317993164,0.0410897918045521,0.0504255518317223,0.111795619130135,0.0353464409708977,0.0577692873775959,0.0480643697082996,0.0166545398533344,8.17653942108154,0.0344580560922623,0.0422077029943466,0.0904661864042282,6.8208719312679e-05,0.0268116928637028,0.0371629856526852,0.00485657388344407,-2.73777151107788,0.0459564328193665,0.0584252588450909,0.135577037930489,0.00773363513872027,0.00614124070852995,0.0759053826332092,0.0834698900580406,2012-01-13 15:31:41
1.00500011444092,43,-4.5003399848938,0.0582352466881275,0.074379563331604,0.167625412344933,0.525751888751984,0.705228626728058,0.705600500106812,0.275782018899918,8.13358974456787,0.0513192042708397,0.0626734867691994,0.160783529281616,0.329042553901672,0.387387782335281,0.527913093566895,0.275788486003876,-2.669917345047,0.0379324592649937,0.0495140440762043,0.14459103345871,0.123016446828842,0.104525662958622,0.0711966976523399,0.0147377578541636,2012-01-13 15:31:42
1.18400001525879,50,-4.60814476013184,0.0521715171635151,0.0646124333143234,0.146119117736816,0.571624875068665,1.56410706043243,0.4003946185112,0.186669558286667,8.07911014556885,0.0331546403467655,0.0411583222448826,0.129055887460709,0.224812731146812,0.474279701709747,0.0994680896401405,0.0360689833760262,-2.60170412063599,0.0273409634828568,0.0349892936646938,0.101008504629135,0.0125240823253989,0.103464342653751,0.0647262185811996,0.0377298220992088,2012-01-13 15:31:44
1.01799988746643,45,-4.60868978500366,0.0728356689214706,0.0827991589903831,0.137728929519653,0.708884596824646,0.937604486942291,0.277715563774109,0.105044566094875,8.11685466766357,0.0423746407032013,0.0524175502359867,0.14034415781498,0.268483102321625,0.250048786401749,0.0104995537549257,0.0105003686621785,-2.62469530105591,0.0434785559773445,0.0575975216925144,0.150586560368538,0.0213021449744701,0.127695217728615,0.405566513538361,0.141807585954666,2012-01-13 15:31:45
1.01699995994568,50,-4.67541837692261,0.033421017229557,0.040365245193243,0.080806665122509,0.00860233418643475,0.260798186063766,0.197872906923294,0.0227351170033216,8.09676265716553,0.0260311029851437,0.0312440097332001,0.0721771791577339,0.0902963355183601,0.1699408441782,0.0656723976135254,0.0383645407855511,-2.60817646980286,0.0411408729851246,0.0489924512803555,0.118072181940079,0.013004258275032,0.0133387297391891,0.294426292181015,0.148851051926613,2012-01-13 15:31:46
1.01100015640259,42,-4.6056227684021,0.0313214138150215,0.0409304760396481,0.111375615000725,0.0196631643921137,0.0954730212688446,0.219543665647507,0.106495752930641,8.0841817855835,0.0479661822319031,0.0547195710241795,0.101568847894669,0.222255364060402,0.415730237960815,0.260210305452347,0.0276105273514986,-2.71760940551758,0.0646772086620331,0.0756660625338554,0.148267313838005,0.530421555042267,0.687483429908752,0.335938811302185,0.255499213933945,2012-01-13 15:31:47
1.00899982452393,44,-4.53512954711914,0.0297035705298185,0.0374859571456909,0.0829106345772743,0.0472405813634396,0.10046125203371,0.0561602339148521,0.00649725226685405,8.1201286315918,0.0376565717160702,0.0416320562362671,0.0688699558377266,0.00724654411897063,0.0511061288416386,0.214931473135948,0.0508247315883636,-2.72000813484192,0.0401181615889072,0.0452833026647568,0.0846937671303749,0.0204733740538359,0.0582190379500389,0.041318017989397,0.208183884620667,2012-01-13 15:31:48
1.01400017738342,44,-4.61514329910278,0.0369776673614979,0.0457216985523701,0.121468737721443,0.0285343136638403,0.112671032547951,0.220617651939392,0.121443577110767,8.07042694091797,0.032034020870924,0.0372230224311352,0.0887060835957527,0.0174957700073719,0.0910795256495476,0.087630495429039,0.0320958830416203,-2.79489517211914,0.0347690097987652,0.0443029217422009,0.117679804563522,0.0514281615614891,0.0890386179089546,0.120234861969948,0.151488304138184,2012-01-13 15:31:49
1.01699995994568,49,-4.55188655853271,0.0756921544671059,0.106791511178017,0.256574094295502,0.316491544246674,2.90926027297974,3.01647114753723,0.875249147415161,8.10849857330322,0.049201026558876,0.064302071928978,0.207540780305862,0.124426692724228,0.876715481281281,0.614063620567322,0.258855670690536,-2.70823645591736,0.0781428068876266,0.097067691385746,0.207540690898895,1.40781104564667,1.73587214946747,0.598870694637299,0.225111737847328,2012-01-13 15:31:50
1.00799989700317,43,-4.57651233673096,0.0434060283005238,0.0538680143654346,0.140486046671867,0.338634252548218,0.406254231929779,0.165657013654709,0.0863780826330185,8.13974761962891,0.0235592871904373,0.0334061905741692,0.0782250463962555,0.00160825403872877,0.00415403163060546,0.0210390761494637,0.0587319768965244,-2.55862331390381,0.0425255224108696,0.0542028993368149,0.128398641943932,0.00501297879964113,0.0319898203015327,0.0959250703454018,0.0751946493983269,2012-01-13 15:31:51
1.00500011444092,42,-4.65862560272217,0.0551707558333874,0.0649778768420219,0.127019375562668,0.0273987166583538,0.191034629940987,0.268142879009247,0.0831436291337013,8.06877136230469,0.0272852815687656,0.0369132459163666,0.115578092634678,0.0159923695027828,0.0288061462342739,0.0277218166738749,0.0571704357862473,-2.59525990486145,0.0507010705769062,0.0623842403292656,0.173017412424088,0.297713160514832,0.386393666267395,0.102143920958042,0.054640356451273,2012-01-13 15:31:52
1.01600003242493,41,-4.64308977127075,0.0251904483884573,0.0343214571475983,0.0935218632221222,0.00403568241745234,0.00372639880515635,0.011556132696569,0.0187254082411528,8.08570194244385,0.0302429106086493,0.0381428301334381,0.0932826846837997,0.0114117069169879,0.0321029461920261,0.0151819474995136,0.141799733042717,-2.6339225769043,0.0374530926346779,0.0460978932678699,0.121746018528938,0.0688307359814644,0.171204209327698,0.085127979516983,0.122940927743912,2012-01-13 15:31:53
1.01399993896484,41,-4.6567234992981,0.039261594414711,0.0487964190542698,0.116244897246361,0.00326399528421462,0.101223081350327,0.0832946449518204,0.15781532227993,8.08474540710449,0.0295195505023003,0.0375137366354465,0.0825196951627731,0.0866447761654854,0.0972658321261406,0.0272370297461748,0.0523853786289692,-2.61287426948547,0.0327860601246357,0.0422243997454643,0.12318117171526,0.0475939624011517,0.121060259640217,0.102456629276276,0.0386951491236687,2012-01-13 15:31:54
1.02099990844727,39,-4.71398115158081,0.0231722798198462,0.0271218828856945,0.0558223724365234,0.0143834399059415,0.0247252471745014,0.00857493840157986,0.00556822307407856,8.00725555419922,0.0463832393288612,0.055022768676281,0.102844640612602,0.191259726881981,0.347088605165482,0.168348461389542,0.00776961958035827,-2.59272742271423,0.0416251048445702,0.0482789091765881,0.111644901335239,5.71644995943643e-05,0.12931253015995,0.180971667170525,0.129274174571037,2012-01-13 15:31:55
1.00300002098083,50,-4.77505397796631,0.0423646531999111,0.0497280433773994,0.0988508611917496,0.0174237377941608,0.0167541913688183,0.165778174996376,0.0901093482971191,8.03203868865967,0.0452833399176598,0.0567079931497574,0.127094581723213,0.235346555709839,0.445889115333557,0.502794563770294,0.314760744571686,-2.47657132148743,0.0519752167165279,0.0606494881212711,0.12297535687685,0.274569272994995,0.184614717960358,0.475136458873749,0.174804344773293,2012-01-13 15:31:56
1.00999999046326,44,-4.71633005142212,0.0502387322485447,0.0582573488354683,0.0987349674105644,0.00234733428806067,0.124832823872566,0.297109037637711,0.128240212798119,8.11076831817627,0.022662777453661,0.0306141413748264,0.0777846053242683,0.0122191114351153,0.0548003949224949,0.0978087931871414,0.0395664907991886,-2.45634293556213,0.0474528707563877,0.0561985298991203,0.15222604572773,0.0536472946405411,0.0703912824392319,0.147238925099373,0.111054480075836,2012-01-13 15:31:57
1.00600004196167,41,-4.63830614089966,0.0853838324546814,0.0970685407519341,0.166952162981033,0.548260629177094,0.792000412940979,0.255526810884476,0.309533953666687,8.14382457733154,0.0416301898658276,0.0578367747366428,0.151405215263367,0.0234931688755751,0.0227752812206745,0.0493438728153706,0.0538899675011635,-2.51361179351807,0.043823629617691,0.0550264269113541,0.124377027153969,0.0258239451795816,0.0981632918119431,0.198143675923347,0.189683973789215,2012-01-13 15:31:58
1.01900005340576,41,-4.58783769607544,0.0335328690707684,0.042438019067049,0.0963921919465065,0.0229839812964201,0.0902880132198334,0.24457523226738,0.0514775961637497,8.13306140899658,0.0179331284016371,0.0218328628689051,0.0456845574080944,0.00902134459465742,0.0146387564018369,0.00636553205549717,0.00827620271593332,-2.5327467918396,0.0499608032405376,0.0560227707028389,0.115048736333847,0.00117711839266121,0.119275331497192,0.197884097695351,0.0502532571554184,2012-01-13 15:31:59
1.00600004196167,45,-4.5770902633667,0.055469386279583,0.0712407156825066,0.169328212738037,0.0461733154952526,0.0301785077899694,0.270231008529663,0.132313013076782,8.15564632415771,0.0326113328337669,0.0412011928856373,0.0917465388774872,0.0327629372477531,0.0431247837841511,0.0766486153006554,0.117455214262009,-2.56672716140747,0.0715667679905891,0.0904341116547585,0.232744440436363,0.0014447997091338,0.499266982078552,0.265511512756348,0.830232977867126,2012-01-13 15:32:00
1.00999999046326,38,-4.62254524230957,0.0984468087553978,0.12249369174242,0.248779088258743,0.575769364833832,0.777641355991364,1.12091279029846,0.496624261140823,8.1467456817627,0.0296372212469578,0.0395275875926018,0.120260290801525,0.0417897403240204,0.0529922023415565,0.00780978938564658,0.00468615721911192,-2.54301905632019,0.0276542007923126,0.0374512448906898,0.114582970738411,0.0240080188959837,0.0298653114587069,0.0076854070648551,0.0140398601070046,2012-01-13 15:32:01
1.02300000190735,42,-4.7132625579834,0.0580837801098824,0.0706179738044739,0.153170704841614,0.174486398696899,0.364402294158936,0.362487703561783,0.118839547038078,8.11640357971191,0.0420619659125805,0.0501335300505161,0.114177957177162,0.00133768375962973,0.177885308861732,0.279393881559372,0.0912501811981201,-2.38068103790283,0.0730939954519272,0.0887206792831421,0.174184754490852,0.374683827161789,0.669576823711395,0.428770661354065,0.0711392462253571,2012-01-13 15:32:02
1.00999999046326,41,-4.66007232666016,0.0555379875004292,0.0653457194566727,0.145186126232147,0.0582037679851055,0.0669083073735237,0.0234236363321543,0.381668090820312,8.15363121032715,0.0248287431895733,0.0305579584091902,0.0729526877403259,0.00286510470323265,0.0184806361794472,0.0563332177698612,0.0412240885198116,-2.38516855239868,0.0604616962373257,0.0692931488156319,0.129639178514481,0.379706263542175,0.642514705657959,0.237068504095078,0.145318508148193,2012-01-13 15:32:03
1.24499988555908,45,-4.58166694641113,0.0631984993815422,0.0774277523159981,0.184365004301071,0.741835355758667,0.96439117193222,0.372825741767883,0.190046459436417,8.14104461669922,0.0399143733084202,0.0504281669855118,0.129012495279312,0.154491007328033,0.146519482135773,0.122928127646446,0.141001790761948,-2.49132490158081,0.0513432398438454,0.0619866847991943,0.137728899717331,0.164618015289307,0.229451432824135,0.323496133089066,0.225899010896683,2012-01-13 15:32:04
1.01800012588501,45,-4.5548620223999,0.0364952683448792,0.0440317876636982,0.113103583455086,0.061407309025526,0.156494095921516,0.0703276842832565,0.106699272990227,8.20162868499756,0.0310906581580639,0.0372135564684868,0.0849908217787743,0.00187698157969862,0.0214830078184605,0.0578013882040977,0.0508110038936138,-2.40785956382751,0.0599731057882309,0.0675196424126625,0.122910141944885,0.502655327320099,0.742431282997131,0.554899752140045,0.0717452242970467,2012-01-13 15:32:05
1.07200002670288,49,-4.79945421218872,0.0558827668428421,0.070853129029274,0.182323724031448,0.528106391429901,0.378704279661179,0.130892738699913,0.210741609334946,8.07587623596191,0.0753411278128624,0.0885181054472923,0.171716690063477,1.30971693992615,1.82729303836823,0.74859493970871,0.359604269266129,-2.31817197799683,0.074123740196228,0.107404835522175,0.36885005235672,0.890964448451996,1.40160810947418,0.383487612009048,1.59071171283722,2012-01-13 15:32:06
1.01599979400635,40,-3.43649530410767,0.963258147239685,1.07702040672302,1.71052479743958,133.733596801758,184.141830444336,38.3335113525391,9.17991924285889,8.36703300476074,0.30076989531517,0.343395203351974,0.782570362091064,0.948249518871307,7.22161626815796,11.8687782287598,2.25785613059998,-3.09939169883728,0.258674919605255,0.306518226861954,0.579082667827606,7.46999740600586,8.35086536407471,2.27128410339355,1.07781553268433,2012-01-13 15:32:07
1.01200008392334,43,-2.63548016548157,0.858487606048584,0.986123502254486,1.68925261497498,56.5331993103027,44.0846290588379,59.7341690063477,19.4860382080078,9.34072017669678,0.922143220901489,1.29192388057709,4.30032968521118,0.297596633434296,19.3777885437012,23.4786376953125,32.6655044555664,-1.0632232427597,1.53134369850159,1.68177247047424,3.14382934570312,292.151733398438,329.413116455078,23.5280380249023,23.2202491760254,2012-01-13 15:32:08
