"diffSecs","level","azimuth.mean","azimuth.absolute.deviation","azimuth.standard.deviation","azimuth.max.deviation","pitch.mean","pitch.absolute.deviation","pitch.standard.deviation","pitch.max.deviation","roll.mean","roll.absolute.deviation","roll.standard.deviation","roll.max.deviation","time"
1,5,-3.92000007629395,0.624000012874603,0.670522212982178,0.980000078678131,-39.560001373291,0.208000183105469,0.241661086678505,0.360000610351562,3.74000000953674,0.551999986171722,0.608604967594147,0.939999997615814,2012-01-27 16:56:40
1.00699996948242,48,-3.28958344459534,1.36171877384186,1.65658283233643,3.58958339691162,-39.9520835876465,0.397569328546524,0.473897576332092,0.952084124088287,5.21875,0.715364575386047,0.927958369255066,1.98125016689301,2012-01-27 16:56:41
1.01199984550476,43,-1.12790703773499,1.70351541042328,1.8905303478241,3.67209315299988,-40.5255813598633,0.525040984153748,0.610411286354065,1.17441868782043,4.04651165008545,3.40173077583313,3.97815847396851,8.84651184082031,2012-01-27 16:56:42
1.01800012588501,42,-3.40000009536743,3.03809523582458,3.42886900901794,6.90000009536743,-41.1476211547852,0.321995437145233,0.392330199480057,0.947619140148163,-2.95238089561462,3.72607707977295,4.00780439376831,5.9523811340332,2012-01-27 16:56:43
1.00099992752075,41,8.57804870605469,2.96502089500427,3.31290984153748,5.07804870605469,-38.7658538818359,1.38786447048187,1.5160299539566,2.2658543586731,5.48536586761475,2.68185615539551,2.90311527252197,4.11463451385498,2012-01-27 16:56:44
1.01800012588501,43,12.4372091293335,1.12752842903137,1.43964195251465,3.46279096603394,-36.3744201660156,0.670632660388947,0.842502474784851,1.97441792488098,10.8255815505981,0.540292143821716,0.669290900230408,1.37441825866699,2012-01-27 16:56:45
1.01099991798401,41,14.6487808227539,1.02058303356171,1.2589430809021,2.65122056007385,-34.4804878234863,0.271624177694321,0.318701356649399,0.680489301681519,11.9121952056885,0.558239102363586,0.663028955459595,1.41219532489777,2012-01-27 16:56:46
1.00600004196167,49,17.3102035522461,0.51411896944046,0.580726027488708,1.18979561328888,-34.7306137084961,0.199166819453239,0.258096724748611,0.669388353824615,9.39387798309326,0.540441572666168,0.59604424238205,1.10612225532532,2012-01-27 16:56:47
1.00499987602234,42,16.0738105773926,0.506122589111328,0.573651552200317,0.973809540271759,-35.5738105773926,0.283560186624527,0.332422167062759,0.626190304756165,10.0714282989502,0.602040827274323,0.687052249908447,1.47142839431763,2012-01-27 16:56:48
1.01300001144409,42,18.2119045257568,0.63877546787262,0.810115337371826,1.58809590339661,-34.8071441650391,0.135714665055275,0.193209543824196,0.807143688201904,7.90000009536743,1.56190478801727,1.72226321697235,2.70000028610229,2012-01-27 16:56:49
1.03800010681152,43,18.072093963623,0.863926470279694,1.04310047626495,2.32790613174438,-33.3465118408203,0.649756610393524,0.763818085193634,1.84651231765747,6.89069795608521,0.49075174331665,0.630914449691772,1.40930247306824,2012-01-27 16:56:50
1.01799988746643,41,20.4853668212891,0.749553799629211,0.89866054058075,1.88536596298218,-29.0634155273438,0.621058940887451,0.710807204246521,1.73658609390259,8.24878025054932,0.542653203010559,0.658202230930328,1.34878051280975,2012-01-27 16:56:51
