"diffSecs","level","azimuth.mean","azimuth.absolute.deviation","azimuth.standard.deviation","azimuth.max.deviation","pitch.mean","pitch.absolute.deviation","pitch.standard.deviation","pitch.max.deviation","roll.mean","roll.absolute.deviation","roll.standard.deviation","roll.max.deviation","time"
0,11,-32.5965919494629,0.223140493035316,0.324610382318497,0.909090936183929,-0.909090936183929,0.252066105604172,0.341665834188461,0.909090936183929,-5.94318199157715,0.541322290897369,0.691596567630768,1.68181812763214,2011-12-20 11:03:56
1.01482200622559,11,-32.2784080505371,0.235537186264992,0.287479788064957,0.590909063816071,-0.590909063816071,0.173553720116615,0.192847296595573,0.340909093618393,-5.67045450210571,0.376033067703247,0.462431579828262,0.954545438289642,2011-12-20 11:03:57
1.01441299915314,11,-33.0284080505371,0.462809920310974,0.556702196598053,1.09090912342072,-0.522727251052856,0.301652878522873,0.391014784574509,0.772727251052856,-5.26136350631714,0.214876025915146,0.246881380677223,0.386363625526428,2011-12-20 11:03:58
1.0163049697876,11,-32.5738639831543,0.169421494007111,0.195507392287254,0.386363625526428,-0.568181812763214,0.198347106575966,0.215609833598137,0.318181812763214,-5.625,0.363636374473572,0.439524531364441,0.75,2011-12-20 11:03:59
1.01423501968384,8,-32.5,0.203125,0.242061465978622,0.4375,-0.6875,0.140625,0.165359452366829,0.3125,-5.3125,0.203125,0.242061465978622,0.4375,2011-12-20 11:04:00
1.01445996761322,9,-32.0763893127441,0.234567895531654,0.266435086727142,0.388888895511627,-0.833333313465118,0.222222223877907,0.263523131608963,0.416666656732559,-5.40277767181396,0.259259253740311,0.342467457056046,0.527777791023254,2011-12-20 11:04:01
1.01439201831818,11,-32.0284080505371,0.264462798833847,0.306607663631439,0.590909063816071,-0.590909063816071,0.206611573696136,0.244780212640762,0.409090906381607,-5.51136350631714,0.334710747003555,0.389691561460495,0.613636374473572,2011-12-20 11:04:02
1.02634799480438,9,-32.3263893127441,0.345679014921188,0.426730304956436,0.861111104488373,-0.944444417953491,0.19753086566925,0.306815594434738,0.694444417953491,-5.54166650772095,0.407407402992249,0.456435471773148,0.833333313465118,2011-12-20 11:04:03
1.0141589641571,11,-31.8011360168457,0.305785119533539,0.359349727630615,0.636363625526428,-0.340909093618393,0.450413227081299,0.60558694601059,1.40909087657928,-5.67045450210571,0.111570246517658,0.143739894032478,0.295454531908035,2011-12-20 11:04:04
1.01426601409912,11,-31.9829540252686,0.239669427275658,0.334021329879761,0.795454561710358,-0.568181812763214,0.268595039844513,0.321412175893784,0.568181812763214,-5.55681800842285,0.256198346614838,0.303219646215439,0.568181812763214,2011-12-20 11:04:05
1.01438999176025,11,-32.1875,0.318181812763214,0.39886200428009,0.75,-0.681818187236786,0.144628092646599,0.187413886189461,0.431818187236786,-5.78409099578857,0.599173545837402,0.684841752052307,1.15909087657928,2011-12-20 11:04:06
1.01404201984406,11,-32.0511360168457,0.537190079689026,0.596996605396271,1.11363637447357,-0.75,0.181818187236786,0.261116474866867,0.5,-6.03409099578857,0.235537186264992,0.26698499917984,0.409090906381607,2011-12-20 11:04:07
1.01452696323395,11,-32.1647720336914,0.384297519922256,0.457941859960556,1.02272725105286,-0.454545468091965,0.421487599611282,0.520251035690308,1.20454549789429,-5.375,0.0909090936183929,0.184637233614922,0.5,2011-12-20 11:04:08
1.01335000991821,9,-31.6875,0.111111111938953,0.16666667163372,0.25,-0.944444417953491,0.506172835826874,0.54997193813324,0.694444417953491,-5.34722232818604,0.308641970157623,0.342467457056046,0.527777791023254,2011-12-20 11:04:09
1.01549005508423,11,-31.9375,0.318181812763214,0.353553384542465,0.5,-2.04545450210571,0.421487599611282,0.497929602861404,0.795454561710358,-4.98863649368286,0.421487599611282,0.51526290178299,1.11363637447357,2011-12-20 11:04:10
1.01406002044678,11,-32.1193199157715,0.347107440233231,0.400154918432236,0.568181812763214,-1.56818187236786,0.334710747003555,0.400154918432236,0.818181812763214,-3.875,0.409090906381607,0.464660197496414,0.75,2011-12-20 11:04:11
1.01403498649597,10,-31.7124996185303,0.284999996423721,0.343693166971207,0.725000023841858,-1.45000004768372,0.349999994039536,0.400000005960464,0.550000011920929,-3.95000004768372,0.360000014305115,0.461654633283615,1.07500004768372,2011-12-20 11:04:12
1.0150979757309,11,-31.8011360168457,0.285123974084854,0.326197743415833,0.613636374473572,-1.54545450210571,0.314049601554871,0.350619286298752,0.545454561710358,-3.10227274894714,0.165289252996445,0.224988520145416,0.522727251052856,2011-12-20 11:04:13
1.01375997066498,11,-31.6875,0.272727280855179,0.353553384542465,0.75,-0.863636374473572,0.417355358600616,0.481045693159103,0.886363625526428,-5.375,0.5,0.630656242370605,1.25,2011-12-20 11:04:14
1.0167670249939,11,-32.1193199157715,0.243801653385162,0.321412175893784,0.818181812763214,-1.20454549789429,0.32231405377388,0.396263539791107,0.795454561710358,-5.23863649368286,0.764462828636169,0.848552465438843,1.36363637447357,2011-12-20 11:04:15
1.01655602455139,9,-31.7152786254883,0.475308656692505,0.582671582698822,1.22222220897675,-1.47222220897675,0.475308656692505,0.506135225296021,0.722222208976746,-5.31944465637207,0.395061731338501,0.468119442462921,0.805555582046509,2011-12-20 11:04:16
1.01434004306793,11,-31.5965900421143,0.190082639455795,0.244780212640762,0.590909063816071,-1.47727274894714,0.165289252996445,0.224988520145416,0.522727251052856,-5.67045450210571,0.376033067703247,0.462431579828262,0.795454561710358,2011-12-20 11:04:17
1.01488697528839,11,-31.4602279663086,0.206611573696136,0.248964801430702,0.522727251052856,-1.06818187236786,0.301652878522873,0.370670586824417,0.818181812763214,-5.39772748947144,0.301652878522873,0.376203298568726,0.727272748947144,2011-12-20 11:04:18
1.0144430398941,9,-32.0486106872559,0.37654322385788,0.392837107181549,0.611111104488373,-0.833333313465118,0.370370358228683,0.40824830532074,0.666666686534882,-4.73611116409302,0.320987641811371,0.335640162229538,0.388888895511627,2011-12-20 11:04:19
1.01427900791168,11,-31.7556819915771,0.210743799805641,0.240522846579552,0.431818187236786,-1.38636362552643,0.35537189245224,0.417835831642151,0.636363625526428,-4.21590900421143,0.264462798833847,0.306607663631439,0.590909063816071,2011-12-20 11:04:20
1.01551103591919,10,-32.0625,0.425000011920929,0.490535408258438,0.875,-1.625,0.449999988079071,0.503115296363831,0.875,-4.02500009536743,0.25,0.300000011920929,0.600000023841858,2011-12-20 11:04:21
1.01681005954742,10,-32.1875,0.150000005960464,0.25,0.5,-1.67499995231628,0.524999976158142,0.581485152244568,0.824999988079071,-3.57500004768372,0.219999998807907,0.269258230924606,0.449999988079071,2011-12-20 11:04:22
1.01375997066498,11,-32.3238639831543,0.305785119533539,0.343174278736115,0.636363625526428,-1.61363637447357,0.330578505992889,0.389691561460495,0.636363625526428,-4.42045450210571,0.632231414318085,0.65555477142334,1.04545450210571,2011-12-20 11:04:23
1.19899702072144,11,-31.9375,0.5,0.583874225616455,1,-1.63636362552643,0.214876025915146,0.268912702798843,0.613636374473572,-4.30681800842285,0.380165278911591,0.465770483016968,1.06818187236786,2011-12-20 11:04:24
1.01441502571106,11,-32.0284080505371,0.280991733074188,0.324610382318497,0.590909063816071,-1,0.272727280855179,0.337099939584732,0.5,-3.625,0.272727280855179,0.337099939584732,0.5,2011-12-20 11:04:25
1.0188319683075,9,-32.0486106872559,0.234567895531654,0.266435086727142,0.388888895511627,-0.972222208976746,0.69753086566925,0.76779305934906,1.22222220897675,-3.1875,0.222222223877907,0.270030856132507,0.5,2011-12-20 11:04:26
1.00937795639038,10,-31.8624992370605,0.324999988079071,0.354436159133911,0.574999988079071,-1.5,0.400000005960464,0.447213590145111,0.75,-3.38124990463257,0.294999986886978,0.403548717498779,0.943750023841858,2011-12-20 11:04:27
1.0143369436264,11,-32.0738639831543,0.442148774862289,0.526174426078796,0.863636374473572,-0.818181812763214,0.132231399416924,0.154143869876862,0.318181812763214,-2.19886374473572,0.512396693229675,0.569600522518158,0.926136374473572,2011-12-20 11:04:28
1.01446497440338,9,-31.5486106872559,0.240740746259689,0.291335791349411,0.611111104488373,-0.305555552244186,0.185185179114342,0.229061424732208,0.444444447755814,-4.06944465637207,0.283950626850128,0.368513852357864,0.694444417953491,2011-12-20 11:04:29
1.01436495780945,10,-31.7124996185303,0.330000013113022,0.410030484199524,0.774999976158142,-0.474999994039536,0.330000013113022,0.378318637609482,0.524999976158142,-5.15000009536743,0.769999980926514,0.869266927242279,1.52499997615814,2011-12-20 11:04:30
1.01354098320007,9,-31.8541660308838,0.425925940275192,0.485912650823593,0.916666686534882,-0.916666686534882,0.314814805984497,0.372677981853485,0.666666686534882,-6.31944465637207,0.395061731338501,0.468119442462921,0.805555582046509,2011-12-20 11:04:31
1.02379405498505,11,-31.3920459747314,0.157024800777435,0.208298891782761,0.454545468091965,-0.386363625526428,0.351239681243896,0.417835831642151,0.863636374473572,-6.85227251052856,0.128099173307419,0.198131769895554,0.477272719144821,2011-12-20 11:04:32
1.10629594326019,11,-30.9602279663086,0.252066105604172,0.309958666563034,0.522727251052856,-0.431818187236786,0.347107440233231,0.427611082792282,0.818181812763214,-7.78409099578857,0.615702450275421,0.710295438766479,1.15909087657928,2011-12-20 11:04:33
1.01417505741119,11,-30.2784099578857,0.309917360544205,0.357909440994263,0.659090936183929,-0.727272748947144,0.210743799805641,0.248964801430702,0.477272719144821,-6.98863649368286,0.739669442176819,0.807378172874451,1.11363637447357,2011-12-20 11:04:34
1.01502203941345,9,-30.1597213745117,0.154320985078812,0.248451992869377,0.527777791023254,-1.33333337306976,0.259259253740311,0.288675129413605,0.416666656732559,-8.77083301544189,0.546296298503876,0.76091593503952,1.54166662693024,2011-12-20 11:04:35
1.01721203327179,10,-30.1625003814697,0.330000013113022,0.378318637609482,0.524999976158142,-0.574999988079071,0.254999995231628,0.31721442937851,0.675000011920929,-10.6625003814697,0.230000004172325,0.278388231992722,0.600000023841858,2011-12-20 11:04:36
1.01349997520447,11,-30.4147720336914,0.169421494007111,0.248964801430702,0.522727251052856,-0.568181812763214,0.301652878522873,0.321412175893784,0.431818187236786,-10.9034090042114,0.115702480077744,0.120261423289776,0.159090906381607,2011-12-20 11:04:37
1.0140700340271,11,-30.1647720336914,0.438016533851624,0.588280856609344,1.27272725105286,-1.18181812763214,0.256198346614838,0.303219646215439,0.568181812763214,-10.9261360168457,0.285123974084854,0.343174278736115,0.636363625526428,2011-12-20 11:04:38
1.01511299610138,10,-30.0625,0.400000005960464,0.490535408258438,0.875,-0.850000023841858,0.170000001788139,0.200000002980232,0.400000005960464,-10.6875,0.449999988079071,0.503115296363831,0.875,2011-12-20 11:04:39
1.0141099691391,9,-30.2708339691162,0.370370358228683,0.424918293952942,0.666666686534882,-1.88888883590698,0.234567895531654,0.291335791349411,0.638888895511627,-10.090277671814,0.370370358228683,0.447903215885162,0.972222208976746,2011-12-20 11:04:40
1.01440501213074,11,-30.3693180084229,0.289256185293198,0.355011343955994,0.818181812763214,-0.818181812763214,0.235537186264992,0.283863544464111,0.431818187236786,-10.9715909957886,0.446280986070633,0.525191843509674,0.909090936183929,2011-12-20 11:04:41
1.01626300811768,9,-30.2708339691162,0.240740746259689,0.288675129413605,0.583333313465118,-0.333333343267441,0.16666667163372,0.20412415266037,0.416666656732559,-10.4791669845581,0.222222223877907,0.288675129413605,0.666666686534882,2011-12-20 11:04:42
1.01457405090332,10,-29.7625007629395,0.209999993443489,0.224999994039536,0.324999988079071,-0.899999976158142,0.319999992847443,0.406201928853989,0.899999976158142,-10.3125,0.150000005960464,0.223606795072556,0.5,2011-12-20 11:04:43
1.01440000534058,9,-30.2708339691162,0.259259253740311,0.288675129413605,0.416666656732559,-1.25,0.222222223877907,0.263523131608963,0.5,-10.6736106872559,0.512345671653748,0.566557705402374,0.888888895511627,2011-12-20 11:04:45
1.01420295238495,11,-30.0056819915771,0.301652878522873,0.355011343955994,0.568181812763214,-1.18181812763214,0.404958665370941,0.453407675027847,0.681818187236786,-10.7897729873657,0.214876025915146,0.270826697349548,0.477272719144821,2011-12-20 11:04:46
1.01666796207428,10,-30.0625,0.375,0.422048568725586,0.625,-0.75,0.200000002980232,0.273861289024353,0.5,-10.8625001907349,0.319999992847443,0.384057283401489,0.699999988079071,2011-12-20 11:04:47
1.01391994953156,11,-30.0738639831543,0.260330587625504,0.289270967245102,0.386363625526428,-1.11363637447357,0.239669427275658,0.268912702798843,0.386363625526428,-10.2897729873657,0.392561972141266,0.470185488462448,0.772727251052856,2011-12-20 11:04:48
1.01621496677399,10,-30.6124992370605,0.324999988079071,0.388104379177094,0.675000011920929,-0.899999976158142,0.270000010728836,0.320156216621399,0.649999976158142,-10.5625,0.449999988079071,0.512347519397736,0.75,2011-12-20 11:04:49
1.0146369934082,10,-29.9874992370605,0.159999996423721,0.187082871794701,0.300000011920929,-1.02499997615814,0.275000005960464,0.361420810222626,0.774999976158142,-10.5625,0.5,0.547722578048706,0.75,2011-12-20 11:04:50
1.01358699798584,11,-29.9829540252686,0.541322290897369,0.629016041755676,1.29545450210571,-0.863636374473572,0.285123974084854,0.326197743415833,0.613636374473572,-10.8579549789429,0.458677679300308,0.541653394699097,0.795454561710358,2011-12-20 11:04:51
1.0148309469223,8,-30.15625,0.3984375,0.440835505723953,0.78125,-1.15625,0.3046875,0.329239189624786,0.40625,-11.03125,0.2265625,0.263317167758942,0.46875,2011-12-20 11:04:52
1.01373195648193,10,-29.8624992370605,0.360000014305115,0.419076353311539,0.675000011920929,-0.899999976158142,0.300000011920929,0.339116513729095,0.600000023841858,-10.8625001907349,0.409999996423721,0.497493714094162,0.949999988079071,2011-12-20 11:04:53
1.01354503631592,9,-29.9930553436279,0.561728417873383,0.621129989624023,0.944444417953491,-0.916666686534882,0.314814805984497,0.353553384542465,0.666666686534882,-10.8680553436279,0.228395059704781,0.328671097755432,0.805555582046509,2011-12-20 11:04:54
1.01500499248505,9,-30.1041660308838,0.351851850748062,0.390867978334427,0.666666686534882,-0.722222208976746,0.209876537322998,0.299175828695297,0.527777791023254,-10.5069446563721,0.185185179114342,0.229061424732208,0.444444447755814,2011-12-20 11:04:55
1.01439702510834,10,-30.2625007629395,0.174999997019768,0.195256248116493,0.324999988079071,-0.625,0.300000011920929,0.340036749839783,0.625,-10.1625003814697,0.319999992847443,0.374165743589401,0.649999976158142,2011-12-20 11:04:56
1.0141099691391,11,-30.2556819915771,0.256198346614838,0.283863544464111,0.431818187236786,-0.522727251052856,0.210743799805641,0.248964801430702,0.477272719144821,-10.9715909957886,0.388429760932922,0.467983186244965,0.909090936183929,2011-12-20 11:04:57
1.01435303688049,10,-30.3374996185303,0.189999997615814,0.229128777980804,0.400000005960464,-0.375,0.150000005960464,0.167705103754997,0.375,-11.0375003814697,0.33500000834465,0.425000011920929,0.725000023841858,2011-12-20 11:04:58
1.01499998569489,10,-29.9624996185303,0.234999999403954,0.305163890123367,0.725000023841858,-0.324999988079071,0.189999997615814,0.224999994039536,0.425000011920929,-10.6875,0.349999994039536,0.391311883926392,0.625,2011-12-20 11:04:59
1.01634800434113,11,-30.0738639831543,0.285123974084854,0.374827772378922,0.863636374473572,-0.613636374473572,0.351239681243896,0.404008835554123,0.636363625526428,-10.4488639831543,0.190082639455795,0.222680881619453,0.386363625526428,2011-12-20 11:05:00
1.0134049654007,9,-30.0486106872559,0.432098776102066,0.458122849464417,0.638888895511627,-0.944444417953491,0.339506179094315,0.349161267280579,0.444444447755814,-10.8680553436279,0.216049388051033,0.229061424732208,0.305555552244186,2011-12-20 11:05:01
1.01435196399689,10,-30.6375007629395,0.259999990463257,0.312249898910522,0.699999988079071,-0.449999988079071,0.28999999165535,0.367423474788666,0.800000011920929,-10.8874998092651,0.174999997019768,0.195256248116493,0.324999988079071,2011-12-20 11:05:02
1.01519501209259,11,-29.9829540252686,0.268595039844513,0.298065394163132,0.545454561710358,-1,0.181818187236786,0.261116474866867,0.5,-10.3579549789429,0.202479332685471,0.257129728794098,0.454545468091965,2011-12-20 11:05:03
1.01424300670624,11,-30.3693180084229,0.359504133462906,0.400154918432236,0.681818187236786,-0.886363625526428,0.400826454162598,0.46908563375473,0.863636374473572,-10.5397729873657,0.252066105604172,0.270826697349548,0.477272719144821,2011-12-20 11:05:04
1.01424694061279,9,-29.9930553436279,0.185185179114342,0.229061424732208,0.444444447755814,-0.833333313465118,0.555555582046509,0.634647786617279,0.916666686534882,-9.75694465637207,0.185185179114342,0.229061424732208,0.444444447755814,2011-12-20 11:05:05
1.01710498332977,11,-29.9602279663086,0.256198346614838,0.32777738571167,0.727272748947144,-0.681818187236786,0.17768594622612,0.215609833598137,0.431818187236786,-10.0852270126343,0.260330587625504,0.344676166772842,0.727272748947144,2011-12-20 11:05:06
1.0149120092392,10,-29.9624996185303,0.425000011920929,0.467038542032242,0.725000023841858,-0.899999976158142,0.219999998807907,0.254950970411301,0.400000005960464,-10.6374998092651,0.474999994039536,0.548292815685272,0.824999988079071,2011-12-20 11:05:07
1.01465094089508,7,-30.3660717010498,0.367346942424774,0.416496574878693,0.678571403026581,-0.821428596973419,0.204081639647484,0.220157638192177,0.321428567171097,-10.5982141494751,0.183673471212387,0.208248287439346,0.28571429848671,2011-12-20 11:05:08
1.01398205757141,10,-30.3374996185303,0.219999998807907,0.254950970411301,0.400000005960464,-0.224999994039536,0.280000001192093,0.305163890123367,0.474999994039536,-10.2124996185303,0.419999986886978,0.489897936582565,0.899999976158142,2011-12-20 11:05:09
1.01442694664001,11,-30.2329540252686,0.239669427275658,0.298065394163132,0.545454561710358,-0.977272748947144,0.297520667314529,0.360784262418747,0.772727251052856,-10.3806819915771,0.223140493035316,0.283863544464111,0.568181812763214,2011-12-20 11:05:10
1.01421594619751,11,-30.0056819915771,0.425619840621948,0.489560425281525,0.818181812763214,-0.590909063816071,0.235537186264992,0.306607663631439,0.659090936183929,-10.2215909957886,0.276859492063522,0.324610382318497,0.590909063816071,2011-12-20 11:05:11
1.01495504379272,9,-30.0763893127441,0.240740746259689,0.291335791349411,0.611111104488373,-0.777777791023254,0.203703701496124,0.248451992869377,0.472222208976746,-11.034722328186,0.580246925354004,0.639492452144623,0.972222208976746,2011-12-20 11:05:12
1.01438403129578,11,-29.8920459747314,0.194214880466461,0.233991593122482,0.454545468091965,-0.409090906381607,0.264462798833847,0.287479788064957,0.409090906381607,-10.3352270126343,0.56611567735672,0.625722706317902,1.02272725105286,2011-12-20 11:05:13
1.01573801040649,9,-29.9652786254883,0.209876537322998,0.299175828695297,0.722222208976746,-0.388888895511627,0.543209850788116,0.678141951560974,1.61111116409302,-10.2569446563721,0.141975313425064,0.196418553590775,0.444444447755814,2011-12-20 11:05:14
1.01431202888489,11,-30.1420459747314,0.148760333657265,0.178954720497131,0.295454531908035,-0.75,0.272727280855179,0.39886200428009,1,-10.4261360168457,0.376033067703247,0.46908563375473,0.886363625526428,2011-12-20 11:05:15
1.10604298114777,11,-29.6420459747314,0.185950413346291,0.208298891782761,0.295454531908035,-0.5,0.318181812763214,0.353553384542465,0.5,-10.2897729873657,0.384297519922256,0.445361763238907,0.772727251052856,2011-12-20 11:05:16
1.01599705219269,11,-30.6875,0.181818187236786,0.261116474866867,0.5,-0.659090936183929,0.206611573696136,0.244780212640762,0.409090906381607,-10.2215909957886,0.280991733074188,0.341665834188461,0.659090936183929,2011-12-20 11:05:17
1.01428294181824,10,-29.4375,0.200000002980232,0.31622776389122,0.75,-1.02499997615814,0.524999976158142,0.606733083724976,1.02499997615814,-10.2875003814697,0.324999988079071,0.343693166971207,0.524999976158142,2011-12-20 11:05:18
1.01649296283722,9,-29.7430553436279,0.43827161192894,0.496903985738754,0.805555582046509,-0.916666686534882,0.462962955236435,0.540061712265015,0.916666686534882,-9.89583301544189,0.259259253740311,0.31180477142334,0.583333313465118,2011-12-20 11:05:19
1.01343405246735,11,-29.7784099578857,0.206611573696136,0.244780212640762,0.409090906381607,-0.840909063816071,0.190082639455795,0.220349088311195,0.409090906381607,-10.6306819915771,0.301652878522873,0.355011343955994,0.681818187236786,2011-12-20 11:05:20
1.01454794406891,9,-30.0208339691162,0.240740746259689,0.288675129413605,0.583333313465118,-0.777777791023254,0.203703701496124,0.248451992869377,0.472222208976746,-10.2291669845581,0.277777791023254,0.372677981853485,0.833333313465118,2011-12-20 11:05:21
1.01468694210052,11,-29.9602279663086,0.388429760932922,0.445361763238907,0.772727251052856,-1.06818187236786,0.301652878522873,0.355011343955994,0.681818187236786,-10.1534090042114,0.264462798833847,0.306607663631439,0.590909063816071,2011-12-20 11:05:22
1.10647797584534,11,-29.6420459747314,0.330578505992889,0.410351604223251,0.704545438289642,-0.931818187236786,0.314049601554871,0.370670586824417,0.681818187236786,-10.5625,0.136363640427589,0.184637233614922,0.25,2011-12-20 11:05:23
1.01435494422913,10,-29.4624996185303,0.319999992847443,0.343693166971207,0.524999976158142,-1.32500004768372,0.224999994039536,0.251246899366379,0.425000011920929,-10.5375003814697,0.419999986886978,0.49307706952095,1.02499997615814,2011-12-20 11:05:24
1.01432001590729,9,-29.5486106872559,0.123456791043282,0.124225996434689,0.138888895511627,-0.944444417953491,0.450617283582687,0.537196636199951,1.05555558204651,-10.590277671814,0.580246925354004,0.628539383411407,1.02777779102325,2011-12-20 11:05:25
1.01483500003815,11,-29.0511360168457,0.400826454162598,0.481045693159103,0.863636374473572,-0.954545438289642,0.285123974084854,0.366466253995895,0.795454561710358,-10.5625,0.409090906381607,0.511237382888794,0.75,2011-12-20 11:05:26
1.01378202438354,11,-28.7784099578857,0.219008266925812,0.26698499917984,0.590909063816071,-1.31818187236786,0.347107440233231,0.427611082792282,0.931818187236786,-10.9261360168457,0.239669427275658,0.326197743415833,0.863636374473572,2011-12-20 11:05:27
1.01497101783752,10,-29.1875,0.150000005960464,0.193649172782898,0.25,-1.02499997615814,0.180000007152557,0.207665592432022,0.275000005960464,-10.2624998092651,0.300000011920929,0.349999994039536,0.550000011920929,2011-12-20 11:05:28
1.01378202438354,10,-29.2625007629395,0.310000002384186,0.371651709079742,0.675000011920929,-1.32500004768372,0.360000014305115,0.403887361288071,0.574999988079071,-9.96249961853027,0.280000001192093,0.339116513729095,0.649999976158142,2011-12-20 11:05:29
1.01532196998596,10,-30.0125007629395,0.324999988079071,0.354436159133911,0.574999988079071,-1.42499995231628,0.310000002384186,0.354436159133911,0.574999988079071,-10.5625,0.25,0.353553384542465,0.75,2011-12-20 11:05:30
1.10589599609375,11,-29.1647720336914,0.334710747003555,0.376203298568726,0.772727251052856,-1.86363637447357,0.537190079689026,0.633923888206482,1.11363637447357,-9.85795497894287,0.231404960155487,0.278351098299026,0.545454561710358,2011-12-20 11:05:31
1.01416194438934,9,-29.5763893127441,0.234567895531654,0.291335791349411,0.638888895511627,-1.16666662693024,0.296296298503876,0.353553384542465,0.583333313465118,-10.5069446563721,0.450617283582687,0.496903985738754,0.805555582046509,2011-12-20 11:05:32
1.01413798332214,10,-29.2625007629395,0.259999990463257,0.31721442937851,0.574999988079071,-0.975000023841858,0.239999994635582,0.324999988079071,0.725000023841858,-9.96249961853027,0.170000001788139,0.200000002980232,0.400000005960464,2011-12-20 11:05:33
1.01366996765137,9,-29.9930553436279,0.339506179094315,0.386899679899216,0.694444417953491,-1.11111116409302,0.512345671653748,0.566557705402374,0.888888895511627,-10.090277671814,0.314814805984497,0.398686110973358,0.722222208976746,2011-12-20 11:05:34
1.03680896759033,11,-29.6193180084229,0.223140493035316,0.283863544464111,0.568181812763214,-1.34090912342072,0.400826454162598,0.455680400133133,0.840909063816071,-9.8125,0.409090906381607,0.543557286262512,1,2011-12-20 11:05:36
1.11398494243622,11,-29.1420459747314,0.157024800777435,0.208298891782761,0.454545468091965,-1.54545450210571,0.194214880466461,0.233991593122482,0.454545468091965,-9.9488639831543,0.330578505992889,0.374827772378922,0.636363625526428,2011-12-20 11:05:37
1.01495099067688,11,-28.9829540252686,0.46694216132164,0.531060039997101,0.795454561710358,-1.63636362552643,0.169421494007111,0.195507392287254,0.386363625526428,-10.3352270126343,0.429752051830292,0.493762761354446,0.772727251052856,2011-12-20 11:05:38
1.01476204395294,11,-29.5738639831543,0.148760333657265,0.163888692855835,0.363636374473572,-0.795454561710358,0.285123974084854,0.350619286298752,0.704545438289642,-10.0852270126343,0.210743799805641,0.270826697349548,0.522727251052856,2011-12-20 11:05:39
1.01408994197845,10,-28.9624996185303,0.284999996423721,0.378318637609482,0.725000023841858,-1.02499997615814,0.280000001192093,0.324999988079071,0.524999976158142,-10.7624998092651,0.46000000834465,0.509901940822601,0.949999988079071,2011-12-20 11:05:40
1.01426804065704,11,-29.1193180084229,0.268595039844513,0.338628739118576,0.681818187236786,-1.43181812763214,0.314049601554871,0.355011343955994,0.681818187236786,-10.6761360168457,0.280991733074188,0.343174278736115,0.636363625526428,2011-12-20 11:05:41
1.01490998268127,10,-29.5874996185303,0.449999988079071,0.561248600482941,1.14999997615814,-1.25,0.349999994039536,0.433012694120407,0.75,-10.8874998092651,0.224999994039536,0.251246899366379,0.425000011920929,2011-12-20 11:05:42
1.01629900932312,11,-29.3920459747314,0.148760333657265,0.178954720497131,0.295454531908035,-1.09090912342072,0.371900826692581,0.416597783565521,0.659090936183929,-11.8125,0.5,0.61237245798111,1.25,2011-12-20 11:05:43
1.01450002193451,9,-28.6597213745117,0.308641970157623,0.362177908420563,0.527777791023254,-1.22222220897675,0.36419752240181,0.415739715099335,0.722222208976746,-11.284722328186,0.419753074645996,0.506135225296021,0.972222208976746,2011-12-20 11:05:44
1.01415801048279,11,-29.0511360168457,0.309917360544205,0.374827772378922,0.863636374473572,-1.29545450210571,0.384297519922256,0.486384868621826,0.954545438289642,-10.6306819915771,0.471074372529984,0.523221135139465,0.818181812763214,2011-12-20 11:05:45
1.0144350528717,10,-29.4375,0.349999994039536,0.433012694120407,0.75,-1.25,0.5,0.591607987880707,1,-10.7124996185303,0.300000011920929,0.339116513729095,0.600000023841858,2011-12-20 11:05:46
1.01408696174622,11,-29.2102279663086,0.256198346614838,0.360784262418747,0.772727251052856,-1.70454549789429,0.148760333657265,0.178954720497131,0.295454531908035,-10.4943180084229,0.256198346614838,0.303219646215439,0.568181812763214,2011-12-20 11:05:47
1.01487004756927,11,-28.7784099578857,0.280991733074188,0.341665834188461,0.659090936183929,-1.31818187236786,0.380165278911591,0.465770483016968,0.931818187236786,-10.6079549789429,0.367768585681915,0.462431579828262,0.795454561710358,2011-12-20 11:05:48
1.01423501968384,11,-28.8693180084229,0.483471065759659,0.53396999835968,0.818181812763214,-1.38636362552643,0.190082639455795,0.222680881619453,0.386363625526428,-10.4034090042114,0.458677679300308,0.546400666236877,1.09090912342072,2011-12-20 11:05:49
1.01530802249908,10,-29.4624996185303,0.185000002384186,0.235849529504776,0.474999994039536,-1.17499995231628,0.224999994039536,0.251246899366379,0.425000011920929,-10.6125001907349,0.300000011920929,0.349999994039536,0.550000011920929,2011-12-20 11:05:50
1.01362705230713,10,-28.9624996185303,0.180000007152557,0.207665592432022,0.275000005960464,-1.57500004768372,0.254999995231628,0.31721442937851,0.574999988079071,-10.3374996185303,0.284999996423721,0.343693166971207,0.524999976158142,2011-12-20 11:05:51
1.11656999588013,10,-28.9375,0.400000005960464,0.460977226495743,0.75,-1.82500004768372,0.439999997615814,0.500624597072601,0.824999988079071,-10.6125001907349,0.310000002384186,0.349999994039536,0.550000011920929,2011-12-20 11:05:52
1.01409602165222,9,-29.0763893127441,0.37654322385788,0.426730304956436,0.638888895511627,-1.19444441795349,0.395061731338501,0.453041851520538,0.694444417953491,-10.3958330154419,0.407407402992249,0.456435471773148,0.833333313465118,2011-12-20 11:05:53
1.01406395435333,11,-29.4602279663086,0.206611573696136,0.224988520145416,0.272727280855179,-1.38636362552643,0.351239681243896,0.389691561460495,0.636363625526428,-10.7443180084229,0.561983466148376,0.613215327262878,0.818181812763214,2011-12-20 11:05:54
1.01455295085907,9,-28.9930553436279,0.296296298503876,0.349161267280579,0.694444417953491,-1.25,0.277777791023254,0.31180477142334,0.5,-10.9236106872559,0.209876537322998,0.238953486084938,0.388888895511627,2011-12-20 11:05:55
1.10749697685242,11,-28.8238639831543,0.214876025915146,0.268912702798843,0.613636374473572,-1.22727274894714,0.165289252996445,0.198131769895554,0.272727280855179,-10.8806819915771,0.144628092646599,0.187413886189461,0.431818187236786,2011-12-20 11:05:56
1.01371002197266,9,-29.0763893127441,0.209876537322998,0.238953486084938,0.388888895511627,-1.27777779102325,0.154320985078812,0.248451992869377,0.527777791023254,-11.0069446563721,0.141975313425064,0.196418553590775,0.444444447755814,2011-12-20 11:05:57
1.01497602462769,11,-29.3011360168457,0.396694213151932,0.444200456142426,0.636363625526428,-1.43181812763214,0.190082639455795,0.263087213039398,0.681818187236786,-11.1761360168457,0.417355358600616,0.46908563375473,0.886363625526428,2011-12-20 11:05:58
1.01396703720093,10,-29.0874996185303,0.349999994039536,0.390512496232986,0.649999976158142,-1.125,0.324999988079071,0.375,0.625,-10.5375003814697,0.430000007152557,0.49307706952095,0.774999976158142,2011-12-20 11:05:59
1.01416194438934,10,-29.1625003814697,0.185000002384186,0.235849529504776,0.474999994039536,-0.774999976158142,0.330000013113022,0.394493341445923,0.725000023841858,-10.3625001907349,0.449999988079071,0.556776463985443,1.04999995231628,2011-12-20 11:06:00
1.01484596729279,9,-29.6041660308838,0.314814805984497,0.353553384542465,0.666666686534882,-1.30555558204651,0.240740746259689,0.283278852701187,0.444444447755814,-10.2569446563721,0.370370358228683,0.468119442462921,1.05555558204651,2011-12-20 11:06:01
1.01371204853058,10,-28.5125007629395,0.389999985694885,0.4337337911129,0.675000011920929,-1.5,0.300000011920929,0.335410207509995,0.5,-10.6625003814697,0.389999985694885,0.463680922985077,0.899999976158142,2011-12-20 11:06:02
1.01437199115753,9,-29.0208339691162,0.407407402992249,0.485912650823593,0.833333313465118,-1.58333337306976,0.148148149251938,0.16666667163372,0.333333343267441,-11.090277671814,0.259259253740311,0.321551024913788,0.527777791023254,2011-12-20 11:06:03
1.01398003101349,8,-29.0625,0.3125,0.41457810997963,0.875,-1.5625,0.15625,0.207289054989815,0.4375,-10.96875,0.21875,0.277756065130234,0.59375,2011-12-20 11:06:04
1.01375305652618,8,-28.3125,0.28125,0.353553384542465,0.625,-1.5625,0.296875,0.324759513139725,0.5625,-10.65625,0.1796875,0.214239209890366,0.40625,2011-12-20 11:06:05
1.0148229598999,9,-28.7986106872559,0.345679014921188,0.374742716550827,0.638888895511627,-1.02777779102325,0.641975283622742,0.681546926498413,0.972222208976746,-11.1458330154419,0.111111111938953,0.117851130664349,0.16666667163372,2011-12-20 11:06:06
1.01353204250336,9,-29.2986106872559,0.37654322385788,0.442704916000366,0.861111104488373,-1.47222220897675,0.259259253740311,0.342467457056046,0.722222208976746,-10.7013893127441,0.290123462677002,0.355729132890701,0.638888895511627,2011-12-20 11:06:07
1.01423799991608,9,-28.6597213745117,0.148148149251938,0.184256926178932,0.277777791023254,-0.805555582046509,0.185185179114342,0.229061424732208,0.444444447755814,-10.6736106872559,0.179012343287468,0.207869857549667,0.388888895511627,2011-12-20 11:06:08
1.01449704170227,11,-28.6647720336914,0.214876025915146,0.270826697349548,0.477272719144821,-1.65909087657928,0.17768594622612,0.220349088311195,0.409090906381607,-10.4715909957886,0.524793386459351,0.624069571495056,1.09090912342072,2011-12-20 11:06:09
1.01496803760529,9,-28.7986106872559,0.234567895531654,0.266435086727142,0.388888895511627,-1.52777779102325,0.209876537322998,0.27498596906662,0.472222208976746,-10.1458330154419,0.148148149251938,0.16666667163372,0.333333343267441,2011-12-20 11:06:10
1.01388204097748,11,-29.0511360168457,0.376033067703247,0.417835831642151,0.636363625526428,-1.52272725105286,0.293388426303864,0.344676166772842,0.772727251052856,-10.5852270126343,0.342975199222565,0.391014784574509,0.727272748947144,2011-12-20 11:06:11
1.01374697685242,10,-28.6375007629395,0.259999990463257,0.312249898910522,0.550000011920929,-1.29999995231628,0.360000014305115,0.430116266012192,0.800000011920929,-10.3125,0.400000005960464,0.460977226495743,0.75,2011-12-20 11:06:12
1.01440298557281,11,-28.8465900421143,0.520661175251007,0.576753497123718,0.840909063816071,-1.61363637447357,0.210743799805641,0.268912702798843,0.636363625526428,-10.4261360168457,0.46694216132164,0.526174426078796,0.863636374473572,2011-12-20 11:06:13
1.10664701461792,9,-28.9097213745117,0.419753074645996,0.506135225296021,1.02777779102325,-2.11111116409302,0.234567895531654,0.266435086727142,0.388888895511627,-10.8958330154419,0.314814805984497,0.353553384542465,0.583333313465118,2011-12-20 11:06:14
1.01626300811768,11,-29.0511360168457,0.214876025915146,0.246881380677223,0.386363625526428,-1.77272725105286,0.392561972141266,0.470185488462448,0.772727251052856,-10.4943180084229,0.483471065759659,0.554843425750732,1.06818187236786,2011-12-20 11:06:15
1.29228794574738,11,-28.7784099578857,0.280991733074188,0.341665834188461,0.659090936183929,-1.27272725105286,0.396694213151932,0.482118248939514,0.977272748947144,-10.7670450210571,0.421487599611282,0.486384868621826,0.954545438289642,2011-12-20 11:06:17
1.01485395431519,11,-29.3238639831543,0.190082639455795,0.222680881619453,0.386363625526428,-1.59090912342072,0.520661175251007,0.576753497123718,1.09090912342072,-10.7443180084229,0.471074372529984,0.53396999835968,0.818181812763214,2011-12-20 11:06:18
1.01434803009033,10,-28.8374996185303,0.300000011920929,0.320156216621399,0.400000005960464,-0.649999976158142,0.419999986886978,0.489897936582565,0.899999976158142,-10.3874998092651,0.474999994039536,0.548292815685272,0.824999988079071,2011-12-20 11:06:19
1.01427495479584,11,-28.6193180084229,0.256198346614838,0.303219646215439,0.568181812763214,-0.863636374473572,0.305785119533539,0.343174278736115,0.613636374473572,-10.9034090042114,0.16115702688694,0.192847296595573,0.409090906381607,2011-12-20 11:06:20
1.01406002044678,10,-29.2124996185303,0.180000007152557,0.207665592432022,0.275000005960464,-1,0.150000005960464,0.193649172782898,0.25,-10.1374998092651,0.224999994039536,0.275000005960464,0.574999988079071,2011-12-20 11:06:21
1.01452195644379,10,-29.1124992370605,0.310000002384186,0.336340606212616,0.574999988079071,-0.425000011920929,0.425000011920929,0.500624597072601,0.824999988079071,-9.98750019073486,0.28999999165535,0.388104379177094,0.824999988079071,2011-12-20 11:06:22
1.0148960351944,11,-28.8465900421143,0.371900826692581,0.443036109209061,0.840909063816071,-1.18181812763214,0.289256185293198,0.338628739118576,0.568181812763214,-10.5397729873657,0.305785119533539,0.405285328626633,0.977272748947144,2011-12-20 11:06:23
1.01363503932953,8,-29.0625,0.34375,0.433012694120407,0.875,-0.84375,0.1953125,0.214239209890366,0.34375,-10.25,0.28125,0.34798526763916,0.6875,2011-12-20 11:06:24
1.01493203639984,11,-29.0284099578857,0.144628092646599,0.160706087946892,0.340909093618393,-1.34090912342072,0.446280986070633,0.566816568374634,1.09090912342072,-10.1306819915771,0.380165278911591,0.477813541889191,1.06818187236786,2011-12-20 11:06:25
1.01392197608948,9,-29.7708339691162,0.388888895511627,0.5,1.08333337306976,-1.72222220897675,0.419753074645996,0.545746743679047,1.02777779102325,-10.4236106872559,0.345679014921188,0.374742716550827,0.638888895511627,2011-12-20 11:06:26
1.0154310464859,11,-29.1875,0.272727280855179,0.301511347293854,0.5,-1.54545450210571,0.413223147392273,0.486384868621826,0.795454561710358,-10.2670450210571,0.285123974084854,0.350619286298752,0.704545438289642,2011-12-20 11:06:27
1.10688197612762,9,-29.3541660308838,0.333333343267441,0.424918293952942,0.916666686534882,-0.777777791023254,0.203703701496124,0.27498596906662,0.527777791023254,-10.3125,0.5,0.634647786617279,1.25,2011-12-20 11:06:28
1.01457500457764,10,-29.6875,0.400000005960464,0.433012694120407,0.75,-0.850000023841858,0.349999994039536,0.390512496232986,0.649999976158142,-10.4375,0.25,0.279508501291275,0.375,2011-12-20 11:06:29
1.01441204547882,11,-29.5284099578857,0.268595039844513,0.357909440994263,0.659090936183929,-1.38636362552643,0.285123974084854,0.326197743415833,0.613636374473572,-10.5852270126343,0.206611573696136,0.224988520145416,0.272727280855179,2011-12-20 11:06:30
1.01477003097534,10,-29.7374992370605,0.209999993443489,0.244948968291283,0.449999988079071,-1.07500004768372,0.209999993443489,0.224999994039536,0.324999988079071,-10.0124998092651,0.219999998807907,0.269258230924606,0.449999988079071,2011-12-20 11:06:31
1.01434099674225,11,-29.8238639831543,0.285123974084854,0.343174278736115,0.636363625526428,-0.636363625526428,0.280991733074188,0.326197743415833,0.613636374473572,-10.3352270126343,0.351239681243896,0.457941859960556,0.772727251052856,2011-12-20 11:06:32
1.01402497291565,8,-29.34375,0.1796875,0.214239209890366,0.40625,-0.53125,0.28125,0.317152857780457,0.53125,-10.0625,0.25,0.306186228990555,0.5,2011-12-20 11:06:33
1.01390898227692,10,-29.5125007629395,0.140000000596046,0.160078108310699,0.324999988079071,-0.725000023841858,0.280000001192093,0.343693166971207,0.524999976158142,-10.6125001907349,0.46000000834465,0.600000023841858,1.20000004768372,2011-12-20 11:06:34
1.01487803459167,8,-29.34375,0.15625,0.17399263381958,0.34375,-0.84375,0.21875,0.248039186000824,0.40625,-10.28125,0.3359375,0.440835505723953,1.03125,2011-12-20 11:06:35
1.01431202888489,11,-29.6875,0.318181812763214,0.369274467229843,0.5,-1.04545450210571,0.285123974084854,0.350619286298752,0.704545438289642,-10.3579549789429,0.450413227081299,0.520251035690308,0.795454561710358,2011-12-20 11:06:36
1.01611602306366,9,-29.4930553436279,0.407407402992249,0.48272630572319,0.944444417953491,-1.25,0.444444447755814,0.513701140880585,0.75,-10.6458330154419,0.314814805984497,0.372677981853485,0.666666686534882,2011-12-20 11:06:37
1.01450204849243,11,-29.4147720336914,0.524793386459351,0.60729044675827,1.02272725105286,-1,0.409090906381607,0.452267020940781,0.75,-10.2443180084229,0.144628092646599,0.187413886189461,0.431818187236786,2011-12-20 11:06:38
1.01854503154755,10,-29.4375,0.300000011920929,0.37080991268158,0.75,-1.52499997615814,0.180000007152557,0.235849529504776,0.524999976158142,-10.1374998092651,0.275000005960464,0.31721442937851,0.574999988079071,2011-12-20 11:06:39
1.01150500774384,9,-29.8541660308838,0.203703701496124,0.235702261328697,0.416666656732559,-0.75,0.388888895511627,0.527046263217926,1,-10.2291669845581,0.537037014961243,0.61237245798111,0.916666686534882,2011-12-20 11:06:40
1.01440501213074,11,-29.8920459747314,0.157024800777435,0.208298891782761,0.454545468091965,-0.204545453190804,0.194214880466461,0.257129728794098,0.545454561710358,-10.2897729873657,0.260330587625504,0.32777738571167,0.727272748947144,2011-12-20 11:06:41
1.01515996456146,9,-29.3541660308838,0.296296298503876,0.333333343267441,0.583333313465118,-1.36111116409302,0.203703701496124,0.238953486084938,0.388888895511627,-9.95138931274414,0.265432089567184,0.291335791349411,0.388888895511627,2011-12-20 11:06:42
1.01393795013428,11,-30.3920459747314,0.504132211208344,0.629016041755676,1.04545450210571,-1,0.409090906381607,0.5,1,-10.2670450210571,0.285123974084854,0.350619286298752,0.545454561710358,2011-12-20 11:06:43
1.01447403430939,9,-30.1597213745117,0.253086417913437,0.398686110973358,1.02777779102325,-0.444444447755814,0.339506179094315,0.404450535774231,0.805555582046509,-9.72916698455811,0.425925940275192,0.5,0.916666686534882,2011-12-20 11:06:44
1.01494002342224,11,-29.7102279663086,0.570247948169708,0.67801970243454,1.02272725105286,-1.18181812763214,0.380165278911591,0.453407675027847,0.818181812763214,-10.0170450210571,0.404958665370941,0.474559396505356,0.795454561710358,2011-12-20 11:06:45
1.01531803607941,10,-29.6875,0.349999994039536,0.387298345565796,0.75,-0.949999988079071,0.319999992847443,0.400000005960464,0.699999988079071,-10.0124998092651,0.270000010728836,0.367423474788666,0.949999988079071,2011-12-20 11:06:46
1.01508498191833,11,-29.3693180084229,0.392561972141266,0.427611082792282,0.681818187236786,-0.727272748947144,0.71074378490448,0.875516355037689,1.52272725105286,-9.63068199157715,0.301652878522873,0.338628739118576,0.681818187236786,2011-12-20 11:06:47
1.01448798179626,10,-29.7374992370605,0.46000000834465,0.522015333175659,0.800000011920929,-1,0.449999988079071,0.536190271377563,1,-9.61250019073486,0.259999990463257,0.312249898910522,0.699999988079071,2011-12-20 11:06:48
1.01445496082306,11,-29.8238639831543,0.376033067703247,0.444200456142426,0.863636374473572,-0.795454561710358,0.231404960155487,0.257129728794098,0.454545468091965,-9.60795497894287,0.285123974084854,0.350619286298752,0.704545438289642,2011-12-20 11:06:49
1.01498401165009,9,-29.5763893127441,0.179012343287468,0.207869857549667,0.388888895511627,-0.611111104488373,0.290123462677002,0.314269691705704,0.388888895511627,-9.42361068725586,0.203703701496124,0.238953486084938,0.388888895511627,2011-12-20 11:06:50
1.01436495780945,11,-29.2784099578857,0.400826454162598,0.455680400133133,0.840909063816071,-0.863636374473572,0.173553720116615,0.195507392287254,0.363636374473572,-9.13068199157715,0.235537186264992,0.303219646215439,0.681818187236786,2011-12-20 11:06:51
1.01455104351044,11,-29.1875,0.181818187236786,0.238365650177002,0.5,-1.18181812763214,0.913223147392273,1.09798836708069,2.56818175315857,-10.0625,1.18181812763214,1.30122315883636,2,2011-12-20 11:06:52
1.0158269405365,9,-28.8263893127441,0.209876537322998,0.238953486084938,0.388888895511627,-6.55555534362793,1.12962961196899,1.55357015132904,2.94444441795349,-8.70138931274414,1.62345683574677,1.89566802978516,3.07638883590698,2011-12-20 11:06:53
1.01458203792572,11,-30.5284099578857,0.458677679300308,0.535901188850403,1.09090912342072,-2.97727274894714,3.02066111564636,3.55229520797729,6.52272748947144,-3.125,0.772727251052856,0.913130223751068,1.5,2011-12-20 11:06:54
1.01488101482391,9,-29.5208339691162,0.370370358228683,0.40824830532074,0.666666686534882,2.5,0.444444447755814,0.5,0.75,-5.15277767181396,1.0246913433075,1.11457788944244,1.77777779102325,2011-12-20 11:06:55
1.01447701454163,11,-28.7556819915771,0.256198346614838,0.321412175893784,0.681818187236786,1.56818187236786,0.268595039844513,0.321412175893784,0.681818187236786,-9.0511360168457,0.60537189245224,0.808696568012238,1.92613637447357,2011-12-20 11:06:56
1.10862994194031,9,-28.4652786254883,0.425925940275192,0.51967465877533,0.972222208976746,1.30555558204651,0.172839507460594,0.196418553590775,0.305555552244186,-9.36805534362793,0.296296298503876,0.404450535774231,0.805555582046509,2011-12-20 11:06:58
1.01404201984406,11,-29.8920459747314,0.475206613540649,0.629016041755676,1.45454549789429,-0.340909093618393,0.809917330741882,1.04594850540161,2.59090900421143,-8.3863639831543,2.6487603187561,3.21305680274963,6.61363649368286,2011-12-20 11:06:59
1.0158599615097,9,-30.3819446563721,0.870370388031006,0.977367341518402,1.55555558204651,8.66666698455811,1.40740740299225,1.90394330024719,4.41666650772095,-19.7638893127441,1.89814817905426,2.41285228729248,5.51388883590698,2011-12-20 11:07:00
1.01842796802521,11,-18.9147720336914,5.56198358535767,6.40707588195801,11.5227270126343,21.1818180084229,3.66528916358948,4.28274917602539,7.93181800842285,-15.3409090042114,2.53719019889832,2.80907154083252,3.90909099578857,2011-12-20 11:07:01
1.20288705825806,11,-15.5965909957886,2.07024788856506,2.43149948120117,5.15909099578857,5.90909099578857,5.35537195205688,5.99646949768066,9.84090900421143,-7.30113649368286,6.42148780822754,7.07913970947266,13.3011360168457,2011-12-20 11:07:02
1.01487994194031,11,-8.5511360168457,0.417355358600616,0.547345221042633,1.38636362552643,2.90909099578857,1.5991735458374,1.80992448329926,3.15909099578857,6.86363649368286,0.603305757045746,0.685595571994781,1.13636362552643,2011-12-20 11:07:03
1.01516497135162,11,-10.5511360168457,1.08264458179474,1.17436456680298,2.11363625526428,0.727272748947144,1.74793386459351,2.07926607131958,3.77272725105286,4.08522748947144,2.14979338645935,2.46902298927307,3.66477274894714,2011-12-20 11:07:04
1.01590597629547,9,-14.3263893127441,1.15432095527649,1.23665714263916,1.88888883590698,0.277777791023254,1.26543211936951,1.66017258167267,3.72222232818604,4.86111116409302,2.31790113449097,2.82655096054077,4.82638883590698,2011-12-20 11:07:05
1.01509201526642,11,-14.0738639831543,2.23966932296753,2.34850931167603,3.11363625526428,-7.43181800842285,4.93801641464233,5.28837823867798,7.68181800842285,11.1136360168457,1.45144629478455,1.64126873016357,3.01136374473572,2011-12-20 11:07:06
1.01595497131348,11,-8.48295497894287,1.03305780887604,1.26947641372681,2.54545450210571,-13.75,5.13636350631714,5.6306791305542,8.75,8.7386360168457,3.38739681243896,3.95687127113342,6.67613649368286,2011-12-20 11:07:07
1.01521801948547,11,-6.61931800842285,0.495867758989334,0.613215327262878,1.18181812763214,-9.72727298736572,3.70247936248779,4.47398376464844,10.0227270126343,-1.57386362552643,5.98760318756104,6.7335033416748,12.2613639831543,2011-12-20 11:07:08
1.01522994041443,9,-5.54861116409302,1.62962961196899,2.07200622558594,4.36111116409302,-20.6944446563721,7.97530841827393,9.74592304229736,20.1944446563721,3.79861116409302,6.415123462677,7.01311874389648,9.88888931274414,2011-12-20 11:07:09
1.01856899261475,11,-6.30113649368286,3.10330581665039,3.51839900016785,5.61363649368286,-7.95454549789429,4.77685928344727,5.41548490524292,9.45454502105713,-13.3409090042114,4.17871904373169,5.80050468444824,14.1534090042114,2011-12-20 11:07:10
1.01595997810364,10,-11.5124998092651,1.00999999046326,1.15135788917542,1.82500004768372,-5.82499980926514,4.27500009536743,4.64495706558228,6.82499980926514,-11.3625001907349,6.33500003814697,7.3322811126709,13.7624998092651,2011-12-20 11:07:11
1.01753103733063,11,-10.6875,1.95454549789429,2.14264059066772,3.5,-13.2954549789429,5.04132223129272,5.44165134429932,7.79545450210571,-2.80113625526428,7.65392541885376,9.13685512542725,20.3863639831543,2011-12-20 11:07:12
1.01575696468353,11,-0.755681812763214,2.58677697181702,3.00584840774536,6.43181800842285,-6.15909099578857,1.08264458179474,1.44706881046295,3.34090900421143,-0.965909063816071,2.97933888435364,3.26584458351135,4.90909099578857,2011-12-20 11:07:13
1.01498305797577,9,-0.993055582046509,1.67283952236176,1.92490184307098,3.19444441795349,-13.3333330154419,1.46296298503876,1.62018513679504,2.33333325386047,-1.84027779102325,1.04629623889923,1.24795353412628,2.40277767181396,2011-12-20 11:07:14
1.01963400840759,11,-7.30113649368286,1.69421482086182,1.9521656036377,3.61363625526428,-11.0227270126343,1.57024788856506,1.8782684803009,3.77272725105286,2.77272725105286,2.75619840621948,3.30850672721863,5.89772748947144,2011-12-20 11:07:15
1.01625597476959,10,-2.3125,0.975000023841858,1.26119983196259,2.875,-11.1000003814697,3.67000007629395,4.40340757369995,8.39999961853027,2.23125004768372,2.65249991416931,3.05816650390625,6.20625019073486,2011-12-20 11:07:16
1.01542901992798,11,-2.1875,3.09090900421143,3.55156826972961,5.75,-15.1363639831543,3.62396693229675,4.23374366760254,6.63636350631714,5.94318199157715,1.83677685260773,2.30803537368774,3.99431824684143,2011-12-20 11:07:17
1.01468098163605,11,-7.39204549789429,0.376033067703247,0.437167823314667,0.704545438289642,-4.5,1.72727274894714,1.96850192546844,3.5,3.81818175315857,1.84710741043091,2.05248165130615,3.18181824684143,2011-12-20 11:07:18
1.01698994636536,10,-5.11250019073486,1.36000001430511,1.56544721126556,2.32500004768372,-15.6000003814697,2.25999999046326,2.98998332023621,7.09999990463257,16.0499992370605,4.59000015258789,5.55356025695801,11.5500001907349,2011-12-20 11:07:19
1.01442205905914,11,-8.1875,1.27272725105286,1.38580465316772,2,-19.6136360168457,1.28099179267883,1.68672502040863,3.86363625526428,5.11363649368286,3.45351243019104,4.71049785614014,9.4886360168457,2011-12-20 11:07:20
1.01462697982788,10,-7.26249980926514,1.14499998092651,1.49185287952423,3.82500004768372,-9.17500019073486,1.625,1.91066086292267,4.07499980926514,-6.97499990463257,2.19749999046326,2.63542580604553,5.53749990463257,2011-12-20 11:07:21
1.0162980556488,11,2.85795450210571,2.4504132270813,2.82404088973999,5.04545450210571,-2,5.36363649368286,5.91223669052124,9,-7.125,3.22727274894714,3.56852555274963,5.9375,2011-12-20 11:07:22
1.01619803905487,10,-1.11249995231628,1.63999998569489,1.92370080947876,2.82500004768372,9.44999980926514,1.44000005722046,1.66883194446564,2.79999995231628,-21.7562503814697,3.48000001907349,4.14657688140869,7.75624990463257,2011-12-20 11:07:23
1.0153089761734,11,-3.34659099578857,0.950413227081299,1.27596986293793,2.40909099578857,7.34090900421143,4.61157035827637,5.33989334106445,9.84090900421143,-25.6079540252686,2.47004127502441,2.69127511978149,3.76704549789429,2011-12-20 11:07:24
1.01579797267914,9,-4.79861116409302,1.62962961196899,1.93330144882202,3.36111116409302,4.77777767181396,4.86419773101807,5.13761234283447,6.77777767181396,-18.3194446563721,2.58796286582947,3.10751271247864,4.86805534362793,2011-12-20 11:07:25
1.01638495922089,11,-5.46022748947144,1.97107434272766,2.30969929695129,4.77272748947144,3.65909099578857,1.4008264541626,1.74926197528839,3.34090900421143,-16.8806819915771,3.79028916358948,4.29715251922607,6.31818199157715,2011-12-20 11:07:26
1.10919797420502,10,0.962499976158142,2.09999990463257,2.32163739204407,3.40000009536743,12,3.29999995231628,3.90192270278931,7.25,-10.3374996185303,0.834999978542328,1.10368704795837,2.72499990463257,2011-12-20 11:07:27
