"diffSecs","latitude","longitude","altitude","time"
67.3949999809265,42.37212909,-70.99525123,-7.80000019073486,2011-12-18 17:01:20
48.010999917984,42.37212908,-70.99525123,-7.80000019073486,2011-12-18 17:02:08
0.960999965667725,42.37212907,-70.99525124,-7.80000019073486,2011-12-18 17:02:09
1.00500011444092,42.37212907,-70.99525124,-7.80000019073486,2011-12-18 17:02:10
0.996999979019165,42.37212907,-70.99525123,-7.80000019073486,2011-12-18 17:02:11
0.997999906539917,42.37212908,-70.99525123,-7.80000019073486,2011-12-18 17:02:12
1.01500010490417,42.37212908,-70.99525122,-7.80000019073486,2011-12-18 17:02:13
0.979000091552734,42.3721291,-70.9952512,-7.80000019073486,2011-12-18 17:02:14
1.00599980354309,42.3721291,-70.9952512,-7.80000019073486,2011-12-18 17:02:15
1.00200009346008,42.3721291,-70.99525119,-7.80000019073486,2011-12-18 17:02:16
1.00399994850159,42.3721291,-70.99525119,-7.80000019073486,2011-12-18 17:02:17
1.00300002098083,42.3721291,-70.99525119,-7.80000019073486,2011-12-18 17:02:18
0.983999967575073,42.3721291,-70.99525119,-7.80000019073486,2011-12-18 17:02:19
1.00800013542175,42.3721291,-70.99525119,-7.80000019073486,2011-12-18 17:02:20
0.994999885559082,42.3721291,-70.99525119,-7.80000019073486,2011-12-18 17:02:21
0.996999979019165,42.37212911,-70.99525119,-7.80000019073486,2011-12-18 17:02:22
1.01500010490417,42.37212911,-70.99525119,-7.80000019073486,2011-12-18 17:02:23
0.986999988555908,42.37212911,-70.99525119,-7.80000019073486,2011-12-18 17:02:24
1,42.37212911,-70.99525119,-7.80000019073486,2011-12-18 17:02:25
1.00099992752075,42.37212911,-70.99525119,-7.80000019073486,2011-12-18 17:02:26
1.03400015830994,42.37212911,-70.99525119,-7.80000019073486,2011-12-18 17:02:27
0.964999914169312,42.37212911,-70.99525119,-7.80000019073486,2011-12-18 17:02:28
1.00399994850159,42.3721291,-70.9952512,-7.80000019073486,2011-12-18 17:02:29
1,42.3721291,-70.9952512,-7.80000019073486,2011-12-18 17:02:30
1,42.37212911,-70.99525119,-7.80000019073486,2011-12-18 17:02:31
0.999000072479248,42.37212911,-70.99525118,-7.80000019073486,2011-12-18 17:02:32
1.00999999046326,42.37212915,-70.9952511,-7.80000019073486,2011-12-18 17:02:33
0.990999937057495,42.37212921,-70.99525098,-7.80000019073486,2011-12-18 17:02:34
0.999000072479248,42.37212921,-70.99525099,-7.80000019073486,2011-12-18 17:02:35
1.00600004196167,42.3721292,-70.99525099,-7.80000019073486,2011-12-18 17:02:36
0.995999813079834,42.37212921,-70.99525099,-7.80000019073486,2011-12-18 17:02:37
0.996000051498413,42.37212921,-70.99525098,-7.80000019073486,2011-12-18 17:02:38
1.10599994659424,42.37212921,-70.99525098,-7.80000019073486,2011-12-18 17:02:39
0.897000074386597,42.37212921,-70.99525098,-7.80000019073486,2011-12-18 17:02:40
1.00200009346008,42.37212921,-70.99525097,-7.80000019073486,2011-12-18 17:02:41
1.01899981498718,42.37212922,-70.99525096,-7.80000019073486,2011-12-18 17:02:42
1.0090000629425,42.37212923,-70.99525096,-7.80000019073486,2011-12-18 17:02:43
0.999000072479248,42.37212924,-70.99525094,-7.80000019073486,2011-12-18 17:02:44
0.994999885559082,42.37212924,-70.99525093,-7.80000019073486,2011-12-18 17:02:45
1.007000207901,42.37212924,-70.99525093,-7.80000019073486,2011-12-18 17:02:46
0.998999834060669,42.37212924,-70.99525093,-7.80000019073486,2011-12-18 17:02:47
0.990999937057495,42.37212925,-70.99525093,-7.80000019073486,2011-12-18 17:02:48
1.02900004386902,42.37212925,-70.99525092,-7.80000019073486,2011-12-18 17:02:49
0.976999998092651,42.37212924,-70.99525092,-7.80000019073486,2011-12-18 17:02:50
0.973000049591064,42.37212924,-70.99525092,-7.80000019073486,2011-12-18 17:02:51
0.998000144958496,42.3721292,-70.99525093,-7.80000019073486,2011-12-18 17:02:52
1.00299978256226,42.37212917,-70.99525094,-7.80000019073486,2011-12-18 17:02:53
1.06300020217896,42.37212916,-70.99525094,-7.80000019073486,2011-12-18 17:02:54
0.936999797821045,42.37212915,-70.99525095,-7.80000019073486,2011-12-18 17:02:55
1.01600003242493,42.37212915,-70.99525095,-7.80000019073486,2011-12-18 17:02:56
0.992000102996826,42.37212915,-70.99525095,-7.80000019073486,2011-12-18 17:02:57
0.991999864578247,42.37212916,-70.99525094,-7.80000019073486,2011-12-18 17:02:58
1.0550000667572,42.37212916,-70.99525094,-7.80000019073486,2011-12-18 17:02:59
0.940000057220459,42.37212916,-70.99525094,-7.80000019073486,2011-12-18 17:03:00
1.00499987602234,42.37212915,-70.99525094,-7.80000019073486,2011-12-18 17:03:01
1.00400018692017,42.37212915,-70.99525094,-7.80000019073486,2011-12-18 17:03:02
0.998999834060669,42.37212915,-70.99525094,-7.80000019073486,2011-12-18 17:03:03
0.996999979019165,42.37212915,-70.99525093,-7.80000019073486,2011-12-18 17:03:04
1.00300002098083,42.37212916,-70.99525092,-7.80000019073486,2011-12-18 17:03:05
1.09000015258789,42.37212916,-70.99525092,-7.80000019073486,2011-12-18 17:03:06
0.904999971389771,42.37212916,-70.99525091,-7.80000019073486,2011-12-18 17:03:07
1.00099992752075,42.37212916,-70.99525091,-7.80000019073486,2011-12-18 17:03:08
1.00300002098083,42.37212917,-70.9952509,-7.80000019073486,2011-12-18 17:03:09
1.01099991798401,42.37212917,-70.9952509,-7.80000019073486,2011-12-18 17:03:10
0.990000009536743,42.37212917,-70.99525089,-7.80000019073486,2011-12-18 17:03:11
1.00100016593933,42.37212917,-70.99525089,-7.80000019073486,2011-12-18 17:03:12
0.998999834060669,42.37212917,-70.99525089,-7.80000019073486,2011-12-18 17:03:13
1.01200008392334,42.37212917,-70.99525089,-7.80000019073486,2011-12-18 17:03:14
0.983999967575073,42.37212917,-70.99525089,-7.80000019073486,2011-12-18 17:03:15
1.15199995040894,42.37212919,-70.99525086,-7.80000019073486,2011-12-18 17:03:16
0.854000091552734,42.37212921,-70.99525084,-7.80000019073486,2011-12-18 17:03:17
0.997999906539917,42.37212927,-70.99525075,-7.80000019073486,2011-12-18 17:03:18
0.998000144958496,42.3721293,-70.99525069,-7.80000019073486,2011-12-18 17:03:19
0.996999979019165,42.3721294,-70.99525055,-7.80000019073486,2011-12-18 17:03:20
1.00600004196167,42.37212944,-70.99525049,-7.80000019073486,2011-12-18 17:03:21
1.00499987602234,42.37212948,-70.99525043,-7.80000019073486,2011-12-18 17:03:22
0.989000082015991,42.37212954,-70.99525032,-7.80000019073486,2011-12-18 17:03:23
1,42.37212957,-70.99525028,-7.80000019073486,2011-12-18 17:03:24
1,42.37212959,-70.99525024,-7.80000019073486,2011-12-18 17:03:25
1.00399994850159,42.37212959,-70.99525023,-7.80000019073486,2011-12-18 17:03:26
1.00999999046326,42.3721296,-70.99525022,-7.80000019073486,2011-12-18 17:03:27
0.98799991607666,42.37212961,-70.99525021,-7.80000019073486,2011-12-18 17:03:28
1.05599999427795,42.37212962,-70.99525019,-7.80000019073486,2011-12-18 17:03:29
0.945000171661377,42.37212962,-70.99525018,-7.80000019073486,2011-12-18 17:03:30
1.1729998588562,42.37212963,-70.99525016,-7.80000019073486,2011-12-18 17:03:31
0.825999975204468,42.37212966,-70.99525013,-7.80000019073486,2011-12-18 17:03:32
0.999000072479248,42.37212971,-70.99525006,-7.80000019073486,2011-12-18 17:03:33
0.996999979019165,42.37212972,-70.99525005,-7.80000019073486,2011-12-18 17:03:34
1.00300002098083,42.37212973,-70.99525004,-7.80000019073486,2011-12-18 17:03:35
1.08299994468689,42.37212975,-70.99525002,-7.80000019073486,2011-12-18 17:03:36
0.91700005531311,42.37212975,-70.99525001,-7.80000019073486,2011-12-18 17:03:37
0.999000072479248,42.37212975,-70.99525001,-7.80000019073486,2011-12-18 17:03:38
1.00399994850159,42.37212975,-70.99525001,-7.80000019073486,2011-12-18 17:03:39
0.996000051498413,42.37212976,-70.99525,-7.80000019073486,2011-12-18 17:03:40
0.994999885559082,42.37212975,-70.99525,-7.80000019073486,2011-12-18 17:03:41
1.00500011444092,42.37212976,-70.99525,-7.80000019073486,2011-12-18 17:03:42
1.13100004196167,42.37212976,-70.99525,-7.80000019073486,2011-12-18 17:03:43
0.863999843597412,42.37212976,-70.99525,-7.80000019073486,2011-12-18 17:03:44
1.01100015640259,42.37212976,-70.99525,-7.80000019073486,2011-12-18 17:03:45
0.985999822616577,42.37212976,-70.99525,-7.80000019073486,2011-12-18 17:03:46
1.00400018692017,42.37212976,-70.99524999,-7.80000019073486,2011-12-18 17:03:47
0.995999813079834,42.37212976,-70.99524999,-7.80000019073486,2011-12-18 17:03:48
1.00300002098083,42.37212976,-70.99524999,-7.80000019073486,2011-12-18 17:03:49
1.00200009346008,42.37212976,-70.99524999,-7.80000019073486,2011-12-18 17:03:50
0.996999979019165,42.37212976,-70.99524999,-7.80000019073486,2011-12-18 17:03:51
1.00600004196167,42.37212976,-70.99524999,-7.80000019073486,2011-12-18 17:03:52
1.18199992179871,42.37212976,-70.99524999,-7.80000019073486,2011-12-18 17:03:53
0.815000057220459,42.37212977,-70.99524998,-7.80000019073486,2011-12-18 17:03:54
1.00499987602234,42.37212977,-70.99524998,-7.80000019073486,2011-12-18 17:03:55
1.00500011444092,42.37212977,-70.99524998,-7.80000019073486,2011-12-18 17:03:56
0.997999906539917,42.37212977,-70.99524998,-7.80000019073486,2011-12-18 17:03:57
0.990000009536743,42.37212977,-70.99524998,-7.80000019073486,2011-12-18 17:03:58
0.998000144958496,42.37212977,-70.99524998,-7.80000019073486,2011-12-18 17:03:59
1.05900001525879,42.37212977,-70.99524998,-7.80000019073486,2011-12-18 17:04:00
0.949999809265137,42.37212977,-70.99524998,-7.80000019073486,2011-12-18 17:04:01
0.988000154495239,42.37212977,-70.99524998,-7.80000019073486,2011-12-18 17:04:02
447.030999898911,42.37212982,-70.9952499,-7.80000019073486,2011-12-18 17:11:29
381.006000041962,42.37212983,-70.9952499,-7.80000019073486,2011-12-18 17:17:50
170.990000009537,42.37212984,-70.99524989,-7.80000019073486,2011-12-18 17:20:41
0.980999946594238,42.37212984,-70.99524989,-7.80000019073486,2011-12-18 17:20:42
0.999000072479248,42.37212984,-70.99524989,-7.80000019073486,2011-12-18 17:20:43
1.16700005531311,42.37212984,-70.99524989,-7.80000019073486,2011-12-18 17:20:44
0.83299994468689,42.37212984,-70.99524989,-7.80000019073486,2011-12-18 17:20:45
40.0350000858307,42.37213023,-70.99524921,-7.90000009536743,2011-12-18 17:21:25
0.989999771118164,42.37213033,-70.99524911,-7.90000009536743,2011-12-18 17:21:26
0.989000082015991,42.37213038,-70.99524903,-7.90000009536743,2011-12-18 17:21:27
1.00200009346008,42.3721304,-70.995249,-7.90000009536743,2011-12-18 17:21:28
1.03299999237061,42.37213066,-70.99524876,-7.90000009536743,2011-12-18 17:21:29
0.953000068664551,42.37213068,-70.99524874,-7.90000009536743,2011-12-18 17:21:30
1.0019998550415,42.37213067,-70.99524875,-7.90000009536743,2011-12-18 17:21:31
0.999000072479248,42.37213066,-70.99524876,-7.90000009536743,2011-12-18 17:21:32
1.0019998550415,42.37213066,-70.99524876,-7.90000009536743,2011-12-18 17:21:33
0.998000144958496,42.37213066,-70.99524876,-7.90000009536743,2011-12-18 17:21:34
1.0019998550415,42.37213066,-70.99524876,-7.90000009536743,2011-12-18 17:21:35
1.0090000629425,42.37213066,-70.99524876,-7.90000009536743,2011-12-18 17:21:36
0.986999988555908,42.37213066,-70.99524876,-7.90000009536743,2011-12-18 17:21:37
0.998000144958496,42.37213066,-70.99524876,-7.90000009536743,2011-12-18 17:21:38
1.02799987792969,42.37213066,-70.99524876,-7.90000009536743,2011-12-18 17:21:39
1.06699991226196,42.37213066,-70.99524876,-7.90000009536743,2011-12-18 17:21:40
0.91100001335144,42.37213066,-70.99524876,-7.90000009536743,2011-12-18 17:21:41
0.998000144958496,42.37213067,-70.99524876,-7.90000009536743,2011-12-18 17:21:42
1,42.37213067,-70.99524876,-7.90000009536743,2011-12-18 17:21:43
1,42.37213067,-70.99524876,-7.90000009536743,2011-12-18 17:21:44
0.999000072479248,42.37213066,-70.99524876,-7.90000009536743,2011-12-18 17:21:45
1.00299978256226,42.37213066,-70.99524876,-7.90000009536743,2011-12-18 17:21:46
0.994000196456909,42.37213066,-70.99524876,-7.90000009536743,2011-12-18 17:21:47
1.00499987602234,42.37213066,-70.99524876,-7.90000009536743,2011-12-18 17:21:48
1,42.37213066,-70.99524876,-7.90000009536743,2011-12-18 17:21:49
1,42.37213066,-70.99524876,-7.90000009536743,2011-12-18 17:21:50
0.996000051498413,42.37213066,-70.99524876,-7.90000009536743,2011-12-18 17:21:51
1.00300002098083,42.37213066,-70.99524876,-7.90000009536743,2011-12-18 17:21:52
19.029000043869,42.37213066,-70.99524874,-7.90000009536743,2011-12-18 17:22:11
0.976999998092651,42.37213065,-70.99524874,-7.90000009536743,2011-12-18 17:22:12
0.998999834060669,42.37213065,-70.99524874,-7.90000009536743,2011-12-18 17:22:13
1.02999997138977,42.37213065,-70.99524875,-7.90000009536743,2011-12-18 17:22:14
0.969000101089478,42.37213064,-70.99524875,-7.90000009536743,2011-12-18 17:22:15
0.992000102996826,42.37213064,-70.99524875,-7.90000009536743,2011-12-18 17:22:16
1.0019998550415,42.37213065,-70.99524875,-7.90000009536743,2011-12-18 17:22:17
0.999000072479248,42.37213064,-70.99524875,-7.90000009536743,2011-12-18 17:22:18
0.996000051498413,42.37213064,-70.99524875,-7.90000009536743,2011-12-18 17:22:19
1.00499987602234,42.37213064,-70.99524875,-7.90000009536743,2011-12-18 17:22:20
0.996999979019165,42.37213064,-70.99524875,-7.90000009536743,2011-12-18 17:22:21
1.00300002098083,42.37213064,-70.99524875,-7.90000009536743,2011-12-18 17:22:22
1.03699994087219,42.37213064,-70.99524875,-7.90000009536743,2011-12-18 17:22:23
52.9950001239777,42.37213065,-70.99524872,-7.90000009536743,2011-12-18 17:23:16
0.974999904632568,42.37213065,-70.99524871,-7.90000009536743,2011-12-18 17:23:17
0.999000072479248,42.37213066,-70.99524869,-7.90000009536743,2011-12-18 17:23:18
1,42.37213067,-70.99524867,-7.90000009536743,2011-12-18 17:23:19
0.992000102996826,42.37213067,-70.99524867,-7.90000009536743,2011-12-18 17:23:20
1.0019998550415,42.3721307,-70.99524863,-7.90000009536743,2011-12-18 17:23:21
1.02100014686584,42.3721307,-70.99524863,-7.90000009536743,2011-12-18 17:23:22
0.980000019073486,42.37213071,-70.99524861,-7.90000009536743,2011-12-18 17:23:23
1.01199984550476,42.37213071,-70.99524861,-7.90000009536743,2011-12-18 17:23:24
0.993000030517578,42.37213071,-70.99524861,-7.90000009536743,2011-12-18 17:23:25
0.999000072479248,42.37213071,-70.99524861,-7.90000009536743,2011-12-18 17:23:26
1.00099992752075,42.37213071,-70.99524861,-7.90000009536743,2011-12-18 17:23:27
1.01699995994568,42.37213071,-70.99524861,-7.90000009536743,2011-12-18 17:23:28
0.983000040054321,42.37213071,-70.99524861,-7.90000009536743,2011-12-18 17:23:29
1.00099992752075,42.37213071,-70.99524861,-7.90000009536743,2011-12-18 17:23:30
0.990000009536743,42.37213071,-70.99524861,-7.90000009536743,2011-12-18 17:23:31
1.00999999046326,42.37213071,-70.99524861,-7.90000009536743,2011-12-18 17:23:32
1.01200008392334,42.37213072,-70.9952486,-7.90000009536743,2011-12-18 17:23:33
0.983000040054321,42.37213073,-70.99524859,-7.90000009536743,2011-12-18 17:23:34
1,42.37213073,-70.99524859,-7.90000009536743,2011-12-18 17:23:35
1,42.37213073,-70.99524859,-7.90000009536743,2011-12-18 17:23:36
0.999000072479248,42.37213074,-70.99524858,-7.90000009536743,2011-12-18 17:23:37
1.00299978256226,42.37213073,-70.99524858,-7.90000009536743,2011-12-18 17:23:38
1.01400017738342,42.37213072,-70.99524859,-7.90000009536743,2011-12-18 17:23:39
0.983999967575073,42.37213074,-70.99524857,-7.90000009536743,2011-12-18 17:23:40
1.0019998550415,42.37213074,-70.99524856,-7.90000009536743,2011-12-18 17:23:41
0.998000144958496,42.37213074,-70.99524856,-7.90000009536743,2011-12-18 17:23:42
0.999000072479248,42.37213074,-70.99524854,-7.90000009536743,2011-12-18 17:23:43
0.998999834060669,42.37213075,-70.99524853,-7.90000009536743,2011-12-18 17:23:44
1.00300002098083,42.37213075,-70.99524853,-7.90000009536743,2011-12-18 17:23:45
0.998000144958496,42.37213076,-70.99524851,-7.90000009536743,2011-12-18 17:23:46
1.00099992752075,42.37213076,-70.9952485,-7.90000009536743,2011-12-18 17:23:47
1,42.37213076,-70.9952485,-7.90000009536743,2011-12-18 17:23:48
1,42.37213076,-70.99524849,-7.90000009536743,2011-12-18 17:23:49
0.997999906539917,42.37213077,-70.99524849,-7.90000009536743,2011-12-18 17:23:50
1.00200009346008,42.37213077,-70.99524848,-7.90000009536743,2011-12-18 17:23:51
1.00099992752075,42.37213076,-70.99524849,-7.90000009536743,2011-12-18 17:23:52
0.999000072479248,42.37213076,-70.99524849,-7.90000009536743,2011-12-18 17:23:53
0.994999885559082,42.37213076,-70.99524849,-7.90000009536743,2011-12-18 17:23:54
1.00600004196167,42.37213076,-70.99524849,-7.90000009536743,2011-12-18 17:23:55
1.00399994850159,42.37213076,-70.99524849,-7.90000009536743,2011-12-18 17:23:56
1.00100016593933,42.37213076,-70.99524849,-7.90000009536743,2011-12-18 17:23:57
1.01300001144409,42.37213076,-70.99524849,-7.90000009536743,2011-12-18 17:23:58
0.982999801635742,42.37213076,-70.99524849,-7.90000009536743,2011-12-18 17:23:59
1.1010000705719,42.37213076,-70.99524848,-7.90000009536743,2011-12-18 17:24:00
0.896000146865845,42.37213078,-70.99524847,-7.90000009536743,2011-12-18 17:24:01
1.0019998550415,42.37213078,-70.99524846,-7.90000009536743,2011-12-18 17:24:02
0.998000144958496,42.37213078,-70.99524845,-7.90000009536743,2011-12-18 17:24:03
1.0019998550415,42.37213079,-70.99524845,-7.90000009536743,2011-12-18 17:24:04
0.998000144958496,42.37213079,-70.99524845,-7.90000009536743,2011-12-18 17:24:05
1.00599980354309,42.37213079,-70.99524845,-7.90000009536743,2011-12-18 17:24:06
1.00300002098083,42.37213079,-70.99524845,-7.90000009536743,2011-12-18 17:24:07
0.991000175476074,42.37213079,-70.99524845,-7.90000009536743,2011-12-18 17:24:08
1.0239999294281,42.37213079,-70.99524845,-7.90000009536743,2011-12-18 17:24:09
0.974999904632568,42.37213079,-70.99524845,-7.90000009536743,2011-12-18 17:24:10
1.00200009346008,42.37213079,-70.99524845,-7.90000009536743,2011-12-18 17:24:11
1.00099992752075,42.37213079,-70.99524845,-7.90000009536743,2011-12-18 17:24:12
0.996999979019165,42.37213079,-70.99524845,-7.90000009536743,2011-12-18 17:24:13
0.99399995803833,42.37213079,-70.99524845,-7.90000009536743,2011-12-18 17:24:14
0.999000072479248,42.37213079,-70.99524845,-7.90000009536743,2011-12-18 17:24:15
1.00699996948242,42.37213079,-70.99524845,-7.90000009536743,2011-12-18 17:24:16
0.999000072479248,42.37213079,-70.99524845,-7.90000009536743,2011-12-18 17:24:17
1.03799986839294,42.37213079,-70.99524845,-7.90000009536743,2011-12-18 17:24:18
0.959000110626221,42.37213079,-70.99524845,-7.90000009536743,2011-12-18 17:24:19
1.00200009346008,42.37213079,-70.99524845,-7.90000009536743,2011-12-18 17:24:20
187.030999898911,42.37213085,-70.99524835,-7.90000009536743,2011-12-18 17:27:27
45.0009999275208,42.37213103,-70.99524822,-7.90000009536743,2011-12-18 17:28:12
0.976999998092651,42.37213103,-70.99524822,-7.90000009536743,2011-12-18 17:28:13
0.996999979019165,42.37213103,-70.99524822,-7.90000009536743,2011-12-18 17:28:14
1,42.37213103,-70.99524822,-7.90000009536743,2011-12-18 17:28:15
1.00200009346008,42.37213104,-70.99524822,-7.90000009536743,2011-12-18 17:28:16
0.996999979019165,42.37213103,-70.99524822,-7.90000009536743,2011-12-18 17:28:17
1.00099992752075,42.37213104,-70.99524822,-7.90000009536743,2011-12-18 17:28:18
0.998000144958496,42.37213104,-70.99524822,-7.90000009536743,2011-12-18 17:28:19
1,42.37213104,-70.99524822,-7.90000009536743,2011-12-18 17:28:20
0.996999979019165,42.37213104,-70.99524822,-7.90000009536743,2011-12-18 17:28:21
1.00200009346008,42.37213104,-70.99524822,-7.90000009536743,2011-12-18 17:28:22
0.998999834060669,42.37213104,-70.99524822,-7.90000009536743,2011-12-18 17:28:23
0.999000072479248,42.37213104,-70.99524822,-7.90000009536743,2011-12-18 17:28:24
1.01699995994568,42.37213104,-70.99524822,-7.90000009536743,2011-12-18 17:28:25
0.98799991607666,42.37213105,-70.99524821,-7.90000009536743,2011-12-18 17:28:26
1,42.37213105,-70.99524821,-7.90000009536743,2011-12-18 17:28:27
0.999000072479248,42.37213105,-70.99524821,-7.90000009536743,2011-12-18 17:28:28
1.00200009346008,42.37213105,-70.99524821,-7.90000009536743,2011-12-18 17:28:29
0.99399995803833,42.37213105,-70.9952482,-7.90000009536743,2011-12-18 17:28:30
1,42.37213105,-70.9952482,-7.90000009536743,2011-12-18 17:28:31
0.99399995803833,42.37213105,-70.9952482,-7.90000009536743,2011-12-18 17:28:32
224.030999898911,42.37213111,-70.99524814,-7.90000009536743,2011-12-18 17:32:16
0.983000040054321,42.37213111,-70.99524814,-7.90000009536743,2011-12-18 17:32:17
1,42.37213111,-70.99524814,-7.90000009536743,2011-12-18 17:32:18
0.999000072479248,42.37213111,-70.99524814,-7.90000009536743,2011-12-18 17:32:19
0.996999979019165,42.37213111,-70.99524814,-7.90000009536743,2011-12-18 17:32:20
1.01600003242493,42.37213111,-70.99524814,-7.90000009536743,2011-12-18 17:32:21
0.986000061035156,42.37213111,-70.99524814,-7.90000009536743,2011-12-18 17:32:22
0.994999885559082,42.37213111,-70.99524813,-7.90000009536743,2011-12-18 17:32:23
1.00600004196167,42.37213112,-70.99524811,-7.90000009536743,2011-12-18 17:32:24
1,42.37213112,-70.99524811,-7.90000009536743,2011-12-18 17:32:25
1.00300002098083,42.37213112,-70.99524811,-7.90000009536743,2011-12-18 17:32:26
1.0239999294281,42.37213113,-70.99524811,-7.90000009536743,2011-12-18 17:32:27
0.975000143051147,42.37213112,-70.99524811,-7.90000009536743,2011-12-18 17:32:28
75.010999917984,42.37234145,-70.99495354,-10.8000001907349,2011-12-18 17:33:43
6.00799989700317,42.37225004,-70.99503792,-13.3999996185303,2011-12-18 17:33:49
0.976000070571899,42.37224972,-70.99503786,-13.3999996185303,2011-12-18 17:33:50
1,42.37224984,-70.9950379,-13.3999996185303,2011-12-18 17:33:51
1.00999999046326,42.37225241,-70.99503768,-13.5,2011-12-18 17:33:52
1.00200009346008,42.37225271,-70.99503757,-13.5,2011-12-18 17:33:53
1.01199984550476,42.37225217,-70.99503752,-13.5,2011-12-18 17:33:54
0.976999998092651,42.37225458,-70.99503718,-13.6000003814697,2011-12-18 17:33:55
1.1100001335144,42.37225406,-70.99503721,-13.6000003814697,2011-12-18 17:33:56
0.891999959945679,42.37225419,-70.99503721,-13.6000003814697,2011-12-18 17:33:57
1,42.37225531,-70.99503737,-13.6000003814697,2011-12-18 17:33:58
1.01300001144409,42.37225465,-70.99503742,-13.6000003814697,2011-12-18 17:33:59
0.986000061035156,42.37225277,-70.99503786,-13.6000003814697,2011-12-18 17:34:00
1,42.37225287,-70.99503818,-13.6000003814697,2011-12-18 17:34:01
1,42.37225366,-70.99503801,-13.6000003814697,2011-12-18 17:34:02
1.00099992752075,42.3722541,-70.99503808,-13.6000003814697,2011-12-18 17:34:03
1.01300001144409,42.37225814,-70.9950379,-13.8000001907349,2011-12-18 17:34:04
0.986000061035156,42.37225531,-70.99503828,-13.6999998092651,2011-12-18 17:34:05
0.99399995803833,42.37225585,-70.995038,-13.6999998092651,2011-12-18 17:34:06
1.00699996948242,42.37225588,-70.99503824,-13.6999998092651,2011-12-18 17:34:07
0.99399995803833,42.37225684,-70.995038,-13.8000001907349,2011-12-18 17:34:08
1.00600004196167,42.3722554,-70.99503858,-13.6999998092651,2011-12-18 17:34:09
0.993000030517578,42.37225427,-70.99503858,-13.6999998092651,2011-12-18 17:34:10
0.999000072479248,42.37225471,-70.99503829,-13.6999998092651,2011-12-18 17:34:11
1.0389997959137,42.3722546,-70.99503881,-13.8000001907349,2011-12-18 17:34:12
0.960000038146973,42.3722546,-70.99503881,-13.8000001907349,2011-12-18 17:34:13
1.00500011444092,42.3722545,-70.99503886,-13.8000001907349,2011-12-18 17:34:14
1.00099992752075,42.37225514,-70.99503927,-13.8000001907349,2011-12-18 17:34:15
0.992000102996826,42.37225514,-70.99503927,-13.8000001907349,2011-12-18 17:34:16
1.00799989700317,42.37225531,-70.99503912,-13.8000001907349,2011-12-18 17:34:17
0.992000102996826,42.37225531,-70.99503912,-13.8000001907349,2011-12-18 17:34:18
1.00399994850159,42.37225538,-70.99503911,-13.8000001907349,2011-12-18 17:34:19
53.0329999923706,42.37225327,-70.99504385,-14.3000001907349,2011-12-18 17:35:12
0.976999998092651,42.37225324,-70.99504386,-14.3000001907349,2011-12-18 17:35:13
0.996999979019165,42.37225326,-70.99504372,-14.3000001907349,2011-12-18 17:35:14
1,42.37225345,-70.9950435,-14.3000001907349,2011-12-18 17:35:15
0.999000072479248,42.37225354,-70.99504331,-14.3000001907349,2011-12-18 17:35:16
1.01399993896484,42.3722537,-70.99504304,-14.3000001907349,2011-12-18 17:35:17
0.986999988555908,42.3722538,-70.99504273,-14.3000001907349,2011-12-18 17:35:18
1,42.37225392,-70.99504268,-14.3000001907349,2011-12-18 17:35:19
0.996000051498413,42.37225402,-70.99504267,-14.3000001907349,2011-12-18 17:35:20
0.997999906539917,42.3722542,-70.99504259,-14.3000001907349,2011-12-18 17:35:21
1.03600001335144,42.3722543,-70.99504265,-14.3000001907349,2011-12-18 17:35:22
0.976999998092651,42.37225444,-70.99504262,-14.3000001907349,2011-12-18 17:35:23
14.0130000114441,42.37225332,-70.99504373,-14.3000001907349,2011-12-18 17:35:37
0.980999946594238,42.37225179,-70.99504681,-14.3000001907349,2011-12-18 17:35:38
1,42.37225108,-70.99504751,-14.3000001907349,2011-12-18 17:35:39
1.16900014877319,42.37224975,-70.99504913,-14.3000001907349,2011-12-18 17:35:40
0.828999996185303,42.37224836,-70.99505122,-14.3999996185303,2011-12-18 17:35:41
1.02799987792969,42.37224684,-70.99505399,-14.3999996185303,2011-12-18 17:35:42
0.972000122070312,42.37224796,-70.99505268,-14.3999996185303,2011-12-18 17:35:43
1.00099992752075,42.3722449,-70.99505709,-14.5,2011-12-18 17:35:44
1,42.37224284,-70.99506028,-14.5,2011-12-18 17:35:45
1.00099992752075,42.37224083,-70.99506247,-14.5,2011-12-18 17:35:46
0.999000072479248,42.37224146,-70.99506065,-14.5,2011-12-18 17:35:47
0.99399995803833,42.37224139,-70.99506102,-14.5,2011-12-18 17:35:48
1.10300016403198,42.3722412,-70.99506105,-14.5,2011-12-18 17:35:49
0.902999877929688,42.37224078,-70.99506198,-14.5,2011-12-18 17:35:50
0.993000030517578,42.37224059,-70.99506151,-14.6000003814697,2011-12-18 17:35:51
1.00600004196167,42.3722402,-70.99506281,-14.5,2011-12-18 17:35:52
1.0149998664856,42.37223947,-70.99506344,-14.5,2011-12-18 17:35:53
0.978000164031982,42.37223941,-70.99506339,-14.6000003814697,2011-12-18 17:35:54
1.00399994850159,42.37223932,-70.99506375,-14.5,2011-12-18 17:35:55
1.01099991798401,42.37224059,-70.99506124,-14.6000003814697,2011-12-18 17:35:56
0.988000154495239,42.37224048,-70.99506105,-14.6000003814697,2011-12-18 17:35:57
1.03099989891052,42.3722406,-70.99506058,-14.6000003814697,2011-12-18 17:35:58
0.980000019073486,42.37224088,-70.99505947,-14.6999998092651,2011-12-18 17:35:59
0.990999937057495,42.37224051,-70.99506023,-14.6000003814697,2011-12-18 17:36:00
1.00300002098083,42.37223811,-70.99506465,-14.6000003814697,2011-12-18 17:36:01
1.00200009346008,42.37223772,-70.99506526,-14.6000003814697,2011-12-18 17:36:02
0.99399995803833,42.37223742,-70.99506596,-14.6000003814697,2011-12-18 17:36:03
1.02799987792969,42.37223503,-70.99507111,-14.5,2011-12-18 17:36:04
1.01900005340576,42.3722347,-70.9950714,-14.5,2011-12-18 17:36:05
0.95799994468689,42.3722327,-70.99507632,-14.3999996185303,2011-12-18 17:36:06
1.02900004386902,42.37223239,-70.99507667,-14.3999996185303,2011-12-18 17:36:07
0.966000080108643,42.37223061,-70.99507941,-14.3999996185303,2011-12-18 17:36:08
0.999000072479248,42.3722291,-70.99508145,-14.3999996185303,2011-12-18 17:36:09
1.0019998550415,42.37222724,-70.99508544,-14.3000001907349,2011-12-18 17:36:10
1.01500010490417,42.37222716,-70.99508547,-14.3000001907349,2011-12-18 17:36:11
0.990000009536743,42.37222718,-70.99508546,-14.3000001907349,2011-12-18 17:36:12
0.99399995803833,42.37222626,-70.99508722,-14.3000001907349,2011-12-18 17:36:13
2.00699996948242,42.37222626,-70.99508722,-14.3000001907349,2011-12-18 17:36:15
0.990999937057495,42.37222626,-70.99508722,-14.3000001907349,2011-12-18 17:36:16
1.00300002098083,42.37222626,-70.99508722,-14.3000001907349,2011-12-18 17:36:17
0.996000051498413,42.37222626,-70.99508722,-14.3000001907349,2011-12-18 17:36:18
1.00600004196167,42.37222712,-70.99508549,-14.3000001907349,2011-12-18 17:36:19
1.00499987602234,42.37222901,-70.9950818,-14.3999996185303,2011-12-18 17:36:20
0.988000154495239,42.37222996,-70.99507998,-14.3999996185303,2011-12-18 17:36:21
1.00999999046326,42.3722296,-70.9950807,-14.3999996185303,2011-12-18 17:36:22
1.09500002861023,42.37222967,-70.9950806,-14.3999996185303,2011-12-18 17:36:23
0.890999794006348,42.37222956,-70.99508083,-14.3999996185303,2011-12-18 17:36:24
1.02900004386902,42.37222949,-70.99508099,-14.3999996185303,2011-12-18 17:36:25
0.983000040054321,42.37222955,-70.99508094,-14.3999996185303,2011-12-18 17:36:26
0.996000051498413,42.3722298,-70.99508057,-14.3999996185303,2011-12-18 17:36:27
1.00499987602234,42.37223004,-70.99508021,-14.3999996185303,2011-12-18 17:36:28
0.996000051498413,42.37223014,-70.99507999,-14.3999996185303,2011-12-18 17:36:29
1.01999998092651,42.37222981,-70.99508034,-14.3999996185303,2011-12-18 17:36:30
14.9980001449585,42.37223158,-70.99507522,-14.5,2011-12-18 17:36:45
0.991999864578247,42.37223108,-70.99507572,-14.5,2011-12-18 17:36:46
0.993000030517578,42.37223007,-70.99507751,-14.5,2011-12-18 17:36:47
1.07100009918213,42.37222945,-70.99507848,-14.5,2011-12-18 17:36:48
0.919999837875366,42.37223009,-70.99507757,-14.5,2011-12-18 17:36:49
1.00200009346008,42.37223018,-70.99507744,-14.5,2011-12-18 17:36:50
1.01699995994568,42.37222969,-70.99507779,-14.5,2011-12-18 17:36:51
0.98799991607666,42.37222973,-70.99507701,-14.5,2011-12-18 17:36:52
0.996000051498413,42.37223088,-70.99507485,-14.6000003814697,2011-12-18 17:36:53
1.00399994850159,42.37222956,-70.99507784,-14.5,2011-12-18 17:36:54
1.01100015640259,42.37223016,-70.99507701,-14.5,2011-12-18 17:36:55
0.984999895095825,42.37223008,-70.99507762,-14.5,2011-12-18 17:36:56
1.00600004196167,42.37223064,-70.99507689,-14.5,2011-12-18 17:36:57
1.00099992752075,42.37223014,-70.99507795,-14.5,2011-12-18 17:36:58
0.993000030517578,42.37222979,-70.99507832,-14.5,2011-12-18 17:36:59
0.998000144958496,42.37222813,-70.99508133,-14.3999996185303,2011-12-18 17:37:00
1.0019998550415,42.37222753,-70.99508217,-14.3999996185303,2011-12-18 17:37:01
1.00300002098083,42.37222716,-70.99508272,-14.3999996185303,2011-12-18 17:37:02
0.996000051498413,42.37222694,-70.99508279,-14.5,2011-12-18 17:37:03
1,42.3722273,-70.99508189,-14.5,2011-12-18 17:37:04
0.997999906539917,42.37222691,-70.99508242,-14.5,2011-12-18 17:37:05
1.00300002098083,42.37222703,-70.99508261,-14.5,2011-12-18 17:37:06
0.999000072479248,42.3722267,-70.99508294,-14.5,2011-12-18 17:37:07
1.00099992752075,42.37222566,-70.99508406,-14.5,2011-12-18 17:37:08
0.999000072479248,42.37222545,-70.99508432,-14.5,2011-12-18 17:37:09
1.00399994850159,42.37222557,-70.99508419,-14.5,2011-12-18 17:37:10
0.990999937057495,42.37222546,-70.9950843,-14.5,2011-12-18 17:37:11
1,42.37222533,-70.99508413,-14.5,2011-12-18 17:37:12
6.02600002288818,42.3722256,-70.9950835,-14.5,2011-12-18 17:37:18
0.986999988555908,42.37222503,-70.99508416,-14.5,2011-12-18 17:37:19
0.998000144958496,42.37222494,-70.99508421,-14.5,2011-12-18 17:37:20
1.00099992752075,42.37222567,-70.99508289,-14.5,2011-12-18 17:37:21
1.10899996757507,42.37222567,-70.99508289,-14.5,2011-12-18 17:37:22
0.891000032424927,42.37222569,-70.99508289,-14.5,2011-12-18 17:37:23
1.01399993896484,42.37222661,-70.99508099,-14.5,2011-12-18 17:37:24
0.986999988555908,42.37222679,-70.99508066,-14.5,2011-12-18 17:37:25
0.999000072479248,42.37222731,-70.99507967,-14.6000003814697,2011-12-18 17:37:26
0.997999906539917,42.37222737,-70.99507959,-14.6000003814697,2011-12-18 17:37:27
0.995000123977661,42.37222739,-70.99507954,-14.6000003814697,2011-12-18 17:37:28
67.0260000228882,42.37219579,-70.99507894,-14.5,2011-12-18 17:38:35
2.97899985313416,42.37219666,-70.99507868,-14.5,2011-12-18 17:38:38
1.01300001144409,42.3721939,-70.995077,-14.5,2011-12-18 17:38:39
1.00200009346008,42.37219349,-70.99507816,-14.5,2011-12-18 17:38:40
0.98799991607666,42.37219139,-70.99507628,-14.5,2011-12-18 17:38:41
0.999000072479248,42.37219034,-70.99507419,-14.5,2011-12-18 17:38:42
1,42.37218983,-70.9950756,-14.5,2011-12-18 17:38:43
0.99399995803833,42.37219475,-70.99507658,-14.5,2011-12-18 17:38:44
1.00200009346008,42.37219307,-70.99507563,-14.5,2011-12-18 17:38:45
0.996999979019165,42.3721931,-70.99507564,-14.5,2011-12-18 17:38:46
1.00200009346008,42.37219477,-70.99507623,-14.5,2011-12-18 17:38:47
1.0939998626709,42.37219738,-70.99507498,-14.5,2011-12-18 17:38:48
0.911999940872192,42.3721985,-70.99507458,-14.5,2011-12-18 17:38:49
0.993000030517578,42.37219811,-70.99507452,-14.5,2011-12-18 17:38:50
1.00399994850159,42.37219759,-70.9950743,-14.5,2011-12-18 17:38:51
0.997000217437744,42.37219599,-70.99507473,-14.5,2011-12-18 17:38:52
1.0019998550415,42.37219547,-70.99507513,-14.5,2011-12-18 17:38:53
1.00300002098083,42.37219425,-70.99507438,-14.5,2011-12-18 17:38:54
0.995000123977661,42.37219595,-70.99507401,-14.5,2011-12-18 17:38:55
1.00899982452393,42.37219628,-70.99507414,-14.5,2011-12-18 17:38:56
1.02699995040894,42.372196,-70.99507411,-14.5,2011-12-18 17:38:57
0.961000204086304,42.372196,-70.99507411,-14.5,2011-12-18 17:38:58
1.00899982452393,42.37219569,-70.99507412,-14.5,2011-12-18 17:38:59
0.988000154495239,42.37219634,-70.99507396,-14.5,2011-12-18 17:39:00
1.01199984550476,42.37219434,-70.99507384,-14.5,2011-12-18 17:39:01
1.01200008392334,42.3721845,-70.99507335,-14.5,2011-12-18 17:39:02
0.996000051498413,42.37218403,-70.99507383,-14.5,2011-12-18 17:39:03
0.988999843597412,42.37218174,-70.99507356,-14.5,2011-12-18 17:39:04
1.00300002098083,42.37218108,-70.99507346,-14.5,2011-12-18 17:39:05
0.999000072479248,42.37217937,-70.9950724,-14.5,2011-12-18 17:39:06
1.00099992752075,42.37217943,-70.99507239,-14.5,2011-12-18 17:39:07
1.01400017738342,42.37217887,-70.99507266,-14.5,2011-12-18 17:39:08
0.985999822616577,42.37217865,-70.99507208,-14.5,2011-12-18 17:39:09
0.993000030517578,42.37217858,-70.99507202,-14.5,2011-12-18 17:39:10
1.00699996948242,42.37217991,-70.99507189,-14.5,2011-12-18 17:39:11
0.993000030517578,42.37218043,-70.99507193,-14.5,2011-12-18 17:39:12
1.00200009346008,42.37218011,-70.99507123,-14.5,2011-12-18 17:39:13
1.00399994850159,42.37218502,-70.99506934,-14.5,2011-12-18 17:39:14
1,42.37218462,-70.99506862,-14.5,2011-12-18 17:39:15
1,42.37218345,-70.99506897,-14.5,2011-12-18 17:39:16
1.00099992752075,42.37218604,-70.99506888,-14.5,2011-12-18 17:39:17
0.999000072479248,42.37218656,-70.99506867,-14.5,2011-12-18 17:39:18
0.996999979019165,42.37218637,-70.99506848,-14.5,2011-12-18 17:39:19
1,42.37218652,-70.99506826,-14.5,2011-12-18 17:39:20
0.996999979019165,42.37218706,-70.99506852,-14.5,2011-12-18 17:39:21
1.08500003814697,42.37218671,-70.99506855,-14.5,2011-12-18 17:39:22
0.917999982833862,42.37218642,-70.9950684,-14.5,2011-12-18 17:39:23
0.998000144958496,42.37218628,-70.99506843,-14.5,2011-12-18 17:39:24
1,42.3721873,-70.99506749,-14.5,2011-12-18 17:39:25
1.00099992752075,42.3721873,-70.99506785,-14.5,2011-12-18 17:39:26
1.00099992752075,42.37218767,-70.99506757,-14.5,2011-12-18 17:39:27
0.999000072479248,42.37218935,-70.99506929,-14.5,2011-12-18 17:39:28
1,42.37218484,-70.99506988,-14.5,2011-12-18 17:39:29
0.997999906539917,42.37218541,-70.99506777,-14.5,2011-12-18 17:39:30
1.05700016021729,42.37218437,-70.9950671,-14.5,2011-12-18 17:39:31
0.941999912261963,42.37218401,-70.99506724,-14.5,2011-12-18 17:39:32
0.999000072479248,42.37218404,-70.99506717,-14.5,2011-12-18 17:39:33
1.00499987602234,42.37218349,-70.99506831,-14.5,2011-12-18 17:39:34
1.0090000629425,42.37218325,-70.99506732,-14.5,2011-12-18 17:39:35
0.994999885559082,42.37218391,-70.99506733,-14.5,2011-12-18 17:39:36
0.996000051498413,42.37218344,-70.99506705,-14.5,2011-12-18 17:39:37
0.996999979019165,42.37218346,-70.99506705,-14.5,2011-12-18 17:39:38
0.998000144958496,42.37218381,-70.99506716,-14.5,2011-12-18 17:39:39
1.18799996376038,42.37218397,-70.99506705,-14.5,2011-12-18 17:39:40
0.812999963760376,42.37218319,-70.99506755,-14.5,2011-12-18 17:39:41
0.999000072479248,42.37218325,-70.99506757,-14.5,2011-12-18 17:39:42
1.00399994850159,42.3721825,-70.99506815,-14.5,2011-12-18 17:39:43
0.996000051498413,42.37218441,-70.9950676,-14.5,2011-12-18 17:39:44
1.00399994850159,42.37218583,-70.99506823,-14.5,2011-12-18 17:39:45
0.997999906539917,42.37218577,-70.99506822,-14.5,2011-12-18 17:39:46
0.999000072479248,42.37218578,-70.99506817,-14.5,2011-12-18 17:39:47
1,42.37218577,-70.99506816,-14.5,2011-12-18 17:39:48
1.11800003051758,42.37218429,-70.99506811,-14.5,2011-12-18 17:39:49
0.882999897003174,42.37218507,-70.99506847,-14.5,2011-12-18 17:39:50
1.00300002098083,42.37218549,-70.99506844,-14.5,2011-12-18 17:39:51
0.993000030517578,42.37218549,-70.99506844,-14.5,2011-12-18 17:39:52
1.00300002098083,42.37218543,-70.99506843,-14.5,2011-12-18 17:39:53
1.00300002098083,42.37218662,-70.99506778,-14.5,2011-12-18 17:39:54
0.994999885559082,42.37218662,-70.99506778,-14.5,2011-12-18 17:39:55
1.00699996948242,42.37218678,-70.99506791,-14.5,2011-12-18 17:39:56
0.999000072479248,42.37218636,-70.99506812,-14.5,2011-12-18 17:39:57
1.00099992752075,42.37218602,-70.99506808,-14.5,2011-12-18 17:39:58
0.998000144958496,42.37218569,-70.99506803,-14.5,2011-12-18 17:39:59
0.997999906539917,42.37218549,-70.995068,-14.5,2011-12-18 17:40:00
1,42.37218258,-70.99506598,-14.5,2011-12-18 17:40:01
1,42.37218243,-70.99506507,-14.5,2011-12-18 17:40:02
0.993000030517578,42.37218243,-70.99506507,-14.5,2011-12-18 17:40:03
1.00099992752075,42.37218065,-70.99506467,-14.5,2011-12-18 17:40:04
1,42.37218055,-70.99506465,-14.5,2011-12-18 17:40:05
1,42.37218043,-70.99506463,-14.5,2011-12-18 17:40:06
1.0090000629425,42.37218073,-70.99506456,-14.5,2011-12-18 17:40:07
1,42.37218071,-70.99506455,-14.5,2011-12-18 17:40:08
0.990999937057495,42.3721808,-70.99506481,-14.5,2011-12-18 17:40:09
12.0500001907349,42.3721769,-70.99505271,-14.5,2011-12-18 17:40:21
0.954999923706055,42.37217963,-70.99505553,-14.5,2011-12-18 17:40:22
1.00200009346008,42.37217867,-70.9950537,-14.5,2011-12-18 17:40:23
0.996999979019165,42.37217758,-70.99505237,-14.5,2011-12-18 17:40:24
1.0239999294281,42.3721779,-70.99505141,-14.5,2011-12-18 17:40:25
0.990999937057495,42.3721779,-70.99505141,-14.5,2011-12-18 17:40:26
0.982000112533569,42.3721779,-70.99505141,-14.5,2011-12-18 17:40:27
0.998999834060669,42.3721779,-70.99505141,-14.5,2011-12-18 17:40:28
1.00200009346008,42.37217808,-70.99505147,-14.5,2011-12-18 17:40:29
255.046000003815,42.37216888,-70.99503519,-14.5,2011-12-18 17:44:44
51.9800000190735,42.37216867,-70.9950862,-15,2011-12-18 17:45:36
4.0019998550415,42.37216872,-70.99508549,-15,2011-12-18 17:45:40
0.982000112533569,42.3721686,-70.99508525,-15,2011-12-18 17:45:41
0.999000072479248,42.3721685,-70.99508532,-15,2011-12-18 17:45:42
1.0019998550415,42.3721693,-70.99508396,-15,2011-12-18 17:45:43
1,42.37217062,-70.99508621,-15,2011-12-18 17:45:44
1.01900005340576,42.37217305,-70.99509191,-15,2011-12-18 17:45:45
0.976000070571899,42.37219142,-70.99506561,-15.3000001907349,2011-12-18 17:45:46
1.0090000629425,42.37219296,-70.99506894,-15.3000001907349,2011-12-18 17:45:47
0.990000009536743,42.37219268,-70.99507104,-15.3000001907349,2011-12-18 17:45:48
1.0019998550415,42.37219254,-70.99507109,-15.3000001907349,2011-12-18 17:45:49
1.00099992752075,42.37219101,-70.99506889,-15.3000001907349,2011-12-18 17:45:50
0.997000217437744,42.37219023,-70.99506899,-15.3000001907349,2011-12-18 17:45:51
1.0149998664856,42.37219013,-70.99507038,-15.3000001907349,2011-12-18 17:45:52
0.986999988555908,42.37218978,-70.99507253,-15.3000001907349,2011-12-18 17:45:53
0.996000051498413,42.37218873,-70.99507166,-15.3000001907349,2011-12-18 17:45:54
1.00300002098083,42.37218928,-70.99507328,-15.3000001907349,2011-12-18 17:45:55
1.00099992752075,42.37218899,-70.9950752,-15.3000001907349,2011-12-18 17:45:56
1.00099992752075,42.37218905,-70.99507585,-15.3000001907349,2011-12-18 17:45:57
1.0530002117157,42.37218715,-70.9950743,-15.3000001907349,2011-12-18 17:45:58
0.94599986076355,42.37218702,-70.99507507,-15.3000001907349,2011-12-18 17:45:59
0.999000072479248,42.37218893,-70.99507673,-15.3000001907349,2011-12-18 17:46:00
1.00099992752075,42.37218945,-70.99507665,-15.3000001907349,2011-12-18 17:46:01
0.998000144958496,42.37218907,-70.99507787,-15.3000001907349,2011-12-18 17:46:02
1.00099992752075,42.37218475,-70.99507342,-15.3000001907349,2011-12-18 17:46:03
0.996000051498413,42.37218426,-70.99507442,-15.3000001907349,2011-12-18 17:46:04
1.0019998550415,42.37218454,-70.99507444,-15.3000001907349,2011-12-18 17:46:05
0.998000144958496,42.37218437,-70.99507545,-15.3000001907349,2011-12-18 17:46:06
1.00300002098083,42.37218278,-70.99507548,-15.3000001907349,2011-12-18 17:46:07
1,42.37218284,-70.99507617,-15.3000001907349,2011-12-18 17:46:08
1.00099992752075,42.37218114,-70.9950747,-15.3000001907349,2011-12-18 17:46:09
1.00499987602234,42.37218279,-70.99507939,-15.3000001907349,2011-12-18 17:46:10
0.996000051498413,42.37218266,-70.9950791,-15.3000001907349,2011-12-18 17:46:11
0.998000144958496,42.37218225,-70.99507811,-15.3999996185303,2011-12-18 17:46:12
1.00299978256226,42.37218214,-70.99507861,-15.3999996185303,2011-12-18 17:46:13
1,42.37218233,-70.99507695,-15.3999996185303,2011-12-18 17:46:14
1,42.37218135,-70.99507506,-15.3999996185303,2011-12-18 17:46:15
0.997000217437744,42.37218235,-70.9950776,-15.3999996185303,2011-12-18 17:46:16
1.0019998550415,42.37218228,-70.9950785,-15.3999996185303,2011-12-18 17:46:17
0.999000072479248,42.37218446,-70.99508094,-15.3999996185303,2011-12-18 17:46:18
1.00099992752075,42.37218827,-70.99508566,-15.3999996185303,2011-12-18 17:46:19
0.995000123977661,42.37218949,-70.99508791,-15.3999996185303,2011-12-18 17:46:20
1.00499987602234,42.37219068,-70.99508913,-15.3999996185303,2011-12-18 17:46:21
0.998000144958496,42.37218734,-70.99508801,-15.3999996185303,2011-12-18 17:46:22
1.00799989700317,42.37218769,-70.99508916,-15.3999996185303,2011-12-18 17:46:23
0.994999885559082,42.3721883,-70.99508919,-15.3999996185303,2011-12-18 17:46:24
0.999000072479248,42.37218896,-70.99508995,-15.3999996185303,2011-12-18 17:46:25
1.01200008392334,42.37218887,-70.99509019,-15.3999996185303,2011-12-18 17:46:26
0.986999988555908,42.37218941,-70.99509044,-15.3999996185303,2011-12-18 17:46:27
1.00099992752075,42.37219175,-70.99509175,-15.3999996185303,2011-12-18 17:46:28
0.998000144958496,42.37219209,-70.9950924,-15.3999996185303,2011-12-18 17:46:29
1,42.37219001,-70.99509083,-15.3999996185303,2011-12-18 17:46:30
1.01699995994568,42.37219061,-70.99509048,-15.3999996185303,2011-12-18 17:46:31
1.01399993896484,42.37219087,-70.99509039,-15.3999996185303,2011-12-18 17:46:32
1.0090000629425,42.37219128,-70.99508948,-15.3999996185303,2011-12-18 17:46:33
0.960999965667725,42.37219012,-70.99508772,-15.3999996185303,2011-12-18 17:46:34
1.05399990081787,42.3721908,-70.99508829,-15.3999996185303,2011-12-18 17:46:35
0.945000171661377,42.37219139,-70.99508847,-15.3999996185303,2011-12-18 17:46:36
1.00499987602234,42.37219181,-70.99508739,-15.3999996185303,2011-12-18 17:46:37
1.00699996948242,42.37219372,-70.99508764,-15.3999996185303,2011-12-18 17:46:38
0.990000009536743,42.37219225,-70.99508647,-15.3999996185303,2011-12-18 17:46:39
1,42.37219207,-70.99508658,-15.3999996185303,2011-12-18 17:46:40
1.14400005340576,42.37219037,-70.99508521,-15.3999996185303,2011-12-18 17:46:41
0.845999956130981,42.37219037,-70.99508521,-15.3999996185303,2011-12-18 17:46:42
1.00399994850159,42.37219037,-70.99508521,-15.3999996185303,2011-12-18 17:46:43
1.00200009346008,42.37219025,-70.99508511,-15.3999996185303,2011-12-18 17:46:44
0.997999906539917,42.37219024,-70.99508555,-15.3999996185303,2011-12-18 17:46:45
0.996999979019165,42.37219054,-70.99508613,-15.3999996185303,2011-12-18 17:46:46
1.00600004196167,42.37219176,-70.99508722,-15.3999996185303,2011-12-18 17:46:47
0.993000030517578,42.37219176,-70.99508722,-15.3999996185303,2011-12-18 17:46:48
1.00099992752075,42.37219176,-70.99508722,-15.3999996185303,2011-12-18 17:46:49
1.0090000629425,42.37219158,-70.99508695,-15.3999996185303,2011-12-18 17:46:50
0.996000051498413,42.37219093,-70.99508652,-15.3999996185303,2011-12-18 17:46:51
1.00300002098083,42.37219034,-70.99508616,-15.3999996185303,2011-12-18 17:46:52
1.02999997138977,42.37218941,-70.99508544,-15.3999996185303,2011-12-18 17:46:53
0.974999904632568,42.37218844,-70.9950847,-15.3999996185303,2011-12-18 17:46:54
0.995000123977661,42.37218931,-70.99508547,-15.3999996185303,2011-12-18 17:46:55
1.00099992752075,42.3721922,-70.99508767,-15.3999996185303,2011-12-18 17:46:56
1,42.37219301,-70.99508811,-15.3999996185303,2011-12-18 17:46:57
0.990000009536743,42.37219301,-70.99508811,-15.3999996185303,2011-12-18 17:46:58
1.00099992752075,42.37219301,-70.99508811,-15.3999996185303,2011-12-18 17:46:59
2.00600004196167,42.37219351,-70.99508792,-15.3999996185303,2011-12-18 17:47:01
1.00399994850159,42.37219564,-70.99508923,-15.3999996185303,2011-12-18 17:47:02
1,42.37219683,-70.99508955,-15.3999996185303,2011-12-18 17:47:03
1,42.37219757,-70.99508954,-15.3999996185303,2011-12-18 17:47:04
1,42.37219836,-70.99508973,-15.3999996185303,2011-12-18 17:47:05
1.01999998092651,42.3721968,-70.99508786,-15.3999996185303,2011-12-18 17:47:06
0.979000091552734,42.37219643,-70.9950871,-15.3999996185303,2011-12-18 17:47:07
0.999000072479248,42.37219633,-70.99508663,-15.3999996185303,2011-12-18 17:47:08
1.00099992752075,42.37219639,-70.9950863,-15.3999996185303,2011-12-18 17:47:09
0.999000072479248,42.37219644,-70.99508604,-15.3999996185303,2011-12-18 17:47:10
1.00099992752075,42.37219653,-70.99508582,-15.3999996185303,2011-12-18 17:47:11
0.999000072479248,42.37219662,-70.99508565,-15.3999996185303,2011-12-18 17:47:12
1.00300002098083,42.37219655,-70.99508521,-15.3999996185303,2011-12-18 17:47:13
0.997999906539917,42.3721962,-70.99508493,-15.3999996185303,2011-12-18 17:47:14
1.0239999294281,42.3721962,-70.99508493,-15.3999996185303,2011-12-18 17:47:15
0.989000082015991,42.37219395,-70.99508365,-15.3999996185303,2011-12-18 17:47:16
0.990999937057495,42.37219427,-70.99508379,-15.3999996185303,2011-12-18 17:47:17
1.00800013542175,42.37219409,-70.99508366,-15.3999996185303,2011-12-18 17:47:18
0.99399995803833,42.37219412,-70.99508368,-15.3999996185303,2011-12-18 17:47:19
0.99399995803833,42.372194,-70.9950836,-15.3999996185303,2011-12-18 17:47:20
304.026999950409,42.37219769,-70.99509299,-15.5,2011-12-18 17:52:24
0.975000143051147,42.37219707,-70.99509299,-15.5,2011-12-18 17:52:25
1,42.37219725,-70.99509318,-15.5,2011-12-18 17:52:26
1.0019998550415,42.37219848,-70.9950957,-15.5,2011-12-18 17:52:27
1.04900002479553,42.37219894,-70.99509623,-15.5,2011-12-18 17:52:28
0.966000080108643,42.37219903,-70.99509549,-15.5,2011-12-18 17:52:29
0.983000040054321,42.3721982,-70.99509497,-15.5,2011-12-18 17:52:30
0.994999885559082,42.37219856,-70.9950947,-15.5,2011-12-18 17:52:31
0.999000072479248,42.37219819,-70.99509458,-15.5,2011-12-18 17:52:32
0.999000072479248,42.37219794,-70.99509464,-15.5,2011-12-18 17:52:33
1.0019998550415,42.37219795,-70.99509494,-15.5,2011-12-18 17:52:34
1,42.37219782,-70.99509501,-15.5,2011-12-18 17:52:35
0.998000144958496,42.37219723,-70.99509505,-15.5,2011-12-18 17:52:36
1.0460000038147,42.3721973,-70.99509456,-15.5,2011-12-18 17:52:37
0.955999851226807,42.37219644,-70.99509486,-15.5,2011-12-18 17:52:38
1.00300002098083,42.37219649,-70.99509487,-15.5,2011-12-18 17:52:39
0.996000051498413,42.3721963,-70.99509517,-15.5,2011-12-18 17:52:40
1.00300002098083,42.37219594,-70.99509614,-15.5,2011-12-18 17:52:41
1,42.37219522,-70.99509837,-15.5,2011-12-18 17:52:42
0.994999885559082,42.37219525,-70.99509877,-15.5,2011-12-18 17:52:43
1.00300002098083,42.37219506,-70.99509916,-15.5,2011-12-18 17:52:44
1.00399994850159,42.37219534,-70.99509929,-15.5,2011-12-18 17:52:45
0.996000051498413,42.37219555,-70.99509861,-15.5,2011-12-18 17:52:46
1,42.37219567,-70.99509849,-15.5,2011-12-18 17:52:47
1.00200009346008,42.37219603,-70.99509774,-15.5,2011-12-18 17:52:48
0.997999906539917,42.37219535,-70.99509765,-15.5,2011-12-18 17:52:49
1.00200009346008,42.37219609,-70.99509726,-15.5,2011-12-18 17:52:50
1,42.37219584,-70.99509844,-15.5,2011-12-18 17:52:51
0.996999979019165,42.37219616,-70.99509902,-15.5,2011-12-18 17:52:52
1.00699996948242,42.37219642,-70.99509889,-15.5,2011-12-18 17:52:53
0.99399995803833,42.37219529,-70.9950991,-15.5,2011-12-18 17:52:54
0.999000072479248,42.37219488,-70.99509915,-15.5,2011-12-18 17:52:55
0.996000051498413,42.37219447,-70.9950992,-15.5,2011-12-18 17:52:56
1.00399994850159,42.37219408,-70.99509888,-15.5,2011-12-18 17:52:57
1.00399994850159,42.37219447,-70.99509891,-15.5,2011-12-18 17:52:58
0.999000072479248,42.37219399,-70.99509903,-15.5,2011-12-18 17:52:59
1.02799987792969,42.37219402,-70.99509834,-15.5,2011-12-18 17:53:00
0.972000122070312,42.37219437,-70.99509826,-15.5,2011-12-18 17:53:01
0.994999885559082,42.37219496,-70.99509845,-15.5,2011-12-18 17:53:02
1.00600004196167,42.37219348,-70.99509769,-15.5,2011-12-18 17:53:03
0.996999979019165,42.37219291,-70.99509771,-15.5,2011-12-18 17:53:04
1,42.37219313,-70.99509875,-15.5,2011-12-18 17:53:05
0.999000072479248,42.37219287,-70.99509937,-15.5,2011-12-18 17:53:06
1.00399994850159,42.37219239,-70.99509934,-15.5,2011-12-18 17:53:07
0.995000123977661,42.37219284,-70.99509972,-15.5,2011-12-18 17:53:08
1.00899982452393,42.37219347,-70.99509953,-15.5,2011-12-18 17:53:09
1,42.37219395,-70.99509889,-15.5,2011-12-18 17:53:10
0.993000030517578,42.37219375,-70.99509888,-15.5,2011-12-18 17:53:11
0.998000144958496,42.3721936,-70.99509896,-15.5,2011-12-18 17:53:12
1.0019998550415,42.37219296,-70.99509893,-15.5,2011-12-18 17:53:13
0.998000144958496,42.37219303,-70.99509896,-15.5,2011-12-18 17:53:14
1,42.37219306,-70.99509934,-15.5,2011-12-18 17:53:15
1.01999998092651,42.3721932,-70.99509952,-15.5,2011-12-18 17:53:16
0.980999946594238,42.37219356,-70.99509978,-15.5,2011-12-18 17:53:17
1.00099992752075,42.37219318,-70.99509949,-15.5,2011-12-18 17:53:18
1.00200009346008,42.37219351,-70.99509959,-15.5,2011-12-18 17:53:19
0.996999979019165,42.3721931,-70.99509964,-15.5,2011-12-18 17:53:20
1.00300002098083,42.37219353,-70.99510004,-15.5,2011-12-18 17:53:21
1,42.37219375,-70.99509988,-15.5,2011-12-18 17:53:22
0.996000051498413,42.37219377,-70.99509991,-15.5,2011-12-18 17:53:23
1.03600001335144,42.37219382,-70.99510023,-15.5,2011-12-18 17:53:24
0.971999883651733,42.37219403,-70.99510041,-15.5,2011-12-18 17:53:25
1.00099992752075,42.37219421,-70.99510054,-15.5,2011-12-18 17:53:26
1.00100016593933,42.37219449,-70.99510078,-15.5,2011-12-18 17:53:27
0.990000009536743,42.37219461,-70.99510081,-15.5,2011-12-18 17:53:28
1.00499987602234,42.3721945,-70.9951012,-15.5,2011-12-18 17:53:29
0.998000144958496,42.37219394,-70.99510242,-15.5,2011-12-18 17:53:30
1.00899982452393,42.37219394,-70.99510242,-15.5,2011-12-18 17:53:31
0.993000030517578,42.37219388,-70.99510275,-15.5,2011-12-18 17:53:32
0.998000144958496,42.37219441,-70.99510329,-15.5,2011-12-18 17:53:33
1.07499980926514,42.37219439,-70.9951028,-15.5,2011-12-18 17:53:34
0.927000045776367,42.372195,-70.99510311,-15.5,2011-12-18 17:53:35
0.995000123977661,42.37219505,-70.99510353,-15.5,2011-12-18 17:53:36
0.997999906539917,42.37219539,-70.99510392,-15.5,2011-12-18 17:53:37
1.00399994850159,42.37219543,-70.99510502,-15.5,2011-12-18 17:53:38
0.998000144958496,42.37219543,-70.99510502,-15.5,2011-12-18 17:53:39
25.0319998264313,42.37219295,-70.99510517,-15.5,2011-12-18 17:54:04
0.975000143051147,42.37219267,-70.9951052,-15.5,2011-12-18 17:54:05
1.0019998550415,42.37219272,-70.99510531,-15.5,2011-12-18 17:54:06
1,42.37219267,-70.99510522,-15.5,2011-12-18 17:54:07
0.999000072479248,42.37219262,-70.99510519,-15.5,2011-12-18 17:54:08
1,42.3721926,-70.99510517,-15.5,2011-12-18 17:54:09
1.04999995231628,42.37219259,-70.99510514,-15.5,2011-12-18 17:54:10
0.943000078201294,42.37219259,-70.99510493,-15.5,2011-12-18 17:54:11
0.994999885559082,42.37219259,-70.99510493,-15.5,2011-12-18 17:54:12
1,42.37219259,-70.99510493,-15.5,2011-12-18 17:54:13
0.998000144958496,42.37219259,-70.99510493,-15.5,2011-12-18 17:54:14
1.00699996948242,42.37219252,-70.99510495,-15.5,2011-12-18 17:54:15
0.999000072479248,42.37219249,-70.99510483,-15.5,2011-12-18 17:54:16
1.00399994850159,42.37219223,-70.99510473,-15.5,2011-12-18 17:54:17
20.0780000686646,42.3721936,-70.99510601,-15.5,2011-12-18 17:54:37
0.917999982833862,42.37219307,-70.99510587,-15.5,2011-12-18 17:54:38
1.00399994850159,42.37219258,-70.99510602,-15.5,2011-12-18 17:54:39
1,42.3721921,-70.99510621,-15.5,2011-12-18 17:54:40
0.994999885559082,42.37219221,-70.99510629,-15.5,2011-12-18 17:54:41
1.00699996948242,42.37219276,-70.99510697,-15.5,2011-12-18 17:54:42
0.994000196456909,42.37219306,-70.99510725,-15.5,2011-12-18 17:54:43
1,42.37219285,-70.9951072,-15.5,2011-12-18 17:54:44
1,42.37219274,-70.99510725,-15.5,2011-12-18 17:54:45
1.00799989700317,42.37219263,-70.9951075,-15.5,2011-12-18 17:54:46
1.00999999046326,42.37219267,-70.99510754,-15.5,2011-12-18 17:54:47
0.986000061035156,42.37219281,-70.99510747,-15.5,2011-12-18 17:54:48
0.997999906539917,42.37219285,-70.99510786,-15.5,2011-12-18 17:54:49
1.00300002098083,42.37219283,-70.99510786,-15.5,2011-12-18 17:54:50
0.996000051498413,42.37219264,-70.99510785,-15.5,2011-12-18 17:54:51
2.00300002098083,42.37219321,-70.99510852,-15.5,2011-12-18 17:54:53
9.00499987602234,42.37219302,-70.9951089,-15.5,2011-12-18 17:55:02
0.998000144958496,42.37219312,-70.99510915,-15.5,2011-12-18 17:55:03
1.0239999294281,42.37219324,-70.99510905,-15.5,2011-12-18 17:55:04
0.973999977111816,42.37219312,-70.99510905,-15.5,2011-12-18 17:55:05
0.99399995803833,42.37219349,-70.99510946,-15.5,2011-12-18 17:55:06
1.0090000629425,42.37219347,-70.9951095,-15.5,2011-12-18 17:55:07
0.995000123977661,42.37219339,-70.99510943,-15.5,2011-12-18 17:55:08
1.0019998550415,42.3721934,-70.99510936,-15.5,2011-12-18 17:55:09
1.00399994850159,42.37219347,-70.99510943,-15.5,2011-12-18 17:55:10
0.995000123977661,42.37219338,-70.99510933,-15.5,2011-12-18 17:55:11
1.0239999294281,42.37219416,-70.99510836,-15.5,2011-12-18 17:55:12
1,42.37219408,-70.99510863,-15.5,2011-12-18 17:55:13
0.980000019073486,42.37219367,-70.99510888,-15.5,2011-12-18 17:55:14
0.996999979019165,42.37219383,-70.99510896,-15.5,2011-12-18 17:55:15
1.00500011444092,42.37219352,-70.99510888,-15.5,2011-12-18 17:55:16
0.99399995803833,42.37219309,-70.99510848,-15.5,2011-12-18 17:55:17
0.999000072479248,42.37219281,-70.99510854,-15.5,2011-12-18 17:55:18
1,42.37219248,-70.9951087,-15.5,2011-12-18 17:55:19
0.998999834060669,42.3721923,-70.99510865,-15.5,2011-12-18 17:55:20
1.00399994850159,42.37219158,-70.99510845,-15.5,2011-12-18 17:55:21
1.00100016593933,42.37219149,-70.99510842,-15.5,2011-12-18 17:55:22
0.99399995803833,42.3721914,-70.99510843,-15.5,2011-12-18 17:55:23
1.00300002098083,42.37219097,-70.99510855,-15.5,2011-12-18 17:55:24
1,42.37219025,-70.99510834,-15.5,2011-12-18 17:55:25
1,42.37219087,-70.99510883,-15.5,2011-12-18 17:55:26
0.990000009536743,42.37219087,-70.99510883,-15.5,2011-12-18 17:55:27
1.0019998550415,42.37219087,-70.99510883,-15.5,2011-12-18 17:55:28
1.00400018692017,42.37219087,-70.99510883,-15.5,2011-12-18 17:55:29
1.99799990653992,42.37219087,-70.99510883,-15.5,2011-12-18 17:55:31
19.0339999198914,42.37219045,-70.99510892,-15.5,2011-12-18 17:55:50
0.973999977111816,42.37219069,-70.99510909,-15.5,2011-12-18 17:55:51
1.00200009346008,42.37219077,-70.99510915,-15.5,2011-12-18 17:55:52
0.999000072479248,42.37219083,-70.99510921,-15.5,2011-12-18 17:55:53
1.00099992752075,42.37219064,-70.99510915,-15.5,2011-12-18 17:55:54
1,42.3721907,-70.9951092,-15.5,2011-12-18 17:55:55
1.01500010490417,42.3721906,-70.99510918,-15.5,2011-12-18 17:55:56
0.977999925613403,42.37219058,-70.99510918,-15.5,2011-12-18 17:55:57
1.00799989700317,42.37219054,-70.99510919,-15.5,2011-12-18 17:55:58
0.993000030517578,42.37219054,-70.9951092,-15.5,2011-12-18 17:55:59
1,42.37219057,-70.99510923,-15.5,2011-12-18 17:56:00
1,42.3721907,-70.99510924,-15.5,2011-12-18 17:56:01
1,42.3721907,-70.99510925,-15.5,2011-12-18 17:56:02
0.998000144958496,42.3721907,-70.99510926,-15.5,2011-12-18 17:56:03
22.0339999198914,42.37219028,-70.99511054,-15.5,2011-12-18 17:56:25
0.973999977111816,42.37219012,-70.99511085,-15.5,2011-12-18 17:56:26
0.995000123977661,42.37219019,-70.99511088,-15.5,2011-12-18 17:56:27
1.02299976348877,42.37219015,-70.99511086,-15.5,2011-12-18 17:56:28
0.981000185012817,42.37219016,-70.99511087,-15.5,2011-12-18 17:56:29
0.993000030517578,42.37219027,-70.99511089,-15.5,2011-12-18 17:56:30
1.00499987602234,42.37219028,-70.99511168,-15.5,2011-12-18 17:56:31
0.995000123977661,42.37219019,-70.99511152,-15.5,2011-12-18 17:56:32
0.997999906539917,42.37219019,-70.99511152,-15.5,2011-12-18 17:56:33
1.00200009346008,42.37219025,-70.99511178,-15.5,2011-12-18 17:56:34
0.994999885559082,42.37219015,-70.99511183,-15.5,2011-12-18 17:56:35
1.00099992752075,42.37219004,-70.99511239,-15.5,2011-12-18 17:56:36
58.0250000953674,42.37217848,-70.99511571,-15.5,2011-12-18 17:57:34
24.0150001049042,42.37216581,-70.99511964,-15.5,2011-12-18 17:57:58
0.983999967575073,42.3721655,-70.99512006,-15.5,2011-12-18 17:57:59
1.07699990272522,42.37216503,-70.99512006,-15.5,2011-12-18 17:58:00
0.91100001335144,42.37216449,-70.99512032,-15.5,2011-12-18 17:58:01
1.00099992752075,42.37216387,-70.99512083,-15.5,2011-12-18 17:58:02
1,42.3721636,-70.99512106,-15.5,2011-12-18 17:58:03
1.01600003242493,42.37216364,-70.99512143,-15.5,2011-12-18 17:58:04
0.975000143051147,42.3721635,-70.99512154,-15.5,2011-12-18 17:58:05
1.00699996948242,42.37216354,-70.99512152,-15.5,2011-12-18 17:58:06
1.00099992752075,42.37216363,-70.99512144,-15.5,2011-12-18 17:58:07
0.992000102996826,42.3721636,-70.99512167,-15.5,2011-12-18 17:58:08
1.05799984931946,42.3721636,-70.99512167,-15.5,2011-12-18 17:58:09
0.944000005722046,42.37216369,-70.99512153,-15.5,2011-12-18 17:58:10
0.999000072479248,42.37216366,-70.99512154,-15.5,2011-12-18 17:58:11
32.0309998989105,42.37215937,-70.99512187,-15.5,2011-12-18 17:58:43
0.976000070571899,42.37215962,-70.99512178,-15.5,2011-12-18 17:58:44
1.0090000629425,42.37215993,-70.99512158,-15.5,2011-12-18 17:58:45
0.990999937057495,42.37215943,-70.99512187,-15.5,2011-12-18 17:58:46
0.993000030517578,42.37215928,-70.99512156,-15.5,2011-12-18 17:58:47
1,42.37215976,-70.9951214,-15.5,2011-12-18 17:58:48
1,42.37216003,-70.99512129,-15.5,2011-12-18 17:58:49
1.0149998664856,42.37216002,-70.99512104,-15.5,2011-12-18 17:58:50
0.985000133514404,42.37215957,-70.99512126,-15.5,2011-12-18 17:58:51
1.00099992752075,42.37215937,-70.995121,-15.5,2011-12-18 17:58:52
0.996999979019165,42.37215892,-70.99512102,-15.5,2011-12-18 17:58:53
2.02300000190735,42.37215814,-70.99512052,-15.5,2011-12-18 17:58:55
0.986000061035156,42.37215834,-70.99512022,-15.5,2011-12-18 17:58:56
4,42.37215913,-70.99511963,-15.5,2011-12-18 17:59:00
1.00500011444092,42.37215914,-70.99511961,-15.5,2011-12-18 17:59:01
0.994999885559082,42.37215911,-70.99511958,-15.5,2011-12-18 17:59:02
1.04999995231628,42.37215861,-70.99511976,-15.5,2011-12-18 17:59:03
0.950000047683716,42.37215897,-70.99511964,-15.5,2011-12-18 17:59:04
0.997999906539917,42.37215911,-70.9951197,-15.5,2011-12-18 17:59:05
1.01500010490417,42.37215911,-70.99511973,-15.5,2011-12-18 17:59:06
0.986999988555908,42.37215929,-70.99511976,-15.5,2011-12-18 17:59:07
1,42.37215932,-70.99511964,-15.5,2011-12-18 17:59:08
0.999000072479248,42.37215937,-70.99511952,-15.5,2011-12-18 17:59:09
1.0019998550415,42.37215907,-70.99511951,-15.5,2011-12-18 17:59:10
0.991000175476074,42.37215942,-70.99511945,-15.5,2011-12-18 17:59:11
1.02499985694885,42.37215971,-70.99511933,-15.5,2011-12-18 17:59:12
0.983000040054321,42.3721598,-70.99511926,-15.5,2011-12-18 17:59:13
0.999000072479248,42.37215977,-70.99511921,-15.5,2011-12-18 17:59:14
0.99399995803833,42.37215966,-70.9951192,-15.5,2011-12-18 17:59:15
11.0060000419617,42.372159,-70.99512007,-15.5,2011-12-18 17:59:26
