"diffSecs","latitude","longitude","altitude","time"
4.06799983978271,42.45152592659,-71.66652739048,50,2011-12-30 08:06:23
1.7960000038147,42.45152592659,-71.66652739048,50,2011-12-30 08:06:24
0.130000114440918,42.45152592659,-71.66652739048,50,2011-12-30 08:06:24
0.674000024795532,42.45152592659,-71.66652739048,50,2011-12-30 08:06:25
0.0179998874664307,42.45152592659,-71.66652739048,50,2011-12-30 08:06:25
1.16400003433228,42.45152592659,-71.66652739048,50,2011-12-30 08:06:26
0.809000015258789,42.45152592659,-71.66652739048,50,2011-12-30 08:06:27
1.03999996185303,42.45152592659,-71.66652739048,50,2011-12-30 08:06:28
0.960999965667725,42.45152592659,-71.66652739048,50,2011-12-30 08:06:29
1.01900005340576,42.45152592659,-71.66652739048,50,2011-12-30 08:06:30
1.00200009346008,42.45152592659,-71.66652739048,50,2011-12-30 08:06:31
0.983000040054321,42.45152592659,-71.66652739048,50,2011-12-30 08:06:32
1.15599989891052,42.45152592659,-71.66652739048,50,2011-12-30 08:06:33
0.990000009536743,42.45152592659,-71.66652739048,50,2011-12-30 08:06:34
0.855999946594238,42.45152592659,-71.66652739048,50,2011-12-30 08:06:35
1.16499996185303,42.45152592659,-71.66652739048,50,2011-12-30 08:06:36
0.835000038146973,42.45152592659,-71.66652739048,50,2011-12-30 08:06:37
1.12800002098083,42.45152592659,-71.66652739048,50,2011-12-30 08:06:38
1.03299999237061,42.45152592659,-71.66652739048,50,2011-12-30 08:06:39
0.841000080108643,42.45152592659,-71.66652739048,50,2011-12-30 08:06:40
1.00600004196167,42.45152592659,-71.66652739048,50,2011-12-30 08:06:41
1.16499996185303,42.45152592659,-71.66652739048,50,2011-12-30 08:06:42
0.829999923706055,42.45152592659,-71.66652739048,50,2011-12-30 08:06:43
1.16400003433228,42.45152592659,-71.66652739048,50,2011-12-30 08:06:44
1.15799999237061,42.45152592659,-71.66652739048,50,2011-12-30 08:06:45
0.683000087738037,42.45152592659,-71.66652739048,50,2011-12-30 08:06:46
1.10199999809265,42.45152592659,-71.66652739048,50,2011-12-30 08:06:47
3.08099985122681,42.45152592659,-71.66652739048,50,2011-12-30 08:06:50
1.12899994850159,42.45152592659,-71.66652739048,50,2011-12-30 08:06:51
0.803000211715698,42.45152592659,-71.66652739048,50,2011-12-30 08:06:52
2.15999984741211,42.45152592659,-71.66652739048,50,2011-12-30 08:06:54
1.03299999237061,42.45152592659,-71.66652739048,50,2011-12-30 08:06:55
0.812999963760376,42.45152592659,-71.66652739048,50,2011-12-30 08:06:56
1.00100016593933,42.45152592659,-71.66652739048,50,2011-12-30 08:06:57
1.03199982643127,42.45152592659,-71.66652739048,50,2011-12-30 08:06:58
1.17000007629395,42.45152592659,-71.66652739048,50,2011-12-30 08:06:59
0.796000003814697,42.45152592659,-71.66652739048,50,2011-12-30 08:07:00
1.02699995040894,42.45152592659,-71.66652739048,50,2011-12-30 08:07:01
0.975000143051147,42.45152592659,-71.66652739048,50,2011-12-30 08:07:02
1.00300002098083,42.45152592659,-71.66652739048,50,2011-12-30 08:07:03
0.997999906539917,42.45152592659,-71.66652739048,50,2011-12-30 08:07:04
1.31900000572205,42.45152592659,-71.66652739048,50,2011-12-30 08:07:06
0.681999921798706,42.45152592659,-71.66652739048,50,2011-12-30 08:07:06
1.00300002098083,42.45152592659,-71.66652739048,50,2011-12-30 08:07:07
2.18200016021729,42.45152592659,-71.66652739048,50,2011-12-30 08:07:09
2.7979998588562,42.45152592659,-71.66652739048,50,2011-12-30 08:07:12
0.467999935150146,42.45152592659,-71.66652739048,50,2011-12-30 08:07:13
0.436000108718872,42.45152592659,-71.66652739048,50,2011-12-30 08:07:13
1.11500000953674,42.45152592659,-71.66652739048,50,2011-12-30 08:07:14
1.49499988555908,42.45152592659,-71.66652739048,50,2011-12-30 08:07:16
0.41100001335144,42.45152592659,-71.66652739048,50,2011-12-30 08:07:16
0.990000009536743,42.45152592659,-71.66652739048,50,2011-12-30 08:07:17
1.07599997520447,42.45152592659,-71.66652739048,50,2011-12-30 08:07:18
0.982000112533569,42.45152592659,-71.66652739048,50,2011-12-30 08:07:19
2.87899994850159,42.45152592659,-71.66652739048,50,2011-12-30 08:07:22
1.01800012588501,42.45152592659,-71.66652739048,50,2011-12-30 08:07:23
0.962999820709229,42.45152592659,-71.66652739048,50,2011-12-30 08:07:24
1.10600018501282,42.45152592659,-71.66652739048,50,2011-12-30 08:07:25
0.902999877929688,42.45152592659,-71.66652739048,50,2011-12-30 08:07:26
1.25500011444092,42.45152592659,-71.66652739048,50,2011-12-30 08:07:27
0.796999931335449,42.45152592659,-71.66652739048,50,2011-12-30 08:07:28
0.947000026702881,42.45152592659,-71.66652739048,50,2011-12-30 08:07:29
0.976999998092651,42.45152592659,-71.66652739048,50,2011-12-30 08:07:30
1.8529999256134,42.45152592659,-71.66652739048,50,2011-12-30 08:07:32
1.51900005340576,42.45152592659,-71.66652739048,50,2011-12-30 08:07:33
0.476999998092651,42.45152592659,-71.66652739048,50,2011-12-30 08:07:34
0.194999933242798,42.45152592659,-71.66652739048,50,2011-12-30 08:07:34
1.09200000762939,42.45152592659,-71.66652739048,50,2011-12-30 08:07:35
0.921000003814697,42.45152592659,-71.66652739048,50,2011-12-30 08:07:36
1.02500009536743,42.45152592659,-71.66652739048,50,2011-12-30 08:07:37
1.04900002479553,42.45152592659,-71.66652739048,50,2011-12-30 08:07:38
1.06199979782104,42.45152592659,-71.66652739048,50,2011-12-30 08:07:39
1.29400014877319,42.45152592659,-71.66652739048,50,2011-12-30 08:07:41
0.736000061035156,42.45152592659,-71.66652739048,50,2011-12-30 08:07:41
0.842000007629395,42.45152592659,-71.66652739048,50,2011-12-30 08:07:42
1.02799987792969,42.45152592659,-71.66652739048,50,2011-12-30 08:07:43
1.19700002670288,42.45152592659,-71.66652739048,50,2011-12-30 08:07:44
0.815999984741211,42.45152592659,-71.66652739048,50,2011-12-30 08:07:45
1.25699996948242,42.45152592659,-71.66652739048,50,2011-12-30 08:07:46
0.704999923706055,42.45152592659,-71.66652739048,50,2011-12-30 08:07:47
0.999000072479248,42.45152592659,-71.66652739048,50,2011-12-30 08:07:48
1.00200009346008,42.45152592659,-71.66652739048,50,2011-12-30 08:07:49
3.01799988746643,42.45152592659,-71.66652739048,50,2011-12-30 08:07:52
1.05299997329712,42.45152592659,-71.66652739048,50,2011-12-30 08:07:53
0.968000173568726,42.45152592659,-71.66652739048,50,2011-12-30 08:07:54
0.984999895095825,42.45152592659,-71.66652739048,50,2011-12-30 08:07:55
0.983999967575073,42.45152592659,-71.66652739048,50,2011-12-30 08:07:56
0.990999937057495,42.45152592659,-71.66652739048,50,2011-12-30 08:07:57
1.00200009346008,42.45152592659,-71.66652739048,50,2011-12-30 08:07:58
1,42.45152592659,-71.66652739048,50,2011-12-30 08:07:59
1.00099992752075,42.45152592659,-71.66652739048,50,2011-12-30 08:08:00
1,42.45152592659,-71.66652739048,50,2011-12-30 08:08:01
1.007000207901,42.45152592659,-71.66652739048,50,2011-12-30 08:08:02
0.996999979019165,42.45152592659,-71.66652739048,50,2011-12-30 08:08:03
0.998999834060669,42.45152592659,-71.66652739048,50,2011-12-30 08:08:04
1.01999998092651,42.45152592659,-71.66652739048,50,2011-12-30 08:08:05
1.09100008010864,42.45152592659,-71.66652739048,50,2011-12-30 08:08:06
0.891000032424927,42.45152592659,-71.66652739048,50,2011-12-30 08:08:07
1.09299993515015,42.45152592659,-71.66652739048,50,2011-12-30 08:08:08
0.979000091552734,42.45152592659,-71.66652739048,50,2011-12-30 08:08:09
0.937000036239624,42.45152592659,-71.66652739048,50,2011-12-30 08:08:10
1.00099992752075,42.45152592659,-71.66652739048,50,2011-12-30 08:08:11
1.15499997138977,42.45152592659,-71.66652739048,50,2011-12-30 08:08:12
0.847000122070312,42.45152592659,-71.66652739048,50,2011-12-30 08:08:13
1,42.45152592659,-71.66652739048,50,2011-12-30 08:08:14
1.00499987602234,42.45152592659,-71.66652739048,50,2011-12-30 08:08:15
1.21099996566772,42.45152592659,-71.66652739048,50,2011-12-30 08:08:16
0.959000110626221,42.45152592659,-71.66652739048,50,2011-12-30 08:08:17
0.88100004196167,42.45152592659,-71.66652739048,50,2011-12-30 08:08:18
0.949999809265137,42.45152592659,-71.66652739048,50,2011-12-30 08:08:19
3.35300016403198,42.45152592659,-71.66652739048,50,2011-12-30 08:08:23
1.06900000572205,42.45152592659,-71.66652739048,50,2011-12-30 08:08:24
0.891999959945679,42.45152592659,-71.66652739048,50,2011-12-30 08:08:25
0.986000061035156,42.45152592659,-71.66652739048,50,2011-12-30 08:08:25
0.96399998664856,42.4766689538956,-71.6632658243179,50,2011-12-30 08:08:26
0.998999834060669,42.4766689538956,-71.6632658243179,50,2011-12-30 08:08:27
1.00100016593933,42.4766689538956,-71.6632658243179,50,2011-12-30 08:08:28
1.04199981689453,42.4766689538956,-71.6632658243179,50,2011-12-30 08:08:29
1.03000020980835,42.4766689538956,-71.6632658243179,50,2011-12-30 08:08:31
1.8899998664856,42.4766689538956,-71.6632658243179,50,2011-12-30 08:08:32
0.982000112533569,42.45152592659,-71.66652739048,50,2011-12-30 08:08:33
0.980999946594238,42.45152592659,-71.66652739048,50,2011-12-30 08:08:34
1,42.45152592659,-71.66652739048,50,2011-12-30 08:08:35
1.00099992752075,42.45152592659,-71.66652739048,50,2011-12-30 08:08:36
1.00800013542175,42.45152592659,-71.66652739048,50,2011-12-30 08:08:37
1.01199984550476,42.45152592659,-71.66652739048,50,2011-12-30 08:08:38
1.04999995231628,42.45152592659,-71.66652739048,50,2011-12-30 08:08:39
1.125,42.45152592659,-71.66652739048,50,2011-12-30 08:08:41
1.03000020980835,42.45152592659,-71.66652739048,50,2011-12-30 08:08:42
0.817999839782715,42.45152592659,-71.66652739048,50,2011-12-30 08:08:42
1.00500011444092,42.45152592659,-71.66652739048,50,2011-12-30 08:08:43
1.04299998283386,42.45152592659,-71.66652739048,50,2011-12-30 08:08:44
0.924000024795532,42.45152592659,-71.66652739048,50,2011-12-30 08:08:45
0.997999906539917,42.45152592659,-71.66652739048,50,2011-12-30 08:08:46
1.00600004196167,42.45152592659,-71.66652739048,50,2011-12-30 08:08:47
1.00499987602234,42.45152592659,-71.66652739048,50,2011-12-30 08:08:48
0.993000030517578,42.45152592659,-71.66652739048,50,2011-12-30 08:08:49
1.00200009346008,42.45152592659,-71.66652739048,50,2011-12-30 08:08:50
3.00399994850159,42.45152592659,-71.66652739048,50,2011-12-30 08:08:53
0.986999988555908,42.45152592659,-71.66652739048,50,2011-12-30 08:08:54
0.990999937057495,42.45152592659,-71.66652739048,50,2011-12-30 08:08:55
1.00800013542175,42.45152592659,-71.66652739048,50,2011-12-30 08:08:56
1,42.45152592659,-71.66652739048,50,2011-12-30 08:08:57
1.00200009346008,42.45152592659,-71.66652739048,50,2011-12-30 08:08:58
0.992999792098999,42.45152592659,-71.66652739048,50,2011-12-30 08:08:59
1.00500011444092,42.45152592659,-71.66652739048,50,2011-12-30 08:09:00
1,42.45152592659,-71.66652739048,50,2011-12-30 08:09:01
1.00399994850159,42.45152592659,-71.66652739048,50,2011-12-30 08:09:02
0.993000030517578,42.45152592659,-71.66652739048,50,2011-12-30 08:09:03
1.00399994850159,42.45152592659,-71.66652739048,50,2011-12-30 08:09:04
1,42.45152592659,-71.66652739048,50,2011-12-30 08:09:05
1.10599994659424,42.45152592659,-71.66652739048,50,2011-12-30 08:09:06
1.04900002479553,42.45152592659,-71.66652739048,50,2011-12-30 08:09:08
1.05400013923645,42.45152592659,-71.66652739048,50,2011-12-30 08:09:09
0.860999822616577,42.45152592659,-71.66652739048,50,2011-12-30 08:09:09
1.10300016403198,42.45152592659,-71.66652739048,50,2011-12-30 08:09:11
0.839999914169312,42.45152592659,-71.66652739048,50,2011-12-30 08:09:11
1.00200009346008,42.45152592659,-71.66652739048,50,2011-12-30 08:09:12
1.00899982452393,42.45152592659,-71.66652739048,50,2011-12-30 08:09:13
0.985000133514404,42.45152592659,-71.66652739048,50,2011-12-30 08:09:14
0.996000051498413,42.45152592659,-71.66652739048,50,2011-12-30 08:09:15
0.998999834060669,42.45152592659,-71.66652739048,50,2011-12-30 08:09:16
1.00300002098083,42.45152592659,-71.66652739048,50,2011-12-30 08:09:17
1.0090000629425,42.45152592659,-71.66652739048,50,2011-12-30 08:09:18
0.993000030517578,42.45152592659,-71.66652739048,50,2011-12-30 08:09:19
1,42.45152592659,-71.66652739048,50,2011-12-30 08:09:20
3.01900005340576,42.45152592659,-71.66652739048,50,2011-12-30 08:09:23
0.97599983215332,42.45152592659,-71.66652739048,50,2011-12-30 08:09:24
0.998000144958496,42.45152592659,-71.66652739048,50,2011-12-30 08:09:25
0.999000072479248,42.45152592659,-71.66652739048,50,2011-12-30 08:09:26
1.00999999046326,42.45152592659,-71.66652739048,50,2011-12-30 08:09:27
1.20099997520447,42.45152592659,-71.66652739048,50,2011-12-30 08:09:29
1.29999995231628,42.45152592659,-71.66652739048,50,2011-12-30 08:09:30
0.491999864578247,42.45152592659,-71.66652739048,50,2011-12-30 08:09:30
1.01600003242493,42.45152592659,-71.66652739048,50,2011-12-30 08:09:31
0.998000144958496,42.45152592659,-71.66652739048,50,2011-12-30 08:09:32
1.00599980354309,42.45152592659,-71.66652739048,50,2011-12-30 08:09:33
0.982000112533569,42.45152592659,-71.66652739048,50,2011-12-30 08:09:34
1.0090000629425,42.45152592659,-71.66652739048,50,2011-12-30 08:09:35
0.986999988555908,42.45152592659,-71.66652739048,50,2011-12-30 08:09:36
1.00600004196167,42.45152592659,-71.66652739048,50,2011-12-30 08:09:37
1.00099992752075,42.45152592659,-71.66652739048,50,2011-12-30 08:09:38
1.00399994850159,42.45152592659,-71.66652739048,50,2011-12-30 08:09:39
0.999000072479248,42.45152592659,-71.66652739048,50,2011-12-30 08:09:40
1.01099991798401,42.45152592659,-71.66652739048,50,2011-12-30 08:09:41
1,42.45152592659,-71.66652739048,50,2011-12-30 08:09:42
1.00200009346008,42.45152592659,-71.66652739048,50,2011-12-30 08:09:43
0.996999979019165,42.4766689538956,-71.6632658243179,50,2011-12-30 08:09:44
1.07500004768372,42.4766689538956,-71.6632658243179,50,2011-12-30 08:09:45
0.925999879837036,42.4766689538956,-71.6632658243179,50,2011-12-30 08:09:46
1.00099992752075,42.4766689538956,-71.6632658243179,50,2011-12-30 08:09:47
0.999000072479248,42.4766689538956,-71.6632658243179,50,2011-12-30 08:09:48
1.00600004196167,42.4766689538956,-71.6632658243179,50,2011-12-30 08:09:49
1.13499999046326,42.4766689538956,-71.6632658243179,50,2011-12-30 08:09:51
2.84500002861023,42.4766689538956,-71.6632658243179,50,2011-12-30 08:09:53
1.05299997329712,42.45152592659,-71.66652739048,50,2011-12-30 08:09:54
0.986000061035156,42.45152592659,-71.66652739048,50,2011-12-30 08:09:55
1.17499995231628,42.45152592659,-71.66652739048,50,2011-12-30 08:09:57
0.838000059127808,42.45152592659,-71.66652739048,50,2011-12-30 08:09:57
1.04699993133545,42.45152592659,-71.66652739048,50,2011-12-30 08:09:59
0.937999963760376,42.45152592659,-71.66652739048,50,2011-12-30 08:09:59
1.00200009346008,42.45152592659,-71.66652739048,50,2011-12-30 08:10:00
1.02799987792969,42.45152592659,-71.66652739048,50,2011-12-30 08:10:01
1.00400018692017,42.45152592659,-71.66652739048,50,2011-12-30 08:10:02
1.00499987602234,42.45152592659,-71.66652739048,50,2011-12-30 08:10:03
0.969000101089478,42.45152592659,-71.66652739048,50,2011-12-30 08:10:04
1.2189998626709,42.45152592659,-71.66652739048,50,2011-12-30 08:10:06
0.956000089645386,42.45152592659,-71.66652739048,50,2011-12-30 08:10:07
0.832000017166138,42.45152592659,-71.66652739048,50,2011-12-30 08:10:07
1.22599983215332,42.45152592659,-71.66652739048,50,2011-12-30 08:10:09
0.895000219345093,42.45152592659,-71.66652739048,50,2011-12-30 08:10:10
0.875999927520752,42.45152592659,-71.66652739048,50,2011-12-30 08:10:10
0.999000072479248,42.45152592659,-71.66652739048,50,2011-12-30 08:10:11
0.967999935150146,42.45152592659,-71.66652739048,50,2011-12-30 08:10:12
1.1010000705719,42.45152592659,-71.66652739048,50,2011-12-30 08:10:14
1.07999992370605,42.45152592659,-71.66652739048,50,2011-12-30 08:10:15
0.980000019073486,42.45152592659,-71.66652739048,50,2011-12-30 08:10:16
0.978999853134155,42.45152592659,-71.66652739048,50,2011-12-30 08:10:17
0.855000019073486,42.45152592659,-71.66652739048,50,2011-12-30 08:10:17
1.17600011825562,42.45152592659,-71.66652739048,50,2011-12-30 08:10:19
0.270999908447266,42.4381738901138,-71.6690272092819,50,2011-12-30 08:10:19
1.07299995422363,42.4381738901138,-71.6690272092819,50,2011-12-30 08:10:20
1.85000014305115,42.4381738901138,-71.6690272092819,50,2011-12-30 08:10:22
0.359999895095825,42.4381738901138,-71.6690272092819,50,2011-12-30 08:10:22
0.773000001907349,42.4381738901138,-71.6690272092819,50,2011-12-30 08:10:23
1.01699995994568,42.4381738901138,-71.6690272092819,50,2011-12-30 08:10:24
1.26200008392334,42.4381738901138,-71.6690272092819,50,2011-12-30 08:10:25
2.02500009536743,42.4381953477859,-71.6689521074295,50,2011-12-30 08:10:27
0.723999977111816,42.4383509159088,-71.6687697172165,50,2011-12-30 08:10:28
1.15799999237061,42.4382972717285,-71.6688394546509,50,2011-12-30 08:10:29
0.876999855041504,42.4382275342941,-71.6690111160278,50,2011-12-30 08:10:30
0.975000143051147,42.4382704496384,-71.6689252853394,50,2011-12-30 08:10:31
1.02699995040894,42.4382436275482,-71.6690111160278,50,2011-12-30 08:10:32
1.00699996948242,42.4381524324417,-71.6691774129868,50,2011-12-30 08:10:33
0.992000102996826,42.4381577968597,-71.6692095994949,50,2011-12-30 08:10:34
0.888000011444092,42.4381738901138,-71.6690862178802,50,2011-12-30 08:10:35
1.00499987602234,42.4382328987122,-71.6689735651016,50,2011-12-30 08:10:36
1.02699995040894,42.4382758140564,-71.6688930988312,50,2011-12-30 08:10:37
0.967000007629395,42.4382919073105,-71.6689091920853,50,2011-12-30 08:10:38
1.16499996185303,42.4383455514908,-71.6688501834869,50,2011-12-30 08:10:39
0.823000192642212,42.438388466835,-71.668866276741,50,2011-12-30 08:10:40
1.38399982452393,42.4383401870728,-71.6688716411591,50,2011-12-30 08:10:41
0.703999996185303,42.4383938312531,-71.6688072681427,50,2011-12-30 08:10:42
1.29500007629395,42.4383080005646,-71.6689252853394,50,2011-12-30 08:10:43
0.730999946594238,42.4381417036057,-71.6690754890442,50,2011-12-30 08:10:44
1.39000010490417,42.4381470680237,-71.6690325737,50,2011-12-30 08:10:45
0.763000011444092,42.4381202459335,-71.6690272092819,50,2011-12-30 08:10:46
0.941999912261963,42.4380987882614,-71.6690647602081,50,2011-12-30 08:10:47
0.969000101089478,42.4381417036057,-71.6689682006836,50,2011-12-30 08:10:48
0.940999984741211,42.4381524324417,-71.6689950227737,50,2011-12-30 08:10:49
1.50699996948242,42.4381041526794,-71.6691130399704,50,2011-12-30 08:10:50
0.724999904632568,42.4380505084991,-71.6691935062408,50,2011-12-30 08:10:51
1.11199998855591,42.4379110336304,-71.6692793369293,50,2011-12-30 08:10:52
0.742000102996826,42.4379968643188,-71.6691666841507,50,2011-12-30 08:10:53
0.881999969482422,42.4379378557205,-71.6692417860031,50,2011-12-30 08:10:54
1.0550000667572,42.4380719661713,-71.6690808534622,50,2011-12-30 08:10:55
1.05999994277954,42.4380880594254,-71.6691613197327,50,2011-12-30 08:10:56
0.976999998092651,42.4381202459335,-71.6690647602081,50,2011-12-30 08:10:57
0.901999950408936,42.4381470680237,-71.6690701246262,50,2011-12-30 08:10:58
1.92499995231628,42.4382543563843,-71.6689950227737,50,2011-12-30 08:11:00
1.02400016784668,42.4383080005646,-71.6689199209213,50,2011-12-30 08:11:01
0.973999977111816,42.4381631612778,-71.6690701246262,50,2011-12-30 08:11:02
1.38599991798401,42.4381417036057,-71.6691291332245,50,2011-12-30 08:11:03
0.669000148773193,42.4381256103516,-71.6691023111343,50,2011-12-30 08:11:04
1.05799984931946,42.4381309747696,-71.6690969467163,50,2011-12-30 08:11:05
0.88700008392334,42.4381417036057,-71.6690915822983,50,2011-12-30 08:11:06
0.994999885559082,42.4379432201385,-71.6693222522736,50,2011-12-30 08:11:07
6.02800011634827,42.4379163980484,-71.6696441173553,50,2011-12-30 08:11:13
1.03900003433228,42.4382704496384,-71.6691076755524,50,2011-12-30 08:11:14
0.968999862670898,42.4383509159088,-71.6689306497574,50,2011-12-30 08:11:15
2.01900005340576,42.4383240938187,-71.6689145565033,50,2011-12-30 08:11:17
1.00399994850159,42.4381202459335,-71.6692471504211,50,2011-12-30 08:11:18
0.943000078201294,42.437658905983,-71.6690272092819,36.2999992370605,2011-12-30 08:11:19
0.424999952316284,42.4377983808517,-71.6690701246262,38.5,2011-12-30 08:11:19
1.00099992752075,42.4377769231796,-71.6690701246262,39.4000015258789,2011-12-30 08:11:20
0.988000154495239,42.4379646778107,-71.6690808534622,44.0999984741211,2011-12-30 08:11:21
0.999000072479248,42.4381792545319,-71.6691130399704,49.4000015258789,2011-12-30 08:11:22
0.99399995803833,42.4381470680237,-71.6691023111343,48.7999992370605,2011-12-30 08:11:23
1.03099989891052,42.4381256103516,-71.6690969467163,48.0999984741211,2011-12-30 08:11:24
0.980999946594238,42.4381417036057,-71.6690969467163,48.4000015258789,2011-12-30 08:11:25
1,42.4382865428925,-71.6691130399704,52,2011-12-30 08:11:26
1.06800007820129,42.4381256103516,-71.6690915822983,48.2000007629395,2011-12-30 08:11:27
0.99399995803833,42.4379432201385,-71.6690647602081,43.7999992370605,2011-12-30 08:11:28
1.07400012016296,42.4379539489746,-71.6690701246262,44,2011-12-30 08:11:29
0.98199987411499,42.4379914999008,-71.6690754890442,44.9000015258789,2011-12-30 08:11:30
1.79400014877319,42.4381470680237,-71.6690969467163,48.7999992370605,2011-12-30 08:11:32
0.209999799728394,42.4381953477859,-71.6691023111343,49.9000015258789,2011-12-30 08:11:32
0.976999998092651,42.4382168054581,-71.6691023111343,50.5,2011-12-30 08:11:33
1.21600008010864,42.4382382631302,-71.6691076755524,51,2011-12-30 08:11:35
0.812000036239624,42.4382489919662,-71.6691076755524,51.2000007629395,2011-12-30 08:11:35
0.990000009536743,42.4382436275482,-71.6691076755524,51.2000007629395,2011-12-30 08:11:36
1.04299998283386,42.4382168054581,-71.6691023111343,50.5,2011-12-30 08:11:37
0.969000101089478,42.4382168054581,-71.6691023111343,50.5,2011-12-30 08:11:38
1.86500000953674,42.4382168054581,-71.6691023111343,50.5,2011-12-30 08:11:40
0.506999969482422,42.4382168054581,-71.6691023111343,50.5,2011-12-30 08:11:41
0.636999845504761,42.4382168054581,-71.6691023111343,50.5,2011-12-30 08:11:41
0.996000051498413,42.4382168054581,-71.6691023111343,50.5999984741211,2011-12-30 08:11:42
0.858000040054321,42.4382168054581,-71.6691023111343,50.5999984741211,2011-12-30 08:11:43
1.1340000629425,42.4382168054581,-71.6691023111343,50.5999984741211,2011-12-30 08:11:44
0.86899995803833,42.4382168054581,-71.6691023111343,50.5999984741211,2011-12-30 08:11:45
1.13199996948242,42.4382168054581,-71.6691023111343,50.5999984741211,2011-12-30 08:11:46
0.964999914169312,42.4382168054581,-71.6691023111343,50.5999984741211,2011-12-30 08:11:47
1.6800000667572,42.4382168054581,-71.6691023111343,50.5999984741211,2011-12-30 08:11:49
0.332000017166138,42.438206076622,-71.6690969467163,50.2999992370605,2011-12-30 08:11:49
0.927000045776367,42.438206076622,-71.6690969467163,50.2999992370605,2011-12-30 08:11:50
1.04999995231628,42.438206076622,-71.6690969467163,50.2999992370605,2011-12-30 08:11:51
1.14400005340576,42.438206076622,-71.6690969467163,50.2999992370605,2011-12-30 08:11:53
0.861999988555908,42.438200712204,-71.6690969467163,50.2000007629395,2011-12-30 08:11:53
1.10699987411499,42.438200712204,-71.6690969467163,50.2000007629395,2011-12-30 08:11:54
0.926000118255615,42.438200712204,-71.6690969467163,50.2000007629395,2011-12-30 08:11:55
0.88100004196167,42.4381899833679,-71.6690915822983,50,2011-12-30 08:11:56
1.10599994659424,42.4381899833679,-71.6690915822983,49.9000015258789,2011-12-30 08:11:57
1.0090000629425,42.4381899833679,-71.6690915822983,49.9000015258789,2011-12-30 08:11:58
0.930999994277954,42.4381899833679,-71.6690915822983,49.9000015258789,2011-12-30 08:11:59
0.984999895095825,42.4381899833679,-71.6690915822983,49.9000015258789,2011-12-30 08:12:00
0.967999935150146,42.4381899833679,-71.6690915822983,49.9000015258789,2011-12-30 08:12:01
1.00999999046326,42.4381846189499,-71.6690915822983,49.7999992370605,2011-12-30 08:12:02
1.00800013542175,42.4381899833679,-71.6690915822983,49.9000015258789,2011-12-30 08:12:03
0.976999998092651,42.4381899833679,-71.6690915822983,49.9000015258789,2011-12-30 08:12:04
1,42.4381846189499,-71.6690915822983,49.9000015258789,2011-12-30 08:12:05
1.00799989700317,42.4381899833679,-71.6690915822983,49.9000015258789,2011-12-30 08:12:06
1.04500007629395,42.4381846189499,-71.6690915822983,49.9000015258789,2011-12-30 08:12:07
1.00200009346008,42.4381846189499,-71.6690915822983,49.7999992370605,2011-12-30 08:12:08
0.95199990272522,42.4381846189499,-71.6690915822983,49.7999992370605,2011-12-30 08:12:09
1.47399997711182,42.4381792545319,-71.6690915822983,49.7000007629395,2011-12-30 08:12:11
0.516000032424927,42.4381792545319,-71.6690915822983,49.7000007629395,2011-12-30 08:12:11
1.16000008583069,42.4381792545319,-71.6690915822983,49.7999992370605,2011-12-30 08:12:12
0.95199990272522,42.4381846189499,-71.6690915822983,49.7999992370605,2011-12-30 08:12:13
0.986999988555908,42.4381846189499,-71.6690915822983,49.9000015258789,2011-12-30 08:12:14
1.00500011444092,42.4381846189499,-71.6690915822983,49.9000015258789,2011-12-30 08:12:15
0.900999784469604,42.4381846189499,-71.6690915822983,49.9000015258789,2011-12-30 08:12:16
1.00100016593933,42.4381846189499,-71.6690915822983,49.7999992370605,2011-12-30 08:12:17
1.02199983596802,42.4380022287369,-71.6690647602081,45.4000015258789,2011-12-30 08:12:18
0.971000194549561,42.4380075931549,-71.6690647602081,45.5,2011-12-30 08:12:19
1.00399994850159,42.4380397796631,-71.6690701246262,46.2000007629395,2011-12-30 08:12:20
1.00099992752075,42.4380773305893,-71.6690754890442,47.2000007629395,2011-12-30 08:12:21
1.01399993896484,42.4380934238434,-71.6690808534622,47.5999984741211,2011-12-30 08:12:22
0.986000061035156,42.4380987882614,-71.6690808534622,47.7000007629395,2011-12-30 08:12:23
0.998000144958496,42.4381148815155,-71.6690808534622,48.2000007629395,2011-12-30 08:12:24
0.998999834060669,42.4381202459335,-71.6690808534622,48.2999992370605,2011-12-30 08:12:25
1.17900013923645,42.4381202459335,-71.6690808534622,48.2999992370605,2011-12-30 08:12:26
0.822999954223633,42.4381309747696,-71.6690862178802,48.5,2011-12-30 08:12:27
1.03399991989136,42.4381417036057,-71.6690862178802,48.7999992370605,2011-12-30 08:12:28
1.05200004577637,42.4381577968597,-71.6690862178802,49.0999984741211,2011-12-30 08:12:29
0.969000101089478,42.43816859,-71.66909022,-5.59999990463257,2011-12-30 08:12:30
0.953999996185303,42.43817549,-71.66909129,-3.90000009536743,2011-12-30 08:12:31
0.995999813079834,42.43818273,-71.66909245,-2.09999990463257,2011-12-30 08:12:32
1.01100015640259,42.43818616,-71.66909298,-1.29999995231628,2011-12-30 08:12:33
1.05099987983704,42.43818629,-71.669093,-1.20000004768372,2011-12-30 08:12:34
0.940999984741211,42.43818726,-71.66909313,-1,2011-12-30 08:12:35
1.42900013923645,42.43819007,-71.6690936,-0.300000011920929,2011-12-30 08:12:37
0.751999855041504,42.43819503,-71.66909439,0.899999976158142,2011-12-30 08:12:37
1.67300009727478,42.43819557,-71.66909448,1,2011-12-30 08:12:39
1.05399990081787,42.43819601,-71.66909456,1.10000002384186,2011-12-30 08:12:40
0.241000175476074,42.43820204,-71.66909548,2.59999990463257,2011-12-30 08:12:40
0.977999925613403,42.43820206,-71.66909544,2.59999990463257,2011-12-30 08:12:41
1.56800007820129,42.43820368,-71.6690957,3,2011-12-30 08:12:43
0.355999946594238,42.4382197,-71.66909819,7.09999990463257,2011-12-30 08:12:43
0.957000017166138,42.43821793,-71.6690979,6.59999990463257,2011-12-30 08:12:44
0.994999885559082,42.43821926,-71.66909809,6.90000009536743,2011-12-30 08:12:45
0.993000030517578,42.43821605,-71.6690976,6.09999990463257,2011-12-30 08:12:46
1.01399993896484,42.43821745,-71.66909782,6.5,2011-12-30 08:12:47
1.05900001525879,42.4382176,-71.66909785,6.5,2011-12-30 08:12:48
0.926000118255615,42.43821912,-71.66909808,6.90000009536743,2011-12-30 08:12:49
1.02499985694885,42.43822132,-71.6690984,7.40000009536743,2011-12-30 08:12:50
0.985000133514404,42.43821952,-71.66909806,7,2011-12-30 08:12:51
1.03199982643127,42.43822364,-71.66909861,8,2011-12-30 08:12:52
0.968000173568726,42.4382262,-71.66909881,8.69999980926514,2011-12-30 08:12:53
0.996999979019165,42.43822501,-71.66909854,8.39999961853027,2011-12-30 08:12:54
1.05099987983704,42.43822161,-71.66909782,7.59999990463257,2011-12-30 08:12:55
0.947000026702881,42.43822869,-71.66909873,9.39999961853027,2011-12-30 08:12:56
1,42.43822785,-71.66909841,9.30000019073486,2011-12-30 08:12:57
0.999000072479248,42.43822888,-71.66909833,9.60000038146973,2011-12-30 08:12:58
1.09500002861023,42.43823118,-71.66909862,10.1999998092651,2011-12-30 08:12:59
0.964999914169312,42.43823478,-71.66909909,11.1000003814697,2011-12-30 08:13:00
0.960000038146973,42.43823663,-71.66909939,11.6000003814697,2011-12-30 08:13:01
0.986999988555908,42.43824073,-71.66909991,12.6000003814697,2011-12-30 08:13:02
0.997999906539917,42.43823896,-71.66909957,12.1999998092651,2011-12-30 08:13:03
1.00400018692017,42.43824361,-71.66910028,13.3999996185303,2011-12-30 08:13:04
0.985999822616577,42.43824676,-71.66910079,14.1000003814697,2011-12-30 08:13:05
1.01200008392334,42.43825082,-71.6691013,15.1000003814697,2011-12-30 08:13:06
1.01300001144409,42.43825868,-71.66910237,17.1000003814697,2011-12-30 08:13:07
0.986999988555908,42.43826799,-71.66910372,19.5,2011-12-30 08:13:08
0.996000051498413,42.43827046,-71.66910401,20.1000003814697,2011-12-30 08:13:09
0.990999937057495,42.43827222,-71.66910422,20.6000003814697,2011-12-30 08:13:10
1.0090000629425,42.43827427,-71.66910447,21.1000003814697,2011-12-30 08:13:11
1.00099992752075,42.43827517,-71.66910462,21.2999992370605,2011-12-30 08:13:12
1.01900005340576,42.43827803,-71.66910508,22,2011-12-30 08:13:13
1.15400004386902,42.43827947,-71.66910528,22.2999992370605,2011-12-30 08:13:14
1.45899987220764,42.43828448,-71.66910613,23.5,2011-12-30 08:13:16
1.00999999046326,42.438284,-71.66910607,23.3999996185303,2011-12-30 08:13:17
0.986999988555908,42.43828341,-71.66910607,23.2999992370605,2011-12-30 08:13:18
0.891000032424927,42.438284,-71.66910616,23.3999996185303,2011-12-30 08:13:19
1.00699996948242,42.43828229,-71.66910588,23,2011-12-30 08:13:20
0.992000102996826,42.43828123,-71.66910568,22.7000007629395,2011-12-30 08:13:21
1.01200008392334,42.4382809,-71.66910557,22.6000003814697,2011-12-30 08:13:22
1.00999999046326,42.43827886,-71.66910513,22.1000003814697,2011-12-30 08:13:23
0.978999853134155,42.43828088,-71.66910539,22.5,2011-12-30 08:13:24
0.999000072479248,42.43828124,-71.66910537,22.6000003814697,2011-12-30 08:13:25
1.00300002098083,42.43828209,-71.66910549,22.7999992370605,2011-12-30 08:13:26
0.99399995803833,42.43828399,-71.66910568,23.2999992370605,2011-12-30 08:13:27
0.999000072479248,42.43828474,-71.66910564,23.3999996185303,2011-12-30 08:13:28
1.00399994850159,42.43828423,-71.66910539,23.2999992370605,2011-12-30 08:13:29
0.999000072479248,42.4382865,-71.66910574,23.7999992370605,2011-12-30 08:13:30
1.05900001525879,42.43828743,-71.66910577,24,2011-12-30 08:13:31
0.936999797821045,42.43828725,-71.66910569,24,2011-12-30 08:13:32
1.02100014686584,42.43828584,-71.66910547,23.6000003814697,2011-12-30 08:13:33
0.980000019073486,42.4382843,-71.66910521,23.2000007629395,2011-12-30 08:13:34
1.00999999046326,42.43828231,-71.66910492,22.7999992370605,2011-12-30 08:13:35
1,42.43828238,-71.66910494,22.7999992370605,2011-12-30 08:13:36
0.996000051498413,42.43828085,-71.66910469,22.3999996185303,2011-12-30 08:13:37
1.01999998092651,42.43828096,-71.66910463,22.3999996185303,2011-12-30 08:13:38
1.02199983596802,42.43828092,-71.66910459,22.3999996185303,2011-12-30 08:13:39
0.952000141143799,42.43828165,-71.66910472,22.6000003814697,2011-12-30 08:13:40
0.996999979019165,42.43828406,-71.66910503,23.2999992370605,2011-12-30 08:13:41
1.00300002098083,42.43828259,-71.66910478,22.8999996185303,2011-12-30 08:13:42
1.00699996948242,42.43832777,-71.6691152,34.2000007629395,2011-12-30 08:13:43
1.03600001335144,42.43836714,-71.66912436,43.9000015258789,2011-12-30 08:13:44
0.967999935150146,42.43838994,-71.66912969,49.5999984741211,2011-12-30 08:13:45
0.995000123977661,42.43837723,-71.66912665,46.5,2011-12-30 08:13:46
1.02300000190735,42.43839468,-71.66913073,50.7999992370605,2011-12-30 08:13:47
1.01299977302551,42.43840165,-71.66913224,52.5,2011-12-30 08:13:48
0.958000183105469,42.43840438,-71.6691326,53.2000007629395,2011-12-30 08:13:49
1,42.43840725,-71.66913313,54,2011-12-30 08:13:50
1.05399990081787,42.43841537,-71.66913433,56,2011-12-30 08:13:51
0.956000089645386,42.43841408,-71.66913412,55.7000007629395,2011-12-30 08:13:52
0.990999937057495,42.43841002,-71.66913348,54.7000007629395,2011-12-30 08:13:53
1.00500011444092,42.43840988,-71.66913341,54.5999984741211,2011-12-30 08:13:54
1.00399994850159,42.4384084,-71.66913316,54.2000007629395,2011-12-30 08:13:55
0.983999967575073,42.43841015,-71.66913339,54.5999984741211,2011-12-30 08:13:56
1.01099991798401,42.43841073,-71.6691334,54.7999992370605,2011-12-30 08:13:57
1,42.43840905,-71.66913312,54.2999992370605,2011-12-30 08:13:58
1.03400015830994,42.43840905,-71.66913312,54.2999992370605,2011-12-30 08:13:59
0.970999956130981,42.4384093,-71.66913313,54.4000015258789,2011-12-30 08:14:00
1.1159999370575,42.43840994,-71.66913318,54.5,2011-12-30 08:14:01
0.86899995803833,42.43840929,-71.6691331,54.4000015258789,2011-12-30 08:14:02
1.00699996948242,42.4384101,-71.66913323,54.5999984741211,2011-12-30 08:14:03
1.10199999809265,42.43841086,-71.66913332,54.7000007629395,2011-12-30 08:14:04
0.976000070571899,42.43841177,-71.66913342,54.9000015258789,2011-12-30 08:14:05
0.937999963760376,42.43841159,-71.66913341,54.9000015258789,2011-12-30 08:14:06
0.983999967575073,42.43841167,-71.66913341,54.9000015258789,2011-12-30 08:14:07
1.00200009346008,42.43841116,-71.66913338,54.7999992370605,2011-12-30 08:14:08
0.994999885559082,42.43841112,-71.66913344,54.7999992370605,2011-12-30 08:14:09
1.00600004196167,42.43841154,-71.66913354,54.9000015258789,2011-12-30 08:14:10
1.02100014686584,42.43841159,-71.66913356,54.9000015258789,2011-12-30 08:14:11
0.992999792098999,42.43841185,-71.66913357,54.9000015258789,2011-12-30 08:14:12
1.02000021934509,42.43841201,-71.66913364,54.9000015258789,2011-12-30 08:14:13
0.970999956130981,42.43841294,-71.66913379,55.2000007629395,2011-12-30 08:14:14
0.993000030517578,42.43841294,-71.66913379,55.2000007629395,2011-12-30 08:14:15
1.01099991798401,42.43841257,-71.6691336,55.0999984741211,2011-12-30 08:14:16
0.986000061035156,42.4384111,-71.66913322,54.7000007629395,2011-12-30 08:14:17
0.994999885559082,42.43840863,-71.66913273,54,2011-12-30 08:14:18
1.00399994850159,42.43840964,-71.66913277,54.2000007629395,2011-12-30 08:14:19
1.00200009346008,42.43840912,-71.66913278,54.0999984741211,2011-12-30 08:14:20
0.994999885559082,42.43840912,-71.66913278,54.0999984741211,2011-12-30 08:14:21
1.18700003623962,42.43841002,-71.66913291,54.2999992370605,2011-12-30 08:14:22
0.812000036239624,42.4384107,-71.66913296,54.5,2011-12-30 08:14:23
0.998000144958496,42.43841134,-71.6691331,54.5999984741211,2011-12-30 08:14:24
1.01099991798401,42.43841244,-71.6691332,54.9000015258789,2011-12-30 08:14:25
1.08699989318848,42.4384151,-71.66913358,55.5999984741211,2011-12-30 08:14:26
1.07000017166138,42.43841531,-71.6691335,55.5999984741211,2011-12-30 08:14:27
0.833999872207642,42.43841531,-71.6691335,55.5999984741211,2011-12-30 08:14:28
1.00300002098083,42.43841301,-71.66913289,55,2011-12-30 08:14:29
1.06699991226196,42.43841463,-71.66913277,55.4000015258789,2011-12-30 08:14:30
0.933000087738037,42.4384145,-71.66913259,55.4000015258789,2011-12-30 08:14:31
1.08999991416931,42.4384145,-71.66913259,55.4000015258789,2011-12-30 08:14:32
0.992000102996826,42.43841348,-71.66913234,55.2000007629395,2011-12-30 08:14:33
0.990000009536743,42.4384141,-71.66913214,55.4000015258789,2011-12-30 08:14:34
0.920000076293945,42.43841609,-71.66913216,56,2011-12-30 08:14:35
1.00899982452393,42.43841751,-71.66913231,56.4000015258789,2011-12-30 08:14:36
1.07500004768372,42.43841828,-71.66913239,56.7000007629395,2011-12-30 08:14:37
0.926000118255615,42.43841799,-71.66913214,56.5999984741211,2011-12-30 08:14:38
1.00699996948242,42.4384197,-71.66913225,57.0999984741211,2011-12-30 08:14:39
0.993000030517578,42.43842124,-71.66913231,57.5,2011-12-30 08:14:40
0.998999834060669,42.43842039,-71.66913215,57.2999992370605,2011-12-30 08:14:41
1.007000207901,42.43842185,-71.66913221,57.7000007629395,2011-12-30 08:14:42
1.02799987792969,42.4384209,-71.669132,57.4000015258789,2011-12-30 08:14:43
0.983999967575073,42.43841857,-71.66913165,56.7999992370605,2011-12-30 08:14:44
0.992000102996826,42.43841952,-71.66913178,57.0999984741211,2011-12-30 08:14:45
0.990000009536743,42.43842022,-71.66913191,57.2999992370605,2011-12-30 08:14:46
1.00300002098083,42.43842076,-71.66913202,57.4000015258789,2011-12-30 08:14:47
1.03299999237061,42.43842089,-71.66913211,57.5,2011-12-30 08:14:48
0.988999843597412,42.43842149,-71.66913222,57.7000007629395,2011-12-30 08:14:49
0.976000070571899,42.43842094,-71.66913191,57.5999984741211,2011-12-30 08:14:50
0.996999979019165,42.43842073,-71.66913154,57.5,2011-12-30 08:14:51
1.00200009346008,42.43841935,-71.66913111,57.2999992370605,2011-12-30 08:14:52
1.01899981498718,42.43841725,-71.66913032,56.7999992370605,2011-12-30 08:14:53
0.697000026702881,42.43841536,-71.66912977,56.4000015258789,2011-12-30 08:14:54
1,42.43841533,-71.66912945,56.4000015258789,2011-12-30 08:14:55
1.00600004196167,42.43841504,-71.66912875,56.2999992370605,2011-12-30 08:14:56
1.07100009918213,42.43841521,-71.66912836,56.4000015258789,2011-12-30 08:14:57
0.96399998664856,42.43841648,-71.66912793,56.7999992370605,2011-12-30 08:14:58
1.03600001335144,42.43841632,-71.66912746,56.7000007629395,2011-12-30 08:14:59
0.994999885559082,42.43841632,-71.66912746,56.7000007629395,2011-12-30 08:15:00
0.92300009727478,42.43841682,-71.66912701,56.9000015258789,2011-12-30 08:15:01
1.0090000629425,42.43841706,-71.66912682,56.9000015258789,2011-12-30 08:15:02
1.01199984550476,42.43841806,-71.66912673,57.2000007629395,2011-12-30 08:15:03
0.999000072479248,42.43841926,-71.66912669,57.5,2011-12-30 08:15:04
0.989000082015991,42.43841891,-71.66912631,57.4000015258789,2011-12-30 08:15:05
1.00699996948242,42.43841908,-71.66912598,57.5,2011-12-30 08:15:06
0.994999885559082,42.43841912,-71.66912603,57.5,2011-12-30 08:15:07
0.996999979019165,42.4384187,-71.66912604,57.4000015258789,2011-12-30 08:15:08
1.01300001144409,42.43841883,-71.66912582,57.5,2011-12-30 08:15:09
0.986999988555908,42.43841915,-71.6691261,57.5999984741211,2011-12-30 08:15:10
0.996000051498413,42.43841903,-71.66912584,57.5999984741211,2011-12-30 08:15:11
1.00099992752075,42.43841908,-71.66912547,57.7000007629395,2011-12-30 08:15:12
1.00300002098083,42.43841908,-71.66912547,57.7000007629395,2011-12-30 08:15:13
1,42.43841949,-71.66912576,57.7999992370605,2011-12-30 08:15:14
1.01999998092651,42.43841965,-71.66912578,57.7999992370605,2011-12-30 08:15:15
1.05700016021729,42.43841865,-71.66912577,57.5999984741211,2011-12-30 08:15:16
0.930999994277954,42.43841885,-71.66912593,57.7000007629395,2011-12-30 08:15:17
0.990999937057495,42.43841878,-71.66912602,57.7000007629395,2011-12-30 08:15:18
1.01500010490417,42.4384186,-71.66912606,57.5999984741211,2011-12-30 08:15:19
0.992999792098999,42.43841873,-71.66912628,57.7000007629395,2011-12-30 08:15:20
0.993000030517578,42.43841838,-71.66912634,57.5999984741211,2011-12-30 08:15:21
1,42.43841735,-71.66912632,57.2999992370605,2011-12-30 08:15:22
1,42.43841704,-71.66912641,57.2000007629395,2011-12-30 08:15:23
0.995000123977661,42.43841722,-71.6691263,57.2999992370605,2011-12-30 08:15:24
1.00300002098083,42.43841636,-71.66912609,57.0999984741211,2011-12-30 08:15:25
1.00699996948242,42.43841636,-71.66912609,57.0999984741211,2011-12-30 08:15:26
1.08599996566772,42.43841594,-71.66912583,57,2011-12-30 08:15:27
0.976000070571899,42.43841622,-71.66912586,57.0999984741211,2011-12-30 08:15:28
0.998999834060669,42.4384156,-71.66912563,57,2011-12-30 08:15:29
0.942000150680542,42.43841577,-71.66912559,57,2011-12-30 08:15:30
1.01699995994568,42.43841589,-71.66912556,57.0999984741211,2011-12-30 08:15:31
0.973999977111816,42.43841585,-71.66912543,57.0999984741211,2011-12-30 08:15:32
1.02099990844727,42.43841605,-71.6691253,57.2000007629395,2011-12-30 08:15:33
0.979000091552734,42.43841536,-71.66912496,57.0999984741211,2011-12-30 08:15:34
1.00200009346008,42.43841471,-71.66912471,56.9000015258789,2011-12-30 08:15:35
0.998999834060669,42.43841487,-71.66912472,56.9000015258789,2011-12-30 08:15:36
1,42.43841487,-71.66912472,56.9000015258789,2011-12-30 08:15:37
1.03299999237061,42.43841477,-71.66912457,56.9000015258789,2011-12-30 08:15:38
1.09500002861023,42.43841539,-71.66912452,57.0999984741211,2011-12-30 08:15:39
0.947000026702881,42.43841562,-71.66912454,57.2000007629395,2011-12-30 08:15:40
0.934999942779541,42.43841548,-71.66912444,57.0999984741211,2011-12-30 08:15:41
0.988000154495239,42.43841559,-71.66912431,57.2000007629395,2011-12-30 08:15:42
1.00099992752075,42.43841611,-71.66912455,57.2999992370605,2011-12-30 08:15:43
0.997999906539917,42.43841502,-71.66912444,57,2011-12-30 08:15:44
1.00200009346008,42.43841525,-71.66912446,57.0999984741211,2011-12-30 08:15:45
1.00699996948242,42.43841525,-71.66912446,57.0999984741211,2011-12-30 08:15:46
0.993000030517578,42.43841508,-71.6691245,57.0999984741211,2011-12-30 08:15:47
1.00799989700317,42.4384146,-71.66912434,57,2011-12-30 08:15:48
0.995000123977661,42.43841423,-71.6691244,56.9000015258789,2011-12-30 08:15:49
1.07699990272522,42.43841328,-71.66912424,56.7000007629395,2011-12-30 08:15:50
0.927999973297119,42.43841328,-71.66912424,56.7000007629395,2011-12-30 08:15:51
0.994000196456909,42.43841262,-71.66912413,56.5,2011-12-30 08:15:52
0.997999906539917,42.43841234,-71.6691241,56.5,2011-12-30 08:15:53
1.00200009346008,42.43841218,-71.66912413,56.5,2011-12-30 08:15:54
0.996999979019165,42.43841204,-71.66912422,56.5,2011-12-30 08:15:55
1.00699996948242,42.43841137,-71.66912413,56.2999992370605,2011-12-30 08:15:56
1.01199984550476,42.43841133,-71.66912419,56.2999992370605,2011-12-30 08:15:57
0.986000061035156,42.4384116,-71.66912418,56.4000015258789,2011-12-30 08:15:58
1.00200009346008,42.43841173,-71.66912408,56.4000015258789,2011-12-30 08:15:59
0.988999843597412,42.43841173,-71.66912408,56.4000015258789,2011-12-30 08:16:00
1.00800013542175,42.43841098,-71.66912388,56.2999992370605,2011-12-30 08:16:01
1.01300001144409,42.43841075,-71.66912384,56.2000007629395,2011-12-30 08:16:02
0.999000072479248,42.4384105,-71.66912372,56.2000007629395,2011-12-30 08:16:03
0.984999895095825,42.43841039,-71.66912379,56.0999984741211,2011-12-30 08:16:04
0.996999979019165,42.43841044,-71.6691238,56.0999984741211,2011-12-30 08:16:05
1.07999992370605,42.43841027,-71.66912377,56.0999984741211,2011-12-30 08:16:06
0.945000171661377,42.43840982,-71.66912384,56,2011-12-30 08:16:07
0.980000019073486,42.43840982,-71.66912383,56.0999984741211,2011-12-30 08:16:08
1.01099991798401,42.43840926,-71.66912389,56,2011-12-30 08:16:09
0.98799991607666,42.43840973,-71.66912398,56.0999984741211,2011-12-30 08:16:10
1.00200009346008,42.4384091,-71.66912394,56,2011-12-30 08:16:11
1.00300002098083,42.43840856,-71.66912396,55.9000015258789,2011-12-30 08:16:12
1.01699995994568,42.43840796,-71.66912398,55.7999992370605,2011-12-30 08:16:13
0.980000019073486,42.43840765,-71.66912387,55.7000007629395,2011-12-30 08:16:14
0.994999885559082,42.43840735,-71.66912374,55.7000007629395,2011-12-30 08:16:15
1.00200009346008,42.43840735,-71.66912374,55.7000007629395,2011-12-30 08:16:16
1.00600004196167,42.43840747,-71.66912378,55.7000007629395,2011-12-30 08:16:17
1.07999992370605,42.4384077,-71.66912378,55.7999992370605,2011-12-30 08:16:18
0.934000015258789,42.43840785,-71.66912371,55.7999992370605,2011-12-30 08:16:19
0.996999979019165,42.43840788,-71.66912361,55.9000015258789,2011-12-30 08:16:20
0.986999988555908,42.43840754,-71.66912347,55.7999992370605,2011-12-30 08:16:21
1.01999998092651,42.43840736,-71.66912328,55.7999992370605,2011-12-30 08:16:22
1.00200009346008,42.43840735,-71.66912318,55.7999992370605,2011-12-30 08:16:23
0.980999946594238,42.43840905,-71.66912092,57.2000007629395,2011-12-30 08:16:24
0.996000051498413,42.43840554,-71.66912424,56.7000007629395,2011-12-30 08:16:25
1.06900000572205,42.43840605,-71.66912355,56.9000015258789,2011-12-30 08:16:26
0.970999956130981,42.43840573,-71.66912364,56.9000015258789,2011-12-30 08:16:27
0.966000080108643,42.43840755,-71.66912047,57.5999984741211,2011-12-30 08:16:28
0.985999822616577,42.43840691,-71.66912173,57.2999992370605,2011-12-30 08:16:29
1.01200008392334,42.43840683,-71.66912144,57.4000015258789,2011-12-30 08:16:30
1.00200009346008,42.43840683,-71.66912179,57.4000015258789,2011-12-30 08:16:31
0.994999885559082,42.43840626,-71.6691216,57.4000015258789,2011-12-30 08:16:32
1.00699996948242,42.43840592,-71.66912141,57.4000015258789,2011-12-30 08:16:33
1.00200009346008,42.43840599,-71.66912138,57.5,2011-12-30 08:16:34
1.01900005340576,42.43840658,-71.66912142,57.7000007629395,2011-12-30 08:16:35
0.974999904632568,42.438406,-71.66912125,57.5999984741211,2011-12-30 08:16:36
0.999000072479248,42.4384062,-71.66912124,57.7000007629395,2011-12-30 08:16:37
1.03999996185303,42.43840595,-71.66912116,57.7000007629395,2011-12-30 08:16:38
0.96399998664856,42.43840595,-71.66912114,57.7999992370605,2011-12-30 08:16:39
0.997999906539917,42.43840539,-71.669121,57.7999992370605,2011-12-30 08:16:40
1.10199999809265,42.43840502,-71.66912096,57.7999992370605,2011-12-30 08:16:41
0.934000015258789,42.43840436,-71.66912082,57.7999992370605,2011-12-30 08:16:42
0.975000143051147,42.43840413,-71.66912082,57.7999992370605,2011-12-30 08:16:43
0.998999834060669,42.43840329,-71.66912065,57.7000007629395,2011-12-30 08:16:44
1.01300001144409,42.43840261,-71.66912053,57.5999984741211,2011-12-30 08:16:45
0.985000133514404,42.43840187,-71.66912031,57.5,2011-12-30 08:16:46
0.994999885559082,42.43840132,-71.66912014,57.5,2011-12-30 08:16:47
0.995000123977661,42.43840129,-71.66912009,57.5,2011-12-30 08:16:48
1,42.43840121,-71.66912009,57.5,2011-12-30 08:16:49
1.00699996948242,42.43840114,-71.66912007,57.5999984741211,2011-12-30 08:16:50
1.01699995994568,42.43840069,-71.66911997,57.4000015258789,2011-12-30 08:16:51
0.979000091552734,42.43840055,-71.66911995,57.4000015258789,2011-12-30 08:16:52
1.03799986839294,42.43840039,-71.66911992,57.4000015258789,2011-12-30 08:16:53
0.957000017166138,42.4384002,-71.66911992,57.4000015258789,2011-12-30 08:16:54
1.1100001335144,42.43839956,-71.66911981,57.2000007629395,2011-12-30 08:16:55
0.931999921798706,42.43839923,-71.66911973,57.2000007629395,2011-12-30 08:16:56
0.956000089645386,42.43839868,-71.66911957,57.0999984741211,2011-12-30 08:16:57
1.03799986839294,42.4383985,-71.66911941,57.0999984741211,2011-12-30 08:16:58
0.976000070571899,42.43839857,-71.66911936,57.0999984741211,2011-12-30 08:16:59
1,42.43839789,-71.6691191,57,2011-12-30 08:17:00
1.05299997329712,42.43839771,-71.66911905,57,2011-12-30 08:17:01
0.619999885559082,42.43839742,-71.66911898,56.9000015258789,2011-12-30 08:17:01
0.992000102996826,42.43839723,-71.66911895,56.7999992370605,2011-12-30 08:17:02
1.02500009536743,42.43839736,-71.669119,56.9000015258789,2011-12-30 08:17:03
1.04499983787537,42.43839728,-71.66911898,56.7999992370605,2011-12-30 08:17:04
0.947000026702881,42.43839651,-71.66911878,56.5999984741211,2011-12-30 08:17:05
1.0239999294281,42.43839651,-71.66911878,56.7000007629395,2011-12-30 08:17:06
1.1010000705719,42.43839654,-71.6691188,56.7000007629395,2011-12-30 08:17:07
0.967999935150146,42.4383972,-71.66911896,56.9000015258789,2011-12-30 08:17:08
0.996000051498413,42.43839779,-71.66911905,57,2011-12-30 08:17:09
1.00200009346008,42.43839784,-71.66911906,57.0999984741211,2011-12-30 08:17:10
0.924999952316284,42.43839742,-71.6691189,57,2011-12-30 08:17:11
0.970999956130981,42.43839776,-71.66911894,57.0999984741211,2011-12-30 08:17:12
0.993000030517578,42.43839806,-71.66911901,57.2000007629395,2011-12-30 08:17:13
0.997999906539917,42.4383981,-71.669119,57.2000007629395,2011-12-30 08:17:14
1.00100016593933,42.43839863,-71.66911914,57.2999992370605,2011-12-30 08:17:15
1.01699995994568,42.43839845,-71.66911915,57.2999992370605,2011-12-30 08:17:16
0.990999937057495,42.43839835,-71.66911916,57.2000007629395,2011-12-30 08:17:17
0.992000102996826,42.43839844,-71.66911918,57.2999992370605,2011-12-30 08:17:18
1.00099992752075,42.4383986,-71.66911923,57.2999992370605,2011-12-30 08:17:19
0.99399995803833,42.4383985,-71.66911925,57.2999992370605,2011-12-30 08:17:20
1.09700012207031,42.43839804,-71.66911916,57.2000007629395,2011-12-30 08:17:21
0.928999900817871,42.43839837,-71.66911919,57.2999992370605,2011-12-30 08:17:22
0.970999956130981,42.43839867,-71.66911923,57.4000015258789,2011-12-30 08:17:23
1.00699996948242,42.43839865,-71.66911919,57.2999992370605,2011-12-30 08:17:24
0.995000123977661,42.43839931,-71.66911927,57.5,2011-12-30 08:17:25
1.02699995040894,42.43839961,-71.66911937,57.5999984741211,2011-12-30 08:17:26
1.0090000629425,42.43839978,-71.66911932,57.5999984741211,2011-12-30 08:17:27
0.970000028610229,42.43839987,-71.66911933,57.5999984741211,2011-12-30 08:17:28
0.997999906539917,42.43839975,-71.66911931,57.5999984741211,2011-12-30 08:17:29
1.01100015640259,42.43840013,-71.66911938,57.7000007629395,2011-12-30 08:17:30
1.00999999046326,42.4384001,-71.66911937,57.7000007629395,2011-12-30 08:17:31
1.03399991989136,42.4383999,-71.66911942,57.5999984741211,2011-12-30 08:17:32
0.944999933242798,42.43840015,-71.66911946,57.7000007629395,2011-12-30 08:17:33
1.00099992752075,42.43840009,-71.66911945,57.7000007629395,2011-12-30 08:17:34
0.999000072479248,42.43839988,-71.66911937,57.7000007629395,2011-12-30 08:17:35
1.00399994850159,42.43840012,-71.66911936,57.7000007629395,2011-12-30 08:17:36
1.04100012779236,42.43840003,-71.66911928,57.7000007629395,2011-12-30 08:17:37
0.993000030517578,42.43840018,-71.66911932,57.7999992370605,2011-12-30 08:17:38
0.983999967575073,42.43840022,-71.66911925,57.7999992370605,2011-12-30 08:17:39
1.00699996948242,42.43840038,-71.66911921,57.9000015258789,2011-12-30 08:17:40
0.977999925613403,42.43840057,-71.66911923,58,2011-12-30 08:17:41
0.990000009536743,42.43840079,-71.66911928,58,2011-12-30 08:17:42
1.02999997138977,42.43840068,-71.66911919,58,2011-12-30 08:17:43
0.979000091552734,42.43840025,-71.66911918,57.9000015258789,2011-12-30 08:17:44
1.23799991607666,42.4384002,-71.6691192,57.9000015258789,2011-12-30 08:17:45
0.843000173568726,42.43840008,-71.66911908,57.7999992370605,2011-12-30 08:17:46
1.02799987792969,42.43840008,-71.66911902,57.7999992370605,2011-12-30 08:17:47
0.949000120162964,42.43839998,-71.66911891,57.7999992370605,2011-12-30 08:17:48
0.928999900817871,42.43840001,-71.66911898,57.9000015258789,2011-12-30 08:17:49
1.02699995040894,42.43839941,-71.66911888,57.7000007629395,2011-12-30 08:17:50
1.08500003814697,42.43839977,-71.66911902,57.7999992370605,2011-12-30 08:17:51
1.01699995994568,42.43839985,-71.66911903,57.7999992370605,2011-12-30 08:17:52
0.877000093460083,42.43839981,-71.66911906,57.7999992370605,2011-12-30 08:17:53
1.09200000762939,42.4384,-71.6691191,57.9000015258789,2011-12-30 08:17:54
0.907999992370605,42.43840015,-71.66911913,57.9000015258789,2011-12-30 08:17:55
1,42.43840034,-71.66911917,58,2011-12-30 08:17:56
1,42.43840057,-71.66911919,58,2011-12-30 08:17:57
1.07299995422363,42.43840054,-71.6691192,58,2011-12-30 08:17:58
1.00099992752075,42.43840043,-71.66911916,58,2011-12-30 08:17:59
0.942000150680542,42.43840022,-71.66911908,57.9000015258789,2011-12-30 08:18:00
0.988999843597412,42.43840017,-71.66911904,57.9000015258789,2011-12-30 08:18:01
0.996000051498413,42.43840002,-71.66911899,57.7999992370605,2011-12-30 08:18:02
1.00399994850159,42.43839998,-71.66911899,57.7999992370605,2011-12-30 08:18:03
1.00600004196167,42.43840039,-71.66911906,57.9000015258789,2011-12-30 08:18:04
0.995000123977661,42.43840041,-71.66911905,58,2011-12-30 08:18:05
0.991999864578247,42.43840046,-71.66911904,58,2011-12-30 08:18:06
1.00699996948242,42.43840043,-71.669119,58,2011-12-30 08:18:07
1,42.43840021,-71.66911892,57.9000015258789,2011-12-30 08:18:08
1.00600004196167,42.43840056,-71.66911903,58,2011-12-30 08:18:09
1.10599994659424,42.4384009,-71.66911911,58.0999984741211,2011-12-30 08:18:10
0.896000146865845,42.43840074,-71.6691191,58,2011-12-30 08:18:11
1.09099984169006,42.43840059,-71.66911908,58,2011-12-30 08:18:12
0.91100001335144,42.43840058,-71.66911907,58,2011-12-30 08:18:13
1.09800004959106,42.43840041,-71.66911905,57.9000015258789,2011-12-30 08:18:14
1.00800013542175,42.43840017,-71.66911898,57.9000015258789,2011-12-30 08:18:15
0.972999811172485,42.43840033,-71.66911895,57.9000015258789,2011-12-30 08:18:16
1.06500005722046,42.43840017,-71.66911871,57.7999992370605,2011-12-30 08:18:17
0.544000148773193,42.43840017,-71.66911871,57.7999992370605,2011-12-30 08:18:18
0.997999906539917,42.43839989,-71.66911865,57.7000007629395,2011-12-30 08:18:19
1.13800001144409,42.43839982,-71.66911861,57.7000007629395,2011-12-30 08:18:20
0.937999963760376,42.4383997,-71.66911861,57.7000007629395,2011-12-30 08:18:21
1.04500007629395,42.43840022,-71.66911894,57.9000015258789,2011-12-30 08:18:22
0.947999954223633,42.43840094,-71.66911894,58.0999984741211,2011-12-30 08:18:23
2.25699996948242,42.43840204,-71.66911904,58.4000015258789,2011-12-30 08:18:25
0.0260000228881836,42.43840204,-71.66911904,58.4000015258789,2011-12-30 08:18:25
0.717000007629395,42.43840425,-71.66911943,58.9000015258789,2011-12-30 08:18:26
1.09999990463257,42.43840843,-71.66912006,60,2011-12-30 08:18:27
1.97000002861023,42.43840843,-71.66912006,60,2011-12-30 08:18:29
0.364000082015991,42.43840941,-71.66912024,60.2000007629395,2011-12-30 08:18:29
0.642999887466431,42.43840981,-71.66912027,60.4000015258789,2011-12-30 08:18:30
