"diffSecs","latitude","longitude","altitude","time"
0.627000093460083,42.3740794180522,-70.9933939192133,-20.5917701721191,2012-02-15 21:00:00
1.00499987602234,42.3740794146258,-70.9933939227138,-20.5906810760498,2012-02-15 21:00:01
1.00300002098083,42.3740794146258,-70.9933939227138,-20.5906810760498,2012-02-15 21:00:02
1.00600004196167,42.3740794146258,-70.9933939227138,-20.5906810760498,2012-02-15 21:00:03
1.05900001525879,42.3740794146258,-70.9933939227138,-20.5906810760498,2012-02-15 21:00:04
1.00600004196167,42.3740791423689,-70.9933930966511,-20.5811996459961,2012-02-15 21:00:05
1.00999999046326,42.3740791439862,-70.9933930970023,-20.5790996551514,2012-02-15 21:00:06
1.00099992752075,42.3740790244954,-70.9933927306886,-20.5769233703613,2012-02-15 21:00:07
1.00600004196167,42.3740790244954,-70.9933927306886,-20.5769233703613,2012-02-15 21:00:08
1.00799989700317,42.3740790244954,-70.9933927306886,-20.5769233703613,2012-02-15 21:00:09
1.00500011444092,42.3740790244954,-70.9933927306886,-20.5769233703613,2012-02-15 21:00:10
1.00300002098083,42.3740790244954,-70.9933927306886,-20.5769233703613,2012-02-15 21:00:11
1.00600004196167,42.3740790244954,-70.9933927306886,-20.5769233703613,2012-02-15 21:00:12
1.00899982452393,42.3740783017285,-70.9933905485697,-20.5621814727783,2012-02-15 21:00:13
1.00500011444092,42.3740783017285,-70.9933905485697,-20.5621814727783,2012-02-15 21:00:14
1.00399994850159,42.3740783017285,-70.9933905485697,-20.5621814727783,2012-02-15 21:00:15
1.00699996948242,42.3740783017285,-70.9933905485697,-20.5621814727783,2012-02-15 21:00:16
1.00500011444092,42.3740783017285,-70.9933905485697,-20.5621814727783,2012-02-15 21:00:17
1.00699996948242,42.3740783017285,-70.9933905485697,-20.5621814727783,2012-02-15 21:00:18
1.00600004196167,42.3740783017285,-70.9933905485697,-20.5621814727783,2012-02-15 21:00:19
1.00799989700317,42.3740752552955,-70.9933812868446,-20.547664642334,2012-02-15 21:00:20
1.01200008392334,42.3740748817317,-70.9933801484159,-20.542236328125,2012-02-15 21:00:21
0.997999906539917,42.3740743916462,-70.9933786395006,-20.5391521453857,2012-02-15 21:00:22
1.00600004196167,42.3740741946001,-70.9933780316924,-20.5378513336182,2012-02-15 21:00:23
1.00699996948242,42.3740741266733,-70.9933778167025,-20.5347595214844,2012-02-15 21:00:24
1.00300002098083,42.3740741266733,-70.9933778167025,-20.5347595214844,2012-02-15 21:00:25
1.00800013542175,42.3740741266733,-70.9933778167025,-20.5347595214844,2012-02-15 21:00:26
1.00799989700317,42.3740741266733,-70.9933778167025,-20.5347595214844,2012-02-15 21:00:27
1.00300002098083,42.3740741266733,-70.9933778167025,-20.5347595214844,2012-02-15 21:00:28
1.00499987602234,42.3740741266733,-70.9933778167025,-20.5347595214844,2012-02-15 21:00:29
1.00600004196167,42.3740741266733,-70.9933778167025,-20.5347595214844,2012-02-15 21:00:30
1.00699996948242,42.3740741266733,-70.9933778167025,-20.5347595214844,2012-02-15 21:00:31
1.04400014877319,42.3740741266733,-70.9933778167025,-20.5347595214844,2012-02-15 21:00:32
1.01699995994568,42.3740741266733,-70.9933778167025,-20.5347595214844,2012-02-15 21:00:33
1.00499987602234,42.3740741266733,-70.9933778167025,-20.5347595214844,2012-02-15 21:00:34
1.00600004196167,42.3740741266733,-70.9933778167025,-20.5347595214844,2012-02-15 21:00:35
1.00500011444092,42.3740741266733,-70.9933778167025,-20.5347595214844,2012-02-15 21:00:36
1.00600004196167,42.3740741266733,-70.9933778167025,-20.5347595214844,2012-02-15 21:00:37
1.00499987602234,42.3740741266733,-70.9933778167025,-20.5347595214844,2012-02-15 21:00:38
1.00500011444092,42.3740741266733,-70.9933778167025,-20.5347595214844,2012-02-15 21:00:39
1.00799989700317,42.3740741266733,-70.9933778167025,-20.5347595214844,2012-02-15 21:00:40
1.00500011444092,42.3740741266733,-70.9933778167025,-20.5347595214844,2012-02-15 21:00:41
1.01300001144409,42.3740741266733,-70.9933778167025,-20.5347595214844,2012-02-15 21:00:42
2.00999999046326,42.3740741266733,-70.9933778167025,-20.5347595214844,2012-02-15 21:00:44
1.01300001144409,42.3740741266733,-70.9933778167025,-20.5347595214844,2012-02-15 21:00:46
0.996999979019165,42.3740741266733,-70.9933778167025,-20.5347595214844,2012-02-15 21:00:46
1.00300002098083,42.3740741266733,-70.9933778167025,-20.5347595214844,2012-02-15 21:00:48
1.00699996948242,42.3740741266733,-70.9933778167025,-20.5347595214844,2012-02-15 21:00:49
2.01099991798401,42.3740741266733,-70.9933778167025,-20.5347595214844,2012-02-15 21:00:51
1.00999999046326,42.3740741266733,-70.9933778167025,-20.5347595214844,2012-02-15 21:00:52
1.00300002098083,42.3740741266733,-70.9933778167025,-20.5347595214844,2012-02-15 21:00:53
1.00099992752075,42.3740741266733,-70.9933778167025,-20.5347595214844,2012-02-15 21:00:54
1.03800010681152,42.3740741266733,-70.9933778167025,-20.5347595214844,2012-02-15 21:00:55
1.98000001907349,42.3740741266733,-70.9933778167025,-20.5347595214844,2012-02-15 21:00:57
1.05900001525879,42.3740741266733,-70.9933778167025,-20.5347595214844,2012-02-15 21:00:58
1.00399994850159,42.3740741266733,-70.9933778167025,-20.5347595214844,2012-02-15 21:00:59
1.00699996948242,42.3740741266733,-70.9933778167025,-20.5347595214844,2012-02-15 21:01:00
1.00500011444092,42.3740741266733,-70.9933778167025,-20.5347595214844,2012-02-15 21:01:01
1.01099991798401,42.3740741266733,-70.9933778167025,-20.5347595214844,2012-02-15 21:01:02
1.00099992752075,42.3740741266733,-70.9933778167025,-20.5347595214844,2012-02-15 21:01:03
1.00399994850159,42.3740741266733,-70.9933778167025,-20.5347595214844,2012-02-15 21:01:04
1.0090000629425,42.3740741266733,-70.9933778167025,-20.5347595214844,2012-02-15 21:01:05
1.06100010871887,42.3740741266733,-70.9933778167025,-20.5347595214844,2012-02-15 21:01:06
0.948999881744385,42.3740741266733,-70.9933778167025,-20.5347595214844,2012-02-15 21:01:07
1.00500011444092,42.3740741266733,-70.9933778167025,-20.5347595214844,2012-02-15 21:01:08
1.00600004196167,42.3740741266733,-70.9933778167025,-20.5347595214844,2012-02-15 21:01:09
1.00699996948242,42.3740741266733,-70.9933778167025,-20.5347595214844,2012-02-15 21:01:10
1.00499987602234,42.3740741266733,-70.9933778167025,-20.5347595214844,2012-02-15 21:01:11
1.00600004196167,42.3740741266733,-70.9933778167025,-20.5347595214844,2012-02-15 21:01:12
1.00399994850159,42.3740741266733,-70.9933778167025,-20.5347595214844,2012-02-15 21:01:13
1.00699996948242,42.3740741266733,-70.9933778167025,-20.5347595214844,2012-02-15 21:01:14
1.00500011444092,42.3740741266733,-70.9933778167025,-20.5347595214844,2012-02-15 21:01:15
1.00600004196167,42.3740649610876,-70.9933496156915,-20.4951725006104,2012-02-15 21:01:16
1.00600004196167,42.3740649632886,-70.9933496145554,-20.4917488098145,2012-02-15 21:01:17
1.00499987602234,42.3740649632886,-70.9933496145554,-20.4917488098145,2012-02-15 21:01:18
1.00699996948242,42.3740649632886,-70.9933496145554,-20.4917488098145,2012-02-15 21:01:19
1.00399994850159,42.3740649681141,-70.9933496135228,-20.4844627380371,2012-02-15 21:01:20
1.007000207901,42.3740649681141,-70.9933496135228,-20.4844627380371,2012-02-15 21:01:21
1.00399994850159,42.3740649681141,-70.9933496135228,-20.4844627380371,2012-02-15 21:01:22
1.00699996948242,42.3740649681141,-70.9933496135228,-20.4844627380371,2012-02-15 21:01:23
1.00499987602234,42.3740649681141,-70.9933496135228,-20.4844627380371,2012-02-15 21:01:24
1.00500011444092,42.3740649681141,-70.9933496135228,-20.4844627380371,2012-02-15 21:01:25
1.05699992179871,42.3740649681141,-70.9933496135228,-20.4844627380371,2012-02-15 21:01:26
1.00399994850159,42.3740649681141,-70.9933496135228,-20.4844627380371,2012-02-15 21:01:27
1.007000207901,42.3740649681141,-70.9933496135228,-20.4844627380371,2012-02-15 21:01:28
1.00399994850159,42.3740649681141,-70.9933496135228,-20.4844627380371,2012-02-15 21:01:29
1.00699996948242,42.3740649367223,-70.9933495155884,-20.4811573028564,2012-02-15 21:01:30
1.00499987602234,42.3740649367223,-70.9933495155884,-20.4811573028564,2012-02-15 21:01:31
1.00600004196167,42.3740649367223,-70.9933495155884,-20.4811573028564,2012-02-15 21:01:32
1.0090000629425,42.3740649367223,-70.9933495155884,-20.4811573028564,2012-02-15 21:01:33
1.00399994850159,42.3740649367223,-70.9933495155884,-20.4811573028564,2012-02-15 21:01:34
1.03699994087219,42.3740649367223,-70.9933495155884,-20.4811573028564,2012-02-15 21:01:35
0.974000215530396,42.3740649367223,-70.9933495155884,-20.4811573028564,2012-02-15 21:01:36
1.00599980354309,42.3740649367223,-70.9933495155884,-20.4811573028564,2012-02-15 21:01:37
1.00600004196167,42.3740649367223,-70.9933495155884,-20.4811573028564,2012-02-15 21:01:38
1.00500011444092,42.3740649367223,-70.9933495155884,-20.4811573028564,2012-02-15 21:01:39
1.01300001144409,42.3740649367223,-70.9933495155884,-20.4811573028564,2012-02-15 21:01:40
1.00399994850159,42.3740649367223,-70.9933495155884,-20.4811573028564,2012-02-15 21:01:41
