"diffSecs","level","azimuth.mean","azimuth.absolute.deviation","azimuth.standard.deviation","azimuth.max.deviation","pitch.mean","pitch.absolute.deviation","pitch.standard.deviation","pitch.max.deviation","roll.mean","roll.absolute.deviation","roll.standard.deviation","roll.max.deviation","time"
1.54400014877319,4,-30.3999996185303,0,0,0,-39.2000007629395,0,0,0,-21.1000003814697,0.75,0.866025388240814,1.5,2012-02-15 21:00:01
0.159999847412109,99,-30.3636360168457,0.563452482223511,0.672918200492859,1.63636362552643,-35.6161613464355,0.954678177833557,1.14262735843658,3.18383741378784,-26.1535358428955,1.83287417888641,2.30779576301575,5.75353574752808,2012-02-15 21:00:01
0.492000102996826,99,-36.0282821655273,1.23277223110199,1.75534045696259,5.62828350067139,-25.3010101318359,2.72666049003601,3.47706770896912,9.89899063110352,-26.0808086395264,1.43258845806122,1.62603044509888,2.88080739974976,2012-02-15 21:00:02
1,95,-36.2021064758301,0.280288577079773,0.322483688592911,0.602107048034668,-22.0505256652832,0.576354146003723,0.654678881168365,1.14947438240051,-25.2252635955811,0.62351256608963,0.852608323097229,2.37473726272583,2012-02-15 21:00:03
1.00099992752075,96,-36.1208343505859,0.191927820444107,0.216947764158249,0.520835340023041,-21.25,0.247916653752327,0.332916647195816,0.749999701976776,-25.8916664123535,0.51753443479538,0.726817488670349,2.5083327293396,2012-02-15 21:00:04
1.00800013542175,94,-36.6212768554688,0.485105961561203,0.632770299911499,2.17872262001038,-21.0638294219971,0.988320708274841,1.26026439666748,3.06382989883423,-25.7574462890625,0.793118894100189,1.11350405216217,3.04255223274231,2012-02-15 21:00:05
1,95,-42.6399993896484,1.02568387985229,1.3616087436676,3.43999910354614,-19.2800006866455,3.18484210968018,3.50763368606567,5.9200005531311,-11.3473682403564,6.87955665588379,7.27934122085571,11.0526313781738,2012-02-15 21:00:06
1.0019998550415,96,-43.4458351135254,0.55095499753952,0.606547474861145,1.04583168029785,-19.9249992370605,1.01197922229767,1.10651504993439,1.67500019073486,-11.2416667938232,1.59687495231628,1.93087124824524,4.44166660308838,2012-02-15 21:00:07
1.00800013542175,96,-41.3166656494141,0.587152421474457,0.690209269523621,1.08333456516266,-24.75,1.29270827770233,1.5354151725769,3.14999938011169,-9.97916698455811,0.774739563465118,0.963275372982025,2.02083349227905,2012-02-15 21:00:08
1,95,-40.4000015258789,0.227368667721748,0.301574528217316,0.4000004529953,-26.7157897949219,0.442326873540878,0.559382438659668,1.28421080112457,-8.70315742492676,1.23780620098114,1.5570182800293,4.09684228897095,2012-02-15 21:00:09
1,94,-41.3276596069336,0.826618075370789,1.02099287509918,2.12765860557556,-27.1148929595947,2.11299252510071,2.61704564094543,5.28510761260986,-1.9872339963913,3.54794025421143,3.90196990966797,6.78723430633545,2012-02-15 21:00:10
1,95,-41.3347358703613,1.15793883800507,1.30889821052551,2.26526165008545,-29.3305263519287,2.22617173194885,2.43790578842163,3.73052597045898,-1.76421058177948,4.10264825820923,4.55016279220581,11.3642110824585,2012-02-15 21:00:11
1,94,-38.361701965332,2.92829298973083,3.14801836013794,4.76170349121094,-32.4468078613281,2.36668133735657,2.52501082420349,3.55319166183472,10.6723403930664,4.81394290924072,5.51831388473511,9.87234020233154,2012-02-15 21:00:12
1,94,-38.4936180114746,1.27224946022034,1.57903861999512,4.09361553192139,-31.6297874450684,3.04545044898987,3.51881957054138,7.97021102905273,13.5191488265991,2.88619303703308,3.2817120552063,6.71914863586426,2012-02-15 21:00:13
1.00099992752075,97,-29.579381942749,2.10445332527161,2.42078375816345,4.82062005996704,-44.7917518615723,1.89869272708893,2.22078609466553,4.79175233840942,4.80824756622314,0.594069361686707,0.834274768829346,2.40824723243713,2012-02-15 21:00:14
1.0090000629425,97,-33.8432998657227,2.79247546195984,3.14989471435547,5.84329891204834,-39.6865997314453,4.6569881439209,5.3764591217041,13.6865978240967,6.23505163192749,5.2290358543396,6.33335208892822,13.7649488449097,2012-02-15 21:00:15
1,96,-44.7999992370605,1.86666667461395,2.26347804069519,5.20000171661377,-1.17916667461395,11.6765623092651,13.0743217468262,24.4208335876465,16.1083335876465,5.48645830154419,6.07521724700928,11.3083333969116,2012-02-15 21:00:16
0.990000009536743,99,-46.8484840393066,0.577410459518433,0.666115343570709,1.24848616123199,13.5878791809082,1.11319255828857,1.34354209899902,2.78787851333618,-4.44848489761353,5.36590147018433,6.03806734085083,9.95151519775391,2012-02-15 21:00:17
1,96,-44.0666656494141,2.2361114025116,2.43493127822876,4.06666660308838,3.77500009536743,2.98177075386047,3.77968811988831,8.17500019073486,-15.2333335876465,3.25416660308838,4.00402545928955,7.56666612625122,2012-02-15 21:00:18
1,92,-40.3695640563965,2.60160660743713,2.97773385047913,5.56956577301025,-12.017391204834,5.19357299804688,6.04617404937744,11.5826091766357,-10.2956523895264,12.5194711685181,14.0737028121948,21.8956527709961,2012-02-15 21:00:19
1,95,-41.9831581115723,1.9900279045105,2.34168863296509,4.78315687179565,-13.5073680877686,5.80237102508545,7.05358791351318,14.0926322937012,-11.7178945541382,12.6837892532349,14.7258882522583,28.517894744873,2012-02-15 21:00:20
0.990000009536743,99,-44.4080810546875,1.83360862731934,2.39189171791077,6.00807905197144,-17.0787887573242,5.42246723175049,6.37810754776001,11.7212114334106,-6.72727251052856,12.8631772994995,14.1246814727783,22.3272724151611,2012-02-15 21:00:21
1,96,-45.875,1.05833339691162,1.18646883964539,2.27500152587891,-19.6041660308838,3.9540798664093,4.29553842544556,6.40416717529297,-3.91666674613953,10.8000001907349,11.9610366821289,20.4833335876465,2012-02-15 21:00:22
1,96,-47.9333343505859,0.729166865348816,0.878761768341064,1.9333336353302,-15.1083335876465,2.1699652671814,2.9913649559021,8.89166641235352,-15.4041662216187,5.34939241409302,6.32033586502075,15.4041662216187,2012-02-15 21:00:23
1.04099988937378,98,-50.2000007629395,0.448980271816254,0.542857527732849,1.00000035762787,-5.24081611633301,2.18892121315002,2.6695499420166,5.55918407440186,-15.7183675765991,2.59241986274719,3.26825642585754,6.28163242340088,2012-02-15 21:00:24
0.970000028610229,99,-50.0727272033691,0.474564522504807,0.580807685852051,1.27272808551788,-7.25252532958984,1.57183957099915,2.09869337081909,5.94747447967529,-15.8222217559814,1.40336692333221,1.73586976528168,4.1777777671814,2012-02-15 21:00:25
1.00099992752075,96,-46.7583312988281,1.26388835906982,1.46569526195526,3.15833425521851,-23.158332824707,3.78159737586975,4.51570558547974,9.55833339691162,-3.67083334922791,9.39236068725586,11.1627349853516,22.8708343505859,2012-02-15 21:00:26
1,96,-44.7249984741211,0.815104007720947,1.03812730312347,2.32499837875366,-11.5625,5.51458311080933,6.44051694869995,12.8374996185303,24.4375,2.20052099227905,2.58977365493774,5.16250038146973,2012-02-15 21:00:27
0.989000082015991,99,-46.533332824707,0.503703236579895,0.696310818195343,1.73333430290222,-1.01414144039154,0.831343770027161,1.06865441799164,2.21414136886597,23.4545459747314,1.5853077173233,2.14952540397644,5.05454587936401,2012-02-15 21:00:28
1,96,-46.8375015258789,0.738801717758179,0.888965547084808,1.96249830722809,-2.875,1.64583337306976,1.91773521900177,3.52500009536743,22.6375007629395,1.75442695617676,1.9787015914917,3.83750081062317,2012-02-15 21:00:29
1,96,-46.0166664123535,0.974652707576752,1.08307659626007,2.01666688919067,-14.0500001907349,2.87187504768372,3.62134861946106,8.44999980926514,21.470832824707,2.81467032432556,3.15250968933105,5.87083292007446,2012-02-15 21:00:30
1.0239999294281,95,-45.2968406677246,1.97424912452698,2.17059063911438,3.69684338569641,-22.606315612793,1.36137390136719,1.90897119045258,5.40631484985352,16.3663158416748,2.9335401058197,3.5733106136322,6.83368492126465,2012-02-15 21:00:31
0.965000152587891,99,-43.5232315063477,1.67999124526978,2.0824818611145,4.32323122024536,-19.7373733520508,3.07911443710327,3.68021154403687,7.86262655258179,19.2808074951172,2.68364453315735,3.01161646842957,5.5191912651062,2012-02-15 21:00:32
1.00099992752075,95,-41.7473678588867,1.25207757949829,1.42406690120697,2.54736733436584,-23.2505264282227,3.3552131652832,3.62180161476135,6.45052719116211,17.1115779876709,7.1433572769165,7.62581300735474,13.1115789413452,2012-02-15 21:00:33
1,96,-42.5208320617676,1.80086803436279,2.04623198509216,3.72083377838135,-27.3708324432373,2.34704875946045,2.75786447525024,6.17083263397217,5.29166650772095,6.41736125946045,7.22645139694214,12.4916667938232,2012-02-15 21:00:34
0.988999843597412,99,-45.6202011108398,0.145781397819519,0.230054691433907,0.420200347900391,-19.6323223114014,0.745474934577942,0.892938613891602,1.56767749786377,-6.66666650772095,1.52996623516083,1.88904333114624,4.53333330154419,2012-02-15 21:00:35
1,95,-45.8063163757324,0.29216679930687,0.337736070156097,0.606314778327942,-19.1789474487305,0.672354936599731,0.853709638118744,2.02105331420898,-8.77894687652588,1.43113577365875,1.79671609401703,4.02105283737183,2012-02-15 21:00:36
1,96,-43.6666679382324,0.97083306312561,1.05934941768646,1.53333353996277,-25.2583332061768,2.77621531486511,3.17016243934631,5.25833320617676,-7.39166641235352,1.19305551052094,1.62888431549072,3.79166674613953,2012-02-15 21:00:37
1.00200009346008,98,-42.1632652282715,0.193253546953201,0.196598216891289,0.236735597252846,-28.3469390869141,0.484631210565567,0.69196605682373,2.05306100845337,-6.21632671356201,1.14344024658203,1.60424780845642,4.58367347717285,2012-02-15 21:00:38
1,96,-42.8333320617676,0.17569488286972,0.268741995096207,0.833333194255829,-27.1749992370605,0.814583599567413,0.9828742146492,2.02500081062317,-7.57499980926514,1.24010419845581,1.56611251831055,4.02500057220459,2012-02-15 21:00:39
1,94,-42.2680854797363,0.508918642997742,0.596124768257141,1.0680844783783,-28.2340431213379,1.45830702781677,1.56820499897003,3.36595773696899,-8.78297901153564,1.50239932537079,1.87971472740173,4.01702165603638,2012-02-15 21:00:40
1,95,-41.2842102050781,0.291190385818481,0.33789274096489,0.715789973735809,-30.3831577301025,0.4444540143013,0.622161149978638,1.61684226989746,-8.99789428710938,1.52199459075928,1.73229265213013,4.2021050453186,2012-02-15 21:00:41
0.990000009536743,99,-42.0161628723145,0.124069444835186,0.21211239695549,0.416163206100464,-30.0565662384033,0.634220719337463,0.756408274173737,1.94343411922455,-6.83232307434082,0.740006029605865,0.984201312065125,2.36767649650574,2012-02-15 21:00:42
1,96,-41.1875,0.235416814684868,0.343768566846848,0.8125,-31.4833335876465,0.656944334506989,0.886785626411438,2.11666488647461,-4.54166650772095,1.34427082538605,1.60932612419128,3.85833287239075,2012-02-15 21:00:43
1,94,-41.2212753295898,0.11281069368124,0.196713268756866,0.421277642250061,-31.340425491333,0.481484919786453,0.64894688129425,1.85957515239716,-5,1.09361696243286,1.43245053291321,3.39999961853027,2012-02-15 21:00:44
1,96,-41.404167175293,0.232724711298943,0.258164525032043,0.604166805744171,-31.033332824707,0.559028208255768,0.703957378864288,1.76666617393494,-4.92083358764648,1.45954859256744,1.96478986740112,5.07916641235352,2012-02-15 21:00:45
0.990000009536743,99,-41.1474761962891,0.32715055346489,0.404605537652969,0.852525472640991,-31.63232421875,0.560269415378571,0.709364414215088,1.56767725944519,-5.24848508834839,1.21310067176819,1.53322553634644,3.55151534080505,2012-02-15 21:00:46
1,86,-41.8232536315918,0.202488601207733,0.207799002528191,0.57674640417099,-30.6837215423584,0.569064438343048,0.692461252212524,1.31627917289734,-5.53488349914551,1.89810705184937,2.11823582649231,4.06511688232422,2012-02-15 21:00:47
1,90,-41.1644439697266,0.80158007144928,0.871564507484436,1.2355569601059,-31.4888896942139,1.5550616979599,1.68657720088959,2.91111254692078,-4.98666667938232,1.15081477165222,1.46812045574188,4.21333312988281,2012-02-15 21:00:48
1,98,-39.5020408630371,0.295376271009445,0.357136815786362,0.70204108953476,-33.6244888305664,0.430487394332886,0.490950971841812,1.17550909519196,-4.7142858505249,0.615743458271027,0.824621081352234,2.48571395874023,2012-02-15 21:00:49
1,94,-38.9021263122559,0.19646954536438,0.232918277382851,0.502126038074493,-34.195743560791,0.301494628190994,0.376974791288376,1.00425565242767,-6.8297872543335,1.06998634338379,1.29580581188202,2.37021255493164,2012-02-15 21:00:50
1.00399994850159,95,-39.7010536193848,1.40773367881775,1.66698515415192,3.89894533157349,-32.6231575012207,2.37899160385132,2.92946720123291,7.02315711975098,-8.21473693847656,1.06424379348755,1.39992249011993,3.78526329994202,2012-02-15 21:00:51
1.01999998092651,96,-44.7708320617676,0.324652433395386,0.421287029981613,1.17083513736725,-22.1041660308838,0.990711748600006,1.25863003730774,3.49583387374878,-10.8999996185303,2.31874990463257,2.72029399871826,5.89999914169312,2012-02-15 21:00:52
0.976000070571899,99,-41.5838394165039,1.37063539028168,1.53495991230011,2.81616306304932,-29.8707065582275,3.11690664291382,3.54541254043579,6.27070665359497,-4.17373752593994,3.03397607803345,3.77901124954224,8.22626209259033,2012-02-15 21:00:53
1,88,-40.1909103393555,1.20888447761536,1.59314143657684,4.9909086227417,-32.1090927124023,1.72975218296051,2.34305739402771,7.09090995788574,-4,3.42727279663086,4.28485679626465,9.19999980926514,2012-02-15 21:00:54
1,95,-34.8126335144043,4.10832118988037,4.79383897781372,9.18736839294434,-37.4694747924805,6.09037113189697,7.00085830688477,14.2694730758667,-11.5199995040894,4.44294738769531,5.14565944671631,9.6800012588501,2012-02-15 21:00:55
0.990000009536743,99,-46.3313140869141,0.605734050273895,0.791960060596466,2.33131313323975,-18.5010108947754,1.15890216827393,1.45320916175842,4.29898881912231,-8.76363658905029,1.53094589710236,2.00451278686523,4.03636407852173,2012-02-15 21:00:56
1,96,-45,1.16249990463257,1.32915997505188,2.20000052452087,-23.4333324432373,2.87083339691162,3.26070880889893,5.43333339691162,-7.49583339691162,3.15781259536743,4.04320192337036,9.30416584014893,2012-02-15 21:00:57
1.00200009346008,96,-45.2625007629395,0.82916671037674,1.00718784332275,2.06249904632568,-16.033332824707,2.58263874053955,3.23916983604431,7.16666746139526,-19.2708339691162,2.07578134536743,2.53508377075195,4.72916650772095,2012-02-15 21:00:58
1.01699995994568,95,-44.7494735717773,0.953351616859436,1.13321828842163,2.34947204589844,-13.0021057128906,2.03656506538391,2.57068419456482,5.79789400100708,-20.8505268096924,2.09232139587402,2.62922334671021,7.14947366714478,2012-02-15 21:00:59
0.980999946594238,99,-43.4464645385742,0.334006100893021,0.412754148244858,1.04646241664886,-17.9070701599121,0.698949038982391,0.957822918891907,2.70707082748413,-20.9171714782715,1.91547811031342,2.36626291275024,5.48282814025879,2012-02-15 21:01:00
1,93,-46.0559158325195,0.722303509712219,0.898441076278687,2.05591416358948,-16.3999996185303,1.48817217350006,1.9454939365387,3.59999990463257,-12.0946235656738,2.87321066856384,3.36938667297363,7.90537643432617,2012-02-15 21:01:01
1,95,-45.3221054077148,0.242171123623848,0.307512253522873,0.677894592285156,-21.2631587982178,0.546482086181641,0.654868960380554,1.66315758228302,-6.69894742965698,3.3676233291626,4.19000053405762,8.69894695281982,2012-02-15 21:01:02
0.989000082015991,99,-45.6848487854004,0.567371368408203,0.722001552581787,1.5151526927948,-20.5010108947754,1.37079882621765,1.63728606700897,3.30100917816162,-8.6141414642334,3.08760333061218,3.51128077507019,6.58585834503174,2012-02-15 21:01:03
1.00099992752075,96,-43.9416656494141,0.644444823265076,0.761532008647919,1.54166567325592,-25.0874996185303,0.961198031902313,1.09803330898285,2.11250066757202,-11.5416669845581,2.33802080154419,2.86064052581787,6.05833387374878,2012-02-15 21:01:04
1,96,-39.4916648864746,1.61267352104187,1.87481462955475,3.49166655540466,-31.4583339691162,3.41753482818604,4.02822542190552,7.34166574478149,-13.5,0.960416674613953,1.30384039878845,4.69999980926514,2012-02-15 21:01:05
1,95,-34.7410545349121,0.394902288913727,0.456875383853912,1.2589465379715,-39.2589492797852,0.631756126880646,0.820717930793762,2.34105086326599,-9.92842102050781,1.33150136470795,1.74015498161316,4.87157917022705,2012-02-15 21:01:06
1,99,-35.3818168640137,0.286500573158264,0.337657451629639,0.981816470623016,-38.3515167236328,0.557331442832947,0.733108341693878,2.04848647117615,-10.0929288864136,1.05132114887238,1.33312511444092,3.50707101821899,2012-02-15 21:01:07
1,94,-35.6255302429199,0.223087683320045,0.290610373020172,0.425530612468719,-38.4553184509277,0.744409441947937,0.88601690530777,2.34468054771423,-9.28936195373535,1.20534193515778,1.54386007785797,4.31063890457153,2012-02-15 21:01:08
1,92,-35.169563293457,0.405009716749191,0.487169981002808,0.83043497800827,-38.7999992370605,0.652174174785614,0.844419300556183,1.99999904632568,-9.44347858428955,1.43591690063477,1.86869549751282,4.95652151107788,2012-02-15 21:01:09
0.990000009536743,99,-34.3111114501953,0.322334945201874,0.392065197229385,0.888889372348785,-39.6040420532227,0.579532861709595,0.780561625957489,1.99595832824707,-8.80403995513916,0.967574775218964,1.30824267864227,4.39595937728882,2012-02-15 21:01:10
1,96,-34.3208351135254,0.253993421792984,0.297880172729492,0.479165434837341,-39.9791641235352,0.44323006272316,0.545802295207977,1.22083473205566,-9.75833320617676,1.38975703716278,1.59214663505554,3.44166660308838,2012-02-15 21:01:11
1,93,-34.356990814209,0.153544172644615,0.223076209425926,0.443009048700333,-39.7118263244629,0.599468052387238,0.811456441879272,1.88817083835602,-9.15268802642822,1.25202918052673,1.66103947162628,4.04731178283691,2012-02-15 21:01:12
1,96,-41.4124984741211,2.83203101158142,3.19997549057007,6.21249914169312,-27.9458332061768,5.7363715171814,6.32498216629028,10.4541683197021,-12.2166662216187,3.35312509536743,3.86734914779663,7.38333368301392,2012-02-15 21:01:13
0.989000082015991,99,-42.8686866760254,1.22934401035309,1.33580434322357,1.93131268024445,-26.5131320953369,4.00938653945923,4.39799404144287,7.31313037872314,-12.2585859298706,1.6734619140625,2.0783154964447,4.54141330718994,2012-02-15 21:01:14
1.00099992752075,96,-41.2249984741211,0.0937495231628418,0.171390980482101,0.42500114440918,-30.2875003814697,0.538541316986084,0.601949632167816,1.08749914169312,-12.1833333969116,1.84479153156281,2.3501181602478,5.41666698455811,2012-02-15 21:01:15
1.0090000629425,96,-39.8291664123535,0.466146290302277,0.579496502876282,1.37083423137665,-32.1124992370605,1.33020842075348,1.5713084936142,3.08750057220459,-12.5083332061768,0.859895884990692,1.13501715660095,2.50833320617676,2012-02-15 21:01:16
0.988999843597412,99,-37.7575759887695,0.62320214509964,0.755998492240906,1.75757586956024,-36.3272743225098,1.44279193878174,1.71539795398712,3.2727255821228,-9.66868686676025,1.17922651767731,1.52452325820923,3.66868686676025,2012-02-15 21:01:17
1,96,-35.408332824707,0.234374016523361,0.258063614368439,0.591666758060455,-39.2999992370605,0.708332896232605,0.862167656421661,2.09999895095825,-10.4291667938232,1.38524305820465,1.76658308506012,4.37083339691162,2012-02-15 21:01:18
1,93,-40.9204292297363,2.58453011512756,2.91929292678833,4.92043018341064,-27.3204307556152,5.77074813842773,6.53296947479248,11.7204294204712,-16.533332824707,3.38351249694824,4.1912693977356,8.26666641235352,2012-02-15 21:01:19
1.00100016593933,96,-41.8166656494141,1.55173623561859,1.91565191745758,3.41666531562805,-22.1000003814697,4.07499980926514,4.50407218933105,6.90000009536743,-22.7583332061768,1.78645837306976,2.27704429626465,5.64166641235352,2012-02-15 21:01:20
1,96,-43.7083320617676,0.836458444595337,0.926425158977509,1.70833373069763,-12.8874998092651,3.95104169845581,4.76557207107544,11.5124998092651,-25.8833332061768,2.60138893127441,3.64779233932495,7.08333396911621,2012-02-15 21:01:21
1.0019998550415,95,-42.875789642334,0.751157641410828,0.89404022693634,1.67578887939453,-21.9452629089355,2.65927958488464,3.04996180534363,7.65473747253418,-18.1178951263428,2.4110803604126,3.17722082138062,9.31789493560791,2012-02-15 21:01:22
1.00500011444092,96,-40.8083343505859,1.05902779102325,1.22879230976105,1.99166572093964,-28.5249996185303,3.21927094459534,3.54133343696594,6.12500047683716,11.0458335876465,6.30104160308838,7.54594135284424,19.4458332061768,2012-02-15 21:01:23
0.98199987411499,99,-43.5555572509766,0.55667781829834,0.657854437828064,1.55555558204651,-23.1313133239746,1.42622196674347,1.66731178760529,3.26868653297424,15.0303030014038,1.83238446712494,2.33728909492493,6.23030281066895,2012-02-15 21:01:24
1,95,-40.9347381591797,0.313529014587402,0.391963094472885,1.06526339054108,-27.3221054077148,0.882969558238983,1.25296938419342,4.12210464477539,4.59368419647217,3.02138495445251,3.96696376800537,9.40631580352783,2012-02-15 21:01:25
1,96,-41.0374984741211,0.493489295244217,0.564440608024597,1.03749978542328,-17.4916667938232,2.56510400772095,2.84633040428162,5.30833292007446,4.13749980926514,2.51901030540466,3.12560820579529,10.6625003814697,2012-02-15 21:01:26
1,95,-38.6484222412109,0.957517862319946,1.08916783332825,2.64842081069946,-13.8189477920532,1.62836563587189,1.84609377384186,3.78105306625366,17.8694744110107,1.63120222091675,2.29924821853638,5.73052644729614,2012-02-15 21:01:27
1,98,-40.3714294433594,1.63381934165955,1.767045378685,2.77143001556396,-14.6897954940796,3.4917950630188,3.75267219543457,6.1102032661438,5.93469381332397,4.05747604370117,4.91850090026855,10.4653053283691,2012-02-15 21:01:28
1,96,-41.904167175293,0.215452209115028,0.256547212600708,0.495835214853287,-12.4125003814697,1.08802092075348,1.3533331155777,2.81249952316284,7.04583311080933,1.63489580154419,2.17513966560364,4.95416688919067,2012-02-15 21:01:29
1.00100016593933,94,-39.9914894104004,1.19203245639801,1.3279048204422,2.39149069786072,-4.76170206069946,2.2258939743042,2.70795154571533,5.63829755783081,17.2808513641357,2.45685815811157,2.9047749042511,5.51914834976196,2012-02-15 21:01:30
1.00899982452393,96,-41.783332824707,1.08645880222321,1.36371648311615,2.98333382606506,1.72083330154419,1.83246529102325,2.12220001220703,4.92083358764648,15.0458335876465,3.79331588745117,4.30517911911011,7.75416612625122,2012-02-15 21:01:31
1,99,-41.8626251220703,1.05817806720734,1.30039536952972,3.06262707710266,4.36363649368286,1.99375569820404,2.43216872215271,4.83636331558228,14.9373741149902,2.36628913879395,3.04586434364319,7.73737382888794,2012-02-15 21:01:32
1,96,-37.2958335876465,4.08888864517212,5.00024795532227,11.6958332061768,2.93333339691162,4.79166650772095,5.95473670959473,12.2666664123535,22.3041667938232,5.56753492355347,6.69919013977051,14.8958339691162,2012-02-15 21:01:33
1.00100016593933,96,-42.7583312988281,4.80763864517212,6.56213331222534,18.3583335876465,-1.29166662693024,3.31215286254883,4.08675861358643,12.3083333969116,4.63749980926514,11.1062498092651,14.3481216430664,33.7625007629395,2012-02-15 21:01:34
0.988999843597412,99,-16.5898990631104,11.2699518203735,13.9249753952026,29.8101024627686,-24.4484844207764,6.2819709777832,7.14236688613892,12.7515163421631,-36.3838386535645,11.587797164917,14.9415473937988,35.9838371276855,2012-02-15 21:01:35
1,95,1.75999999046326,4.69052648544312,5.92341279983521,14.1599998474121,-21.124210357666,3.51645445823669,4.31215476989746,8.32421016693115,-47.6252632141113,1.82657110691071,2.31484770774841,5.17473602294922,2012-02-15 21:01:36
1,96,20.3500003814697,11.8489580154419,12.6770458221436,18.75,-14.2541666030884,2.39288187026978,2.74172687530518,5.05416679382324,-44.158332824707,4.08506965637207,4.90865898132324,10.5583353042603,2012-02-15 21:01:37
1.00100016593933,96,23.8583335876465,3.66909718513489,4.64362621307373,11.7416648864746,-28.0583343505859,3.3847222328186,4.34280204772949,8.85833263397217,-39.841667175293,1.34635436534882,1.84885466098785,5.04166746139526,2012-02-15 21:01:38
1.00099992752075,88,17.486364364624,0.636776924133301,0.804417073726654,2.28636384010315,-33.3681831359863,1.10299575328827,1.45192229747772,3.83181858062744,-43.490909576416,2.51487612724304,2.76124310493469,4.50909090042114,2012-02-15 21:01:39
1,63,23.3777770996094,3.01798939704895,3.37894701957703,5.77777719497681,-33.5999984741211,0.761904716491699,0.846280217170715,1.6000007390976,-42.9396820068359,1.85416948795319,2.09265804290771,3.86031651496887,2012-02-15 21:01:40
1,92,27.7086963653564,0.410775035619736,0.479504406452179,0.908696413040161,-33.830436706543,0.799905717372894,0.92168790102005,1.76956367492676,-42.5130424499512,1.97353494167328,2.28288602828979,5.08695507049561,2012-02-15 21:01:41
1,95,27.9705257415771,1.20128524303436,1.41122364997864,2.82947301864624,-29.4063148498535,1.60558462142944,1.83428251743317,3.79368495941162,-44.9473686218262,0.718891799449921,0.912237286567688,2.65262985229492,2012-02-15 21:01:42
