"diffSecs","level","azimuth.mean","azimuth.absolute.deviation","azimuth.standard.deviation","azimuth.max.deviation","pitch.mean","pitch.absolute.deviation","pitch.standard.deviation","pitch.max.deviation","roll.mean","roll.absolute.deviation","roll.standard.deviation","roll.max.deviation","time"
0,40,47.0849990844727,2.61449956893921,3.34518647193909,6.98499822616577,2.50500011444092,5.65525007247925,6.39171171188354,10.1949996948242,-21.7275009155273,1.67374992370605,2.44141221046448,7.12750005722046,2011-12-22 11:01:24
1.01464331150055,40,52.3325004577637,3.52749991416931,3.86706519126892,6.53250122070312,16.5375003814697,1.0006251335144,1.13041770458221,2.33750057220459,-28.6650009155273,0.798500061035156,0.921289920806885,1.76500082015991,2011-12-22 11:01:25
1.00208163261414,48,49.9104156494141,2.94548630714417,3.55939149856567,6.38958168029785,12.5375003814697,4.16927099227905,4.84680414199829,8.73750019073486,-20.002082824707,8.91814231872559,10.2617712020874,22.002082824707,2011-12-22 11:01:26
1.00295495986938,35,39.0914306640625,2.59395909309387,2.97305727005005,6.90857028961182,7.3457145690918,2.53893876075745,2.81783533096313,4.04571437835693,5.23714303970337,1.43102037906647,1.57481718063354,2.83714294433594,2011-12-22 11:01:27
485.770568847656,32,37.7093772888184,2.23554682731628,3.49315047264099,15.9906253814697,5.16250038146973,7.94374990463257,21.5895195007324,118.662498474121,3.95624995231628,3.59921884536743,3.91231536865234,7.25624990463257,2011-12-22 11:09:32
1.00944828987122,39,53.3948707580566,3.84194612503052,4.61124324798584,9.20512962341309,-119.069236755371,6.99290037155151,8.80288982391357,19.8307762145996,12.9333333969116,3.56923079490662,3.87750482559204,6.8666672706604,2011-12-22 11:09:33
1.0290116071701,49,53.4959182739258,1.14294052124023,1.32495045661926,2.90408229827881,-121.242858886719,7.72536563873291,8.68625545501709,15.1571502685547,6.89183712005615,5.86513948440552,7.50349140167236,13.908164024353,2011-12-22 11:09:34
1.01575338840485,31,48.6096801757812,1.15962541103363,1.33859717845917,2.79032325744629,-118.980644226074,3.77481746673584,4.33629941940308,8.08064460754395,-6.07419347763062,0.744224786758423,0.912623941898346,1.72580659389496,2011-12-22 11:09:35
1.00994169712067,44,47.9318199157715,1.53347110748291,1.75845670700073,3.26818180084229,-117.147727966309,4.16570281982422,4.64276075363159,7.64772844314575,-5.80681848526001,1.37376034259796,1.70285832881927,3.59318232536316,2011-12-22 11:09:36
1.04359495639801,29,51.4448280334473,0.368133127689362,0.469472408294678,1.14482891559601,-112.41724395752,2.0913200378418,2.34286427497864,4.6172399520874,-6.87586212158203,1.03376936912537,1.18776965141296,2.02413845062256,2011-12-22 11:09:37
