"diffSecs","latitude","longitude","altitude","time"
2.30299997329712,42.3863911628723,-71.0135436058044,50,2012-01-28 08:45:21
1.03800010681152,42.3863911628723,-71.0135436058044,50,2012-01-28 08:45:22
0.927999973297119,42.3863911628723,-71.0135436058044,50,2012-01-28 08:45:23
2.00399994850159,42.3863911628723,-71.0135436058044,50,2012-01-28 08:45:25
0.907999992370605,42.3863911628723,-71.0135436058044,50,2012-01-28 08:45:26
0.0910000801086426,42.3863911628723,-71.0135436058044,50,2012-01-28 08:45:26
1.21600008010864,42.3863911628723,-71.0135436058044,50,2012-01-28 08:45:27
1.96299982070923,42.3863911628723,-71.0135436058044,50,2012-01-28 08:45:29
0.327000141143799,42.3863911628723,-71.0135436058044,50,2012-01-28 08:45:29
0.559000015258789,42.3863911628723,-71.0135436058044,50,2012-01-28 08:45:30
1.01600003242493,42.389931678772,-71.0418033599854,50,2012-01-28 08:45:31
0.961999893188477,42.389931678772,-71.0418033599854,50,2012-01-28 08:45:32
0.999000072479248,42.389931678772,-71.0418033599854,50,2012-01-28 08:45:33
1.04299998283386,42.389931678772,-71.0418033599854,50,2012-01-28 08:45:34
1.04200005531311,42.389931678772,-71.0418033599854,50,2012-01-28 08:45:35
0.86899995803833,42.389931678772,-71.0418033599854,50,2012-01-28 08:45:36
1.35800004005432,42.389931678772,-71.0418033599854,50,2012-01-28 08:45:37
0.779999971389771,42.389931678772,-71.0418033599854,50,2012-01-28 08:45:38
0.978999853134155,42.389931678772,-71.0418033599854,50,2012-01-28 08:45:39
0.990000009536743,42.389931678772,-71.0418033599854,50,2012-01-28 08:45:40
0.689000129699707,42.389931678772,-71.0418033599854,50,2012-01-28 08:45:41
1.00599980354309,42.389931678772,-71.0418033599854,50,2012-01-28 08:45:42
0.999000072479248,42.389931678772,-71.0418033599854,50,2012-01-28 08:45:43
1.07200002670288,42.389931678772,-71.0418033599854,50,2012-01-28 08:45:44
0.960000038146973,42.389931678772,-71.0418033599854,50,2012-01-28 08:45:45
0.98199987411499,42.389931678772,-71.0418033599854,50,2012-01-28 08:45:46
0.984000205993652,42.389931678772,-71.0418033599854,50,2012-01-28 08:45:47
1.07799983024597,42.389931678772,-71.0418033599854,50,2012-01-28 08:45:48
2.4539999961853,42.389931678772,-71.0418033599854,50,2012-01-28 08:45:50
0.99399995803833,42.389931678772,-71.0418033599854,50,2012-01-28 08:45:51
1.00100016593933,42.389931678772,-71.0418033599854,50,2012-01-28 08:45:52
1.02600002288818,42.389931678772,-71.0418033599854,50,2012-01-28 08:45:53
1.78099989891052,42.389931678772,-71.0418033599854,50,2012-01-28 08:45:55
1,42.389931678772,-71.0418033599854,50,2012-01-28 08:45:56
1.00099992752075,42.389931678772,-71.0418033599854,50,2012-01-28 08:45:57
1.12700009346008,42.389931678772,-71.0418033599854,50,2012-01-28 08:45:58
0.854000091552734,42.389931678772,-71.0418033599854,50,2012-01-28 08:45:59
1.00799989700317,42.389931678772,-71.0418033599854,50,2012-01-28 08:46:00
1.00099992752075,42.389931678772,-71.0418033599854,50,2012-01-28 08:46:01
1.04500007629395,42.389931678772,-71.0418033599854,50,2012-01-28 08:46:02
0.954999923706055,42.389931678772,-71.0418033599854,50,2012-01-28 08:46:03
1.00100016593933,42.389931678772,-71.0418033599854,50,2012-01-28 08:46:04
1.00799989700317,42.389931678772,-71.0418033599854,50,2012-01-28 08:46:05
0.992000102996826,42.389931678772,-71.0418033599854,50,2012-01-28 08:46:06
1.07499980926514,42.389931678772,-71.0418033599854,50,2012-01-28 08:46:07
0.925000190734863,42.389931678772,-71.0418033599854,50,2012-01-28 08:46:08
1.00099992752075,42.389931678772,-71.0418033599854,50,2012-01-28 08:46:09
0.997999906539917,42.389931678772,-71.0418033599854,50,2012-01-28 08:46:10
1.00600004196167,42.389931678772,-71.0418033599854,50,2012-01-28 08:46:11
1,42.389931678772,-71.0418033599854,50,2012-01-28 08:46:12
1.01600003242493,42.389931678772,-71.0418033599854,50,2012-01-28 08:46:13
1.25399994850159,42.389931678772,-71.0418033599854,50,2012-01-28 08:46:14
0.743000030517578,42.389931678772,-71.0418033599854,50,2012-01-28 08:46:15
0.401000022888184,42.389931678772,-71.0418033599854,50,2012-01-28 08:46:15
1.00600004196167,42.389931678772,-71.0418033599854,50,2012-01-28 08:46:16
0.980000019073486,42.389931678772,-71.0418033599854,50,2012-01-28 08:46:17
2.96799993515015,42.389931678772,-71.0418033599854,50,2012-01-28 08:46:20
1.01500010490417,42.389931678772,-71.0418033599854,50,2012-01-28 08:46:21
1.0460000038147,42.389931678772,-71.0418033599854,50,2012-01-28 08:46:22
0.944999933242798,42.389931678772,-71.0418033599854,50,2012-01-28 08:46:23
1.02500009536743,42.389931678772,-71.0418033599854,50,2012-01-28 08:46:24
1.04699993133545,42.389931678772,-71.0418033599854,50,2012-01-28 08:46:25
0.924999952316284,42.389931678772,-71.0418033599854,50,2012-01-28 08:46:26
1.03299999237061,42.389931678772,-71.0418033599854,50,2012-01-28 08:46:27
0.993000030517578,42.389931678772,-71.0418033599854,50,2012-01-28 08:46:28
0.977999925613403,42.389931678772,-71.0418033599854,50,2012-01-28 08:46:29
1.72399997711182,42.389931678772,-71.0418033599854,50,2012-01-28 08:46:31
0.985000133514404,42.389931678772,-71.0418033599854,50,2012-01-28 08:46:32
0.174000024795532,42.389931678772,-71.0418033599854,50,2012-01-28 08:46:32
1.00799989700317,42.389931678772,-71.0418033599854,50,2012-01-28 08:46:33
0.966000080108643,42.389931678772,-71.0418033599854,50,2012-01-28 08:46:34
1.00099992752075,42.389931678772,-71.0418033599854,50,2012-01-28 08:46:35
1.05299997329712,42.389931678772,-71.0418033599854,50,2012-01-28 08:46:36
0.950999975204468,42.389931678772,-71.0418033599854,50,2012-01-28 08:46:37
1.01699995994568,42.389931678772,-71.0418033599854,50,2012-01-28 08:46:38
0.986999988555908,42.389931678772,-71.0418033599854,50,2012-01-28 08:46:39
1,42.389931678772,-71.0418033599854,50,2012-01-28 08:46:40
1.06200003623962,42.389931678772,-71.0418033599854,50,2012-01-28 08:46:41
0.934000015258789,42.389931678772,-71.0418033599854,50,2012-01-28 08:46:42
1.0090000629425,42.389931678772,-71.0418033599854,50,2012-01-28 08:46:43
1.00999999046326,42.389931678772,-71.0418033599854,50,2012-01-28 08:46:44
0.986999988555908,42.389931678772,-71.0418033599854,50,2012-01-28 08:46:45
1.01300001144409,42.389931678772,-71.0418033599854,50,2012-01-28 08:46:46
0.98799991607666,42.389931678772,-71.0418033599854,50,2012-01-28 08:46:47
2.98699998855591,42.389931678772,-71.0418033599854,50,2012-01-28 08:46:50
1.02900004386902,42.3834729194641,-70.9997248649597,50,2012-01-28 08:46:51
1.07599997520447,42.3834729194641,-70.9997248649597,50,2012-01-28 08:46:52
0.896000146865845,42.3834729194641,-70.9997248649597,50,2012-01-28 08:46:53
1.00899982452393,42.3834729194641,-70.9997248649597,50,2012-01-28 08:46:54
0.994000196456909,42.3834729194641,-70.9997248649597,50,2012-01-28 08:46:55
0.998999834060669,42.3834729194641,-70.9997248649597,50,2012-01-28 08:46:56
1.0310001373291,42.3834729194641,-70.9997248649597,50,2012-01-28 08:46:57
0.971999883651733,42.3834729194641,-70.9997248649597,50,2012-01-28 08:46:58
1.00300002098083,42.3834729194641,-70.9997248649597,50,2012-01-28 08:46:59
1.0090000629425,42.3834729194641,-70.9997248649597,50,2012-01-28 08:47:00
0.993000030517578,42.3834729194641,-70.9997248649597,50,2012-01-28 08:47:01
1.01199984550476,42.389931678772,-71.0418033599854,50,2012-01-28 08:47:02
1.05800008773804,42.389931678772,-71.0418033599854,50,2012-01-28 08:47:03
0.933000087738037,42.389931678772,-71.0418033599854,50,2012-01-28 08:47:04
1.01399993896484,42.389931678772,-71.0418033599854,50,2012-01-28 08:47:05
0.980000019073486,42.389931678772,-71.0418033599854,50,2012-01-28 08:47:06
1.09500002861023,42.389931678772,-71.0418033599854,50,2012-01-28 08:47:07
0.911999940872192,42.389931678772,-71.0418033599854,50,2012-01-28 08:47:08
1,42.389931678772,-71.0418033599854,50,2012-01-28 08:47:09
1.01699995994568,42.389931678772,-71.0418033599854,50,2012-01-28 08:47:10
1.03800010681152,42.389931678772,-71.0418033599854,50,2012-01-28 08:47:11
1.06799983978271,42.389931678772,-71.0418033599854,50,2012-01-28 08:47:12
1.76300001144409,42.389931678772,-71.0418033599854,50,2012-01-28 08:47:14
1,42.389931678772,-71.0418033599854,50,2012-01-28 08:47:15
1.00200009346008,42.389931678772,-71.0418033599854,50,2012-01-28 08:47:16
1.00799989700317,42.389931678772,-71.0418033599854,50,2012-01-28 08:47:17
1.02600002288818,42.389931678772,-71.0418033599854,50,2012-01-28 08:47:18
2.9520001411438,42.389931678772,-71.0418033599854,50,2012-01-28 08:47:21
1.01099991798401,42.389931678772,-71.0418033599854,50,2012-01-28 08:47:22
1.06800007820129,42.3863911628723,-71.0135436058044,50,2012-01-28 08:47:23
0.921000003814697,42.3863911628723,-71.0135436058044,50,2012-01-28 08:47:24
0.998999834060669,42.3863911628723,-71.0135436058044,50,2012-01-28 08:47:25
1.00300002098083,42.3863911628723,-71.0135436058044,50,2012-01-28 08:47:26
1.00699996948242,42.3863911628723,-71.0135436058044,50,2012-01-28 08:47:27
1.00500011444092,42.3863911628723,-71.0135436058044,50,2012-01-28 08:47:28
1.08200001716614,42.3863911628723,-71.0135436058044,50,2012-01-28 08:47:29
0.905999898910522,42.3863911628723,-71.0135436058044,50,2012-01-28 08:47:30
1.00300002098083,42.3863911628723,-71.0135436058044,50,2012-01-28 08:47:31
1.02900004386902,42.3863911628723,-71.0135436058044,50,2012-01-28 08:47:32
0.982000112533569,42.3863911628723,-71.0135436058044,50,2012-01-28 08:47:33
1.02499985694885,42.3863911628723,-71.0135436058044,50,2012-01-28 08:47:34
0.96399998664856,42.3863911628723,-71.0135436058044,50,2012-01-28 08:47:35
1.00300002098083,42.3863911628723,-71.0135436058044,50,2012-01-28 08:47:36
1.00200009346008,42.3863911628723,-71.0135436058044,50,2012-01-28 08:47:37
1.02099990844727,42.3863911628723,-71.0135436058044,50,2012-01-28 08:47:38
1.00099992752075,42.3863911628723,-71.0135436058044,50,2012-01-28 08:47:39
1.08300018310547,42.3863911628723,-71.0135436058044,50,2012-01-28 08:47:40
0.894999980926514,42.3863911628723,-71.0135436058044,50,2012-01-28 08:47:41
1,42.3863911628723,-71.0135436058044,50,2012-01-28 08:47:42
1.00399994850159,42.3863911628723,-71.0135436058044,50,2012-01-28 08:47:43
1,42.389931678772,-71.0418033599854,50,2012-01-28 08:47:44
1.04900002479553,42.389931678772,-71.0418033599854,50,2012-01-28 08:47:45
0.947999954223633,42.389931678772,-71.0418033599854,50,2012-01-28 08:47:46
1.00300002098083,42.389931678772,-71.0418033599854,50,2012-01-28 08:47:47
1.01200008392334,42.389931678772,-71.0418033599854,50,2012-01-28 08:47:48
3.0389997959137,42.389931678772,-71.0418033599854,50,2012-01-28 08:47:51
0.945000171661377,42.389931678772,-71.0418033599854,50,2012-01-28 08:47:52
1,42.389931678772,-71.0418033599854,50,2012-01-28 08:47:53
1.00999999046326,42.389931678772,-71.0418033599854,50,2012-01-28 08:47:54
0.990000009536743,42.389931678772,-71.0418033599854,50,2012-01-28 08:47:55
1,42.389931678772,-71.0418033599854,50,2012-01-28 08:47:56
1.07999992370605,42.389931678772,-71.0418033599854,50,2012-01-28 08:47:57
0.921999931335449,42.389931678772,-71.0418033599854,50,2012-01-28 08:47:58
1.00300002098083,42.389931678772,-71.0418033599854,50,2012-01-28 08:47:59
0.996999979019165,42.389931678772,-71.0418033599854,50,2012-01-28 08:48:00
1,42.389931678772,-71.0418033599854,50,2012-01-28 08:48:01
1.01400017738342,42.389931678772,-71.0418033599854,50,2012-01-28 08:48:02
1.09200000762939,42.389931678772,-71.0418033599854,50,2012-01-28 08:48:03
0.903999805450439,42.389931678772,-71.0418033599854,50,2012-01-28 08:48:04
0.995000123977661,42.389931678772,-71.0418033599854,50,2012-01-28 08:48:05
0.997999906539917,42.389931678772,-71.0418033599854,50,2012-01-28 08:48:06
1.00600004196167,42.389931678772,-71.0418033599854,50,2012-01-28 08:48:07
1.01699995994568,42.389931678772,-71.0418033599854,50,2012-01-28 08:48:08
1.07800006866455,42.389931678772,-71.0418033599854,50,2012-01-28 08:48:09
0.902999877929688,42.389931678772,-71.0418033599854,50,2012-01-28 08:48:10
1.00600004196167,42.389931678772,-71.0418033599854,50,2012-01-28 08:48:11
0.995000123977661,42.389931678772,-71.0418033599854,50,2012-01-28 08:48:12
1.03199982643127,42.389931678772,-71.0418033599854,50,2012-01-28 08:48:13
0.812000036239624,42.389931678772,-71.0418033599854,50,2012-01-28 08:48:14
0.902000188827515,42.389931678772,-71.0418033599854,50,2012-01-28 08:48:15
0.998999834060669,42.389931678772,-71.0418033599854,50,2012-01-28 08:48:16
0.999000072479248,42.389931678772,-71.0418033599854,50,2012-01-28 08:48:17
1.00499987602234,42.389931678772,-71.0418033599854,50,2012-01-28 08:48:18
2.98400020599365,42.389931678772,-71.0418033599854,50,2012-01-28 08:48:21
1,42.389931678772,-71.0418033599854,50,2012-01-28 08:48:22
1,42.389931678772,-71.0418033599854,50,2012-01-28 08:48:23
1.00499987602234,42.389931678772,-71.0418033599854,50,2012-01-28 08:48:24
0.998000144958496,42.389931678772,-71.0418033599854,50,2012-01-28 08:48:25
1.06799983978271,42.389931678772,-71.0418033599854,50,2012-01-28 08:48:26
0.932000160217285,42.389931678772,-71.0418033599854,50,2012-01-28 08:48:27
1.0019998550415,42.389931678772,-71.0418033599854,50,2012-01-28 08:48:28
1.00500011444092,42.389931678772,-71.0418033599854,50,2012-01-28 08:48:29
0.996999979019165,42.389931678772,-71.0418033599854,50,2012-01-28 08:48:30
1.00399994850159,42.389931678772,-71.0418033599854,50,2012-01-28 08:48:31
1.05999994277954,42.389931678772,-71.0418033599854,50,2012-01-28 08:48:32
0.939000129699707,42.389931678772,-71.0418033599854,50,2012-01-28 08:48:33
0.998999834060669,42.389931678772,-71.0418033599854,50,2012-01-28 08:48:34
1.40900015830994,42.389931678772,-71.0418033599854,50,2012-01-28 08:48:35
0.608000040054321,42.389931678772,-71.0418033599854,50,2012-01-28 08:48:36
1.03099989891052,42.389931678772,-71.0418033599854,50,2012-01-28 08:48:37
0.961999893188477,42.389931678772,-71.0418033599854,50,2012-01-28 08:48:38
1.00100016593933,42.389931678772,-71.0418033599854,50,2012-01-28 08:48:39
0.998999834060669,42.389931678772,-71.0418033599854,50,2012-01-28 08:48:40
1,42.389931678772,-71.0418033599854,50,2012-01-28 08:48:41
1.05200004577637,42.3863911628723,-71.0135436058044,50,2012-01-28 08:48:42
0.950999975204468,42.3863911628723,-71.0135436058044,50,2012-01-28 08:48:43
0.999000072479248,42.3863911628723,-71.0135436058044,50,2012-01-28 08:48:44
1.00200009346008,42.389931678772,-71.0418033599854,50,2012-01-28 08:48:45
0.997999906539917,42.389931678772,-71.0418033599854,50,2012-01-28 08:48:46
1.00300002098083,42.389931678772,-71.0418033599854,50,2012-01-28 08:48:47
1.0239999294281,42.389931678772,-71.0418033599854,50,2012-01-28 08:48:48
2.96500015258789,42.389931678772,-71.0418033599854,50,2012-01-28 08:48:51
0.998999834060669,42.389931678772,-71.0418033599854,50,2012-01-28 08:48:52
1.00800013542175,42.389931678772,-71.0418033599854,50,2012-01-28 08:48:53
1.03199982643127,42.389931678772,-71.0418033599854,50,2012-01-28 08:48:54
0.960000038146973,42.389931678772,-71.0418033599854,50,2012-01-28 08:48:55
1,42.389931678772,-71.0418033599854,50,2012-01-28 08:48:56
0.998000144958496,42.389931678772,-71.0418033599854,50,2012-01-28 08:48:57
1.00099992752075,42.389931678772,-71.0418033599854,50,2012-01-28 08:48:58
1.00600004196167,42.389931678772,-71.0418033599854,50,2012-01-28 08:48:59
1.10399985313416,42.389931678772,-71.0418033599854,50,2012-01-28 08:49:00
0.89300012588501,42.389931678772,-71.0418033599854,50,2012-01-28 08:49:01
1.00399994850159,42.389931678772,-71.0418033599854,50,2012-01-28 08:49:02
1.01399993896484,42.389931678772,-71.0418033599854,50,2012-01-28 08:49:03
0.988000154495239,42.389931678772,-71.0418033599854,50,2012-01-28 08:49:04
1.01300001144409,42.389931678772,-71.0418033599854,50,2012-01-28 08:49:05
1.07200002670288,42.389931678772,-71.0418033599854,50,2012-01-28 08:49:06
0.913999795913696,42.389931678772,-71.0418033599854,50,2012-01-28 08:49:07
0.999000072479248,42.389931678772,-71.0418033599854,50,2012-01-28 08:49:08
1.01200008392334,42.389931678772,-71.0418033599854,50,2012-01-28 08:49:09
0.988999843597412,42.389931678772,-71.0418033599854,50,2012-01-28 08:49:10
1.01200008392334,42.389931678772,-71.0418033599854,50,2012-01-28 08:49:11
1.05999994277954,42.389931678772,-71.0418033599854,50,2012-01-28 08:49:12
0.927999973297119,42.389931678772,-71.0418033599854,50,2012-01-28 08:49:13
1.00400018692017,42.389931678772,-71.0418033599854,50,2012-01-28 08:49:14
0.998999834060669,42.389931678772,-71.0418033599854,50,2012-01-28 08:49:15
0.999000072479248,42.389931678772,-71.0418033599854,50,2012-01-28 08:49:16
1.00300002098083,42.389931678772,-71.0418033599854,50,2012-01-28 08:49:17
1.0939998626709,42.389931678772,-71.0418033599854,50,2012-01-28 08:49:18
2.89800000190735,42.389931678772,-71.0418033599854,50,2012-01-28 08:49:21
1.00100016593933,42.389931678772,-71.0418033599854,50,2012-01-28 08:49:22
0.998999834060669,42.389931678772,-71.0418033599854,50,2012-01-28 08:49:23
1.05800008773804,42.389931678772,-71.0418033599854,50,2012-01-28 08:49:24
0.946000099182129,42.389931678772,-71.0418033599854,50,2012-01-28 08:49:25
0.997999906539917,42.389931678772,-71.0418033599854,50,2012-01-28 08:49:26
1.00099992752075,42.389931678772,-71.0418033599854,50,2012-01-28 08:49:27
0.998000144958496,42.389931678772,-71.0418033599854,50,2012-01-28 08:49:28
1.00300002098083,42.389931678772,-71.0418033599854,50,2012-01-28 08:49:29
1.03999996185303,42.389931678772,-71.0418033599854,50,2012-01-28 08:49:30
0.960999965667725,42.3834729194641,-70.9997248649597,50,2012-01-28 08:49:31
0.999000072479248,42.3834729194641,-70.9997248649597,50,2012-01-28 08:49:32
1,42.3834729194641,-70.9997248649597,50,2012-01-28 08:49:33
0.998999834060669,42.3834729194641,-70.9997248649597,50,2012-01-28 08:49:34
1.00600004196167,42.3834729194641,-70.9997248649597,50,2012-01-28 08:49:35
1.04999995231628,42.389931678772,-71.0418033599854,50,2012-01-28 08:49:36
0.952000141143799,42.389931678772,-71.0418033599854,50,2012-01-28 08:49:37
1.0090000629425,42.389931678772,-71.0418033599854,50,2012-01-28 08:49:38
0.99399995803833,42.389931678772,-71.0418033599854,50,2012-01-28 08:49:39
0.997999906539917,42.389931678772,-71.0418033599854,50,2012-01-28 08:49:40
0.999000072479248,42.389931678772,-71.0418033599854,50,2012-01-28 08:49:41
1.07699990272522,42.389931678772,-71.0418033599854,50,2012-01-28 08:49:42
0.926000118255615,42.389931678772,-71.0418033599854,50,2012-01-28 08:49:43
1.00099992752075,42.389931678772,-71.0418033599854,50,2012-01-28 08:49:44
0.999000072479248,42.389931678772,-71.0418033599854,50,2012-01-28 08:49:45
1.00300002098083,42.389931678772,-71.0418033599854,50,2012-01-28 08:49:46
1.0019998550415,42.3863911628723,-71.0135436058044,50,2012-01-28 08:49:47
1.00200009346008,42.3863911628723,-71.0135436058044,50,2012-01-28 08:49:48
2.98399996757507,42.3863911628723,-71.0135436058044,50,2012-01-28 08:49:51
1.00399994850159,42.3863911628723,-71.0135436058044,50,2012-01-28 08:49:52
0.996000051498413,42.3863911628723,-71.0135436058044,50,2012-01-28 08:49:53
1.00799989700317,42.3863911628723,-71.0135436058044,50,2012-01-28 08:49:54
1.04299998283386,42.3863911628723,-71.0135436058044,50,2012-01-28 08:49:55
0.954000234603882,42.3863911628723,-71.0135436058044,50,2012-01-28 08:49:56
1.00399994850159,42.389931678772,-71.0418033599854,50,2012-01-28 08:49:57
1,42.389931678772,-71.0418033599854,50,2012-01-28 08:49:58
0.994999885559082,42.389931678772,-71.0418033599854,50,2012-01-28 08:49:59
1.00399994850159,42.389931678772,-71.0418033599854,50,2012-01-28 08:50:00
1.00500011444092,42.389931678772,-71.0418033599854,50,2012-01-28 08:50:01
0.993000030517578,42.389931678772,-71.0418033599854,50,2012-01-28 08:50:02
1.00300002098083,42.389931678772,-71.0418033599854,50,2012-01-28 08:50:03
1.00899982452393,42.389931678772,-71.0418033599854,50,2012-01-28 08:50:04
0.990000009536743,42.389931678772,-71.0418033599854,50,2012-01-28 08:50:05
1.00200009346008,42.389931678772,-71.0418033599854,50,2012-01-28 08:50:06
1.00099992752075,42.3863911628723,-71.0135436058044,50,2012-01-28 08:50:07
1.00300002098083,42.3863911628723,-71.0135436058044,50,2012-01-28 08:50:08
1.04299998283386,42.3863911628723,-71.0135436058044,50,2012-01-28 08:50:09
0.955000162124634,42.3863911628723,-71.0135436058044,50,2012-01-28 08:50:10
1.0019998550415,42.3863911628723,-71.0135436058044,50,2012-01-28 08:50:11
0.998000144958496,42.3863911628723,-71.0135436058044,50,2012-01-28 08:50:12
1.00499987602234,42.3863911628723,-71.0135436058044,50,2012-01-28 08:50:13
0.998000144958496,42.3863911628723,-71.0135436058044,50,2012-01-28 08:50:14
1.00099992752075,42.3863911628723,-71.0135436058044,50,2012-01-28 08:50:15
1.05200004577637,42.3863911628723,-71.0135436058044,50,2012-01-28 08:50:16
0.95199990272522,42.389931678772,-71.0418033599854,50,2012-01-28 08:50:17
0.996000051498413,42.389931678772,-71.0418033599854,50,2012-01-28 08:50:18
2.98900008201599,42.389931678772,-71.0418033599854,50,2012-01-28 08:50:21
1.07099986076355,42.389931678772,-71.0418033599854,50,2012-01-28 08:50:22
0.930999994277954,42.389931678772,-71.0418033599854,50,2012-01-28 08:50:23
1,42.389931678772,-71.0418033599854,50,2012-01-28 08:50:24
1.00099992752075,42.389931678772,-71.0418033599854,50,2012-01-28 08:50:25
1.00500011444092,42.389931678772,-71.0418033599854,50,2012-01-28 08:50:26
1,42.389931678772,-71.0418033599854,50,2012-01-28 08:50:27
1.0149998664856,42.389931678772,-71.0418033599854,50,2012-01-28 08:50:28
1.20100021362305,42.389931678772,-71.0418033599854,50,2012-01-28 08:50:29
0.781999826431274,42.389931678772,-71.0418033599854,50,2012-01-28 08:50:30
1.00100016593933,42.389931678772,-71.0418033599854,50,2012-01-28 08:50:31
1.00699996948242,42.389931678772,-71.0418033599854,50,2012-01-28 08:50:32
1.01199984550476,42.389931678772,-71.0418033599854,50,2012-01-28 08:50:33
0.985000133514404,42.389931678772,-71.0418033599854,50,2012-01-28 08:50:34
1.0019998550415,42.389931678772,-71.0418033599854,50,2012-01-28 08:50:35
0.998000144958496,42.389931678772,-71.0418033599854,50,2012-01-28 08:50:36
1.0090000629425,42.389931678772,-71.0418033599854,50,2012-01-28 08:50:37
1.09099984169006,42.389931678772,-71.0418033599854,50,2012-01-28 08:50:38
0.901999950408936,42.389931678772,-71.0418033599854,50,2012-01-28 08:50:39
1.00300002098083,42.389931678772,-71.0418033599854,50,2012-01-28 08:50:40
0.996999979019165,42.389931678772,-71.0418033599854,50,2012-01-28 08:50:41
1.00200009346008,42.389931678772,-71.0418033599854,50,2012-01-28 08:50:42
1.01500010490417,42.389931678772,-71.0418033599854,50,2012-01-28 08:50:43
1.08499979972839,42.389931678772,-71.0418033599854,50,2012-01-28 08:50:44
0.902000188827515,42.389931678772,-71.0418033599854,50,2012-01-28 08:50:45
1,42.389931678772,-71.0418033599854,50,2012-01-28 08:50:46
0.998999834060669,42.389931678772,-71.0418033599854,50,2012-01-28 08:50:47
1.00400018692017,42.389931678772,-71.0418033599854,50,2012-01-28 08:50:48
3.0699999332428,42.389931678772,-71.0418033599854,50,2012-01-28 08:50:51
0.920000076293945,42.389931678772,-71.0418033599854,50,2012-01-28 08:50:52
0.997999906539917,42.389931678772,-71.0418033599854,50,2012-01-28 08:50:53
1.00600004196167,42.389931678772,-71.0418033599854,50,2012-01-28 08:50:54
0.996000051498413,42.389931678772,-71.0418033599854,50,2012-01-28 08:50:55
1.00899982452393,42.389931678772,-71.0418033599854,50,2012-01-28 08:50:56
1.08400011062622,42.389931678772,-71.0418033599854,50,2012-01-28 08:50:57
0.91100001335144,42.389931678772,-71.0418033599854,50,2012-01-28 08:50:58
0.996999979019165,42.389931678772,-71.0418033599854,50,2012-01-28 08:50:59
1.0019998550415,42.389931678772,-71.0418033599854,50,2012-01-28 08:51:00
1.00200009346008,42.389931678772,-71.0418033599854,50,2012-01-28 08:51:01
1.00999999046326,42.389931678772,-71.0418033599854,50,2012-01-28 08:51:02
0.992000102996826,42.389931678772,-71.0418033599854,50,2012-01-28 08:51:03
0.996999979019165,42.389931678772,-71.0418033599854,50,2012-01-28 08:51:04
1.00499987602234,42.389931678772,-71.0418033599854,50,2012-01-28 08:51:05
0.996999979019165,42.389931678772,-71.0418033599854,50,2012-01-28 08:51:06
1.01200008392334,42.389931678772,-71.0418033599854,50,2012-01-28 08:51:07
1.07800006866455,42.389931678772,-71.0418033599854,50,2012-01-28 08:51:08
0.915999889373779,42.389931678772,-71.0418033599854,50,2012-01-28 08:51:09
1.00300002098083,42.389931678772,-71.0418033599854,50,2012-01-28 08:51:10
0.996000051498413,42.389931678772,-71.0418033599854,50,2012-01-28 08:51:11
1.0019998550415,42.389931678772,-71.0418033599854,50,2012-01-28 08:51:12
1.01700019836426,42.389931678772,-71.0418033599854,50,2012-01-28 08:51:13
0.986999988555908,42.389931678772,-71.0418033599854,50,2012-01-28 08:51:14
0.993000030517578,42.389931678772,-71.0418033599854,50,2012-01-28 08:51:15
1.0019998550415,42.389931678772,-71.0418033599854,50,2012-01-28 08:51:16
1.00399994850159,42.389931678772,-71.0418033599854,50,2012-01-28 08:51:17
0.996999979019165,42.389931678772,-71.0418033599854,50,2012-01-28 08:51:18
2.99200010299683,42.389931678772,-71.0418033599854,50,2012-01-28 08:51:21
1.07599997520447,42.389931678772,-71.0418033599854,50,2012-01-28 08:51:22
0.924000024795532,42.389931678772,-71.0418033599854,50,2012-01-28 08:51:23
1.01399993896484,42.389931678772,-71.0418033599854,50,2012-01-28 08:51:24
1.08000016212463,42.389931678772,-71.0418033599854,50,2012-01-28 08:51:25
0.907999992370605,42.389931678772,-71.0418033599854,50,2012-01-28 08:51:26
0.998999834060669,42.389931678772,-71.0418033599854,50,2012-01-28 08:51:27
0.446000099182129,42.389931678772,-71.0418033599854,50,2012-01-28 08:51:27
0.996999979019165,42.389931678772,-71.0418033599854,50,2012-01-28 08:51:28
1.00200009346008,42.389931678772,-71.0418033599854,50,2012-01-28 08:51:29
1.00399994850159,42.389931678772,-71.0418033599854,50,2012-01-28 08:51:30
0.996999979019165,42.389931678772,-71.0418033599854,50,2012-01-28 08:51:31
1.00499987602234,42.389931678772,-71.0418033599854,50,2012-01-28 08:51:32
0.996000051498413,42.389931678772,-71.0418033599854,50,2012-01-28 08:51:33
1.00100016593933,42.389931678772,-71.0418033599854,50,2012-01-28 08:51:34
1,42.389931678772,-71.0418033599854,50,2012-01-28 08:51:35
1.0019998550415,42.389931678772,-71.0418033599854,50,2012-01-28 08:51:36
1,42.389931678772,-71.0418033599854,50,2012-01-28 08:51:37
1.00399994850159,42.389931678772,-71.0418033599854,50,2012-01-28 08:51:38
1.00300002098083,42.389931678772,-71.0418033599854,50,2012-01-28 08:51:39
1.09400010108948,42.389931678772,-71.0418033599854,50,2012-01-28 08:51:40
0.902999877929688,42.389931678772,-71.0418033599854,50,2012-01-28 08:51:41
1.007000207901,42.389931678772,-71.0418033599854,50,2012-01-28 08:51:42
0.995999813079834,42.389931678772,-71.0418033599854,50,2012-01-28 08:51:43
0.998000144958496,42.389931678772,-71.0418033599854,50,2012-01-28 08:51:44
1.0239999294281,42.389931678772,-71.0418033599854,50,2012-01-28 08:51:45
1.05699992179871,42.389931678772,-71.0418033599854,50,2012-01-28 08:51:46
0.922000169754028,42.389931678772,-71.0418033599854,50,2012-01-28 08:51:47
2.99199986457825,42.389931678772,-71.0418033599854,50,2012-01-28 08:51:50
1.02100014686584,42.389931678772,-71.0418033599854,50,2012-01-28 08:51:51
1.06299996376038,42.389931678772,-71.0418033599854,50,2012-01-28 08:51:52
0.921000003814697,42.389931678772,-71.0418033599854,50,2012-01-28 08:51:53
1.00099992752075,42.389931678772,-71.0418033599854,50,2012-01-28 08:51:54
0.999000072479248,42.389931678772,-71.0418033599854,50,2012-01-28 08:51:55
1.00600004196167,42.389931678772,-71.0418033599854,50,2012-01-28 08:51:56
1.01799988746643,42.389931678772,-71.0418033599854,50,2012-01-28 08:51:57
1.06299996376038,42.389931678772,-71.0418033599854,50,2012-01-28 08:51:58
0.916000127792358,42.389931678772,-71.0418033599854,50,2012-01-28 08:51:59
1.00699996948242,42.389931678772,-71.0418033599854,50,2012-01-28 08:52:00
0.99399995803833,42.389931678772,-71.0418033599854,50,2012-01-28 08:52:01
1.00200009346008,42.389931678772,-71.0418033599854,50,2012-01-28 08:52:02
1.07799983024597,42.389931678772,-71.0418033599854,50,2012-01-28 08:52:03
0.919000148773193,42.389931678772,-71.0418033599854,50,2012-01-28 08:52:04
1.00300002098083,42.389931678772,-71.0418033599854,50,2012-01-28 08:52:05
0.997999906539917,42.389931678772,-71.0418033599854,50,2012-01-28 08:52:06
1.00099992752075,42.389931678772,-71.0418033599854,50,2012-01-28 08:52:07
1.00300002098083,42.389931678772,-71.0418033599854,50,2012-01-28 08:52:08
1.01999998092651,42.389931678772,-71.0418033599854,50,2012-01-28 08:52:09
1.09899997711182,42.389931678772,-71.0418033599854,50,2012-01-28 08:52:10
0.886000156402588,42.389931678772,-71.0418033599854,50,2012-01-28 08:52:11
0.995999813079834,42.389931678772,-71.0418033599854,50,2012-01-28 08:52:12
1.00100016593933,42.389931678772,-71.0418033599854,50,2012-01-28 08:52:13
1.00399994850159,42.389931678772,-71.0418033599854,50,2012-01-28 08:52:14
1.01099991798401,42.389931678772,-71.0418033599854,50,2012-01-28 08:52:15
1.06000018119812,42.389931678772,-71.0418033599854,50,2012-01-28 08:52:16
0.929999828338623,42.389931678772,-71.0418033599854,50,2012-01-28 08:52:17
2.99100017547607,42.389931678772,-71.0418033599854,50,2012-01-28 08:52:20
1.00599980354309,42.389931678772,-71.0418033599854,50,2012-01-28 08:52:21
1.04900002479553,42.389931678772,-71.0418033599854,50,2012-01-28 08:52:22
0.945000171661377,42.389931678772,-71.0418033599854,50,2012-01-28 08:52:23
1.0019998550415,42.389931678772,-71.0418033599854,50,2012-01-28 08:52:24
0.998000144958496,42.389931678772,-71.0418033599854,50,2012-01-28 08:52:25
1.00099992752075,42.389931678772,-71.0418033599854,50,2012-01-28 08:52:26
1.00699996948242,42.389931678772,-71.0418033599854,50,2012-01-28 08:52:27
1.05099987983704,42.389931678772,-71.0418033599854,50,2012-01-28 08:52:28
0.949000120162964,42.3863911628723,-71.0135436058044,50,2012-01-28 08:52:29
1,42.3863911628723,-71.0135436058044,50,2012-01-28 08:52:30
1.00099992752075,42.3863911628723,-71.0135436058044,50,2012-01-28 08:52:31
0.996999979019165,42.3863911628723,-71.0135436058044,50,2012-01-28 08:52:32
1.02500009536743,42.3863911628723,-71.0135436058044,50,2012-01-28 08:52:33
0.977999925613403,42.3863911628723,-71.0135436058044,50,2012-01-28 08:52:34
1.00699996948242,42.3863911628723,-71.0135436058044,50,2012-01-28 08:52:35
0.999000072479248,42.3863911628723,-71.0135436058044,50,2012-01-28 08:52:36
0.99399995803833,42.3863911628723,-71.0135436058044,50,2012-01-28 08:52:37
1.00100016593933,42.3863911628723,-71.0135436058044,50,2012-01-28 08:52:38
1.02999997138977,42.389931678772,-71.0418033599854,50,2012-01-28 08:52:39
1.05699992179871,42.389931678772,-71.0418033599854,50,2012-01-28 08:52:40
0.940999984741211,42.389931678772,-71.0418033599854,50,2012-01-28 08:52:41
0.977999925613403,42.389931678772,-71.0418033599854,50,2012-01-28 08:52:42
1,42.389931678772,-71.0418033599854,50,2012-01-28 08:52:43
1.00400018692017,42.3834729194641,-70.9997248649597,50,2012-01-28 08:52:44
1.01699995994568,42.3834729194641,-70.9997248649597,50,2012-01-28 08:52:45
1.07599997520447,42.3863911628723,-71.0135436058044,50,2012-01-28 08:52:46
0.902999877929688,42.3863911628723,-71.0135436058044,50,2012-01-28 08:52:47
2.98900008201599,42.389931678772,-71.0418033599854,50,2012-01-28 08:52:50
1.01300001144409,42.389931678772,-71.0418033599854,50,2012-01-28 08:52:51
0.990000009536743,42.389931678772,-71.0418033599854,50,2012-01-28 08:52:52
0.997999906539917,42.389931678772,-71.0418033599854,50,2012-01-28 08:52:53
1.00100016593933,42.389931678772,-71.0418033599854,50,2012-01-28 08:52:54
1.00899982452393,42.389931678772,-71.0418033599854,50,2012-01-28 08:52:55
1.06100010871887,42.389931678772,-71.0418033599854,50,2012-01-28 08:52:56
0.934000015258789,42.389931678772,-71.0418033599854,50,2012-01-28 08:52:57
1.00300002098083,42.389931678772,-71.0418033599854,50,2012-01-28 08:52:58
1,42.389931678772,-71.0418033599854,50,2012-01-28 08:52:59
0.998999834060669,42.389931678772,-71.0418033599854,50,2012-01-28 08:53:00
1.07600021362305,42.389931678772,-71.0418033599854,50,2012-01-28 08:53:01
0.925999879837036,42.389931678772,-71.0418033599854,50,2012-01-28 08:53:02
1.00500011444092,42.389931678772,-71.0418033599854,50,2012-01-28 08:53:03
0.99399995803833,42.389931678772,-71.0418033599854,50,2012-01-28 08:53:04
1.48799991607666,42.389931678772,-71.0418033599854,50,2012-01-28 08:53:06
1.08700013160706,42.389931678772,-71.0418033599854,50,2012-01-28 08:53:07
0.913999795913696,42.389931678772,-71.0418033599854,50,2012-01-28 08:53:08
1,42.389931678772,-71.0418033599854,50,2012-01-28 08:53:09
1.00100016593933,42.389931678772,-71.0418033599854,50,2012-01-28 08:53:10
1.00300002098083,42.389931678772,-71.0418033599854,50,2012-01-28 08:53:11
1.00399994850159,42.389931678772,-71.0418033599854,50,2012-01-28 08:53:12
1.09299993515015,42.389931678772,-71.0418033599854,50,2012-01-28 08:53:13
0.901000022888184,42.389931678772,-71.0418033599854,50,2012-01-28 08:53:14
1.00500011444092,42.389931678772,-71.0418033599854,50,2012-01-28 08:53:15
0.997999906539917,42.389931678772,-71.0418033599854,50,2012-01-28 08:53:16
1,42.389931678772,-71.0418033599854,50,2012-01-28 08:53:17
1.00300002098083,42.389931678772,-71.0418033599854,50,2012-01-28 08:53:18
2.9909999370575,42.389931678772,-71.0418033599854,50,2012-01-28 08:53:21
1,42.389931678772,-71.0418033599854,50,2012-01-28 08:53:22
0.998000144958496,42.389931678772,-71.0418033599854,50,2012-01-28 08:53:23
1.00299978256226,42.389931678772,-71.0418033599854,50,2012-01-28 08:53:24
1.01300001144409,42.389931678772,-71.0418033599854,50,2012-01-28 08:53:25
1.03400015830994,42.389931678772,-71.0418033599854,50,2012-01-28 08:53:26
0.953999996185303,42.389931678772,-71.0418033599854,50,2012-01-28 08:53:27
0.998999834060669,42.389931678772,-71.0418033599854,50,2012-01-28 08:53:28
1,42.389931678772,-71.0418033599854,50,2012-01-28 08:53:29
1,42.389931678772,-71.0418033599854,50,2012-01-28 08:53:30
1.00400018692017,42.389931678772,-71.0418033599854,50,2012-01-28 08:53:31
1.01600003242493,42.389931678772,-71.0418033599854,50,2012-01-28 08:53:32
0.986999988555908,42.389931678772,-71.0418033599854,50,2012-01-28 08:53:33
1.00099992752075,42.389931678772,-71.0418033599854,50,2012-01-28 08:53:34
0.996000051498413,42.389931678772,-71.0418033599854,50,2012-01-28 08:53:35
1.0019998550415,42.389931678772,-71.0418033599854,50,2012-01-28 08:53:36
1.01600003242493,42.389931678772,-71.0418033599854,50,2012-01-28 08:53:37
1.01500010490417,42.389931678772,-71.0418033599854,50,2012-01-28 08:53:38
0.971999883651733,42.389931678772,-71.0418033599854,50,2012-01-28 08:53:39
0.996999979019165,42.389931678772,-71.0418033599854,50,2012-01-28 08:53:40
1.00699996948242,42.389931678772,-71.0418033599854,50,2012-01-28 08:53:41
1,42.389931678772,-71.0418033599854,50,2012-01-28 08:53:42
0.999000072479248,42.389931678772,-71.0418033599854,50,2012-01-28 08:53:43
1.01500010490417,42.389931678772,-71.0418033599854,50,2012-01-28 08:53:44
1.05999994277954,42.389931678772,-71.0418033599854,50,2012-01-28 08:53:45
0.925999879837036,42.389931678772,-71.0418033599854,50,2012-01-28 08:53:46
1.00100016593933,42.389931678772,-71.0418033599854,50,2012-01-28 08:53:47
1.00099992752075,42.389931678772,-71.0418033599854,50,2012-01-28 08:53:48
3,42.389931678772,-71.0418033599854,50,2012-01-28 08:53:51
0.993000030517578,42.389931678772,-71.0418033599854,50,2012-01-28 08:53:52
1,42.389931678772,-71.0418033599854,50,2012-01-28 08:53:53
1.00300002098083,42.389931678772,-71.0418033599854,50,2012-01-28 08:53:54
1.0149998664856,42.389931678772,-71.0418033599854,50,2012-01-28 08:53:55
1.08300018310547,42.389931678772,-71.0418033599854,50,2012-01-28 08:53:56
0.898000001907349,42.389931678772,-71.0418033599854,50,2012-01-28 08:53:57
1.0019998550415,42.389931678772,-71.0418033599854,50,2012-01-28 08:53:58
1.00399994850159,42.389931678772,-71.0418033599854,50,2012-01-28 08:53:59
1.01100015640259,42.389931678772,-71.0418033599854,50,2012-01-28 08:54:00
1.06499981880188,42.389931678772,-71.0418033599854,50,2012-01-28 08:54:01
0.920000076293945,42.389931678772,-71.0418033599854,50,2012-01-28 08:54:02
1.00200009346008,42.389931678772,-71.0418033599854,50,2012-01-28 08:54:03
0.998999834060669,42.389931678772,-71.0418033599854,50,2012-01-28 08:54:04
1.01300001144409,42.389931678772,-71.0418033599854,50,2012-01-28 08:54:05
1.04000020027161,42.389931678772,-71.0418033599854,50,2012-01-28 08:54:06
0.957000017166138,42.389931678772,-71.0418033599854,50,2012-01-28 08:54:07
0.994999885559082,42.389931678772,-71.0418033599854,50,2012-01-28 08:54:08
1.00300002098083,42.389931678772,-71.0418033599854,50,2012-01-28 08:54:09
0.999000072479248,42.389931678772,-71.0418033599854,50,2012-01-28 08:54:10
1.00699996948242,42.389931678772,-71.0418033599854,50,2012-01-28 08:54:11
1.08599996566772,42.389931678772,-71.0418033599854,50,2012-01-28 08:54:12
0.908999919891357,42.389931678772,-71.0418033599854,50,2012-01-28 08:54:13
1.00399994850159,42.389931678772,-71.0418033599854,50,2012-01-28 08:54:14
0.996000051498413,42.389931678772,-71.0418033599854,50,2012-01-28 08:54:15
1.00300002098083,42.389931678772,-71.0418033599854,50,2012-01-28 08:54:16
1.00500011444092,42.389931678772,-71.0418033599854,50,2012-01-28 08:54:17
1.08499979972839,42.389931678772,-71.0418033599854,50,2012-01-28 08:54:18
2.90300011634827,42.389931678772,-71.0418033599854,50,2012-01-28 08:54:21
0.997999906539917,42.389931678772,-71.0418033599854,50,2012-01-28 08:54:22
1.00800013542175,42.3863911628723,-71.0135436058044,50,2012-01-28 08:54:23
1.05999994277954,42.3863911628723,-71.0135436058044,50,2012-01-28 08:54:24
0.937000036239624,42.3863911628723,-71.0135436058044,50,2012-01-28 08:54:25
0.996000051498413,42.3863911628723,-71.0135436058044,50,2012-01-28 08:54:26
1.00300002098083,42.3863911628723,-71.0135436058044,50,2012-01-28 08:54:27
1.00599980354309,42.3863911628723,-71.0135436058044,50,2012-01-28 08:54:28
1,42.3863911628723,-71.0135436058044,50,2012-01-28 08:54:29
1.0770001411438,42.3863911628723,-71.0135436058044,50,2012-01-28 08:54:30
0.925999879837036,42.3863911628723,-71.0135436058044,50,2012-01-28 08:54:31
1.00100016593933,42.3863911628723,-71.0135436058044,50,2012-01-28 08:54:32
0.991999864578247,42.389931678772,-71.0418033599854,50,2012-01-28 08:54:33
1.00500011444092,42.389931678772,-71.0418033599854,50,2012-01-28 08:54:34
0.996999979019165,42.389931678772,-71.0418033599854,50,2012-01-28 08:54:35
1.00699996948242,42.389931678772,-71.0418033599854,50,2012-01-28 08:54:36
1.00200009346008,42.389931678772,-71.0418033599854,50,2012-01-28 08:54:37
0.99399995803833,42.389931678772,-71.0418033599854,50,2012-01-28 08:54:38
1.00300002098083,42.389931678772,-71.0418033599854,50,2012-01-28 08:54:39
1.03699994087219,42.389931678772,-71.0418033599854,50,2012-01-28 08:54:40
0.973999977111816,42.389931678772,-71.0418033599854,50,2012-01-28 08:54:41
0.986999988555908,42.389931678772,-71.0418033599854,50,2012-01-28 08:54:42
1.00399994850159,42.389931678772,-71.0418033599854,50,2012-01-28 08:54:43
1.00200009346008,42.389931678772,-71.0418033599854,50,2012-01-28 08:54:44
1,42.389931678772,-71.0418033599854,50,2012-01-28 08:54:45
1.03299999237061,42.389931678772,-71.0418033599854,50,2012-01-28 08:54:46
0.967000007629395,42.389931678772,-71.0418033599854,50,2012-01-28 08:54:47
1,42.389931678772,-71.0418033599854,50,2012-01-28 08:54:48
2.99199986457825,42.389931678772,-71.0418033599854,50,2012-01-28 08:54:51
1.01800012588501,42.389931678772,-71.0418033599854,50,2012-01-28 08:54:52
1.06900000572205,42.389931678772,-71.0418033599854,50,2012-01-28 08:54:53
0.908999919891357,42.389931678772,-71.0418033599854,50,2012-01-28 08:54:54
1.00999999046326,42.389931678772,-71.0418033599854,50,2012-01-28 08:54:55
0.993000030517578,42.389931678772,-71.0418033599854,50,2012-01-28 08:54:56
1.00399994850159,42.389931678772,-71.0418033599854,50,2012-01-28 08:54:57
1.05200004577637,42.389931678772,-71.0418033599854,50,2012-01-28 08:54:58
0.944000005722046,42.389931678772,-71.0418033599854,50,2012-01-28 08:54:59
1.00099992752075,42.389931678772,-71.0418033599854,50,2012-01-28 08:55:00
1.00800013542175,42.389931678772,-71.0418033599854,50,2012-01-28 08:55:01
0.99399995803833,42.389931678772,-71.0418033599854,50,2012-01-28 08:55:02
0.474999904632568,42.389931678772,-71.0418033599854,50,2012-01-28 08:55:02
1.04800009727478,42.389931678772,-71.0418033599854,50,2012-01-28 08:55:03
0.953999996185303,42.389931678772,-71.0418033599854,50,2012-01-28 08:55:04
1.00500011444092,42.389931678772,-71.0418033599854,50,2012-01-28 08:55:05
0.995999813079834,42.389931678772,-71.0418033599854,50,2012-01-28 08:55:06
1,42.389931678772,-71.0418033599854,50,2012-01-28 08:55:07
1.00200009346008,42.389931678772,-71.0418033599854,50,2012-01-28 08:55:08
1.07200002670288,42.389931678772,-71.0418033599854,50,2012-01-28 08:55:09
0.930000066757202,42.389931678772,-71.0418033599854,50,2012-01-28 08:55:10
0.995999813079834,42.389931678772,-71.0418033599854,50,2012-01-28 08:55:11
1.00300002098083,42.389931678772,-71.0418033599854,50,2012-01-28 08:55:12
1.10899996757507,42.389931678772,-71.0418033599854,50,2012-01-28 08:55:13
0.89900016784668,42.389931678772,-71.0418033599854,50,2012-01-28 08:55:14
0.998999834060669,42.389931678772,-71.0418033599854,50,2012-01-28 08:55:15
0.996000051498413,42.389931678772,-71.0418033599854,50,2012-01-28 08:55:16
1,42.389931678772,-71.0418033599854,50,2012-01-28 08:55:17
2.98800015449524,42.389931678772,-71.0418033599854,50,2012-01-28 08:55:20
1.00499987602234,42.389931678772,-71.0418033599854,50,2012-01-28 08:55:21
1.00099992752075,42.389931678772,-71.0418033599854,50,2012-01-28 08:55:22
1.03700017929077,42.389931678772,-71.0418033599854,50,2012-01-28 08:55:23
0.967000007629395,42.389931678772,-71.0418033599854,50,2012-01-28 08:55:24
0.998999834060669,42.389931678772,-71.0418033599854,50,2012-01-28 08:55:25
0.996999979019165,42.389931678772,-71.0418033599854,50,2012-01-28 08:55:26
1.00400018692017,42.389931678772,-71.0418033599854,50,2012-01-28 08:55:27
0.996999979019165,42.389931678772,-71.0418033599854,50,2012-01-28 08:55:28
1.03799986839294,42.389931678772,-71.0418033599854,50,2012-01-28 08:55:29
1.07299995422363,42.389931678772,-71.0418033599854,50,2012-01-28 08:55:30
0.891000032424927,42.389931678772,-71.0418033599854,50,2012-01-28 08:55:31
1.00399994850159,42.389931678772,-71.0418033599854,50,2012-01-28 08:55:32
1,42.389931678772,-71.0418033599854,50,2012-01-28 08:55:33
1,42.389931678772,-71.0418033599854,50,2012-01-28 08:55:34
1.04100012779236,42.389931678772,-71.0418033599854,50,2012-01-28 08:55:35
0.957000017166138,42.389931678772,-71.0418033599854,50,2012-01-28 08:55:36
1.00399994850159,42.389931678772,-71.0418033599854,50,2012-01-28 08:55:37
0.996999979019165,42.389931678772,-71.0418033599854,50,2012-01-28 08:55:38
1.00399994850159,42.389931678772,-71.0418033599854,50,2012-01-28 08:55:39
1.08100008964539,42.389931678772,-71.0418033599854,50,2012-01-28 08:55:40
0.918999910354614,42.389931678772,-71.0418033599854,50,2012-01-28 08:55:41
1.00300002098083,42.389931678772,-71.0418033599854,50,2012-01-28 08:55:42
1.00100016593933,42.389931678772,-71.0418033599854,50,2012-01-28 08:55:43
0.998999834060669,42.389931678772,-71.0418033599854,50,2012-01-28 08:55:44
1.04700016975403,42.389931678772,-71.0418033599854,50,2012-01-28 08:55:45
0.950999975204468,42.389931678772,-71.0418033599854,50,2012-01-28 08:55:46
1.00099992752075,42.389931678772,-71.0418033599854,50,2012-01-28 08:55:47
2.99499988555908,42.389931678772,-71.0418033599854,50,2012-01-28 08:55:50
1.02800011634827,42.389931678772,-71.0418033599854,50,2012-01-28 08:55:51
0.973000049591064,42.389931678772,-71.0418033599854,50,2012-01-28 08:55:52
1.00699996948242,42.389931678772,-71.0418033599854,50,2012-01-28 08:55:53
0.994999885559082,42.389931678772,-71.0418033599854,50,2012-01-28 08:55:54
1.00400018692017,42.389931678772,-71.0418033599854,50,2012-01-28 08:55:55
0.992999792098999,42.389931678772,-71.0418033599854,50,2012-01-28 08:55:56
1.06400012969971,42.389931678772,-71.0418033599854,50,2012-01-28 08:55:57
0.940000057220459,42.389931678772,-71.0418033599854,50,2012-01-28 08:55:58
0.997999906539917,42.389931678772,-71.0418033599854,50,2012-01-28 08:55:59
1.00399994850159,42.389931678772,-71.0418033599854,50,2012-01-28 08:56:00
0.998000144958496,42.389931678772,-71.0418033599854,50,2012-01-28 08:56:01
1.00499987602234,42.389931678772,-71.0418033599854,50,2012-01-28 08:56:02
1.04400014877319,42.389931678772,-71.0418033599854,50,2012-01-28 08:56:03
0.954999923706055,42.389931678772,-71.0418033599854,50,2012-01-28 08:56:04
1,42.389931678772,-71.0418033599854,50,2012-01-28 08:56:05
1.00300002098083,42.389931678772,-71.0418033599854,50,2012-01-28 08:56:06
1,42.389931678772,-71.0418033599854,50,2012-01-28 08:56:07
1.08200001716614,42.389931678772,-71.0418033599854,50,2012-01-28 08:56:08
0.915999889373779,42.389931678772,-71.0418033599854,50,2012-01-28 08:56:09
1.00200009346008,42.389931678772,-71.0418033599854,50,2012-01-28 08:56:10
1.00099992752075,42.389931678772,-71.0418033599854,50,2012-01-28 08:56:11
1.00099992752075,42.389931678772,-71.0418033599854,50,2012-01-28 08:56:12
1.02700018882751,42.389931678772,-71.0418033599854,50,2012-01-28 08:56:13
1.07999992370605,42.3863911628723,-71.0135436058044,50,2012-01-28 08:56:14
0.895999908447266,42.3863911628723,-71.0135436058044,50,2012-01-28 08:56:15
0.999000072479248,42.3863911628723,-71.0135436058044,50,2012-01-28 08:56:16
1.00200009346008,42.3863911628723,-71.0135436058044,50,2012-01-28 08:56:17
3.07099986076355,42.3863911628723,-71.0135436058044,50,2012-01-28 08:56:20
0.922000169754028,42.3863911628723,-71.0135436058044,50,2012-01-28 08:56:21
1,42.3863911628723,-71.0135436058044,50,2012-01-28 08:56:22
0.998999834060669,42.3863911628723,-71.0135436058044,50,2012-01-28 08:56:23
1.00100016593933,42.389931678772,-71.0418033599854,50,2012-01-28 08:56:24
1.00399994850159,42.389931678772,-71.0418033599854,50,2012-01-28 08:56:25
1.05200004577637,42.389931678772,-71.0418033599854,50,2012-01-28 08:56:26
0.947999954223633,42.389931678772,-71.0418033599854,50,2012-01-28 08:56:27
0.996000051498413,42.389931678772,-71.0418033599854,50,2012-01-28 08:56:28
1.00099992752075,42.389931678772,-71.0418033599854,50,2012-01-28 08:56:29
1.00300002098083,42.389931678772,-71.0418033599854,50,2012-01-28 08:56:30
1.03799986839294,42.389931678772,-71.0418033599854,50,2012-01-28 08:56:31
0.96399998664856,42.389931678772,-71.0418033599854,50,2012-01-28 08:56:32
1.00300002098083,42.389931678772,-71.0418033599854,50,2012-01-28 08:56:33
0.998000144958496,42.389931678772,-71.0418033599854,50,2012-01-28 08:56:34
1.00399994850159,42.389931678772,-71.0418033599854,50,2012-01-28 08:56:35
1.00099992752075,42.389931678772,-71.0418033599854,50,2012-01-28 08:56:36
1.03500008583069,42.389931678772,-71.0418033599854,50,2012-01-28 08:56:37
0.968999862670898,42.389931678772,-71.0418033599854,50,2012-01-28 08:56:38
1.00100016593933,42.389931678772,-71.0418033599854,50,2012-01-28 08:56:39
0.991999864578247,42.389931678772,-71.0418033599854,50,2012-01-28 08:56:40
1.00200009346008,42.389931678772,-71.0418033599854,50,2012-01-28 08:56:41
1.00499987602234,42.389931678772,-71.0418033599854,50,2012-01-28 08:56:42
1.01700019836426,42.389931678772,-71.0418033599854,50,2012-01-28 08:56:43
1.08299994468689,42.389931678772,-71.0418033599854,50,2012-01-28 08:56:44
0.976999998092651,42.389931678772,-71.0418033599854,50,2012-01-28 08:56:45
0.921999931335449,42.389931678772,-71.0418033599854,50,2012-01-28 08:56:46
1.00099992752075,42.389931678772,-71.0418033599854,50,2012-01-28 08:56:47
3.8050000667572,42.389931678772,-71.0418033599854,50,2012-01-28 08:56:51
1.03299999237061,42.389931678772,-71.0418033599854,50,2012-01-28 08:56:52
0.96399998664856,42.389931678772,-71.0418033599854,50,2012-01-28 08:56:53
1.00200009346008,42.389931678772,-71.0418033599854,50,2012-01-28 08:56:54
1,42.389931678772,-71.0418033599854,50,2012-01-28 08:56:55
0.998999834060669,42.389931678772,-71.0418033599854,50,2012-01-28 08:56:56
1,42.389931678772,-71.0418033599854,50,2012-01-28 08:56:57
1,42.389931678772,-71.0418033599854,50,2012-01-28 08:56:58
1.00100016593933,42.389931678772,-71.0418033599854,50,2012-01-28 08:56:59
0.998999834060669,42.389931678772,-71.0418033599854,50,2012-01-28 08:57:00
1.00100016593933,42.389931678772,-71.0418033599854,50,2012-01-28 08:57:01
1.06799983978271,42.389931678772,-71.0418033599854,50,2012-01-28 08:57:02
0.0380001068115234,42.389931678772,-71.0418033599854,50,2012-01-28 08:57:02
0.994999885559082,42.389931678772,-71.0418033599854,50,2012-01-28 08:57:03
1.00100016593933,42.389931678772,-71.0418033599854,50,2012-01-28 08:57:04
1.02999997138977,42.3863911628723,-71.0135436058044,50,2012-01-28 08:57:05
0.970999956130981,42.3863911628723,-71.0135436058044,50,2012-01-28 08:57:06
1.0090000629425,42.3863911628723,-71.0135436058044,50,2012-01-28 08:57:07
1.08899998664856,42.3863911628723,-71.0135436058044,50,2012-01-28 08:57:08
0.907000064849854,42.3863911628723,-71.0135436058044,50,2012-01-28 08:57:09
1.00300002098083,42.3863911628723,-71.0135436058044,50,2012-01-28 08:57:10
1.00499987602234,42.3863911628723,-71.0135436058044,50,2012-01-28 08:57:11
1.06100010871887,42.3863911628723,-71.0135436058044,50,2012-01-28 08:57:12
0.932999849319458,42.3863911628723,-71.0135436058044,50,2012-01-28 08:57:13
0.998000144958496,42.3863911628723,-71.0135436058044,50,2012-01-28 08:57:14
1.00399994850159,42.389931678772,-71.0418033599854,50,2012-01-28 08:57:15
0.997999906539917,42.389931678772,-71.0418033599854,50,2012-01-28 08:57:16
1.00300002098083,42.389931678772,-71.0418033599854,50,2012-01-28 08:57:17
2.99399995803833,42.389931678772,-71.0418033599854,50,2012-01-28 08:57:20
0.999000072479248,42.389931678772,-71.0418033599854,50,2012-01-28 08:57:21
0.999000072479248,42.389931678772,-71.0418033599854,50,2012-01-28 08:57:22
1.0019998550415,42.389931678772,-71.0418033599854,50,2012-01-28 08:57:23
1.02400016784668,42.389931678772,-71.0418033599854,50,2012-01-28 08:57:24
0.98199987411499,42.389931678772,-71.0418033599854,50,2012-01-28 08:57:25
0.996000051498413,42.3863911628723,-71.0135436058044,50,2012-01-28 08:57:26
0.999000072479248,42.3863911628723,-71.0135436058044,50,2012-01-28 08:57:27
1,42.3863911628723,-71.0135436058044,50,2012-01-28 08:57:28
1.0019998550415,42.3863911628723,-71.0135436058044,50,2012-01-28 08:57:29
1.1010000705719,42.3863911628723,-71.0135436058044,50,2012-01-28 08:57:30
0.900000095367432,42.3863911628723,-71.0135436058044,50,2012-01-28 08:57:31
1.00599980354309,42.3863911628723,-71.0135436058044,50,2012-01-28 08:57:32
0.993000030517578,42.3863911628723,-71.0135436058044,50,2012-01-28 08:57:33
1.46099996566772,42.3863911628723,-71.0135436058044,50,2012-01-28 08:57:35
1.00600004196167,42.3863911628723,-71.0135436058044,50,2012-01-28 08:57:36
0.998000144958496,42.3863911628723,-71.0135436058044,50,2012-01-28 08:57:37
0.997999906539917,42.3863911628723,-71.0135436058044,50,2012-01-28 08:57:38
1.04299998283386,42.3863911628723,-71.0135436058044,50,2012-01-28 08:57:39
0.969000101089478,42.3863911628723,-71.0135436058044,50,2012-01-28 08:57:40
1.0389997959137,42.3863911628723,-71.0135436058044,50,2012-01-28 08:57:41
0.953000068664551,42.3863911628723,-71.0135436058044,50,2012-01-28 08:57:42
0.999000072479248,42.3863911628723,-71.0135436058044,50,2012-01-28 08:57:43
1,42.3863911628723,-71.0135436058044,50,2012-01-28 08:57:44
1.00099992752075,42.3863911628723,-71.0135436058044,50,2012-01-28 08:57:45
1.03699994087219,42.3863911628723,-71.0135436058044,50,2012-01-28 08:57:46
0.971000194549561,42.389931678772,-71.0418033599854,50,2012-01-28 08:57:47
0.99399995803833,42.389931678772,-71.0418033599854,50,2012-01-28 08:57:48
2.99000000953674,42.389931678772,-71.0418033599854,50,2012-01-28 08:57:51
1.03799986839294,42.3675674200058,-71.0200023651123,50,2012-01-28 08:57:52
0.965000152587891,42.3675674200058,-71.0200023651123,50,2012-01-28 08:57:53
0.997999906539917,42.3675674200058,-71.0200023651123,50,2012-01-28 08:57:54
1.00300002098083,42.3675674200058,-71.0200023651123,50,2012-01-28 08:57:55
1.00399994850159,42.3675674200058,-71.0200023651123,50,2012-01-28 08:57:56
1.07299995422363,42.389931678772,-71.0418033599854,50,2012-01-28 08:57:57
0.92300009727478,42.389931678772,-71.0418033599854,50,2012-01-28 08:57:58
1.00499987602234,42.389931678772,-71.0418033599854,50,2012-01-28 08:57:59
0.996000051498413,42.389931678772,-71.0418033599854,50,2012-01-28 08:58:00
1.00100016593933,42.389931678772,-71.0418033599854,50,2012-01-28 08:58:01
1.02300000190735,42.389931678772,-71.0418033599854,50,2012-01-28 08:58:02
0.978999853134155,42.389931678772,-71.0418033599854,50,2012-01-28 08:58:03
1,42.389931678772,-71.0418033599854,50,2012-01-28 08:58:04
1.00099992752075,42.389931678772,-71.0418033599854,50,2012-01-28 08:58:05
0.999000072479248,42.389931678772,-71.0418033599854,50,2012-01-28 08:58:06
1.0090000629425,42.389931678772,-71.0418033599854,50,2012-01-28 08:58:07
0.997999906539917,42.389931678772,-71.0418033599854,50,2012-01-28 08:58:08
0.996000051498413,42.389931678772,-71.0418033599854,50,2012-01-28 08:58:09
1.00099992752075,42.389931678772,-71.0418033599854,50,2012-01-28 08:58:10
0.999000072479248,42.389931678772,-71.0418033599854,50,2012-01-28 08:58:11
1.00800013542175,42.389931678772,-71.0418033599854,50,2012-01-28 08:58:12
0.998999834060669,42.389931678772,-71.0418033599854,50,2012-01-28 08:58:13
1.03800010681152,42.389931678772,-71.0418033599854,50,2012-01-28 08:58:14
0.960000038146973,42.389931678772,-71.0418033599854,50,2012-01-28 08:58:15
1.0019998550415,42.389931678772,-71.0418033599854,50,2012-01-28 08:58:16
1.00399994850159,42.389931678772,-71.0418033599854,50,2012-01-28 08:58:17
0.998000144958496,42.389931678772,-71.0418033599854,50,2012-01-28 08:58:18
2.98799991607666,42.389931678772,-71.0418033599854,50,2012-01-28 08:58:21
1.00200009346008,42.389931678772,-71.0418033599854,50,2012-01-28 08:58:22
1.0019998550415,42.389931678772,-71.0418033599854,50,2012-01-28 08:58:23
0.999000072479248,42.389931678772,-71.0418033599854,50,2012-01-28 08:58:24
1.00600004196167,42.389931678772,-71.0418033599854,50,2012-01-28 08:58:25
1.04500007629395,42.389931678772,-71.0418033599854,50,2012-01-28 08:58:26
0.950999975204468,42.389931678772,-71.0418033599854,50,2012-01-28 08:58:27
1,42.389931678772,-71.0418033599854,50,2012-01-28 08:58:28
1.00600004196167,42.389931678772,-71.0418033599854,50,2012-01-28 08:58:29
1.00499987602234,42.389931678772,-71.0418033599854,50,2012-01-28 08:58:30
0.995000123977661,42.389931678772,-71.0418033599854,50,2012-01-28 08:58:31
1.00699996948242,42.389931678772,-71.0418033599854,50,2012-01-28 08:58:32
0.993000030517578,42.389931678772,-71.0418033599854,50,2012-01-28 08:58:33
0.995999813079834,42.389931678772,-71.0418033599854,50,2012-01-28 08:58:34
1.03600001335144,42.389931678772,-71.0418033599854,50,2012-01-28 08:58:35
0.972000122070312,42.389931678772,-71.0418033599854,50,2012-01-28 08:58:36
0.996999979019165,42.389931678772,-71.0418033599854,50,2012-01-28 08:58:37
0.997999906539917,42.389931678772,-71.0418033599854,50,2012-01-28 08:58:38
1.00100016593933,42.389931678772,-71.0418033599854,50,2012-01-28 08:58:39
1.00399994850159,42.389931678772,-71.0418033599854,50,2012-01-28 08:58:40
1.01399993896484,42.389931678772,-71.0418033599854,50,2012-01-28 08:58:41
1.09299993515015,42.389931678772,-71.0418033599854,50,2012-01-28 08:58:42
0.897000074386597,42.3863911628723,-71.0135436058044,50,2012-01-28 08:58:43
0.996000051498413,42.3863911628723,-71.0135436058044,50,2012-01-28 08:58:44
0.998999834060669,42.3863911628723,-71.0135436058044,50,2012-01-28 08:58:45
1.00200009346008,42.3863911628723,-71.0135436058044,50,2012-01-28 08:58:46
1.01300001144409,42.3863911628723,-71.0135436058044,50,2012-01-28 08:58:47
0.990000009536743,42.389931678772,-71.0418033599854,50,2012-01-28 08:58:48
2.98600006103516,42.389931678772,-71.0418033599854,50,2012-01-28 08:58:51
1,42.389931678772,-71.0418033599854,50,2012-01-28 08:58:52
1.21599984169006,42.389931678772,-71.0418033599854,50,2012-01-28 08:58:53
0.930000066757202,42.389931678772,-71.0418033599854,50,2012-01-28 08:58:54
1,42.389931678772,-71.0418033599854,50,2012-01-28 08:58:55
1.00500011444092,42.389931678772,-71.0418033599854,50,2012-01-28 08:58:56
0.996999979019165,42.389931678772,-71.0418033599854,50,2012-01-28 08:58:57
1,42.389931678772,-71.0418033599854,50,2012-01-28 08:58:58
1.0149998664856,42.389931678772,-71.0418033599854,50,2012-01-28 08:58:59
0.986000061035156,42.389931678772,-71.0418033599854,50,2012-01-28 08:59:00
0.999000072479248,42.389931678772,-71.0418033599854,50,2012-01-28 08:59:01
1.0019998550415,42.389931678772,-71.0418033599854,50,2012-01-28 08:59:02
1,42.389931678772,-71.0418033599854,50,2012-01-28 08:59:03
1.01200008392334,42.3834729194641,-70.9997248649597,50,2012-01-28 08:59:04
1.06500005722046,42.3834729194641,-70.9997248649597,50,2012-01-28 08:59:05
0.925999879837036,42.3834729194641,-70.9997248649597,50,2012-01-28 08:59:06
1.00600004196167,42.3834729194641,-70.9997248649597,50,2012-01-28 08:59:07
0.999000072479248,42.3834729194641,-70.9997248649597,50,2012-01-28 08:59:08
1.00799989700317,42.389931678772,-71.0418033599854,50,2012-01-28 08:59:09
1.03600001335144,42.389931678772,-71.0418033599854,50,2012-01-28 08:59:10
0.956000089645386,42.389931678772,-71.0418033599854,50,2012-01-28 08:59:11
1.00300002098083,42.389931678772,-71.0418033599854,50,2012-01-28 08:59:12
0.997999906539917,42.389931678772,-71.0418033599854,50,2012-01-28 08:59:13
1.00099992752075,42.389931678772,-71.0418033599854,50,2012-01-28 08:59:14
1.01500010490417,42.389931678772,-71.0418033599854,50,2012-01-28 08:59:15
1.08999991416931,42.389931678772,-71.0418033599854,50,2012-01-28 08:59:16
0.897000074386597,42.389931678772,-71.0418033599854,50,2012-01-28 08:59:17
1,42.389931678772,-71.0418033599854,50,2012-01-28 08:59:18
3.01999998092651,42.3863911628723,-71.0135436058044,50,2012-01-28 08:59:21
1.06699991226196,42.3863911628723,-71.0135436058044,50,2012-01-28 08:59:22
0.906000137329102,42.3863911628723,-71.0135436058044,50,2012-01-28 08:59:23
0.999000072479248,42.3863911628723,-71.0135436058044,50,2012-01-28 08:59:24
1.00299978256226,42.3863911628723,-71.0135436058044,50,2012-01-28 08:59:25
0.996000051498413,42.3863911628723,-71.0135436058044,50,2012-01-28 08:59:26
1.03500008583069,42.3863911628723,-71.0135436058044,50,2012-01-28 08:59:27
0.967000007629395,42.3863911628723,-71.0135436058044,50,2012-01-28 08:59:28
1.00099992752075,42.389931678772,-71.0418033599854,50,2012-01-28 08:59:29
1.00200009346008,42.389931678772,-71.0418033599854,50,2012-01-28 08:59:30
0.996999979019165,42.389931678772,-71.0418033599854,50,2012-01-28 08:59:31
1.06200003623962,42.389931678772,-71.0418033599854,50,2012-01-28 08:59:32
0.93999981880188,42.389931678772,-71.0418033599854,50,2012-01-28 08:59:33
1.00100016593933,42.389931678772,-71.0418033599854,50,2012-01-28 08:59:34
1.00099992752075,42.389931678772,-71.0418033599854,50,2012-01-28 08:59:35
0.999000072479248,42.389931678772,-71.0418033599854,50,2012-01-28 08:59:36
1.00300002098083,42.389931678772,-71.0418033599854,50,2012-01-28 08:59:37
1.07999992370605,42.389931678772,-71.0418033599854,50,2012-01-28 08:59:38
0.927999973297119,42.389931678772,-71.0418033599854,50,2012-01-28 08:59:39
0.997999906539917,42.389931678772,-71.0418033599854,50,2012-01-28 08:59:40
1.00200009346008,42.389931678772,-71.0418033599854,50,2012-01-28 08:59:41
0.997999906539917,42.389931678772,-71.0418033599854,50,2012-01-28 08:59:42
1.00400018692017,42.389931678772,-71.0418033599854,50,2012-01-28 08:59:43
1.02999997138977,42.389931678772,-71.0418033599854,50,2012-01-28 08:59:44
0.967999935150146,42.389931678772,-71.0418033599854,50,2012-01-28 08:59:45
0.996999979019165,42.389931678772,-71.0418033599854,50,2012-01-28 08:59:46
1.00099992752075,42.389931678772,-71.0418033599854,50,2012-01-28 08:59:47
1,42.389931678772,-71.0418033599854,50,2012-01-28 08:59:48
2.99600005149841,42.389931678772,-71.0418033599854,50,2012-01-28 08:59:51
1.00699996948242,42.389931678772,-71.0418033599854,50,2012-01-28 08:59:52
0.996999979019165,42.389931678772,-71.0418033599854,50,2012-01-28 08:59:53
0.999000072479248,42.389931678772,-71.0418033599854,50,2012-01-28 08:59:54
1.00600004196167,42.389931678772,-71.0418033599854,50,2012-01-28 08:59:55
1.01900005340576,42.389931678772,-71.0418033599854,50,2012-01-28 08:59:56
1.05399990081787,42.389931678772,-71.0418033599854,50,2012-01-28 08:59:57
0.92300009727478,42.389931678772,-71.0418033599854,50,2012-01-28 08:59:58
1,42.389931678772,-71.0418033599854,50,2012-01-28 08:59:59
