"diffSecs","level","azimuth.mean","azimuth.absolute.deviation","azimuth.standard.deviation","azimuth.max.deviation","pitch.mean","pitch.absolute.deviation","pitch.standard.deviation","pitch.max.deviation","roll.mean","roll.absolute.deviation","roll.standard.deviation","roll.max.deviation","time"
1.01700019836426,8,-65.1624984741211,0.187500953674316,0.228787198662758,0.437497138977051,88.1125030517578,1.26249980926514,1.50286197662354,2.61250019073486,11.8625001907349,1.01249992847443,1.19052243232727,2.13749980926514,2012-02-16 09:10:15
1.09200000762939,47,-65.9021301269531,1.15518319606781,1.25333392620087,2.20212817192078,94.3936157226562,2.08148431777954,2.38821578025818,4.1063814163208,5.45106410980225,2.03494787216187,2.4355411529541,4.54893589019775,2012-02-16 09:10:16
1.01599979400635,49,-65.3877563476562,0.362015873193741,0.43828672170639,0.912246525287628,101.502044677734,1.11628496646881,1.25380885601044,3.00204229354858,-3.63061237335205,1.29121196269989,1.43615186214447,2.43061232566833,2012-02-16 09:10:17
1.05400013923645,23,-66.0391311645508,0.180340707302094,0.231703817844391,0.539131820201874,102.878265380859,0.146312609314919,0.171834483742714,0.321742177009583,-5.80434799194336,0.22344046831131,0.277376353740692,0.69565212726593,2012-02-16 09:10:18
1.01199984550476,47,-65.8255310058594,0.361159056425095,0.402369916439056,0.674465596675873,103.478721618652,0.149388179183006,0.174960136413574,0.32127770781517,-6.71276617050171,0.21729288995266,0.259801059961319,0.512765765190125,2012-02-16 09:10:19
1.01800012588501,49,-66.5428619384766,0.231486812233925,0.276272535324097,0.642857134342194,103.467346191406,0.138025045394897,0.169498220086098,0.467348217964172,-6.8938775062561,0.137359350919724,0.160875305533409,0.306122630834579,2012-02-16 09:10:20
1.01300001144409,34,-66.6058807373047,0.283045530319214,0.358050853013992,0.805880844593048,103.641181945801,0.136333867907524,0.161095634102821,0.341175526380539,-6.91176462173462,0.107958428561687,0.145045012235641,0.311764895915985,2012-02-16 09:10:21
1.00600004196167,38,-66.773681640625,0.223546013236046,0.247816398739815,0.426319718360901,103.726318359375,0.139612212777138,0.171194493770599,0.373680919408798,-7.06842088699341,0.110249295830727,0.141617104411125,0.431578904390335,2012-02-16 09:10:22
1.09299993515015,43,-66.6418609619141,0.149812236428261,0.176836490631104,0.358137965202332,103.823257446289,0.109354987740517,0.134400248527527,0.276740312576294,-7.1860466003418,0.196971386671066,0.229844644665718,0.513953685760498,2012-02-16 09:10:23
1.01900005340576,49,-67.0550994873047,0.268054962158203,0.327053397893906,0.744899809360504,104.008163452148,0.11136981099844,0.135279700160027,0.308159649372101,-7.50816345214844,0.0810495689511299,0.110355153679848,0.291836887598038,2012-02-16 09:10:24
1.02199983596802,25,-67.6800003051758,0.336000740528107,0.413763374090195,0.879998445510864,104.092002868652,0.138240739703178,0.15727773308754,0.291999518871307,-7.65199995040894,0.121920123696327,0.144554555416107,0.351999908685684,2012-02-16 09:10:25
1.00800013542175,49,-66.2265319824219,0.395251452922821,0.467636406421661,0.92652952671051,103.5,0.118367031216621,0.157790631055832,0.4000024497509,-6.86122465133667,0.199666813015938,0.255403935909271,0.738775372505188,2012-02-16 09:10:26
1.00799989700317,48,-67.5041656494141,0.451215088367462,0.563825368881226,1.195836186409,103.512504577637,0.120312303304672,0.158934935927391,0.487498909235001,-6.94166660308838,0.273263841867447,0.37739971280098,1.15833353996277,2012-02-16 09:10:27
1.01400017738342,34,-70.1264724731445,0.463322073221207,0.571535110473633,1.52647292613983,105.255882263184,0.473529130220413,0.515746533870697,1.35588300228119,-10.7735300064087,0.611937701702118,0.76015043258667,2.67352938652039,2012-02-16 09:10:28
1.00999999046326,27,-70.8037033081055,0.395610243082047,0.437570214271545,0.703707098960876,105.974075317383,0.117694430053234,0.145531758666039,0.325927734375,-12.1629629135132,0.125377163290977,0.144396960735321,0.262962520122528,2012-02-16 09:10:29
1.0019998550415,47,-70.4085159301758,0.298415273427963,0.345074683427811,0.708507776260376,106.04468536377,0.108556188642979,0.134968504309654,0.355319738388062,-12.3297872543335,0.116342358291149,0.155624940991402,0.470212757587433,2012-02-16 09:10:30
1.03299999237061,49,-70.7265319824219,0.19466894865036,0.238854065537453,0.673469722270966,106,0.155102387070656,0.187355518341064,0.400003552436829,-12.5489797592163,0.246147409081459,0.315660893917084,0.848979949951172,2012-02-16 09:10:31
1.00600004196167,30,-67.2099990844727,2.11599969863892,2.3639440536499,3.38999676704407,105.483337402344,0.214443922042847,0.253091633319855,0.616663336753845,-10.4099998474121,0.360666692256927,0.467154622077942,0.990000367164612,2012-02-16 09:10:32
1.08700013160706,45,-63.8533325195312,0.441481649875641,0.545120000839233,1.2466641664505,105.084442138672,0.11644484102726,0.139771372079849,0.284442812204361,-9.34222221374512,0.248790115118027,0.28634774684906,0.542222201824188,2012-02-16 09:10:33
1.02999997138977,42,-63.0619049072266,0.791156530380249,0.852154910564423,1.36190450191498,105.285713195801,0.153740748763084,0.189700096845627,0.485713064670563,-9.5714282989502,0.196598649024963,0.2291659116745,0.428571224212646,2012-02-16 09:10:34
1.00799989700317,40,-61.3775024414062,0.29312527179718,0.36571004986763,0.977499306201935,105.370002746582,0.349999994039536,0.449555695056915,1.27000272274017,-8.5625,0.865625023841858,1.15988957881927,3.36249971389771,2012-02-16 09:10:35
1.04200005531311,41,-59.7048797607422,2.80987524986267,3.15099287033081,4.89511966705322,93.8951263427734,5.86377143859863,6.75194406509399,12.2951250076294,5.79024410247803,5.37096977233887,6.12769842147827,10.6902437210083,2012-02-16 09:10:36
1.0019998550415,41,-61.8975601196289,2.33872699737549,2.56453204154968,4.60243797302246,67.1902465820312,5.95490837097168,6.672287940979,13.3097553253174,21.3975620269775,3.24187994003296,3.6352264881134,6.59756088256836,2012-02-16 09:10:37
1.00800013542175,49,-59.6938781738281,0.745772302150726,0.853661417961121,1.39387905597687,59.4081649780273,0.528446674346924,0.603675007820129,1.20816326141357,26.2122459411621,0.328779757022858,0.358359545469284,0.587755918502808,2012-02-16 09:10:38
1.00300002098083,23,-53.1782608032227,3.34555745124817,3.57721710205078,5.12173795700073,59.778263092041,0.127031952142715,0.153102904558182,0.321740359067917,27.8869571685791,0.702835559844971,0.729683935642242,1.08695566654205,2012-02-16 09:10:39
1,43,-47.751163482666,0.736397922039032,0.854365468025208,1.84883868694305,61.8372116088867,0.727095603942871,0.863476634025574,1.83721041679382,28.5930233001709,0.12071418762207,0.145307257771492,0.293022602796555,2012-02-16 09:10:40
1.00999999046326,39,-54.2820510864258,4.2859959602356,4.92220878601074,7.18204927444458,60.1282043457031,2.96528601646423,3.55375909805298,10.7282047271729,27.2256412506104,0.642997920513153,0.745144069194794,1.27435863018036,2012-02-16 09:10:41
1.07200002670288,50,-46.3940010070801,3.9332799911499,4.60327768325806,9.70600128173828,40.5400009155273,3.85920000076294,4.30097675323486,8.2599983215332,26.6200008392334,0.460000067949295,0.535163521766663,1.0200001001358,2012-02-16 09:10:42
1.01300001144409,39,7.05384635925293,5.71676540374756,9.84617137908936,44.8538436889648,-20.7153854370117,8.53017807006836,13.381667137146,57.6153869628906,52.3743591308594,2.83957934379578,5.27707767486572,25.6743583679199,2012-02-16 09:10:43
1.00099992752075,43,8.78372097015381,1.37869119644165,1.54843211174011,2.71627902984619,-23.4581394195557,1.04240131378174,1.20796430110931,2.6418604850769,56.2116279602051,0.68166583776474,0.795981049537659,1.7116287946701,2012-02-16 09:10:44
1.12700009346008,42,7.03095245361328,0.171995475888252,0.196986943483353,0.469047486782074,-22.1809520721436,0.113152086734772,0.141821637749672,0.380951702594757,56.9809532165527,0.0941044017672539,0.113888703286648,0.219047546386719,2012-02-16 09:10:45
1.0479998588562,50,7.03600025177002,0.134880021214485,0.159699738025665,0.363999992609024,-22.2080001831055,0.15264005959034,0.207692086696625,0.708000540733337,56.8880004882812,0.0984007567167282,0.130599051713943,0.312000036239624,2012-02-16 09:10:46
1,45,7.62222242355347,0.430123567581177,0.501946926116943,0.877777636051178,-22.6577777862549,0.47802472114563,0.503979325294495,0.857776939868927,56.5977783203125,0.215802684426308,0.248988211154938,0.502223968505859,2012-02-16 09:10:47
1.01399993896484,41,8.15365886688232,0.189649030566216,0.24504616856575,0.7463418841362,-23.3731708526611,0.181320399045944,0.230613723397255,0.473171472549438,56.3195114135742,0.156574010848999,0.188989326357841,0.419511735439301,2012-02-16 09:10:48
1.29900002479553,42,7.96904754638672,0.170181393623352,0.213238194584846,0.530952215194702,-23.3428573608398,0.0945572406053543,0.109419837594032,0.242857202887535,56.3547630310059,0.081633485853672,0.098083071410656,0.245240166783333,2012-02-16 09:10:50
1.03999996185303,40,7.89249992370605,0.169749960303307,0.21953073143959,0.592499911785126,-23.247501373291,0.0977500304579735,0.113990053534508,0.247500568628311,56.3450012207031,0.102750517427921,0.120312288403511,0.255001544952393,2012-02-16 09:10:51
1.00500011444092,43,7.96511650085449,0.131963193416595,0.158310398459435,0.365116477012634,-23.1558151245117,0.134018510580063,0.172939449548721,0.455813884735107,56.4255828857422,0.0902107805013657,0.112256228923798,0.274418860673904,2012-02-16 09:10:52
1.00200009346008,37,7.9972972869873,0.224689573049545,0.287097781896591,0.702702343463898,-23.1189193725586,0.114390335977077,0.139182835817337,0.318918168544769,56.3945960998535,0.119065903127193,0.146944135427475,0.405404061079025,2012-02-16 09:10:53
1.00300002098083,42,8.30238151550293,0.331065833568573,0.373839914798737,0.702381193637848,-23.1404762268066,0.130045548081398,0.163386180996895,0.459523916244507,56.4357147216797,0.165986761450768,0.192504391074181,0.435715079307556,2012-02-16 09:10:54
1,44,7.97500038146973,0.181818217039108,0.220665335655212,0.524999856948853,-23.1750011444092,0.0965912044048309,0.113067016005516,0.224999040365219,56.5,0.109091654419899,0.138170376420021,0.300000101327896,2012-02-16 09:10:55
1.00599980354309,37,8.12702751159668,0.176625177264214,0.229745626449585,0.527027249336243,-23.0783786773682,0.097151406109333,0.129729881882668,0.321620881557465,56.3972969055176,0.127830684185028,0.165196612477303,0.402701199054718,2012-02-16 09:10:56
1.16600012779236,39,7.94871807098389,0.214069679379463,0.259063243865967,0.65128231048584,-22.9769229888916,0.205128207802773,0.256666541099548,0.67692244052887,56.3820533752441,0.0915190279483795,0.115184955298901,0.282049715518951,2012-02-16 09:10:57
1.0090000629425,48,8.37916660308838,0.346527814865112,0.401018679141998,0.820833027362823,-23.0479164123535,0.140277802944183,0.182562306523323,0.547917187213898,56.3166656494141,0.120139040052891,0.135912343859673,0.316667556762695,2012-02-16 09:10:58
1.01399993896484,49,8.19387817382812,0.238900423049927,0.306666225194931,0.706122875213623,-23.0897960662842,0.106789037585258,0.134384393692017,0.310203313827515,56.3938789367676,0.147022381424904,0.186709776520729,0.493877023458481,2012-02-16 09:10:59
1.00600004196167,28,8.35357189178467,0.264540880918503,0.307620108127594,0.546428918838501,-22.8642864227295,0.110203623771667,0.136837214231491,0.335714876651764,56.478572845459,0.131632313132286,0.171874105930328,0.378570139408112,2012-02-16 09:11:00
1.01300001144409,41,8.1902437210083,0.226531893014908,0.267604529857635,0.590244174003601,-23.0414638519287,0.143248200416565,0.175270646810532,0.358536005020142,56.5073165893555,0.0828085616230965,0.113460943102837,0.307317137718201,2012-02-16 09:11:01
1,47,7.98297882080078,0.214576706290245,0.246092155575752,0.482978820800781,-22.985107421875,0.186238080263138,0.236983567476273,0.585107207298279,56.457447052002,0.127931341528893,0.152629315853119,0.357445180416107,2012-02-16 09:11:02
1.01300001144409,36,7.25277805328369,0.796296298503876,0.979933679103851,2.75277781486511,-22.2472229003906,0.677932143211365,0.864255130290985,2.34722304344177,56.7333335876465,0.346296072006226,0.432691901922226,1.16666758060455,2012-02-16 09:11:03
1.00499987602234,43,-8.76046562194824,6.23677682876587,7.12607860565186,12.6604652404785,-8.73023223876953,6.23742580413818,7.41919374465942,16.0302333831787,58.4790725708008,0.360194653272629,0.514242827892303,1.97907066345215,2012-02-16 09:11:04
1.00600004196167,44,-21.7977275848389,1.52055788040161,1.82439136505127,3.09772682189941,29.9250011444092,9.33068180084229,10.6009674072266,21.3250007629395,45.0272750854492,5.10247898101807,5.80624151229858,10.9727268218994,2012-02-16 09:11:05
1.0149998664856,49,-19.4285717010498,0.339941740036011,0.388613432645798,0.828571557998657,42.8571434020996,0.197667926549911,0.249080047011375,0.557144343852997,36.7122459411621,0.190003976225853,0.240435406565666,0.587753474712372,2012-02-16 09:11:06
1,14,-20.0142860412598,0.157143041491508,0.176704630255699,0.314285427331924,42.3714294433594,0.10408191382885,0.116057634353638,0.171428129076958,36.9071426391602,0.109183683991432,0.138689488172531,0.292857319116592,2012-02-16 09:11:07
1.02800011634827,51,-19.5450992584229,0.28204557299614,0.349405080080032,1.14509892463684,42.6019630432129,0.135639742016792,0.166262447834015,0.301962316036224,36.7549018859863,0.123644195497036,0.160041034221649,0.454903185367584,2012-02-16 09:11:08
1.01099991798401,44,-19.9545459747314,0.217768743634224,0.28798246383667,0.754544913768768,42.472728729248,0.122314095497131,0.158636003732681,0.472728222608566,36.6840934753418,0.112809233367443,0.138075947761536,0.315908074378967,2012-02-16 09:11:09
1.00300002098083,49,-19.8346939086914,0.257392555475235,0.319151312112808,0.765306055545807,42.3040809631348,0.180008456110954,0.221275597810745,0.504083037376404,36.785717010498,0.195918142795563,0.227676928043365,0.48571589589119,2012-02-16 09:11:10
1.01200008392334,41,-18.8146343231201,1.04770970344543,1.09757173061371,1.81463444232941,41.8073196411133,0.187269762158394,0.250258535146713,0.707315504550934,37.6097564697266,0.345627725124359,0.37663796544075,0.609756827354431,2012-02-16 09:11:11
1.0149998664856,41,-17.8195133209229,2.59952425956726,3.21104955673218,6.31951236724854,14.4512195587158,19.2964897155762,20.2754459381104,27.2487812042236,50.6487808227539,7.88673400878906,8.20957565307617,12.4487800598145,2012-02-16 09:11:12
