"diffSecs","N.samples","x.mean","x.absolute.deviation","x.standard.deviation","x.max.deviation","x.PSD.1","x.PSD.3","x.PSD.6","x.PSD.10","y.mean","y.absolute.deviation","y.standard.deviation","y.max.deviation","y.PSD.1","y.PSD.3","y.PSD.6","y.PSD.10","z.mean","z.absolute.deviation","z.standard.deviation","z.max.deviation","z.PSD.1","z.PSD.3","z.PSD.6","z.PSD.10","time"
1.00499987602234,82,7.87283563613892,0.294459640979767,0.388838440179825,1.2073780298233,47.1901741027832,27.6661911010742,16.0283718109131,1.31764817237854,-5.62929391860962,0.4580118060112,0.566623747348785,1.38092875480652,64.7878570556641,58.9377784729004,44.2063980102539,7.11275768280029,-0.317669689655304,0.562052011489868,0.773548007011414,2.9575982093811,120.236892700195,67.9162673950195,8.99210166931152,4.31289291381836,2012-02-08 22:33:53
1.03600001335144,62,7.93206739425659,0.601814031600952,0.755477666854858,2.27680826187134,6.21783971786499,119.409538269043,281.216979980469,45.8551559448242,-5.56381607055664,0.635158598423004,0.898520767688751,2.55669856071472,34.9428520202637,196.284744262695,275.812316894531,79.1038589477539,-0.971891403198242,0.873492479324341,1.20388388633728,5.31049394607544,11.3696365356445,19.1098785400391,224.758255004883,356.499603271484,2012-02-08 22:33:54
