"diffSecs","latitude","longitude","altitude","time"
0.429999828338623,42.4378627538681,-71.6759955883026,56.5999984741211,2012-02-08 13:00:00
0.968000173568726,42.4378627538681,-71.6759955883026,56.5999984741211,2012-02-08 13:00:01
1.03299999237061,42.4378627538681,-71.6759955883026,56.5999984741211,2012-02-08 13:00:02
0.944999933242798,42.4378627538681,-71.6759955883026,56.5999984741211,2012-02-08 13:00:03
1.19199991226196,42.4378627538681,-71.6759955883026,56.5999984741211,2012-02-08 13:00:04
0.832000017166138,42.4378627538681,-71.6759955883026,56.5999984741211,2012-02-08 13:00:05
1.00800013542175,42.4378627538681,-71.6759955883026,56.5999984741211,2012-02-08 13:00:06
7.03699994087219,42.4378627538681,-71.6759955883026,56.5999984741211,2012-02-08 13:00:13
0.990000009536743,42.4378627538681,-71.6759955883026,56.5999984741211,2012-02-08 13:00:14
1.1949999332428,42.4378627538681,-71.6759955883026,56.5999984741211,2012-02-08 13:00:15
0.601000070571899,42.4378627538681,-71.6759955883026,56.5999984741211,2012-02-08 13:00:16
1.25,42.43786111,-71.67599337,66.5,2012-02-08 13:00:17
0.970000028610229,42.43786111,-71.67599337,66.5,2012-02-08 13:00:18
1.2649998664856,42.43786111,-71.67599337,66.5,2012-02-08 13:00:19
0.532999992370605,42.43786111,-71.67599336,66.5,2012-02-08 13:00:20
1.08500003814697,42.43786111,-71.67599336,66.5,2012-02-08 13:00:21
0.894999980926514,42.43786111,-71.67599336,66.5,2012-02-08 13:00:22
1.1560001373291,42.43786111,-71.67599336,66.5,2012-02-08 13:00:23
1.16799998283386,42.43786111,-71.67599336,66.5,2012-02-08 13:00:24
0.707000017166138,42.43786111,-71.67599336,66.5,2012-02-08 13:00:25
1.375,42.43786111,-71.67599336,66.5,2012-02-08 13:00:26
0.605999946594238,42.43786111,-71.67599336,66.5,2012-02-08 13:00:27
0.990000009536743,42.43786111,-71.67599336,66.5,2012-02-08 13:00:28
2.34299993515015,42.43786111,-71.67599337,66.5,2012-02-08 13:00:30
0.936000108718872,42.43786111,-71.67599337,66.5,2012-02-08 13:00:31
0.723000049591064,42.43786111,-71.67599337,66.5,2012-02-08 13:00:32
1.12799978256226,42.43786111,-71.67599337,66.5,2012-02-08 13:00:33
1.25200009346008,42.43786111,-71.67599337,66.5,2012-02-08 13:00:34
0.740999937057495,42.43786111,-71.67599337,66.5,2012-02-08 13:00:35
0.901000022888184,42.43786111,-71.67599337,66.5,2012-02-08 13:00:36
2.33899998664856,42.4378627538681,-71.6759955883026,56.5999984741211,2012-02-08 13:00:38
0.706000089645386,42.4378627538681,-71.6759955883026,56.5999984741211,2012-02-08 13:00:39
1.04800009727478,42.4378627538681,-71.6759955883026,56.5999984741211,2012-02-08 13:00:40
1.28299999237061,42.4378627538681,-71.6759955883026,56.5999984741211,2012-02-08 13:00:41
0.867999792098999,42.4378627538681,-71.6759955883026,56.5999984741211,2012-02-08 13:00:42
0.735000133514404,42.4378627538681,-71.6759955883026,56.5999984741211,2012-02-08 13:00:43
1.29200005531311,42.4378627538681,-71.6759955883026,56.5999984741211,2012-02-08 13:00:44
0.941999912261963,42.4378627538681,-71.6759955883026,56.5999984741211,2012-02-08 13:00:45
0.793999910354614,42.4378627538681,-71.6759955883026,56.5999984741211,2012-02-08 13:00:46
1.07800006866455,42.4378627538681,-71.6759955883026,56.5999984741211,2012-02-08 13:00:47
1.09800004959106,42.4378627538681,-71.6759955883026,56.5999984741211,2012-02-08 13:00:48
0.881999969482422,42.4378627538681,-71.6759955883026,56.5999984741211,2012-02-08 13:00:49
1.24600005149841,42.4378627538681,-71.6759955883026,56.5999984741211,2012-02-08 13:00:50
1.04999995231628,42.4378627538681,-71.6759955883026,56.5999984741211,2012-02-08 13:00:51
0.760999917984009,42.4378627538681,-71.6759955883026,56.5999984741211,2012-02-08 13:00:52
1.06700015068054,42.4378627538681,-71.6759955883026,56.5999984741211,2012-02-08 13:00:53
1.98000001907349,42.4378627538681,-71.6759955883026,56.5999984741211,2012-02-08 13:00:55
0.962999820709229,42.4378627538681,-71.6759955883026,56.5999984741211,2012-02-08 13:00:56
5.0460000038147,42.4378627538681,-71.6759955883026,56.5999984741211,2012-02-08 13:01:01
2.05700016021729,42.4378627538681,-71.6759955883026,56.5999984741211,2012-02-08 13:01:03
0.940999984741211,42.4378627538681,-71.6759955883026,56.5999984741211,2012-02-08 13:01:04
0.800999879837036,42.4378627538681,-71.6759955883026,56.5999984741211,2012-02-08 13:01:05
1.38100004196167,42.4378627538681,-71.6759955883026,56.5999984741211,2012-02-08 13:01:06
0.760999917984009,42.4378627538681,-71.6759955883026,56.5999984741211,2012-02-08 13:01:07
1.06700015068054,42.4378627538681,-71.6759955883026,56.5999984741211,2012-02-08 13:01:08
0.828999996185303,42.4378627538681,-71.6759955883026,56.5999984741211,2012-02-08 13:01:09
1.24300003051758,42.4378627538681,-71.6759955883026,56.5999984741211,2012-02-08 13:01:10
0.802000045776367,42.4378627538681,-71.6759955883026,56.5999984741211,2012-02-08 13:01:11
0.974999904632568,42.4378627538681,-71.6759955883026,56.5999984741211,2012-02-08 13:01:12
1.01099991798401,42.4378627538681,-71.6759955883026,56.5999984741211,2012-02-08 13:01:13
1.30400013923645,42.4378627538681,-71.6759955883026,56.5999984741211,2012-02-08 13:01:14
0.668999910354614,42.4378627538681,-71.6759955883026,56.5999984741211,2012-02-08 13:01:15
1.27099990844727,42.4378627538681,-71.6759955883026,56.5999984741211,2012-02-08 13:01:16
0.745000123977661,42.4378627538681,-71.6759955883026,56.5999984741211,2012-02-08 13:01:17
1.36400008201599,42.4378627538681,-71.6759955883026,56.5999984741211,2012-02-08 13:01:18
0.769999980926514,42.4378627538681,-71.6759955883026,56.5999984741211,2012-02-08 13:01:19
0.927999973297119,42.4378627538681,-71.6759955883026,56.5999984741211,2012-02-08 13:01:20
1.23499989509583,42.4378627538681,-71.6759955883026,56.5999984741211,2012-02-08 13:01:21
0.913000106811523,42.4378627538681,-71.6759955883026,56.5999984741211,2012-02-08 13:01:22
0.993000030517578,42.4378627538681,-71.6759955883026,56.5999984741211,2012-02-08 13:01:23
1.74599981307983,42.4378627538681,-71.6759955883026,56.5999984741211,2012-02-08 13:01:25
0.778000116348267,42.4378627538681,-71.6759955883026,56.5999984741211,2012-02-08 13:01:26
1.36199998855591,42.4378627538681,-71.6759955883026,56.5999984741211,2012-02-08 13:01:27
0.523000001907349,42.4378627538681,-71.6759955883026,56.5999984741211,2012-02-08 13:01:27
1.44899988174438,42.4378627538681,-71.6759955883026,56.5999984741211,2012-02-08 13:01:29
1.00500011444092,42.4378627538681,-71.6759955883026,56.5999984741211,2012-02-08 13:01:30
0.766999959945679,42.4378627538681,-71.6759955883026,56.5999984741211,2012-02-08 13:01:31
0.999000072479248,42.4378627538681,-71.6759955883026,56.5999984741211,2012-02-08 13:01:32
1.17400002479553,42.4378627538681,-71.6759955883026,56.5999984741211,2012-02-08 13:01:33
0.773999929428101,42.4378627538681,-71.6759955883026,56.5999984741211,2012-02-08 13:01:34
1.15400004386902,42.4378627538681,-71.6759955883026,56.5999984741211,2012-02-08 13:01:35
0.874000072479248,42.4378627538681,-71.6759955883026,56.5999984741211,2012-02-08 13:01:36
1.85899996757507,42.4378627538681,-71.6759955883026,56.5999984741211,2012-02-08 13:01:37
1.11199998855591,42.4378627538681,-71.6759955883026,56.5999984741211,2012-02-08 13:01:39
1.23199987411499,42.4378627538681,-71.6759955883026,56.5999984741211,2012-02-08 13:01:40
0.973000049591064,42.4378627538681,-71.6759955883026,56.5999984741211,2012-02-08 13:01:41
0.632999897003174,42.4378627538681,-71.6759955883026,56.5999984741211,2012-02-08 13:01:41
1.37400007247925,42.4378627538681,-71.6759955883026,56.5999984741211,2012-02-08 13:01:43
0.633000135421753,42.4378627538681,-71.6759955883026,56.7000007629395,2012-02-08 13:01:43
1.35999989509583,42.4378627538681,-71.6759955883026,56.7000007629395,2012-02-08 13:01:45
0.250999927520752,42.4378627538681,-71.6759955883026,56.7000007629395,2012-02-08 13:01:45
1.1710000038147,42.4378627538681,-71.6759955883026,56.7000007629395,2012-02-08 13:01:46
0.88700008392334,42.4378627538681,-71.6759955883026,56.7000007629395,2012-02-08 13:01:47
0.895999908447266,42.4378627538681,-71.6759955883026,56.7000007629395,2012-02-08 13:01:48
0.870000123977661,42.4378627538681,-71.6759955883026,56.7000007629395,2012-02-08 13:01:49
1.37100005149841,42.4378627538681,-71.6759955883026,56.7000007629395,2012-02-08 13:01:50
1.00499987602234,42.4378627538681,-71.6759955883026,56.7000007629395,2012-02-08 13:01:51
0.611999988555908,42.4378627538681,-71.6759955883026,56.7000007629395,2012-02-08 13:01:52
1.37100005149841,42.4378627538681,-71.6759955883026,56.7000007629395,2012-02-08 13:01:53
0.703999996185303,42.4378627538681,-71.6759955883026,56.7000007629395,2012-02-08 13:01:54
1.29299998283386,42.4378627538681,-71.6759955883026,56.7000007629395,2012-02-08 13:01:55
0.854000091552734,42.4378627538681,-71.6759955883026,56.7000007629395,2012-02-08 13:01:56
0.853999853134155,42.4378627538681,-71.6759955883026,56.7000007629395,2012-02-08 13:01:57
1.24900007247925,42.4378627538681,-71.6759955883026,56.7000007629395,2012-02-08 13:01:58
0.811000108718872,42.4378627538681,-71.6759955883026,56.7000007629395,2012-02-08 13:01:59
0.979999780654907,42.4378627538681,-71.6759955883026,56.7000007629395,2012-02-08 13:02:00
1.25400018692017,42.43786112,-71.67599341,66.5,2012-02-08 13:02:01
0.997999906539917,42.43786112,-71.67599341,66.5,2012-02-08 13:02:02
0.624000072479248,42.43786112,-71.67599341,66.5,2012-02-08 13:02:03
1.03099989891052,42.43786112,-71.67599341,66.5,2012-02-08 13:02:04
1.3050000667572,42.43786112,-71.67599342,66.5,2012-02-08 13:02:05
0.915999889373779,42.43786112,-71.67599342,66.5,2012-02-08 13:02:06
1.15200018882751,42.43786112,-71.67599341,66.5,2012-02-08 13:02:07
0.718999862670898,42.43786112,-71.67599341,66.5,2012-02-08 13:02:08
1.2480001449585,42.43786112,-71.67599341,66.5,2012-02-08 13:02:09
0.629999876022339,42.43786112,-71.67599341,66.5,2012-02-08 13:02:10
1.45199990272522,42.43786111,-71.67599339,66.5,2012-02-08 13:02:11
0.569000005722046,42.43786111,-71.67599339,66.5,2012-02-08 13:02:12
1.40300011634827,42.43786111,-71.6759934,66.5,2012-02-08 13:02:13
1.36100006103516,42.43786111,-71.67599339,66.5,2012-02-08 13:02:15
0.681999921798706,42.43786111,-71.6759934,66.5,2012-02-08 13:02:15
1.34800004959106,42.43786111,-71.67599341,66.5,2012-02-08 13:02:17
0.746999979019165,42.43786111,-71.6759934,66.5,2012-02-08 13:02:17
1.21199989318848,42.43786111,-71.6759934,66.5,2012-02-08 13:02:19
0.720000028610229,42.43786111,-71.6759934,66.5,2012-02-08 13:02:19
1.30800008773804,42.43786111,-71.6759934,66.5,2012-02-08 13:02:21
0.711999893188477,42.43786112,-71.67599343,66.5,2012-02-08 13:02:21
1.39000010490417,42.43786112,-71.67599342,66.5,2012-02-08 13:02:23
0.967000007629395,42.43786112,-71.67599342,66.5,2012-02-08 13:02:24
0.539999961853027,42.43786112,-71.67599342,66.5,2012-02-08 13:02:24
1.30900001525879,42.43786112,-71.67599342,66.5,2012-02-08 13:02:26
0.76200008392334,42.43786112,-71.67599342,66.5,2012-02-08 13:02:26
1.28299999237061,42.43786112,-71.67599342,66.5,2012-02-08 13:02:28
0.828999996185303,42.43786112,-71.67599342,66.5,2012-02-08 13:02:28
0.903999805450439,42.43786112,-71.67599342,66.5,2012-02-08 13:02:29
1.01900005340576,42.43786112,-71.67599342,66.5,2012-02-08 13:02:30
0.99399995803833,42.43786112,-71.67599342,66.5,2012-02-08 13:02:31
0.946000099182129,42.4378627538681,-71.6759955883026,56.7000007629395,2012-02-08 13:02:32
1.15700006484985,42.4378627538681,-71.6759955883026,56.7000007629395,2012-02-08 13:02:33
1.21000003814697,42.4378627538681,-71.6759955883026,56.7000007629395,2012-02-08 13:02:35
0.55899977684021,42.4378627538681,-71.6759955883026,56.7000007629395,2012-02-08 13:02:35
1.02300000190735,42.4378627538681,-71.6759955883026,56.7000007629395,2012-02-08 13:02:36
1.0090000629425,42.4378627538681,-71.6759955883026,56.7000007629395,2012-02-08 13:02:37
1.1230001449585,42.4378627538681,-71.6759955883026,56.7000007629395,2012-02-08 13:02:38
25.4619998931885,42.4378627538681,-71.6759955883026,56.7000007629395,2012-02-08 13:03:04
1.00799989700317,42.4378627538681,-71.6759955883026,56.7000007629395,2012-02-08 13:03:05
0.989000082015991,42.4378627538681,-71.6759955883026,56.7000007629395,2012-02-08 13:03:06
1.02100014686584,42.4378627538681,-71.6759955883026,56.7000007629395,2012-02-08 13:03:07
0.972999811172485,42.4378627538681,-71.6759955883026,56.7000007629395,2012-02-08 13:03:08
1.00100016593933,42.4378627538681,-71.6759955883026,56.7000007629395,2012-02-08 13:03:09
1.13099980354309,42.4378627538681,-71.6759955883026,56.7000007629395,2012-02-08 13:03:10
0.871000051498413,42.4378627538681,-71.6759955883026,56.7000007629395,2012-02-08 13:03:11
0.999000072479248,42.4378627538681,-71.6759955883026,56.7000007629395,2012-02-08 13:03:12
1.00399994850159,42.4378627538681,-71.6759955883026,56.7000007629395,2012-02-08 13:03:13
1.2960000038147,42.4378627538681,-71.6759955883026,56.7000007629395,2012-02-08 13:03:14
0.702000141143799,42.4378627538681,-71.6759955883026,56.7000007629395,2012-02-08 13:03:15
1.0019998550415,42.4378627538681,-71.6759955883026,56.7000007629395,2012-02-08 13:03:16
1.09500002861023,42.4378627538681,-71.6759955883026,56.7000007629395,2012-02-08 13:03:17
0.382999897003174,42.4378627538681,-71.6759955883026,56.7000007629395,2012-02-08 13:03:17
1.007000207901,42.4378627538681,-71.6759955883026,56.7000007629395,2012-02-08 13:03:18
0.996999979019165,42.4378627538681,-71.6759955883026,56.7000007629395,2012-02-08 13:03:19
1.01199984550476,42.4378627538681,-71.6759955883026,56.7000007629395,2012-02-08 13:03:20
0.999000072479248,42.4378627538681,-71.6759955883026,56.7000007629395,2012-02-08 13:03:21
1.83500003814697,42.4378627538681,-71.6759955883026,56.7000007629395,2012-02-08 13:03:23
1.00300002098083,42.4378627538681,-71.6759955883026,56.7000007629395,2012-02-08 13:03:24
1.24600005149841,42.4378627538681,-71.6759955883026,56.7000007629395,2012-02-08 13:03:25
0.753999948501587,42.4378627538681,-71.6759955883026,56.7000007629395,2012-02-08 13:03:26
1,42.4378627538681,-71.6759955883026,56.7000007629395,2012-02-08 13:03:27
1,42.4378627538681,-71.6759955883026,56.7000007629395,2012-02-08 13:03:28
1.00499987602234,42.4378627538681,-71.6759955883026,56.7000007629395,2012-02-08 13:03:29
1.00500011444092,42.4378627538681,-71.6759955883026,56.7000007629395,2012-02-08 13:03:30
0.993000030517578,42.4378627538681,-71.6759955883026,56.7000007629395,2012-02-08 13:03:31
2.98699998855591,42.4378627538681,-71.6759955883026,56.7000007629395,2012-02-08 13:03:34
1.00099992752075,42.4378627538681,-71.6759955883026,56.7000007629395,2012-02-08 13:03:35
1.18199992179871,42.4378627538681,-71.6759955883026,56.7000007629395,2012-02-08 13:03:36
0.818000078201294,42.4378627538681,-71.6759955883026,56.7000007629395,2012-02-08 13:03:37
1.00799989700317,42.4378627538681,-71.6759955883026,56.7000007629395,2012-02-08 13:03:38
0.995000123977661,42.4378627538681,-71.6759955883026,56.7000007629395,2012-02-08 13:03:39
1,42.4378627538681,-71.6759955883026,56.7000007629395,2012-02-08 13:03:40
1.00300002098083,42.4378627538681,-71.6759955883026,56.7000007629395,2012-02-08 13:03:41
0.997999906539917,42.4378627538681,-71.6759955883026,56.7000007629395,2012-02-08 13:03:42
1.00100016593933,42.4378627538681,-71.6759955883026,56.7000007629395,2012-02-08 13:03:43
1,42.4378627538681,-71.6759955883026,56.7000007629395,2012-02-08 13:03:44
1.0019998550415,42.4378627538681,-71.6759955883026,56.7000007629395,2012-02-08 13:03:45
0.999000072479248,42.4378627538681,-71.6759955883026,56.7000007629395,2012-02-08 13:03:46
1.1340000629425,42.4378627538681,-71.6759955883026,56.7000007629395,2012-02-08 13:03:47
0.886999845504761,42.4378627538681,-71.6759955883026,56.7000007629395,2012-02-08 13:03:48
0.982000112533569,42.4378627538681,-71.6759955883026,56.7000007629395,2012-02-08 13:03:49
0.45799994468689,42.4378627538681,-71.6759955883026,56.7000007629395,2012-02-08 13:03:50
14.5829999446869,42.4378627538681,-71.6759955883026,56.7000007629395,2012-02-08 13:04:04
0.978000164031982,42.4378627538681,-71.6759955883026,56.7000007629395,2012-02-08 13:04:05
1.00399994850159,42.4378627538681,-71.6759955883026,56.7000007629395,2012-02-08 13:04:06
0.994999885559082,42.4378627538681,-71.6759955883026,56.7000007629395,2012-02-08 13:04:07
1.00300002098083,42.4378627538681,-71.6759955883026,56.7000007629395,2012-02-08 13:04:08
0.630000114440918,42.4378627538681,-71.6759955883026,56.7000007629395,2012-02-08 13:04:09
0.995999813079834,42.4378627538681,-71.6759955883026,56.7000007629395,2012-02-08 13:04:10
0.876000165939331,42.4378627538681,-71.6759955883026,56.7000007629395,2012-02-08 13:04:11
1.1159999370575,42.4378627538681,-71.6759955883026,56.7000007629395,2012-02-08 13:04:12
0.676000118255615,42.4378627538681,-71.6759955883026,56.7000007629395,2012-02-08 13:04:12
1.27099990844727,42.4378627538681,-71.6759955883026,56.7000007629395,2012-02-08 13:04:14
0.785000085830688,42.4378627538681,-71.6759955883026,56.7000007629395,2012-02-08 13:04:15
1.36299991607666,42.4378627538681,-71.6759955883026,56.7000007629395,2012-02-08 13:04:16
0.581000089645386,42.4378627538681,-71.6759955883026,56.7000007629395,2012-02-08 13:04:16
1.22899985313416,42.4378627538681,-71.6759955883026,56.7000007629395,2012-02-08 13:04:18
0.779999971389771,42.4378627538681,-71.6759955883026,56.7000007629395,2012-02-08 13:04:18
1.25100016593933,42.4378627538681,-71.6759955883026,56.7000007629395,2012-02-08 13:04:20
0.744999885559082,42.4378627538681,-71.6759955883026,56.7000007629395,2012-02-08 13:04:20
0.858999967575073,42.4378627538681,-71.6759955883026,56.7000007629395,2012-02-08 13:04:21
1.35199999809265,42.4378627538681,-71.6759955883026,56.7000007629395,2012-02-08 13:04:23
10.9590001106262,42.4378627538681,-71.6759955883026,56.7000007629395,2012-02-08 13:04:34
0.994999885559082,42.4378627538681,-71.6759955883026,56.7000007629395,2012-02-08 13:04:35
1.00100016593933,42.4378627538681,-71.6759955883026,56.7000007629395,2012-02-08 13:04:36
1,42.4378627538681,-71.6759955883026,56.7000007629395,2012-02-08 13:04:37
1,42.4378627538681,-71.6759955883026,56.7000007629395,2012-02-08 13:04:38
1.00299978256226,42.4378627538681,-71.6759955883026,56.7000007629395,2012-02-08 13:04:39
1.007000207901,42.4378627538681,-71.6759955883026,56.7000007629395,2012-02-08 13:04:40
0.99399995803833,42.4378627538681,-71.6759955883026,56.7000007629395,2012-02-08 13:04:41
0.997999906539917,42.4378627538681,-71.6759955883026,56.7000007629395,2012-02-08 13:04:42
1.00099992752075,42.4378627538681,-71.6759955883026,56.7000007629395,2012-02-08 13:04:43
1.00500011444092,42.4378627538681,-71.6759955883026,56.7000007629395,2012-02-08 13:04:44
0.997999906539917,42.4378627538681,-71.6759955883026,56.7000007629395,2012-02-08 13:04:45
0.999000072479248,42.4378627538681,-71.6759955883026,56.7000007629395,2012-02-08 13:04:46
1,42.4378627538681,-71.6759955883026,56.7000007629395,2012-02-08 13:04:47
1.00300002098083,42.4378627538681,-71.6759955883026,56.7000007629395,2012-02-08 13:04:48
0.999000072479248,42.4378627538681,-71.6759955883026,56.7000007629395,2012-02-08 13:04:49
1.24699997901917,42.4378627538681,-71.6759955883026,56.7000007629395,2012-02-08 13:04:50
0.753999948501587,42.4378627538681,-71.6759955883026,56.7000007629395,2012-02-08 13:04:51
1.00200009346008,42.4378627538681,-71.6759955883026,56.7000007629395,2012-02-08 13:04:52
1.07399988174438,42.4378627538681,-71.6759955883026,56.7000007629395,2012-02-08 13:04:53
0.927000045776367,42.4378627538681,-71.6759955883026,56.7000007629395,2012-02-08 13:04:54
1.00600004196167,42.4378627538681,-71.6759955883026,56.7000007629395,2012-02-08 13:04:55
1.01799988746643,42.4378627538681,-71.6759955883026,56.7000007629395,2012-02-08 13:04:56
0.977999925613403,42.4378627538681,-71.6759955883026,56.7000007629395,2012-02-08 13:04:57
1.01100015640259,42.4378627538681,-71.6759955883026,56.7000007629395,2012-02-08 13:04:58
0.990000009536743,42.4378627538681,-71.6759955883026,56.7000007629395,2012-02-08 13:04:59
1.00300002098083,42.4378627538681,-71.6759955883026,56.7000007629395,2012-02-08 13:05:00
1.24199986457825,42.4378627538681,-71.6759955883026,56.7000007629395,2012-02-08 13:05:01
2.74900007247925,42.4378627538681,-71.6759955883026,56.7000007629395,2012-02-08 13:05:04
1,42.4378627538681,-71.6759955883026,56.7000007629395,2012-02-08 13:05:05
1.00699996948242,42.4378627538681,-71.6759955883026,56.7000007629395,2012-02-08 13:05:06
0.992000102996826,42.4378627538681,-71.6759955883026,56.7000007629395,2012-02-08 13:05:07
1.00099992752075,42.4378627538681,-71.6759955883026,56.7000007629395,2012-02-08 13:05:08
1.11999988555908,42.4378627538681,-71.6759955883026,56.7000007629395,2012-02-08 13:05:09
0.882000207901001,42.4378627538681,-71.6759955883026,56.7000007629395,2012-02-08 13:05:10
0.998999834060669,42.4378627538681,-71.6759955883026,56.7000007629395,2012-02-08 13:05:11
1.02900004386902,42.4378627538681,-71.6759955883026,56.7000007629395,2012-02-08 13:05:12
0.924999952316284,42.4378627538681,-71.6759955883026,56.7000007629395,2012-02-08 13:05:13
0.995000123977661,42.4378627538681,-71.6759955883026,56.7000007629395,2012-02-08 13:05:14
1,42.4378627538681,-71.6759955883026,56.7000007629395,2012-02-08 13:05:15
1,42.4378627538681,-71.6759955883026,56.7000007629395,2012-02-08 13:05:16
1.0019998550415,42.4378627538681,-71.6759955883026,56.7000007629395,2012-02-08 13:05:17
1,42.4378627538681,-71.6759955883026,56.7000007629395,2012-02-08 13:05:18
1,42.4378627538681,-71.6759955883026,56.7000007629395,2012-02-08 13:05:19
1,42.4378627538681,-71.6759955883026,56.7000007629395,2012-02-08 13:05:20
1.00300002098083,42.4378627538681,-71.6759955883026,56.7000007629395,2012-02-08 13:05:21
1,42.4378627538681,-71.6759955883026,56.7000007629395,2012-02-08 13:05:22
1.00500011444092,42.4378627538681,-71.6759955883026,56.7000007629395,2012-02-08 13:05:23
0.996999979019165,42.4378627538681,-71.6759955883026,56.7000007629395,2012-02-08 13:05:24
1.00099992752075,42.4378627538681,-71.6759955883026,56.7000007629395,2012-02-08 13:05:25
1,42.4378627538681,-71.6759955883026,56.7000007629395,2012-02-08 13:05:26
1,42.4378627538681,-71.6759955883026,56.7000007629395,2012-02-08 13:05:27
1.1010000705719,42.4378627538681,-71.6759955883026,56.7000007629395,2012-02-08 13:05:28
0.901999950408936,42.4378627538681,-71.6759955883026,56.7000007629395,2012-02-08 13:05:29
0.997999906539917,42.4378627538681,-71.6759955883026,56.7000007629395,2012-02-08 13:05:30
1.00300002098083,42.4378627538681,-71.6759955883026,56.7000007629395,2012-02-08 13:05:31
2.98900008201599,42.4378627538681,-71.6759955883026,56.7000007629395,2012-02-08 13:05:34
1,42.4378627538681,-71.6759955883026,56.7000007629395,2012-02-08 13:05:35
1.24600005149841,42.4378627538681,-71.6759955883026,56.7000007629395,2012-02-08 13:05:36
0.754999876022339,42.4378627538681,-71.6759955883026,56.7000007629395,2012-02-08 13:05:37
1.00100016593933,42.4378627538681,-71.6759955883026,56.7000007629395,2012-02-08 13:05:38
1.01899981498718,42.4378627538681,-71.6759955883026,56.7000007629395,2012-02-08 13:05:39
0.986999988555908,42.4378627538681,-71.6759955883026,56.7000007629395,2012-02-08 13:05:40
0.995000123977661,42.4378627538681,-71.6759955883026,56.7000007629395,2012-02-08 13:05:41
1.00200009346008,42.4378627538681,-71.6759955883026,56.7000007629395,2012-02-08 13:05:42
1.21199989318848,42.4378627538681,-71.6759955883026,56.7000007629395,2012-02-08 13:05:43
0.822000026702881,42.4378627538681,-71.6759955883026,56.7000007629395,2012-02-08 13:05:44
0.986999988555908,42.4378627538681,-71.6759955883026,56.7000007629395,2012-02-08 13:05:45
0.98199987411499,42.4378627538681,-71.6759955883026,56.7000007629395,2012-02-08 13:05:46
1.01000022888184,42.4378627538681,-71.6759955883026,56.7000007629395,2012-02-08 13:05:47
0.998999834060669,42.4378627538681,-71.6759955883026,56.7000007629395,2012-02-08 13:05:48
0.993000030517578,42.4378627538681,-71.6759955883026,56.7000007629395,2012-02-08 13:05:49
1,42.4378627538681,-71.6759955883026,56.7000007629395,2012-02-08 13:05:50
1,42.4378627538681,-71.6759955883026,56.7000007629395,2012-02-08 13:05:51
1.00500011444092,42.4378627538681,-71.6759955883026,56.7000007629395,2012-02-08 13:05:52
0.996999979019165,42.4378627538681,-71.6759955883026,56.7000007629395,2012-02-08 13:05:53
1.16499996185303,42.4378627538681,-71.6759955883026,56.7000007629395,2012-02-08 13:05:54
0.838000059127808,42.4378627538681,-71.6759955883026,56.7000007629395,2012-02-08 13:05:55
1.00499987602234,42.4378627538681,-71.6759955883026,56.7000007629395,2012-02-08 13:05:56
0.996000051498413,42.4378627538681,-71.6759955883026,56.7000007629395,2012-02-08 13:05:57
1.00399994850159,42.4378627538681,-71.6759955883026,56.7000007629395,2012-02-08 13:05:58
0.999000072479248,42.4378627538681,-71.6759955883026,56.7000007629395,2012-02-08 13:05:59
1.0019998550415,42.4378627538681,-71.6759955883026,56.7000007629395,2012-02-08 13:06:00
1.00100016593933,42.4378627538681,-71.6759955883026,56.7000007629395,2012-02-08 13:06:01
2.98499989509583,42.4378627538681,-71.6759955883026,56.7000007629395,2012-02-08 13:06:04
1.1230001449585,42.4378627538681,-71.6759955883026,56.7000007629395,2012-02-08 13:06:05
0.877999782562256,42.4378627538681,-71.6759955883026,56.7000007629395,2012-02-08 13:06:06
1.00200009346008,42.4378627538681,-71.6759955883026,56.7000007629395,2012-02-08 13:06:07
0.999000072479248,42.4378627538681,-71.6759955883026,56.7000007629395,2012-02-08 13:06:08
1.0019998550415,42.4378627538681,-71.6759955883026,56.7000007629395,2012-02-08 13:06:09
1.29000020027161,42.4378627538681,-71.6759955883026,56.7000007629395,2012-02-08 13:06:10
0.709999799728394,42.4378627538681,-71.6759955883026,56.7000007629395,2012-02-08 13:06:11
1.00100016593933,42.4378627538681,-71.6759955883026,56.7000007629395,2012-02-08 13:06:12
1.08999991416931,42.4378627538681,-71.6759955883026,56.7000007629395,2012-02-08 13:06:13
0.911999940872192,42.4378627538681,-71.6759955883026,56.7000007629395,2012-02-08 13:06:14
1.00100016593933,42.4378627538681,-71.6759955883026,56.7000007629395,2012-02-08 13:06:15
1.03999996185303,42.4378627538681,-71.6759955883026,56.7000007629395,2012-02-08 13:06:16
0.960999965667725,42.4378627538681,-71.6759955883026,56.7000007629395,2012-02-08 13:06:17
1,42.4378627538681,-71.6759955883026,56.7000007629395,2012-02-08 13:06:18
1.00099992752075,42.4378627538681,-71.6759955883026,56.7000007629395,2012-02-08 13:06:19
1.00100016593933,42.4378627538681,-71.6759955883026,56.7000007629395,2012-02-08 13:06:20
1.0019998550415,42.4378627538681,-71.6759955883026,56.7000007629395,2012-02-08 13:06:21
0.998000144958496,42.4378627538681,-71.6759955883026,56.7000007629395,2012-02-08 13:06:22
1.00299978256226,42.4378627538681,-71.6759955883026,56.7000007629395,2012-02-08 13:06:23
0.998000144958496,42.4378627538681,-71.6759955883026,56.7000007629395,2012-02-08 13:06:24
1.00300002098083,42.4378627538681,-71.6759955883026,56.7000007629395,2012-02-08 13:06:25
1,42.4378627538681,-71.6759955883026,56.7000007629395,2012-02-08 13:06:26
1.00399994850159,42.4378627538681,-71.6759955883026,56.7000007629395,2012-02-08 13:06:27
0.996000051498413,42.4378627538681,-71.6759955883026,56.7000007629395,2012-02-08 13:06:28
1.00499987602234,42.4378627538681,-71.6759955883026,56.7000007629395,2012-02-08 13:06:29
0.998000144958496,42.4378627538681,-71.6759955883026,56.7000007629395,2012-02-08 13:06:30
1.00300002098083,42.4378627538681,-71.6759955883026,56.7000007629395,2012-02-08 13:06:31
3.16299986839294,42.4378627538681,-71.6759955883026,56.7000007629395,2012-02-08 13:06:34
1.21900010108948,42.4378627538681,-71.6759955883026,56.7000007629395,2012-02-08 13:06:35
0.847999811172485,42.4378627538681,-71.6759955883026,56.7000007629395,2012-02-08 13:06:36
0.960000038146973,42.4378627538681,-71.6759955883026,56.7000007629395,2012-02-08 13:06:37
1.03400015830994,42.4378627538681,-71.6759955883026,56.7000007629395,2012-02-08 13:06:38
0.968999862670898,42.4378627538681,-71.6759955883026,56.7000007629395,2012-02-08 13:06:39
1.04800009727478,42.4378627538681,-71.6759955883026,56.7000007629395,2012-02-08 13:06:40
0.961999893188477,42.4378627538681,-71.6759955883026,56.7000007629395,2012-02-08 13:06:41
1.04200005531311,42.4378627538681,-71.6759955883026,56.7000007629395,2012-02-08 13:06:42
1.03299999237061,42.4378627538681,-71.6759955883026,56.7000007629395,2012-02-08 13:06:43
0.927000045776367,42.4378627538681,-71.6759955883026,56.7000007629395,2012-02-08 13:06:44
1,42.4378627538681,-71.6759955883026,56.7000007629395,2012-02-08 13:06:45
1.2960000038147,42.4378627538681,-71.6759955883026,56.7000007629395,2012-02-08 13:06:46
0.700000047683716,42.4378627538681,-71.6759955883026,56.7000007629395,2012-02-08 13:06:47
1.0479998588562,42.4378627538681,-71.6759955883026,56.7000007629395,2012-02-08 13:06:48
0.983999967575073,42.4378627538681,-71.6759955883026,56.7000007629395,2012-02-08 13:06:49
0.979000091552734,42.4378627538681,-71.6759955883026,56.7000007629395,2012-02-08 13:06:50
1.21600008010864,42.4378627538681,-71.6759955883026,56.7000007629395,2012-02-08 13:06:51
0.787999868392944,42.4378627538681,-71.6759955883026,56.7000007629395,2012-02-08 13:06:52
0.233999967575073,42.4378627538681,-71.6759955883026,56.7000007629395,2012-02-08 13:06:52
1.22200012207031,42.4378627538681,-71.6759955883026,56.7000007629395,2012-02-08 13:06:53
1.02099990844727,42.4378627538681,-71.6759955883026,56.7000007629395,2012-02-08 13:06:54
0.92900013923645,42.4378627538681,-71.6759955883026,56.7000007629395,2012-02-08 13:06:55
0.690999984741211,42.4378627538681,-71.6759955883026,56.7000007629395,2012-02-08 13:06:56
1.43299984931946,42.4378627538681,-71.6759955883026,56.7000007629395,2012-02-08 13:06:57
0.561000108718872,42.4378627538681,-71.6759955883026,56.7000007629395,2012-02-08 13:06:58
1.92000007629395,42.4378627538681,-71.6759955883026,56.7000007629395,2012-02-08 13:07:00
0.622999906539917,42.4378627538681,-71.6759955883026,56.7000007629395,2012-02-08 13:07:00
0.966000080108643,42.4378627538681,-71.6759955883026,56.7000007629395,2012-02-08 13:07:01
1.1159999370575,42.4378627538681,-71.6759955883026,56.7000007629395,2012-02-08 13:07:03
1.0090000629425,42.4378627538681,-71.6759955883026,56.7000007629395,2012-02-08 13:07:04
1.11699986457825,42.43786103,-71.67599332,66.5999984741211,2012-02-08 13:07:05
0.782999992370605,42.43786103,-71.67599331,66.5999984741211,2012-02-08 13:07:05
1.35800004005432,42.43786103,-71.67599331,66.5999984741211,2012-02-08 13:07:07
0.597000122070312,42.43786103,-71.67599332,66.5999984741211,2012-02-08 13:07:07
1.09499979019165,42.43786103,-71.67599331,66.5999984741211,2012-02-08 13:07:09
1.10500001907349,42.43786103,-71.67599329,66.5999984741211,2012-02-08 13:07:10
1.16900014877319,42.437861,-71.67599323,66.5999984741211,2012-02-08 13:07:11
0.912999868392944,42.437861,-71.67599321,66.5999984741211,2012-02-08 13:07:12
0.845000028610229,42.43786099,-71.67599318,66.5999984741211,2012-02-08 13:07:13
1.2409999370575,42.43786099,-71.6759932,66.5999984741211,2012-02-08 13:07:14
0.80400013923645,42.43786099,-71.67599318,66.5999984741211,2012-02-08 13:07:15
1.1159999370575,42.43786098,-71.67599316,66.5999984741211,2012-02-08 13:07:16
0.776999950408936,42.43786098,-71.67599317,66.5999984741211,2012-02-08 13:07:16
1.31000018119812,42.43786098,-71.67599318,66.5999984741211,2012-02-08 13:07:18
0.816999912261963,42.43786097,-71.67599317,66.5999984741211,2012-02-08 13:07:19
1.16799998283386,42.43786097,-71.67599316,66.5999984741211,2012-02-08 13:07:20
0.74399995803833,42.43786097,-71.67599317,66.5999984741211,2012-02-08 13:07:21
1.27100014686584,42.43786096,-71.67599315,66.5999984741211,2012-02-08 13:07:22
0.902999877929688,42.43786097,-71.67599316,66.5999984741211,2012-02-08 13:07:23
0.861000061035156,42.43786097,-71.67599317,66.5999984741211,2012-02-08 13:07:24
1.23099994659424,42.43786097,-71.67599316,66.5999984741211,2012-02-08 13:07:25
0.920000076293945,42.43786097,-71.67599318,66.5999984741211,2012-02-08 13:07:26
1.00300002098083,42.43786096,-71.67599316,66.5999984741211,2012-02-08 13:07:27
1.10099983215332,42.43786097,-71.67599317,66.5999984741211,2012-02-08 13:07:28
0.607000112533569,42.43786097,-71.67599317,66.5999984741211,2012-02-08 13:07:28
1.23099994659424,42.43786097,-71.67599317,66.5999984741211,2012-02-08 13:07:30
0.954999923706055,42.43786097,-71.67599317,66.5999984741211,2012-02-08 13:07:31
1.17300009727478,42.43786097,-71.67599318,66.5999984741211,2012-02-08 13:07:32
1.09500002861023,42.43786097,-71.67599318,66.5999984741211,2012-02-08 13:07:33
0.545000076293945,42.43786097,-71.67599318,66.5999984741211,2012-02-08 13:07:33
1.29199981689453,42.43786098,-71.67599318,66.5999984741211,2012-02-08 13:07:35
0.937000036239624,42.43786098,-71.67599319,66.5999984741211,2012-02-08 13:07:36
1.00300002098083,42.43786098,-71.67599319,66.5999984741211,2012-02-08 13:07:37
0.828999996185303,42.43786098,-71.67599319,66.5999984741211,2012-02-08 13:07:37
1.3270001411438,42.43786098,-71.6759932,66.5999984741211,2012-02-08 13:07:39
0.631999969482422,42.43786099,-71.67599321,66.5999984741211,2012-02-08 13:07:39
1.30099987983704,42.43786099,-71.67599321,66.5999984741211,2012-02-08 13:07:41
0.766999959945679,42.43786099,-71.67599322,66.5999984741211,2012-02-08 13:07:42
1.16799998283386,42.43786099,-71.67599322,66.5999984741211,2012-02-08 13:07:43
1.26800012588501,42.437861,-71.67599322,66.5999984741211,2012-02-08 13:07:44
0.467999935150146,42.43786101,-71.67599324,66.5999984741211,2012-02-08 13:07:44
1.31699991226196,42.43786101,-71.67599324,66.5999984741211,2012-02-08 13:07:46
0.910000085830688,42.437861,-71.67599324,66.5999984741211,2012-02-08 13:07:47
1.1800000667572,42.437861,-71.67599323,66.5999984741211,2012-02-08 13:07:48
0.812999963760376,42.437861,-71.67599322,66.5999984741211,2012-02-08 13:07:49
1.04500007629395,42.437861,-71.67599323,66.5999984741211,2012-02-08 13:07:50
0.876999855041504,42.43786101,-71.67599323,66.5999984741211,2012-02-08 13:07:51
1.61899995803833,42.43786102,-71.67599325,66.5999984741211,2012-02-08 13:07:52
0.747000217437744,42.43786102,-71.67599326,66.5999984741211,2012-02-08 13:07:53
0.661999940872192,42.43786102,-71.67599326,66.5999984741211,2012-02-08 13:07:54
1.24499988555908,42.43786103,-71.67599327,66.5999984741211,2012-02-08 13:07:55
0.79800009727478,42.43786103,-71.67599327,66.5999984741211,2012-02-08 13:07:56
1.1269998550415,42.43786103,-71.67599327,66.5999984741211,2012-02-08 13:07:57
0.89900016784668,42.43786104,-71.67599328,66.5999984741211,2012-02-08 13:07:58
0.809000015258789,42.43786104,-71.67599329,66.5999984741211,2012-02-08 13:07:58
1.12899994850159,42.43786104,-71.67599329,66.5999984741211,2012-02-08 13:08:00
0.891000032424927,42.43786104,-71.67599329,66.5999984741211,2012-02-08 13:08:00
1.3199999332428,42.43786104,-71.67599328,66.5999984741211,2012-02-08 13:08:02
0.618000030517578,42.43786104,-71.67599328,66.5999984741211,2012-02-08 13:08:02
1.24799990653992,42.43786104,-71.67599329,66.5999984741211,2012-02-08 13:08:04
0.89900016784668,42.43786104,-71.67599329,66.5999984741211,2012-02-08 13:08:05
0.872999906539917,42.43786105,-71.67599329,66.5999984741211,2012-02-08 13:08:05
1.17700004577637,42.43786105,-71.67599329,66.5999984741211,2012-02-08 13:08:07
0.970000028610229,42.43786104,-71.67599326,66.5999984741211,2012-02-08 13:08:08
1.13599991798401,42.43786104,-71.67599326,66.5999984741211,2012-02-08 13:08:09
0.740999937057495,42.43786104,-71.67599326,66.5999984741211,2012-02-08 13:08:09
1.16600012779236,42.43786103,-71.67599325,66.5999984741211,2012-02-08 13:08:11
1.07299995422363,42.43786104,-71.67599326,66.5999984741211,2012-02-08 13:08:12
0.95799994468689,42.43786105,-71.67599327,66.5999984741211,2012-02-08 13:08:13
0.855000019073486,42.43786104,-71.67599326,66.5999984741211,2012-02-08 13:08:14
1.0310001373291,42.43786105,-71.67599327,66.5999984741211,2012-02-08 13:08:15
1.16899991035461,42.43786104,-71.67599326,66.5999984741211,2012-02-08 13:08:16
0.707000017166138,42.43786103,-71.67599326,66.5999984741211,2012-02-08 13:08:16
1.13299989700317,42.43786103,-71.67599326,66.5999984741211,2012-02-08 13:08:18
1.20600008964539,42.43786103,-71.67599325,66.5999984741211,2012-02-08 13:08:19
0.789999961853027,42.43786103,-71.67599325,66.5999984741211,2012-02-08 13:08:20
1.28399991989136,42.43786103,-71.67599326,66.5999984741211,2012-02-08 13:08:21
0.580000162124634,42.43786103,-71.67599326,66.5999984741211,2012-02-08 13:08:21
1.37999987602234,42.43786103,-71.67599326,66.5999984741211,2012-02-08 13:08:23
0.625,42.43786103,-71.67599325,66.5999984741211,2012-02-08 13:08:23
1.17400002479553,42.43786103,-71.67599326,66.5999984741211,2012-02-08 13:08:25
1.21500015258789,42.43786104,-71.67599327,66.5999984741211,2012-02-08 13:08:26
0.99399995803833,42.43786103,-71.67599326,66.5999984741211,2012-02-08 13:08:27
0.621999979019165,42.43786103,-71.67599326,66.5999984741211,2012-02-08 13:08:27
1.3769998550415,42.43786103,-71.67599325,66.5999984741211,2012-02-08 13:08:29
0.625,42.43786103,-71.67599326,66.5999984741211,2012-02-08 13:08:29
1.30299997329712,42.43786103,-71.67599327,66.5999984741211,2012-02-08 13:08:31
0.764000177383423,42.43786104,-71.6759933,66.5999984741211,2012-02-08 13:08:32
1.03900003433228,42.43786104,-71.6759933,66.5999984741211,2012-02-08 13:08:33
1.26699995994568,42.43786103,-71.67599328,66.5999984741211,2012-02-08 13:08:34
0.621999979019165,42.43786102,-71.67599328,66.5999984741211,2012-02-08 13:08:34
1.14499998092651,42.43786102,-71.67599328,66.5999984741211,2012-02-08 13:08:36
0.888999938964844,42.43786102,-71.67599327,66.5999984741211,2012-02-08 13:08:36
1.18900012969971,42.43786102,-71.67599326,66.5999984741211,2012-02-08 13:08:38
0.608999967575073,42.43786102,-71.67599325,66.5999984741211,2012-02-08 13:08:38
1.35399985313416,42.43786102,-71.67599325,66.5999984741211,2012-02-08 13:08:40
0.863000154495239,42.43786102,-71.67599325,66.5999984741211,2012-02-08 13:08:40
1.09200000762939,42.43786101,-71.67599322,66.5999984741211,2012-02-08 13:08:42
1.14100003242493,42.43786101,-71.67599322,66.5999984741211,2012-02-08 13:08:43
0.548999786376953,42.43786101,-71.67599323,66.5999984741211,2012-02-08 13:08:43
1.37400007247925,42.43786101,-71.67599323,66.5999984741211,2012-02-08 13:08:45
0.638999938964844,42.43786102,-71.67599324,66.5999984741211,2012-02-08 13:08:45
1.35199999809265,42.43786102,-71.67599324,66.5999984741211,2012-02-08 13:08:47
0.940000057220459,42.43786102,-71.67599325,66.5999984741211,2012-02-08 13:08:48
0.919000148773193,42.43786101,-71.67599325,66.5999984741211,2012-02-08 13:08:48
1.27799987792969,42.43786101,-71.67599325,66.5999984741211,2012-02-08 13:08:50
