"diffSecs","level","azimuth.mean","azimuth.absolute.deviation","azimuth.standard.deviation","azimuth.max.deviation","pitch.mean","pitch.absolute.deviation","pitch.standard.deviation","pitch.max.deviation","roll.mean","roll.absolute.deviation","roll.standard.deviation","roll.max.deviation","time"
0,36,-0.813888907432556,2.09984564781189,3.54104137420654,15.4138889312744,-35.1777801513672,4.40308666229248,7.24726438522339,31.7222232818604,-35.8444442749023,10.5728397369385,17.5082759857178,77.0444488525391,2012-01-01 14:10:11
1.01107335090637,39,-2.85128211975098,0.601051986217499,0.746572315692902,1.85128211975098,-30.6205139160156,0.488625973463058,0.532617926597595,0.920512497425079,-44.1538467407227,0.360157877206802,0.384205043315887,0.65384715795517,2012-01-01 14:10:12
1.01313829421997,39,-3.41025638580322,0.215647637844086,0.269657820463181,0.789743781089783,-30.5333347320557,0.18632484972477,0.2211082726717,0.46666619181633,-44.4769248962402,0.154241070151329,0.180401086807251,0.423077791929245,2012-01-01 14:10:13
1.19981169700623,45,-3.80666661262512,0.344888925552368,0.411717295646667,0.806666731834412,-30.0755558013916,0.330370545387268,0.407243251800537,0.875555276870728,-44.7266654968262,0.217480808496475,0.279999494552612,0.573332130908966,2012-01-01 14:10:14
1.014279961586,50,-8.79199981689453,3.18095993995667,3.58557343482971,6.30800008773804,-26.9320011138916,1.82767999172211,2.01647615432739,3.36800074577332,-46.370002746582,0.961600065231323,1.07559287548065,1.96999931335449,2012-01-01 14:10:15
1.01338994503021,42,13.7190475463867,17.0258502960205,18.4123058319092,28.6190490722656,-32.1809539794922,3.94852638244629,4.95317363739014,12.4190492630005,-31.4309539794922,11.2544221878052,11.8297147750854,16.9309539794922,2012-01-01 14:10:16
1.00071501731873,45,29.8533344268799,1.08651852607727,1.39946031570435,4.14666604995728,-26.6511116027832,2.21876549720764,2.61062979698181,5.35111045837402,-30.2666664123535,2.37777805328369,2.85267925262451,5.86666774749756,2012-01-01 14:10:17
1.02005338668823,34,30.6058826446533,0.939100325107574,1.18865752220154,2.90588188171387,-26.0235290527344,1.78685116767883,2.2033474445343,4.92352962493896,-30.6000003814697,1.45882380008698,1.76768398284912,4,2012-01-01 14:10:18
1.01610994338989,44,29.7045459747314,1.031818151474,1.30957221984863,3.30454635620117,-28.847728729248,4.05640506744385,4.71870040893555,8.75227451324463,-27.995454788208,4.07747936248779,4.74504327774048,9.19545364379883,2012-01-01 14:10:19
1.01219832897186,49,31.6346950531006,0.794419229030609,0.987793207168579,2.83469343185425,-32.2000007629395,1.86938786506653,2.1946132183075,4.40000200271606,-23.0428581237793,2.42332363128662,2.98868608474731,6.84285688400269,2012-01-01 14:10:20
1.013516664505,35,29.7942867279053,0.588734745979309,0.727006852626801,1.80571436882019,-32.5342864990234,1.620081782341,1.95301151275635,4.66571426391602,-24.2857151031494,2.12244892120361,2.49389457702637,4.98571348190308,2012-01-01 14:10:21
1.00388336181641,44,26.1545448303223,2.18181824684143,2.77607083320618,5.94545650482178,-38.6545448303223,1.96859490871429,2.34854435920715,4.65454626083374,-20.1454544067383,3.22272729873657,3.76107168197632,8.6454553604126,2012-01-01 14:10:22
1.01514661312103,49,-0.512244880199432,12.4783010482788,14.4168500900269,24.6122455596924,-23.1693878173828,6.34585618972778,6.91009950637817,13.5306119918823,-44.0857162475586,5.40466499328613,6.81708574295044,17.6857147216797,2012-01-01 14:10:23
1.00566828250885,36,-17.2583332061768,1.33796298503876,1.7590047121048,5.04166746139526,-17.3222217559814,0.597530901432037,0.759060561656952,1.92222189903259,-48.3944435119629,0.183950960636139,0.233267158269882,0.605554699897766,2012-01-01 14:10:24
1.01724672317505,42,-16.3309535980225,0.284467101097107,0.32402840256691,0.56904673576355,-18.3690490722656,0.185487285256386,0.216561883687973,0.530951380729675,-48.4261894226074,0.121655471622944,0.149697631597519,0.373808085918427,2012-01-01 14:10:25
1.01128494739532,48,-16.0520839691162,0.41927096247673,0.468147903680801,0.847916007041931,-18.7250003814697,0.0947916209697723,0.119895711541176,0.374999850988388,-48.3979187011719,0.144010856747627,0.168930187821388,0.302083343267441,2012-01-01 14:10:26
1.01535165309906,34,-15.3764705657959,0.245328813791275,0.302983999252319,0.676470994949341,-18.9411773681641,0.0930795967578888,0.111454553902149,0.258824110031128,-48.485294342041,0.0778546333312988,0.0974151343107224,0.214705750346184,2012-01-01 14:10:27
1.010298371315,41,-15.4487810134888,0.29399162530899,0.346496015787125,0.748780906200409,-19.0975608825684,0.134681969881058,0.168910264968872,0.402438640594482,-48.3560981750488,0.160500049591064,0.193867936730385,0.443900972604752,2012-01-01 14:10:28
1.01832163333893,43,-15.5767440795898,0.195889577269554,0.232115805149078,0.523256003856659,-19.1837215423584,0.126771375536919,0.165557935833931,0.516279458999634,-48.4093017578125,0.108923852443695,0.136081650853157,0.309300988912582,2012-01-01 14:10:29
1.00154328346252,33,-15.4787883758545,0.262993484735489,0.31790754199028,0.678788006305695,-19.4363632202148,0.148209244012833,0.175496056675911,0.363637119531631,-48.3454551696777,0.101378127932549,0.123315490782261,0.254546999931335,2012-01-01 14:10:30
1.00278329849243,43,-15.2534885406494,0.291292667388916,0.355912744998932,0.953488349914551,-19.4023265838623,0.156084254384041,0.189844891428947,0.397675126791,-48.1930236816406,0.147646829485893,0.180947259068489,0.393024802207947,2012-01-01 14:10:31
1.01833498477936,48,-15.435417175293,0.169965177774429,0.208655968308449,0.464583724737167,-19.4645843505859,0.11458333581686,0.134612947702408,0.335417509078979,-48.2333335876465,0.179166376590729,0.213437497615814,0.433334827423096,2012-01-01 14:10:32
1.01459169387817,41,-15.4463415145874,0.350624531507492,0.399449318647385,0.746341824531555,-19.3414630889893,0.135514199733734,0.171044901013374,0.458537131547928,-48.2658538818359,0.171445220708847,0.199523359537125,0.43414631485939,2012-01-01 14:10:33
1.00481998920441,37,-15.1540546417236,0.290869235992432,0.348428636789322,0.945946097373962,-19.3783779144287,0.0994882211089134,0.125493630766869,0.278378158807755,-48.1729736328125,0.145215019583702,0.174988105893135,0.47297328710556,2012-01-01 14:10:34
1.02921664714813,49,-15.0306119918823,0.235984995961189,0.297749429941177,0.830612659454346,-19.3204078674316,0.146605223417282,0.178405061364174,0.420408993959427,-48.2387771606445,0.139108419418335,0.167595520615578,0.36122590303421,2012-01-01 14:10:35
1.01275670528412,34,-14.9941177368164,0.277508556842804,0.345510005950928,0.794118046760559,-19.1205883026123,0.146540001034737,0.177862256765366,0.379411429166794,-48.2705879211426,0.132871508598328,0.15816842019558,0.32941335439682,2012-01-01 14:10:36
1.01947498321533,44,-14.7340908050537,0.299276888370514,0.356716841459274,0.734091103076935,-19.0863647460938,0.144628316164017,0.190204441547394,0.486363708972931,-48.3363647460938,0.0971079468727112,0.116951636970043,0.26363804936409,2012-01-01 14:10:37
1.25976502895355,48,-15.091667175293,0.258680522441864,0.31347069144249,0.791666626930237,-19.1687507629395,0.145052254199982,0.175779536366463,0.431249976158142,-48.3479156494141,0.102257438004017,0.127458482980728,0.352083534002304,2012-01-01 14:10:38
1.02724671363831,43,-14.7488374710083,0.243158534169197,0.303753346204758,0.748837351799011,-19.2488384246826,0.103623703122139,0.128265902400017,0.348838239908218,-48.2813949584961,0.112060345709324,0.138523563742638,0.31860625743866,2012-01-01 14:10:39
1.01293337345123,49,-14.3408164978027,0.182090893387794,0.209876924753189,0.459183663129807,-19.6897964477539,0.209662660956383,0.270483136177063,0.789796650409698,-48.2428588867188,0.117783725261688,0.151185423135757,0.457142740488052,2012-01-01 14:10:40
1.00818336009979,44,-14.4113636016846,0.343181759119034,0.409665018320084,0.911363780498505,-19.5249996185303,0.11363659799099,0.138375461101532,0.324999541044235,-48.3250007629395,0.125000238418579,0.144796028733253,0.275001615285873,2012-01-01 14:10:41
1.01873171329498,49,-14.4673471450806,0.193752497434616,0.235075041651726,0.567346572875977,-19.5224494934082,0.138109266757965,0.17410446703434,0.477550715208054,-48.2551040649414,0.141107559204102,0.173865169286728,0.455103427171707,2012-01-01 14:10:42
1.01295828819275,36,-14.0500001907349,0.288888901472092,0.353160291910172,0.649999678134918,-19.4527778625488,0.102777801454067,0.123572021722794,0.252777218818665,-48.3111114501953,0.131481811404228,0.169603675603867,0.388888984918594,2012-01-01 14:10:43
1.00870835781097,36,-13.2388887405396,0.347839504480362,0.421160906553268,1.13888883590698,-19.3055553436279,0.144443988800049,0.180960863828659,0.505554676055908,-48.1749992370605,0.106944032013416,0.129903644323349,0.274999290704727,2012-01-01 14:10:44
1.008504986763,39,-14.202564239502,0.397896081209183,0.464916378259659,1.00256443023682,-19.5666675567627,0.107692539691925,0.1307442933321,0.266665935516357,-48.3589744567871,0.127153754234314,0.153118163347244,0.341025620698929,2012-01-01 14:10:45
1.00976502895355,49,-14.6755104064941,0.21066215634346,0.255973994731903,0.575510025024414,-19.5020408630371,0.140858173370361,0.172010764479637,0.402040779590607,-48.3632659912109,0.130945846438408,0.158685818314552,0.336735010147095,2012-01-01 14:10:46
1.01180505752563,36,-14.9333333969116,0.120370276272297,0.154560342431068,0.433333575725555,-19.6166667938232,0.10370396822691,0.125830814242363,0.283332616090775,-48.25,0.0944438055157661,0.11426055431366,0.250000417232513,2012-01-01 14:10:47
1.00340163707733,42,-14.7476196289062,0.400000065565109,0.466618120670319,0.8523810505867,-19.6499996185303,0.111905105412006,0.131384894251823,0.250000864267349,-48.2357139587402,0.164285659790039,0.191263392567635,0.364287137985229,2012-01-01 14:10:48
1.00911331176758,49,-15.1836738586426,0.205081149935722,0.249364018440247,0.583673357963562,-19.8591842651367,0.186172112822533,0.225803092122078,0.559182941913605,-48.0795936584473,0.0886304080486298,0.114249408245087,0.32040873169899,2012-01-01 14:10:49
1.01531672477722,36,-15.0749998092651,0.266666650772095,0.320047736167908,0.775000095367432,-19.9472217559814,0.12438277900219,0.151815146207809,0.35277858376503,-48.130558013916,0.098919153213501,0.130850613117218,0.330557405948639,2012-01-01 14:10:50
1.01872670650482,43,-14.902325630188,0.234721466898918,0.277437090873718,0.597674250602722,-20.1302337646484,0.120714269578457,0.142298579216003,0.330231904983521,-48.0511627197266,0.0894543901085854,0.106470167636871,0.251164734363556,2012-01-01 14:10:51
1.17128169536591,19,-15.2631578445435,0.277008324861526,0.30815327167511,0.536842107772827,-20.4315795898438,0.120775461196899,0.159117758274078,0.468420416116714,-47.7631568908691,0.129639565944672,0.152903392910957,0.26315850019455,2012-01-01 14:10:53
1.00359165668488,34,-14.014705657959,0.257612466812134,0.327317416667938,0.714705944061279,-20.6647052764893,0.13148806989193,0.162485122680664,0.335293829441071,-47.6088256835938,0.17404805123806,0.193067371845245,0.308824777603149,2012-01-01 14:10:54
1.01644003391266,49,-15.5448980331421,0.436234980821609,0.544756591320038,1.24489796161652,-20.8632659912109,0.10837097465992,0.138053119182587,0.33673506975174,-47.191837310791,0.201832428574562,0.23890645802021,0.508163392543793,2012-01-01 14:10:55
1.01588666439056,37,-16.2918930053711,0.225420102477074,0.282248139381409,0.608107209205627,-20.8837833404541,0.112928703427315,0.151592344045639,0.383783996105194,-47.3891906738281,0.093937836587429,0.115744203329086,0.289187341928482,2012-01-01 14:10:56
1.00741338729858,37,-15.8864870071411,0.295690447092056,0.355772703886032,0.786486446857452,-21.0513515472412,0.125639319419861,0.163775756955147,0.448648452758789,-47.3837852478027,0.148137763142586,0.177845448255539,0.383784621953964,2012-01-01 14:10:57
1.01592838764191,47,-15.3063831329346,0.436306059360504,0.53451281785965,1.20638263225555,-20.5531921386719,0.434495210647583,0.547664701938629,1.5531919002533,-47.4063835144043,0.184970453381538,0.22541144490242,0.493617862462997,2012-01-01 14:10:58
1.02043330669403,34,-15.4764709472656,0.516263008117676,0.591637313365936,1.37647044658661,-19.5941181182861,0.411764830350876,0.480160117149353,0.994117736816406,-47.9117660522461,0.155017152428627,0.211110010743141,0.588234722614288,2012-01-01 14:10:59
1.00565838813782,43,-14.4116277694702,0.497566252946854,0.64563262462616,1.61162793636322,-20.7674427032471,0.259816080331802,0.330412656068802,0.832558155059814,-47.6372108459473,0.174147799611092,0.21569050848484,0.537207961082458,2012-01-01 14:11:00
1.00423502922058,43,-15.1674423217773,0.380313694477081,0.473345816135406,1.26744151115417,-20.9837207794189,0.149161741137505,0.2010787576437,0.516278803348541,-47.1953506469727,0.140075072646141,0.173812553286552,0.404652535915375,2012-01-01 14:11:01
1.01662003993988,30,-15.5733337402344,0.241777643561363,0.286278694868088,0.673333048820496,-21.2366676330566,0.125777795910835,0.164282873272896,0.43666610121727,-47.1599998474121,0.150666236877441,0.174355700612068,0.339999258518219,2012-01-01 14:11:02
1.00646328926086,43,-14.3953495025635,0.814710676670074,1.15415394306183,4.09534883499146,-21.1976757049561,0.15619270503521,0.211845129728317,0.602326393127441,-47.3255805969238,0.301785171031952,0.380998432636261,0.874418497085571,2012-01-01 14:11:03
1.01363170146942,49,-2.16326522827148,4.10195779800415,4.92965602874756,10.4367351531982,-25.432653427124,2.30412316322327,2.75313448905945,5.46734619140625,-45.6081657409668,1.36684691905975,1.69354546070099,4.0081615447998,2012-01-01 14:11:04
1.00512170791626,31,5.99032258987427,3.06930303573608,3.74789023399353,9.3903226852417,-25.9612903594971,2.76649308204651,3.46900343894958,7.66128969192505,-43.8096771240234,2.19583797454834,2.67586088180542,6.00967884063721,2012-01-01 14:11:05
1.00848162174225,43,4.3418607711792,2.27809643745422,2.67748880386353,5.05813980102539,-24.0186042785645,2.62076783180237,3.29673933982849,8.88139629364014,-45.2279090881348,1.85256886482239,2.33341002464294,6.52790689468384,2012-01-01 14:11:06
1.01267004013062,48,2.63958334922791,1.93706595897675,2.26179695129395,4.46041631698608,-22.9833335876465,1.96805548667908,2.37402033805847,4.88333320617676,-46.6104164123535,1.2803817987442,1.50072741508484,2.88958263397217,2012-01-01 14:11:07
1.01871502399445,27,0.600000023841858,1.65925931930542,1.97465431690216,3.79999995231628,-22.3703708648682,2.35226368904114,2.87232208251953,6.32962989807129,-46.792594909668,1.27489709854126,1.53234875202179,3.19259119033813,2012-01-01 14:11:08
1.01841330528259,42,-2.41190481185913,1.92981863021851,2.31323337554932,5.21190500259399,-24.0690479278564,1.66757392883301,1.97694933414459,3.73095321655273,-46.7309532165527,0.844104528427124,1.01851654052734,2.43095397949219,2012-01-01 14:11:09
1.00427997112274,49,16.3877563476562,5.4670557975769,6.1019115447998,12.3877553939819,-25.2653064727783,6.50037527084351,7.72870492935181,16.2346935272217,-38.2265319824219,5.24639749526978,6.11514616012573,9.8734712600708,2012-01-01 14:11:10
1.01975834369659,45,-20.8066673278809,9.37185192108154,12.3622436523438,24.9066677093506,-43.3711128234863,2.53491353988647,3.32877159118652,7.37111186981201,-19.3755550384521,9.41708660125732,11.1951808929443,24.6755561828613,2012-01-01 14:11:11
1.00020670890808,35,-23.4542865753174,2.8834285736084,3.41403341293335,6.55428647994995,-47.0142860412598,0.746938586235046,0.887095510959625,1.81428563594818,-18.8400001525879,2.5291428565979,3.15714168548584,7.65999984741211,2012-01-01 14:11:12
1.00529837608337,49,-22.0061225891113,1.35726773738861,1.64371502399445,3.69387793540955,-48.8387756347656,0.466555833816528,0.681779384613037,2.03877711296082,-16.451021194458,1.1845897436142,1.33342015743256,2.64897966384888,2012-01-01 14:11:13
1.0019633769989,36,-19.0249996185303,5.07083368301392,6.34518098831177,13.7250003814697,-45.658332824707,1.90925931930542,2.6276707649231,5.85833501815796,-24.9472217559814,2.96358036994934,3.45273542404175,6.0527777671814,2012-01-01 14:11:14
1.1442266702652,44,-19.2227268218994,9.62334728240967,11.412670135498,23.3772754669189,-23.9068183898926,7.59710788726807,9.3940601348877,20.606819152832,-39.6454544067383,3.35247921943665,3.84822583198547,9.65454387664795,2012-01-01 14:11:15
1.02030670642853,47,-20.3680858612061,7.2426438331604,8.00345993041992,14.0680847167969,-12.7276592254639,4.23440456390381,4.61757516860962,8.32765960693359,-46.9106407165527,2.90312314033508,3.17310690879822,5.01063776016235,2012-01-01 14:11:16
1.01628172397614,37,14.3378381729126,4.55149745941162,6.27127122879028,19.3378372192383,-29.8648662567139,12.8239593505859,14.3171081542969,25.8648662567139,-33.1459465026855,9.3406867980957,10.2960138320923,18.154052734375,2012-01-01 14:11:17
1.00071501731873,44,20.5363636016846,1.58347105979919,1.84281039237976,3.06363654136658,-40.7090911865234,2.78223133087158,2.98479604721069,5.10908937454224,-21.254545211792,5.42644643783569,6.06650495529175,10.4545459747314,2012-01-01 14:11:18
