"diffSecs","latitude","longitude","altitude","time"
33.7549998760223,42.37406895,-70.99378948,10.1999998092651,2011-12-16 18:59:02
0.980000019073486,42.37406335,-70.99379815,10.1999998092651,2011-12-16 18:59:03
1.04500007629395,42.37406418,-70.99379641,10.1999998092651,2011-12-16 18:59:04
0.952999830245972,42.37407635,-70.99377821,13,2011-12-16 18:59:05
1.0090000629425,42.37408478,-70.99377003,15.3000001907349,2011-12-16 18:59:06
0.98799991607666,42.37409703,-70.99375834,17.5,2011-12-16 18:59:07
1.01200008392334,42.37409797,-70.99375794,17.8999996185303,2011-12-16 18:59:08
0.989000082015991,42.3741073,-70.99375193,19.8999996185303,2011-12-16 18:59:09
0.998999834060669,42.37411191,-70.993749,20.5,2011-12-16 18:59:10
0.998000144958496,42.37411153,-70.9937491,20.2999992370605,2011-12-16 18:59:11
1.03200006484985,42.37410644,-70.99374929,19.1000003814697,2011-12-16 18:59:12
0.96999979019165,42.37410254,-70.99375141,18.6000003814697,2011-12-16 18:59:13
1.01100015640259,42.37409973,-70.99375383,17.8999996185303,2011-12-16 18:59:14
1.01799988746643,42.37410003,-70.99375323,17.7999992370605,2011-12-16 18:59:15
0.991000175476074,42.37410095,-70.99375308,17.7999992370605,2011-12-16 18:59:16
0.979999780654907,42.374101,-70.99375308,17.7999992370605,2011-12-16 18:59:17
1,42.37410109,-70.99375277,17.6000003814697,2011-12-16 18:59:18
1.00100016593933,42.37410131,-70.99375211,17.2999992370605,2011-12-16 18:59:19
1.0019998550415,42.37410116,-70.99375246,17.3999996185303,2011-12-16 18:59:20
0.996000051498413,42.37410117,-70.9937524,17.3999996185303,2011-12-16 18:59:21
1.00099992752075,42.37410107,-70.99375258,17.5,2011-12-16 18:59:22
1,42.37410111,-70.99375251,17.5,2011-12-16 18:59:23
1.00200009346008,42.37410102,-70.9937526,17.5,2011-12-16 18:59:24
1.01800012588501,42.37410097,-70.99375263,17.5,2011-12-16 18:59:25
1.0019998550415,42.37410083,-70.99375282,17.6000003814697,2011-12-16 18:59:26
0.986999988555908,42.37410089,-70.9937527,17.5,2011-12-16 18:59:27
1.02100014686584,42.37410089,-70.99375272,17.3999996185303,2011-12-16 18:59:28
0.971999883651733,42.37410087,-70.99375309,17.6000003814697,2011-12-16 18:59:29
1.00699996948242,42.37410106,-70.99375247,17.3999996185303,2011-12-16 18:59:30
0.999000072479248,42.37410109,-70.99375236,17.2999992370605,2011-12-16 18:59:31
1,42.37410114,-70.99375219,17.2999992370605,2011-12-16 18:59:32
1,42.37410123,-70.99375212,17.2999992370605,2011-12-16 18:59:33
0.99399995803833,42.37410124,-70.99375209,17.3999996185303,2011-12-16 18:59:34
1.0090000629425,42.37410138,-70.99375175,17.2999992370605,2011-12-16 18:59:35
0.988999843597412,42.37410138,-70.99375181,17.2999992370605,2011-12-16 18:59:36
1.01100015640259,42.37410142,-70.99375166,17.3999996185303,2011-12-16 18:59:37
1,42.37410129,-70.99375157,17.3999996185303,2011-12-16 18:59:38
0.993000030517578,42.37410132,-70.99375147,17.3999996185303,2011-12-16 18:59:39
0.994999885559082,42.37410135,-70.99375139,17.3999996185303,2011-12-16 18:59:40
1.17199993133545,42.37410137,-70.99375138,17.3999996185303,2011-12-16 18:59:41
0.833000183105469,42.37410138,-70.99375137,17.3999996185303,2011-12-16 18:59:42
0.995999813079834,42.37410149,-70.99375118,17.3999996185303,2011-12-16 18:59:43
1.01300001144409,42.3741015,-70.99375105,17.3999996185303,2011-12-16 18:59:44
0.986000061035156,42.37410136,-70.99375091,17.2999992370605,2011-12-16 18:59:45
1.00099992752075,42.37410137,-70.99375069,17.2000007629395,2011-12-16 18:59:46
1.00200009346008,42.37410151,-70.99375046,17.2000007629395,2011-12-16 18:59:47
1.01800012588501,42.37410175,-70.9937501,17.1000003814697,2011-12-16 18:59:48
0.979999780654907,42.37410241,-70.99374911,16.7999992370605,2011-12-16 18:59:49
1.06400012969971,42.37410293,-70.99374835,16.6000003814697,2011-12-16 18:59:50
0.934000015258789,42.37410302,-70.99374822,16.6000003814697,2011-12-16 18:59:51
1.00399994850159,42.37410311,-70.99374806,16.6000003814697,2011-12-16 18:59:52
0.996000051498413,42.3741033,-70.99374769,16.5,2011-12-16 18:59:53
1,42.37410342,-70.99374744,16.5,2011-12-16 18:59:54
1.0019998550415,42.37410361,-70.99374716,16.5,2011-12-16 18:59:55
1,42.37410377,-70.99374696,16.3999996185303,2011-12-16 18:59:56
0.999000072479248,42.37410389,-70.99374673,16.3999996185303,2011-12-16 18:59:57
1.00099992752075,42.37410402,-70.99374653,16.2999992370605,2011-12-16 18:59:58
