"diffSecs","N.samples","x.mean","x.absolute.deviation","x.standard.deviation","x.max.deviation","x.PSD.1","x.PSD.3","x.PSD.6","x.PSD.10","y.mean","y.absolute.deviation","y.standard.deviation","y.max.deviation","y.PSD.1","y.PSD.3","y.PSD.6","y.PSD.10","z.mean","z.absolute.deviation","z.standard.deviation","z.max.deviation","z.PSD.1","z.PSD.3","z.PSD.6","z.PSD.10","time"
0,31,-1.11131489276886,0.0932907313108444,0.113010384142399,0.300842672586441,0.161303609609604,0.251288205385208,0.115614362061024,0.00159337697550654,-0.440033853054047,0.0629013478755951,0.0803188756108284,0.24643163383007,0.0178959686309099,0.0464762337505817,0.03634412586689,0.0485615357756615,9.75160598754883,0.0711265951395035,0.0854083150625229,0.229349166154861,0.00140350311994553,0.0694007277488708,0.137860521674156,0.0237417928874493,2011-12-20 20:00:02
1.00074505805969,43,-1.20872664451599,0.153777182102203,0.184487894177437,0.33091738820076,2.50920844078064,6.930992603302,4.28100442886353,0.318048149347305,-0.935508787631989,0.169455081224442,0.222112119197845,0.692395031452179,4.55748748779297,6.49424886703491,1.96308207511902,2.6766459941864,9.59113121032715,0.176286295056343,0.222115680575371,0.519980669021606,2.43791794776917,3.32953524589539,1.8948540687561,0.839383900165558,2011-12-20 20:00:03
1.01640832424164,38,-1.53654718399048,0.106487713754177,0.133405819535255,0.336522936820984,0.249433264136314,1.19455540180206,2.12382078170776,0.307344496250153,-1.38609254360199,0.145442649722099,0.205179706215858,0.729047000408173,0.0241410359740257,0.901915371417999,2.37586355209351,0.622828841209412,9.64793682098389,0.0817130208015442,0.100383885204792,0.266586393117905,0.250932276248932,0.426150530576706,0.380619525909424,0.111974932253361,2011-12-20 20:00:04
1.01276004314423,44,-1.33972203731537,0.0525486506521702,0.0626962184906006,0.123697571456432,0.11691926419735,0.227152138948441,0.403092235326767,0.36500284075737,-1.47790670394897,0.0640471428632736,0.0781063959002495,0.183428883552551,0.376035302877426,0.589548289775848,0.188279762864113,0.523558437824249,9.62834644317627,0.0968507304787636,0.128668591380119,0.443082362413406,0.356624990701675,0.427492886781693,0.785898864269257,1.64227509498596,2011-12-20 20:00:05
1.04629504680634,41,-1.53462111949921,0.0749762356281281,0.088621124625206,0.210962548851967,0.00310366484336555,0.289078503847122,0.380107909440994,0.261620372533798,-1.36934316158295,0.108742386102676,0.138530537486076,0.395853757858276,0.0513272844254971,0.523578941822052,1.60159087181091,0.247947573661804,9.55382919311523,0.13525116443634,0.197188660502434,0.629778206348419,0.00234366999939084,0.0158897563815117,0.123034201562405,0.596836745738983,2011-12-20 20:00:06
1.00890839099884,43,-1.5850282907486,0.0742101967334747,0.088044784963131,0.209588676691055,0.111607551574707,0.631381273269653,0.684013068675995,0.0433507822453976,-1.41717493534088,0.0575988292694092,0.0746064931154251,0.171730384230614,0.0570217147469521,0.151650622487068,0.467594653367996,0.114278458058834,9.61279773712158,0.0922641977667809,0.117067001760006,0.272305935621262,0.0897110253572464,0.0557636916637421,0.652874827384949,0.516355156898499,2011-12-20 20:00:07
