"diffSecs","level","azimuth.mean","azimuth.absolute.deviation","azimuth.standard.deviation","azimuth.max.deviation","pitch.mean","pitch.absolute.deviation","pitch.standard.deviation","pitch.max.deviation","roll.mean","roll.absolute.deviation","roll.standard.deviation","roll.max.deviation","time"
0,44,-13.5250005722046,0.703409075737,0.793188273906708,1.57500016689301,-48.1113662719727,0.501756310462952,0.578091025352478,1.11136448383331,36.3818206787109,2.32727265357971,2.57401967048645,4.08181953430176,2011-12-25 09:00:38
1.00589334964752,36,-12.3222227096558,0.2148147970438,0.279991090297699,0.722222030162811,-47.3111114501953,0.616666913032532,0.724100232124329,1.61111104488373,30.3361110687256,1.16743838787079,1.32521569728851,2.33611154556274,2011-12-25 09:00:39
1.01886832714081,40,-11.7925004959106,0.400999963283539,0.475598275661469,0.907499611377716,-41.0925025939941,3.65437531471252,4.23676681518555,7.49249887466431,22.8175010681152,3.96487498283386,4.56009244918823,7.51749992370605,2011-12-25 09:00:40
1.19984328746796,45,-12.8711109161377,1.11713576316833,1.22902345657349,2.07111096382141,-30.7488899230957,0.998617231845856,1.15597414970398,2.55111002922058,13.2444448471069,0.822716057300568,0.994106113910675,2.15555596351624,2011-12-25 09:00:41
1.0694283246994,46,-10.6804351806641,0.482986658811569,0.548761188983917,1.31956505775452,-30.3195648193359,0.281379789113998,0.368085294961929,1.11956477165222,13.6695652008057,0.281663447618484,0.360476464033127,1.16956543922424,2011-12-25 09:00:42
68.3942031860352,23,-12.973913192749,0.722873389720917,0.863369286060333,1.52608680725098,-30.1913051605225,0.99357271194458,2.39181780815125,11.1086950302124,12.5956525802612,0.297920554876328,0.675328016281128,3.10434746742249,2011-12-25 09:01:50
1.00582337379456,41,-14.3756103515625,0.403093427419662,0.482261210680008,1.12439000606537,-37.5682945251465,1.4522305727005,1.68832981586456,3.63170719146729,12.151219367981,1.24283158779144,1.47980260848999,3.24878096580505,2011-12-25 09:01:51
1.00653171539307,40,-24.1049995422363,3.62474989891052,4.06275463104248,7.80499935150146,-34.1375007629395,0.361874788999557,0.441976934671402,0.837501347064972,7.52250003814697,0.536374986171722,0.70053106546402,1.87750041484833,2011-12-25 09:01:52
1.00165164470673,42,-32.6119041442871,0.81383204460144,1.07641434669495,2.91190457344055,-32.1380958557129,0.335147231817245,0.409966558218002,0.86190402507782,6.71904754638672,0.544444441795349,0.697696268558502,1.78095233440399,2011-12-25 09:01:53
1.01951837539673,49,-31.8204097747803,0.747272133827209,0.824863731861115,1.27959334850311,-32.5489807128906,0.350186973810196,0.389202028512955,0.75101900100708,6.4265308380127,0.247230291366577,0.302894532680511,0.673469245433807,2011-12-25 09:01:54
1.0195050239563,39,-30.2102565765381,0.553583264350891,0.635204434394836,1.31025719642639,-33.0179481506348,0.326101094484329,0.363650649785995,0.617947816848755,6.53333330154419,0.158974334597588,0.18856181204319,0.433333516120911,2011-12-25 09:01:55
53.9736747741699,35,-29.0714282989502,0.552653074264526,1.0058605670929,5.32857275009155,-33.665714263916,0.39836722612381,1.11738049983978,6.43428707122803,6.89428567886353,0.396571427583694,1.19497585296631,6.90571451187134,2011-12-25 09:02:49
1.02009832859039,32,-31.3937511444092,0.57890647649765,0.791730046272278,2.50625109672546,-37.7937507629395,0.774999737739563,0.929023921489716,2.00624895095825,10.046875,0.727734327316284,0.930384397506714,2.65312457084656,2011-12-25 09:02:50
1.26031172275543,29,-31.4655170440674,0.171462580561638,0.202187851071358,0.365517258644104,-33.8551712036133,0.702972412109375,0.836489319801331,1.74482941627502,7.28620719909668,0.400475591421127,0.47541207075119,0.813793361186981,2011-12-25 09:02:51
1.0141316652298,41,-31.192684173584,0.194646120071411,0.248301655054092,0.707316219806671,-32.1463432312012,0.110885784029961,0.136323466897011,0.346341162919998,6.15609788894653,0.137656271457672,0.16681931912899,0.443902254104614,2011-12-25 09:02:53
1.01885163784027,49,-32.6897964477539,1.34627246856689,1.60015892982483,3.61020278930664,-32.9836730957031,0.370512396097183,0.440476059913635,0.916327357292175,7.12040853500366,1.04056644439697,1.25941026210785,2.77959227561951,2011-12-25 09:02:54
1.01485002040863,38,-38.2236862182617,0.977562308311462,1.14235067367554,2.17631649971008,-33.8815803527832,0.166759222745895,0.193112030625343,0.318420916795731,10.3473682403564,0.373961240053177,0.423479855060577,0.747368216514587,2011-12-25 09:02:55
1.0117666721344,38,-43.6263160705566,2.31468176841736,2.57842135429382,4.07368421554565,-33.8473701477051,0.44542932510376,0.509249627590179,1.14736831188202,12.1078948974609,0.847229897975922,0.986322700977325,1.79210567474365,2011-12-25 09:02:56
3.32313823699951,8,-47.8250007629395,0.21875,0.307204633951187,0.724998474121094,-34.5750007629395,0.274999618530273,0.307204633951187,0.474998474121094,14.0625,0.237500071525574,0.273575931787491,0.43749988079071,2011-12-25 09:02:59
1.01866161823273,46,-45.4565238952637,0.816635429859161,0.950435400009155,1.74347829818726,-33.7217407226562,0.543289601802826,0.649385809898376,1.37826251983643,12.9173917770386,0.558979213237762,0.64616072177887,1.28260827064514,2011-12-25 09:03:00
1.1018533706665,33,-46.9606056213379,0.776308834552765,0.906187415122986,1.66060757637024,-33.9545478820801,0.467768490314484,0.519376456737518,0.85454398393631,13.6424245834351,0.861891627311707,0.970482587814331,1.65757584571838,2011-12-25 09:03:01
1.11081171035767,34,-48.8970603942871,0.397924065589905,0.518757164478302,1.29705739021301,-34.8441200256348,0.423875778913498,0.520854234695435,0.855882108211517,16.0058822631836,0.230449959635735,0.300921350717545,0.605882048606873,2011-12-25 09:03:02
1.01312005519867,49,-47.2755126953125,0.177009299397469,0.218090578913689,0.575510144233704,-35.3408164978027,0.300291478633881,0.338012278079987,0.640816330909729,14.7673473358154,0.459225356578827,0.526981294155121,1.13265347480774,2011-12-25 09:03:03
1.00490999221802,36,-47.0111122131348,0.262345910072327,0.31515234708786,0.611110389232635,-34.6416664123535,0.100925222039223,0.123321659862995,0.258333742618561,14.2555561065674,0.124691478908062,0.148032441735268,0.344444632530212,2011-12-25 09:03:04
1.0055183172226,42,-47.0499992370605,0.271428823471069,0.33753314614296,0.649999797344208,-35.0166664123535,0.292063236236572,0.323607683181763,0.516667604446411,14.2714290618896,0.203401461243629,0.236326783895493,0.428571105003357,2011-12-25 09:03:05
1.01230335235596,34,-46.1294136047363,0.229411631822586,0.294587939977646,0.72941118478775,-35.3647079467773,0.12733618915081,0.156960889697075,0.335294276475906,14.0470590591431,0.155017390847206,0.198872327804565,0.452941000461578,2011-12-25 09:03:06
1.01735663414001,50,-46.044002532959,0.215040147304535,0.259352892637253,0.455999284982681,-35.4599990844727,0.124799892306328,0.154919415712357,0.359998613595963,14.0440006256104,0.164479926228523,0.189905166625977,0.455999821424484,2011-12-25 09:03:07
1.02553498744965,33,-46.1151542663574,0.15169832110405,0.181109488010406,0.384847581386566,-35.4212112426758,0.0659319460391998,0.0844149142503738,0.17878931760788,14.254545211792,0.143250808119774,0.175966516137123,0.354545086622238,2011-12-25 09:03:08
1.01105999946594,36,-46.3166656494141,0.136111229658127,0.157232865691185,0.316667348146439,-35.3722229003906,0.143518835306168,0.17096321284771,0.372223109006882,14.3277778625488,0.141975402832031,0.162636518478394,0.327777922153473,2011-12-25 09:03:09
1.01090168952942,41,-46.6682929992676,0.1980961561203,0.242385432124138,0.568291008472443,-35.4561004638672,0.126353532075882,0.156250268220901,0.443902909755707,14.3317079544067,0.176799550652504,0.214634120464325,0.468292713165283,2011-12-25 09:03:10
1.00196003913879,49,-46.9469413757324,0.316367924213409,0.403606832027435,0.846937358379364,-35.7000007629395,0.106121860444546,0.135525777935982,0.299999326467514,14.6102046966553,0.147188603878021,0.178708374500275,0.38979572057724,2011-12-25 09:03:11
1.01294338703156,36,-46.9944458007812,0.223147943615913,0.275826275348663,0.505554914474487,-35.5138893127441,0.116975747048855,0.141721338033676,0.28610959649086,14.6361112594604,0.129012271761894,0.161851778626442,0.436111509799957,2011-12-25 09:03:12
1.01682829856873,45,-47.2777786254883,0.258765429258347,0.315446197986603,0.677776277065277,-35.3555564880371,0.0938276872038841,0.110665887594223,0.255553871393204,14.6111116409302,0.151604846119881,0.192321717739105,0.411111503839493,2011-12-25 09:03:13
1.01746499538422,44,-47.2340927124023,0.199173226952553,0.259319961071014,0.634089529514313,-35.259090423584,0.0882225409150124,0.102951869368553,0.240908443927765,14.5477275848389,0.134297475218773,0.158814623951912,0.347727656364441,2011-12-25 09:03:14
1.18552660942078,45,-47.1111106872559,0.145678773522377,0.189996778964996,0.51110965013504,-35.0511131286621,0.0810871720314026,0.0980302765965462,0.251112967729568,14.5155553817749,0.0904691219329834,0.111465983092785,0.284444391727448,2011-12-25 09:03:15
1.00145494937897,43,-47.4395370483398,0.225635498762131,0.280480891466141,0.560464262962341,-34.9488372802734,0.184856787323952,0.218208312988281,0.448837727308273,14.4139537811279,0.132503941655159,0.173314332962036,0.413953691720963,2011-12-25 09:03:16
1.00811994075775,51,-47.5058822631836,0.351095914840698,0.405071824789047,0.805882394313812,-34.9549026489258,0.109727025032043,0.137646704912186,0.354900598526001,14.4882354736328,0.186389818787575,0.221976056694984,0.48823544383049,2011-12-25 09:03:17
1.00479328632355,45,-47.4755554199219,0.28938290476799,0.35349428653717,0.675557136535645,-34.9799995422363,0.113777972757816,0.130979672074318,0.280000299215317,14.5377779006958,0.141333267092705,0.163691893219948,0.337778151035309,2011-12-25 09:03:18
1.00375497341156,38,-47.5842094421387,0.231579020619392,0.263105392456055,0.515791237354279,-34.955265045166,0.123684331774712,0.146354958415031,0.255263268947601,14.3815793991089,0.15193909406662,0.187581896781921,0.481578558683395,2011-12-25 09:03:19
1.00512838363647,43,-47.7767448425293,0.309356331825256,0.368426650762558,0.676742792129517,-34.751163482666,0.136073008179665,0.161924287676811,0.351162046194077,14.4767446517944,0.116819784045219,0.14279143512249,0.423256099224091,2011-12-25 09:03:20
1.02019166946411,46,-47.732608795166,0.232514008879662,0.275881469249725,0.567389786243439,-34.8826103210449,0.137051478028297,0.159216225147247,0.317391186952591,14.5413045883179,0.150756046175957,0.184833630919456,0.458695441484451,2011-12-25 09:03:21
1.01876497268677,43,-47.430233001709,0.266738623380661,0.309939622879028,0.730232656002045,-34.8488388061523,0.115089565515518,0.135323941707611,0.251164555549622,14.5302324295044,0.1188750192523,0.142298102378845,0.269767463207245,2011-12-25 09:03:23
1.00400996208191,40,-47.7724990844727,0.200249895453453,0.251979947090149,0.627500891685486,-34.7700004577637,0.0894993096590042,0.114454798400402,0.270000278949738,14.6050004959106,0.175999954342842,0.212073102593422,0.405000358819962,2011-12-25 09:03:24
1.12960004806519,40,-48.1025009155273,0.257124841213226,0.286781638860703,0.60250061750412,-34.9025001525879,0.0783746838569641,0.117233671247959,0.30249872803688,14.6549997329712,0.12499988079071,0.148239612579346,0.344999819993973,2011-12-25 09:03:25
1.01166832447052,39,-47.5948715209961,0.200657814741135,0.265975534915924,0.594872713088989,-34.8615379333496,0.118343740701675,0.144320726394653,0.338461458683014,14.5256414413452,0.139118939638138,0.169036328792572,0.425640851259232,2011-12-25 09:03:26
1.01727998256683,50,-47.7740020751953,0.242159843444824,0.317370533943176,0.725999593734741,-35.1360015869141,0.151679411530495,0.189483225345612,0.535998463630676,14.8159999847412,0.113920107483864,0.141929611563683,0.31600022315979,2011-12-25 09:03:27
1.00799667835236,46,-47.5434799194336,0.270888686180115,0.330778002738953,0.75652015209198,-35.3978271484375,0.0981104522943497,0.124218337237835,0.302174270153046,14.3956527709961,0.182986795902252,0.22453473508358,0.50434821844101,2011-12-25 09:03:28
1.01283669471741,39,-47.6666679382324,0.131623268127441,0.166922524571419,0.466666966676712,-35.4923095703125,0.0970415323972702,0.122756466269493,0.207692369818687,14.5897436141968,0.139250427484512,0.169152975082397,0.410256236791611,2011-12-25 09:03:29
1.00781333446503,41,-46.9048805236816,0.583819270133972,0.803028464317322,2.20487809181213,-35.7414627075195,0.254253417253494,0.292154252529144,0.541463434696198,14.382926940918,0.222486659884453,0.286188095808029,0.682927250862122,2011-12-25 09:03:30
1.03444671630859,45,-45.7955551147461,0.259456872940063,0.333304047584534,0.895554959774017,-35.8133354187012,0.115555942058563,0.148473650217056,0.386666774749756,13.7533330917358,0.123259298503399,0.149962931871414,0.353332936763763,2011-12-25 09:03:31
1.01233994960785,49,-45.8326530456543,0.301374703645706,0.366109073162079,0.73265129327774,-35.9367370605469,0.185089528560638,0.218243256211281,0.436735659837723,14.0326528549194,0.180341497063637,0.210332810878754,0.432652831077576,2011-12-25 09:03:32
1.01457500457764,42,-46.1238098144531,0.183219596743584,0.229709431529045,0.523808062076569,-36.2976188659668,0.0843531265854836,0.114409282803535,0.202380493283272,14.3738098144531,0.156009137630463,0.190312445163727,0.426190465688705,2011-12-25 09:03:33
