"diffSecs","level","azimuth.mean","azimuth.absolute.deviation","azimuth.standard.deviation","azimuth.max.deviation","pitch.mean","pitch.absolute.deviation","pitch.standard.deviation","pitch.max.deviation","roll.mean","roll.absolute.deviation","roll.standard.deviation","roll.max.deviation","time"
1.17799997329712,1,213.900009155273,0,0,0,-207.699996948242,0,0,0,65.9000015258789,0,0,0,2012-02-24 12:59:47
3.7279999256134,4,214.050003051758,0.0749988555908203,0.0866012200713158,0.149997711181641,-207.649993896484,0.0999984741210938,0.111803397536278,0.150001525878906,65.9250030517578,0.0374994277954102,0.0433006100356579,0.0749988555908203,2012-02-24 12:59:50
1.00399994850159,47,213.551071166992,0.583884656429291,0.669033169746399,1.44893300533295,-207.834045410156,0.300226956605911,0.383863598108292,1.16595494747162,66.1957473754883,0.246174901723862,0.284310638904572,0.504259467124939,2012-02-24 12:59:51
1.01699995994568,32,219.28125,1.00195288658142,1.25160789489746,3.28125286102295,-208.831253051758,0.326951920986176,0.388455003499985,0.931242942810059,64.390625,0.257616877555847,0.379439979791641,1.50937461853027,2012-02-24 12:59:52
1.16100001335144,50,215.352005004883,1.17840039730072,1.41226649284363,2.74800205230713,-208.404006958008,0.812479317188263,0.968701422214508,1.7959942817688,65.5400009155273,0.587199687957764,0.655133247375488,1.05999708175659,2012-02-24 12:59:54
1.00800013542175,39,215.343597412109,0.201447069644928,0.223944082856178,0.443582385778427,-211.128204345703,0.106506951153278,0.133874073624611,0.271800518035889,67.1205139160156,0.145169407129288,0.186986953020096,0.620514333248138,2012-02-24 12:59:55
1.14199995994568,39,215.512817382812,0.246547654271126,0.311472028493881,0.612815260887146,-210.238464355469,0.231164038181305,0.284302711486816,0.661544382572174,66.6205139160156,0.18527352809906,0.224384337663651,0.479484766721725,2012-02-24 12:59:56
1,39,215.538467407227,0.295858442783356,0.334829866886139,0.738461196422577,-210.238464355469,0.100987739861012,0.12530055642128,0.338454812765121,66.5846176147461,0.0702169463038445,0.0920947194099426,0.215387582778931,2012-02-24 12:59:57
1.00099992752075,36,215.425003051758,0.156942576169968,0.201900109648705,0.524993896484375,-210.305557250977,0.129013761878014,0.184006378054619,0.605561554431915,66.3583374023438,0.200462654232979,0.254269361495972,0.541666269302368,2012-02-24 12:59:58
1.01600003242493,52,214.988464355469,0.284614264965057,0.329132348299026,0.588455498218536,-210.096160888672,0.203994587063789,0.227835148572922,0.39616072177887,66.4788513183594,0.276257753372192,0.329532027244568,0.778843224048615,2012-02-24 12:59:59
1.00200009346008,26,215.350006103516,0.238462552428246,0.285886138677597,0.550005376338959,-210.303848266602,0.0896469205617905,0.115961104631424,0.203843340277672,66.75,0.146153822541237,0.178131327033043,0.350000232458115,2012-02-24 13:00:00
