"diffSecs","level","azimuth.mean","azimuth.absolute.deviation","azimuth.standard.deviation","azimuth.max.deviation","pitch.mean","pitch.absolute.deviation","pitch.standard.deviation","pitch.max.deviation","roll.mean","roll.absolute.deviation","roll.standard.deviation","roll.max.deviation","time"
1.00399994850159,29,-21.7068977355957,0.420927405357361,0.523865580558777,1.10689651966095,-19.4758625030518,1.08204519748688,1.26590716838837,2.62413811683655,-3.01379323005676,4.51486349105835,4.88951921463013,7.61379289627075,2012-03-04 09:48:38
1.00300002098083,44,-18.8999996185303,1.186363697052,1.44945132732391,3.49999928474426,-21.9659099578857,1.35847115516663,1.48369061946869,2.46590948104858,-1.30909097194672,3.70991730690002,4.14673042297363,6.59090900421143,2012-03-04 09:48:39
