"diffSecs","latitude","longitude","altitude","time"
572.776999950409,42.38216479,-70.99151309,1.29999995231628,2011-12-29 08:22:35
1.00999999046326,42.38214948,-70.99151607,2.5,2011-12-29 08:22:36
1.53900003433228,42.38213708,-70.99152664,-0.699999988079071,2011-12-29 08:22:38
0.994999885559082,42.38213405,-70.99152559,-0.600000023841858,2011-12-29 08:22:39
1.007000207901,42.3821219,-70.99150802,0,2011-12-29 08:22:40
0.995999813079834,42.3821211,-70.99151611,1.20000004768372,2011-12-29 08:22:41
0.995000123977661,42.38213134,-70.99152515,0.699999988079071,2011-12-29 08:22:42
0.996999979019165,42.38213713,-70.99153091,0.800000011920929,2011-12-29 08:22:43
1.01999998092651,42.38213337,-70.99153086,0.100000001490116,2011-12-29 08:22:44
0.982000112533569,42.3821296,-70.99153026,-0.200000002980232,2011-12-29 08:22:45
1.00299978256226,42.38213088,-70.9915317,0.100000001490116,2011-12-29 08:22:46
0.995000123977661,42.38213111,-70.99153143,0.200000002980232,2011-12-29 08:22:47
0.996000051498413,42.38213111,-70.99153139,0.200000002980232,2011-12-29 08:22:48
1.11500000953674,42.38213118,-70.9915315,0.100000001490116,2011-12-29 08:22:49
1.62899994850159,42.38213118,-70.9915315,0.100000001490116,2011-12-29 08:22:51
0.989000082015991,42.38218898,-70.99154634,-0.899999976158142,2011-12-29 08:22:52
0.995999813079834,42.38224582,-70.99158118,-2.79999995231628,2011-12-29 08:22:53
1.06200003623962,42.38228766,-70.9916587,-3.90000009536743,2011-12-29 08:22:54
0.932000160217285,42.38233491,-70.99178321,-5.19999980926514,2011-12-29 08:22:55
0.35699987411499,42.38238128,-70.99189697,-7,2011-12-29 08:22:55
2.79800009727478,42.38245231,-70.99220268,-6,2011-12-29 08:22:58
0.845000028610229,42.38246141,-70.99235622,-7.30000019073486,2011-12-29 08:22:59
1.0239999294281,42.38247494,-70.99250147,-8.5,2011-12-29 08:23:00
0.98799991607666,42.38249444,-70.99264491,-8.5,2011-12-29 08:23:01
0.992000102996826,42.38250516,-70.99279513,-8.30000019073486,2011-12-29 08:23:02
0.99399995803833,42.38252485,-70.99294874,-9,2011-12-29 08:23:03
0.994999885559082,42.38253146,-70.99310389,-9.39999961853027,2011-12-29 08:23:04
0.989000082015991,42.3825438,-70.99324994,-9.39999961853027,2011-12-29 08:23:05
1.00500011444092,42.38255639,-70.9933971,-9.39999961853027,2011-12-29 08:23:06
1.00099992752075,42.3825753,-70.99354323,-9.30000019073486,2011-12-29 08:23:07
1.00499987602234,42.38260406,-70.99369627,-10.1000003814697,2011-12-29 08:23:08
1,42.38262162,-70.9938449,-10.1000003814697,2011-12-29 08:23:09
1,42.38263322,-70.99399208,-10.5,2011-12-29 08:23:10
2.01800012588501,42.38267878,-70.99428709,-9.5,2011-12-29 08:23:12
0.99399995803833,42.38267214,-70.994482,-11.8000001907349,2011-12-29 08:23:13
1,42.38267235,-70.99463167,-12.1000003814697,2011-12-29 08:23:14
1.14199995994568,42.38269001,-70.99477647,-11.8000001907349,2011-12-29 08:23:15
0.865000009536743,42.38271312,-70.99493797,-12.1000003814697,2011-12-29 08:23:16
1.13600015640259,42.38273744,-70.99508947,-12.3999996185303,2011-12-29 08:23:17
0.837999820709229,42.38276213,-70.99524337,-12.3999996185303,2011-12-29 08:23:18
1.11400008201599,42.38278681,-70.99539719,-12.3999996185303,2011-12-29 08:23:19
0.900000095367432,42.38281037,-70.99555457,-12.3000001907349,2011-12-29 08:23:20
2.99699997901917,42.38289055,-70.99608746,-14.8999996185303,2011-12-29 08:23:23
1.00899982452393,42.38294711,-70.99627012,-14.3000001907349,2011-12-29 08:23:24
0.992000102996826,42.38299123,-70.99645269,-14.1999998092651,2011-12-29 08:23:25
1,42.38304265,-70.99663816,-14.3000001907349,2011-12-29 08:23:26
1.00399994850159,42.38309776,-70.99680938,-13.6999998092651,2011-12-29 08:23:27
1.00500011444092,42.38316187,-70.99698029,-12.3000001907349,2011-12-29 08:23:28
1.31900000572205,42.38327275,-70.99726136,-11.8000001907349,2011-12-29 08:23:29
0.965999841690063,42.38333677,-70.99741973,-11.5,2011-12-29 08:23:30
0.985000133514404,42.38339528,-70.99758806,-11.5,2011-12-29 08:23:31
1.00099992752075,42.38344434,-70.99776327,-11.6000003814697,2011-12-29 08:23:32
0.995000123977661,42.38350161,-70.99793359,-11.1000003814697,2011-12-29 08:23:33
1.72399997711182,42.38357897,-70.99815034,-11.1000003814697,2011-12-29 08:23:35
1.1269998550415,42.38362106,-70.9982894,-10.6000003814697,2011-12-29 08:23:36
0.878999948501587,42.38367576,-70.99842764,-10.6999998092651,2011-12-29 08:23:37
1.11800003051758,42.38373721,-70.9985967,-10.5,2011-12-29 08:23:38
0.880000114440918,42.3837869,-70.99876092,-10.6999998092651,2011-12-29 08:23:39
0.348999977111816,42.38383564,-70.99889342,-11,2011-12-29 08:23:39
1.99200010299683,42.38394742,-70.9992196,-10.8000001907349,2011-12-29 08:23:41
0.928999900817871,42.38400558,-70.99938809,-10.5,2011-12-29 08:23:42
1.73300004005432,42.38404911,-70.99960004,-11,2011-12-29 08:23:44
1.00699996948242,42.38412528,-70.99975315,-11.3000001907349,2011-12-29 08:23:45
0.98799991607666,42.38419382,-70.99989203,-11.1000003814697,2011-12-29 08:23:46
1.00300002098083,42.38425412,-71.00004582,-10.8999996185303,2011-12-29 08:23:47
0.990000009536743,42.38431844,-71.00021183,-10.5,2011-12-29 08:23:48
1,42.38437652,-71.00034622,-10.1000003814697,2011-12-29 08:23:49
0.999000072479248,42.38443859,-71.00050404,-9.80000019073486,2011-12-29 08:23:50
1.0019998550415,42.3844967,-71.00066321,-9.5,2011-12-29 08:23:51
1.00800013542175,42.38452465,-71.00080412,-9.5,2011-12-29 08:23:52
1.12599992752075,42.3845385,-71.00098957,-9.80000019073486,2011-12-29 08:23:53
0.868000030517578,42.38458407,-71.00112482,-9.60000038146973,2011-12-29 08:23:54
1.02699995040894,42.3846455,-71.00124274,-9.60000038146973,2011-12-29 08:23:55
0.970999956130981,42.38468831,-71.00138972,-10,2011-12-29 08:23:56
1.07200002670288,42.38473684,-71.00148929,-10.1999998092651,2011-12-29 08:23:57
0.927999973297119,42.38479088,-71.00162701,-10.6999998092651,2011-12-29 08:23:58
1.0310001373291,42.38484829,-71.00176156,-10.5,2011-12-29 08:23:59
0.973000049591064,42.38489825,-71.00190798,-10.3000001907349,2011-12-29 08:24:00
1,42.38494514,-71.00204869,-10.3000001907349,2011-12-29 08:24:01
0.997999906539917,42.38499187,-71.00221521,-10,2011-12-29 08:24:02
1.00699996948242,42.38503269,-71.00235292,-9.5,2011-12-29 08:24:03
0.989000082015991,42.38511132,-71.00250015,-9.60000038146973,2011-12-29 08:24:04
1.00300002098083,42.38517203,-71.00263105,-9.5,2011-12-29 08:24:05
0.998999834060669,42.38526665,-71.00278629,-9.5,2011-12-29 08:24:06
1.00200009346008,42.38531999,-71.00296633,-9.69999980926514,2011-12-29 08:24:07
1.00500011444092,42.3853667,-71.00311627,-9.80000019073486,2011-12-29 08:24:08
0.997999906539917,42.38541754,-71.0032792,-9.30000019073486,2011-12-29 08:24:09
1,42.38546509,-71.00343786,-9.60000038146973,2011-12-29 08:24:10
1.00799989700317,42.38550181,-71.00358163,-9.39999961853027,2011-12-29 08:24:11
0.990000009536743,42.38555823,-71.00373681,-9.69999980926514,2011-12-29 08:24:12
1.00200009346008,42.38561484,-71.00389943,-10.6999998092651,2011-12-29 08:24:13
0.996000051498413,42.38566521,-71.00404412,-11.1999998092651,2011-12-29 08:24:14
1.00899982452393,42.38571555,-71.0042082,-11.1000003814697,2011-12-29 08:24:15
1.13100004196167,42.38578177,-71.00436297,-11.3999996185303,2011-12-29 08:24:16
0.858999967575073,42.38584094,-71.00451761,-11.5,2011-12-29 08:24:17
1.00300002098083,42.38591656,-71.00466254,-11.3999996185303,2011-12-29 08:24:18
1.00400018692017,42.38596976,-71.00481194,-11.3000001907349,2011-12-29 08:24:19
0.992999792098999,42.38602342,-71.00495971,-12,2011-12-29 08:24:20
1.07100009918213,42.3860844,-71.00511166,-11.5,2011-12-29 08:24:21
0.934000015258789,42.38613413,-71.00523885,-11.6999998092651,2011-12-29 08:24:22
1.00300002098083,42.38618229,-71.00538115,-12.1000003814697,2011-12-29 08:24:23
0.996999979019165,42.38622651,-71.00554578,-11.8999996185303,2011-12-29 08:24:24
1.0090000629425,42.38628319,-71.00567716,-12.1999998092651,2011-12-29 08:24:25
0.99399995803833,42.38633701,-71.0058258,-12.3999996185303,2011-12-29 08:24:26
0.351000070571899,42.38635299,-71.00594517,-10,2011-12-29 08:24:26
1.9229998588562,42.38642493,-71.00621604,-10.3999996185303,2011-12-29 08:24:28
1.72399997711182,42.38648318,-71.00635714,-10.6999998092651,2011-12-29 08:24:30
0.358999967575073,42.38648322,-71.00643883,-10.3999996185303,2011-12-29 08:24:30
2.76700019836426,42.38652796,-71.00669165,-11,2011-12-29 08:24:33
0.192999839782715,42.38652886,-71.00676113,-11.1000003814697,2011-12-29 08:24:33
2.68200016021729,42.38652094,-71.00679936,-10.6999998092651,2011-12-29 08:24:36
1.0019998550415,42.38651752,-71.00667345,-10.3000001907349,2011-12-29 08:24:37
1,42.38652646,-71.00662271,-10.1000003814697,2011-12-29 08:24:38
1.0090000629425,42.38654777,-71.00661218,-10.1000003814697,2011-12-29 08:24:39
1.04099988937378,42.38658613,-71.00660833,-10.1000003814697,2011-12-29 08:24:40
0.949000120162964,42.38659537,-71.00660276,-9.69999980926514,2011-12-29 08:24:41
1.0019998550415,42.38663575,-71.00658455,-9.60000038146973,2011-12-29 08:24:42
1.00100016593933,42.38662983,-71.00655284,-9.80000019073486,2011-12-29 08:24:43
1.01399993896484,42.38662401,-71.00653799,-9.89999961853027,2011-12-29 08:24:44
0.986999988555908,42.38660488,-71.00652748,-10.1999998092651,2011-12-29 08:24:45
1.00099992752075,42.38658721,-71.00651536,-10.3000001907349,2011-12-29 08:24:46
1.98900008201599,42.38658735,-71.00651485,-10.3000001907349,2011-12-29 08:24:48
0.996999979019165,42.38658735,-71.00651485,-10.3000001907349,2011-12-29 08:24:49
1.0090000629425,42.38658735,-71.00651485,-10.3000001907349,2011-12-29 08:24:50
0.991999864578247,42.38658649,-71.00651527,-10.3000001907349,2011-12-29 08:24:51
1.01200008392334,42.38658219,-71.00651084,-10.3999996185303,2011-12-29 08:24:52
1,42.38658049,-71.00650922,-10.5,2011-12-29 08:24:53
0.99399995803833,42.38657871,-71.00650828,-10.5,2011-12-29 08:24:54
0.989000082015991,42.38657871,-71.00650828,-10.5,2011-12-29 08:24:55
1.0090000629425,42.38657728,-71.00650719,-10.5,2011-12-29 08:24:56
1.0789999961853,42.38657653,-71.0065066,-10.5,2011-12-29 08:24:57
0.909999847412109,42.38657653,-71.0065066,-10.5,2011-12-29 08:24:58
1.05800008773804,42.38657745,-71.00650722,-10.5,2011-12-29 08:24:59
0.958999872207642,42.38657745,-71.00650722,-10.5,2011-12-29 08:25:00
1.02800011634827,42.38657745,-71.00650722,-10.5,2011-12-29 08:25:01
0.966000080108643,42.3865772,-71.00650686,-10.5,2011-12-29 08:25:02
1.0019998550415,42.38657692,-71.00650683,-10.5,2011-12-29 08:25:03
1.00100016593933,42.38657631,-71.00650671,-10.6000003814697,2011-12-29 08:25:04
1,42.38657587,-71.00650648,-10.6000003814697,2011-12-29 08:25:05
3,42.38657533,-71.00650642,-10.6000003814697,2011-12-29 08:25:08
1.16599988937378,42.38657498,-71.00650608,-10.6999998092651,2011-12-29 08:25:09
0.835999965667725,42.38657498,-71.00650606,-10.6999998092651,2011-12-29 08:25:10
0.999000072479248,42.38657509,-71.00650615,-10.6999998092651,2011-12-29 08:25:11
1.03200006484985,42.38657511,-71.00650618,-10.6999998092651,2011-12-29 08:25:12
78.9739999771118,42.38596081,-71.00862215,-22.6000003814697,2011-12-29 08:26:31
1.98899984359741,42.38602857,-71.00881991,-61,2011-12-29 08:26:33
1.03600001335144,42.38584843,-71.00914378,-44.0999984741211,2011-12-29 08:26:34
0.967000007629395,42.38566944,-71.00947071,-28.8999996185303,2011-12-29 08:26:35
1.03200006484985,42.38564301,-71.00964543,-31.8999996185303,2011-12-29 08:26:36
0.280999898910522,42.38560285,-71.0097623,-36.2999992370605,2011-12-29 08:26:36
0.981000185012817,42.38554643,-71.00995131,-37.2000007629395,2011-12-29 08:26:37
2.71499991416931,42.38545634,-71.01032537,-31.7999992370605,2011-12-29 08:26:40
1.01799988746643,42.38539225,-71.01050565,-32.7000007629395,2011-12-29 08:26:41
1.03800010681152,42.38533931,-71.01068959,-31.6000003814697,2011-12-29 08:26:42
0.928999900817871,42.38526376,-71.01089127,-30.2000007629395,2011-12-29 08:26:43
0.318000078201294,42.38520681,-71.0110316,-31.6000003814697,2011-12-29 08:26:43
1.72900009155273,42.38512486,-71.01125717,-30.8999996185303,2011-12-29 08:26:45
0.957000017166138,42.38506894,-71.01143598,-31,2011-12-29 08:26:46
0.312999963760376,42.38503153,-71.01155756,-30.5,2011-12-29 08:26:46
1.68099999427795,42.38495561,-71.01178397,-30.6000003814697,2011-12-29 08:26:48
1.11299991607666,42.38487652,-71.01199789,-31.7999992370605,2011-12-29 08:26:49
2.89600014686584,42.3847079,-71.0125498,-31.5,2011-12-29 08:26:52
1.27199983596802,42.38459564,-71.01285715,-32.2000007629395,2011-12-29 08:26:53
1.00300002098083,42.38453653,-71.01301975,-31.5,2011-12-29 08:26:54
1.00099992752075,42.38448143,-71.01320482,-31.3999996185303,2011-12-29 08:26:55
0.995000123977661,42.38441905,-71.01340248,-30.5,2011-12-29 08:26:56
0.999000072479248,42.38436843,-71.0135984,-30,2011-12-29 08:26:57
1.00099992752075,42.38431968,-71.01378078,-29.5,2011-12-29 08:26:58
0.999000072479248,42.38424137,-71.01397187,-28.3999996185303,2011-12-29 08:26:59
1.00599980354309,42.38417524,-71.01415454,-28.8999996185303,2011-12-29 08:27:00
1.73900008201599,42.38409784,-71.01437495,-28.6000003814697,2011-12-29 08:27:02
0.980999946594238,42.38403422,-71.0145645,-29.2000007629395,2011-12-29 08:27:03
1.00300002098083,42.38396873,-71.01475113,-28.8999996185303,2011-12-29 08:27:04
33.8559999465942,42.38259186,-71.01820061,-38.4000015258789,2011-12-29 08:27:37
0.874000072479248,42.38259251,-71.01819699,-38.4000015258789,2011-12-29 08:27:38
1.01300001144409,42.38259963,-71.01821014,-37.2000007629395,2011-12-29 08:27:39
0.98799991607666,42.38259286,-71.01820888,-36.5,2011-12-29 08:27:40
0.981000185012817,42.38258135,-71.01822322,-35.5,2011-12-29 08:27:41
1.0019998550415,42.38259001,-71.01823496,-34.4000015258789,2011-12-29 08:27:42
0.998000144958496,42.38262054,-71.01824868,-35.2000007629395,2011-12-29 08:27:43
1.56499981880188,42.38259025,-71.01836872,-28.5,2011-12-29 08:27:45
1,42.38257649,-71.0184364,-27.7000007629395,2011-12-29 08:27:46
1.82800006866455,42.38256018,-71.01857656,-26.5,2011-12-29 08:27:48
0.907999992370605,42.3824997,-71.01870281,-26.2999992370605,2011-12-29 08:27:49
0.302999973297119,42.38243498,-71.01882308,-25.1000003814697,2011-12-29 08:27:49
2.68099999427795,42.38232416,-71.01912205,-26.5,2011-12-29 08:27:52
1.00200009346008,42.38227882,-71.01926976,-27.7999992370605,2011-12-29 08:27:53
0.489000082015991,42.38224038,-71.01936697,-27,2011-12-29 08:27:53
1.79099988937378,42.38215849,-71.01965604,-25.1000003814697,2011-12-29 08:27:55
1.00200009346008,42.3820877,-71.01979696,-25.3999996185303,2011-12-29 08:27:56
1.0479998588562,42.3820701,-71.01994148,-27,2011-12-29 08:27:57
0.956000089645386,42.38198673,-71.02011279,-26.3999996185303,2011-12-29 08:27:58
1.72399997711182,42.381887,-71.0203288,-25.8999996185303,2011-12-29 08:28:00
0.993000030517578,42.38182329,-71.02049089,-26.2999992370605,2011-12-29 08:28:01
0.384999990463257,42.38176715,-71.02061661,-24.8999996185303,2011-12-29 08:28:01
1.8899998664856,42.38161735,-71.02094592,-27.6000003814697,2011-12-29 08:28:03
0.999000072479248,42.38155813,-71.02108501,-28.2999992370605,2011-12-29 08:28:04
1.01800012588501,42.38149033,-71.02121467,-28.2999992370605,2011-12-29 08:28:05
1.91899991035461,42.38143691,-71.02139402,-29.1000003814697,2011-12-29 08:28:07
0.792999982833862,42.3813758,-71.02154045,-28.2000007629395,2011-12-29 08:28:08
0.312999963760376,42.38132899,-71.02166021,-26.8999996185303,2011-12-29 08:28:08
1.70500016212463,42.38126447,-71.02182653,-26.8999996185303,2011-12-29 08:28:10
0.357999801635742,42.38123813,-71.02192474,-27.7999992370605,2011-12-29 08:28:10
2.62700009346008,42.38115588,-71.02222596,-28.2999992370605,2011-12-29 08:28:13
0.994999885559082,42.38110931,-71.02235331,-28.2999992370605,2011-12-29 08:28:14
1.02700018882751,42.38109286,-71.02240239,-28,2011-12-29 08:28:15
0.960999965667725,42.38106286,-71.02248505,-28.2999992370605,2011-12-29 08:28:16
1.01399993896484,42.38104665,-71.02256916,-27.7999992370605,2011-12-29 08:28:17
0.997999906539917,42.38100867,-71.02265168,-27.7999992370605,2011-12-29 08:28:18
1.98900008201599,42.3809656,-71.02280684,-27.7999992370605,2011-12-29 08:28:20
1.07299995422363,42.38093323,-71.02287264,-28.5,2011-12-29 08:28:21
0.937999963760376,42.38090895,-71.0229321,-28.2999992370605,2011-12-29 08:28:22
0.976999998092651,42.38088511,-71.0229962,-28.2999992370605,2011-12-29 08:28:23
2.02800011634827,42.3808377,-71.02312909,-28.2999992370605,2011-12-29 08:28:25
0.986000061035156,42.38079787,-71.02322876,-28.2000007629395,2011-12-29 08:28:26
0.990999937057495,42.38076811,-71.02331029,-28.2000007629395,2011-12-29 08:28:27
2.01799988746643,42.38069211,-71.02349874,-29.7000007629395,2011-12-29 08:28:29
1.1100001335144,42.38067633,-71.02360391,-30,2011-12-29 08:28:30
0.884999990463257,42.3806403,-71.02370485,-30.2999992370605,2011-12-29 08:28:31
2.99499988555908,42.38052731,-71.02398001,-30.5,2011-12-29 08:28:34
1,42.38049315,-71.02407336,-30.5,2011-12-29 08:28:35
1,42.3804425,-71.02414979,-30.7000007629395,2011-12-29 08:28:36
1.00500011444092,42.38043401,-71.02421873,-30.2000007629395,2011-12-29 08:28:37
0.996000051498413,42.38042375,-71.02430079,-29.8999996185303,2011-12-29 08:28:38
1.01099991798401,42.38041529,-71.02436461,-29.7999992370605,2011-12-29 08:28:39
0.990000009536743,42.38041715,-71.02442951,-29.6000003814697,2011-12-29 08:28:40
0.999000072479248,42.3804088,-71.02449179,-29.2000007629395,2011-12-29 08:28:41
1.00099992752075,42.38041806,-71.02453082,-28.7999992370605,2011-12-29 08:28:42
0.995000123977661,42.380423,-71.02457487,-28.7000007629395,2011-12-29 08:28:43
1.00099992752075,42.38042184,-71.02456681,-28.7999992370605,2011-12-29 08:28:44
1,42.38040046,-71.0245279,-28.6000003814697,2011-12-29 08:28:45
1.13199996948242,42.38041183,-71.02452234,-28.2999992370605,2011-12-29 08:28:46
0.871000051498413,42.38042038,-71.02449642,-28.1000003814697,2011-12-29 08:28:47
1.00300002098083,42.38041961,-71.02447846,-28.2999992370605,2011-12-29 08:28:48
0.995999813079834,42.38040689,-71.02445395,-28.3999996185303,2011-12-29 08:28:49
0.997000217437744,42.38040316,-71.02443705,-28.5,2011-12-29 08:28:50
1,42.3804085,-71.02443596,-28.3999996185303,2011-12-29 08:28:51
1.00599980354309,42.38040213,-71.02442142,-28.2999992370605,2011-12-29 08:28:52
1.14800000190735,42.38039279,-71.02443044,-28.2000007629395,2011-12-29 08:28:53
0.848999977111816,42.380392,-71.02442895,-28.2999992370605,2011-12-29 08:28:54
0.997000217437744,42.38038981,-71.02443937,-28.2000007629395,2011-12-29 08:28:55
1.00299978256226,42.38038888,-71.02443516,-28.3999996185303,2011-12-29 08:28:56
0.998000144958496,42.38040264,-71.02445612,-28.7999992370605,2011-12-29 08:28:57
0.999000072479248,42.3804078,-71.0244579,-28.7000007629395,2011-12-29 08:28:58
1.00099992752075,42.38039703,-71.02446085,-28.6000003814697,2011-12-29 08:28:59
0.999000072479248,42.3804046,-71.02444691,-28.5,2011-12-29 08:29:00
1,42.38039468,-71.02443144,-28.3999996185303,2011-12-29 08:29:01
1.00599980354309,42.38037738,-71.02443977,-28.6000003814697,2011-12-29 08:29:02
0.996000051498413,42.38037275,-71.02444275,-28.7000007629395,2011-12-29 08:29:03
1.00399994850159,42.38037108,-71.02444819,-28.6000003814697,2011-12-29 08:29:04
0.994000196456909,42.38036919,-71.02445416,-28.7000007629395,2011-12-29 08:29:05
1.00699996948242,42.38035315,-71.02448494,-28.7999992370605,2011-12-29 08:29:06
0.99399995803833,42.3803655,-71.02460601,-29.2999992370605,2011-12-29 08:29:07
1.00099992752075,42.38034386,-71.02468888,-30,2011-12-29 08:29:08
1.14300012588501,42.38033508,-71.02473913,-30.7000007629395,2011-12-29 08:29:09
0.855000019073486,42.38031624,-71.02476959,-26.8999996185303,2011-12-29 08:29:10
1.0019998550415,42.38030069,-71.02484708,-27.5,2011-12-29 08:29:11
0.999000072479248,42.38027413,-71.02492385,-27.6000003814697,2011-12-29 08:29:12
1.0019998550415,42.38022292,-71.02500915,-27.3999996185303,2011-12-29 08:29:13
1.12900018692017,42.38018292,-71.02512197,-26.2000007629395,2011-12-29 08:29:14
0.870999813079834,42.38013468,-71.0252091,-26.2000007629395,2011-12-29 08:29:15
1.28500008583069,42.38003027,-71.02527329,-25.7000007629395,2011-12-29 08:29:16
1.00399994850159,42.37995055,-71.0252839,-24.1000003814697,2011-12-29 08:29:17
1.03600001335144,42.37988347,-71.0253047,-22.2999992370605,2011-12-29 08:29:18
0.953999996185303,42.37983467,-71.02532527,-22.7000007629395,2011-12-29 08:29:19
1.72699999809265,42.37974958,-71.02538232,-22.3999996185303,2011-12-29 08:29:21
1,42.37966769,-71.0254315,-22.6000003814697,2011-12-29 08:29:22
0.351999998092651,42.37958433,-71.02546451,-23.8999996185303,2011-12-29 08:29:22
2.65300011634827,42.37937404,-71.02558494,-23.2000007629395,2011-12-29 08:29:25
0.996999979019165,42.3792756,-71.02566529,-23,2011-12-29 08:29:26
0.991999864578247,42.37917498,-71.02573661,-23.1000003814697,2011-12-29 08:29:27
0.337000131607056,42.3791061,-71.02578049,-23.7999992370605,2011-12-29 08:29:27
1.94400000572205,42.37890309,-71.02594189,-24.5,2011-12-29 08:29:29
1.0019998550415,42.3787958,-71.02604514,-22,2011-12-29 08:29:30
1.007000207901,42.37868807,-71.0261425,-22.8999996185303,2011-12-29 08:29:31
0.992999792098999,42.37858383,-71.02625532,-23.2000007629395,2011-12-29 08:29:32
1.00100016593933,42.37844193,-71.02641069,-24.7000007629395,2011-12-29 08:29:33
1.74499988555908,42.37827192,-71.02658949,-24.3999996185303,2011-12-29 08:29:35
0.992000102996826,42.37811652,-71.0267499,-24.3999996185303,2011-12-29 08:29:36
0.305000066757202,42.37801701,-71.02687216,-23.7999992370605,2011-12-29 08:29:36
2.68599987030029,42.37765092,-71.02722828,-25.2000007629395,2011-12-29 08:29:39
0.98799991607666,42.37748792,-71.02740353,-25.8999996185303,2011-12-29 08:29:40
1.00500011444092,42.37733197,-71.02758899,-27.3999996185303,2011-12-29 08:29:41
0.348999977111816,42.37721339,-71.02771171,-27.2999992370605,2011-12-29 08:29:41
1.94000005722046,42.37686974,-71.02805782,-26.6000003814697,2011-12-29 08:29:43
1.71700000762939,42.37667757,-71.02827836,-26.5,2011-12-29 08:29:45
1.15100002288818,42.37651902,-71.02845479,-26.3999996185303,2011-12-29 08:29:46
0.855000019073486,42.37636699,-71.02863103,-26.2999992370605,2011-12-29 08:29:47
1.00399994850159,42.3762101,-71.02879398,-25.1000003814697,2011-12-29 08:29:48
0.994999885559082,42.37606143,-71.02895704,-24.6000003814697,2011-12-29 08:29:49
1.00500011444092,42.37589732,-71.0290891,-24.5,2011-12-29 08:29:50
0.36299991607666,42.37577466,-71.02919367,-25,2011-12-29 08:29:50
1.90499997138977,42.37546847,-71.02938878,-24,2011-12-29 08:29:52
1.05200004577637,42.37528885,-71.02949357,-22.1000003814697,2011-12-29 08:29:53
0.953000068664551,42.37510974,-71.02954372,-21.8999996185303,2011-12-29 08:29:54
1.70799994468689,42.37488902,-71.02961881,-22,2011-12-29 08:29:56
1.00699996948242,42.37473009,-71.02965233,-21.5,2011-12-29 08:29:57
1.01100015640259,42.37455415,-71.02966758,-21.2999992370605,2011-12-29 08:29:58
0.992999792098999,42.3743798,-71.02966141,-20.1000003814697,2011-12-29 08:29:59
0.351999998092651,42.37424444,-71.02966259,-19.3999996185303,2011-12-29 08:29:59
1.92600011825562,42.37391023,-71.0296555,-18.7999992370605,2011-12-29 08:30:01
0.997999906539917,42.37374333,-71.02959621,-19.1000003814697,2011-12-29 08:30:02
3.71900010108948,42.37319331,-71.02948311,-19.5,2011-12-29 08:30:06
1.09699988365173,42.37299807,-71.02933683,-19.1000003814697,2011-12-29 08:30:07
0.89300012588501,42.37282623,-71.02926867,-19.1000003814697,2011-12-29 08:30:08
1.16199994087219,42.3727458,-71.02912497,-19.1000003814697,2011-12-29 08:30:09
0.842999935150146,42.37263798,-71.02897612,-19.5,2011-12-29 08:30:10
1.01300001144409,42.37250011,-71.02881579,-19.6000003814697,2011-12-29 08:30:11
0.99399995803833,42.37235169,-71.02861537,-20.7000007629395,2011-12-29 08:30:12
0.996000051498413,42.3722156,-71.02845322,-21.5,2011-12-29 08:30:13
1.05400013923645,42.37209233,-71.02828458,-22.2000007629395,2011-12-29 08:30:14
2.94299983978271,42.37172884,-71.02786535,-23,2011-12-29 08:30:17
0.996999979019165,42.37160992,-71.02772538,-23.1000003814697,2011-12-29 08:30:18
1,42.37150399,-71.02759403,-23.5,2011-12-29 08:30:19
1.00200009346008,42.37139172,-71.02746505,-22.8999996185303,2011-12-29 08:30:20
1.01800012588501,42.37128123,-71.0273408,-23.8999996185303,2011-12-29 08:30:21
1.25899982452393,42.37107776,-71.02713905,-24.8999996185303,2011-12-29 08:30:22
1,42.37096617,-71.02699816,-24.2000007629395,2011-12-29 08:30:23
1.72800016403198,42.37081734,-71.02684143,-23.7999992370605,2011-12-29 08:30:25
0.997999906539917,42.37070226,-71.02674058,-23.7999992370605,2011-12-29 08:30:26
1.00699996948242,42.37056856,-71.0266707,-23.6000003814697,2011-12-29 08:30:27
0.355000019073486,42.37047215,-71.02660248,-22.2000007629395,2011-12-29 08:30:27
1.63800001144409,42.37030047,-71.02650586,-22.2999992370605,2011-12-29 08:30:29
1.15599989891052,42.37014964,-71.02644501,-21.7000007629395,2011-12-29 08:30:30
0.847000122070312,42.37000938,-71.02639572,-21.2999992370605,2011-12-29 08:30:31
0.315000057220459,42.36989646,-71.0263645,-21.2999992370605,2011-12-29 08:30:31
1.96599984169006,42.36960398,-71.02626941,-20.7999992370605,2011-12-29 08:30:33
1.71300005912781,42.36940146,-71.0262152,-20.6000003814697,2011-12-29 08:30:35
0.999000072479248,42.36925893,-71.02616897,-20.6000003814697,2011-12-29 08:30:36
1.00399994850159,42.3691163,-71.0261349,-20.6000003814697,2011-12-29 08:30:37
1,42.36897072,-71.02607417,-20.6000003814697,2011-12-29 08:30:38
1.1949999332428,42.36882804,-71.0260159,-20.8999996185303,2011-12-29 08:30:39
0.808000087738037,42.36868324,-71.02596614,-21.6000003814697,2011-12-29 08:30:40
1.00399994850159,42.36856306,-71.02592275,-21.2999992370605,2011-12-29 08:30:41
0.999000072479248,42.36843962,-71.02587602,-21,2011-12-29 08:30:42
0.997999906539917,42.36832,-71.02583084,-20.8999996185303,2011-12-29 08:30:43
1.15700006484985,42.36820806,-71.02578631,-20.6000003814697,2011-12-29 08:30:44
0.152999877929688,42.36814798,-71.02577827,-18.8999996185303,2011-12-29 08:30:44
1.69300007820129,42.36802172,-71.02573776,-18.2000007629395,2011-12-29 08:30:46
0.986999988555908,42.3679262,-71.02569259,-18.7999992370605,2011-12-29 08:30:47
1.01399993896484,42.36783176,-71.02565873,-18.6000003814697,2011-12-29 08:30:48
0.995000123977661,42.36774827,-71.02564436,-17.7999992370605,2011-12-29 08:30:49
0.310999870300293,42.36768205,-71.02560545,-18.3999996185303,2011-12-29 08:30:49
1.9610002040863,42.36751111,-71.02553115,-18.8999996185303,2011-12-29 08:30:51
1.7279999256134,42.36739318,-71.02547107,-18.5,2011-12-29 08:30:53
0.996000051498413,42.36729193,-71.02543632,-17.7999992370605,2011-12-29 08:30:54
0.315999984741211,42.36721454,-71.02543244,-16.7000007629395,2011-12-29 08:30:54
1.95700001716614,42.36699398,-71.02533988,-16.8999996185303,2011-12-29 08:30:56
1.72699999809265,42.36682935,-71.02528495,-17.2000007629395,2011-12-29 08:30:58
1.00399994850159,42.3666742,-71.02521841,-17.2999992370605,2011-12-29 08:30:59
1.09599995613098,42.36653503,-71.02515174,-18.2999992370605,2011-12-29 08:31:00
0.914000034332275,42.36638786,-71.02511203,-17.8999996185303,2011-12-29 08:31:01
0.312000036239624,42.36627799,-71.02506265,-18.2999992370605,2011-12-29 08:31:01
1.95000004768372,42.36593923,-71.0249483,-22.1000003814697,2011-12-29 08:31:03
1.00399994850159,42.36577432,-71.02492193,-23.2999992370605,2011-12-29 08:31:04
1.0019998550415,42.36560596,-71.02490402,-24.6000003814697,2011-12-29 08:31:05
0.991000175476074,42.36542545,-71.02486424,-24.2000007629395,2011-12-29 08:31:06
1.72299981117249,42.36519966,-71.024817,-24.2999992370605,2011-12-29 08:31:08
102.025000095367,42.34645411,-71.03847201,-30.1000003814697,2011-12-29 08:32:50
84.2479999065399,42.34651638,-71.06168825,-40.4000015258789,2011-12-29 08:34:14
1.01500010490417,42.34661716,-71.06210058,-38.2999992370605,2011-12-29 08:34:15
0.990999937057495,42.34664567,-71.06239607,-39.0999984741211,2011-12-29 08:34:16
0.999000072479248,42.34670085,-71.06270955,-34.2000007629395,2011-12-29 08:34:17
1.73099994659424,42.34677349,-71.06310386,-33.5999984741211,2011-12-29 08:34:19
1.01300001144409,42.34685947,-71.06340657,-30.2000007629395,2011-12-29 08:34:20
1.03800010681152,42.34693066,-71.06370986,-27.8999996185303,2011-12-29 08:34:21
0.94599986076355,42.34700767,-71.06398889,-27.5,2011-12-29 08:34:22
1.13900017738342,42.34707697,-71.06427842,-27.2000007629395,2011-12-29 08:34:23
0.861999988555908,42.34714455,-71.06457689,-27.2999992370605,2011-12-29 08:34:24
1.00099992752075,42.34723987,-71.06485705,-26.7999992370605,2011-12-29 08:34:25
1.01900005340576,42.34734055,-71.06518172,-24.5,2011-12-29 08:34:26
0.301999807357788,42.34738902,-71.06541263,-23.1000003814697,2011-12-29 08:34:26
1.67400002479553,42.34748467,-71.06579729,-23.2000007629395,2011-12-29 08:34:28
1.00400018692017,42.34754999,-71.06610785,-21.2999992370605,2011-12-29 08:34:29
0.330999851226807,42.34758106,-71.06631807,-19.3999996185303,2011-12-29 08:34:29
1.95000004768372,42.34766466,-71.06694048,-15,2011-12-29 08:34:31
1.05599999427795,42.34770847,-71.06725305,-15.1999998092651,2011-12-29 08:34:32
0.944999933242798,42.3477746,-71.06757115,-15.1000003814697,2011-12-29 08:34:33
0.989000082015991,42.34779983,-71.0679023,-15.5,2011-12-29 08:34:34
1.72399997711182,42.34785191,-71.06831783,-15.3999996185303,2011-12-29 08:34:36
1.21700000762939,42.34788843,-71.06863985,-16,2011-12-29 08:34:37
0.79200005531311,42.34791579,-71.06897394,-15.8999996185303,2011-12-29 08:34:38
1.1399998664856,42.34792107,-71.06929235,-16.6000003814697,2011-12-29 08:34:39
0.856000185012817,42.34792843,-71.0696168,-17.1000003814697,2011-12-29 08:34:40
0.352999925613403,42.34791353,-71.06988749,-17.7000007629395,2011-12-29 08:34:40
2.66499996185303,42.34791601,-71.07061586,-17.8999996185303,2011-12-29 08:34:43
0.341000080108643,42.34792506,-71.07084601,-17.3999996185303,2011-12-29 08:34:43
1.63599991798401,42.3479206,-71.0712551,-17.2999992370605,2011-12-29 08:34:45
1.01699995994568,42.34791583,-71.07158101,-17.8999996185303,2011-12-29 08:34:46
0.989000082015991,42.34791846,-71.07190843,-17.7999992370605,2011-12-29 08:34:47
0.997999906539917,42.34791988,-71.07224726,-17.7000007629395,2011-12-29 08:34:48
0.354000091552734,42.34791421,-71.0724928,-17.3999996185303,2011-12-29 08:34:48
1.64100003242493,42.34791346,-71.07291952,-17.6000003814697,2011-12-29 08:34:50
1.02699995040894,42.34791082,-71.07326352,-17.6000003814697,2011-12-29 08:34:51
0.984999895095825,42.34791968,-71.07360723,-16.6000003814697,2011-12-29 08:34:52
0.984000205993652,42.34792151,-71.07394091,-16.5,2011-12-29 08:34:53
1,42.34792201,-71.07427618,-16.3999996185303,2011-12-29 08:34:54
1.0019998550415,42.34792161,-71.07461234,-16.3999996185303,2011-12-29 08:34:55
1.00500011444092,42.34792081,-71.07494883,-16.3999996185303,2011-12-29 08:34:56
0.997999906539917,42.34791983,-71.07528527,-16.3999996185303,2011-12-29 08:34:57
0.992000102996826,42.34791854,-71.07562173,-16.3999996185303,2011-12-29 08:34:58
1.0019998550415,42.34791739,-71.0759576,-16.3999996185303,2011-12-29 08:34:59
33.2569999694824,42.34791113,-71.08765758,-9.80000019073486,2011-12-29 08:35:32
0.749000072479248,42.34789763,-71.087968,-6.30000019073486,2011-12-29 08:35:33
1.00600004196167,42.34789062,-71.08827278,-19.2000007629395,2011-12-29 08:35:34
1.03699994087219,42.34786816,-71.08853742,-16.1000003814697,2011-12-29 08:35:35
0.334000110626221,42.34785402,-71.08871102,-18.3999996185303,2011-12-29 08:35:35
1.91599988937378,42.34788017,-71.08928053,-18.8999996185303,2011-12-29 08:35:37
0.990999937057495,42.34789443,-71.0896093,-20.8999996185303,2011-12-29 08:35:38
1.07800006866455,42.34789796,-71.08994481,-20,2011-12-29 08:35:39
0.924999952316284,42.34789887,-71.0902564,-20.8999996185303,2011-12-29 08:35:40
0.999000072479248,42.34790716,-71.09057758,-20.8999996185303,2011-12-29 08:35:41
1.74200010299683,42.34789636,-71.0909918,-20.6000003814697,2011-12-29 08:35:43
1.11199998855591,42.34789269,-71.09131129,-20.6000003814697,2011-12-29 08:35:44
0.875,42.34788746,-71.09163158,-21.2000007629395,2011-12-29 08:35:45
0.988999843597412,42.34787999,-71.09195258,-20.6000003814697,2011-12-29 08:35:46
0.996000051498413,42.34787981,-71.09227033,-20.6000003814697,2011-12-29 08:35:47
1.00099992752075,42.34788188,-71.09258841,-20.7999992370605,2011-12-29 08:35:48
1.0220000743866,42.34788211,-71.09290838,-19.6000003814697,2011-12-29 08:35:49
0.983000040054321,42.34788902,-71.09323421,-19.8999996185303,2011-12-29 08:35:50
1.0019998550415,42.34788417,-71.09356007,-19.7999992370605,2011-12-29 08:35:51
1.01900005340576,42.34788488,-71.09388673,-19.3999996185303,2011-12-29 08:35:52
1.1100001335144,42.34788433,-71.09421514,-19.3999996185303,2011-12-29 08:35:53
0.885999917984009,42.34788029,-71.09454382,-19.1000003814697,2011-12-29 08:35:54
0.983999967575073,42.34788047,-71.09488352,-19,2011-12-29 08:35:55
1,42.34787716,-71.09521752,-18.8999996185303,2011-12-29 08:35:56
0.311000108718872,42.34787718,-71.09543856,-18.8999996185303,2011-12-29 08:35:56
1.96799993515015,42.34786342,-71.09608943,-17.6000003814697,2011-12-29 08:35:58
0.996999979019165,42.34786077,-71.09641982,-18.5,2011-12-29 08:35:59
1.03699994087219,42.34786382,-71.0967717,-18.2999992370605,2011-12-29 08:36:00
0.958000183105469,42.34786485,-71.09712527,-18,2011-12-29 08:36:01
1.06299996376038,42.34785653,-71.09747512,-18.2000007629395,2011-12-29 08:36:02
1.66199994087219,42.34785278,-71.09794276,-18.5,2011-12-29 08:36:04
1.19600009918213,42.34785633,-71.09829278,-18.6000003814697,2011-12-29 08:36:05
0.800999879837036,42.34784872,-71.09865075,-18.8999996185303,2011-12-29 08:36:06
1.01200008392334,42.34784584,-71.09898496,-18.5,2011-12-29 08:36:07
0.98799991607666,42.34785597,-71.09932112,-18.2999992370605,2011-12-29 08:36:08
0.319999933242798,42.34785201,-71.09956648,-18.2999992370605,2011-12-29 08:36:08
2.69500017166138,42.34784826,-71.10031552,-18.5,2011-12-29 08:36:11
1.14499998092651,42.34785302,-71.10064722,-18.5,2011-12-29 08:36:12
0.842999935150146,42.34791455,-71.10095051,-18.3999996185303,2011-12-29 08:36:13
1.1159999370575,42.34799825,-71.10127288,-18.6000003814697,2011-12-29 08:36:14
0.88700008392334,42.34806784,-71.10160639,-17.7999992370605,2011-12-29 08:36:15
1.01900005340576,42.34813392,-71.1019372,-16.6000003814697,2011-12-29 08:36:16
0.984999895095825,42.34819518,-71.10225666,-16.3999996185303,2011-12-29 08:36:17
0.308000087738037,42.34821035,-71.10250854,-16,2011-12-29 08:36:17
1.95700001716614,42.34831804,-71.1031141,-16.8999996185303,2011-12-29 08:36:19
1.00599980354309,42.3483937,-71.10345569,-17.5,2011-12-29 08:36:20
1.00100016593933,42.34846761,-71.10378347,-17.2999992370605,2011-12-29 08:36:21
0.99399995803833,42.34855842,-71.10409146,-16.3999996185303,2011-12-29 08:36:22
1.73399996757507,42.34862168,-71.10452267,-16.2999992370605,2011-12-29 08:36:24
1,42.34867459,-71.10485051,-16.6000003814697,2011-12-29 08:36:25
1.06900000572205,42.34872564,-71.10519458,-16.5,2011-12-29 08:36:26
0.23799991607666,42.34874044,-71.10546103,-14.8999996185303,2011-12-29 08:36:26
1.96600008010864,42.34886893,-71.10609993,-16.7999992370605,2011-12-29 08:36:28
1.71700000762939,42.34896031,-71.10652183,-17.2000007629395,2011-12-29 08:36:30
1.00099992752075,42.34903047,-71.10684753,-17.2000007629395,2011-12-29 08:36:31
1.01700019836426,42.34909339,-71.1071684,-17.3999996185303,2011-12-29 08:36:32
1.00999999046326,42.34916359,-71.10749842,-17.3999996185303,2011-12-29 08:36:33
0.980999946594238,42.34925546,-71.10780022,-17.7000007629395,2011-12-29 08:36:34
1.06900000572205,42.34934337,-71.10810609,-18.3999996185303,2011-12-29 08:36:35
0.929999828338623,42.34944892,-71.10840704,-18.1000003814697,2011-12-29 08:36:36
1.01500010490417,42.34955854,-71.10871148,-19.2000007629395,2011-12-29 08:36:37
0.98799991607666,42.34967267,-71.10901034,-19.7000007629395,2011-12-29 08:36:38
0.991000175476074,42.34978327,-71.10931332,-19.3999996185303,2011-12-29 08:36:39
1.06799983978271,42.34990934,-71.10960536,-19.5,2011-12-29 08:36:40
0.93500018119812,42.35005371,-71.10989928,-19.7999992370605,2011-12-29 08:36:41
1.14599990844727,42.35018924,-71.11018622,-19.7000007629395,2011-12-29 08:36:42
0.845999956130981,42.35032508,-71.11047368,-19.7000007629395,2011-12-29 08:36:43
0.999000072479248,42.35046085,-71.110761,-19.6000003814697,2011-12-29 08:36:44
3.13299989700317,42.35090867,-71.11150382,-19.1000003814697,2011-12-29 08:36:47
0.878999948501587,42.35105777,-71.11175529,-20,2011-12-29 08:36:48
1.22200012207031,42.35123933,-71.1120222,-17.7999992370605,2011-12-29 08:36:49
0.0929999351501465,42.35137852,-71.1122326,-16,2011-12-29 08:36:49
1.97500014305115,42.3516263,-71.1128076,-14.1999998092651,2011-12-29 08:36:51
3.74699997901917,42.35201756,-71.11375182,-14.3000001907349,2011-12-29 08:36:55
0.967000007629395,42.35213472,-71.11402138,-13.6000003814697,2011-12-29 08:36:56
1.27600002288818,42.35235797,-71.11446662,-12.3000001907349,2011-12-29 08:36:57
0.998999834060669,42.35249194,-71.11472853,-10.8999996185303,2011-12-29 08:36:58
1.00800013542175,42.35263712,-71.11502222,-10,2011-12-29 08:36:59
1,42.35277658,-71.11530553,-9.19999980926514,2011-12-29 08:37:00
0.983000040054321,42.35292913,-71.11556257,-10,2011-12-29 08:37:01
0.998999834060669,42.35306842,-71.11584097,-9.19999980926514,2011-12-29 08:37:02
0.999000072479248,42.35320121,-71.11605618,-9,2011-12-29 08:37:03
1.00099992752075,42.35333769,-71.11631167,-8.80000019073486,2011-12-29 08:37:04
1.02900004386902,42.35348129,-71.11658477,-9.69999980926514,2011-12-29 08:37:05
0.970999956130981,42.35361925,-71.11681571,-9.30000019073486,2011-12-29 08:37:06
1.01200008392334,42.35375138,-71.11709238,-8.69999980926514,2011-12-29 08:37:07
0.991999864578247,42.35388331,-71.11731765,-9,2011-12-29 08:37:08
1.7260000705719,42.35407886,-71.11757386,-8.60000038146973,2011-12-29 08:37:10
1.01999998092651,42.35422283,-71.1177507,-8.19999980926514,2011-12-29 08:37:11
0.979000091552734,42.35440049,-71.11792801,-8.19999980926514,2011-12-29 08:37:12
1,42.35458658,-71.11808338,-8.19999980926514,2011-12-29 08:37:13
1.00300002098083,42.3547639,-71.11821919,-8.10000038146973,2011-12-29 08:37:14
0.349999904632568,42.3549043,-71.11831387,-8.10000038146973,2011-12-29 08:37:14
1.92199993133545,42.35525267,-71.11853288,-6.59999990463257,2011-12-29 08:37:16
1.04800009727478,42.35544397,-71.118647,-6.69999980926514,2011-12-29 08:37:17
1.68600010871887,42.3556818,-71.11877826,-7.19999980926514,2011-12-29 08:37:19
0.530999898910522,42.35583966,-71.11885986,-7.30000019073486,2011-12-29 08:37:19
1.73200011253357,42.35616928,-71.1190522,-6.59999990463257,2011-12-29 08:37:21
1.00299978256226,42.35631889,-71.11919322,-6.69999980926514,2011-12-29 08:37:22
1.84800004959106,42.35649964,-71.11935467,-7.30000019073486,2011-12-29 08:37:24
0.871999979019165,42.35663019,-71.11950032,-7.80000019073486,2011-12-29 08:37:25
0.996000051498413,42.3567594,-71.11964841,-8.5,2011-12-29 08:37:26
1.01699995994568,42.35685515,-71.11981356,-9.69999980926514,2011-12-29 08:37:27
0.347000122070312,42.3569048,-71.1198977,-9.60000038146973,2011-12-29 08:37:27
1.92199993133545,42.35705428,-71.12015786,-12,2011-12-29 08:37:29
0.995000123977661,42.3571406,-71.12031073,-12.1999998092651,2011-12-29 08:37:30
1.7279999256134,42.35722936,-71.12052753,-12,2011-12-29 08:37:32
1.00999999046326,42.35728331,-71.12068046,-12.1000003814697,2011-12-29 08:37:33
0.993000030517578,42.35731972,-71.12084889,-12.6999998092651,2011-12-29 08:37:34
0.996000051498413,42.35734693,-71.12099625,-13.3999996185303,2011-12-29 08:37:35
0.351999998092651,42.3573924,-71.12112221,-13.8000001907349,2011-12-29 08:37:35
1.9210000038147,42.35742991,-71.1213878,-14,2011-12-29 08:37:37
1.73899984359741,42.35744956,-71.12156559,-14.3999996185303,2011-12-29 08:37:39
0.33899998664856,42.35744766,-71.12168295,-13.3000001907349,2011-12-29 08:37:39
1.65000009536743,42.35746317,-71.12182481,-13.1999998092651,2011-12-29 08:37:41
1,42.35746842,-71.12196917,-14,2011-12-29 08:37:42
0.351999998092651,42.35748966,-71.12205015,-15.1000003814697,2011-12-29 08:37:42
1.92799997329712,42.35751188,-71.12237112,-14.6999998092651,2011-12-29 08:37:44
0.990999937057495,42.35753227,-71.122532,-15.6000003814697,2011-12-29 08:37:45
0.998000144958496,42.35755092,-71.12271418,-16.1000003814697,2011-12-29 08:37:46
1.73699998855591,42.35758613,-71.1230127,-16.2999992370605,2011-12-29 08:37:48
0.990999937057495,42.35761698,-71.12324312,-16.7000007629395,2011-12-29 08:37:49
0.315000057220459,42.3576416,-71.12342399,-16.7000007629395,2011-12-29 08:37:49
35.4219999313354,42.35690232,-71.13392801,-21.2000007629395,2011-12-29 08:38:24
1.00099992752075,42.35696178,-71.13424163,-22.7999992370605,2011-12-29 08:38:25
1.56500005722046,42.35702591,-71.13495985,-19.2999992370605,2011-12-29 08:38:27
0.972000122070312,42.3570534,-71.13527816,-20.2000007629395,2011-12-29 08:38:28
1.00299978256226,42.3571052,-71.13563189,-17.2000007629395,2011-12-29 08:38:29
0.997000217437744,42.3571409,-71.13596986,-18.2999992370605,2011-12-29 08:38:30
1.00299978256226,42.35717583,-71.13631931,-18.8999996185303,2011-12-29 08:38:31
0.995000123977661,42.35722121,-71.13665076,-20.5,2011-12-29 08:38:32
1.00200009346008,42.35727045,-71.13701626,-19.7000007629395,2011-12-29 08:38:33
0.998999834060669,42.35732344,-71.13736283,-19.5,2011-12-29 08:38:34
1.01100015640259,42.35738063,-71.13770544,-19.8999996185303,2011-12-29 08:38:35
1.7279999256134,42.35743829,-71.13818351,-19.8999996185303,2011-12-29 08:38:37
1.00200009346008,42.35748457,-71.13853863,-19.5,2011-12-29 08:38:38
0.341999769210815,42.35752467,-71.13880962,-17.8999996185303,2011-12-29 08:38:38
1.91800022125244,42.3576245,-71.13951076,-16.2999992370605,2011-12-29 08:38:40
1.00299978256226,42.35764509,-71.13986777,-16.5,2011-12-29 08:38:41
0.998000144958496,42.35769776,-71.1402104,-17.3999996185303,2011-12-29 08:38:42
0.997999906539917,42.35773838,-71.14058356,-17.3999996185303,2011-12-29 08:38:43
1.00300002098083,42.35779237,-71.14092776,-16.6000003814697,2011-12-29 08:38:44
1,42.35785753,-71.14130632,-16.2999992370605,2011-12-29 08:38:45
1.00099992752075,42.35790582,-71.14168096,-14.5,2011-12-29 08:38:46
0.999000072479248,42.35798546,-71.14204429,-14.3999996185303,2011-12-29 08:38:47
1,42.35802015,-71.14238537,-14.1000003814697,2011-12-29 08:38:48
1.00099992752075,42.35807503,-71.1427646,-14.3000001907349,2011-12-29 08:38:49
1.00100016593933,42.35811635,-71.14311398,-13,2011-12-29 08:38:50
1.00099992752075,42.35815458,-71.14347115,-13.1000003814697,2011-12-29 08:38:51
1.00799989700317,42.35819058,-71.14383792,-12.8000001907349,2011-12-29 08:38:52
0.997000217437744,42.35823486,-71.1442129,-12,2011-12-29 08:38:53
0.988999843597412,42.3582796,-71.14456967,-12.1000003814697,2011-12-29 08:38:54
0.998000144958496,42.35831123,-71.14489965,-11.8999996185303,2011-12-29 08:38:55
1.00099992752075,42.35836319,-71.14528334,-10.8999996185303,2011-12-29 08:38:56
1.03399991989136,42.35841056,-71.14565704,-10.8000001907349,2011-12-29 08:38:57
0.967000007629395,42.35845148,-71.14601413,-10.3000001907349,2011-12-29 08:38:58
1.02400016784668,42.35847711,-71.1464118,-11.1000003814697,2011-12-29 08:38:59
0.97599983215332,42.358488,-71.14677475,-9.80000019073486,2011-12-29 08:39:00
1.19200015068054,42.35848839,-71.14714631,-9.5,2011-12-29 08:39:01
0.805999994277954,42.35847971,-71.14749246,-10.5,2011-12-29 08:39:02
1.78299999237061,42.35845276,-71.147966,-11.1000003814697,2011-12-29 08:39:04
0.954999923706055,42.35841733,-71.14833139,-10.6999998092651,2011-12-29 08:39:05
1.14299988746643,42.35837324,-71.14870663,-11.3999996185303,2011-12-29 08:39:06
0.849000215530396,42.35831904,-71.14906436,-11.5,2011-12-29 08:39:07
0.998999834060669,42.35827011,-71.14941589,-11.5,2011-12-29 08:39:08
1,42.35821688,-71.14977639,-11.5,2011-12-29 08:39:09
1.00200009346008,42.35815812,-71.15013372,-12,2011-12-29 08:39:10
1.0239999294281,42.35810685,-71.15048984,-12.1999998092651,2011-12-29 08:39:11
0.999000072479248,42.35807965,-71.1508406,-13.1999998092651,2011-12-29 08:39:12
0.976000070571899,42.35805485,-71.15119709,-12.8999996185303,2011-12-29 08:39:13
0.342000007629395,42.35805128,-71.15144891,-12.3000001907349,2011-12-29 08:39:13
1.93199992179871,42.35799515,-71.15215758,-13.3000001907349,2011-12-29 08:39:15
1.74900007247925,42.35798646,-71.15261595,-13.3000001907349,2011-12-29 08:39:17
0.291999816894531,42.35797691,-71.15286471,-13.6999998092651,2011-12-29 08:39:17
1.95600008964539,42.35794995,-71.15358031,-13.5,2011-12-29 08:39:19
1.00099992752075,42.35793118,-71.15394721,-13.6000003814697,2011-12-29 08:39:20
0.999000072479248,42.35790373,-71.15430569,-12.3000001907349,2011-12-29 08:39:21
1.00699996948242,42.35789405,-71.15463033,-12.3999996185303,2011-12-29 08:39:22
0.995000123977661,42.3578903,-71.155016,-11.8999996185303,2011-12-29 08:39:23
1,42.35788943,-71.15536898,-11.1000003814697,2011-12-29 08:39:24
1.0019998550415,42.35788982,-71.15571405,-11.1999998092651,2011-12-29 08:39:25
1.00500011444092,42.35787588,-71.15607305,-11.8999996185303,2011-12-29 08:39:26
1.73199987411499,42.3578653,-71.15654448,-12.6000003814697,2011-12-29 08:39:28
0.99399995803833,42.35784731,-71.15690467,-13,2011-12-29 08:39:29
0.30400013923645,42.35784618,-71.15716238,-13.1999998092651,2011-12-29 08:39:29
2.04399991035461,42.35781623,-71.15785265,-12,2011-12-29 08:39:31
0.917999982833862,42.35780475,-71.15821134,-13.1000003814697,2011-12-29 08:39:32
1.00399994850159,42.35778161,-71.1585792,-12.8999996185303,2011-12-29 08:39:33
1.0310001373291,42.3577965,-71.1589578,-14.1000003814697,2011-12-29 08:39:34
0.973000049591064,42.35779369,-71.15929106,-14.1999998092651,2011-12-29 08:39:35
0.997999906539917,42.35777122,-71.15963263,-13.1999998092651,2011-12-29 08:39:36
0.999000072479248,42.35776925,-71.15998339,-13,2011-12-29 08:39:37
1.13800001144409,42.35774793,-71.16035625,-12.8999996185303,2011-12-29 08:39:38
0.86299991607666,42.35773103,-71.16073357,-13.6999998092651,2011-12-29 08:39:39
4.05699992179871,42.35765876,-71.16221446,-11.3999996185303,2011-12-29 08:39:43
0.956000089645386,42.35764601,-71.16258915,-10.8000001907349,2011-12-29 08:39:44
0.983999967575073,42.35762246,-71.16296683,-10.1000003814697,2011-12-29 08:39:45
0.999000072479248,42.35761029,-71.16334799,-9.80000019073486,2011-12-29 08:39:46
1.0019998550415,42.35757767,-71.16373271,-8.69999980926514,2011-12-29 08:39:47
0.999000072479248,42.35756497,-71.16409198,-9,2011-12-29 08:39:48
1.71900010108948,42.35755217,-71.16457842,-9.19999980926514,2011-12-29 08:39:50
1.01399993896484,42.357539,-71.16495202,-9.39999961853027,2011-12-29 08:39:51
0.303999900817871,42.35754202,-71.16520368,-8.19999980926514,2011-12-29 08:39:51
1.9610002040863,42.35753668,-71.16592078,-7.90000009536743,2011-12-29 08:39:53
0.996999979019165,42.35754833,-71.1662767,-6.69999980926514,2011-12-29 08:39:54
1.00099992752075,42.35757128,-71.16659916,-6.69999980926514,2011-12-29 08:39:55
1.72399997711182,42.35755522,-71.16709196,-6.80000019073486,2011-12-29 08:39:57
1.0090000629425,42.35756489,-71.16748986,-7.90000009536743,2011-12-29 08:39:58
1.2039999961853,42.35756096,-71.16788246,-9,2011-12-29 08:39:59
0.138000011444092,42.35754375,-71.16817231,-7.80000019073486,2011-12-29 08:39:59
1.92499995231628,42.35752253,-71.16886733,-8,2011-12-29 08:40:01
1,42.35753663,-71.16923413,-7.69999980926514,2011-12-29 08:40:02
0.999000072479248,42.35756922,-71.16959625,-7.69999980926514,2011-12-29 08:40:03
1.14499998092651,42.35760745,-71.16995609,-8.5,2011-12-29 08:40:04
0.855999946594238,42.35764051,-71.17033058,-10,2011-12-29 08:40:05
1,42.35765666,-71.17065661,-9.89999961853027,2011-12-29 08:40:06
0.999000072479248,42.35768135,-71.1709986,-10.1999998092651,2011-12-29 08:40:07
1.10500001907349,42.35768286,-71.17137288,-9.39999961853027,2011-12-29 08:40:08
0.895999908447266,42.35765797,-71.17174012,-9.39999961853027,2011-12-29 08:40:09
1,42.35766434,-71.17208745,-9.80000019073486,2011-12-29 08:40:10
1.00399994850159,42.35770636,-71.17241255,-9.19999980926514,2011-12-29 08:40:11
0.995000123977661,42.35771604,-71.17277173,-9.30000019073486,2011-12-29 08:40:12
1.00099992752075,42.35769514,-71.17312031,-10.1000003814697,2011-12-29 08:40:13
0.999000072479248,42.35769973,-71.17346154,-11,2011-12-29 08:40:14
1.01099991798401,42.35770987,-71.1738159,-10.6000003814697,2011-12-29 08:40:15
0.990000009536743,42.35776248,-71.17414173,-11.1000003814697,2011-12-29 08:40:16
1.00099992752075,42.35777997,-71.17449569,-10.6000003814697,2011-12-29 08:40:17
1.00300002098083,42.35778195,-71.17486391,-9.80000019073486,2011-12-29 08:40:18
0.996000051498413,42.35781143,-71.17524745,-8.89999961853027,2011-12-29 08:40:19
1,42.35779962,-71.17561873,-7.59999990463257,2011-12-29 08:40:20
1.00499987602234,42.35782579,-71.17596807,-6.69999980926514,2011-12-29 08:40:21
1.007000207901,42.35782638,-71.1763734,-5.80000019073486,2011-12-29 08:40:22
0.990999937057495,42.3578398,-71.17677089,-4.5,2011-12-29 08:40:23
1.0019998550415,42.35785634,-71.17711453,-4.5,2011-12-29 08:40:24
1,42.35785024,-71.17747557,-4.80000019073486,2011-12-29 08:40:25
1,42.35787028,-71.17782155,-3.90000009536743,2011-12-29 08:40:26
0.999000072479248,42.35783678,-71.17815718,-4.80000019073486,2011-12-29 08:40:27
0.999000072479248,42.35780183,-71.17852066,-5,2011-12-29 08:40:28
1.00099992752075,42.35776479,-71.17886268,-5.30000019073486,2011-12-29 08:40:29
1.00200009346008,42.35771634,-71.17919822,-6.69999980926514,2011-12-29 08:40:30
1.74199986457825,42.35764536,-71.17962277,-7.90000009536743,2011-12-29 08:40:32
0.979000091552734,42.35758552,-71.17993225,-9,2011-12-29 08:40:33
1.07800006866455,42.35752168,-71.18026798,-9.5,2011-12-29 08:40:34
0.273999929428101,42.35747294,-71.1805054,-10.8000001907349,2011-12-29 08:40:34
1.76600003242493,42.35739577,-71.18090359,-11.5,2011-12-29 08:40:36
0.884999990463257,42.35731696,-71.18121137,-11.6000003814697,2011-12-29 08:40:37
0.996999979019165,42.35724886,-71.18153223,-12.5,2011-12-29 08:40:38
0.997999906539917,42.35718131,-71.18185209,-13.1000003814697,2011-12-29 08:40:39
1,42.35711987,-71.18217981,-12.6999998092651,2011-12-29 08:40:40
1.04200005531311,42.35706301,-71.18249482,-12.1999998092651,2011-12-29 08:40:41
0.275000095367432,42.35700991,-71.18274465,-12.1999998092651,2011-12-29 08:40:41
1.95899987220764,42.3568595,-71.18339579,-9.89999961853027,2011-12-29 08:40:43
1.73200011253357,42.35676735,-71.18382001,-10.3000001907349,2011-12-29 08:40:45
0.998999834060669,42.3567055,-71.18415041,-10.8000001907349,2011-12-29 08:40:46
1.01300001144409,42.3566396,-71.18447266,-11.1999998092651,2011-12-29 08:40:47
0.989000082015991,42.35657075,-71.18479376,-11.3999996185303,2011-12-29 08:40:48
1.02099990844727,42.35649784,-71.18512107,-11,2011-12-29 08:40:49
0.971000194549561,42.35643361,-71.18545339,-10.5,2011-12-29 08:40:50
1,42.35636601,-71.18579002,-10.3000001907349,2011-12-29 08:40:51
1.14599990844727,42.3563118,-71.18611859,-9.89999961853027,2011-12-29 08:40:52
0.849999904632568,42.35624721,-71.18644793,-9.80000019073486,2011-12-29 08:40:53
0.998000144958496,42.35618397,-71.18677716,-9.80000019073486,2011-12-29 08:40:54
1.00399994850159,42.35611905,-71.1871227,-10.3999996185303,2011-12-29 08:40:55
1.00699996948242,42.35605413,-71.18747558,-10.6999998092651,2011-12-29 08:40:56
1.00300002098083,42.35599418,-71.1877872,-10.5,2011-12-29 08:40:57
0.989000082015991,42.35592772,-71.18812908,-10.6999998092651,2011-12-29 08:40:58
1.00300002098083,42.35586549,-71.18847003,-10.6999998092651,2011-12-29 08:40:59
1.00099992752075,42.35579973,-71.188812,-11,2011-12-29 08:41:00
4.13499999046326,42.35550324,-71.19012181,-11.6999998092651,2011-12-29 08:41:04
0.865000009536743,42.35542759,-71.1904638,-11.6000003814697,2011-12-29 08:41:05
0.358000040054321,42.35537282,-71.19070762,-12.3000001907349,2011-12-29 08:41:05
1.91599988937378,42.35527937,-71.1913111,-11.5,2011-12-29 08:41:07
1.17200016975403,42.35517325,-71.19165713,-11.6000003814697,2011-12-29 08:41:08
1.55799984931946,42.35508094,-71.1920715,-12.3999996185303,2011-12-29 08:41:10
1.02100014686584,42.35502188,-71.19238311,-12.6000003814697,2011-12-29 08:41:11
0.971999883651733,42.35497237,-71.19267213,-12.8999996185303,2011-12-29 08:41:12
1.00399994850159,42.35491051,-71.19296051,-13.8000001907349,2011-12-29 08:41:13
1,42.35485097,-71.19323258,-13.8999996185303,2011-12-29 08:41:14
1.00600004196167,42.35480125,-71.19351086,-14.1000003814697,2011-12-29 08:41:15
0.99399995803833,42.35474785,-71.19377811,-14.6000003814697,2011-12-29 08:41:16
1.02100014686584,42.35468562,-71.19406512,-14.5,2011-12-29 08:41:17
0.303999900817871,42.35463747,-71.19425662,-15.1000003814697,2011-12-29 08:41:17
2.83699989318848,42.3544917,-71.19489315,-14.1000003814697,2011-12-29 08:41:20
0.186000108718872,42.35444071,-71.19511291,-14.5,2011-12-29 08:41:20
1.92499995231628,42.35430238,-71.1956579,-14.3000001907349,2011-12-29 08:41:22
1,42.35420066,-71.1959608,-14.3999996185303,2011-12-29 08:41:23
1.01500010490417,42.35407627,-71.196267,-15.8999996185303,2011-12-29 08:41:24
0.998999834060669,42.35399006,-71.19655093,-14.8000001907349,2011-12-29 08:41:25
0.991000175476074,42.35391936,-71.19682422,-14.3000001907349,2011-12-29 08:41:26
1.74300003051758,42.35381094,-71.19720623,-14.6999998092651,2011-12-29 08:41:28
0.332000017166138,42.35375617,-71.1974364,-15.3000001907349,2011-12-29 08:41:28
1.92499995231628,42.35357571,-71.19798908,-15.6999998092651,2011-12-29 08:41:30
1.01999998092651,42.3534855,-71.19826126,-16.7999992370605,2011-12-29 08:41:31
0.986000061035156,42.35341298,-71.19854861,-16.2999992370605,2011-12-29 08:41:32
0.988999843597412,42.35332667,-71.1988362,-16.7000007629395,2011-12-29 08:41:33
0.999000072479248,42.35324209,-71.19911037,-16.2000007629395,2011-12-29 08:41:34
1.00200009346008,42.3531459,-71.19938443,-16.2000007629395,2011-12-29 08:41:35
0.998999834060669,42.35305918,-71.19969943,-15.6000003814697,2011-12-29 08:41:36
1,42.35296778,-71.1999775,-16.2999992370605,2011-12-29 08:41:37
1.73699998855591,42.35286264,-71.20036267,-17.2999992370605,2011-12-29 08:41:39
0.990000009536743,42.35278325,-71.20065079,-17.1000003814697,2011-12-29 08:41:40
0.312999963760376,42.35270495,-71.20086262,-16.8999996185303,2011-12-29 08:41:40
2.68600010871887,42.35253699,-71.201529,-16.8999996185303,2011-12-29 08:41:43
0.997999906539917,42.3524649,-71.20180166,-17.1000003814697,2011-12-29 08:41:44
1.01300001144409,42.352381,-71.20207576,-17.3999996185303,2011-12-29 08:41:45
0.991000175476074,42.35230285,-71.2023477,-17.6000003814697,2011-12-29 08:41:46
1.01099991798401,42.35223263,-71.20261012,-17.5,2011-12-29 08:41:47
0.299000024795532,42.35216476,-71.20281054,-17.2999992370605,2011-12-29 08:41:47
1.96099996566772,42.35202234,-71.20334891,-16.7000007629395,2011-12-29 08:41:49
1,42.35195098,-71.20363833,-15.8000001907349,2011-12-29 08:41:50
0.997999906539917,42.35188462,-71.20390894,-15.5,2011-12-29 08:41:51
1.73100018501282,42.35179494,-71.20429327,-15.3999996185303,2011-12-29 08:41:53
0.351999998092651,42.35174693,-71.20452726,-15,2011-12-29 08:41:53
1.93599987030029,42.35162633,-71.20508612,-15.8000001907349,2011-12-29 08:41:55
1.93600010871887,42.35154773,-71.20545828,-16.2999992370605,2011-12-29 08:41:57
0.128000020980835,42.35150263,-71.20566515,-16.1000003814697,2011-12-29 08:41:57
1.65999984741211,42.35142989,-71.20600219,-16.1000003814697,2011-12-29 08:41:59
0.375,42.3513848,-71.20621291,-16,2011-12-29 08:41:59
1.88499999046326,42.35127436,-71.20672527,-15.6999998092651,2011-12-29 08:42:01
1.73600006103516,42.35120497,-71.20707906,-15.6000003814697,2011-12-29 08:42:03
1.02500009536743,42.35115351,-71.20734868,-15.8000001907349,2011-12-29 08:42:04
0.964999914169312,42.35110743,-71.20762112,-16.1000003814697,2011-12-29 08:42:05
1.11500000953674,42.3510622,-71.20789176,-15.8000001907349,2011-12-29 08:42:06
0.901000022888184,42.35101072,-71.20817997,-15.3000001907349,2011-12-29 08:42:07
0.296999931335449,42.35099208,-71.20837022,-14.6999998092651,2011-12-29 08:42:07
1.95700001716614,42.35091293,-71.20890891,-14.3999996185303,2011-12-29 08:42:09
1.72699999809265,42.35085673,-71.2092817,-14.3999996185303,2011-12-29 08:42:11
1.00399994850159,42.35081352,-71.20958888,-14.5,2011-12-29 08:42:12
1.12600016593933,42.35075485,-71.20992437,-15.1000003814697,2011-12-29 08:42:13
0.224999904632568,42.35071284,-71.21017774,-16,2011-12-29 08:42:13
2.64800000190735,42.35061696,-71.21086676,-16.3999996185303,2011-12-29 08:42:16
0.312999963760376,42.35056052,-71.21109347,-16.6000003814697,2011-12-29 08:42:16
1.97099995613098,42.35048412,-71.21172857,-17.2000007629395,2011-12-29 08:42:18
1.8730001449585,42.35043997,-71.21215599,-17.7999992370605,2011-12-29 08:42:20
2.85599994659424,42.35031578,-71.21316039,-17.2999992370605,2011-12-29 08:42:23
0.986000061035156,42.35027053,-71.21350142,-16.7999992370605,2011-12-29 08:42:24
2.0019998550415,42.35018606,-71.21415725,-15.8000001907349,2011-12-29 08:42:26
1.16799998283386,42.3501366,-71.21449196,-15.8000001907349,2011-12-29 08:42:27
0.831000089645386,42.35008528,-71.21482928,-16.1000003814697,2011-12-29 08:42:28
1,42.35004371,-71.2151588,-16.3999996185303,2011-12-29 08:42:29
1.00699996948242,42.34998433,-71.21549972,-16.5,2011-12-29 08:42:30
1,42.34992158,-71.21583711,-15.8000001907349,2011-12-29 08:42:31
1.0220000743866,42.34987266,-71.21618557,-15.3000001907349,2011-12-29 08:42:32
0.986000061035156,42.34980705,-71.21651036,-15.3000001907349,2011-12-29 08:42:33
0.33899998664856,42.34974136,-71.21675159,-15.1000003814697,2011-12-29 08:42:33
1.65399980545044,42.34965652,-71.21715686,-15.1999998092651,2011-12-29 08:42:35
0.990000009536743,42.34959083,-71.21747827,-15.3000001907349,2011-12-29 08:42:36
1.00100016593933,42.34951691,-71.21780234,-15.3999996185303,2011-12-29 08:42:37
0.312999963760376,42.34945315,-71.21802483,-14.6999998092651,2011-12-29 08:42:37
1.68899989128113,42.3493701,-71.21843091,-14.8999996185303,2011-12-29 08:42:39
1.00200009346008,42.34930477,-71.21874116,-15.1999998092651,2011-12-29 08:42:40
0.312000036239624,42.34924123,-71.2189653,-15,2011-12-29 08:42:40
2.69700002670288,42.34909136,-71.21968696,-14.6000003814697,2011-12-29 08:42:43
0.994999885559082,42.3490255,-71.22001262,-14.5,2011-12-29 08:42:44
1.15599989891052,42.34895411,-71.22032681,-14.6000003814697,2011-12-29 08:42:45
0.844000101089478,42.34888579,-71.22064103,-14.1999998092651,2011-12-29 08:42:46
1.00600004196167,42.3488176,-71.22095444,-14,2011-12-29 08:42:47
1,42.34875474,-71.22126676,-14,2011-12-29 08:42:48
0.991999864578247,42.34868117,-71.2215999,-14,2011-12-29 08:42:49
1.10400009155273,42.34861564,-71.22190932,-13.3999996185303,2011-12-29 08:42:50
0.243000030517578,42.34856413,-71.22217153,-13.8999996185303,2011-12-29 08:42:50
33.3919999599457,42.3473306,-71.23333341,-17.7999992370605,2011-12-29 08:43:23
0.983000040054321,42.34729055,-71.23370673,-11.5,2011-12-29 08:43:24
1.5460000038147,42.34715986,-71.23432404,-11.6000003814697,2011-12-29 08:43:26
1.73199987411499,42.34715692,-71.23475151,-11.1999998092651,2011-12-29 08:43:28
1.16000008583069,42.34713784,-71.23505427,-11.6000003814697,2011-12-29 08:43:29
0.189000129699707,42.34711122,-71.2352725,-9.89999961853027,2011-12-29 08:43:29
2.66799998283386,42.3470718,-71.23595217,-11,2011-12-29 08:43:32
0.976999998092651,42.3470696,-71.23627838,-10.5,2011-12-29 08:43:33
1,42.34705938,-71.23659511,-10.8000001907349,2011-12-29 08:43:34
1.00099992752075,42.34705529,-71.23691755,-11.6000003814697,2011-12-29 08:43:35
0.358000040054321,42.34705163,-71.23716166,-12.3000001907349,2011-12-29 08:43:35
1.68499994277954,42.34704368,-71.23756576,-12.1000003814697,2011-12-29 08:43:37
0.336999893188477,42.3470192,-71.23782604,-10.8000001907349,2011-12-29 08:43:37
1.89800000190735,42.34698911,-71.23845273,-10.3999996185303,2011-12-29 08:43:39
0.996000051498413,42.34696916,-71.2387862,-9.39999961853027,2011-12-29 08:43:40
1.72900009155273,42.3469436,-71.23922143,-8.69999980926514,2011-12-29 08:43:42
1.08200001716614,42.34690387,-71.23954059,-8.39999961853027,2011-12-29 08:43:43
0.919999837875366,42.34686995,-71.23987086,-9.19999980926514,2011-12-29 08:43:44
1.00800013542175,42.34683729,-71.24019358,-9.5,2011-12-29 08:43:45
0.299000024795532,42.346812,-71.24043148,-8.30000019073486,2011-12-29 08:43:45
1.70099997520447,42.34677499,-71.24084838,-8.80000019073486,2011-12-29 08:43:47
1.01300001144409,42.34674386,-71.24118113,-8.60000038146973,2011-12-29 08:43:48
0.372999906539917,42.346705,-71.24142143,-8.5,2011-12-29 08:43:48
1.87800002098083,42.34664592,-71.24205358,-8.60000038146973,2011-12-29 08:43:50
1.72399997711182,42.346619,-71.24248625,-9.10000038146973,2011-12-29 08:43:52
1.00399994850159,42.34659098,-71.24280389,-8.39999961853027,2011-12-29 08:43:53
1.02000021934509,42.34656203,-71.24311924,-9,2011-12-29 08:43:54
0.97599983215332,42.34653127,-71.24343255,-9.19999980926514,2011-12-29 08:43:55
0.371000051498413,42.34650997,-71.24368906,-9.5,2011-12-29 08:43:55
1.74900007247925,42.34647217,-71.24406436,-9.10000038146973,2011-12-29 08:43:57
0.881999969482422,42.34644866,-71.24436623,-8.69999980926514,2011-12-29 08:43:58
0.305999994277954,42.34642976,-71.24457753,-8,2011-12-29 08:43:58
1.96499991416931,42.34637307,-71.24517797,-6.5,2011-12-29 08:44:00
1.00300002098083,42.34632589,-71.24546803,-6.80000019073486,2011-12-29 08:44:01
1.00300002098083,42.34630273,-71.24579021,-7.09999990463257,2011-12-29 08:44:02
1.00099992752075,42.34628986,-71.24609991,-7.30000019073486,2011-12-29 08:44:03
1.72900009155273,42.34626809,-71.24651809,-7.30000019073486,2011-12-29 08:44:05
0.993000030517578,42.34623895,-71.24684737,-7.40000009536743,2011-12-29 08:44:06
1.00600004196167,42.346205,-71.247169,-7.19999980926514,2011-12-29 08:44:07
0.990000009536743,42.34617756,-71.24751071,-6.80000019073486,2011-12-29 08:44:08
0.313999891281128,42.34616396,-71.24774239,-7.80000019073486,2011-12-29 08:44:08
2.69900012016296,42.34609379,-71.24849257,-9,2011-12-29 08:44:11
0.304999828338623,42.34604869,-71.24873377,-7.5,2011-12-29 08:44:11
1.6800000667572,42.34597603,-71.24914675,-7,2011-12-29 08:44:13
1.00999999046326,42.34589879,-71.24945469,-7.30000019073486,2011-12-29 08:44:14
1.13199996948242,42.34583416,-71.24975727,-7.80000019073486,2011-12-29 08:44:15
0.17900013923645,42.34577618,-71.2499678,-7.19999980926514,2011-12-29 08:44:15
2.07699990272522,42.34561296,-71.25053635,-7.69999980926514,2011-12-29 08:44:17
0.875999927520752,42.34552854,-71.25082117,-6.90000009536743,2011-12-29 08:44:18
1.87199997901917,42.34538661,-71.25118891,-7,2011-12-29 08:44:20
0.861000061035156,42.34525466,-71.25144642,-6.80000019073486,2011-12-29 08:44:21
1.02300000190735,42.34511755,-71.25170222,-7,2011-12-29 08:44:22
0.977999925613403,42.34498239,-71.25195772,-6.40000009536743,2011-12-29 08:44:23
1,42.34484705,-71.25221837,-5.80000019073486,2011-12-29 08:44:24
1.00200009346008,42.34470415,-71.25246557,-4.69999980926514,2011-12-29 08:44:25
0.996999979019165,42.3445578,-71.2527059,-4.19999980926514,2011-12-29 08:44:26
1.02500009536743,42.34440195,-71.25294308,-4,2011-12-29 08:44:27
0.99399995803833,42.34424123,-71.25317819,-4.09999990463257,2011-12-29 08:44:28
0.289999961853027,42.34414013,-71.25333572,-3.40000009536743,2011-12-29 08:44:28
1.6949999332428,42.34394307,-71.25361305,-4.30000019073486,2011-12-29 08:44:30
0.996999979019165,42.34379793,-71.25383971,-4.19999980926514,2011-12-29 08:44:31
1.03200006484985,42.3436745,-71.25407186,-3.59999990463257,2011-12-29 08:44:32
0.357000112533569,42.34353359,-71.25425217,-3,2011-12-29 08:44:32
1.88499999046326,42.34331457,-71.25466784,-0.800000011920929,2011-12-29 08:44:34
0.997999906539917,42.34318466,-71.25493029,-0.899999976158142,2011-12-29 08:44:35
1.7350001335144,42.34304794,-71.25525696,-1.20000004768372,2011-12-29 08:44:37
1.03299999237061,42.34297068,-71.25553344,-1.79999995231628,2011-12-29 08:44:38
0.363999843597412,42.34289942,-71.25573707,-0.800000011920929,2011-12-29 08:44:38
2.60700011253357,42.34270918,-71.25632888,0,2011-12-29 08:44:41
1.00699996948242,42.34263269,-71.25661272,0.100000001490116,2011-12-29 08:44:42
1.13499999046326,42.34255614,-71.25689426,0,2011-12-29 08:44:43
0.841000080108643,42.34248788,-71.25719032,0.600000023841858,2011-12-29 08:44:44
3.99799990653992,42.34219384,-71.25833588,0.400000005960464,2011-12-29 08:44:48
1.00399994850159,42.34209852,-71.25862983,-1,2011-12-29 08:44:49
1.0090000629425,42.34202906,-71.25894256,-1.29999995231628,2011-12-29 08:44:50
0.338000059127808,42.34196557,-71.25912488,-1,2011-12-29 08:44:50
1.81900000572205,42.34185543,-71.25946589,-1.10000002384186,2011-12-29 08:44:52
0.823999881744385,42.34175428,-71.25972708,-1.60000002384186,2011-12-29 08:44:53
1.01200008392334,42.34164542,-71.25997825,-1.5,2011-12-29 08:44:54
1.02600002288818,42.34153521,-71.26021846,-1.29999995231628,2011-12-29 08:44:55
0.958999872207642,42.34143203,-71.2604626,-1.20000004768372,2011-12-29 08:44:56
2.02900004386902,42.34117511,-71.2608948,-1.70000004768372,2011-12-29 08:44:58
0.355000019073486,42.3410676,-71.261075,-2.59999990463257,2011-12-29 08:44:58
1.90400004386902,42.34080408,-71.26145613,-4.69999980926514,2011-12-29 08:45:00
1.13800001144409,42.34066779,-71.26164514,-3,2011-12-29 08:45:01
0.865000009536743,42.34053391,-71.26183517,-3.40000009536743,2011-12-29 08:45:02
1.00600004196167,42.34040628,-71.26204519,-3.29999995231628,2011-12-29 08:45:03
0.997999906539917,42.3402884,-71.2622198,-3.20000004768372,2011-12-29 08:45:04
0.996000051498413,42.34015342,-71.26241553,-1.60000002384186,2011-12-29 08:45:05
1.75099992752075,42.34001587,-71.2626616,-0.899999976158142,2011-12-29 08:45:07
0.972000122070312,42.33995,-71.26283607,-1.20000004768372,2011-12-29 08:45:08
0.995999813079834,42.33990178,-71.26304316,-1.29999995231628,2011-12-29 08:45:09
1.00400018692017,42.33987729,-71.26327491,-1.20000004768372,2011-12-29 08:45:10
3.27300000190735,42.33972917,-71.26408469,-1.89999997615814,2011-12-29 08:45:13
1,42.3396889,-71.26427873,-2.5,2011-12-29 08:45:14
1.09499979019165,42.33966555,-71.2644916,1,2011-12-29 08:45:15
0.906000137329102,42.33962807,-71.26465436,0.699999988079071,2011-12-29 08:45:16
0.999000072479248,42.33960378,-71.2648102,0.600000023841858,2011-12-29 08:45:17
1.00499987602234,42.33957719,-71.2649738,1,2011-12-29 08:45:18
1,42.33953333,-71.26512664,1.10000002384186,2011-12-29 08:45:19
1.72699999809265,42.33950118,-71.26530287,0,2011-12-29 08:45:21
0.348000049591064,42.33948816,-71.26541216,0.100000001490116,2011-12-29 08:45:21
1.92799997329712,42.3394739,-71.26567517,1.10000002384186,2011-12-29 08:45:23
1.00099992752075,42.3394932,-71.26581329,-0.100000001490116,2011-12-29 08:45:24
0.996000051498413,42.33955159,-71.26592907,1.29999995231628,2011-12-29 08:45:25
1.00200009346008,42.33961701,-71.26604741,1.39999997615814,2011-12-29 08:45:26
0.998999834060669,42.33969066,-71.26613139,0.800000011920929,2011-12-29 08:45:27
0.996999979019165,42.33979714,-71.26620029,-0.200000002980232,2011-12-29 08:45:28
1.01700019836426,42.33991933,-71.26623445,-1.29999995231628,2011-12-29 08:45:29
0.980000019073486,42.34001924,-71.26622974,-1,2011-12-29 08:45:30
1.73299980163574,42.34021402,-71.2662595,-0.800000011920929,2011-12-29 08:45:32
0.992000102996826,42.34034108,-71.26622081,-1.10000002384186,2011-12-29 08:45:33
0.313999891281128,42.34043947,-71.26618215,-0.800000011920929,2011-12-29 08:45:33
2.71000003814697,42.34070202,-71.26603709,-0.5,2011-12-29 08:45:36
0.982000112533569,42.34078975,-71.26596326,-0.699999988079071,2011-12-29 08:45:37
1,42.34087071,-71.26589445,-0.800000011920929,2011-12-29 08:45:38
0.421000003814697,42.34089017,-71.2658522,0.300000011920929,2011-12-29 08:45:38
1.85599994659424,42.34094896,-71.26582059,2.90000009536743,2011-12-29 08:45:40
0.992000102996826,42.34096718,-71.26579383,3.79999995231628,2011-12-29 08:45:41
1.00499987602234,42.34099549,-71.26575801,4.09999990463257,2011-12-29 08:45:42
1,42.34102184,-71.26574159,3.5,2011-12-29 08:45:43
0.995000123977661,42.34102969,-71.26571093,3.09999990463257,2011-12-29 08:45:44
1.0389997959137,42.34103832,-71.26566232,3.5,2011-12-29 08:45:45
0.959000110626221,42.34106593,-71.26563918,3,2011-12-29 08:45:46
0.999000072479248,42.34109871,-71.26560179,2.40000009536743,2011-12-29 08:45:47
1.73499989509583,42.3410864,-71.2655054,0.800000011920929,2011-12-29 08:45:49
0.345000028610229,42.34103487,-71.26543102,1.10000002384186,2011-12-29 08:45:49
1.92300009727478,42.34105604,-71.26526661,2.09999990463257,2011-12-29 08:45:51
0.996999979019165,42.34107382,-71.26518537,2.40000009536743,2011-12-29 08:45:52
1.74399995803833,42.34109429,-71.26495938,2.5,2011-12-29 08:45:54
0.983999967575073,42.34111984,-71.26478511,2.5,2011-12-29 08:45:55
0.999000072479248,42.3411312,-71.26459458,1.70000004768372,2011-12-29 08:45:56
1.21499991416931,42.34115534,-71.26439537,2.29999995231628,2011-12-29 08:45:57
0.78600001335144,42.34118445,-71.26422147,1.79999995231628,2011-12-29 08:45:58
1.00399994850159,42.34119535,-71.26401953,1.70000004768372,2011-12-29 08:45:59
0.999000072479248,42.34120857,-71.26382012,1.29999995231628,2011-12-29 08:46:00
1,42.34120175,-71.26362217,1.39999997615814,2011-12-29 08:46:01
1.0019998550415,42.34116545,-71.26342135,1.60000002384186,2011-12-29 08:46:02
1,42.34109862,-71.26323078,1.70000004768372,2011-12-29 08:46:03
0.344000101089478,42.34102497,-71.26308475,1,2011-12-29 08:46:03
2.65000009536743,42.34075791,-71.26270081,1.10000002384186,2011-12-29 08:46:06
0.998999834060669,42.34060639,-71.26258617,1.29999995231628,2011-12-29 08:46:07
0.315999984741211,42.34049803,-71.26251068,0.899999976158142,2011-12-29 08:46:07
1.95600008964539,42.3402213,-71.26225412,1.60000002384186,2011-12-29 08:46:09
1.80800008773804,42.33999664,-71.26205381,0.400000005960464,2011-12-29 08:46:11
0.94599986076355,42.33982414,-71.26191489,-0.100000001490116,2011-12-29 08:46:12
0.294000148773193,42.33968482,-71.2618527,0,2011-12-29 08:46:12
1.96399998664856,42.33935305,-71.26151686,-0.899999976158142,2011-12-29 08:46:14
0.998999834060669,42.3391972,-71.26135854,-2.09999990463257,2011-12-29 08:46:15
1.01200008392334,42.33901368,-71.26119048,-2.79999995231628,2011-12-29 08:46:16
0.990000009536743,42.3388265,-71.26102157,-3.59999990463257,2011-12-29 08:46:17
1.00499987602234,42.33863838,-71.260854,-3.59999990463257,2011-12-29 08:46:18
0.990000009536743,42.33846308,-71.26066209,-2.90000009536743,2011-12-29 08:46:19
1.00100016593933,42.33828914,-71.26048768,-1.79999995231628,2011-12-29 08:46:20
1,42.33809178,-71.26027752,-2.09999990463257,2011-12-29 08:46:21
1.00600004196167,42.33791052,-71.26009172,-2.59999990463257,2011-12-29 08:46:22
0.994999885559082,42.33773317,-71.25989238,-3.40000009536743,2011-12-29 08:46:23
1.00399994850159,42.33752339,-71.25972577,-3.09999990463257,2011-12-29 08:46:24
0.991000175476074,42.33730545,-71.25952057,-3.70000004768372,2011-12-29 08:46:25
0.998999834060669,42.33714055,-71.25935313,-2.90000009536743,2011-12-29 08:46:26
0.998000144958496,42.33695087,-71.25917338,-4.09999990463257,2011-12-29 08:46:27
1.0019998550415,42.33673512,-71.25894571,-5.30000019073486,2011-12-29 08:46:28
1.00399994850159,42.33653799,-71.25878645,-5.90000009536743,2011-12-29 08:46:29
0.996000051498413,42.33634337,-71.2586002,-6.69999980926514,2011-12-29 08:46:30
1,42.33616887,-71.25844522,-6.90000009536743,2011-12-29 08:46:31
0.999000072479248,42.33593926,-71.25821999,-7.59999990463257,2011-12-29 08:46:32
1.86199998855591,42.33565519,-71.25795274,-7.90000009536743,2011-12-29 08:46:34
0.865000009536743,42.33544513,-71.25775547,-8,2011-12-29 08:46:35
0.990000009536743,42.33523513,-71.25757,-8.10000038146973,2011-12-29 08:46:36
2.02699995040894,42.33479758,-71.25716796,-8.19999980926514,2011-12-29 08:46:38
0.976000070571899,42.33458463,-71.25697931,-8.30000019073486,2011-12-29 08:46:39
1,42.33439276,-71.25682483,-8.30000019073486,2011-12-29 08:46:40
3.35599994659424,42.33362994,-71.25632162,-7.5,2011-12-29 08:46:43
1.92700004577637,42.33323146,-71.25606912,-6.90000009536743,2011-12-29 08:46:45
0.997999906539917,42.33303108,-71.25590861,-7.5,2011-12-29 08:46:46
1.33899998664856,42.3328175,-71.25573173,-8,2011-12-29 08:46:47
0.656000137329102,42.33261354,-71.25558046,-8.10000038146973,2011-12-29 08:46:48
1.73199987411499,42.33233673,-71.25536131,-6.59999990463257,2011-12-29 08:46:50
0.351000070571899,42.33218062,-71.25524324,-5.69999980926514,2011-12-29 08:46:50
1.93199992179871,42.33180535,-71.25499025,-4.59999990463257,2011-12-29 08:46:52
1.00399994850159,42.33159347,-71.25484142,-4.90000009536743,2011-12-29 08:46:53
0.986000061035156,42.33137836,-71.25470598,-6,2011-12-29 08:46:54
1.00100016593933,42.33118427,-71.25454896,-4.80000019073486,2011-12-29 08:46:55
1.00999999046326,42.33099596,-71.25440039,-5.40000009536743,2011-12-29 08:46:56
1.04299998283386,42.3308368,-71.25426557,-5.09999990463257,2011-12-29 08:46:57
0.944999933242798,42.33066796,-71.25415929,-5.09999990463257,2011-12-29 08:46:58
1.13599991798401,42.3304706,-71.25403523,-6.19999980926514,2011-12-29 08:46:59
0.864000082015991,42.33026976,-71.25390257,-5.19999980926514,2011-12-29 08:47:00
1.08299994468689,42.33005866,-71.25374634,-4,2011-12-29 08:47:01
0.91700005531311,42.3298817,-71.25359435,-3.09999990463257,2011-12-29 08:47:02
1.00200009346008,42.32970416,-71.25343555,-2.29999995231628,2011-12-29 08:47:03
1.02300000190735,42.32953212,-71.25326847,-3.5,2011-12-29 08:47:04
0.986999988555908,42.32936266,-71.25313853,-3.79999995231628,2011-12-29 08:47:05
1.01399993896484,42.32919733,-71.253001,-3.90000009536743,2011-12-29 08:47:06
0.990999937057495,42.32903863,-71.2528559,-5,2011-12-29 08:47:07
1.05800008773804,42.32892516,-71.25274481,-4.69999980926514,2011-12-29 08:47:08
0.931999921798706,42.3287958,-71.25261319,-4.69999980926514,2011-12-29 08:47:09
0.999000072479248,42.32866943,-71.25249917,-4.59999990463257,2011-12-29 08:47:10
1.0019998550415,42.32854842,-71.25238559,-4.59999990463257,2011-12-29 08:47:11
1.00200009346008,42.32838616,-71.25222147,-2.70000004768372,2011-12-29 08:47:12
0.99399995803833,42.32825234,-71.25209405,-2.70000004768372,2011-12-29 08:47:13
1.74300003051758,42.32808023,-71.25195011,-3.59999990463257,2011-12-29 08:47:15
0.375,42.32799229,-71.25183702,-3.90000009536743,2011-12-29 08:47:15
1.89299988746643,42.32771796,-71.25159562,-2.20000004768372,2011-12-29 08:47:17
0.990000009536743,42.32759137,-71.25145855,-1.89999997615814,2011-12-29 08:47:18
1.00600004196167,42.3274496,-71.25133389,-1.10000002384186,2011-12-29 08:47:19
0.995000123977661,42.32730362,-71.25120509,-2.40000009536743,2011-12-29 08:47:20
1,42.32716451,-71.2510719,-1.60000002384186,2011-12-29 08:47:21
1.01099991798401,42.32699451,-71.25094554,-0.800000011920929,2011-12-29 08:47:22
0.996999979019165,42.32683739,-71.25082049,-1.10000002384186,2011-12-29 08:47:23
1.72000002861023,42.32661985,-71.25068228,-1.60000002384186,2011-12-29 08:47:25
0.99399995803833,42.32642004,-71.25057031,-1.5,2011-12-29 08:47:26
0.311000108718872,42.32627558,-71.25050309,-0.699999988079071,2011-12-29 08:47:26
1.97300004959106,42.32588145,-71.2503114,-2.20000004768372,2011-12-29 08:47:28
0.990000009536743,42.32565938,-71.25018941,-1.10000002384186,2011-12-29 08:47:29
1.00299978256226,42.32546131,-71.2501166,-1.70000004768372,2011-12-29 08:47:30
1.01700019836426,42.32525829,-71.25005798,-1.39999997615814,2011-12-29 08:47:31
0.98199987411499,42.32505418,-71.2499903,-1.20000004768372,2011-12-29 08:47:32
1.00699996948242,42.32484917,-71.24992744,-2,2011-12-29 08:47:33
0.993000030517578,42.32464586,-71.249853,-1.60000002384186,2011-12-29 08:47:34
1,42.32446214,-71.24981128,-1.70000004768372,2011-12-29 08:47:35
0.996999979019165,42.32427469,-71.2497553,-0.200000002980232,2011-12-29 08:47:36
1.0090000629425,42.32408878,-71.24971789,1.20000004768372,2011-12-29 08:47:37
1.03500008583069,42.3238841,-71.2496689,0.800000011920929,2011-12-29 08:47:38
0.968999862670898,42.32367572,-71.24958344,0.5,2011-12-29 08:47:39
0.986999988555908,42.32348531,-71.24953099,1.39999997615814,2011-12-29 08:47:40
1.00600004196167,42.32329763,-71.24946683,1.39999997615814,2011-12-29 08:47:41
1.84999990463257,42.32305058,-71.24938834,1.10000002384186,2011-12-29 08:47:43
0.880000114440918,42.3228697,-71.24930793,0.899999976158142,2011-12-29 08:47:44
1.15700006484985,42.32267636,-71.24919569,1.10000002384186,2011-12-29 08:47:45
0.188999891281128,42.32253844,-71.24905119,1,2011-12-29 08:47:45
2.04299998283386,42.32218991,-71.24885434,0.300000011920929,2011-12-29 08:47:47
0.876000165939331,42.3219868,-71.24871259,0.400000005960464,2011-12-29 08:47:48
1.00299978256226,42.32180846,-71.24859336,0,2011-12-29 08:47:49
1.00200009346008,42.3216418,-71.2484732,-0.699999988079071,2011-12-29 08:47:50
1.00999999046326,42.32148353,-71.24831669,-1.70000004768372,2011-12-29 08:47:51
34.4539999961853,42.31979284,-71.24015538,8.69999980926514,2011-12-29 08:48:25
0.976000070571899,42.31982296,-71.23989062,12.6000003814697,2011-12-29 08:48:26
0.999000072479248,42.31979177,-71.23961216,10.6000003814697,2011-12-29 08:48:27
1.00099992752075,42.31976135,-71.23933428,12.6999998092651,2011-12-29 08:48:28
1.00600004196167,42.31972349,-71.23903688,9.19999980926514,2011-12-29 08:48:29
0.991999864578247,42.31967974,-71.23879375,13.3000001907349,2011-12-29 08:48:30
1.01399993896484,42.31962428,-71.23850683,13.6999998092651,2011-12-29 08:48:31
0.985000133514404,42.31953709,-71.2382347,10.8000001907349,2011-12-29 08:48:32
1.00099992752075,42.3194666,-71.2379107,2.09999990463257,2011-12-29 08:48:33
1.55700016021729,42.3193009,-71.23745881,7.90000009536743,2011-12-29 08:48:35
1,42.31918627,-71.23727287,13.8000001907349,2011-12-29 08:48:36
1.75,42.31903039,-71.23698224,11.3000001907349,2011-12-29 08:48:38
0.98199987411499,42.3189136,-71.2367703,9,2011-12-29 08:48:39
0.999000072479248,42.31879612,-71.236566,8,2011-12-29 08:48:40
1.00099992752075,42.3186687,-71.23638166,6.40000009536743,2011-12-29 08:48:41
0.993000030517578,42.31853897,-71.23618002,5.69999980926514,2011-12-29 08:48:42
0.315000057220459,42.31845957,-71.23604561,5.59999990463257,2011-12-29 08:48:42
2.69299983978271,42.31816195,-71.23569918,4.40000009536743,2011-12-29 08:48:45
0.360000133514404,42.31805586,-71.23559554,6.80000019073486,2011-12-29 08:48:45
1.90999984741211,42.31779464,-71.23531129,3.5,2011-12-29 08:48:47
0.997000217437744,42.31765474,-71.23519326,3.70000004768372,2011-12-29 08:48:48
1.00099992752075,42.31752912,-71.23507908,3.40000009536743,2011-12-29 08:48:49
1.00600004196167,42.31739183,-71.23493557,1.89999997615814,2011-12-29 08:48:50
0.99399995803833,42.31725641,-71.23480747,1.89999997615814,2011-12-29 08:48:51
0.997999906539917,42.31712217,-71.23469732,1.29999995231628,2011-12-29 08:48:52
1.72399997711182,42.31696895,-71.23454324,0.899999976158142,2011-12-29 08:48:54
0.334000110626221,42.31691027,-71.23447527,1.5,2011-12-29 08:48:54
1.94199991226196,42.31672784,-71.23426531,1.79999995231628,2011-12-29 08:48:56
1.00800013542175,42.31661927,-71.23418115,1.70000004768372,2011-12-29 08:48:57
1.00499987602234,42.31653446,-71.23408423,1.89999997615814,2011-12-29 08:48:58
0.996000051498413,42.31640938,-71.23397872,1.5,2011-12-29 08:48:59
0.996999979019165,42.3162803,-71.23388696,1.39999997615814,2011-12-29 08:49:00
1.0550000667572,42.31619445,-71.23379459,1.20000004768372,2011-12-29 08:49:01
0.941999912261963,42.31610507,-71.23372556,-0.300000011920929,2011-12-29 08:49:02
1.00600004196167,42.31598861,-71.2336903,0.5,2011-12-29 08:49:03
0.994999885559082,42.3158897,-71.23369621,-0.400000005960464,2011-12-29 08:49:04
0.997000217437744,42.31579667,-71.23369332,-0.5,2011-12-29 08:49:05
1.0019998550415,42.31569738,-71.23367119,0.200000002980232,2011-12-29 08:49:06
1.00300002098083,42.31561227,-71.23370355,1.29999995231628,2011-12-29 08:49:07
1.7260000705719,42.31551617,-71.23379045,0.800000011920929,2011-12-29 08:49:09
1.00799989700317,42.31546691,-71.23388978,1.20000004768372,2011-12-29 08:49:10
0.986000061035156,42.31541893,-71.233995,1.60000002384186,2011-12-29 08:49:11
1.01999998092651,42.31537673,-71.2340943,2.09999990463257,2011-12-29 08:49:12
0.99399995803833,42.31535317,-71.23420125,2.29999995231628,2011-12-29 08:49:13
0.299000024795532,42.31533866,-71.23427245,2.29999995231628,2011-12-29 08:49:13
1.96900010108948,42.31536101,-71.23448533,2.79999995231628,2011-12-29 08:49:15
0.991999864578247,42.31539911,-71.23460471,3.79999995231628,2011-12-29 08:49:16
1.00300002098083,42.31544518,-71.23470802,3,2011-12-29 08:49:17
1.72699999809265,42.31557761,-71.23481615,2.5,2011-12-29 08:49:19
1.00300002098083,42.31568701,-71.23491127,2.29999995231628,2011-12-29 08:49:20
0.999000072479248,42.31579118,-71.23499022,2.09999990463257,2011-12-29 08:49:21
0.996000051498413,42.31590743,-71.23504107,2.29999995231628,2011-12-29 08:49:22
0.310999870300293,42.3159686,-71.23507873,2.20000004768372,2011-12-29 08:49:22
2.7020001411438,42.31617233,-71.23510325,2,2011-12-29 08:49:25
0.343999862670898,42.31623299,-71.23507506,2.09999990463257,2011-12-29 08:49:25
1.92400002479553,42.31638906,-71.23503867,1.89999997615814,2011-12-29 08:49:27
1.02099990844727,42.31645094,-71.23498081,1.29999995231628,2011-12-29 08:49:28
2.70900011062622,42.31653327,-71.23481906,1.89999997615814,2011-12-29 08:49:31
1.0149998664856,42.31655665,-71.23470295,1.20000004768372,2011-12-29 08:49:32
0.998000144958496,42.31656644,-71.23453551,1.10000002384186,2011-12-29 08:49:33
0.980999946594238,42.31659114,-71.23440336,0.899999976158142,2011-12-29 08:49:34
1.00999999046326,42.31660941,-71.23426649,0.899999976158142,2011-12-29 08:49:35
0.999000072479248,42.31663818,-71.23411149,0.699999988079071,2011-12-29 08:49:36
1.9779999256134,42.31668694,-71.23382594,0.800000011920929,2011-12-29 08:49:38
2.22099995613098,42.31674303,-71.23342723,0.699999988079071,2011-12-29 08:49:40
0.121999979019165,42.31672929,-71.23330902,0.899999976158142,2011-12-29 08:49:40
1.93900012969971,42.31674342,-71.23288167,1.20000004768372,2011-12-29 08:49:42
1.00099992752075,42.31674224,-71.23268084,1,2011-12-29 08:49:43
0.998000144958496,42.31675059,-71.23248513,0.300000011920929,2011-12-29 08:49:44
1.00399994850159,42.31675125,-71.23228777,1.5,2011-12-29 08:49:45
0.998999834060669,42.31675857,-71.23208497,1.70000004768372,2011-12-29 08:49:46
0.995000123977661,42.31675569,-71.23189098,1.89999997615814,2011-12-29 08:49:47
1.0149998664856,42.31677243,-71.23168501,0.5,2011-12-29 08:49:48
1.01600003242493,42.31679387,-71.23146861,1.79999995231628,2011-12-29 08:49:49
0.981000185012817,42.31679445,-71.23122511,1.29999995231628,2011-12-29 08:49:50
1.73299980163574,42.31681241,-71.23093214,1.89999997615814,2011-12-29 08:49:52
0.983000040054321,42.31681944,-71.23068462,1.79999995231628,2011-12-29 08:49:53
0.353000164031982,42.31683149,-71.23050056,0.699999988079071,2011-12-29 08:49:53
3.9229998588562,42.31682252,-71.22958021,0.800000011920929,2011-12-29 08:49:57
1.7260000705719,42.31681294,-71.22925713,0.800000011920929,2011-12-29 08:49:59
1.00399994850159,42.31680009,-71.22900894,0.5,2011-12-29 08:50:00
1.13899993896484,42.31679104,-71.22877024,0.899999976158142,2011-12-29 08:50:01
0.88100004196167,42.31678479,-71.22852582,0.600000023841858,2011-12-29 08:50:02
0.985000133514404,42.31678079,-71.22829044,1.39999997615814,2011-12-29 08:50:03
1,42.31677392,-71.22807188,1.20000004768372,2011-12-29 08:50:04
1.00099992752075,42.31677834,-71.22786476,1,2011-12-29 08:50:05
0.345999956130981,42.31678389,-71.22770736,0.200000002980232,2011-12-29 08:50:05
1.64400005340576,42.31679552,-71.22749109,0.300000011920929,2011-12-29 08:50:07
0.349999904632568,42.31678803,-71.22737749,-0.5,2011-12-29 08:50:07
2.64900016784668,42.31679174,-71.22708007,-1.10000002384186,2011-12-29 08:50:10
1.00599980354309,42.31678386,-71.22697065,-1,2011-12-29 08:50:11
0.988000154495239,42.3167669,-71.22687543,-0.5,2011-12-29 08:50:12
0.998999834060669,42.316755,-71.22680117,0.200000002980232,2011-12-29 08:50:13
1,42.31674604,-71.22675976,0.5,2011-12-29 08:50:14
0.999000072479248,42.31674262,-71.22672234,1.10000002384186,2011-12-29 08:50:15
1,42.31675938,-71.22676021,0.899999976158142,2011-12-29 08:50:16
1.14199995994568,42.31677384,-71.22677614,1.10000002384186,2011-12-29 08:50:17
0.861999988555908,42.31678823,-71.22677664,1.5,2011-12-29 08:50:18
0.996999979019165,42.31684174,-71.22681509,1.70000004768372,2011-12-29 08:50:19
0.999000072479248,42.31688516,-71.2268023,1.70000004768372,2011-12-29 08:50:20
1.00500011444092,42.31692908,-71.22678526,1.79999995231628,2011-12-29 08:50:21
1.04699993133545,42.31696753,-71.22676239,1.79999995231628,2011-12-29 08:50:22
0.950999975204468,42.31701366,-71.2268123,2.09999990463257,2011-12-29 08:50:23
1.17700004577637,42.31706703,-71.22693851,2.59999990463257,2011-12-29 08:50:24
0.829999923706055,42.3171033,-71.22701096,2.20000004768372,2011-12-29 08:50:25
0.99399995803833,42.3171366,-71.2271284,1.29999995231628,2011-12-29 08:50:26
1.00500011444092,42.31716534,-71.22723173,1.29999995231628,2011-12-29 08:50:27
0.997999906539917,42.31718035,-71.22735757,1.29999995231628,2011-12-29 08:50:28
1.00100016593933,42.31717999,-71.22749935,1.29999995231628,2011-12-29 08:50:29
1.00699996948242,42.31716544,-71.2276575,1.10000002384186,2011-12-29 08:50:30
0.302999973297119,42.3171247,-71.22776834,2,2011-12-29 08:50:30
2.84299993515015,42.31706346,-71.22818596,1.89999997615814,2011-12-29 08:50:33
0.858999967575073,42.31703659,-71.22836522,1.79999995231628,2011-12-29 08:50:34
0.30400013923645,42.31701142,-71.22851924,0.800000011920929,2011-12-29 08:50:34
1.95599985122681,42.31697136,-71.22884631,1,2011-12-29 08:50:36
1.84200000762939,42.31696417,-71.22898487,0.699999988079071,2011-12-29 08:50:38
0.884999990463257,42.31696942,-71.22907512,0.5,2011-12-29 08:50:39
0.995000123977661,42.316977,-71.22914789,0.5,2011-12-29 08:50:40
1.00799989700317,42.31698936,-71.22922952,0.5,2011-12-29 08:50:41
0.996000051498413,42.31699772,-71.22931245,0.600000023841858,2011-12-29 08:50:42
1.00099992752075,42.31702316,-71.22938436,0.5,2011-12-29 08:50:43
0.999000072479248,42.31706298,-71.22945592,0.800000011920929,2011-12-29 08:50:44
1.12800002098083,42.31715286,-71.22949074,0.400000005960464,2011-12-29 08:50:45
0.866999864578247,42.31724282,-71.22952118,0.200000002980232,2011-12-29 08:50:46
1.00600004196167,42.31735152,-71.22952898,0.699999988079071,2011-12-29 08:50:47
0.99399995803833,42.3174782,-71.22955845,0.800000011920929,2011-12-29 08:50:48
1,42.31758744,-71.22957582,0.600000023841858,2011-12-29 08:50:49
0.999000072479248,42.31770171,-71.22960781,0.5,2011-12-29 08:50:50
1.00099992752075,42.31781818,-71.2296183,0.800000011920929,2011-12-29 08:50:51
1.23000001907349,42.31792577,-71.22967946,0.699999988079071,2011-12-29 08:50:52
0.772000074386597,42.31802042,-71.22970922,1,2011-12-29 08:50:53
1.12700009346008,42.31811018,-71.22975645,1,2011-12-29 08:50:54
0.881999969482422,42.31819015,-71.22985469,1.70000004768372,2011-12-29 08:50:55
0.997999906539917,42.31824679,-71.2299563,1,2011-12-29 08:50:56
1.00600004196167,42.31829955,-71.23008079,1.5,2011-12-29 08:50:57
0.990000009536743,42.31834921,-71.23021048,1.29999995231628,2011-12-29 08:50:58
1.16700005531311,42.31837772,-71.23029708,2.40000009536743,2011-12-29 08:50:59
0.842000007629395,42.31839603,-71.23037821,2.70000004768372,2011-12-29 08:51:00
0.353999853134155,42.31842419,-71.2304523,3.29999995231628,2011-12-29 08:51:00
1.91700005531311,42.31843952,-71.23058507,1.39999997615814,2011-12-29 08:51:02
1.05699992179871,42.31843754,-71.23064563,1.29999995231628,2011-12-29 08:51:03
0.948000192642212,42.31841138,-71.23066781,1.60000002384186,2011-12-29 08:51:04
0.99399995803833,42.31838652,-71.23070803,2,2011-12-29 08:51:05
1,42.31826178,-71.23070824,1.79999995231628,2011-12-29 08:51:06
1.7409999370575,42.3181429,-71.2307234,2.70000004768372,2011-12-29 08:51:08
0.986999988555908,42.31805212,-71.23075804,2.90000009536743,2011-12-29 08:51:09
1.15599989891052,42.31796048,-71.23078075,3.59999990463257,2011-12-29 08:51:10
0.845000028610229,42.31789153,-71.23079835,4.80000019073486,2011-12-29 08:51:11
1.00800013542175,42.31782866,-71.23082424,7.59999990463257,2011-12-29 08:51:12
0.299999952316284,42.31778279,-71.23083299,10.8999996185303,2011-12-29 08:51:12
1.00099992752075,42.31773266,-71.23084258,11.6000003814697,2011-12-29 08:51:13
1.9850001335144,42.31766908,-71.2308673,11.8999996185303,2011-12-29 08:51:15
1.71099996566772,42.31764281,-71.23087756,12,2011-12-29 08:51:17
1.98699998855591,42.31761057,-71.23089946,12,2011-12-29 08:51:19
0.996000051498413,42.31759265,-71.23091762,11.8999996185303,2011-12-29 08:51:20
1.00999999046326,42.3176089,-71.23093359,11.5,2011-12-29 08:51:21
1.11999988555908,42.31762878,-71.23095301,10.6999998092651,2011-12-29 08:51:22
0.894000053405762,42.31764604,-71.23096028,10.6000003814697,2011-12-29 08:51:23
0.983000040054321,42.31765369,-71.23098219,9.80000019073486,2011-12-29 08:51:24
0.986000061035156,42.31765369,-71.23098219,9.80000019073486,2011-12-29 08:51:25
1.00399994850159,42.31765369,-71.23098219,9.80000019073486,2011-12-29 08:51:26
1.00499987602234,42.31766125,-71.23098309,9.10000038146973,2011-12-29 08:51:27
1.00800013542175,42.31766364,-71.23098261,9,2011-12-29 08:51:28
0.990999937057495,42.31766138,-71.23098002,8.69999980926514,2011-12-29 08:51:29
1.01500010490417,42.31765602,-71.2309833,8.5,2011-12-29 08:51:30
1.10099983215332,42.31765966,-71.23097995,8.10000038146973,2011-12-29 08:51:31
0.239000082015991,42.31765972,-71.23098932,8.19999980926514,2011-12-29 08:51:31
4.93099999427795,42.31765711,-71.23099508,7.59999990463257,2011-12-29 08:51:36
0.996999979019165,42.31765721,-71.23099495,7.59999990463257,2011-12-29 08:51:37
1,42.3176571,-71.23099499,7.59999990463257,2011-12-29 08:51:38
1.00600004196167,42.31765709,-71.23099497,7.59999990463257,2011-12-29 08:51:39
0.996999979019165,42.31765715,-71.23099487,7.59999990463257,2011-12-29 08:51:40
1.7409999370575,42.31765726,-71.23099464,7.59999990463257,2011-12-29 08:51:42
0.289999961853027,42.31765729,-71.23099457,7.59999990463257,2011-12-29 08:51:42
2.85300016403198,42.31765707,-71.23099549,7.59999990463257,2011-12-29 08:51:45
0.836999893188477,42.31765708,-71.23099548,7.59999990463257,2011-12-29 08:51:46
0.351000070571899,42.31765708,-71.23099546,7.59999990463257,2011-12-29 08:51:46
2.65599989891052,42.31765709,-71.23099552,7.59999990463257,2011-12-29 08:51:49
1.00500011444092,42.31765719,-71.23099519,7.59999990463257,2011-12-29 08:51:50
0.98799991607666,42.3176572,-71.23099522,7.59999990463257,2011-12-29 08:51:51
0.322000026702881,42.31765718,-71.23099523,7.59999990463257,2011-12-29 08:51:51
1.95000004768372,42.31765717,-71.23099526,7.59999990463257,2011-12-29 08:51:53
1.74300003051758,42.31765716,-71.2309953,7.59999990463257,2011-12-29 08:51:55
0.359999895095825,42.31765715,-71.23099531,7.59999990463257,2011-12-29 08:51:55
1.6560001373291,42.31765711,-71.23099527,7.59999990463257,2011-12-29 08:51:57
0.348999977111816,42.31765711,-71.23099524,7.59999990463257,2011-12-29 08:51:57
1.89800000190735,42.317657,-71.23099486,7.59999990463257,2011-12-29 08:51:59
1.00300002098083,42.31765691,-71.23099447,7.69999980926514,2011-12-29 08:52:00
0.996999979019165,42.31765681,-71.23099425,7.69999980926514,2011-12-29 08:52:01
1.00099992752075,42.31765694,-71.23099359,7.69999980926514,2011-12-29 08:52:02
0.996000051498413,42.31765693,-71.23099349,7.69999980926514,2011-12-29 08:52:03
1.00999999046326,42.31765692,-71.23099301,7.69999980926514,2011-12-29 08:52:04
0.994999885559082,42.31765685,-71.23099285,7.69999980926514,2011-12-29 08:52:05
0.995000123977661,42.31765688,-71.23099273,7.69999980926514,2011-12-29 08:52:06
1.00499987602234,42.31765674,-71.23099235,7.69999980926514,2011-12-29 08:52:07
1.01900005340576,42.31765676,-71.23099201,7.69999980926514,2011-12-29 08:52:08
0.992000102996826,42.31765689,-71.23099141,7.69999980926514,2011-12-29 08:52:09
0.98799991607666,42.3176569,-71.23099078,7.69999980926514,2011-12-29 08:52:10
1.00399994850159,42.31765689,-71.23099027,7.80000019073486,2011-12-29 08:52:11
0.995000123977661,42.31765683,-71.23098985,7.80000019073486,2011-12-29 08:52:12
0.997999906539917,42.31765686,-71.23098915,7.80000019073486,2011-12-29 08:52:13
1.00200009346008,42.31765689,-71.23098911,7.80000019073486,2011-12-29 08:52:14
1.00399994850159,42.31765685,-71.23098869,7.80000019073486,2011-12-29 08:52:15
0.99399995803833,42.31765685,-71.230988,7.90000009536743,2011-12-29 08:52:16
1.03699994087219,42.31765683,-71.23098812,7.90000009536743,2011-12-29 08:52:17
0.967000007629395,42.31765684,-71.23098804,7.90000009536743,2011-12-29 08:52:18
1.00399994850159,42.31765683,-71.23098802,7.90000009536743,2011-12-29 08:52:19
0.994000196456909,42.31765685,-71.23098795,7.90000009536743,2011-12-29 08:52:20
1,42.31765676,-71.23098816,7.90000009536743,2011-12-29 08:52:21
1.01600003242493,42.31765677,-71.23098797,7.90000009536743,2011-12-29 08:52:22
0.990999937057495,42.31765688,-71.23098767,7.90000009536743,2011-12-29 08:52:23
0.988999843597412,42.31765683,-71.23098775,7.90000009536743,2011-12-29 08:52:24
1.00500011444092,42.31765672,-71.23098791,7.90000009536743,2011-12-29 08:52:25
1.13700008392334,42.31765689,-71.23098724,7.90000009536743,2011-12-29 08:52:26
0.86299991607666,42.31765695,-71.23098723,7.90000009536743,2011-12-29 08:52:27
1.00200009346008,42.31765675,-71.23098696,7.90000009536743,2011-12-29 08:52:28
1.00099992752075,42.31765664,-71.23098613,7.90000009536743,2011-12-29 08:52:29
0.996999979019165,42.31765678,-71.23098582,8,2011-12-29 08:52:30
1,42.31765693,-71.23098557,8,2011-12-29 08:52:31
1.00699996948242,42.31765718,-71.23098481,8,2011-12-29 08:52:32
1.00999999046326,42.31765732,-71.23098438,8,2011-12-29 08:52:33
0.996000051498413,42.3176575,-71.23098379,8,2011-12-29 08:52:34
0.989000082015991,42.31765772,-71.2309834,8,2011-12-29 08:52:35
0.997999906539917,42.31765813,-71.23098258,8,2011-12-29 08:52:36
1.01500010490417,42.31765859,-71.23098158,8,2011-12-29 08:52:37
0.985999822616577,42.31765899,-71.23098056,8,2011-12-29 08:52:38
0.999000072479248,42.31765933,-71.23097958,8,2011-12-29 08:52:39
1.01300001144409,42.31765945,-71.2309793,8,2011-12-29 08:52:40
0.99399995803833,42.3176595,-71.23097907,8,2011-12-29 08:52:41
1.00800013542175,42.31765964,-71.2309784,8,2011-12-29 08:52:42
0.983999967575073,42.31765987,-71.23097777,8,2011-12-29 08:52:43
0.998999834060669,42.31766031,-71.23097674,7.90000009536743,2011-12-29 08:52:44
1.02300000190735,42.31766047,-71.23097637,7.90000009536743,2011-12-29 08:52:45
0.989000082015991,42.31766055,-71.23097614,7.90000009536743,2011-12-29 08:52:46
0.989000082015991,42.31766075,-71.23097564,7.90000009536743,2011-12-29 08:52:47
1.00099992752075,42.31766081,-71.23097527,7.90000009536743,2011-12-29 08:52:48
1.00999999046326,42.31766093,-71.23097481,7.90000009536743,2011-12-29 08:52:49
0.986999988555908,42.31766093,-71.23097481,7.90000009536743,2011-12-29 08:52:50
1.0220000743866,42.31765614,-71.23092042,7.90000009536743,2011-12-29 08:52:51
60.4400000572205,42.31786722,-71.23067809,9.69999980926514,2011-12-29 08:53:51
0.973999977111816,42.31786555,-71.2306775,9.69999980926514,2011-12-29 08:53:52
1.0019998550415,42.31786455,-71.23067428,9.69999980926514,2011-12-29 08:53:53
0.998000144958496,42.31786405,-71.23067913,9.69999980926514,2011-12-29 08:53:54
1.00699996948242,42.31786304,-71.23068039,9.69999980926514,2011-12-29 08:53:55
1.00999999046326,42.31786255,-71.23068109,9.69999980926514,2011-12-29 08:53:56
0.983999967575073,42.31786216,-71.23068262,9.69999980926514,2011-12-29 08:53:57
1.52600002288818,42.3178527,-71.23067669,9.80000019073486,2011-12-29 08:53:59
0.473999977111816,42.31785108,-71.2306756,9.80000019073486,2011-12-29 08:53:59
1.00699996948242,42.31785016,-71.23067459,9.80000019073486,2011-12-29 08:54:00
0.996000051498413,42.31784961,-71.23067447,9.80000019073486,2011-12-29 08:54:01
1,42.31784923,-71.23067315,9.80000019073486,2011-12-29 08:54:02
0.997999906539917,42.31784914,-71.23067242,9.80000019073486,2011-12-29 08:54:03
1.00699996948242,42.31784894,-71.23067201,9.80000019073486,2011-12-29 08:54:04
0.988000154495239,42.31784894,-71.23067201,9.80000019073486,2011-12-29 08:54:05
1,42.31784889,-71.23067207,9.80000019073486,2011-12-29 08:54:06
1,42.31784882,-71.23067219,9.80000019073486,2011-12-29 08:54:07
0.997999906539917,42.31784882,-71.23067219,9.80000019073486,2011-12-29 08:54:08
1,42.31784882,-71.23067219,9.80000019073486,2011-12-29 08:54:09
1.08400011062622,42.31784922,-71.23067116,9.80000019073486,2011-12-29 08:54:10
0.913999795913696,42.31784922,-71.23067116,9.80000019073486,2011-12-29 08:54:11
1.00200009346008,42.31784938,-71.23067099,9.80000019073486,2011-12-29 08:54:12
1.00099992752075,42.31784934,-71.23067096,9.80000019073486,2011-12-29 08:54:13
1.01200008392334,42.31784937,-71.23067085,9.80000019073486,2011-12-29 08:54:14
0.99399995803833,42.31784937,-71.23067098,9.80000019073486,2011-12-29 08:54:15
0.995000123977661,42.31784934,-71.23067103,9.80000019073486,2011-12-29 08:54:16
1.00699996948242,42.31784968,-71.23067055,9.80000019073486,2011-12-29 08:54:17
0.996999979019165,42.31785009,-71.23066958,9.80000019073486,2011-12-29 08:54:18
1.01300001144409,42.31785004,-71.2306685,9.80000019073486,2011-12-29 08:54:19
0.986999988555908,42.31785024,-71.23066825,9.80000019073486,2011-12-29 08:54:20
1.01099991798401,42.31785045,-71.23066897,9.80000019073486,2011-12-29 08:54:21
0.992000102996826,42.31785085,-71.23066815,9.80000019073486,2011-12-29 08:54:22
1.01300001144409,42.31785099,-71.23066803,9.80000019073486,2011-12-29 08:54:23
1,42.31785088,-71.23066775,9.80000019073486,2011-12-29 08:54:24
0.988999843597412,42.31784933,-71.23066925,9.80000019073486,2011-12-29 08:54:25
1.00200009346008,42.31784822,-71.23066836,9.80000019073486,2011-12-29 08:54:26
1.00300002098083,42.31784747,-71.23066533,9.80000019073486,2011-12-29 08:54:27
0.996000051498413,42.31784618,-71.23066374,9.80000019073486,2011-12-29 08:54:28
1,42.31784489,-71.23066041,9.80000019073486,2011-12-29 08:54:29
1.01699995994568,42.31784292,-71.2306599,9.80000019073486,2011-12-29 08:54:30
0.983000040054321,42.3176549,-71.23045034,14,2011-12-29 08:54:31
0.996999979019165,42.31763645,-71.23045302,7.59999990463257,2011-12-29 08:54:32
2.01099991798401,42.3176342,-71.2304471,7.30000019073486,2011-12-29 08:54:34
0.996000051498413,42.31764258,-71.23044674,12.5,2011-12-29 08:54:35
0.996000051498413,42.31765327,-71.23045597,16.3999996185303,2011-12-29 08:54:36
1.01099991798401,42.31766771,-71.23044582,16.3999996185303,2011-12-29 08:54:37
2.28800010681152,42.3176723,-71.23043315,11.1000003814697,2011-12-29 08:54:40
0.985999822616577,42.31766755,-71.23042014,8.5,2011-12-29 08:54:41
0.981000185012817,42.31766755,-71.23042014,8.5,2011-12-29 08:54:42
0.997999906539917,42.31766755,-71.23042014,8.5,2011-12-29 08:54:43
2.00399994850159,42.31766755,-71.23042014,8.5,2011-12-29 08:54:45
1.01200008392334,42.31766755,-71.23042014,8.5,2011-12-29 08:54:46
0.99399995803833,42.31766755,-71.23042014,8.5,2011-12-29 08:54:47
255.020999908447,42.3176676,-71.23042033,8.30000019073486,2011-12-29 08:59:02
