"diffSecs","N.samples","x.mean","x.absolute.deviation","x.standard.deviation","x.max.deviation","x.PSD.1","x.PSD.3","x.PSD.6","x.PSD.10","y.mean","y.absolute.deviation","y.standard.deviation","y.max.deviation","y.PSD.1","y.PSD.3","y.PSD.6","y.PSD.10","z.mean","z.absolute.deviation","z.standard.deviation","z.max.deviation","z.PSD.1","z.PSD.3","z.PSD.6","z.PSD.10","time"
1,38,0.776225388050079,0.0921601876616478,0.122779615223408,0.392145097255707,1.02909851074219,1.54748141765594,0.903442919254303,0.228598400950432,2.7712254524231,0.0655255317687988,0.0761221125721931,0.166333928704262,0.214836686849594,0.321864068508148,0.179878145456314,0.0893326625227928,9.25724411010742,0.0699294358491898,0.0935350507497787,0.274199098348618,0.0399832017719746,0.0528886765241623,0.0946265608072281,0.103917136788368,2012-02-01 15:43:35
1.03999996185303,92,0.632902026176453,0.0684497356414795,0.0918103083968163,0.305625021457672,0.453399538993835,0.858154535293579,0.114846251904964,0.162263676524162,2.539311170578,0.0756368637084961,0.102611780166626,0.355799168348312,0.253912717103958,0.480731576681137,0.513639688491821,0.447042614221573,9.33780288696289,0.0747500956058502,0.111092537641525,0.565447986125946,0.148990586400032,0.111345134675503,0.0595478862524033,0.594580411911011,2012-02-01 15:43:36
1.0090000629425,67,0.64035964012146,0.0483597815036774,0.0590329766273499,0.125784888863564,0.233851537108421,0.117769651114941,0.160241454839706,0.126903742551804,2.40535092353821,0.0602470301091671,0.0779710039496422,0.333615869283676,0.417358875274658,0.329308032989502,1.02061569690704,0.216827899217606,9.378981590271,0.0563131980597973,0.0704635605216026,0.166093900799751,0.0657275319099426,0.141941741108894,0.0842392295598984,0.624613165855408,2012-02-01 15:43:37
1.0149998664856,52,0.681058287620544,0.0498107261955738,0.0588454939424992,0.142547056078911,0.250237822532654,0.212462097406387,0.268351882696152,0.0604785867035389,2.29290843009949,0.0511991046369076,0.0622165724635124,0.128550156950951,0.23771096765995,0.267471432685852,0.213581591844559,0.0343065932393074,9.37385272979736,0.063581109046936,0.0748691037297249,0.164647504687309,0.0188122317194939,0.0356984883546829,0.131646230816841,0.10951029509306,2012-02-01 15:43:38
1.00300002098083,95,0.727837324142456,0.0435492619872093,0.0552334822714329,0.153228893876076,0.0132768908515573,0.0754375457763672,0.233268722891808,0.255657136440277,2.227867603302,0.0568984113633633,0.0673473030328751,0.166334062814713,0.00622618710622191,0.0449931658804417,0.183670625090599,0.552927732467651,9.38990783691406,0.0639742761850357,0.0761959552764893,0.17702029645443,0.0038230128120631,0.268269240856171,0.119246408343315,0.289722055196762,2012-02-01 15:43:39
1.00500011444092,73,0.768505930900574,0.0459485426545143,0.0559942461550236,0.117283061146736,0.000437713810242712,0.0224491860717535,0.0104184476658702,0.173416018486023,2.19741797447205,0.0458694361150265,0.0577017180621624,0.186288625001907,0.0450695902109146,0.129279538989067,0.187513753771782,0.282901883125305,9.38841915130615,0.0612600222229958,0.0742842629551888,0.194685265421867,0.0109405936673284,0.109895169734955,0.13307811319828,0.129247725009918,2012-02-01 15:43:40
1.0149998664856,63,0.782561898231506,0.0389152802526951,0.0466498546302319,0.112185440957546,0.0191628411412239,0.0969459414482117,0.0357822552323341,0.0980451554059982,2.10811352729797,0.0573305636644363,0.0707563906908035,0.192752197384834,0.989378571510315,1.41774034500122,0.197667837142944,0.117595799267292,9.41932201385498,0.0633724704384804,0.0799940600991249,0.214945986866951,0.0178253781050444,0.0478270016610622,0.0788396075367928,0.19344761967659,2012-02-01 15:43:41
1.00999999046326,71,0.806879699230194,0.0550025217235088,0.0657971426844597,0.136503204703331,0.565766334533691,1.33716750144958,0.272164434194565,0.30423629283905,1.91644036769867,0.0798364803195,0.0941018983721733,0.230922400951385,2.04694986343384,2.53427982330322,0.826964437961578,0.179377615451813,9.44246196746826,0.0634679645299911,0.0824294462800026,0.229574277997017,0.388223350048065,0.265933960676193,0.0736043453216553,0.421671718358994,2012-02-01 15:43:42
1.00399994850159,59,0.735953271389008,0.0515788421034813,0.0665562301874161,0.145112946629524,0.24935519695282,0.167089536786079,0.395598471164703,0.196438580751419,1.85432946681976,0.0401119813323021,0.0516449175775051,0.149657875299454,0.0953811258077621,0.0923663303256035,0.117722436785698,0.1620914041996,9.46870231628418,0.0586878471076488,0.0738677456974983,0.198354229331017,0.00126331334467977,0.112483352422714,0.179863348603249,0.292680203914642,2012-02-01 15:43:43
1.00800013542175,83,0.751144707202911,0.0446574725210667,0.0565730817615986,0.157382681965828,0.0813175216317177,0.0560214854776859,0.0851683467626572,0.131382152438164,1.84636223316193,0.0399142391979694,0.0518346764147282,0.126459985971451,0.0197688601911068,0.0583325400948524,0.129248291254044,0.092118039727211,9.47088527679443,0.0607999674975872,0.0733931437134743,0.181383162736893,0.00173592672217637,0.166566744446754,0.0613970160484314,0.114267699420452,2012-02-01 15:43:44
1.11800003051758,76,0.708683729171753,0.0393153131008148,0.0473263375461102,0.114921659231186,0.0115648452192545,0.0765498876571655,0.170780017971992,0.146660938858986,1.84857571125031,0.0496614277362823,0.0641674846410751,0.181707233190536,0.00191015144810081,0.0535036362707615,0.468276113271713,0.289518415927887,9.46566581726074,0.0579117834568024,0.0721374899148941,0.176163613796234,0.0160576216876507,0.0785068273544312,0.295826196670532,0.358596295118332,2012-02-01 15:43:45
1.0019998550415,96,0.720854222774506,0.0434406250715256,0.054323922842741,0.141058370471001,0.0222355034202337,0.045562244951725,0.243406534194946,0.413228273391724,1.8622899055481,0.0512591823935509,0.0614757835865021,0.129685893654823,0.0540059953927994,0.325195968151093,0.0973209962248802,0.229388281702995,9.46487808227539,0.0569869615137577,0.0704469531774521,0.175376027822495,0.00251034740358591,0.104863077402115,0.310961782932281,0.342601388692856,2012-02-01 15:43:46
1,76,0.722040832042694,0.0449128299951553,0.0555836744606495,0.147432446479797,7.19737072358839e-05,0.0290107633918524,0.0469741150736809,0.0798809751868248,1.81430089473724,0.0449725091457367,0.0560660809278488,0.167090132832527,0.0411573611199856,0.0328905247151852,0.249436721205711,0.0870165675878525,9.48481941223145,0.059622872620821,0.0732662230730057,0.176163613796234,7.60655966587365e-05,0.129056677222252,0.0998407602310181,0.255735814571381,2012-02-01 15:43:47
1.00100016593933,86,0.736300528049469,0.0573572479188442,0.0703205764293671,0.221380159258842,0.0883261188864708,0.084401972591877,0.151247724890709,0.621199429035187,1.80756664276123,0.074708417057991,0.0949649885296822,0.280177384614944,0.00732258753851056,1.20579016208649,1.19420039653778,0.698501288890839,9.49395656585693,0.0654992833733559,0.0871603265404701,0.389307945966721,0.07187769562006,0.114282764494419,0.173726931214333,0.273117870092392,2012-02-01 15:43:48
1.00399994850159,77,0.790273129940033,0.229371711611748,0.365888953208923,1.82456815242767,0.0440076291561127,16.5803661346436,13.1690902709961,19.8868885040283,2.32181596755981,0.544228792190552,0.618984758853912,1.32582807540894,17.7275161743164,199.888336181641,30.4145164489746,12.9767217636108,9.51461982727051,0.437499701976776,0.637732326984406,1.90093433856964,0.0617513619363308,27.0456047058105,8.7676477432251,49.7246704101562,2012-02-01 15:43:49
1.02999997138977,77,0.901463568210602,0.450098603963852,0.628143727779388,2.35713815689087,1.46834480762482,239.734817504883,21.4694938659668,18.5173034667969,3.28173542022705,0.22444199025631,0.325510621070862,1.51960301399231,2.95236396789551,21.2434387207031,17.1137409210205,12.6929063796997,8.87359523773193,0.34384098649025,0.573910236358643,3.5105836391449,1.87979829311371,47.1470146179199,28.6391773223877,50.2345199584961,2012-02-01 15:43:50
1.00799989700317,82,6.6743335723877,1.66901922225952,2.06061625480652,4.56743621826172,494.067993164062,1835.70886230469,78.7737350463867,24.66530418396,-2.53248143196106,3.08305954933167,3.36584687232971,5.63536691665649,3863.92309570312,5785.24755859375,88.0485610961914,84.5608673095703,3.32735633850098,2.85079503059387,3.32377934455872,6.44939565658569,2968.89990234375,3269.31323242188,219.924118041992,108.440742492676,2012-02-01 15:43:51
1.007000207901,81,8.84211158752441,0.757713437080383,1.05777275562286,3.53112268447876,2.40519285202026,27.6727409362793,73.5101318359375,81.2997817993164,-2.21401596069336,1.80420565605164,2.53966212272644,9.68037796020508,1809.66564941406,1125.86706542969,28.3347949981689,44.3499717712402,-3.10264897346497,1.56479275226593,2.27769184112549,8.42735385894775,1159.94641113281,547.030944824219,29.6889514923096,38.4174537658691,2012-02-01 15:43:52
1.00299978256226,83,8.18090057373047,0.57965749502182,0.764061331748962,2.43481636047363,0.346768826246262,46.6579971313477,92.3356704711914,25.5585498809814,-0.979603469371796,0.792880058288574,1.02977299690247,3.43126606941223,0.115435682237148,87.914665222168,181.122863769531,121.991622924805,-4.81124925613403,0.947571456432343,1.2894458770752,7.17891263961792,134.967544555664,400.510437011719,17.9793796539307,17.4171047210693,2012-02-01 15:43:53
1.007000207901,81,6.25495529174805,0.922894179821014,1.18930745124817,2.55570697784424,234.402328491211,840.474487304688,129.170532226562,111.115364074707,-3.15963673591614,1.16985046863556,1.54974842071533,4.7124981880188,252.245529174805,367.816528320312,201.111282348633,95.2047424316406,-7.20767021179199,0.855072677135468,1.1449511051178,3.46089267730713,67.6481552124023,83.1794738769531,178.46711730957,361.415191650391,2012-02-01 15:43:54
1,84,7.39511871337891,0.804234564304352,1.05770456790924,2.5647599697113,304.520050048828,332.986572265625,28.6152667999268,24.485237121582,1.31498682498932,0.700925648212433,1.07492280006409,3.68410634994507,90.1792297363281,37.7083740234375,29.9815349578857,78.5272521972656,-5.9490213394165,0.626379609107971,0.774970054626465,1.73157799243927,242.201599121094,158.556076049805,14.3589067459106,18.6469650268555,2012-02-01 15:43:55
1,81,7.46612596511841,0.116007655858994,0.153978452086449,0.45590341091156,0.000388491665944457,0.952663540840149,6.68326139450073,8.18562602996826,1.59447920322418,0.125483751296997,0.1557946652174,0.378342986106873,0.341716796159744,10.6438493728638,8.84466171264648,0.398456990718842,-5.99058818817139,0.0722879767417908,0.0933623537421227,0.291797190904617,0.00684426398947835,0.120803415775299,1.19328939914703,0.843276023864746,2012-02-01 15:43:56
1.00099992752075,85,7.05326175689697,0.361402869224548,0.495708525180817,1.34548485279083,14.7539863586426,82.2803421020508,36.022834777832,3.74237728118896,1.75582301616669,0.583277225494385,0.847057044506073,2.66866159439087,63.9761505126953,322.278717041016,45.9240455627441,17.3033905029297,-6.39572954177856,0.283415138721466,0.376964420080185,1.10933208465576,42.3940238952637,70.5555191040039,13.2595167160034,1.92925775051117,2012-02-01 15:43:57
1.01099991798401,83,7.30121898651123,0.652262628078461,0.926959574222565,3.01080942153931,3.12868285179138,50.6553039550781,32.3549041748047,19.1969795227051,2.42212438583374,0.469873815774918,0.720748007297516,2.47958517074585,71.5971755981445,51.0573196411133,3.96349668502808,11.3534126281738,-6.02323436737061,0.428641706705093,0.522672176361084,1.37006032466888,14.7564916610718,61.0499420166016,11.0037593841553,8.54164505004883,2012-02-01 15:43:58
1.00800013542175,83,5.95100450515747,0.865579843521118,1.23321068286896,4.06633520126343,60.4764289855957,556.352416992188,230.011428833008,129.628784179688,2.09420537948608,1.09958255290985,1.3129448890686,3.60734081268311,14.6086473464966,829.361145019531,212.845413208008,91.295524597168,-7.53406238555908,0.901612758636475,1.24662375450134,4.47525310516357,3.20461654663086,361.827728271484,167.216445922852,183.737777709961,2012-02-01 15:43:59
1.00799989700317,77,4.65930318832397,0.723224222660065,0.882316708564758,2.65737748146057,303.802520751953,227.883575439453,16.101411819458,1.30821299552917,0.478342831134796,0.216378659009933,0.323887199163437,1.01464402675629,4.21323585510254,2.6439151763916,2.51311445236206,2.1191623210907,-8.73927116394043,0.586864829063416,0.841251730918884,4.04663610458374,160.315200805664,148.679946899414,2.97695517539978,8.22755146026611,2012-02-01 15:44:00
1.00699996948242,69,3.95313930511475,0.0791247636079788,0.098273366689682,0.256491839885712,0.928927779197693,1.62872064113617,2.30068016052246,0.448802888393402,0.676761031150818,0.068101741373539,0.0861938297748566,0.236227914690971,0.107725456357002,0.474308013916016,0.455405592918396,0.532158672809601,-9.29949569702148,0.0723423212766647,0.0941506922245026,0.258157730102539,0.209243416786194,0.4593705534935,0.185980796813965,1.17855393886566,2012-02-01 15:44:01
1.00600004196167,89,3.85224366188049,0.0600651018321514,0.0796645879745483,0.246629491448402,0.0724777579307556,1.17547059059143,0.365327298641205,0.0262241847813129,0.647994756698608,0.0760776475071907,0.0949786975979805,0.252225130796432,0.850092649459839,1.59727358818054,2.53900051116943,0.32243612408638,-9.36181259155273,0.0558627247810364,0.068113200366497,0.148925259709358,0.000635528063867241,0.0440451055765152,0.274912774562836,0.347856462001801,2012-02-01 15:44:02
1.0090000629425,81,3.6207423210144,0.211434170603752,0.3632453083992,2.37575745582581,2.50936436653137,27.2610187530518,5.94834756851196,1.65447056293488,0.575317800045013,0.0830953344702721,0.142204567790031,0.937817633152008,0.399935334920883,1.05992221832275,0.28925159573555,0.559632360935211,-9.53779029846191,0.208421394228935,0.584900438785553,4.4635009765625,0.0196568723767996,27.5324687957764,7.89695024490356,5.07389354705811,2012-02-01 15:44:03
1.09699988365173,83,3.20419192314148,0.138198509812355,0.167625412344933,0.446071565151215,0.0128112724050879,10.1250057220459,1.53007090091705,0.821367621421814,0.524070560932159,0.17244091629982,0.205379784107208,0.452763736248016,0.784482061862946,22.5064277648926,3.03318572044373,1.30256104469299,-9.61349868774414,0.126170724630356,0.158285766839981,0.403840869665146,3.41030120849609,7.41422033309937,0.633504271507263,0.8307004570961,2012-02-01 15:44:04
1.00300002098083,89,3.43215537071228,0.0793130174279213,0.0999539270997047,0.341106355190277,1.64947199821472,1.6100287437439,1.04271233081818,0.389179319143295,0.924968898296356,0.190917104482651,0.23612767457962,0.656818270683289,0.0331713072955608,9.16322040557861,24.7909278869629,2.55262207984924,-9.53290462493896,0.107488445937634,0.139194846153259,0.465281754732132,0.070959784090519,0.224645540118217,4.27006816864014,1.27695345878601,2012-02-01 15:44:05
1.00100016593933,80,3.63966536521912,0.131190270185471,0.165597781538963,0.441011935472488,5.91767168045044,3.68280243873596,1.59145271778107,0.657978415489197,1.28568625450134,0.129167184233665,0.169007569551468,0.476446092128754,8.91132259368896,12.7396955490112,2.43634223937988,0.643763303756714,-9.39412975311279,0.105033755302429,0.134959876537323,0.430238336324692,0.00289311143569648,0.645051717758179,1.49933815002441,2.80134010314941,2012-02-01 15:44:06
1.00899982452393,82,4.05542755126953,0.502107262611389,0.581581711769104,1.21181654930115,102.355331420898,134.020294189453,6.107666015625,17.5688934326172,1.37298703193665,0.350883722305298,0.444142669439316,1.09782910346985,0.938627004623413,42.487491607666,38.3138656616211,2.34067702293396,-8.99051952362061,0.364875763654709,0.488550066947937,2.4208300113678,18.0995426177979,18.064172744751,16.5641479492188,10.9392862319946,2012-02-01 15:44:07
1,84,6.22652053833008,0.676114976406097,0.852462410926819,2.08934020996094,158.308242797852,79.3085327148438,103.119911193848,59.1364898681641,2.41061902046204,0.929015398025513,1.09100818634033,2.14246845245361,5.51814317703247,982.436279296875,57.8752212524414,46.6909942626953,-7.1016583442688,0.692684352397919,0.805348932743073,1.78561842441559,374.020538330078,330.482818603516,19.2141399383545,7.72588348388672,2012-02-01 15:44:08
1.00399994850159,81,7.38525485992432,0.334430664777756,0.527177691459656,2.09578394889832,11.8598747253418,9.59241580963135,5.00327014923096,4.08815574645996,0.461341977119446,0.382032990455627,0.464949429035187,1.4157121181488,27.6822280883789,72.0543823242188,3.36835885047913,2.42911863327026,-6.46280765533447,0.274491280317307,0.407987684011459,1.58170998096466,10.5590667724609,8.6630220413208,4.09266805648804,2.92170810699463,2012-02-01 15:44:09
1.01100015640259,84,7.83610820770264,0.801292061805725,1.00321626663208,2.21953868865967,14.3511476516724,314.090606689453,360.300170898438,117.935516357422,-1.60411512851715,2.15956997871399,2.62079906463623,6.60320806503296,115.157295227051,2627.53491210938,330.233734130859,133.237487792969,-5.212975025177,1.59210610389709,1.89131820201874,6.43242216110229,183.28759765625,1564.59924316406,83.5975646972656,174.370590209961,2012-02-01 15:44:10
1.00999999046326,78,6.15346670150757,0.687112331390381,0.998858094215393,3.37619280815125,129.341156005859,127.759712219238,12.3003053665161,13.1152925491333,-7.04214525222778,0.832118093967438,1.46773672103882,4.80117225646973,194.575225830078,85.8976135253906,21.6629581451416,17.3368034362793,-0.972659766674042,0.591784954071045,0.971821904182434,4.81173181533813,49.7574043273926,112.192039489746,2.61652135848999,4.05422067642212,2012-02-01 15:44:11
1.01300001144409,83,6.44692182540894,0.367875069379807,0.416325151920319,0.777451872825623,54.138313293457,137.919067382812,19.3214683532715,0.991151213645935,-7.38775634765625,0.458963811397552,0.502346396446228,0.87552797794342,71.3762283325195,161.621337890625,23.6493453979492,9.15448188781738,-0.449994534254074,0.309104681015015,0.402861356735229,1.02460289001465,34.6602668762207,58.6029205322266,51.017204284668,7.24641990661621,2012-02-01 15:44:12
1.00300002098083,81,6.72268199920654,0.895493447780609,1.29261445999146,3.48572134971619,31.8222160339355,478.433624267578,704.585754394531,50.1773109436035,-7.01116847991943,0.832366228103638,1.15404987335205,4.40438556671143,68.1380767822266,259.824096679688,87.2785186767578,119.563568115234,-2.29937958717346,1.83109247684479,2.58310461044312,11.950909614563,48.1429862976074,1390.09582519531,649.157104492188,755.126281738281,2012-02-01 15:44:13
1.00300002098083,84,7.21315956115723,1.6306848526001,2.02962064743042,6.07944869995117,470.363952636719,1674.2685546875,486.521514892578,298.397796630859,-6.59431552886963,1.29325985908508,1.84888136386871,5.89384078979492,16.5141429901123,1448.76599121094,1201.97033691406,259.263244628906,-1.96028113365173,1.27564263343811,1.84457468986511,8.76574230194092,0.000802487367764115,399.015930175781,666.489440917969,238.445083618164,2012-02-01 15:44:14
1.00599980354309,79,7.14623737335205,0.785657167434692,1.06563782691956,5.05461406707764,30.9939975738525,78.5987014770508,71.260986328125,35.9654693603516,-6.68364143371582,0.771607339382172,0.986561834812164,3.27623748779297,61.8888664245605,200.800643920898,93.7654113769531,45.4846038818359,-1.3805148601532,0.743998646736145,1.23903727531433,5.85955095291138,0.00345950247719884,193.762771606445,154.808441162109,57.7908134460449,2012-02-01 15:44:15
1.00500011444092,85,6.95524024963379,0.464516878128052,0.791687607765198,2.81310248374939,25.7024002075195,11.2904319763184,29.0487976074219,13.0527219772339,-6.69632863998413,0.402292191982269,0.631786465644836,2.42507266998291,17.2820720672607,11.230447769165,54.7766876220703,14.2910060882568,-1.74388015270233,0.652171909809113,1.33918726444244,8.04361629486084,15.0027751922607,90.413459777832,28.1116409301758,14.8828029632568,2012-02-01 15:44:16
1.03399991989136,76,7.13497304916382,0.109589569270611,0.130443647503853,0.316286623477936,0.655995726585388,1.08174574375153,8.65236473083496,1.15634787082672,-6.58733081817627,0.155205324292183,0.195397570729256,0.499505877494812,2.32762885093689,1.85053420066833,20.7657032012939,3.72681283950806,-1.34453332424164,0.117395460605621,0.140990272164345,0.310238182544708,0.982005655765533,6.19679355621338,5.25832605361938,1.60643172264099,2012-02-01 15:44:17
1.02900004386902,88,6.97322130203247,0.0879324376583099,0.105415835976601,0.269456267356873,0.646756589412689,5.10187005996704,0.976311445236206,0.0713173821568489,-6.76732015609741,0.133778467774391,0.158486098051071,0.434438914060593,3.22700881958008,11.2566261291504,3.23472237586975,0.460701495409012,-1.23867285251617,0.0862654522061348,0.104619033634663,0.236155346035957,0.00863394979387522,3.70856761932373,2.85903739929199,0.352877497673035,2012-02-01 15:44:18
1.01999998092651,79,7.03034591674805,0.0961456000804901,0.114674925804138,0.267180889844894,0.567137002944946,8.75318622589111,1.65458750724792,0.136317133903503,-6.69115734100342,0.109415955841541,0.128464207053185,0.274696826934814,0.730503261089325,9.69416236877441,1.684565782547,0.527616262435913,-1.24959146976471,0.112932957708836,0.139230951666832,0.330217987298965,0.651204288005829,7.15720367431641,1.88589429855347,0.599139034748077,2012-02-01 15:44:19
1.01999998092651,85,6.99309682846069,0.302248001098633,0.370238721370697,0.840730965137482,26.4247512817383,107.081230163574,24.4751434326172,2.22024488449097,-6.81936264038086,0.322867631912231,0.397931754589081,0.843435108661652,21.82594871521,110.701431274414,21.4220180511475,3.61268186569214,-0.980890333652496,0.307147085666656,0.456852793693542,1.71976912021637,5.8605260848999,57.0488357543945,69.6397399902344,15.9473638534546,2012-02-01 15:44:20
1.0310001373291,81,6.74609184265137,0.290991276502609,0.459831684827805,1.9385347366333,8.53385353088379,19.2609233856201,18.0541687011719,6.00903129577637,-6.61178016662598,0.478831619024277,0.591246485710144,1.41358387470245,39.6991729736328,81.6214828491211,78.7654876708984,13.4662046432495,-2.91489624977112,1.04694163799286,1.20050477981567,2.14875173568726,635.445922851562,594.565551757812,57.0164794921875,29.4909706115723,2012-02-01 15:44:21
1.02300000190735,75,7.35345554351807,0.327092617750168,0.408611506223679,1.01667428016663,12.6541547775269,110.052963256836,9.77842712402344,2.56411051750183,-6.21828460693359,0.587956368923187,0.713464558124542,1.35326659679413,56.0321731567383,259.519836425781,46.2203025817871,26.4531726837158,-1.4311580657959,0.499587535858154,0.625613510608673,2.05479955673218,91.4002532958984,87.1886749267578,47.0458526611328,7.29314613342285,2012-02-01 15:44:22
1.02499985694885,85,7.64950275421143,0.483429253101349,0.691623628139496,3.51705384254456,61.6557731628418,45.5848770141602,109.398956298828,25.1535320281982,-5.87610340118408,0.596002101898193,0.754079043865204,2.04538059234619,135.20849609375,88.9495468139648,191.342391967773,19.2816219329834,-1.34571039676666,0.576018750667572,0.77981960773468,2.88723850250244,0.717682361602783,11.620246887207,330.697174072266,136.313888549805,2012-02-01 15:44:23
1,78,6.58172178268433,0.433651179075241,0.591445326805115,1.4485536813736,0.378081649541855,58.7492179870605,13.1033058166504,12.1411561965942,-6.49282932281494,0.639152646064758,0.918659448623657,3.00687170028687,17.7695827484131,58.1723747253418,91.3766632080078,35.5420074462891,-3.46262955665588,0.467532008886337,0.546032190322876,1.24915957450867,6.41715669631958,77.9022598266602,75.2725296020508,40.5803375244141,2012-02-01 15:44:24
1.01800012588501,90,6.60267639160156,0.246372252702713,0.320399850606918,1.25030529499054,0.00713639706373215,39.9872512817383,22.7112197875977,14.8595523834229,-6.78272008895874,0.274000704288483,0.348537594079971,1.0749431848526,0.878661513328552,36.3928718566895,44.5500297546387,14.0919122695923,-2.71747207641602,0.306453078985214,0.366072118282318,0.787639081478119,5.67161130905151,69.3758850097656,9.52901649475098,10.9937782287598,2012-02-01 15:44:25
1.01399993896484,82,6.81938695907593,0.147406429052353,0.182773664593697,0.422080278396606,5.47182273864746,15.5790710449219,9.46045780181885,1.43391025066376,-6.83667230606079,0.145873889327049,0.188649401068687,0.729004979133606,6.31206083297729,6.69663000106812,2.92592430114746,1.67324805259705,-2.05504250526428,0.159165292978287,0.208544492721558,0.618521571159363,0.0159678403288126,6.86645746231079,16.1922416687012,11.7147798538208,2012-02-01 15:44:26
1.01300001144409,87,6.45366716384888,0.172987282276154,0.229482680559158,0.652323484420776,8.97536373138428,21.1078205108643,8.23497676849365,2.81255125999451,-7.25547695159912,0.237870201468468,0.317856848239899,0.86565500497818,11.0125331878662,44.4138526916504,23.7940216064453,1.3414853811264,-1.7403370141983,0.168290644884109,0.227096498012543,0.807093560695648,1.74997222423553,4.57801485061646,7.20243692398071,2.62280488014221,2012-02-01 15:44:27
1.00799989700317,74,6.81273317337036,0.26312780380249,0.32924410700798,1.52633583545685,26.8474712371826,26.8020896911621,5.1402268409729,0.683668315410614,-6.90953683853149,0.313803017139435,0.428010582923889,2.13096880912781,32.4424285888672,38.8445320129395,13.1839914321899,0.907320559024811,-1.58224380016327,0.267283171415329,0.379455059766769,1.39070761203766,3.18959259986877,18.7962455749512,10.9127025604248,2.59415006637573,2012-02-01 15:44:28
1.00200009346008,84,6.91696262359619,0.650158762931824,1.01172745227814,5.94012832641602,4.78644323348999,283.864685058594,71.6384353637695,42.1848030090332,-6.84445238113403,0.472309201955795,0.753612101078033,4.11141443252563,4.09113168716431,189.058624267578,87.4451370239258,24.1925239562988,-1.46639156341553,0.719254016876221,1.09931182861328,5.96749067306519,0.343272745609283,207.708786010742,86.5575103759766,93.0231094360352,2012-02-01 15:44:29
1.01699995994568,84,7.33446598052979,0.850804805755615,1.02509450912476,3.25474643707275,19.2684535980225,315.900756835938,185.508041381836,68.6300354003906,-6.34167003631592,0.827101647853851,1.19089770317078,3.80974459648132,103.809677124023,236.740768432617,387.151641845703,77.9085540771484,-1.88138651847839,0.990862905979156,1.24616420269012,3.90300488471985,193.629501342773,507.753204345703,113.624755859375,44.6184234619141,2012-02-01 15:44:30
1.0090000629425,78,6.45108413696289,0.605473279953003,0.756762325763702,2.12236762046814,50.1243324279785,85.3760604858398,137.607788085938,131.705062866211,-6.99573469161987,0.839170098304749,1.13660442829132,3.50044584274292,77.5945739746094,328.925933837891,614.288452148438,133.60856628418,-2.19186091423035,0.890586376190186,1.0290093421936,2.30923819541931,230.539077758789,238.165725708008,83.2273559570312,52.7129287719727,2012-02-01 15:44:31
1.00399994850159,84,7.16048717498779,0.467319965362549,0.632915079593658,1.66340029239655,15.2359704971313,96.4317016601562,21.9190788269043,2.34084939956665,-6.54415130615234,0.702907264232635,1.04985785484314,3.95202922821045,47.3752861022949,161.225875854492,68.0474166870117,103.105964660645,-1.61277985572815,1.11379778385162,1.57962095737457,7.69587564468384,239.136337280273,218.973098754883,96.2510070800781,194.367919921875,2012-02-01 15:44:32
1.01600003242493,81,6.52074146270752,0.327529430389404,0.433260947465897,1.10239708423615,31.405237197876,20.6224784851074,6.15227031707764,3.60859560966492,-7.17314672470093,0.369952857494354,0.500905930995941,1.19721913337708,4.33421659469604,47.5289764404297,25.9523506164551,4.24463224411011,-1.82455909252167,0.680579483509064,0.793972194194794,1.52732336521149,123.236152648926,191.382919311523,24.9702377319336,14.3025979995728,2012-02-01 15:44:33
1.01600003242493,84,6.83761215209961,1.14983570575714,1.5037590265274,5.13339614868164,11.1652889251709,675.622375488281,313.179718017578,219.498199462891,-6.31043148040771,1.02361083030701,1.30070233345032,3.34298968315125,61.9290580749512,178.376907348633,215.277008056641,373.933868408203,-2.77202963829041,0.688889503479004,1.08507645130157,4.44888305664062,1.87784850597382,17.6810703277588,103.82169342041,172.907180786133,2012-02-01 15:44:34
1.00399994850159,83,6.91560840606689,0.296743363142014,0.459853529930115,1.87590026855469,15.309910774231,10.730902671814,3.09041976928711,9.46560668945312,-5.20493698120117,0.208329290151596,0.277734845876694,1.03914129734039,1.41406118869781,4.24770832061768,6.34703207015991,6.25493049621582,-4.65086650848389,0.555997014045715,0.699939489364624,1.73951733112335,247.896209716797,219.716644287109,9.85847663879395,1.22792792320251,2012-02-01 15:44:35
1.00999999046326,77,7.21295261383057,0.555141448974609,0.733583927154541,1.98401570320129,4.56115341186523,107.041946411133,138.140762329102,75.3743438720703,-6.44407176971436,0.968677282333374,1.12944746017456,2.06013321876526,479.977355957031,601.784973144531,216.16650390625,33.7113189697266,-1.53278660774231,1.35516095161438,1.58400774002075,2.62354731559753,1138.12414550781,1482.45959472656,187.017303466797,46.0482330322266,2012-02-01 15:44:36
1.01399993896484,87,7.34089756011963,0.715047955513,0.92928421497345,2.40829181671143,204.568237304688,560.515625,117.485336303711,117.722061157227,-6.06156826019287,0.828238785266876,1.05225253105164,3.07360458374023,98.450569152832,655.402954101562,220.055801391602,175.455795288086,-1.86230361461639,1.13577961921692,1.90013802051544,8.99779510498047,76.8925552368164,348.243896484375,1047.83996582031,1359.30883789062,2012-02-01 15:44:37
1.00200009346008,75,7.5291576385498,0.32483845949173,0.459965109825134,1.36169397830963,3.28840613365173,54.6837120056152,49.1776275634766,11.5602149963379,-6.22288131713867,0.554062128067017,0.768691420555115,2.62608814239502,11.8632001876831,275.426727294922,54.8284454345703,83.2363815307617,-0.858592629432678,0.453550755977631,0.705854177474976,4.04473257064819,8.78837585449219,91.6482696533203,48.2864532470703,70.1897125244141,2012-02-01 15:44:38
1.00099992752075,87,7.64669513702393,0.840400576591492,1.31820714473724,4.89892196655273,60.7110252380371,254.564697265625,961.174865722656,598.28759765625,-5.49114274978638,1.0045360326767,1.2650431394577,4.43042898178101,0.0251950304955244,925.125732421875,140.798110961914,233.349334716797,-1.91470086574554,1.4550369977951,1.89914298057556,8.61978721618652,0.273024916648865,1195.31848144531,872.085205078125,773.270874023438,2012-02-01 15:44:39
1.00800013542175,88,7.30427408218384,0.966218650341034,1.2433967590332,3.30682802200317,94.102294921875,308.152923583984,681.516967773438,143.201293945312,-6.59450197219849,1.02195811271667,1.3954416513443,3.68315267562866,79.0039901733398,189.954833984375,1039.24365234375,306.695159912109,-0.738937675952911,1.20103347301483,1.6887640953064,6.63520336151123,19.2735195159912,755.673828125,990.216735839844,298.931915283203,2012-02-01 15:44:40
1.0789999961853,88,7.03024673461914,0.4928098320961,0.659093499183655,2.50825309753418,3.30308127403259,36.4109725952148,27.8025283813477,29.8352584838867,-6.90183067321777,0.3802130818367,0.532250642776489,2.33021092414856,37.8215217590332,29.4982624053955,16.6953887939453,4.49540328979492,-0.62793380022049,0.656876921653748,1.08867943286896,5.19476461410522,1.47322583198547,59.7380409240723,30.6035861968994,15.5336303710938,2012-02-01 15:44:41
1.00899982452393,87,7.45185661315918,0.456548810005188,0.625091433525085,1.76103138923645,95.7355651855469,291.776611328125,84.5852737426758,7.92706060409546,-6.18089294433594,0.465127408504486,0.569286167621613,1.30816972255707,67.6301727294922,157.215621948242,28.5337200164795,39.2826843261719,-0.816560387611389,0.351729065179825,0.492648631334305,1.52018058300018,0.0735486969351768,29.5065441131592,28.1423072814941,8.32170677185059,2012-02-01 15:44:42
1.00800013542175,83,6.5588436126709,0.792335212230682,0.882080018520355,2.19181942939758,70.8930206298828,621.84130859375,71.5168914794922,12.133508682251,-7.28552675247192,0.79945832490921,1.01133859157562,3.09573197364807,164.886352539062,815.765502929688,237.586151123047,35.9266014099121,-0.702683746814728,0.59760719537735,0.953304290771484,5.02424669265747,0.52012711763382,281.503967285156,174.13166809082,134.889999389648,2012-02-01 15:44:43
1.00099992752075,78,5.98231220245361,0.196774691343307,0.24558612704277,0.529916524887085,2.46926522254944,31.4176540374756,2.25265192985535,0.744295120239258,-7.67937135696411,0.227979600429535,0.280400216579437,0.784070372581482,1.61197912693024,43.0996856689453,4.02793788909912,1.31364333629608,-1.85348045825958,0.14559768140316,0.193488776683807,0.579028487205505,0.715561211109161,11.6418056488037,3.56157827377319,2.45430731773376,2012-02-01 15:44:44
1.01800012588501,81,7.44271612167358,0.85123085975647,1.20176327228546,4.08775949478149,95.6651840209961,652.207153320312,637.167236328125,211.846298217773,-5.90853500366211,0.971255481243134,1.34317994117737,4.91325664520264,151.434463500977,477.300354003906,365.300720214844,309.197174072266,-1.33129441738129,0.87358695268631,1.08301174640656,3.22726559638977,16.4372062683105,411.089569091797,61.4662895202637,44.2553558349609,2012-02-01 15:44:45
1.0019998550415,82,7.51195383071899,2.22815442085266,2.83003950119019,7.17886781692505,56.3722877502441,2634.57641601562,3037.09643554688,1003.91516113281,-6.67129707336426,1.51552259922028,1.98940408229828,6.67129707336426,0.958180129528046,2044.52673339844,638.177124023438,478.500915527344,-1.42974722385406,1.55923056602478,2.08844947814941,6.65307760238647,226.672775268555,391.137878417969,951.099487304688,553.243347167969,2012-02-01 15:44:46
1.00800013542175,81,7.60705852508545,2.31520795822144,3.18728137016296,8.82674121856689,16.2862033843994,2514.15161132812,3291.8515625,1088.5,-6.23391008377075,1.39641845226288,2.15255641937256,7.51720190048218,820.128051757812,2209.52978515625,150.113906860352,319.454925537109,-0.91748172044754,1.3382306098938,2.1392035484314,10.3256893157959,56.363395690918,315.205871582031,1492.7998046875,772.521423339844,2012-02-01 15:44:47
1.0019998550415,79,6.74886035919189,1.61441552639008,2.00565552711487,5.54776000976562,364.433532714844,2882.7548828125,774.454772949219,142.989608764648,-6.98767471313477,1.27241861820221,1.80490076541901,8.02875804901123,0.213755920529366,733.475524902344,496.432678222656,137.868667602539,-0.555212318897247,1.09222555160522,1.58175814151764,4.99933528900146,140.451049804688,661.696228027344,576.292846679688,104.805992126465,2012-02-01 15:44:48
1.00100016593933,80,7.43734836578369,2.10699319839478,2.7473509311676,8.0387716293335,562.825378417969,1497.21533203125,397.993682861328,357.106689453125,-7.01429271697998,1.66943490505219,2.50091242790222,8.32775211334229,22.8601875305176,301.922637939453,155.485382080078,532.291015625,-1.0486603975296,2.28825831413269,3.17312788963318,12.4163303375244,369.184967041016,1253.62915039062,509.301086425781,597.444702148438,2012-02-01 15:44:49
1.00899982452393,84,7.13859748840332,1.82042396068573,2.26284122467041,6.63285064697266,25.7760963439941,1413.45275878906,1144.89636230469,335.922119140625,-7.16390752792358,1.20355045795441,1.5148344039917,4.09841680526733,12.6486043930054,497.708343505859,56.0488700866699,274.018646240234,-1.59271419048309,2.5259804725647,2.92094993591309,6.89233684539795,720.342224121094,3362.59057617188,1035.73889160156,309.004791259766,2012-02-01 15:44:50
1.01999998092651,76,7.08406496047974,2.38811349868774,3.15303778648376,10.3648777008057,210.663619995117,2288.24365234375,901.987976074219,687.451782226562,-6.36706447601318,1.80768191814423,2.54946541786194,8.13222122192383,224.372665405273,909.380859375,1501.990234375,519.27099609375,-1.34856557846069,2.09367299079895,2.78328156471252,10.3734455108643,32.6118621826172,2019.90600585938,815.277221679688,606.608947753906,2012-02-01 15:44:51
1.00999999046326,73,7.19152593612671,2.31488800048828,2.90484833717346,8.07390403747559,215.921768188477,1665.11120605469,2547.048828125,252.290405273438,-6.70743799209595,1.62384831905365,2.32772660255432,7.60765790939331,51.0022125244141,268.791687011719,801.169860839844,842.538940429688,-0.839610457420349,2.04021739959717,2.81211376190186,11.4187021255493,113.778503417969,825.013671875,813.289489746094,152.691452026367,2012-02-01 15:44:53
1,82,7.13145112991333,2.65726470947266,3.52807259559631,9.72373008728027,667.430419921875,5727.1044921875,6221.72314453125,525.258422851562,-6.68134117126465,1.77917814254761,2.6462094783783,11.0549049377441,104.053909301758,356.939361572266,1449.55786132812,2348.76489257812,-0.9665567278862,2.07097172737122,3.39057397842407,16.0610065460205,548.533264160156,1965.65991210938,1802.08312988281,1444.00439453125,2012-02-01 15:44:54
1.01800012588501,81,7.02937602996826,2.56611132621765,3.33909630775452,11.8560876846313,2.99588084220886,2795.66381835938,4580.46533203125,1215.36706542969,-6.91090774536133,1.89292347431183,2.54322171211243,8.28996753692627,307.951873779297,887.507019042969,1028.26953125,1994.6611328125,-1.17073512077332,1.75340366363525,2.51078677177429,8.90406513214111,94.0733642578125,1635.83276367188,2514.10131835938,521.488891601562,2012-02-01 15:44:55
1.00300002098083,81,6.97120571136475,2.46077084541321,3.31211352348328,12.7570161819458,495.72998046875,1863.5849609375,3594.80932617188,1882.25012207031,-6.81513929367065,1.78106701374054,2.54601073265076,9.72648906707764,490.467651367188,595.458557128906,395.307312011719,1194.25122070312,-0.489954173564911,1.74578428268433,2.20088911056519,8.37816905975342,18.7394065856934,1042.48449707031,760.724243164062,297.901611328125,2012-02-01 15:44:56
1.00300002098083,82,7.58342933654785,2.7241427898407,3.5059609413147,10.2868919372559,93.2884216308594,4418.63134765625,3410.20336914062,1489.50524902344,-6.95159387588501,1.72026455402374,2.46421527862549,8.50303649902344,90.1554565429688,1694.1416015625,591.130493164062,1473.0595703125,-0.827809810638428,1.70128750801086,2.37999892234802,8.09777355194092,1.06451046466827,1430.26416015625,711.642456054688,169.662704467773,2012-02-01 15:44:57
1.01099991798401,83,7.51260089874268,2.45077276229858,3.15754055976868,10.7599458694458,2.87484359741211,4116.24755859375,2405.85766601562,670.155151367188,-7.28298854827881,1.928990483284,2.74196839332581,8.80604648590088,138.517059326172,1652.60168457031,1554.87609863281,1064.25598144531,-0.929757952690125,1.48251032829285,2.04637145996094,6.9232234954834,3.17164826393127,929.334228515625,592.655944824219,312.686920166016,2012-02-01 15:44:58
1.01699995994568,81,7.65884447097778,2.54755020141602,3.27959084510803,9.90501976013184,32.8282890319824,4230.64013671875,2726.05444335938,884.230834960938,-7.25851011276245,1.96941530704498,2.63661980628967,8.60068130493164,182.336120605469,1678.84558105469,702.192993164062,956.385620117188,-1.33389544487,1.69529187679291,2.42438817024231,10.0433511734009,2.03462052345276,1247.83666992188,960.78955078125,239.001495361328,2012-02-01 15:44:59
1.00999999046326,80,7.60278749465942,2.6423008441925,3.19238710403442,7.98825407028198,160.72380065918,4088.03125,1873.45666503906,235.766632080078,-6.91684865951538,1.447594165802,1.96222519874573,6.72531270980835,75.6925506591797,969.459594726562,388.355438232422,656.614807128906,-1.33045792579651,1.88764846324921,2.6857008934021,11.52161693573,68.6079177856445,1075.076171875,881.212097167969,364.040344238281,2012-02-01 15:45:00
1,83,6.67861127853394,2.10699772834778,2.90845561027527,7.83982801437378,998.447814941406,3900.13427734375,1368.1806640625,478.833801269531,-6.82260942459106,1.0852472782135,1.32167041301727,3.16426920890808,39.2227401733398,413.7109375,196.729522705078,504.767211914062,-0.485071033239365,1.89703345298767,2.36874222755432,6.73584127426147,69.5045852661133,1794.13342285156,569.136047363281,684.662719726562,2012-02-01 15:45:01
1.00800013542175,85,7.13122844696045,2.77115797996521,3.28225612640381,7.46382522583008,264.575714111328,3722.82543945312,798.312316894531,349.545867919922,-7.02622127532959,1.68015229701996,2.52247619628906,8.36697483062744,199.452331542969,855.412109375,318.626251220703,209.308654785156,-0.575960457324982,1.74753057956696,3.0125253200531,13.7153387069702,2.33964490890503,850.663757324219,439.441101074219,337.388153076172,2012-02-01 15:45:02
1.00799989700317,80,7.54796028137207,2.53395128250122,3.30569791793823,9.24975967407227,141.916427612305,2560.099609375,639.912536621094,481.926391601562,-6.93911457061768,1.64184772968292,2.36829257011414,7.97340965270996,179.6923828125,797.911010742188,289.127105712891,205.822296142578,-0.971327602863312,1.91066873073578,2.72034621238708,9.8313102722168,267.987548828125,689.828063964844,401.444091796875,267.896148681641,2012-02-01 15:45:03
1.02500009536743,80,7.75410127639771,2.64552116394043,3.51605463027954,10.7291355133057,9.34073543548584,3459.89404296875,762.975891113281,656.397827148438,-6.9036808013916,1.79747676849365,2.80254554748535,8.53173732757568,112.758026123047,641.856811523438,827.291748046875,831.114379882812,-1.0919953584671,1.81792330741882,2.49047517776489,6.24383878707886,52.7876052856445,1195.04333496094,835.308471679688,334.362823486328,2012-02-01 15:45:04
1.00699996948242,86,7.28750467300415,2.65273404121399,3.52083873748779,10.3912811279297,424.380279541016,4983.72509765625,3403.56225585938,846.303405761719,-6.8291540145874,2.03824377059937,3.09713840484619,10.0451803207397,41.0169677734375,972.483947753906,2326.4716796875,2245.86694335938,-1.01335978507996,1.78070592880249,2.72286772727966,10.8618803024292,117.11693572998,758.803588867188,881.02001953125,1030.57153320312,2012-02-01 15:45:05
1,84,6.45567989349365,2.07736349105835,3.0778386592865,12.429783821106,658.121826171875,980.991027832031,2801.19750976562,741.534301757812,-7.01774740219116,1.43391513824463,2.1410801410675,8.24768352508545,16.3534336090088,240.6884765625,406.046508789062,262.840515136719,-0.736958086490631,1.61042368412018,4.19056987762451,29.4108295440674,29.7113571166992,206.883544921875,961.656127929688,777.227233886719,2012-02-01 15:45:06
1.00300002098083,80,5.73028230667114,0.382258266210556,0.481026321649551,1.24833691120148,2.40734028816223,53.630256652832,8.74203491210938,1.72272956371307,-7.75625562667847,0.260513097047806,0.399570971727371,1.59070801734924,1.45111215114594,16.6560287475586,1.88395726680756,1.50168013572693,-1.33787989616394,0.419200778007507,0.485394865274429,1.66349136829376,79.3015747070312,119.305313110352,9.24006366729736,4.10451459884644,2012-02-01 15:45:07
1.00699996948242,85,7.06047248840332,0.500220835208893,0.600465953350067,1.44373214244843,107.333946228027,87.2943649291992,28.2381553649902,38.6650276184082,-6.71705961227417,0.398013442754745,0.505896270275116,1.15507555007935,48.396484375,181.245910644531,12.4376602172852,10.5367155075073,-0.612915635108948,0.306007146835327,0.392125219106674,1.2258312702179,0.707080602645874,5.37183570861816,45.1811218261719,11.2134819030762,2012-02-01 15:45:08
1,81,6.72575569152832,0.982202887535095,1.39965975284576,3.18233752250671,41.8537254333496,728.689025878906,625.707275390625,156.958465576172,-6.78156137466431,0.630957007408142,0.941003501415253,2.37386536598206,60.7106285095215,141.629150390625,111.532958984375,372.093475341797,-0.804924726486206,0.85178554058075,1.20102858543396,6.09132194519043,9.07086944580078,160.854461669922,374.6259765625,370.494323730469,2012-02-01 15:45:09
1,83,7.85413551330566,2.05971550941467,2.61303758621216,7.24121952056885,399.487487792969,546.4560546875,977.373901367188,201.63459777832,-6.60245847702026,2.03027749061584,3.0721127986908,10.4825658798218,214.056823730469,803.630615234375,437.750885009766,327.463592529297,-0.849451243877411,1.52913618087769,2.08592009544373,6.83114814758301,548.650207519531,523.509765625,216.668487548828,210.126907348633,2012-02-01 15:45:10
1,84,7.86985492706299,2.22822546958923,2.85485148429871,8.48733043670654,7.6568808555603,3346.56201171875,1494.05554199219,262.199645996094,-6.44473505020142,1.68957889080048,2.25477409362793,6.54050302505493,12.0019416809082,872.768798828125,1070.49816894531,468.533142089844,-1.08035504817963,1.49335205554962,1.9539840221405,5.6425633430481,216.005828857422,1038.84631347656,570.376708984375,200.451187133789,2012-02-01 15:45:11
