"diffSecs","N.samples","x.mean","x.absolute.deviation","x.standard.deviation","x.max.deviation","x.PSD.1","x.PSD.3","x.PSD.6","x.PSD.10","y.mean","y.absolute.deviation","y.standard.deviation","y.max.deviation","y.PSD.1","y.PSD.3","y.PSD.6","y.PSD.10","z.mean","z.absolute.deviation","z.standard.deviation","z.max.deviation","z.PSD.1","z.PSD.3","z.PSD.6","z.PSD.10","time"
1.00100016593933,37,-1.20144712924957,0.426334977149963,0.490574270486832,0.9265958070755,17.213249206543,24.2580490112305,10.9991579055786,4.0382513999939,2.66449332237244,0.266606211662292,0.351585030555725,0.850263059139252,4.43028736114502,7.49080228805542,5.07259082794189,2.43417739868164,9.27974128723145,0.138711512088776,0.172447770833969,0.399421870708466,0.427827328443527,0.746307253837585,0.61872935295105,0.270149260759354,2012-01-16 08:56:30
1.00699996948242,39,-1.91129088401794,0.0930632427334785,0.115901917219162,0.265785455703735,1.78348147983343e-06,0.227215498685837,0.243679121136665,0.0942539274692535,2.39055943489075,0.095513291656971,0.120095387101173,0.306269109249115,0.224571898579597,0.371158272027969,0.151076838374138,0.0184989105910063,9.37540912628174,0.126448348164558,0.152417987585068,0.32387113571167,1.51413583755493,2.31311058998108,0.692968726158142,0.546784698963165,2012-01-16 08:56:31
1.09500002861023,39,-1.58389961719513,0.444697082042694,0.576108157634735,1.39732182025909,14.2944717407227,24.0652847290039,15.096776008606,11.6534051895142,3.10543918609619,0.810180127620697,0.968294262886047,2.45493125915527,70.2984237670898,148.122512817383,111.81729888916,20.8438186645508,9.20316410064697,0.63435685634613,0.789116561412811,1.72144460678101,46.9073715209961,81.4894561767578,33.5222358703613,5.15642404556274,2012-01-16 08:56:32
1,41,-1.57934904098511,0.189587458968163,0.248354941606522,0.597727358341217,1.87100398540497,1.53477132320404,0.894790768623352,0.129326328635216,3.93127059936523,0.407737284898758,0.525866270065308,1.48199987411499,20.6264934539795,20.9364585876465,2.82050776481628,1.21397912502289,8.9606466293335,0.312015920877457,0.385401159524918,0.987840473651886,12.2219018936157,13.2175893783569,1.05257940292358,0.401750683784485,2012-01-16 08:56:33
1.00399994850159,13,4.7675404548645,4.37666702270508,4.53471279144287,6.04240465164185,4.36566686630249,10.2455358505249,27.6830711364746,21.247257232666,-3.66995000839233,6.80036020278931,6.8870735168457,7.87700271606445,7.62549591064453,18.0379066467285,50.7769889831543,44.7380027770996,11.6910352706909,2.42009544372559,2.65691828727722,4.14670419692993,1.53665733337402,3.45069432258606,9.45634937286377,8.60959053039551,2012-01-16 08:56:34
1.10500001907349,38,2.00468564033508,1.38330805301666,1.85013794898987,5.64450073242188,9.61632442474365,10.7651014328003,42.6327896118164,33.3257675170898,-7.58105659484863,1.5923718214035,1.79084765911102,3.0787718296051,10.9052095413208,7.72760725021362,128.149230957031,222.131790161133,5.78489112854004,1.61260986328125,2.35963106155396,7.77770519256592,102.656623840332,124.788116455078,92.8264923095703,37.086181640625,2012-01-16 08:56:35
1.00799989700317,39,3.01743078231812,0.619965970516205,0.809862852096558,1.89947271347046,27.2004985809326,40.4463653564453,10.0543727874756,3.84246516227722,-9.16770935058594,0.54008150100708,0.660489439964294,1.48231267929077,13.1664991378784,12.9241857528687,10.8434600830078,8.28989410400391,0.529056191444397,1.97394120693207,2.50366830825806,4.86460113525391,128.801162719727,197.712905883789,267.412048339844,128.965270996094,2012-01-16 08:56:36
1.00200009346008,35,2.32977986335754,0.9203040599823,1.01723790168762,1.73017346858978,26.5573463439941,66.9902648925781,57.9015159606934,3.14841532707214,-9.03360557556152,0.654940068721771,0.894828021526337,2.8652229309082,6.52981376647949,18.1111221313477,30.5347785949707,8.2510404586792,0.374053657054901,0.800782978534698,0.971638143062592,2.2177038192749,0.00732061872258782,3.24711322784424,27.7916488647461,4.79733467102051,2012-01-16 08:56:37
1.0149998664856,38,1.91513550281525,0.651259362697601,0.839078485965729,2.16030168533325,9.51829624176025,9.36259078979492,13.2579908370972,36.7595596313477,-9.84252166748047,0.515867829322815,0.686330080032349,1.89603841304779,0.198595017194748,6.21149730682373,32.9749984741211,30.9197406768799,0.543752908706665,1.10153675079346,1.51867604255676,6.08554220199585,2.35692548751831,47.7860870361328,53.3618087768555,19.2223129272461,2012-01-16 08:56:38
1.01200008392334,39,0.97286993265152,0.893314242362976,1.24997568130493,4.47962760925293,8.58421039581299,22.5675258636475,15.578221321106,37.0574989318848,-7.39295673370361,1.3707001209259,1.5094518661499,3.59049129486084,51.4650840759277,84.7010345458984,112.484916687012,31.5085430145264,5.9878396987915,1.60176575183868,1.86309242248535,3.54598379135132,251.267669677734,513.649963378906,214.670928955078,46.1185569763184,2012-01-16 08:56:39
1.00999999046326,38,2.39488697052002,0.777224540710449,1.20916879177094,3.90098237991333,51.5309143066406,100.84854888916,107.777648925781,83.7100372314453,-8.93127727508545,1.1909511089325,1.51948225498199,3.89582061767578,19.4195671081543,76.5103454589844,207.489212036133,119.838890075684,1.75848710536957,1.48064112663269,1.79996371269226,4.46512222290039,213.872909545898,291.212646484375,51.8561019897461,124.537437438965,2012-01-16 08:56:40
1.00200009346008,37,1.06468415260315,1.0606654882431,1.28225314617157,2.86778235435486,54.6002082824707,53.3464393615723,36.4581031799316,54.2027893066406,-9.73349761962891,0.816394627094269,1.05886924266815,2.57464289665222,15.8277273178101,15.3116140365601,32.2340202331543,77.0660629272461,0.553413093090057,1.10739922523499,1.33955478668213,2.8985276222229,5.69690132141113,14.7239694595337,67.7836837768555,34.2275810241699,2012-01-16 08:56:41
1.00600004196167,38,1.49009466171265,0.684591114521027,1.0229959487915,3.44265031814575,23.8776035308838,29.3045330047607,5.98860025405884,1.63436186313629,-9.39941596984863,0.731912910938263,1.10992395877838,3.12316012382507,0.25075575709343,2.04361844062805,6.85615205764771,5.51011991500854,-0.128776803612709,0.422704637050629,0.532452881336212,1.16570103168488,0.0283595472574234,2.54933643341064,6.54779100418091,4.2653603553772,2012-01-16 08:56:42
1.01399993896484,40,0.598695993423462,0.421759486198425,0.52928638458252,0.91152811050415,4.77796316146851,2.76651549339294,6.95419359207153,1.61009573936462,-9.64631080627441,0.131776809692383,0.156884163618088,0.320186793804169,0.543995261192322,0.429406553506851,0.213061600923538,0.730377376079559,-0.382459342479706,0.251540571451187,0.312615305185318,0.627625524997711,7.4416675567627,15.1748085021973,4.93806600570679,1.11996185779572,2012-01-16 08:56:43
1.02300000190735,34,-0.159502267837524,0.309333622455597,0.371956080198288,0.747901260852814,0.856163382530212,3.778568983078,9.31878757476807,3.19657921791077,-9.78818988800049,0.0668142959475517,0.0866677835583687,0.234205886721611,1.5764067939017e-05,0.036446463316679,0.173365384340286,0.177044004201889,0.0576861761510372,0.143333181738853,0.164075344800949,0.312659084796906,0.00713473465293646,0.120145998895168,1.0598840713501,0.5519078373909,2012-01-16 08:56:44
1.00899982452393,39,-0.125474825501442,0.0892592072486877,0.107545293867588,0.315824389457703,0.137021586298943,0.385224968194962,0.797773718833923,0.12200653553009,-9.74252891540527,0.0964419916272163,0.108269177377224,0.18180039525032,0.00204186630435288,0.135817736387253,0.752110600471497,0.434388220310211,-0.291936427354813,0.132457464933395,0.151346027851105,0.276849240064621,0.0195464752614498,0.113711155951023,2.0579788684845,0.695007681846619,2012-01-16 08:56:45
1.01600003242493,40,-0.138028591871262,0.136214360594749,0.182906344532967,0.528823554515839,1.48446404933929,3.83659100532532,1.45972859859467,2.57610201835632,-9.70637607574463,0.040231816470623,0.0605909191071987,0.198340013623238,0.0157955251634121,0.0140038449317217,0.0541904643177986,0.0117241842672229,-0.431982934474945,0.100616224110126,0.120684564113617,0.264289200305939,0.0790845453739166,1.15475606918335,0.838090658187866,0.536988139152527,2012-01-16 08:56:46
1.01400017738342,37,0.148159921169281,0.50872802734375,0.635039448738098,1.72491014003754,25.4463844299316,51.1254005432129,38.4362182617188,9.67461013793945,-9.72103977203369,0.0780951157212257,0.107005931437016,0.228203251957893,0.243148967623711,0.470945835113525,0.543234288692474,0.4096799492836,-0.241190567612648,0.153353363275528,0.188461795449257,0.378483682870865,1.13154709339142,2.14200758934021,3.22175931930542,0.592341840267181,2012-01-16 08:56:47
1.1159999370575,39,0.443310856819153,0.869471371173859,1.03913521766663,1.96912491321564,68.8035049438477,95.1700286865234,22.9143676757812,3.77967762947083,-9.71612644195557,0.120117150247097,0.148931801319122,0.37491562962532,1.2024861574173,1.75340688228607,1.28173875808716,0.282410383224487,0.247932225465775,0.132147997617722,0.194199204444885,0.575826406478882,1.02523112297058,1.67861127853394,3.61580085754395,1.83409154415131,2012-01-16 08:56:48
1.00499987602234,40,0.33097442984581,0.49241641163826,0.57186621427536,1.12040972709656,7.19060945510864,19.2807197570801,33.9680557250977,13.8387565612793,-9.7627649307251,0.124042123556137,0.169841885566711,0.446447461843491,0.505871891975403,0.996276795864105,1.23409497737885,1.85727429389954,0.274095863103867,0.192774221301079,0.238645881414413,0.489842146635056,4.81598138809204,6.27945852279663,1.23313462734222,1.22472250461578,2012-01-16 08:56:49
1.00600004196167,41,0.102371856570244,0.239139914512634,0.271009683609009,0.466413825750351,0.245938763022423,4.24876260757446,3.88248252868652,0.376076459884644,-9.72221660614014,0.0483042001724243,0.0588751062750816,0.143273234367371,0.0664477571845055,0.0997453108429909,0.27814856171608,0.117683917284012,0.0755829587578773,0.136663049459457,0.171001851558685,0.375522941350937,2.65091371536255,2.97377276420593,1.2970050573349,0.640947163105011,2012-01-16 08:56:50
1.0090000629425,39,-0.0935403481125832,0.317449182271957,0.364719241857529,0.612538397312164,0.12022640556097,7.3084774017334,9.26659870147705,0.960638642311096,-9.72794532775879,0.105339497327805,0.127157121896744,0.304257661104202,0.421215355396271,0.952682316303253,0.449109733104706,0.544372737407684,-0.20493383705616,0.257410049438477,0.306263238191605,0.538359940052032,1.2289764881134,9.22136306762695,11.4422740936279,1.43118929862976,2012-01-16 08:56:51
1.10599994659424,40,0.0362846031785011,0.142588689923286,0.170593425631523,0.336368083953857,0.503432035446167,2.93517279624939,3.41351056098938,0.86066746711731,-9.73285484313965,0.0421811193227768,0.0483415834605694,0.0934087783098221,0.00615074392408133,0.00695630302652717,0.112671494483948,0.0160095989704132,-0.237566083669662,0.101413019001484,0.139593914151192,0.384665846824646,0.300093531608582,0.809020280838013,0.557180345058441,0.0988433063030243,2012-01-16 08:56:52
1.01300001144409,40,0.342006921768188,0.184487596154213,0.22046634554863,0.413105130195618,0.254408627748489,0.200430244207382,2.49563145637512,1.4000723361969,-9.71789932250977,0.0475379303097725,0.0584691911935806,0.137783885002136,0.0354382880032063,0.0471308454871178,0.0444265641272068,0.149184957146645,-0.285128355026245,0.087561123073101,0.107569329440594,0.205204144120216,0.451894760131836,0.860478639602661,0.75845593214035,0.230761766433716,2012-01-16 08:56:53
1.0090000629425,40,0.432963579893112,0.163918137550354,0.209499388933182,0.469248205423355,0.548139095306396,0.270907640457153,1.31592273712158,0.318619906902313,-9.72378349304199,0.0440319925546646,0.0571381151676178,0.132880136370659,0.000607702124398202,0.147632792592049,0.274916023015976,0.0463962554931641,-0.166713044047356,0.0828661918640137,0.100774958729744,0.235359594225883,0.612667739391327,0.638989388942719,0.161839857697487,0.131639495491982,2012-01-16 08:56:54
1.11199998855591,39,0.347004532814026,0.223560661077499,0.253767073154449,0.513717591762543,0.126353114843369,0.984059989452362,6.28204298019409,3.32908177375793,-9.71084594726562,0.0663063079118729,0.0745685249567032,0.144837081432343,0.00369881000369787,0.144588634371758,0.306371033191681,0.259777516126633,-0.285901546478271,0.130523219704628,0.152143552899361,0.341724038124084,0.885493874549866,2.13860440254211,2.27364683151245,0.429541736841202,2012-01-16 08:56:55
1.00099992752075,40,0.399620980024338,0.0778402835130692,0.0938253477215767,0.178971379995346,0.000324632186675444,0.12601076066494,0.154003113508224,0.224620342254639,-9.687744140625,0.0581657290458679,0.075076624751091,0.165487080812454,0.297659814357758,0.40781432390213,0.321948438882828,0.183774709701538,-0.264779537916183,0.0411879271268845,0.0537132322788239,0.0980665013194084,0.0847463607788086,0.298464834690094,0.159273013472557,0.135520398616791,2012-01-16 08:56:56
1.00200009346008,39,0.51547771692276,0.0897234231233597,0.106430098414421,0.190601021051407,0.153244063258171,0.372950941324234,0.701357245445251,0.118469402194023,-9.69777011871338,0.0389557741582394,0.0511160455644131,0.155900374054909,0.0411141254007816,0.0618830919265747,0.024751415476203,0.0263545103371143,-0.0618573278188705,0.0415090136229992,0.0544950552284718,0.140310525894165,0.0398491770029068,0.127350851893425,0.325590014457703,0.132827341556549,2012-01-16 08:56:57
1.0149998664856,39,0.438784718513489,0.122915171086788,0.155274748802185,0.370138168334961,1.66355586051941,2.58616423606873,1.87333631515503,0.727050721645355,-9.7397632598877,0.0504970327019691,0.0642058774828911,0.135533362627029,0.000807041593361646,0.0584903098642826,0.175909325480461,0.307903736829758,-0.155900582671165,0.0598714984953403,0.0680075734853745,0.116673983633518,0.283471137285233,0.336579829454422,0.0571055859327316,0.20378677546978,2012-01-16 08:56:58
1.01200008392334,37,0.364701360464096,0.143238693475723,0.176030710339546,0.400217324495316,0.117637954652309,0.539298951625824,0.411115348339081,0.826310455799103,-9.70169162750244,0.0486392714083195,0.0598414354026318,0.159821718931198,0.0212687477469444,0.0776379704475403,0.231059342622757,0.143885806202888,-0.32839024066925,0.0881237462162971,0.109026469290257,0.289163649082184,0.508356392383575,1.04293704032898,0.413852632045746,0.208701401948929,2012-01-16 08:56:59
1.09299993515015,38,1.08518326282501,0.40796747803688,0.517010033130646,1.33705914020538,14.3265085220337,34.4368743896484,35.6425399780273,9.75669384002686,-9.61748504638672,0.149653196334839,0.191931843757629,0.428654223680496,1.20201933383942,2.92980742454529,4.19770908355713,1.12418973445892,-0.263231128454208,0.189749166369438,0.23054164648056,0.41033086180687,2.42203998565674,5.54536008834839,4.42232465744019,0.296498268842697,2012-01-16 08:57:00
1.01500010490417,38,0.65162605047226,0.881539046764374,1.03025531768799,1.8294563293457,5.12969970703125,24.8180961608887,25.0187816619873,11.6538772583008,-9.6897439956665,0.219060465693474,0.296294271945953,0.872017681598663,0.0858343690633774,0.10400902479887,0.88000750541687,1.03648340702057,0.114324890077114,0.692061543464661,0.743752896785736,1.16363644599915,41.1488761901855,58.6287269592285,9.91689872741699,3.21969556808472,2012-01-16 08:57:01
1.00600004196167,39,0.615304410457611,0.476599305868149,0.637274444103241,1.59596931934357,8.12302398681641,19.1454029083252,35.2616424560547,27.6401290893555,-9.64999485015869,0.206449061632156,0.281104862689972,0.833816468715668,0.630019724369049,1.73808717727661,3.47592663764954,2.03382563591003,0.489578127861023,0.311414331197739,0.396806001663208,0.940684020519257,4.98781538009644,10.7529888153076,15.5471487045288,10.1217250823975,2012-01-16 08:57:02
1.01899981498718,39,0.283889949321747,1.03247714042664,1.21706628799438,2.1285457611084,3.75093007087708,49.799503326416,121.248977661133,47.2082252502441,-9.47724723815918,0.330099195241928,0.370474100112915,0.641455352306366,7.32509326934814,13.1555128097534,4.57605504989624,3.21204614639282,1.35004878044128,0.858291387557983,0.978914141654968,2.12477421760559,25.1768951416016,75.1827545166016,80.2308044433594,15.9788417816162,2012-01-16 08:57:03
1.01900005340576,37,0.876502454280853,0.343397498130798,0.400685876607895,0.76120799779892,2.21163511276245,5.56569623947144,13.5065498352051,3.57489013671875,-9.77060413360596,0.217952772974968,0.275965303182602,0.742124974727631,0.984274744987488,1.54527616500854,0.480172991752625,3.19661545753479,-0.0842841863632202,0.634144246578217,0.717024445533752,1.07290053367615,19.9738941192627,32.927074432373,17.7980003356934,1.07500970363617,2012-01-16 08:57:04
1.00100016593933,40,0.583250522613525,0.210781678557396,0.266020506620407,0.554320812225342,0.0477706044912338,1.22108042240143,2.33791875839233,0.514577686786652,-9.71937084197998,0.109785571694374,0.145651116967201,0.304986625909805,0.0366687402129173,0.784762680530548,1.60281717777252,0.265059560537338,0.00833565276116133,0.105274386703968,0.127741724252701,0.25644388794899,0.458516269922256,0.686066567897797,0.465850293636322,0.47974568605423,2012-01-16 08:57:05
1.01199984550476,36,0.27622064948082,0.229548245668411,0.268600970506668,0.521386861801147,0.00705324998125434,1.7218998670578,6.04652738571167,0.880315899848938,-9.74699211120605,0.0710984840989113,0.0887543186545372,0.196950435638428,0.00133473263122141,0.00220043677836657,0.144793510437012,0.57547265291214,0.0166168231517076,0.0855963155627251,0.106171280145645,0.271589726209641,0.0132311154156923,0.0379238948225975,0.143829539418221,0.173827782273293,2012-01-16 08:57:06
1.01699995994568,39,0.108124598860741,0.201909959316254,0.236305743455887,0.500390589237213,0.125335246324539,0.238978177309036,1.75772428512573,1.44921743869781,-9.75007247924805,0.0739660784602165,0.0844321846961975,0.174256861209869,0.166463017463684,0.246177420020103,0.164837524294853,0.223577082157135,-0.0206191092729568,0.0801940262317657,0.093794159591198,0.20493383705616,0.113685712218285,0.187131658196449,0.154060244560242,0.31597837805748,2012-01-16 08:57:07
1.00100016593933,37,0.341907531023026,0.125688433647156,0.155109748244286,0.341907531023026,0.552180647850037,1.0254647731781,0.390653699636459,0.185794219374657,-9.72104072570801,0.0788688138127327,0.102057799696922,0.29684978723526,0.306074947118759,0.368484944105148,0.127546682953835,0.375744134187698,-0.212830796837807,0.140187099575996,0.155907064676285,0.336341589689255,1.22170996665955,2.49976420402527,1.65125119686127,0.138211652636528,2012-01-16 08:57:08
1.01199984550476,39,0.694511950016022,0.230124220252037,0.259895175695419,0.498378962278366,1.74596512317657,4.84117555618286,6.30944347381592,0.764453649520874,-9.67564296722412,0.0831082537770271,0.101123958826065,0.248686984181404,0.140019461512566,0.19001978635788,0.120810657739639,0.852274417877197,-0.379441916942596,0.17849263548851,0.211441844701767,0.601223051548004,0.0903487950563431,1.74347221851349,3.65404915809631,0.423833847045898,2012-01-16 08:57:09
1.05900001525879,34,0.614934623241425,0.080692782998085,0.103879973292351,0.26189523935318,0.125723257660866,0.212048888206482,0.174821734428406,0.0215048901736736,-9.67252922058105,0.0564307048916817,0.0662871524691582,0.134120941162109,0.0157737322151661,0.0444360412657261,0.0507952980697155,0.0475263856351376,-0.393131285905838,0.0806249156594276,0.0918827801942825,0.185461074113846,0.315763503313065,0.609928786754608,0.489860981702805,0.0582625605165958,2012-01-16 08:57:11
1,38,0.736014842987061,0.0646260902285576,0.0763258337974548,0.146583586931229,0.00708770472556353,0.0165946818888187,0.13235542178154,0.340519398450851,-9.70058250427246,0.0425815097987652,0.0550100915133953,0.135487258434296,0.000955302850343287,0.033930167555809,0.299132257699966,0.192674040794373,-0.353555530309677,0.0619910657405853,0.0746834352612495,0.136776953935623,0.0815186724066734,0.0930401235818863,0.0798257142305374,0.146023869514465,2012-01-16 08:57:12
1.00699996948242,39,0.57456910610199,0.102128423750401,0.129086062312126,0.250949651002884,1.09746396541595,2.33675622940063,1.74392092227936,0.564218401908875,-9.68595218658447,0.0548940524458885,0.0647899955511093,0.134275555610657,0.0456726662814617,0.170324414968491,0.398256868124008,0.226059541106224,-0.483291804790497,0.0783371403813362,0.0958783030509949,0.19336698949337,0.835929870605469,1.28300738334656,0.701565206050873,0.17438417673111,2012-01-16 08:57:13
1.00300002098083,40,0.597960472106934,0.0938741564750671,0.112338319420815,0.206184819340706,0.206294536590576,0.797406613826752,2.21567153930664,0.330917418003082,-9.67278861999512,0.0430021397769451,0.0509356111288071,0.0946349129080772,0.00532561121508479,0.0244299694895744,0.168948963284492,0.101303830742836,-0.368484854698181,0.0794093459844589,0.10005396604538,0.278754055500031,0.369039505720139,0.296219438314438,0.180333405733109,0.049162495881319,2012-01-16 08:57:14
1.09500002861023,37,0.65439510345459,0.120401874184608,0.140929967164993,0.262129098176956,0.655724346637726,0.760479748249054,0.251323342323303,0.366762310266495,-9.66750144958496,0.0324499979615211,0.0405837893486023,0.0962110236287117,0.0494164042174816,0.0706581175327301,0.084655798971653,0.0268745440989733,-0.352244257926941,0.0433527007699013,0.0487610027194023,0.0988616347312927,0.113661579787731,0.137817651033401,0.0251972638070583,0.0375195443630219,2012-01-16 08:57:15
1,36,0.372925102710724,0.212749809026718,0.245367586612701,0.391993582248688,1.00063121318817,2.57505559921265,4.04350805282593,0.838379800319672,-9.74018287658691,0.0679809972643852,0.0803413763642311,0.217925652861595,0.0292632728815079,0.114521041512489,0.400694191455841,0.136275291442871,-0.361211597919464,0.158177629113197,0.205738484859467,0.518117964267731,0.00620124116539955,0.459132552146912,2.74775528907776,2.07234859466553,2012-01-16 08:57:16
1.00200009346008,39,0.718148529529572,0.189169690012932,0.255576252937317,0.507682740688324,2.28888940811157,4.96373701095581,7.37635087966919,5.56327247619629,-9.65804100036621,0.0830180794000626,0.103272750973701,0.224044039845467,0.018022621050477,0.0844132080674171,0.58812689781189,0.944098174571991,-0.353542298078537,0.112109154462814,0.145047813653946,0.333929002285004,0.0170401725918055,0.546448111534119,1.31029510498047,0.796834230422974,2012-01-16 08:57:17
1.00399994850159,39,0.530313432216644,0.273309588432312,0.328331381082535,0.773971021175385,2.15339541435242,4.5504322052002,2.73191857337952,2.22678232192993,-9.66633892059326,0.249054089188576,0.313082337379456,0.663834810256958,0.0249584186822176,1.67329204082489,3.45331454277039,3.45224022865295,-0.785537779331207,0.286178797483444,0.321849048137665,0.677664637565613,4.33103036880493,9.8049898147583,3.26902604103088,1.40729331970215,2012-01-16 08:57:18
1.05699992179871,39,1.07671988010406,0.235398277640343,0.283817201852798,0.757123649120331,6.10789346694946,12.3286876678467,4.99210548400879,2.69034171104431,-9.61856269836426,0.110522992908955,0.13649819791317,0.344993144273758,0.222902104258537,0.502094089984894,0.408653527498245,0.364032536745071,0.118434153497219,0.268473953008652,0.286336123943329,0.46996483206749,7.34510564804077,13.3633232116699,6.19690418243408,0.401043176651001,2012-01-16 08:57:19
1.01600003242493,38,1.41241562366486,0.162285104393959,0.216009914875031,0.480783879756927,0.5440633893013,0.453245013952255,0.494346618652344,0.500057220458984,-9.73309993743896,0.120002649724483,0.148618936538696,0.387362420558929,0.0561082847416401,0.341105580329895,0.450551599264145,0.342197090387344,0.556914508342743,0.0935299023985863,0.115007638931274,0.213681727647781,0.176546946167946,0.693776726722717,0.912830829620361,0.172710880637169,2012-01-16 08:57:20
1.01699995994568,39,0.821495532989502,0.298300087451935,0.358689993619919,0.590662002563477,10.8816862106323,13.9825859069824,5.89143037796021,2.35214972496033,-9.61227703094482,0.183908432722092,0.229340687394142,0.482286363840103,1.08700239658356,2.44624924659729,1.3735089302063,1.15260887145996,-0.378436088562012,0.279950529336929,0.334391444921494,0.780508756637573,6.16782903671265,6.79406309127808,0.923708021640778,0.812046527862549,2012-01-16 08:57:21
1.01900005340576,38,0.451105892658234,0.0629690140485764,0.0751917958259583,0.176519691944122,0.0970949456095695,0.193898275494576,0.0917447730898857,0.0688939914107323,-9.68354988098145,0.0373114459216595,0.0453711524605751,0.10245355963707,0.0273119248449802,0.0392134748399258,0.0396067425608635,0.0173670165240765,-0.628915965557098,0.11405324190855,0.128773704171181,0.275876551866531,0.764268815517426,0.818786323070526,0.114437058568001,0.069026954472065,2012-01-16 08:57:22
1.01800012588501,35,0.42672935128212,0.0601367801427841,0.0703806951642036,0.132249683141708,0.0126367537304759,0.0988561287522316,0.397009491920471,0.0939393565058708,-9.70634174346924,0.0387302748858929,0.0458827987313271,0.105631530284882,0.0654772967100143,0.0969683974981308,0.0634956806898117,0.0230327527970076,-0.514148652553558,0.0810949876904488,0.105341747403145,0.201736822724342,0.244534805417061,0.340182989835739,0.0972123965620995,0.0170514825731516,2012-01-16 08:57:23
1.00699996948242,38,0.376781791448593,0.0474033355712891,0.0547229535877705,0.112002268433571,0.00485452124848962,0.0301987789571285,0.240741819143295,0.0691754594445229,-9.70032501220703,0.0696244910359383,0.0867421999573708,0.168261349201202,0.00111610826570541,0.132331550121307,0.498943328857422,0.177363812923431,-0.517687857151031,0.0576174594461918,0.0711860880255699,0.15484182536602,0.228571012616158,0.559063673019409,0.475799441337585,0.0600765869021416,2012-01-16 08:57:24
1.06900000572205,37,0.337931841611862,0.0650147199630737,0.0803063213825226,0.181820601224899,0.00257220165804029,0.0504945106804371,0.306915700435638,0.509280323982239,-9.72660636901855,0.0417483672499657,0.0510087870061398,0.125896275043488,0.00439890660345554,0.0163638778030872,0.0993590801954269,0.0283992700278759,-0.48476654291153,0.0753156393766403,0.0846227183938026,0.162472352385521,0.199148833751678,0.283397257328033,0.208260908722878,0.169509500265121,2012-01-16 08:57:25
1.06499981880188,34,0.34121373295784,0.0921451821923256,0.112186260521412,0.21372726559639,0.226391345262527,0.511948704719543,0.807922124862671,0.234751224517822,-9.70627593994141,0.0265017058700323,0.035760834813118,0.0859523117542267,0.0084299361333251,0.0129712549969554,0.010405108332634,0.0358220674097538,-0.482256412506104,0.0363422855734825,0.0495194755494595,0.109603740274906,0.0249037947505713,0.0313760004937649,0.00734651368111372,0.0316256359219551,2012-01-16 08:57:26
1.00600004196167,27,0.3711998462677,0.0859864205121994,0.101763427257538,0.177972555160522,0.0133633073419333,0.0770745277404785,0.324289113283157,0.178739175200462,-9.71403121948242,0.0560957938432693,0.0679601281881332,0.132934600114822,0.00534766307100654,0.0112507184967399,0.0253358203917742,0.0380972810089588,-0.425681233406067,0.0748749151825905,0.084707997739315,0.151095047593117,0.0678801611065865,0.132253244519234,0.184217855334282,0.0978290215134621,2012-01-16 08:57:27
1,38,0.271747440099716,0.154217034578323,0.17267718911171,0.25213411450386,1.00699901580811,2.27772188186646,1.46423494815826,0.0917752459645271,-9.71735763549805,0.0333318375051022,0.0398533456027508,0.0990994349122047,0.0146710546687245,0.0218072440475225,0.0547756366431713,0.0843426585197449,-0.560527443885803,0.0781272202730179,0.0962306037545204,0.236908003687859,0.155720248818398,0.103524230420589,0.230775237083435,0.161464303731918,2012-01-16 08:57:28
1.01200008392334,38,0.452396243810654,0.119554191827774,0.143461927771568,0.332135707139969,0.125914484262466,0.226917430758476,0.309577524662018,0.4210205078125,-9.69335746765137,0.0999953150749207,0.140242159366608,0.417298793792725,0.10457070171833,0.756682097911835,1.70603346824646,1.62191641330719,-0.47433215379715,0.0968440622091293,0.140993013978004,0.337039053440094,0.183415830135345,0.946501314640045,2.46056747436523,2.02490139007568,2012-01-16 08:57:29
1.00300002098083,38,-0.239230632781982,0.336047530174255,0.421208769083023,0.90814733505249,15.1450099945068,21.5830745697021,9.05839157104492,2.66625452041626,-9.78393936157227,0.179996967315674,0.211278945207596,0.464009135961533,1.82415330410004,4.59218406677246,2.09027981758118,0.777405500411987,-0.401814579963684,0.319802731275558,0.422348529100418,0.843629956245422,14.5926609039307,19.5204391479492,9.23729133605957,2.38468599319458,2012-01-16 08:57:30
1.05699992179871,35,-1.63967180252075,0.233342230319977,0.277034938335419,0.541327059268951,0.0879659429192543,0.362544685602188,1.92622768878937,0.610316872596741,-8.8873462677002,0.286722421646118,0.41232168674469,1.09582316875458,6.80714321136475,8.68777370452881,3.54019141197205,0.887792646884918,-3.20397257804871,0.64900004863739,0.792631685733795,1.86046159267426,30.7063884735107,41.8130416870117,10.6121110916138,1.65357851982117,2012-01-16 08:57:31
1.0090000629425,39,-0.317584574222565,0.803216814994812,0.838758885860443,1.22205936908722,63.3972511291504,99.6169204711914,31.1046485900879,9.29213333129883,-9.4951000213623,0.29358047246933,0.35073709487915,1.02215468883514,7.2211275100708,7.39892625808716,0.86284327507019,0.390701711177826,-1.36111271381378,1.3661482334137,1.40851581096649,1.89067184925079,193.548706054688,304.037628173828,91.9801559448242,15.4953804016113,2012-01-16 08:57:32
1.01099991798401,38,0.649045348167419,0.253030568361282,0.266834735870361,0.459106057882309,4.42509651184082,5.97280693054199,0.890755653381348,0.146821022033691,-9.72277641296387,0.0363879464566708,0.0451476313173771,0.122066952288151,4.92754452352528e-07,0.0144920134916902,0.058486420661211,0.0288857314735651,0.313554733991623,0.125109493732452,0.132880851626396,0.2061977237463,1.26532733440399,1.7147661447525,0.357528299093246,0.142639443278313,2012-01-16 08:57:33
1.01300001144409,40,0.400846809148788,0.0571237355470657,0.0647976696491241,0.126260608434677,0.185686722397804,0.245177030563354,0.222675144672394,0.216836139559746,-9.72991275787354,0.0306458473205566,0.0399486944079399,0.115964271128178,0.00193640508223325,0.00683477241545916,0.0402553752064705,0.0428937561810017,0.221630290150642,0.0458951219916344,0.0570895299315453,0.123563788831234,0.0499122813344002,0.0572985298931599,0.0358354039490223,0.0342774093151093,2012-01-16 08:57:34
1.00399994850159,39,0.470216274261475,0.0442943386733532,0.0538026243448257,0.118182711303234,0.0441332012414932,0.173391595482826,0.288703233003616,0.241145640611649,-9.71034336090088,0.0263573415577412,0.0355926901102066,0.080213226377964,0.065753385424614,0.0794924572110176,0.0360354669392109,0.0110322460532188,0.30224597454071,0.0458804182708263,0.0570037998259068,0.12924662232399,0.000281064974842593,0.105156518518925,0.0895196124911308,0.0407740287482738,2012-01-16 08:57:35
1.00600004196167,37,0.374773055315018,0.118639685213566,0.155744761228561,0.472839534282684,0.765220880508423,2.29699945449829,2.77372789382935,0.986996531486511,-9.70222187042236,0.0326936058700085,0.0383702181279659,0.0848150253295898,0.0395791344344616,0.0678308457136154,0.0362357459962368,0.00200437707826495,0.341642469167709,0.11024422198534,0.16400970518589,0.570375919342041,1.31396341323853,2.68223977088928,2.37733721733093,1.48700964450836,2012-01-16 08:57:36
1.00999999046326,32,0.751740992069244,0.360911518335342,0.428736865520477,0.908647358417511,5.90704917907715,9.31381416320801,5.41263961791992,0.842013657093048,-9.66506671905518,0.205671519041061,0.233422696590424,0.386749684810638,0.637906491756439,1.04767835140228,0.899154305458069,0.136075139045715,0.0524042882025242,0.734790027141571,0.750479519367218,0.967487335205078,19.2150039672852,28.8086223602295,8.51344203948975,3.20335936546326,2012-01-16 08:57:37
1.01400017738342,40,1.62520706653595,0.0682665407657623,0.0774038434028625,0.139989897608757,0.237745359539986,0.255996435880661,0.43966406583786,0.307476967573166,-9.55535411834717,0.0454169698059559,0.0635045766830444,0.163035273551941,0.0351568013429642,0.23171404004097,0.449436634778976,0.200637146830559,-0.408201783895493,0.0791274085640907,0.105568200349808,0.317490309476852,0.783439218997955,0.92565244436264,0.264533370733261,0.107204630970955,2012-01-16 08:57:38
1,38,1.49293339252472,0.0925247892737389,0.116174094378948,0.227875590324402,0.0480483919382095,0.478917986154556,1.22165393829346,0.238422602415085,-9.6076774597168,0.0394031368196011,0.056060541421175,0.169552445411682,0.0831935852766037,0.0684033334255219,0.0741283968091011,0.0768027082085609,-0.375233381986618,0.0250191800296307,0.0313105694949627,0.0660658404231071,0.00843000318855047,0.0428669787943363,0.118504449725151,0.0382435955107212,2012-01-16 08:57:39
1.11399984359741,38,1.45783591270447,0.0805720910429955,0.106984458863735,0.277941107749939,0.447477281093597,0.419759750366211,0.176576644182205,0.113542713224888,-9.59606456756592,0.0367001704871655,0.0474454611539841,0.132131472229958,0.0489239990711212,0.154290169477463,0.222646936774254,0.0970519557595253,-0.237682223320007,0.0525375604629517,0.0609705783426762,0.120002426207066,0.0271305739879608,0.121136069297791,0.266805380582809,0.171348959207535,2012-01-16 08:57:40
1.01699995994568,38,1.52674055099487,0.151419013738632,0.199181690812111,0.405169516801834,1.00032305717468,3.56463217735291,5.62601566314697,0.734682679176331,-9.580322265625,0.0471859313547611,0.0593273192644119,0.167486965656281,0.0643613189458847,0.163184210658073,0.160362988710403,0.245708808302879,-0.143744841217995,0.0924840420484543,0.107832700014114,0.202584743499756,0.463417619466782,0.965277373790741,1.36751711368561,0.147078707814217,2012-01-16 08:57:41
1.00500011444092,38,1.41886734962463,0.0514238029718399,0.0807770639657974,0.346329540014267,0.00410759728401899,0.0322734154760838,0.0360560975968838,0.010393981821835,-9.6038064956665,0.0430296584963799,0.0499589070677757,0.101163163781166,0.0483402907848358,0.044306606054306,0.00622388161718845,0.0750186815857887,-0.186326339840889,0.0598721764981747,0.0738674774765968,0.147099748253822,0.22029510140419,0.357635647058487,0.0786977782845497,0.0650265887379646,2012-01-16 08:57:42
1.0090000629425,39,1.36739897727966,0.128356873989105,0.184214025735855,0.484800547361374,2.48888754844666,4.30810976028442,2.93766164779663,2.44155335426331,-9.61856269836426,0.0960420072078705,0.188802942633629,0.737259447574615,0.146954715251923,0.525161981582642,1.78939366340637,2.47518134117126,-0.22354131937027,0.131696656346321,0.185805231332779,0.502150774002075,0.795049548149109,1.85557544231415,2.34838175773621,2.29697608947754,2012-01-16 08:57:43
1.05599999427795,37,1.01697611808777,1.01446175575256,1.16676044464111,2.00347208976746,96.7699432373047,145.297256469727,36.8268508911133,6.86173152923584,-9.58904838562012,0.317308485507965,0.364064186811447,0.717740297317505,0.199550658464432,0.663031101226807,7.35127925872803,1.49474203586578,0.0373712852597237,0.521722376346588,0.549682557582855,0.825613915920258,15.6735372543335,32.7149505615234,20.3523616790771,1.5600928068161,2012-01-16 08:57:44
1.00099992752075,39,0.720411598682404,0.355089694261551,0.513976514339447,1.33898496627808,10.6500720977783,29.5774478912354,31.7067070007324,11.4671745300293,-9.7183895111084,0.169982135295868,0.215517655014992,0.539366185665131,0.0164611097425222,1.19188892841339,3.81482601165771,2.60503458976746,-0.0128240771591663,0.446502357721329,0.49387601017952,1.17000877857208,0.00299368728883564,14.8412923812866,22.7994174957275,14.0285835266113,2012-01-16 08:57:45
1.01099991798401,37,1.338210105896,0.402151435613632,0.443426817655563,0.878092765808105,10.4310808181763,14.0820016860962,2.23089361190796,2.53545141220093,-9.5720853805542,0.206620037555695,0.264345973730087,0.734703183174133,1.04575717449188,1.90919613838196,0.709225475788116,0.474261552095413,0.367881894111633,0.479100346565247,0.530101776123047,1.00504910945892,18.7972640991211,24.2162704467773,4.61163663864136,1.38267195224762,2012-01-16 08:57:46
1.00300002098083,36,1.1343024969101,0.10460426658392,0.153202220797539,0.388997107744217,0.127318784594536,0.103740960359573,0.184181094169617,0.118255011737347,-9.64538478851318,0.0380158349871635,0.0480672009289265,0.112231463193893,0.047807339578867,0.0598841048777103,0.0127889681607485,0.0495475605130196,-0.162626937031746,0.0589307025074959,0.0686222240328789,0.123400345444679,0.146592855453491,0.181315809488297,0.122626051306725,0.0283591896295547,2012-01-16 08:57:47
1.10300016403198,40,1.09687376022339,0.0597470179200172,0.0808543190360069,0.194661974906921,3.81893842131831e-05,0.0886259824037552,0.0760573893785477,0.102618716657162,-9.66690444946289,0.0446201786398888,0.0544577278196812,0.12503457069397,0.00245595816522837,0.0883305296301842,0.164817616343498,0.0717573016881943,-0.217462465167046,0.0276424940675497,0.0360911041498184,0.089976005256176,0.00097776809707284,0.0116859301924706,0.0715889558196068,0.0447997450828552,2012-01-16 08:57:48
1.00699996948242,39,1.00857615470886,0.0403484739363194,0.0506675355136395,0.116171054542065,0.0632904395461082,0.133710205554962,0.0488287247717381,0.152044802904129,-9.65100002288818,0.027002090588212,0.0326520055532455,0.0895169600844383,0.00270695332437754,0.00842057727277279,0.0126423435285687,0.0336465276777744,-0.15263170003891,0.0344941318035126,0.0438451357185841,0.113405101001263,0.0704934075474739,0.085997961461544,0.0198362041264772,0.0342560261487961,2012-01-16 08:57:49
1.00699996948242,39,1.04428243637085,0.0622441731393337,0.0733147040009499,0.132264047861099,0.0398999340832233,0.137087315320969,0.144236087799072,0.083042599260807,-9.67765426635742,0.0389170534908772,0.0458112396299839,0.0769443511962891,0.000138067320222035,0.0204779990017414,0.0375279374420643,0.0313886143267155,-0.177022606134415,0.0343393906950951,0.0411860570311546,0.0877569392323494,0.0318329967558384,0.0729966312646866,0.0690697506070137,0.0138958860188723,2012-01-16 08:57:50
1.02699995040894,41,1.15048742294312,0.0765280425548553,0.0903074368834496,0.173410266637802,0.0650866106152534,0.332396447658539,0.857358276844025,0.20954829454422,-9.63610935211182,0.0396932363510132,0.0468499697744846,0.094239354133606,0.0470994859933853,0.0404433719813824,0.019705830141902,0.123746983706951,-0.20809231698513,0.0484440326690674,0.0624565556645393,0.125333771109581,0.185476064682007,0.447900980710983,0.579581022262573,0.0800561532378197,2012-01-16 08:57:51
1.05200004577637,33,1.19492542743683,0.0600465908646584,0.0737475752830505,0.145613893866539,0.0604196786880493,0.137726157903671,0.175325319170952,0.0226208716630936,-9.62745571136475,0.0180463660508394,0.0234407223761082,0.0517076998949051,0.00200576242059469,0.00295945955440402,0.00209081382490695,0.00241273269057274,-0.295388162136078,0.0575971826910973,0.0768680274486542,0.175331011414528,0.231283694505692,0.363060891628265,0.258496165275574,0.0823068469762802,2012-01-16 08:57:52
1.01799988746643,39,1.28467106819153,0.331917375326157,0.41357609629631,0.961051642894745,8.31565475463867,23.4395027160645,26.1426906585693,4.95558500289917,-9.61277961730957,0.143521353602409,0.181118115782738,0.423949420452118,0.658225536346436,1.79971420764923,1.26534235477448,1.6417932510376,-0.0663834810256958,0.487315058708191,0.558700859546661,1.10588836669922,23.9872093200684,52.1694030761719,37.8159790039062,4.18258905410767,2012-01-16 08:57:53
1,39,0.769193351268768,0.917879223823547,1.14304852485657,2.48535704612732,23.6009826660156,60.6921081542969,55.1732292175293,4.61858749389648,-9.62007236480713,0.309518724679947,0.400930196046829,1.24569547176361,0.725800156593323,0.509894669055939,3.98959708213806,2.08071780204773,0.698032319545746,0.413645893335342,0.49541500210762,1.13933157920837,3.72530961036682,15.2054481506348,12.1220541000366,3.46470856666565,2012-01-16 08:57:54
1.01699995994568,39,1.30227279663086,0.660675466060638,0.783211290836334,1.47879242897034,12.237190246582,14.4448661804199,9.28755187988281,17.7560424804688,-9.64295387268066,0.379732042551041,0.487736463546753,1.3306872844696,0.0384535007178783,1.03930330276489,2.11024403572083,5.55001401901245,1.04654550552368,1.03960800170898,1.26115810871124,2.39986324310303,39.8634567260742,130.691345214844,144.19677734375,9.57814979553223,2012-01-16 08:57:55
1.06900000572205,37,-0.141798853874207,0.313712507486343,0.369589269161224,0.975364089012146,1.36103713512421,1.25592589378357,2.96887350082397,5.51374530792236,-9.74224376678467,0.22040268778801,0.310687482357025,0.94700413942337,0.178939238190651,0.882822632789612,0.816586315631866,0.302562355995178,0.3654964864254,0.244299471378326,0.313461810350418,0.811301469802856,0.475180178880692,4.09321928024292,4.9707989692688,3.44796586036682,2012-01-16 08:57:57
1.01700019836426,37,0.356484979391098,0.0803729742765427,0.10645953565836,0.251527279615402,0.0262732580304146,0.145493909716606,0.236913442611694,0.0371265448629856,-9.71096897125244,0.0717485025525093,0.0821880102157593,0.154521405696869,0.000129183230455965,0.133426129817963,0.536993026733398,0.0920937061309814,-0.223432585597038,0.1536685526371,0.17810483276844,0.390145629644394,0.0225112233310938,0.997113704681396,1.3700840473175,0.0494263060390949,2012-01-16 08:57:58
1.00699996948242,39,0.481028735637665,0.0558611527085304,0.0702601820230484,0.167215943336487,0.0753881931304932,0.181225463747978,0.341310650110245,0.200954183936119,-9.73045921325684,0.0458032749593258,0.0567695163190365,0.15464374423027,3.98133306589443e-06,0.0328006893396378,0.233736023306847,0.0787293761968613,-0.227061659097672,0.054932713508606,0.0623216927051544,0.10938186198473,0.0725035816431046,0.34655836224556,0.380403697490692,0.0465178266167641,2012-01-16 08:57:59
1.01099991798401,37,0.429107189178467,0.144900590181351,0.214264243841171,0.595820248126984,0.435412496328354,1.33317244052887,2.08495378494263,4.46945190429688,-9.68843936920166,0.0779088586568832,0.101272828876972,0.244635939598083,0.0241707246750593,0.150500953197479,0.826537072658539,0.569455206394196,0.0432022623717785,0.491994380950928,0.547686398029327,1.08456242084503,18.711067199707,38.0408134460449,30.3832492828369,3.95608282089233,2012-01-16 08:58:00
1.06200003623962,37,0.00636106869205832,0.922684669494629,0.986963987350464,1.79806244373322,50.298095703125,91.7667694091797,44.8468704223633,6.12253570556641,-9.62191390991211,0.172321960330009,0.233702912926674,0.675068199634552,0.00284189078956842,0.0947158262133598,0.571069002151489,1.6758131980896,1.03526413440704,0.330589383840561,0.440769076347351,1.18103873729706,0.288928419351578,7.67670965194702,23.4707508087158,3.89158940315247,2012-01-16 08:58:01
1.01699995994568,39,1.60602748394012,0.607818841934204,0.802021861076355,2.01790690422058,5.69638204574585,53.4949378967285,104.468315124512,32.5019569396973,-9.4433012008667,0.394741863012314,0.450635254383087,0.775227963924408,2.61918878555298,7.51988983154297,24.0124568939209,4.30012607574463,2.19769525527954,0.460377395153046,0.651498794555664,1.85446262359619,20.2092380523682,47.6145057678223,43.2992362976074,34.7272872924805,2012-01-16 08:58:02
1.00699996948242,40,0.603354156017303,0.390316933393478,0.486463159322739,1.56391561031342,3.66236138343811,4.70163059234619,1.5060293674469,17.8218421936035,-9.63503360748291,0.253501862287521,0.351797729730606,1.24054074287415,0.432241052389145,2.23538613319397,12.623929977417,10.73708152771,0.496216475963593,0.558684825897217,0.748610377311707,1.78088760375977,10.3875579833984,59.117618560791,99.3319625854492,20.5124092102051,2012-01-16 08:58:03
1.02500009536743,38,0.00541946711018682,1.60304772853851,1.79591906070709,3.15232181549072,263.076416015625,469.0419921875,209.871047973633,22.9501132965088,-9.47657871246338,0.444844275712967,0.591099381446838,1.50686943531036,0.691923916339874,13.1657342910767,31.0996742248535,2.96369504928589,1.14789414405823,0.580195069313049,0.662400603294373,1.1174418926239,22.4715633392334,38.896785736084,11.904821395874,1.50498938560486,2012-01-16 08:58:04
1.05900001525879,37,-3.26773476600647,0.298268288373947,0.340126246213913,0.684345006942749,1.85994052886963,4.06970739364624,4.6592116355896,3.22362399101257,-9.25588703155518,0.159241765737534,0.199242696166039,0.459322094917297,0.0124751180410385,0.120115242898464,1.17089891433716,0.216805100440979,0.0935607403516769,0.121533691883087,0.13437682390213,0.250467121601105,0.290800184011459,0.540585696697235,0.834800720214844,0.227615803480148,2012-01-16 08:58:05
1.00300002098083,38,-2.04236388206482,0.925003409385681,1.21349048614502,3.27800178527832,110.11865234375,193.630035400391,141.902282714844,60.9929122924805,-9.35064029693604,0.195100650191307,0.246840566396713,0.583495795726776,0.153422757983208,2.27927184104919,6.17337703704834,1.02041411399841,1.0090526342392,0.732401907444,0.824568629264832,1.78584253787994,58.9961433410645,94.4902420043945,32.9345016479492,21.4904499053955,2012-01-16 08:58:06
1.00399994850159,38,1.1370552778244,0.505843818187714,0.59583580493927,1.46067464351654,10.2012395858765,13.2530174255371,24.4314765930176,11.11243724823,-9.68871212005615,0.522482514381409,0.661749005317688,2.04984784126282,1.25125694274902,8.63298034667969,21.031322479248,26.754451751709,1.74584174156189,0.663972675800323,0.835259139537811,2.13810777664185,13.7908039093018,65.5092239379883,87.2199554443359,26.8912143707275,2012-01-16 08:58:07
1.00499987602234,38,0.787628829479218,0.459173977375031,0.552796900272369,1.36002743244171,0.357817202806473,3.63818144798279,26.1508827209473,14.8644161224365,-9.8889741897583,0.234368085861206,0.347261101007462,1.3984797000885,0.764257788658142,1.41180276870728,1.25938880443573,4.75936126708984,0.542462587356567,0.438039422035217,0.569622039794922,1.42506098747253,0.039579201489687,13.0602912902832,35.8566093444824,8.56096172332764,2012-01-16 08:58:08
1.007000207901,35,0.806386768817902,1.1219447851181,1.39571762084961,2.83188033103943,1.65234017372131,23.4514446258545,46.478343963623,0.825727343559265,-9.58978271484375,0.439738124608994,0.638114094734192,2.16839027404785,1.01945400238037,1.47264683246613,4.24215888977051,3.18811655044556,1.29083526134491,0.518111348152161,0.660364270210266,1.35696017742157,1.75681304931641,2.48076295852661,2.20022702217102,2.0969443321228,2012-01-16 08:58:09
1.05499982833862,36,1.38491690158844,1.0426527261734,1.34311151504517,3.02262735366821,23.7696952819824,57.8666000366211,142.52165222168,50.5873413085938,-10.0275716781616,1.15450584888458,1.51497912406921,4.68240261077881,8.83485317230225,44.8380851745605,147.053451538086,94.7024002075195,1.19041836261749,0.953333497047424,1.08512711524963,2.01417684555054,0.00666278135031462,25.4796905517578,67.2281875610352,26.0627670288086,2012-01-16 08:58:10
1.01100015640259,38,2.18043112754822,0.761034071445465,0.932284235954285,2.55308389663696,25.517786026001,73.3130264282227,41.1004180908203,12.427942276001,-9.56096744537354,0.692441880702972,0.93726772069931,2.64831185340881,1.03856194019318,16.4977931976318,37.0134773254395,11.341423034668,0.53962379693985,1.06758010387421,1.16373920440674,2.09888100624084,17.2661190032959,86.8646087646484,74.8081588745117,5.14208698272705,2012-01-16 08:58:11
1.01899981498718,40,1.26162552833557,1.01013398170471,1.27415430545807,3.36024856567383,5.21053504943848,34.4045219421387,53.3819808959961,5.97977352142334,-9.64778232574463,0.59163510799408,0.907534241676331,2.8851158618927,8.62483310699463,7.11233186721802,6.97084999084473,8.82936954498291,0.760015368461609,0.673961997032166,0.823168814182281,2.08391308784485,7.96683359146118,49.2439956665039,76.4969329833984,40.8921051025391,2012-01-16 08:58:12
1.01900005340576,37,-0.218926817178726,1.17722773551941,1.4457014799118,3.1707284450531,20.8239841461182,68.8575820922852,83.701530456543,3.34465742111206,-10.1212577819824,0.69377213716507,0.942512810230255,3.09810638427734,15.1950130462646,16.994966506958,11.8567714691162,3.00246596336365,0.587868869304657,0.862612664699554,0.981814444065094,2.0294463634491,25.3424606323242,33.5666427612305,17.1642646789551,7.64024448394775,2012-01-16 08:58:13
1.06599998474121,37,0.646973848342896,0.415389329195023,0.519096851348877,1.0495765209198,16.6650142669678,28.4054832458496,18.6812210083008,9.17277145385742,-9.67412757873535,0.16020168364048,0.182750597596169,0.328390032052994,0.320052146911621,0.86312609910965,1.93394267559052,1.26373708248138,0.216541424393654,0.383626967668533,0.467763364315033,1.12696957588196,12.7557401657104,17.1115741729736,3.82537889480591,0.120054133236408,2012-01-16 08:58:14
1.01999998092651,39,0.019110394641757,0.286797761917114,0.358548939228058,0.960548758506775,6.20228481292725,10.4457149505615,11.3842039108276,11.1980762481689,-9.74152374267578,0.11076831817627,0.131672993302345,0.300485879182816,0.0131119675934315,0.0146094998344779,0.391703724861145,0.303628832101822,-0.196635901927948,0.139897882938385,0.165293678641319,0.313309907913208,0.453137457370758,0.622172296047211,0.745163381099701,0.964303970336914,2012-01-16 08:58:15
1.01100015640259,38,0.399233877658844,0.43491542339325,0.533121407032013,1.13473260402679,12.1938323974609,20.6858615875244,14.2302894592285,2.51195120811462,-9.64484024047852,0.213939756155014,0.295416355133057,0.681562066078186,3.865234375,9.69016647338867,8.80599117279053,4.32469129562378,-0.453686594963074,0.124552600085735,0.149652853608131,0.321038722991943,0.796718895435333,0.799538433551788,0.686263263225555,0.851550042629242,2012-01-16 08:58:16
1.00099992752075,39,0.427720814943314,0.352536499500275,0.448950350284576,1.00405013561249,16.1710300445557,32.3829956054688,20.5065174102783,7.46283674240112,-9.50515842437744,0.293258219957352,0.335157603025436,0.600720107555389,2.33380317687988,5.21270418167114,4.02564144134521,1.31963455677032,-1.31836581230164,0.233141645789146,0.268646895885468,0.456637799739838,0.305389642715454,0.706481695175171,2.70088768005371,4.30852890014648,2012-01-16 08:58:17
1.00099992752075,38,1.63435554504395,0.547039926052094,0.660297155380249,1.73242211341858,7.12428951263428,28.5547161102295,32.5014724731445,4.10357570648193,-9.70548629760742,0.176519826054573,0.21321065723896,0.506849408149719,1.0361590385437,1.03821527957916,0.248747974634171,1.39918851852417,0.443105727434158,1.03098857402802,1.05432069301605,1.50222384929657,78.0211029052734,115.5634765625,27.0756721496582,4.25837707519531,2012-01-16 08:58:18
1.00999999046326,34,1.28813230991364,1.33831930160522,1.44084715843201,2.25206828117371,14.8913278579712,42.9919128417969,130.673904418945,28.3594055175781,-9.65493488311768,1.0158873796463,1.30887222290039,3.71152853965759,11.248948097229,22.107795715332,43.3144226074219,65.1103744506836,0.900481224060059,1.15246796607971,1.29987561702728,2.00228714942932,10.6699209213257,30.1364459991455,55.1099166870117,9.28657817840576,2012-01-16 08:58:19
1.01300001144409,37,1.25445604324341,1.3441915512085,1.54025650024414,3.4511456489563,67.321662902832,97.055793762207,131.104721069336,23.8828830718994,-9.51616096496582,0.7939732670784,1.12514543533325,3.3011302947998,14.2393922805786,23.3229637145996,23.6701698303223,31.2897663116455,0.936402499675751,0.994604885578156,1.19387674331665,2.33901834487915,0.83613920211792,52.1855621337891,158.905639648438,56.2643127441406,2012-01-16 08:58:20
1.01800012588501,40,0.701420605182648,1.17678570747375,1.31841278076172,2.53526401519775,38.3783187866211,54.7651252746582,40.990837097168,109.380065917969,-10.1886186599731,0.951980590820312,1.27296960353851,3.55049777030945,1.75875997543335,19.8016700744629,88.7733154296875,73.2676162719727,0.422421425580978,0.545458137989044,0.686193585395813,1.42122864723206,0.972633540630341,6.36293506622314,67.4065933227539,49.4871063232422,2012-01-16 08:58:21
1.00300002098083,37,1.59079766273499,0.635447978973389,0.805992484092712,2.26321578025818,5.18777656555176,10.9085674285889,6.88826560974121,7.99002075195312,-9.55326747894287,0.502739369869232,0.818362772464752,3.07769823074341,0.899852752685547,7.52645206451416,5.02282810211182,7.73756551742554,1.45668506622314,0.685548543930054,0.820551574230194,1.95602893829346,12.158314704895,22.2100601196289,11.9527225494385,6.99203872680664,2012-01-16 08:58:22
1.09200000762939,38,0.675884604454041,0.645785570144653,0.842355132102966,1.91152250766754,47.8948783874512,72.3885269165039,31.291259765625,15.726245880127,-9.53309631347656,0.359531730413437,0.459591597318649,1.07976388931274,1.97217857837677,5.05579137802124,6.40617036819458,4.77416372299194,1.79022967815399,0.48009118437767,0.569722414016724,1.21060526371002,9.57321071624756,16.4848175048828,4.01773118972778,5.26678562164307,2012-01-16 08:58:23
1.01699995994568,39,-0.38522532582283,0.868697643280029,1.0707927942276,2.00332260131836,112.313323974609,182.865844726562,85.8167114257812,31.8186340332031,-9.73347663879395,0.149208247661591,0.185946807265282,0.386985301971436,0.220654010772705,0.718182504177094,2.23115301132202,1.63090229034424,0.42369756102562,0.358210295438766,0.37564605474472,0.600217282772064,12.143458366394,22.0918979644775,9.65466499328613,0.474769115447998,2012-01-16 08:58:24
1.00099992752075,39,1.15064692497253,1.01000106334686,1.15673136711121,1.76846587657928,68.1451873779297,153.076049804688,96.092170715332,2.9176332950592,-9.60800266265869,0.344915568828583,0.450716108083725,0.943952977657318,0.527792870998383,3.14346480369568,7.90810537338257,7.70031499862671,0.658554255962372,0.30588236451149,0.362240970134735,0.766427397727966,0.000639860867522657,1.75685977935791,12.1549406051636,8.128586769104,2012-01-16 08:58:25
1.00799989700317,36,1.18088412284851,0.600475668907166,0.795015573501587,1.8199508190155,1.5114334821701,13.2709617614746,42.9511909484863,28.4852771759033,-9.64075374603271,0.809184789657593,1.18775308132172,3.79435610771179,7.18484401702881,35.6928329467773,27.510404586792,51.5824775695801,0.803055644035339,0.870128333568573,0.995434761047363,1.67584753036499,6.61925029754639,38.4146842956543,82.5920333862305,9.22971057891846,2012-01-16 08:58:26
1.02800011634827,35,-0.232277512550354,0.351662456989288,0.42816698551178,0.908936321735382,7.63128709793091,14.9915428161621,16.2689151763916,3.49066853523254,-9.71895027160645,0.354736626148224,0.593994557857513,2.24516201019287,0.517598688602448,1.94451057910919,1.24725866317749,1.64969789981842,0.806386768817902,0.447807639837265,0.470252484083176,0.870550334453583,10.4987134933472,16.6398906707764,4.77291870117188,1.36043512821198,2012-01-16 08:58:27
1.01300001144409,40,0.427324771881104,0.117986254394054,0.150171279907227,0.388098150491714,0.0896272733807564,0.055283211171627,0.674778282642365,0.144746646285057,-9.72133159637451,0.112433448433876,0.135853230953217,0.350097358226776,0.00942762475460768,0.394781827926636,0.51157945394516,0.237924724817276,0.168674379587173,0.0601147599518299,0.0776894614100456,0.188287675380707,0.351205408573151,0.452037483453751,0.364391833543777,0.112133279442787,2012-01-16 08:58:28
1.00799989700317,70,0.63631147146225,1.04942357540131,1.32946336269379,2.96272897720337,88.7390975952148,850.753784179688,685.24951171875,103.46802520752,-9.61219787597656,0.284560889005661,0.403576582670212,1.5119047164917,7.03072452545166,44.9698066711426,81.8482894897461,16.1944408416748,0.46567577123642,0.66387414932251,0.852046966552734,2.39786601066589,59.8685913085938,146.182067871094,234.345138549805,47.3740577697754,2012-01-16 08:58:29
1.00800013542175,35,1.22274911403656,0.929926574230194,1.18364453315735,2.51358437538147,18.158260345459,20.3057403564453,7.62906312942505,11.444185256958,-9.25019264221191,0.540686726570129,0.840808272361755,2.91005349159241,0.73565798997879,7.58234739303589,17.4990463256836,5.92319440841675,1.62145948410034,0.522386193275452,0.698409497737885,1.5331996679306,5.10410118103027,4.54956340789795,2.6664719581604,2.95594501495361,2012-01-16 08:58:30
1.11100006103516,39,1.85295391082764,1.33107376098633,1.71161210536957,4.47233533859253,112.667961120605,257.100982666016,375.291870117188,103.03857421875,-9.36761379241943,3.09716057777405,3.83917856216431,7.99996280670166,244.365097045898,555.51171875,1006.80145263672,1369.42553710938,2.07398080825806,0.826402068138123,1.05593037605286,1.93668758869171,65.3529815673828,141.879302978516,87.3430862426758,23.3901996612549,2012-01-16 08:58:31
1.00499987602234,38,2.76134610176086,1.51633620262146,1.79919517040253,3.42664980888367,23.665843963623,103.156372070312,122.557594299316,54.3137855529785,-8.15887451171875,2.04929089546204,2.50302267074585,5.56991863250732,4.97386932373047,29.0722560882568,248.320678710938,228.137985229492,2.83747673034668,1.09877943992615,1.31863081455231,2.58250379562378,19.6582660675049,58.0640296936035,111.826484680176,82.3938369750977,2012-01-16 08:58:32
1.01600003242493,39,2.49063754081726,1.26950013637543,1.65882432460785,4.84473609924316,17.0887203216553,76.0956420898438,188.469284057617,46.0349807739258,-9.95374965667725,3.48010349273682,3.90785551071167,7.27653408050537,301.605224609375,699.860290527344,375.359924316406,559.39013671875,3.1016674041748,1.3275533914566,1.52265405654907,2.95884227752686,58.0802192687988,61.2723960876465,39.3254928588867,182.706192016602,2012-01-16 08:58:33
1.00799989700317,38,1.84235978126526,1.04833364486694,1.32366478443146,3.06096529960632,36.9132843017578,52.7568130493164,19.386547088623,99.8915634155273,-9.14108753204346,3.20483207702637,3.74742031097412,6.94181680679321,128.879898071289,180.559158325195,195.875854492188,539.513366699219,2.68650579452515,1.0466765165329,1.3394113779068,3.75646305084229,3.32110738754272,2.29201364517212,70.4433746337891,75.1191635131836,2012-01-16 08:58:34
1.10400009155273,36,1.82866775989532,1.36826980113983,1.54386913776398,3.05504393577576,12.8494167327881,11.2461185455322,51.2825164794922,67.2942810058594,-7.8453197479248,2.15855264663696,2.54143953323364,4.79545211791992,77.3428192138672,184.470260620117,235.711395263672,188.560638427734,2.54945659637451,1.11057281494141,1.29703938961029,2.79516744613647,8.00158500671387,9.61165428161621,63.7711524963379,96.4269180297852,2012-01-16 08:58:35
1.01900005340576,38,2.76366877555847,1.17818343639374,1.43305325508118,2.82612156867981,81.1896820068359,164.989303588867,64.1224822998047,62.0818214416504,-8.58649635314941,2.61910891532898,2.90170502662659,4.86977577209473,24.6907424926758,14.7673778533936,285.904876708984,514.679504394531,3.04238414764404,1.00427150726318,1.25405585765839,2.41991996765137,50.4567222595215,71.5779724121094,13.6724948883057,22.2995910644531,2012-01-16 08:58:36
1,36,2.57479047775269,2.79380559921265,3.35341167449951,7.76141881942749,7.08288955688477,163.616882324219,329.318176269531,23.9524955749512,-11.1746778488159,2.57097673416138,2.97237539291382,6.16348028182983,353.887115478516,515.964660644531,229.229141235352,18.9632110595703,2.42769074440002,1.26215219497681,1.51833641529083,2.99647641181946,57.7416496276855,56.1172752380371,41.4894218444824,19.6337032318115,2012-01-16 08:58:37
1.01999998092651,40,1.39107322692871,1.55540823936462,1.80109286308289,3.71524930000305,0.0305342860519886,124.254302978516,512.479431152344,82.274284362793,-9.56785774230957,0.733659982681274,1.00630164146423,3.45537281036377,0.359100967645645,5.44077587127686,20.2363967895508,9.91059684753418,1.24985754489899,1.27393281459808,1.38864886760712,2.11382341384888,63.2426795959473,74.0588760375977,116.228118896484,32.4539489746094,2012-01-16 08:58:38
1.1029999256134,38,1.94713616371155,1.13588714599609,1.37668943405151,2.64340829849243,13.6301383972168,47.0699844360352,72.1757888793945,22.8874626159668,-9.33154392242432,0.648243963718414,1.01445937156677,3.51516771316528,2.43473076820374,6.54110097885132,15.9423084259033,25.1549453735352,1.38041496276855,0.782331585884094,0.947516798973083,1.74326109886169,0.00311358738690615,2.04089951515198,3.24363660812378,20.8717632293701,2012-01-16 08:58:40
1.01800012588501,39,1.47602653503418,1.47687757015228,1.72819471359253,3.7217493057251,33.3383255004883,102.290962219238,296.797149658203,124.23868560791,-9.68318653106689,1.200150847435,1.46510624885559,3.46753120422363,0.0330734699964523,58.7443542480469,112.468757629395,53.6357803344727,0.811437427997589,1.12720382213593,1.34231603145599,3.41522860527039,0.566863596439362,4.30956554412842,76.3957443237305,87.0784378051758,2012-01-16 08:58:41
1.00999999046326,38,1.19821774959564,0.940052926540375,1.095818400383,2.3455958366394,29.9503211975098,58.4511871337891,54.8778915405273,75.0662307739258,-9.52638626098633,0.578809678554535,0.709749042987823,1.60261332988739,4.1722240447998,7.24633407592773,9.44920253753662,4.26686811447144,0.875630617141724,0.8168585896492,1.09150290489197,2.70379662513733,30.1935901641846,50.8688430786133,25.1999549865723,15.1465911865234,2012-01-16 08:58:42
1.01399993896484,38,-0.106582798063755,1.37408554553986,1.46877324581146,2.4333393573761,180.03923034668,317.292114257812,125.260391235352,18.6662940979004,-9.56819343566895,0.611489355564117,0.818253457546234,1.88597393035889,0.91140216588974,9.32047939300537,7.66801595687866,3.84020161628723,0.509171605110168,0.448226362466812,0.532068729400635,1.02892398834229,16.0393981933594,25.3787517547607,11.0168199539185,2.61628937721252,2012-01-16 08:58:43
1.01600003242493,37,-2.73075437545776,0.284915775060654,0.352225601673126,0.603506505489349,7.71684312820435,10.5312976837158,3.90337157249451,2.22201251983643,-9.31234169006348,0.124728634953499,0.144586220383644,0.307981580495834,0.451109200716019,0.633246600627899,0.215917617082596,1.18752980232239,-0.85847944021225,0.247035890817642,0.326363444328308,0.799639523029327,5.59323310852051,11.2365446090698,7.44526720046997,4.14800262451172,2012-01-16 08:58:44
1.08599996566772,37,0.716680586338043,0.993630647659302,1.17654037475586,2.36419773101807,80.2592697143555,120.618812561035,26.1855125427246,34.1294555664062,-9.75735187530518,0.541937410831451,0.663822591304779,1.45164918899536,4.80027437210083,9.80555152893066,5.33218002319336,5.71800231933594,1.83437359333038,0.518384218215942,0.749627530574799,1.96079981327057,13.1753835678101,34.0863990783691,48.401927947998,10.9714622497559,2012-01-16 08:58:45
1.01300001144409,38,0.770338177680969,1.20005142688751,1.46824502944946,3.43774676322937,12.9441900253296,34.3862838745117,47.826000213623,21.8691101074219,-9.6799373626709,1.0120952129364,1.37576758861542,4.19647216796875,2.06116056442261,18.9381275177002,31.912317276001,14.6981973648071,0.795887053012848,0.900663375854492,1.14801871776581,3.48961877822876,3.76236057281494,7.13541460037231,41.3975448608398,26.8486652374268,2012-01-16 08:58:46
1.00300002098083,39,-0.424954831600189,0.33258792757988,0.398851156234741,0.944707274436951,0.0900096148252487,4.62049007415771,5.07712984085083,1.15667819976807,-9.76289653778076,0.250446915626526,0.347220987081528,0.759638369083405,0.428234457969666,0.363017827272415,1.01104378700256,0.586154162883759,0.455129146575928,0.333052128553391,0.454231202602386,1.29045450687408,8.74314785003662,10.1549806594849,2.57664251327515,1.18429374694824,2012-01-16 08:58:47
1.07999992370605,24,-0.925093948841095,0.385728240013123,0.564703702926636,2.19995832443237,0.0864793807268143,0.760029435157776,3.72467494010925,2.75027990341187,-9.69550800323486,0.0702811703085899,0.100912854075432,0.228822156786919,0.00579764461144805,0.016036931425333,0.0675716623663902,0.0518040284514427,0.283167004585266,0.192557647824287,0.394388198852539,1.8252626657486,0.456466734409332,0.839412927627563,0.914855122566223,0.501256048679352,2012-01-16 08:58:48
1.01500010490417,39,2.39382839202881,0.53320837020874,0.651971697807312,1.27385854721069,0.357307374477386,26.1011142730713,33.510986328125,5.41841220855713,-9.25571727752686,0.243792846798897,0.294089317321777,0.508185386657715,1.02116346359253,3.42199230194092,2.52386045455933,4.54155015945435,1.37972021102905,0.592654347419739,0.659060299396515,1.15416729450226,18.0141696929932,28.805326461792,12.6382141113281,2.14698839187622,2012-01-16 08:58:49
1.01600003242493,40,2.11872673034668,0.640276193618774,0.881764352321625,2.04027342796326,9.87649536132812,40.0310096740723,95.4888687133789,24.905969619751,-9.68161487579346,0.738318085670471,1.0087194442749,2.52766394615173,11.0106735229492,27.5637378692627,20.1082172393799,91.6681518554688,1.14468121528625,0.881556510925293,1.02332985401154,1.67424023151398,11.0112380981445,83.3106689453125,139.483993530273,11.0959129333496,2012-01-16 08:58:50
1.01899981498718,32,1.48815906047821,0.339248776435852,0.456838846206665,1.2478963136673,0.581498146057129,3.17393326759338,8.80602073669434,4.10598516464233,-9.50172424316406,0.416974097490311,0.527018249034882,1.33462333679199,0.957692205905914,2.08897280693054,6.04271078109741,7.06301259994507,0.840920209884644,0.405290454626083,0.490785837173462,1.28221940994263,0.639518916606903,3.40728044509888,10.2713918685913,2.29961538314819,2012-01-16 08:58:51
1.00200009346008,38,1.55512821674347,0.862604856491089,1.01210641860962,1.59280645847321,0.693030059337616,19.3476238250732,23.2712116241455,0.642092287540436,-9.4649658203125,0.32084858417511,0.454484820365906,1.54790258407593,3.17216467857361,6.51305913925171,4.16295957565308,0.633238434791565,1.07847344875336,0.434874653816223,0.476004064083099,0.803887188434601,3.94502711296082,14.4045286178589,7.41682004928589,3.97008919715881,2012-01-16 08:58:52
1.00799989700317,36,1.85236716270447,1.06989336013794,1.29716145992279,2.7665650844574,2.74863028526306,21.6366863250732,89.9201354980469,114.580123901367,-9.76524353027344,0.654503107070923,0.971284985542297,3.22856688499451,7.27039766311646,35.0925903320312,68.9385681152344,44.7062759399414,1.84964311122894,1.00070202350616,1.17980933189392,2.50668859481812,6.27415132522583,29.4785633087158,44.2658615112305,23.8816699981689,2012-01-16 08:58:53
1.03500008583069,35,-0.45306721329689,0.366712659597397,0.528836309909821,2.06135773658752,3.35490798950195,3.17801356315613,9.26514911651611,4.46592855453491,-9.63741493225098,0.136124223470688,0.168595209717751,0.448584496974945,0.0628644824028015,0.563955426216125,0.978322625160217,0.749528229236603,1.1168372631073,0.261169105768204,0.348139196634293,1.03081893920898,5.41165399551392,8.28549098968506,4.18835020065308,0.763976693153381,2012-01-16 08:58:54
1,35,1.92966842651367,0.607387840747833,0.679133713245392,1.08629655838013,25.9854965209961,42.2382850646973,14.2009305953979,6.03895902633667,-9.6878490447998,0.203754141926765,0.298968583345413,0.94255918264389,0.710629642009735,1.71172785758972,3.97946715354919,4.03179788589478,1.20061409473419,0.101028509438038,0.115089550614357,0.22135004401207,0.0359164960682392,0.185985237360001,0.553994357585907,0.531934082508087,2012-01-16 08:58:55
1.00399994850159,38,-3.04083561897278,1.06115555763245,1.28602850437164,3.50174808502197,83.9391098022461,97.6484222412109,12.4284505844116,1.14133906364441,-9.18728256225586,0.247611194849014,0.303785711526871,0.825307130813599,3.06538844108582,3.864333152771,0.606285512447357,0.219460442662239,-0.564656555652618,0.600243031978607,0.658287048339844,1.40802848339081,19.7652244567871,23.7569713592529,2.79599976539612,0.499943614006042,2012-01-16 08:58:56
1.01200008392334,33,-1.85642850399017,1.33633387088776,1.73012661933899,3.55297899246216,122.978477478027,216.208297729492,180.897827148438,86.9378280639648,-9.4019021987915,0.279611051082611,0.415803581476212,1.14024591445923,4.7419867515564,8.52656936645508,8.93004512786865,5.85538625717163,0.0558681897819042,0.563580691814423,0.661844789981842,1.40532267093658,21.2049617767334,34.0826110839844,17.758882522583,3.86130976676941,2012-01-16 08:58:57
1.0239999294281,34,2.31465768814087,0.987231016159058,1.2094554901123,2.52059745788574,49.8337669372559,112.013809204102,105.309158325195,24.3964557647705,-9.27276420593262,0.238973468542099,0.299111634492874,0.642912864685059,1.91294157505035,4.79609537124634,4.30894660949707,0.384855300188065,0.464373707771301,0.444556802511215,0.538709223270416,1.20275676250458,4.59339046478271,9.32340240478516,12.7378873825073,2.71780800819397,2012-01-16 08:58:58
1.01900005340576,39,2.38804483413696,0.479152530431747,0.66719925403595,1.34828865528107,22.3932209014893,47.6899604797363,29.1388339996338,12.7901668548584,-9.56475257873535,0.328732341527939,0.415505468845367,1.01662290096283,7.58294773101807,19.4830589294434,11.3065052032471,1.24913024902344,1.19615983963013,0.553556680679321,0.755761563777924,1.76494550704956,4.97239637374878,22.7270431518555,38.7875175476074,5.52458810806274,2012-01-16 08:58:59
1.00600004196167,35,0.360324323177338,0.286130011081696,0.426743596792221,1.64023208618164,0.103125475347042,0.890733420848846,1.21789741516113,1.24553048610687,-9.88062000274658,0.360036164522171,0.510163128376007,1.75006675720215,1.13501513004303,1.20998227596283,0.351586073637009,1.34384608268738,0.186606526374817,0.348860561847687,0.410117566585541,0.8234783411026,5.38504695892334,11.0478591918945,6.19836664199829,1.98221349716187,2012-01-16 08:59:00
1.01399993896484,40,0.385891675949097,0.112825505435467,0.135504871606827,0.369220376014709,1.28619360923767,1.40343475341797,0.17595799267292,0.0860496759414673,-9.70686721801758,0.0446325205266476,0.0534389577805996,0.125770166516304,0.179202675819397,0.187507808208466,0.0464266836643219,0.0383931025862694,-0.00907115079462528,0.137354388833046,0.151025399565697,0.265515059232712,2.1367928981781,2.76767945289612,0.472374260425568,0.109493143856525,2012-01-16 08:59:01
1.01600003242493,37,0.145509481430054,0.13574580848217,0.164500266313553,0.272995918989182,0.38823327422142,1.88096594810486,3.15177416801453,0.654440462589264,-9.7401237487793,0.0303872302174568,0.0380929857492447,0.0861400365829468,0.000692990957759321,0.000888625392690301,0.0248801726847887,0.0355153270065784,0.166713044047356,0.0922355130314827,0.112969323992729,0.245166257023811,0.758201658725739,1.42867314815521,1.33720910549164,0.43459951877594,2012-01-16 08:59:02
1.06500005722046,24,0.665626347064972,0.091733030974865,0.128685027360916,0.266005396842957,0.132411897182465,0.229220688343048,0.189165577292442,0.121849708259106,-9.70980834960938,0.0346297100186348,0.038744792342186,0.0698722973465919,0.00914785079658031,0.0166283790022135,0.0187845602631569,0.00520541705191135,0.351813554763794,0.0609850995242596,0.0693037435412407,0.126260608434677,0.0345586203038692,0.0619519092142582,0.0649126619100571,0.0136820571497083,2012-01-16 08:59:03
1.01599979400635,56,1.96868491172791,0.527194976806641,0.633094072341919,1.08118319511414,107.124198913574,164.947189331055,41.7772560119629,2.61160635948181,-9.46341705322266,0.138693958520889,0.177489876747131,0.392266362905502,2.34529376029968,1.40284645557404,3.01791596412659,7.20252227783203,0.206640124320984,0.255097985267639,0.291624814271927,0.61711847782135,10.1120023727417,33.9046058654785,18.0158939361572,1.51849925518036,2012-01-16 08:59:04
1.03900003433228,38,1.90661919116974,0.177959457039833,0.281320631504059,0.916147589683533,0.56609034538269,0.954755187034607,0.424929857254028,0.752784788608551,-9.45490074157715,0.0790507197380066,0.10548097640276,0.275876998901367,0.12786839902401,0.172108471393585,0.490183234214783,0.191829219460487,0.552269220352173,0.0566395185887814,0.0817425474524498,0.267876386642456,0.18682011961937,0.202025026082993,0.0132068917155266,0.0414214767515659,2012-01-16 08:59:05
1.01400017738342,36,1.92046892642975,0.05157570540905,0.0640775933861732,0.125851958990097,0.0110855801030993,0.0209514703601599,0.0373368859291077,0.0885068997740746,-9.46477890014648,0.057326428592205,0.0811035111546516,0.226914584636688,0.0124736512079835,0.0458667427301407,0.0529876202344894,0.0478860810399055,0.684831023216248,0.0721878409385681,0.0904571563005447,0.207574114203453,0.353621423244476,0.546726703643799,0.134109079837799,0.091054692864418,2012-01-16 08:59:06
1.01599979400635,38,1.41112530231476,0.519507944583893,0.605354130268097,1.32286548614502,1.69020545482635,2.25769329071045,18.4125595092773,6.47465229034424,-9.57232284545898,0.167908266186714,0.19898696243763,0.518720030784607,0.133874103426933,0.35973247885704,1.04206621646881,0.173204511404037,1.04492437839508,0.496716320514679,0.607132136821747,0.985052287578583,3.17887163162231,12.3570556640625,39.7000961303711,13.7542657852173,2012-01-16 08:59:07
1.43600010871887,37,2.15534257888794,0.353741407394409,0.428634703159332,0.992592096328735,11.4993934631348,14.8985910415649,4.64775896072388,4.55332899093628,-9.36322975158691,0.188195928931236,0.223581120371819,0.580712854862213,1.55891120433807,2.23012804985046,0.837656199932098,0.331760048866272,0.0800434648990631,0.406334847211838,0.506752789020538,1.02810800075531,12.8830051422119,30.0897445678711,26.0690231323242,9.84821605682373,2012-01-16 08:59:09
1.01300001144409,38,1.41035103797913,0.59705114364624,0.719168663024902,1.47280406951904,35.0528869628906,39.7914161682129,19.3592662811279,8.76271343231201,-9.49593353271484,0.169130593538284,0.194488599896431,0.356136590242386,2.26912236213684,3.77336931228638,1.27800559997559,0.64980137348175,0.609818756580353,0.249322518706322,0.273115456104279,0.46891263127327,0.0515194907784462,3.00942134857178,4.19271421432495,1.58622336387634,2012-01-16 08:59:10
1.00699996948242,39,0.838091373443604,0.396173179149628,0.485561072826385,1.02517211437225,23.4323787689209,35.9400405883789,15.1106004714966,7.43794059753418,-9.67363166809082,0.169840171933174,0.198976412415504,0.396540373563766,2.22973775863647,3.96998262405396,2.82085490226746,1.05776274204254,0.356811165809631,0.324721962213516,0.358711689710617,0.64346706867218,9.98551750183105,14.230393409729,3.36414504051208,0.296427130699158,2012-01-16 08:59:11
1.03900003433228,36,1.90575897693634,0.190866470336914,0.286200016736984,0.709347665309906,0.534990608692169,3.26700139045715,9.83907413482666,5.25315713882446,-9.53042888641357,0.122946232557297,0.1626166254282,0.557344675064087,0.000926524167880416,0.395820736885071,1.48417913913727,1.86595499515533,0.221739247441292,0.117467924952507,0.158940985798836,0.582406044006348,0.0254716780036688,0.0575641505420208,0.422732055187225,2.26699495315552,2012-01-16 08:59:12
1.00699996948242,38,1.27125144004822,0.784912288188934,0.992415249347687,2.08262276649475,14.7913789749146,26.4602928161621,26.3596019744873,3.41786694526672,-9.64458179473877,0.261166483163834,0.313625067472458,0.710724055767059,2.21519494056702,2.74909591674805,1.02230787277222,4.32458209991455,0.441815376281738,0.296291202306747,0.377651154994965,1.13808751106262,0.421522319316864,3.68667507171631,12.9494733810425,5.22963428497314,2012-01-16 08:59:13
1.00200009346008,38,0.920534729957581,0.602905213832855,0.711375057697296,1.54093444347382,1.86759388446808,3.04187870025635,2.3751437664032,27.3685512542725,-9.19708919525146,0.580222249031067,0.689127683639526,1.44983565807343,10.9282217025757,18.6506462097168,14.7433242797852,6.0956768989563,-0.440266966819763,1.26435148715973,1.45970356464386,3.10767555236816,171.662872314453,334.843963623047,186.643524169922,35.1618499755859,2012-01-16 08:59:14
1.00799989700317,39,2.28997850418091,1.17488956451416,1.55931794643402,4.03556203842163,34.8950233459473,74.2557830810547,40.6472930908203,50.4435501098633,-10.0384893417358,1.67181134223938,2.1703770160675,6.48571538925171,85.0488739013672,118.068298339844,50.8547058105469,48.2054748535156,0.555961608886719,1.22631478309631,1.49897158145905,2.9487841129303,0.694602310657501,9.41241455078125,42.267951965332,35.4411239624023,2012-01-16 08:59:15
1.01900005340576,39,1.01159358024597,0.908904254436493,1.08425509929657,2.36491131782532,32.9198150634766,87.9690704345703,72.2301864624023,16.2132949829102,-9.36333847045898,0.708141982555389,0.940290868282318,2.30255126953125,29.3225116729736,76.6493988037109,64.6668319702148,33.3349189758301,-0.0110639091581106,1.05041408538818,1.24172794818878,3.20551729202271,134.501495361328,236.539520263672,74.4932708740234,34.0456466674805,2012-01-16 08:59:16
1.06599998474121,36,2.28794574737549,0.681834578514099,0.787420392036438,1.78780674934387,12.2127695083618,13.0065946578979,20.9808120727539,38.6408348083496,-8.46994876861572,0.980604410171509,1.3308447599411,3.6118438243866,38.7943077087402,94.2796401977539,111.445976257324,128.029571533203,-4.35987281799316,1.50100755691528,1.62835073471069,2.83003568649292,172.779876708984,291.440063476562,113.086708068848,11.1361398696899,2012-01-16 08:59:17
1.01399993896484,39,1.56830954551697,0.937995433807373,1.0870304107666,2.44261002540588,20.8064556121826,24.6310882568359,53.7259368896484,42.3320770263672,-9.87403869628906,0.264244467020035,0.365032374858856,1.21728205680847,0.00142604613211006,0.489169389009476,0.635994911193848,0.940829694271088,0.682945132255554,0.899323284626007,0.983405709266663,1.7616765499115,21.2003746032715,70.7736206054688,81.1121063232422,19.0392322540283,2012-01-16 08:59:18
1,38,1.87823152542114,0.901396811008453,1.00487184524536,1.85861825942993,0.0267609898000956,33.8021354675293,46.9582176208496,10.9117393493652,-8.93824481964111,0.521789789199829,0.616571187973022,1.30867183208466,2.43887186050415,9.60649967193604,14.1365642547607,5.28027963638306,1.79797184467316,1.18978297710419,1.49509191513062,3.42897272109985,87.8122406005859,147.20703125,78.3049774169922,13.8552446365356,2012-01-16 08:59:19
1.00200009346008,38,2.76134610176086,1.01951122283936,1.13788199424744,2.23023867607117,104.422645568848,163.60270690918,54.4248657226562,4.40482091903687,-9.30315589904785,0.502108633518219,0.579908609390259,0.915373086929321,18.6032371520996,32.7646484375,17.7146320343018,1.41395902633667,1.68855023384094,0.690621733665466,1.00518941879272,3.60704064369202,3.33967232704163,6.63536262512207,4.49694061279297,6.88078212738037,2012-01-16 08:59:20
1.00399994850159,38,2.22998046875,0.766209065914154,0.897764682769775,1.68287265300751,44.4578704833984,99.3739624023438,48.7415657043457,7.25657224655151,-9.40277099609375,0.191419720649719,0.235615894198418,0.547365784645081,1.42187142372131,2.50499105453491,2.75414657592773,1.72705984115601,-0.20490737259388,0.55724048614502,0.729666590690613,2.61734318733215,35.5734748840332,44.9752159118652,11.1837682723999,1.38805818557739,2012-01-16 08:59:21
1.03699994087219,34,1.45080733299255,0.109909132122993,0.137867540121078,0.304582983255386,0.517266571521759,1.113445520401,1.63297939300537,0.778201520442963,-9.58484649658203,0.0948088392615318,0.131505772471428,0.396015882492065,0.0264965910464525,0.0380272567272186,0.394547343254089,0.905360400676727,0.217188447713852,0.389517426490784,0.511806845664978,1.12632250785828,12.9267702102661,20.360408782959,12.4031620025635,3.49470376968384,2012-01-16 08:59:22
1.02100014686584,39,1.64500260353088,0.377127259969711,0.490471869707108,1.40964305400848,3.68145942687988,16.3623123168945,21.0130825042725,24.4823474884033,-9.63792514801025,0.331865847110748,0.388864070177078,0.87480354309082,1.95198178291321,2.13645362854004,1.0640264749527,7.29901361465454,-0.248686581850052,0.719309031963348,0.950456619262695,2.06291675567627,61.0489311218262,133.302856445312,99.1174926757812,45.5184326171875,2012-01-16 08:59:23
1.00499987602234,39,1.26028025150299,1.23523807525635,1.52181482315063,3.29000520706177,121.13452911377,174.370697021484,54.8401374816895,23.105110168457,-9.50440406799316,0.318042308092117,0.37345826625824,0.786291837692261,1.0090526342392,1.26609742641449,1.68881571292877,5.66569089889526,1.07269656658173,1.02368271350861,1.06973457336426,1.54341578483582,4.073410987854,80.0166091918945,102.81974029541,6.37396001815796,2012-01-16 08:59:24
1.10500001907349,39,1.47728371620178,0.279241293668747,0.342571049928665,0.778245627880096,0.986518085002899,1.74924647808075,4.83078289031982,1.39957475662231,-9.75987911224365,0.494433164596558,0.8391934633255,3.13586473464966,9.33325576782227,8.96901416778564,2.75442695617676,1.20471477508545,1.03321862220764,0.508449971675873,0.6949782371521,1.55297100543976,0.105028212070465,3.8250732421875,11.153995513916,4.02045583724976,2012-01-16 08:59:25
1.01699995994568,39,2.22359490394592,0.462608247995377,0.51146537065506,0.845886409282684,5.18800687789917,17.1062755584717,23.1654605865479,5.61849784851074,-9.44832992553711,0.343716263771057,0.472417891025543,1.3095645904541,0.657608687877655,1.74594223499298,1.77974510192871,0.971764504909515,1.38424634933472,0.73814868927002,0.833148121833801,1.67844581604004,20.8994884490967,39.4954261779785,23.2350234985352,17.2025547027588,2012-01-16 08:59:26
1.00300002098083,34,1.81423020362854,0.614357769489288,0.699825823307037,1.26505780220032,13.5268964767456,17.1240272521973,3.53629970550537,10.4443950653076,-9.41726779937744,0.439738303422928,0.64275062084198,1.87999224662781,1.01558136940002,9.23123264312744,30.2066669464111,29.6235122680664,0.889520823955536,0.503769993782043,0.662996113300323,1.27198016643524,5.9306526184082,21.7167205810547,42.27099609375,10.2682161331177,2012-01-16 08:59:27
1.01699995994568,40,1.58328366279602,0.575331628322601,0.75136137008667,1.86865711212158,16.1963901519775,26.0984058380127,14.1163988113403,2.45257019996643,-9.4835205078125,0.369171261787415,0.528085827827454,1.45187485218048,0.000295107020065188,1.42908835411072,5.12862634658813,6.86354494094849,1.08412516117096,0.502958536148071,0.644539952278137,1.7499965429306,5.43496656417847,15.6616315841675,10.9682722091675,1.69471764564514,2012-01-16 08:59:28
1.00100016593933,36,1.15691220760345,0.512927114963531,0.563147485256195,1.13784372806549,9.94409084320068,16.3658027648926,7.0412130355835,1.37744832038879,-9.50482273101807,0.182996764779091,0.238741517066956,0.635252773761749,0.169761374592781,0.471022099256516,1.24058127403259,0.595436573028564,-0.557344615459442,0.536732494831085,0.695018291473389,1.44974970817566,6.66978597640991,10.3033761978149,3.50847601890564,0.982830762863159,2012-01-16 08:59:29
1.11699986457825,38,1.96803975105286,1.10233807563782,1.18764734268188,1.68364691734314,74.9410095214844,162.722778320312,111.660087585449,7.56815195083618,-9.45670700073242,0.409108400344849,0.498395949602127,1.08544135093689,6.61905860900879,11.0935440063477,4.75455188751221,4.85217046737671,0.879501640796661,1.20412623882294,1.26762807369232,1.86997330188751,102.336204528809,138.908905029297,22.9002895355225,4.05429601669312,2012-01-16 08:59:30
1.00300002098083,36,2.74177575111389,0.904027819633484,1.11080813407898,2.66332268714905,35.5206108093262,89.5670547485352,130.460159301758,22.7174243927002,-9.37679195404053,0.427224904298782,0.592265844345093,1.89104878902435,7.19472026824951,16.9992961883545,24.2299766540527,16.4069976806641,1.72923922538757,0.5041344165802,0.681293606758118,2.06266522407532,5.20458030700684,7.22745895385742,5.26507663726807,3.93180537223816,2012-01-16 08:59:31
1,39,1.63117277622223,1.12701034545898,1.30001759529114,2.68375301361084,117.48445892334,197.241516113281,71.9499130249023,25.9710330963135,-9.3595666885376,0.456740975379944,0.519236028194427,0.898188173770905,1.84516894817352,4.83687543869019,4.91336154937744,9.59919357299805,0.96934962272644,0.423562169075012,0.495149493217468,1.03799617290497,6.39583683013916,14.7994594573975,6.75043153762817,1.86683022975922,2012-01-16 08:59:32
1.01200008392334,39,1.77349483966827,0.605961978435516,0.701624274253845,1.59999263286591,13.8248739242554,31.1205368041992,28.9100780487061,16.6707057952881,-9.32159805297852,0.327236503362656,0.395389437675476,0.85770446062088,0.171764999628067,0.672602951526642,0.601116597652435,0.487049043178558,1.27637314796448,0.468320727348328,0.592173516750336,1.48231279850006,6.88583993911743,8.2778377532959,12.7217626571655,33.5803871154785,2012-01-16 08:59:33
1.08899998664856,38,2.09862303733826,1.3368011713028,1.5617516040802,3.16754794120789,28.2282295227051,122.385314941406,165.390213012695,7.98788976669312,-9.39967346191406,0.709691822528839,0.829623401165009,1.66222727298737,23.6497898101807,58.4474105834961,31.2981204986572,16.3342838287354,1.57628989219666,0.760191917419434,0.895179152488708,1.72338962554932,0.75301718711853,4.25378894805908,30.0406951904297,6.50189590454102,2012-01-16 08:59:34
1.01099991798401,38,1.14066815376282,1.14395523071289,1.33685648441315,2.41914582252502,125.705078125,236.502548217773,110.849983215332,11.8242311477661,-9.32483386993408,0.321405500173569,0.477658361196518,1.7664874792099,0.513750374317169,0.254668444395065,5.2892107963562,7.10389089584351,1.56106376647949,0.294552624225616,0.387480944395065,1.18841111660004,0.769073069095612,2.78936076164246,1.71904540061951,1.05758452415466,2012-01-16 08:59:35
1.00099992752075,38,0.108131214976311,0.347117364406586,0.444735318422318,0.91227650642395,1.51927065849304,3.34260201454163,2.14408659934998,0.579448997974396,-9.61283874511719,0.0715124011039734,0.0966480001807213,0.213424205780029,0.0128101594746113,0.119363695383072,0.195342659950256,0.0448241718113422,1.32699453830719,0.136559620499611,0.150435835123062,0.271489351987839,0.754870653152466,1.22860288619995,0.317745178937912,0.198910519480705,2012-01-16 08:59:36
1.01700019836426,40,0.107873149216175,0.0362846069037914,0.0431938134133816,0.0980665013194084,0.00178725412115455,0.0793053060770035,0.215296939015388,0.0852717459201813,-9.60978126525879,0.0401091277599335,0.0502625815570354,0.108608461916447,0.000198022302356549,0.0192141588777304,0.112556137144566,0.060280192643404,1.31727826595306,0.0355368331074715,0.0446922555565834,0.0948792994022369,0.00745485257357359,0.0441079214215279,0.115567237138748,0.010528658516705,2012-01-16 08:59:37
1.12199997901917,36,-0.677476048469543,0.570556342601776,0.610373139381409,0.834382474422455,21.4040012359619,29.6759777069092,5.33139085769653,0.947537541389465,-9.64102649688721,0.0831144452095032,0.0956052392721176,0.234270364046097,9.1283225629013e-05,0.163443252444267,0.341645449399948,0.358383595943451,1.21084880828857,0.199765086174011,0.246128529310226,0.543996691703796,0.432571291923523,3.1041955947876,5.19428396224976,0.472005784511566,2012-01-16 08:59:38
1.01799988746643,40,-1.20082426071167,0.147810727357864,0.187188237905502,0.386872351169586,0.146066844463348,0.510449230670929,1.00157010555267,0.244885325431824,-9.64925289154053,0.110937662422657,0.150044113397598,0.372161895036697,0.567723393440247,1.22727108001709,1.28972005844116,0.216156333684921,0.769331693649292,0.191352263092995,0.242215812206268,0.593792676925659,2.53312468528748,2.88023161888123,0.833628833293915,0.691702127456665,2012-01-16 08:59:39
1.0090000629425,39,-1.06188416481018,0.0957969799637794,0.115798756480217,0.252206951379776,0.494531512260437,1.41842973232269,1.38693130016327,0.200462624430656,-9.6316385269165,0.0526888929307461,0.066679872572422,0.22706127166748,0.122684977948666,0.27140200138092,0.295854419469833,0.0439994856715202,0.879078149795532,0.191258683800697,0.212863773107529,0.425206303596497,4.03431510925293,7.39393997192383,3.80675864219666,0.206429690122604,2012-01-16 08:59:40
1.01200008392334,38,-0.470977246761322,0.568391799926758,0.745167791843414,2.12830114364624,28.7105388641357,61.9928512573242,70.4639282226562,22.7743587493896,-9.47348213195801,0.191718623042107,0.238759756088257,0.490590631961823,2.33544182777405,5.66613054275513,6.72535848617554,1.45316648483276,1.51280474662781,0.149137124419212,0.186090990900993,0.42426660656929,1.42511081695557,1.48379695415497,0.175598621368408,0.410848528146744,2012-01-16 08:59:41
1.117999792099,38,1.70532476902008,0.351653963327408,0.411287695169449,0.891372859477997,9.73353576660156,15.661262512207,5.48758268356323,7.18812656402588,-9.4161901473999,0.362547129392624,0.493352115154266,1.75358378887177,0.0594500452280045,2.84049391746521,7.32442474365234,9.11630630493164,1.59332251548767,0.381698697805405,0.414914160966873,0.808790564537048,6.75013065338135,18.24587059021,13.5275249481201,1.28495693206787,2012-01-16 08:59:43
1,39,2.3256847858429,0.559114456176758,0.664178967475891,1.27637314796448,17.2667236328125,26.7701568603516,10.0468683242798,2.03752589225769,-9.20316314697266,0.282516658306122,0.317917972803116,0.651765286922455,1.96184861660004,6.96293163299561,11.7868528366089,1.23608696460724,1.61533117294312,0.279653936624527,0.33185413479805,0.620584905147552,4.08407068252563,13.4179391860962,9.44739627838135,0.556632816791534,2012-01-16 08:59:44
1.01200008392334,40,1.78113281726837,1.03686928749084,1.21610701084137,2.11455893516541,167.010223388672,269.469177246094,111.972633361816,27.8683109283447,-9.55780601501465,0.187490746378899,0.246122241020203,0.719562530517578,0.0739212036132812,0.74112743139267,3.68175053596497,1.09230279922485,1.66418850421906,0.420214951038361,0.575071156024933,1.46805548667908,25.666618347168,45.7273139953613,44.9582328796387,12.1825275421143,2012-01-16 08:59:45
1.01099991798401,34,-0.467834889888763,0.100679345428944,0.122520335018635,0.248050585389137,0.146956846117973,0.313684791326523,0.444252490997314,0.143292635679245,-9.70079517364502,0.0468954928219318,0.0638997778296471,0.164694592356682,0.00038616667734459,0.0153796011582017,0.0356729589402676,0.00531322695314884,-0.400630474090576,0.200629130005836,0.230405732989311,0.547730207443237,1.81085443496704,2.41478657722473,0.416517734527588,0.129625022411346,2012-01-16 08:59:46
1.07100009918213,37,-0.436263382434845,0.0899718925356865,0.114014156162739,0.240395426750183,0.475436598062515,0.893401026725769,0.487542390823364,0.08457400649786,-9.70381164550781,0.019240802153945,0.0266498513519764,0.0638756603002548,0.000436258822446689,0.000684473081491888,0.00561402412131429,0.0068289851769805,-0.348003536462784,0.237322360277176,0.251789003610611,0.455876678228378,4.51372337341309,6.24026727676392,1.29402554035187,0.62109786272049,2012-01-16 08:59:47
1.0090000629425,43,-0.362161844968796,0.157054901123047,0.185495018959045,0.342548549175262,3.05340003967285,4.50632047653198,1.02958226203918,1.90092396736145,-9.74233627319336,0.0512557253241539,0.0696430802345276,0.162380322813988,0.166939795017242,0.208044216036797,0.0261638145893812,0.00685706501826644,0.196133002638817,0.0939613878726959,0.112212345004082,0.254972904920578,0.140209779143333,0.0874601677060127,1.44951152801514,0.480954974889755,2012-01-16 08:59:48
1,35,-0.281030565500259,0.129559844732285,0.156730175018311,0.369290411472321,1.15711867809296,1.8516993522644,1.49155843257904,0.315888851881027,-9.73099803924561,0.0300205908715725,0.0394065640866756,0.0812551751732826,0.00165369606111199,0.00479480903595686,0.0204283930361271,0.0768779665231705,0.196413189172745,0.0367289073765278,0.0481274761259556,0.117399603128433,5.84111803618725e-05,0.00352233508601785,0.0355291739106178,0.0414191298186779,2012-01-16 08:59:49
1.09299993515015,37,-0.203289195895195,0.111247092485428,0.143144205212593,0.311162352561951,0.758583247661591,1.17670559883118,0.767388343811035,0.186244115233421,-9.70937824249268,0.0347423776984215,0.0413164496421814,0.0792483016848564,0.0199381783604622,0.0435422398149967,0.0949671193957329,0.0384058728814125,0.0797784179449081,0.0852870494127274,0.109988711774349,0.246491461992264,0.723717570304871,1.2806179523468,1.1800799369812,0.265674531459808,2012-01-16 08:59:50
1.00300002098083,39,0.371395438909531,0.528759598731995,0.64342987537384,1.42322146892548,30.1821994781494,63.6108512878418,55.1810836791992,10.459041595459,-9.69249057769775,0.0839336812496185,0.114482581615448,0.248686373233795,0.0639961659908295,0.259997069835663,1.05425930023193,1.07994198799133,0.386734038591385,0.429493874311447,0.479628473520279,0.839097261428833,22.5569667816162,38.3598556518555,17.2801094055176,1.50141763687134,2012-01-16 08:59:51
1.01200008392334,39,2.18185377120972,0.695427536964417,0.842962086200714,1.80920112133026,4.14723443984985,23.9692134857178,48.7344970703125,3.09316396713257,-9.2874002456665,0.315811574459076,0.374250322580338,0.883101403713226,2.28608298301697,6.06646347045898,5.18578100204468,1.0973105430603,1.08904099464417,0.377746224403381,0.444342225790024,0.824261486530304,7.28512620925903,16.5975208282471,15.4172506332397,1.63011336326599,2012-01-16 08:59:52
1.0019998550415,38,2.34972500801086,0.287978649139404,0.399987190961838,1.0237625837326,6.30060005187988,12.7298860549927,13.1306953430176,10.3014640808105,-9.49851417541504,0.327748596668243,0.388282090425491,0.858856499195099,0.93376237154007,0.788990497589111,4.81380939483643,4.94566202163696,0.386846512556076,0.52930098772049,0.599906861782074,0.976277828216553,17.5109024047852,36.9266090393066,19.4737339019775,0.720154702663422,2012-01-16 08:59:53
1.01100015640259,38,1.40880262851715,0.573159277439117,0.635723829269409,1.35667264461517,10.0491456985474,32.9823799133301,29.6413974761963,6.78198480606079,-9.62058162689209,0.225335612893105,0.259561806917191,0.529300808906555,0.0262625366449356,2.21414518356323,6.70468091964722,1.73890006542206,0.803371071815491,0.2374377399683,0.276820302009583,0.55975329875946,0.0335950739681721,2.46956014633179,3.95323491096497,0.505169928073883,2012-01-16 08:59:54
1.0699999332428,37,1.28573131561279,0.169055461883545,0.244978338479996,0.754051923751831,0.475722759962082,0.42469784617424,0.886951267719269,0.414545714855194,-9.5930233001709,0.0518913418054581,0.076850913465023,0.227672904729843,0.0169364269822836,0.0403659641742706,0.0641270577907562,0.0445756912231445,0.394916445016861,0.0724502950906754,0.10243896394968,0.301355689764023,0.575144469738007,0.739904880523682,0.229017198085785,0.078143447637558,2012-01-16 08:59:55
1.01999998092651,38,2.18868947029114,0.772457003593445,0.898599565029144,1.80261719226837,39.942741394043,75.0914154052734,61.3989181518555,12.3902730941772,-9.37980270385742,0.225851699709892,0.297958225011826,0.789177656173706,1.4378103017807,3.02322149276733,5.11456298828125,1.85144829750061,0.592270016670227,0.408714532852173,0.44814258813858,0.839500904083252,6.10815286636353,13.2554454803467,16.0152740478516,2.3553581237793,2012-01-16 08:59:56
1.0090000629425,39,1.59345483779907,0.737129926681519,0.88041615486145,1.85823440551758,64.8729858398438,84.8639831542969,15.8428401947021,17.0795230865479,-9.60599040985107,0.297062188386917,0.401209115982056,1.07420551776886,0.0990680828690529,3.65130829811096,17.4279136657715,16.2834701538086,0.920064926147461,0.423097938299179,0.479860156774521,0.871031641960144,2.81398463249207,13.3445386886597,19.1942596435547,12.5712690353394,2012-01-16 08:59:57
1.01099991798401,38,2.01991176605225,0.806467890739441,0.88638824224472,1.39280223846436,66.4740219116211,102.966018676758,25.1588401794434,6.25069379806519,-9.4786434173584,0.317058980464935,0.395892441272736,0.798725485801697,2.47253322601318,2.62109398841858,2.21148252487183,2.0445032119751,1.3035101890564,0.355158299207687,0.429389983415604,1.02066588401794,10.6649341583252,13.5505895614624,2.56751656532288,2.04206132888794,2012-01-16 08:59:58
1.10400009155273,38,1.09937703609467,0.363470852375031,0.640374541282654,3.1665153503418,3.14314579963684,11.7060098648071,40.2147102355957,17.829216003418,-9.59916114807129,0.147697299718857,0.262432426214218,1.05756998062134,0.0273989234119654,0.139363273978233,1.06158864498138,1.82769632339478,0.900921404361725,0.38106033205986,0.475395888090134,1.06763446331024,9.45650100708008,25.8919143676758,28.2686157226562,7.02223300933838,2012-01-16 08:59:59
