"diffSecs","level","azimuth.mean","azimuth.absolute.deviation","azimuth.standard.deviation","azimuth.max.deviation","pitch.mean","pitch.absolute.deviation","pitch.standard.deviation","pitch.max.deviation","roll.mean","roll.absolute.deviation","roll.standard.deviation","roll.max.deviation","time"
1.01800012588501,16,4.71250009536743,0.3515625,0.396665781736374,0.712500095367432,15.8874998092651,0.184375211596489,0.208791449666023,0.41250091791153,-43.9750022888184,0.15937539935112,0.195256769657135,0.475001096725464,2012-02-02 21:36:13
1.00799989700317,41,2.97804880142212,0.444735288619995,0.577848076820374,1.42195129394531,15.5878047943115,0.108149841427803,0.131027922034264,0.287804812192917,-44.0341453552246,0.153599396348,0.184271454811096,0.434144824743271,2012-02-02 21:36:14
1.00099992752075,46,3.23260879516602,0.232703194022179,0.297857820987701,0.732608735561371,15.7086954116821,0.256521791219711,0.339325457811356,0.908695638179779,-43.8869590759277,0.133270889520645,0.175212919712067,0.51304417848587,2012-02-02 21:36:15
