"diffSecs","N.samples","x.mean","x.absolute.deviation","x.standard.deviation","x.max.deviation","x.PSD.1","x.PSD.3","x.PSD.6","x.PSD.10","y.mean","y.absolute.deviation","y.standard.deviation","y.max.deviation","y.PSD.1","y.PSD.3","y.PSD.6","y.PSD.10","z.mean","z.absolute.deviation","z.standard.deviation","z.max.deviation","z.PSD.1","z.PSD.3","z.PSD.6","z.PSD.10","time"
0,43,-0.207308009266853,0.281915992498398,0.37295013666153,0.825126945972443,1.84559154510498,4.89020872116089,3.40712642669678,0.145457401871681,1.34784412384033,0.177453145384789,0.221912279725075,0.504472315311432,0.649034559726715,4.88911581039429,9.81835556030273,0.812738299369812,9.48987197875977,0.135945811867714,0.184214130043983,0.601170301437378,0.0859477445483208,0.094721145927906,0.843680858612061,0.212120279669762,2011-12-30 21:00:02
1.01210331916809,49,-0.021214384585619,0.0396595448255539,0.0549181997776031,0.155305311083794,0.297345995903015,0.505675196647644,0.0945858359336853,0.261513024568558,0.805145978927612,0.0278311166912317,0.0355656407773495,0.0794538632035255,0.0375300757586956,0.187625005841255,0.0662589743733406,0.0864684358239174,9.56888866424561,0.0421836338937283,0.0548889264464378,0.134891241788864,0.0521718561649323,0.0589124448597431,0.0138309597969055,0.209378391504288,2011-12-30 21:00:03
1.00590002536774,50,0.111599676311016,0.0424667149782181,0.0507635995745659,0.113953270018101,0.0132755739614367,0.125150442123413,0.0885412320494652,0.16790746152401,0.86612331867218,0.0297965258359909,0.0354908592998981,0.0913979858160019,0.0174180883914232,0.0853081122040749,0.0214945152401924,0.0468701049685478,9.5508918762207,0.0650219023227692,0.0753476247191429,0.157690659165382,0.485495328903198,1.1752872467041,0.420584321022034,0.14520962536335,2011-12-30 21:00:04
1.00149500370026,40,-0.0566334016621113,0.0507494136691093,0.0612223856151104,0.203733146190643,0.35684272646904,0.503315448760986,0.125211969017982,0.0148210469633341,0.866417527198792,0.0382459349930286,0.0459737405180931,0.114247463643551,0.090500682592392,0.143120720982552,0.090898722410202,0.0525233447551727,9.56736755371094,0.103950381278992,0.123244181275368,0.241243243217468,0.0916883498430252,0.241647928953171,0.164374321699142,0.2596375644207,2011-12-30 21:00:05
1.12514495849609,49,-0.138694047927856,0.07010468095541,0.0889134258031845,0.243765294551849,0.961780428886414,1.82896065711975,0.680665254592896,0.25877657532692,1.06732368469238,0.0587990581989288,0.0770228728652,0.214145243167877,0.514602243900299,0.510139644145966,0.0195127576589584,0.0263320300728083,9.45621204376221,0.128527879714966,0.175547197461128,0.48312771320343,0.830914914608002,2.84060072898865,1.76651704311371,2.25378561019897,2011-12-30 21:00:06
1.00978994369507,46,-0.245592623949051,0.0907624885439873,0.102750442922115,0.18675272166729,1.57893753051758,2.61015701293945,0.77411425113678,0.0877873152494431,1.02969825267792,0.0383738540112972,0.0527311936020851,0.156906396150589,0.00016005385259632,0.0446702316403389,0.0816639214754105,0.166508033871651,9.53014469146729,0.0981126949191093,0.121570311486721,0.325538516044617,0.00704328762367368,0.0670075416564941,0.106726929545403,0.872951507568359,2011-12-30 21:00:07
1.0003833770752,33,-0.230010509490967,0.105955041944981,0.132543012499809,0.318270355463028,0.0275139771401882,0.272703438997269,0.862153947353363,0.626268565654755,1.09210419654846,0.0633785277605057,0.0998282954096794,0.388699918985367,0.0128987729549408,0.0939898192882538,0.308303534984589,0.46050614118576,9.52730846405029,0.121083602309227,0.150480628013611,0.367601037025452,0.0691809132695198,0.202620431780815,0.67097270488739,0.833657741546631,2011-12-30 21:00:08
1.00979161262512,43,-0.38679251074791,0.143551528453827,0.170792430639267,0.524085640907288,3.53659415245056,5.03835773468018,1.22651648521423,0.604250133037567,1.42219233512878,0.0696171373128891,0.0932858437299728,0.293971449136734,0.352884411811829,0.50387442111969,0.0641295984387398,0.0495533533394337,9.43833065032959,0.114104934036732,0.143135786056519,0.368319869041443,0.0718473792076111,0.429754853248596,0.909867644309998,0.519180655479431,2011-12-30 21:00:09
1.01535499095917,33,-0.482903212308884,0.102443017065525,0.117457456886768,0.242788881063461,0.305726796388626,0.473652392625809,0.171385154128075,0.0686016827821732,1.40175652503967,0.0682593211531639,0.0867088288068771,0.186920717358589,0.101604923605919,0.208847090601921,0.131093129515648,0.118828676640987,9.45955371856689,0.111087895929813,0.142867296934128,0.319756597280502,0.0141928931698203,0.0082121416926384,0.194750249385834,0.0902435630559921,2011-12-30 21:00:10
1.0201016664505,37,-0.553148031234741,0.0943128913640976,0.119247682392597,0.27061054110527,0.919346272945404,1.53940641880035,0.880241692066193,0.425358772277832,1.39095401763916,0.0853873416781425,0.0980536118149757,0.187916651368141,0.623808026313782,0.958019614219666,0.261612892150879,0.101049795746803,9.39715576171875,0.0949431508779526,0.112609870731831,0.262393742799759,0.000389130756957456,0.0423580035567284,0.0542285852134228,0.190363302826881,2011-12-30 21:00:11
1.01544499397278,41,-1.07657885551453,0.193764463067055,0.217106595635414,0.390113294124603,4.88652753829956,6.56780576705933,1.13793349266052,0.0482867248356342,1.35953652858734,0.0645570456981659,0.0788931474089622,0.238947406411171,0.169847100973129,0.191501125693321,0.0232318043708801,0.121831923723221,9.40338134765625,0.0577313750982285,0.0728148072957993,0.194936722517014,0.0016330397920683,0.0328250490128994,0.0842715948820114,0.0312522947788239,2011-12-30 21:00:12
1.01646661758423,46,-0.986421048641205,0.0936636999249458,0.106832735240459,0.182275772094727,1.82036447525024,2.40012955665588,0.269941180944443,0.33428230881691,1.40000581741333,0.067154236137867,0.0806394889950752,0.276931256055832,0.906528949737549,1.30013871192932,0.149581909179688,0.283748805522919,9.44764137268066,0.0857014879584312,0.110694400966167,0.288230657577515,0.00576170766726136,0.150737345218658,0.495213121175766,0.156469628214836,2011-12-30 21:00:13
1.544318318367,25,-0.768449068069458,0.0566745884716511,0.0701640918850899,0.180050075054169,0.00645173201337457,0.0101031344383955,0.00549448793753982,0.00117936043534428,1.65850055217743,0.0306281298398972,0.0469344258308411,0.185149505734444,0.000111782770545688,0.00270937196910381,0.012358296662569,0.00913268327713013,9.4206600189209,0.0655867606401443,0.0862930193543434,0.219276309013367,0.0252172108739614,0.0425876639783382,0.0403588153421879,0.0625684931874275,2011-12-30 21:00:14
1.02127003669739,36,-0.245983466506004,0.186053931713104,0.204617142677307,0.32280221581459,2.92050743103027,4.18560314178467,1.24797260761261,0.510719060897827,1.98857069015503,0.12706270813942,0.135847792029381,0.21792559325695,1.20191037654877,1.90898931026459,0.669874787330627,0.123069241642952,9.36017513275146,0.0874728634953499,0.104973562061787,0.201308488845825,0.0896061286330223,0.293096780776978,0.388710290193558,0.0616767145693302,2011-12-30 21:00:15
1.00126671791077,27,0.0799060314893723,0.0459257923066616,0.0586400181055069,0.116226956248283,0.0133919985964894,0.0246103089302778,0.0235525704920292,0.00532312877476215,1.89268338680267,0.0573870502412319,0.0657037273049355,0.117679841816425,0.0321309342980385,0.0574786998331547,0.0704153552651405,0.0507954992353916,9.31304836273193,0.0617455467581749,0.0807354897260666,0.222284570336342,0.00805335957556963,0.0223849806934595,0.0753369256854057,0.0670281127095222,2011-12-30 21:00:16
1.19030332565308,31,0.0357468202710152,0.0259197615087032,0.028677549213171,0.052513025701046,0.0114701986312866,0.0188664887100458,0.00910445675253868,0.0035925367847085,1.8518750667572,0.0564724318683147,0.0671200230717659,0.116098061203957,0.0432422161102295,0.0536121092736721,0.0371142774820328,0.146522611379623,9.37800407409668,0.0954948514699936,0.116838283836842,0.238207146525383,0.0512904040515423,0.0762821361422539,0.0335344448685646,0.0180250927805901,2011-12-30 21:00:17
1.08276498317719,6,-0.277855068445206,0.322529822587967,0.452548533678055,0.967589437961578,0.000213470164453611,0.000841691333334893,0.00390633102506399,0.00860951282083988,1.58377397060394,0.183057487010956,0.255020052194595,0.524655759334564,0.0001184485226986,0.000551277829799801,0.0026628531049937,0.00586871756240726,9.14306640625,0.0828116238117218,0.126687690615654,0.248434856534004,7.81455310061574e-06,2.49346012424212e-05,0.000113078276626766,0.000280131673207507,2011-12-30 21:00:19
1.03042161464691,11,-3.31286454200745,0.850990295410156,0.927270174026489,1.29269480705261,0.0717416182160378,0.188919112086296,0.588056206703186,0.577826678752899,-0.730149626731873,0.719046235084534,0.734033584594727,0.936980843544006,0.037961583584547,0.100152984261513,0.330146223306656,0.399829357862473,9.13890647888184,0.651777565479279,0.755574584007263,1.34440279006958,0.000836666440591216,0.00183354283217341,0.047176793217659,0.239630877971649,2011-12-30 21:00:20
