"diffSecs","latitude","longitude","altitude","time"
266.958999872208,42.8548755166667,-71.4912826166667,68.1,2011-12-02 14:28:25
66.2640001773834,42.8548558833333,-71.4912678333333,63.6,2011-12-02 14:29:32
65.9969999790192,42.85486055,-71.49126,57.1,2011-12-02 14:30:38
66.0720000267029,42.8548615833333,-71.4912281,59.1,2011-12-02 14:31:44
65.9329998493195,42.8548522166667,-71.4912309333333,59.9,2011-12-02 14:32:50
66.9750001430511,42.8548475833333,-71.4912125166667,52.7,2011-12-02 14:33:57
66.0659999847412,42.8548518,-71.4912145833333,50.8,2011-12-02 14:35:03
65.9609999656677,42.8548518833333,-71.49120655,51.4,2011-12-02 14:36:09
65.9949998855591,42.8548546333333,-71.4912065,50.9,2011-12-02 14:37:15
66.0500001907349,42.8548571666667,-71.4912038,49.8,2011-12-02 14:38:21
64.9559998512268,42.8548533166667,-71.4912012333333,49.2,2011-12-02 14:39:26
64.9769999980927,42.8548567833333,-71.4912034833333,48.7,2011-12-02 14:40:31
65.0450000762939,42.8550717666667,-71.4910469833333,45.2,2011-12-02 14:41:36
64.9769999980927,42.8545541,-71.4917414,42.3,2011-12-02 14:42:41
64.0439999103546,42.8510592,-71.4946457,56.8,2011-12-02 14:43:45
100.015000104904,42.8510496333333,-71.4946500333333,69,2011-12-02 14:45:25
63.0060000419617,42.8510033666667,-71.4946506,66.6,2011-12-02 14:46:28
64.9370000362396,42.8527686666667,-71.49355715,28.3,2011-12-02 14:47:33
65.0549998283386,42.8549988333333,-71.4911519666667,53,2011-12-02 14:48:38
65.9820001125336,42.8549566666667,-71.4909003166667,54,2011-12-02 14:49:44
69.039999961853,42.85495975,-71.4909125333333,53,2011-12-02 14:50:53
67.9849998950958,42.8549628166667,-71.49092015,52.6,2011-12-02 14:52:01
72.978000164032,42.85496425,-71.4909251833333,52.1,2011-12-02 14:53:14
63.9859998226166,42.8549522833333,-71.4909297333333,52.8,2011-12-02 14:54:18
64.0590000152588,42.8549233166667,-71.4909623166667,52.8,2011-12-02 14:55:22
66.0220000743866,42.8549198333333,-71.4909806166667,53.7,2011-12-02 14:56:28
65.9119999408722,42.8549092166667,-71.4909940666667,50.6,2011-12-02 14:57:34
67.0920000076294,42.8549027666667,-71.491006,46.2,2011-12-02 14:58:41
65.9500000476837,42.8548997666667,-71.4910164,44.3,2011-12-02 14:59:47
