"diffSecs","level","azimuth.mean","azimuth.absolute.deviation","azimuth.standard.deviation","azimuth.max.deviation","pitch.mean","pitch.absolute.deviation","pitch.standard.deviation","pitch.max.deviation","roll.mean","roll.absolute.deviation","roll.standard.deviation","roll.max.deviation","time"
1.94700002670288,32,-113.721878051758,0.289844036102295,0.330468028783798,0.578126907348633,64.90625,0.114061057567596,0.141281694173813,0.393751382827759,-63.9468765258789,0.168164357542992,0.216484233736992,0.653122663497925,2012-01-25 20:14:01
1.00499987602234,73,-113.290412902832,0.252392172813416,0.335221469402313,0.809585452079773,64.931510925293,0.175267249345779,0.214461833238602,0.531506597995758,-64.3739700317383,0.281178712844849,0.325209617614746,0.726024925708771,2012-01-25 20:14:02
1.04800009727478,36,-114.063888549805,0.206327363848686,0.225034281611443,0.363886505365372,64.9250030517578,0.11249877512455,0.134111136198044,0.275003015995026,-63.7416687011719,0.149536371231079,0.181620344519615,0.441668093204498,2012-01-25 20:14:04
1.01199984550476,43,-112.304649353027,0.610492169857025,0.731978356838226,1.69534695148468,65.5906982421875,0.276365906000137,0.32551509141922,0.790696263313293,-64.0790710449219,0.220443710684776,0.27581450343132,0.720932364463806,2012-01-25 20:14:05
1.00800013542175,40,-113.660003662109,0.274000942707062,0.359722048044205,0.959996998310089,64.8475036621094,0.127249330282211,0.165812328457832,0.45250129699707,-64.057502746582,0.109625339508057,0.130169078707695,0.257501602172852,2012-01-25 20:14:06
1.25600004196167,39,-113.982055664062,0.242208272218704,0.267822355031967,0.517946481704712,64.8000030517578,0.123076997697353,0.163299456238747,0.400002688169479,-64.0999984741211,0.0871804058551788,0.133973270654678,0.400000154972076,2012-01-25 20:14:07
1.01399993896484,42,-113.45238494873,0.380952566862106,0.407219648361206,0.752377271652222,65.0071411132812,0.0993195623159409,0.118307195603848,0.207140788435936,-64.2000045776367,0.119049400091171,0.158865451812744,0.399996817111969,2012-01-25 20:14:08
1.01799988746643,43,-113.890701293945,0.309788703918457,0.360757529735565,0.790700495243073,64.9418640136719,0.110653065145016,0.129815340042114,0.258142858743668,-64.0813980102539,0.137913063168526,0.170166149735451,0.381395816802979,2012-01-25 20:14:09
1.00200009346008,48,-113.910415649414,0.211284384131432,0.249365717172623,0.510416805744171,64.7895889282227,0.113454565405846,0.147534430027008,0.389583915472031,-64.1916656494141,0.0934050008654594,0.120474718511105,0.3083316385746,2012-01-25 20:14:10
1.00300002098083,40,-113.817504882812,0.173374563455582,0.210817024111748,0.482501804828644,64.7475051879883,0.100125275552273,0.120390571653843,0.252497851848602,-63.9850006103516,0.358750730752945,0.419851839542389,0.884999096393585,2012-01-25 20:14:11
1.04099988937378,43,-113.716278076172,0.561600267887115,0.621673822402954,1.01627600193024,64.9813995361328,0.191995099186897,0.217015445232391,0.418604105710983,-63.1418609619141,0.169172137975693,0.216990455985069,0.541858911514282,2012-01-25 20:14:12
1.01900005340576,48,-114.179168701172,0.122571364045143,0.145715221762657,0.479163497686386,64.4791717529297,0.145832538604736,0.174353569746017,0.420833110809326,-63.0125007629395,0.15781269967556,0.202716037631035,0.587501466274261,2012-01-25 20:14:13
1,29,-113.210342407227,0.259690999984741,0.292839527130127,0.589657247066498,64.179313659668,0.2558873295784,0.29871016740799,0.520693004131317,-63.8517265319824,0.349822193384171,0.424768716096878,0.95172381401062,2012-01-25 20:14:14
1,33,-112.839393615723,0.499907791614532,0.59132045507431,1.36060905456543,63.0060615539551,0.91496753692627,1.07757818698883,2.20606184005737,-63.5484848022461,0.329109460115433,0.377488881349564,0.748486518859863,2012-01-25 20:14:15
1.12800002098083,42,-112.635719299316,0.389116257429123,0.538879573345184,1.63571608066559,55.8500022888184,2.55476212501526,3.04460906982422,6.44999933242798,-60.8214302062988,2.01938772201538,2.31367921829224,4.02143001556396,2012-01-25 20:14:16
1.22300004959106,35,-110.074287414551,0.474938064813614,0.547378718852997,1.02571153640747,43.8657150268555,2.66187787055969,3.16741824150085,5.43428373336792,-51.6257133483887,2.3051426410675,2.72075009346008,5.07428598403931,2012-01-25 20:14:17
1.00499987602234,40,-109.180000305176,0.36200088262558,0.520673334598541,1.52000272274017,35.8150024414062,0.975249767303467,1.19844675064087,2.88499999046326,-51.2150001525879,1.15699982643127,1.31672871112823,2.51500034332275,2012-01-25 20:14:18
1.00200009346008,47,-110.963829040527,0.487189143896103,0.546721816062927,1.1638286113739,38.7553215026855,0.215844199061394,0.275842010974884,0.855318486690521,-47.7872352600098,0.927931129932404,1.052983045578,1.68723261356354,2012-01-25 20:14:19
1.00099992752075,28,-111.382141113281,0.306122541427612,0.348521113395691,0.682139277458191,40.5678558349609,0.400510251522064,0.553594410419464,1.26785850524902,-48.5714302062988,0.892856955528259,1.10319554805756,2.27142953872681,2012-01-25 20:14:20
1.00800013542175,42,-111.811904907227,0.494783908128738,0.577020466327667,1.11190164089203,41.7119064331055,0.226757168769836,0.279627561569214,0.588094234466553,-48.5309524536133,1.18446695804596,1.38898515701294,3.26904606819153,2012-01-25 20:14:21
1.01599979400635,45,-112.142219543457,0.215803429484367,0.269558429718018,0.642223298549652,42.2488899230957,0.143505796790123,0.172075137495995,0.351113051176071,-51.9000015258789,0.102222502231598,0.138243108987808,0.400000840425491,2012-01-25 20:14:22
1.04000020027161,29,-112.220687866211,0.207610160112381,0.255125939846039,0.479313015937805,42.4310340881348,0.103685759007931,0.128930404782295,0.268965899944305,-52.341381072998,0.0979791432619095,0.11601809412241,0.258622407913208,2012-01-25 20:14:23
1.01699995994568,37,-111.216217041016,0.488678097724915,0.605610489845276,2.01621317863464,42.7378387451172,0.161139219999313,0.204478651285172,0.562160909175873,-52.594596862793,0.094667911529541,0.129334881901741,0.294596582651138,2012-01-25 20:14:24
1.02799987792969,44,-110.802276611328,0.348037391901016,0.449489384889603,1.40227270126343,43.0772743225098,0.157644987106323,0.189333468675613,0.37727278470993,-52.7999992370605,0.168182179331779,0.198860585689545,0.399999707937241,2012-01-25 20:14:25
1.36700010299683,35,-112.617141723633,0.234776169061661,0.286341935396194,0.717142820358276,42.6971435546875,0.0891420170664787,0.108194194734097,0.202857747673988,-52.728572845459,0.150203719735146,0.171666383743286,0.328570455312729,2012-01-25 20:14:27
1.0939998626709,35,-112.574287414551,0.160817041993141,0.215596914291382,0.574286758899689,42.7571449279785,0.0938771143555641,0.110286839306355,0.242856383323669,-52.6742858886719,0.0937135964632034,0.112992115318775,0.274284899234772,2012-01-25 20:14:28
1.02100014686584,46,-112.267395019531,0.425330877304077,0.480513542890549,0.867391526699066,42.8260879516602,0.130624070763588,0.15939374268055,0.373913049697876,-52.8282623291016,0.131947711110115,0.168965235352516,0.428260058164597,2012-01-25 20:14:29
1.0149998664856,45,-112.393333435059,0.261629372835159,0.307968407869339,0.693330407142639,42.8288879394531,0.0892845913767815,0.112787552177906,0.271112978458405,-52.7955551147461,0.129382357001305,0.157699346542358,0.404444456100464,2012-01-25 20:14:30
1.39400005340576,46,-112.608695983887,0.231191486120224,0.278837352991104,0.608697116374969,42.8043479919434,0.101323544979095,0.126759603619576,0.295653879642487,-52.9608688354492,0.085066057741642,0.105250030755997,0.239130765199661,2012-01-25 20:14:31
1.00699996948242,36,-112.366668701172,0.253702580928802,0.315347462892532,0.633331537246704,42.783332824707,0.0962961688637733,0.111803494393826,0.283334106206894,-52.9277763366699,0.133333519101143,0.155655011534691,0.327775835990906,2012-01-25 20:14:32
1.01900005340576,41,-112.568290710449,0.268411099910736,0.310340374708176,0.531704246997833,42.7853660583496,0.0875663533806801,0.10945725440979,0.214633569121361,-52.9975624084473,0.0960145890712738,0.123935684561729,0.302437484264374,2012-01-25 20:14:33
1.52500009536743,43,-112.732559204102,0.222714811563492,0.2725590467453,0.632561266422272,42.7744178771973,0.097241148352623,0.124064601957798,0.274418950080872,-52.9651184082031,0.136614590883255,0.164081498980522,0.365114688873291,2012-01-25 20:14:35
1,45,-112.440002441406,0.304000437259674,0.342150747776031,0.639998197555542,42.864444732666,0.0931361764669418,0.113833144307137,0.264442771673203,-53.0155563354492,0.10004984587431,0.131581202149391,0.315555572509766,2012-01-25 20:14:36
1.00899982452393,49,-112.689796447754,0.227156460285187,0.271237313747406,0.589798748493195,42.9408187866211,0.129029542207718,0.160252869129181,0.359182089567184,-53.055103302002,0.113369680941105,0.129459038376808,0.255103766918182,2012-01-25 20:14:37
1.00100016593933,28,-112.742858886719,0.178571149706841,0.235172405838966,0.742858588695526,42.8964309692383,0.111225359141827,0.140108123421669,0.303571432828903,-53.0928573608398,0.130102306604385,0.160197451710701,0.30714362859726,2012-01-25 20:14:38
1.00799989700317,29,-112.124137878418,0.273008972406387,0.351013273000717,0.775861799716949,43.062068939209,0.147919461131096,0.184603482484818,0.462067574262619,-53.3206901550293,0.113912388682365,0.137412875890732,0.320690155029297,2012-01-25 20:14:39
1.0220000743866,45,-112.628890991211,0.286618620157242,0.356914848089218,0.828887403011322,42.9311103820801,0.129580199718475,0.156094431877136,0.368887662887573,-53.1444435119629,0.115061350166798,0.143844768404961,0.444444358348846,2012-01-25 20:14:40
1,35,-112.882858276367,0.0796726867556572,0.110803604125977,0.317145645618439,42.9171447753906,0.0844080150127411,0.108195103704929,0.282857298851013,-53.1714286804199,0.0955095589160919,0.120880641043186,0.328570544719696,2012-01-25 20:14:41
1.0149998664856,36,-112.536109924316,0.260339856147766,0.34492552280426,0.73610919713974,43.0416679382324,0.119444951415062,0.146011918783188,0.358333796262741,-53.1333351135254,0.11666626483202,0.141421064734459,0.366665840148926,2012-01-25 20:14:42
1.0460000038147,45,-112.515556335449,0.43091356754303,0.46807187795639,0.715553641319275,42.9377784729004,0.136395186185837,0.163692161440849,0.362220674753189,-53.255558013916,0.119011990725994,0.143844768404961,0.3555548787117,2012-01-25 20:14:43
1.06599998474121,37,-112.943244934082,0.205112710595131,0.243332996964455,0.556754469871521,43,0.0972976535558701,0.137546062469482,0.299999952316284,-53.164867401123,0.0939364209771156,0.114410258829594,0.264864236116409,2012-01-25 20:14:44
1.03600001335144,42,-112.642860412598,0.344898223876953,0.416986107826233,0.842856109142303,43.1071434020996,0.0996594354510307,0.127974703907967,0.307144522666931,-53.2095260620117,0.121768288314342,0.14769558608532,0.290475308895111,2012-01-25 20:14:45
1.00800013542175,42,-111.72142791748,0.349319219589233,0.451734513044357,1.17857110500336,43.4071426391602,0.169387862086296,0.228236511349678,0.707142949104309,-53.0476188659668,0.133106842637062,0.160709753632545,0.347618818283081,2012-01-25 20:14:46
1.25,36,-112.91389465332,0.157406836748123,0.196005269885063,0.486110270023346,43.0638885498047,0.125463232398033,0.145588472485542,0.336111485958099,-53.1611099243164,0.119752503931522,0.139995038509369,0.261110097169876,2012-01-25 20:14:47
1.35999989509583,37,-112.583786010742,0.425565510988235,0.490180820226669,0.883780837059021,43.1081085205078,0.0708541721105576,0.0940911844372749,0.208107709884644,-53.1702690124512,0.138640686869621,0.164176315069199,0.370271623134613,2012-01-25 20:14:49
1.04200005531311,44,-112.259094238281,0.398967146873474,0.440205723047256,0.859090983867645,43.3295478820801,0.134607970714569,0.179113581776619,0.529546976089478,-53.625,0.182954579591751,0.220665618777275,0.575000047683716,2012-01-25 20:14:50
1.05399990081787,34,-112.623527526855,0.25398001074791,0.31159833073616,0.776470422744751,43.4176483154297,0.0795845612883568,0.0984308049082756,0.217646881937981,-54.0647048950195,0.420415222644806,0.53461480140686,1.46470391750336,2012-01-25 20:14:51
1.2590000629425,49,-112.744895935059,0.201748996973038,0.255599111318588,0.644901216030121,43.9959182739258,0.192919209599495,0.252302676439285,0.595917582511902,-53.3469390869141,0.226072639226913,0.271129339933395,0.646938860416412,2012-01-25 20:14:52
1.01099991798401,34,-112.155883789062,0.24273419380188,0.289209127426147,0.555885970592499,44.1323547363281,0.101037591695786,0.118123650550842,0.232352197170258,-53.6235313415527,0.121798597276211,0.159149765968323,0.376469790935516,2012-01-25 20:14:53
1.01200008392334,30,-112.636665344238,0.305111646652222,0.361001580953598,0.736666083335876,44.370002746582,0.163333505392075,0.188237354159355,0.329999923706055,-53.6166687011719,0.0855552405118942,0.100277319550514,0.216666027903557,2012-01-25 20:14:54
1,47,-112.619148254395,0.306655049324036,0.353486299514771,0.719149351119995,44.1000022888184,0.0808515921235085,0.114854224026203,0.30000028014183,-53.6936187744141,0.11851491779089,0.14351849257946,0.293616265058517,2012-01-25 20:14:55
1.00600004196167,35,-112.54857635498,0.298285692930222,0.342570930719376,0.751429319381714,44.0885734558105,0.0671026632189751,0.0918739065527916,0.211426541209221,-53.6857147216797,0.0840809941291809,0.114997014403343,0.285713315010071,2012-01-25 20:14:56
1.43300008773804,40,-112.895004272461,0.200499445199966,0.240780025720596,0.505000114440918,44.0725021362305,0.115750342607498,0.144892185926437,0.372500330209732,-53.7600021362305,0.0929993093013763,0.111354857683182,0.26000052690506,2012-01-25 20:14:57
1.00699996948242,39,-112.712821960449,0.300329148769379,0.372227907180786,0.912818729877472,44.0410270690918,0.103616558015347,0.119224108755589,0.241027444601059,-53.7051277160645,0.0788949206471443,0.103647656738758,0.205129086971283,2012-01-25 20:14:58
1.00899982452393,29,-112.651725769043,0.384542793035507,0.444600611925125,0.851722955703735,44.1137924194336,0.0998805314302444,0.127911671996117,0.286207258701324,-53.6758613586426,0.121521331369877,0.152349531650543,0.375863820314407,2012-01-25 20:14:59
1.24300003051758,46,-112.663047790527,0.344045430421829,0.404516845941544,0.863042056560516,44.25,0.097825363278389,0.113730691373348,0.250000655651093,-53.8326110839844,0.117958895862103,0.146041184663773,0.367391586303711,2012-01-25 20:15:01
1.00200009346008,50,-112.802001953125,0.174399480223656,0.219535797834396,0.601996898651123,44.1539993286133,0.104159608483315,0.12199991196394,0.246000677347183,-53.8219985961914,0.0975205227732658,0.125363409519196,0.322000503540039,2012-01-25 20:15:02
1.00999999046326,28,-112.392860412598,0.209182858467102,0.287760406732559,0.99285751581192,44.2535705566406,0.114540070295334,0.137534201145172,0.253572046756744,-53.7392845153809,0.0936218202114105,0.111288502812386,0.239286154508591,2012-01-25 20:15:03
1.0699999332428,34,-112.655883789062,0.53027731180191,0.617962598800659,1.15588355064392,44.1617660522461,0.111072234809399,0.130642354488373,0.261763960123062,-53.7911758422852,0.0653974562883377,0.088675245642662,0.208823263645172,2012-01-25 20:15:04
1.00200009346008,48,-112.941665649414,0.181596830487251,0.227150499820709,0.541666209697723,44.1500015258789,0.0874995365738869,0.104083120822906,0.250000566244125,-53.6916656494141,0.115971855819225,0.159207910299301,0.40833505988121,2012-01-25 20:15:05
1.49000000953674,40,-112.294998168945,0.489750444889069,0.540347635746002,1.00500178337097,44.3450012207031,0.149500340223312,0.171682938933372,0.354999840259552,-54.0275001525879,0.128875479102135,0.148303166031837,0.272498428821564,2012-01-25 20:15:06
1.01600003242493,55,-111.990913391113,0.54247921705246,0.608805656433105,1.20909357070923,44.2581825256348,0.178644195199013,0.205992668867111,0.358181267976761,-54.3454551696777,0.130578994750977,0.164944425225258,0.354545325040817,2012-01-25 20:15:07
1.0460000038147,32,-112.875,0.181248903274536,0.206154763698578,0.475000143051147,44.3312492370605,0.0894536599516869,0.107347227632999,0.231248259544373,-54.109375,0.118554256856441,0.156842589378357,0.390624165534973,2012-01-25 20:15:08
1.06799983978271,47,-112.61701965332,0.322227478027344,0.379427850246429,0.817020177841187,44.3276596069336,0.0986875668168068,0.116147458553314,0.227657809853554,-54.2638320922852,0.0856488347053528,0.104015648365021,0.236169770359993,2012-01-25 20:15:09
1.01700019836426,21,-112.057144165039,0.16326467692852,0.227975368499756,0.74285888671875,44.4428596496582,0.111565105617046,0.125628501176834,0.242857247591019,-54.490478515625,0.0793649554252625,0.106479726731777,0.209523886442184,2012-01-25 20:15:10
1.01699995994568,48,-112.412498474121,0.294269919395447,0.35626745223999,0.712497055530548,44.3895835876465,0.0759556740522385,0.104562260210514,0.310416787862778,-54.1166687011719,0.12499924749136,0.150461718440056,0.28333392739296,2012-01-25 20:15:11
1.01399993896484,32,-112.471878051758,0.181640595197678,0.215399146080017,0.371877908706665,44.3156242370605,0.0873051956295967,0.106387719511986,0.215623259544373,-54.40625,0.201172053813934,0.230403825640678,0.49375057220459,2012-01-25 20:15:12
1.01699995994568,29,-112.068969726562,0.45279386639595,0.471317410469055,0.668965280056,44.2655181884766,0.104874409735203,0.126697272062302,0.265517801046371,-54.3862075805664,0.0673014372587204,0.0859999284148216,0.186206683516502,2012-01-25 20:15:13
1.00300002098083,48,-112.637504577637,0.322395950555801,0.410093277692795,0.937497317790985,43.9937515258789,0.128124982118607,0.157329708337784,0.306248337030411,-53.8937492370605,0.152864828705788,0.172489538788795,0.306250005960464,2012-01-25 20:15:14
1.00300002098083,26,-112.75,0.288461238145828,0.320156097412109,0.550001561641693,43.9269256591797,0.0757397562265396,0.0942902490496635,0.173078238964081,-54.0269241333008,0.063906267285347,0.0811353772878647,0.226924747228622,2012-01-25 20:15:15
1.20799994468689,36,-112.080558776855,0.314969062805176,0.354979634284973,0.680555582046509,44.2388877868652,0.0956784933805466,0.116136193275452,0.238889157772064,-54.1305541992188,0.141666516661644,0.172915324568748,0.469446301460266,2012-01-25 20:15:17
1.06100010871887,51,-112.274513244629,0.359400033950806,0.412948668003082,0.874509751796722,44.2999992370605,0.113725945353508,0.149509117007256,0.400000184774399,-54.3294143676758,0.257439434528351,0.297897160053253,0.570588886737823,2012-01-25 20:15:18
1.01399993896484,39,-112.371795654297,0.189348444342613,0.225261747837067,0.571792781352997,44.3743591308594,0.0828408524394035,0.103075824677944,0.274357229471207,-54.4794883728027,0.0878370627760887,0.109027698636055,0.220512881875038,2012-01-25 20:15:19
1.00099992752075,40,-112.38500213623,0.288749277591705,0.340256869792938,0.684996962547302,44.375,0.106250643730164,0.125996395945549,0.274998188018799,-54.4049987792969,0.285499840974808,0.333129018545151,0.594999432563782,2012-01-25 20:15:20
1.00999999046326,29,-111.913795471191,0.148156598210335,0.194270148873329,0.486206829547882,44.2758636474609,0.152675032615662,0.179376572370529,0.324139297008514,-55.0172424316406,0.183353275060654,0.203535854816437,0.317241132259369,2012-01-25 20:15:21
1.01999998092651,44,-111.940910339355,0.360950499773026,0.43081271648407,0.859091997146606,44.222728729248,0.161776468157768,0.214119240641594,0.577271282672882,-54.9318199157715,0.216942310333252,0.238149002194405,0.431819230318069,2012-01-25 20:15:22
1.01400017738342,48,-112.285415649414,0.255121141672134,0.288666933774948,0.585412979125977,44.064582824707,0.196441203355789,0.228664338588715,0.535418689250946,-54.7916679382324,0.102083027362823,0.133593544363976,0.308335214853287,2012-01-25 20:15:23
1.0019998550415,18,-111.988891601562,0.434568226337433,0.492035895586014,0.788886606693268,43.7611122131348,0.143209710717201,0.16377118229866,0.261111795902252,-55.2222213745117,0.171604797244072,0.204275220632553,0.377779006958008,2012-01-25 20:15:24
1.01300001144409,45,-111.86888885498,0.486814677715302,0.544802606105804,0.931112349033356,44.0733337402344,0.133037328720093,0.162480637431145,0.373333394527435,-55.0288887023926,0.1876540184021,0.224718615412712,0.428887099027634,2012-01-25 20:15:25
1.00500011444092,46,-112.426086425781,0.196786373853683,0.23995965719223,0.473913431167603,44.2826080322266,0.0914928466081619,0.110933169722557,0.217390641570091,-54.8934783935547,0.112004332244396,0.140499606728554,0.306521952152252,2012-01-25 20:15:26
1.02099990844727,32,-111.525001525879,0.410937070846558,0.51112562417984,0.925002813339233,44.515625,0.129102170467377,0.162229552865028,0.415623545646667,-54.7906265258789,0.215624690055847,0.237643674015999,0.409374594688416,2012-01-25 20:15:27
1,31,-111.887100219727,0.312382757663727,0.392463028430939,0.912904798984528,44.4129028320312,0.0915710404515266,0.115680158138275,0.312901526689529,-54.932258605957,0.116961725056171,0.140016853809357,0.267742037773132,2012-01-25 20:15:28
1.00999999046326,46,-112.702178955078,0.172022879123688,0.23264978826046,0.602177500724792,44.2826080322266,0.0943286493420601,0.106942296028137,0.18260732293129,-54.8608703613281,0.097353994846344,0.113210663199425,0.260867655277252,2012-01-25 20:15:29
1.01699995994568,36,-112.355560302734,0.220987111330032,0.269200474023819,0.655551910400391,44.288890838623,0.0975302159786224,0.126441985368729,0.311112821102142,-54.8583335876465,0.129629820585251,0.149768218398094,0.258331835269928,2012-01-25 20:15:30
1.03299999237061,22,-112.345458984375,0.323140412569046,0.362726241350174,0.645452320575714,44.2363662719727,0.13966877758503,0.152390882372856,0.263635128736496,-54.8181838989258,0.165289670228958,0.201441213488579,0.418180972337723,2012-01-25 20:15:31
1,49,-112.063270568848,0.221824422478676,0.273073226213455,0.636737763881683,44.4081649780273,0.138942077755928,0.17709319293499,0.408163964748383,-54.9693870544434,0.190087363123894,0.237507358193398,0.569387257099152,2012-01-25 20:15:32
1.01800012588501,39,-112.571792602539,0.297041416168213,0.335084199905396,0.571796119213104,44.2948722839355,0.104273214936256,0.129987567663193,0.294872492551804,-54.8846168518066,0.112032152712345,0.14239476621151,0.384616255760193,2012-01-25 20:15:33
1.40299987792969,48,-112.629165649414,0.214237153530121,0.275346755981445,0.629168331623077,44.3354187011719,0.13836832344532,0.166445136070251,0.364583492279053,-54.8291664123535,0.147048994898796,0.181381717324257,0.470831722021103,2012-01-25 20:15:34
1.01800012588501,41,-112.270736694336,0.366567373275757,0.421520680189133,0.829264938831329,44.3975601196289,0.115170106291771,0.143964737653732,0.30243906378746,-54.941463470459,0.169304192066193,0.19503054022789,0.358534932136536,2012-01-25 20:15:35
1.02799987792969,50,-112.458000183105,0.237999871373177,0.27863273024559,0.558000206947327,44.2799987792969,0.0895993933081627,0.118321351706982,0.320001900196075,-54.826000213623,0.0860006734728813,0.103556990623474,0.326000660657883,2012-01-25 20:15:36
1.42900013923645,23,-112.773918151855,0.0967859476804733,0.111188657581806,0.226084500551224,44.330436706543,0.0926280915737152,0.108085229992867,0.230433091521263,-54.8869552612305,0.0843108966946602,0.103438720107079,0.213045373558998,2012-01-25 20:15:38
1.00699996948242,55,-112.13272857666,0.395835429430008,0.449264407157898,0.832725822925568,44.4181823730469,0.134545683860779,0.161910399794579,0.318180352449417,-54.9981842041016,0.165884435176849,0.209320098161697,0.598181068897247,2012-01-25 20:15:39
1.03500008583069,48,-112.427085876465,0.249826163053513,0.30464443564415,0.627082169055939,44.2312507629395,0.107290998101234,0.134095668792725,0.368751436471939,-54.908332824707,0.0857637226581573,0.115169115364552,0.308331727981567,2012-01-25 20:15:40
1.00599980354309,33,-112.618186950684,0.110745891928673,0.150664776563644,0.418178915977478,44.3515167236328,0.0927463248372078,0.118376180529594,0.348485440015793,-54.924243927002,0.0899908244609833,0.11018019169569,0.275757759809494,2012-01-25 20:15:41
1.00800013542175,22,-112.013641357422,0.161570236086845,0.198391929268837,0.313633650541306,44.4363632202148,0.0851240232586861,0.0979126691818237,0.163638025522232,-54.990909576416,0.11239667981863,0.147429943084717,0.390907973051071,2012-01-25 20:15:42
1.01799988746643,48,-112.145835876465,0.28402841091156,0.329746514558792,0.745833218097687,44.4270820617676,0.108506754040718,0.13955220580101,0.372915357351303,-55.0187492370605,0.0973960161209106,0.12525999546051,0.281248569488525,2012-01-25 20:15:43
1.01500010490417,43,-112.169769287109,0.24305035173893,0.270687371492386,0.469764530658722,44.4790687561035,0.137695893645287,0.182435989379883,0.42093089222908,-55.0511627197266,0.0849114581942558,0.10200821608305,0.251164555549622,2012-01-25 20:15:44
1.03299999237061,25,-112.540000915527,0.140800178050995,0.185472667217255,0.44000244140625,44.4160003662109,0.119360193610191,0.13763752579689,0.31599822640419,-55.0160026550293,0.100480444729328,0.128623515367508,0.283998399972916,2012-01-25 20:15:45
1.00099992752075,53,-112.283020019531,0.269491076469421,0.310043394565582,0.616981387138367,44.3943405151367,0.0896412283182144,0.112292423844337,0.305660754442215,-55.0075492858887,0.0996803045272827,0.125667095184326,0.307547301054001,2012-01-25 20:15:46
1.02800011634827,42,-111.635719299316,0.605102241039276,0.688967823982239,1.33571314811707,44.4000015258789,0.114286176860332,0.151185944676399,0.399998426437378,-55.0404777526855,0.115646988153458,0.14152193069458,0.340476453304291,2012-01-25 20:15:47
1.01699995994568,43,-111.565116882324,0.345483869314194,0.446111679077148,0.965118765830994,44.1604652404785,0.220875859260559,0.279650628566742,0.560463666915894,-55.1767463684082,0.162249505519867,0.195099398493767,0.423257350921631,2012-01-25 20:15:48
1.01300001144409,34,-111.794120788574,0.323529422283173,0.371753394603729,0.705880582332611,44.091178894043,0.223183214664459,0.266090750694275,0.491175144910812,-55.3470611572266,0.262284010648727,0.309872388839722,0.747057497501373,2012-01-25 20:15:49
1.00600004196167,42,-112.421432495117,0.2261902987957,0.265057235956192,0.52142858505249,44.1761894226074,0.123582363128662,0.149298876523972,0.323809027671814,-54.6404762268066,0.16235776245594,0.191559210419655,0.359523326158524,2012-01-25 20:15:50
1.73299980163574,42,-112.492858886719,0.138094216585159,0.188215330243111,0.407143175601959,44.2142868041992,0.192516669631004,0.222080394625664,0.485714137554169,-54.3928565979004,0.258843839168549,0.293900698423386,0.607142329216003,2012-01-25 20:15:52
1.00200009346008,48,-112.079170227051,0.398263812065125,0.449053764343262,0.879164040088654,44.5499992370605,0.154166907072067,0.179118245840073,0.350000768899918,-54.8624992370605,0.123438097536564,0.149478539824486,0.437498569488525,2012-01-25 20:15:53
1.01699995994568,39,-112.46410369873,0.229848429560661,0.281468123197556,0.564102351665497,44.4076919555664,0.106903225183487,0.143910124897957,0.407693028450012,-54.769229888916,0.11163666844368,0.143497988581657,0.369229525327682,2012-01-25 20:15:54
1.05200004577637,39,-112.79231262207,0.468638867139816,0.49426656961441,0.707690298557281,44.0974349975586,0.192899912595749,0.238034024834633,0.402563154697418,-53.0820503234863,0.946614027023315,1.06093144416809,1.78205275535583,2012-01-25 20:15:55
1.01200008392334,35,-111.805717468262,0.705305814743042,0.816242814064026,1.69428431987762,43.7142868041992,0.236734345555305,0.284999012947083,0.614283978939056,-54.3742866516113,1.64669394493103,1.888059258461,3.17428612709045,2012-01-25 20:15:56
1.00599980354309,44,-112.443183898926,0.372933477163315,0.505153775215149,1.2431788444519,43.8295478820801,0.195868015289307,0.221133187413216,0.529547154903412,-54.6318206787109,0.341941803693771,0.487932711839676,1.46818339824677,2012-01-25 20:15:57
1.15900015830994,24,-112.395835876465,0.0725683346390724,0.101975426077843,0.204163551330566,44.0166664123535,0.104167222976685,0.134371280670166,0.316666603088379,-54.9750022888184,0.0749999135732651,0.0968249514698982,0.225000217556953,2012-01-25 20:15:58
1.00999999046326,31,-112.322578430176,0.244745209813118,0.284786343574524,0.522579073905945,44.2193565368652,0.125701740384102,0.149016484618187,0.280644446611404,-55.0451622009277,0.121124513447285,0.145555511116982,0.354839324951172,2012-01-25 20:15:59
1.04900002479553,38,-112.310531616211,0.2759008705616,0.324273079633713,0.710529744625092,44.2157897949219,0.0883649587631226,0.111275099217892,0.284209817647934,-54.9789505004883,0.101108349859715,0.112760066986084,0.221052169799805,2012-01-25 20:16:00
