"diffSecs","N.samples","x.mean","x.absolute.deviation","x.standard.deviation","x.max.deviation","x.PSD.1","x.PSD.3","x.PSD.6","x.PSD.10","y.mean","y.absolute.deviation","y.standard.deviation","y.max.deviation","y.PSD.1","y.PSD.3","y.PSD.6","y.PSD.10","z.mean","z.absolute.deviation","z.standard.deviation","z.max.deviation","z.PSD.1","z.PSD.3","z.PSD.6","z.PSD.10","time"
1.24100017547607,10,-4.99844932556152,0.0166712757200003,0.0191417839378119,0.0323618873953819,1.29153995658271e-05,3.75335512217134e-05,0.000138653398607858,0.000208923389436677,7.44128608703613,0.0235359184443951,0.0258716754615307,0.0411878600716591,2.88719002128346e-05,8.28673873911612e-05,0.000296834798064083,0.000411499931942672,3.47057342529297,0.02432044968009,0.0278929322957993,0.050013829022646,9.27990731725004e-06,1.81332106876653e-05,7.92085775174201e-05,0.000248580559855327,2012-01-25 20:18:01
1.01699995994568,61,-4.96650552749634,0.0247735418379307,0.0286611989140511,0.0643057897686958,0.0120476325973868,0.21126900613308,0.115647494792938,0.105993293225765,7.44212198257446,0.0217954553663731,0.0286927595734596,0.0893850550055504,0.00127992476336658,0.00547476392239332,0.080923892557621,0.0333987846970558,3.40949892997742,0.0393900349736214,0.0456436239182949,0.0948511362075806,0.0159205235540867,0.294040709733963,0.344133764505386,0.205961227416992,2012-01-25 20:18:02
1.13899993896484,34,-4.98206663131714,0.0170852579176426,0.0210712160915136,0.0487447343766689,0.00302673503756523,0.00544174527749419,0.00676926597952843,0.0107509978115559,7.40257835388184,0.0223789606243372,0.0273402705788612,0.0504754558205605,1.20750689802662e-06,0.0122804939746857,0.0385225564241409,0.00658087804913521,3.40838766098022,0.0595185644924641,0.0658361986279488,0.102392934262753,0.160486668348312,0.246514871716499,0.0903204679489136,0.0103867566213012,2012-01-25 20:18:03
1.00799989700317,47,-4.98595094680786,0.0240526646375656,0.0285189636051655,0.0826260969042778,0.104253828525543,0.163342237472534,0.0255908071994781,0.00999466422945261,7.42572069168091,0.0323278307914734,0.0403547212481499,0.0959799215197563,0.0844504237174988,0.342458426952362,0.195611134171486,0.0795847699046135,3.38976240158081,0.034698411822319,0.0458313375711441,0.124148093163967,0.0446079187095165,0.0215170327574015,0.120052225887775,0.0841511711478233,2012-01-25 20:18:04
1.0090000629425,41,-4.97579860687256,0.0297524258494377,0.0407445766031742,0.113852620124817,0.0374887473881245,0.149209573864937,0.0879472568631172,0.037592139095068,7.42770004272461,0.0280023440718651,0.0359162762761116,0.0940002351999283,0.000219140303670429,0.00442902930080891,0.0627612620592117,0.0191054996103048,3.42204236984253,0.0455271601676941,0.0549629777669907,0.118158064782619,0.100977204740047,0.119617059826851,0.0225408636033535,0.0688353851437569,2012-01-25 20:18:05
1.00999999046326,45,-4.94037246704102,0.020969245582819,0.0262235626578331,0.0708256810903549,0.0155767593532801,0.0520793274044991,0.0740438848733902,0.0205479897558689,7.44215774536133,0.018208859488368,0.0225739348679781,0.0501227900385857,0.0207178946584463,0.0577274039387703,0.048781543970108,0.0358062535524368,3.40639424324036,0.0361563004553318,0.0437178649008274,0.0945796892046928,0.00677495449781418,0.0743334367871284,0.102368019521236,0.0717719346284866,2012-01-25 20:18:06
1.03699994087219,46,-4.97005271911621,0.0311810150742531,0.0368420146405697,0.0705651193857193,0.0262071192264557,0.146053075790405,0.248892620205879,0.0394230522215366,7.42491292953491,0.0235619284212589,0.0286720637232065,0.0699259713292122,0.0112002715468407,0.0214220844209194,0.119484424591064,0.0591210424900055,3.43318009376526,0.041358508169651,0.0482521504163742,0.0989192202687263,0.0685281828045845,0.166129946708679,0.158682316541672,0.0608690455555916,2012-01-25 20:18:07
1.02500009536743,18,-4.95726156234741,0.014165136963129,0.0173743236809969,0.0343232154846191,6.39546706224792e-05,0.000120018237794284,0.000193160813068971,0.00010084798122989,7.4318060874939,0.0261511281132698,0.0317352041602135,0.0670123919844627,0.000473858788609505,0.00105051905848086,0.00201598927378654,0.00053360965102911,3.40508675575256,0.0196133591234684,0.0252267476171255,0.0610191412270069,2.17764481931226e-05,5.2514806156978e-05,8.67447670316324e-05,0.000476528541184962,2012-01-25 20:18:08
1.01900005340576,43,-4.98702335357666,0.020875558257103,0.0243310444056988,0.0542785748839378,0.000837900384794921,0.00850356463342905,0.0238465461879969,0.0826470032334328,7.38463544845581,0.0239307545125484,0.0323864780366421,0.0978384912014008,0.0541297346353531,0.135193213820457,0.0690828189253807,0.0547360815107822,3.39446926116943,0.0355458110570908,0.0421710684895515,0.0896281450986862,0.00588391069322824,0.0401528142392635,0.0485615991055965,0.118701785802841,2012-01-25 20:18:09
1.00099992752075,41,-4.97795104980469,0.0223084855824709,0.0303907655179501,0.0822800397872925,0.00441392464563251,0.00482470821589231,0.0122803067788482,0.0305858012288809,7.41095685958862,0.0325994789600372,0.0377173498272896,0.0755831524729729,0.00460831541568041,0.0116105945780873,0.0970162600278854,0.0422601848840714,3.3777928352356,0.033707782626152,0.0413260087370872,0.112178578972816,0.00237767584621906,0.0406269058585167,0.197560876607895,0.0658983886241913,2012-01-25 20:18:10
1.11500000953674,25,-4.9547119140625,0.0177617743611336,0.0240660440176725,0.0710000246763229,0.000279018422588706,0.000400996999815106,0.000405546190449968,0.00212899572215974,7.44128608703613,0.0208685155957937,0.0254216976463795,0.0509944930672646,0.00228146929293871,0.00366957276128232,0.00223481492139399,0.00228266837075353,3.37858700752258,0.0257326513528824,0.0324800089001656,0.0733538120985031,0.00246296753175557,0.00436598854139447,0.00483006797730923,0.00908299069851637,2012-01-25 20:18:11
1.18099999427795,54,-4.98087024688721,0.0187388751655817,0.0244087278842926,0.0695544555783272,0.00551306363195181,0.127321496605873,0.0603387840092182,0.0423360168933868,7.42781066894531,0.0269514638930559,0.0350854471325874,0.0924370288848877,0.134153485298157,0.157728955149651,0.0245089139789343,0.0845347791910172,3.39128470420837,0.0398857481777668,0.0483040995895863,0.109689183533192,0.0730215609073639,0.551429390907288,0.509970903396606,0.155833035707474,2012-01-25 20:18:12
1.0090000629425,49,-4.96176481246948,0.0181510522961617,0.0226727835834026,0.058439526706934,0.000175981578649953,0.0167320277541876,0.012429116293788,0.0677119046449661,7.43364095687866,0.0274145305156708,0.0330630652606487,0.0688469782471657,0.0138365309685469,0.0380220785737038,0.0478381216526031,0.102357797324657,3.38889789581299,0.0224151909351349,0.0262841563671827,0.0546369887888432,0.00027499845600687,0.0100641772150993,0.117258869111538,0.0340274758636951,2012-01-25 20:18:13
1.04099988937378,26,-4.96065616607666,0.0231529381126165,0.0282254312187433,0.070155143737793,0.00189040740951896,0.00531650613993406,0.0132890036329627,0.00214913603849709,7.41684484481812,0.0190330296754837,0.0235185883939266,0.0460157953202724,0.00040380988502875,0.0010379864834249,0.00508679635822773,0.00624550366774201,3.38744306564331,0.0239653792232275,0.030063334852457,0.0743042975664139,4.81961069453973e-05,0.000403106852900237,0.00544292107224464,0.0108903013169765,2012-01-25 20:18:14
1.21300005912781,55,-4.95521116256714,0.0123385274782777,0.0154969319701195,0.0461803264915943,0.0259956009685993,0.0363415442407131,0.00664721056818962,0.00170527817681432,7.42719984054565,0.0173115693032742,0.0223910361528397,0.0624062977731228,0.00774030573666096,0.00998115632683039,0.0274290926754475,0.0142214363440871,3.41841983795166,0.0405493304133415,0.0503072962164879,0.131587296724319,0.203359320759773,0.210382640361786,0.169403225183487,0.265566259622574,2012-01-25 20:18:16
1.15199995040894,49,-4.94735479354858,0.0223253052681684,0.0268106702715158,0.0540365502238274,0.00127419829368591,0.00865521840751171,0.0126992436125875,0.0417235195636749,7.43644285202026,0.0342844724655151,0.0409980528056622,0.0950643569231033,0.0233346428722143,0.0640302300453186,0.102140508592129,0.0518202967941761,3.43733072280884,0.0377317331731319,0.044085331261158,0.102869674563408,0.00832256954163313,0.00782167911529541,0.205718800425529,0.0722049847245216,2012-01-25 20:18:17
1.00100016593933,31,-4.94824600219727,0.0250217281281948,0.031485304236412,0.0743410661816597,0.000101835779787507,0.00345191545784473,0.00947651732712984,0.0108358720317483,7.4217357635498,0.0390225723385811,0.0510128624737263,0.125588536262512,0.0265699196606874,0.0551365800201893,0.0556768923997879,0.016052283346653,3.47028851509094,0.0339814126491547,0.042545560747385,0.116414420306683,0.00197053980082273,0.0147698102518916,0.0319720208644867,0.0200003758072853,2012-01-25 20:18:18
1.05699992179871,47,-4.95673990249634,0.0215399656444788,0.0250885859131813,0.0544581115245819,0.00289046368561685,0.00220791017636657,0.0217642057687044,0.0319059379398823,7.44512510299683,0.0473063141107559,0.0592432543635368,0.125608459115028,0.139320731163025,0.430079340934753,0.830710709095001,0.148827508091927,3.41563534736633,0.0338194593787193,0.0401502512395382,0.0951453447341919,0.128865078091621,0.201811879873276,0.0384913720190525,0.0656879991292953,2012-01-25 20:18:19
1.01799988746643,31,-4.86599636077881,0.316649705171585,0.419176518917084,0.998380184173584,2.52071666717529,6.91852521896362,11.3082962036133,2.89568543434143,7.26830911636353,0.376203894615173,0.41108837723732,0.746887266635895,4.8019814491272,9.50642013549805,8.96117877960205,1.73746991157532,3.6828715801239,0.35399866104126,0.387338399887085,0.690894424915314,4.14646482467651,8.23110485076904,8.3272705078125,2.01193308830261,2012-01-25 20:18:20
1.00300002098083,41,-6.58408880233765,0.329424113035202,0.359484314918518,0.602032840251923,14.8347482681274,18.2540950775146,2.84625697135925,1.573810338974,5.15255737304688,0.661928415298462,0.727319240570068,1.32963812351227,63.7517127990723,83.9138793945312,12.43479347229,4.8399806022644,4.83659172058105,0.193017721176147,0.220320791006088,0.443212598562241,5.29340553283691,6.78066635131836,0.876439869403839,0.689630270004272,2012-01-25 20:18:21
1.00999999046326,48,-7.32740592956543,0.0762569084763527,0.103912219405174,0.233520820736885,1.70517230033875,2.25342321395874,1.40251648426056,0.740087926387787,3.80743169784546,0.0925502479076385,0.109339743852615,0.291747957468033,1.15213882923126,1.78673529624939,0.438068479299545,0.170589074492455,5.04878997802734,0.0734136253595352,0.0929119288921356,0.194498673081398,1.48272264003754,2.52722334861755,0.929641246795654,0.390883773565292,2012-01-25 20:18:22
1.01600003242493,17,-6.87215423583984,0.36213344335556,0.395104378461838,0.551479995250702,0.188837304711342,0.377620100975037,0.660411357879639,0.189226806163788,5.04350233078003,0.841946721076965,0.89226096868515,1.23852217197418,0.76091480255127,1.52676844596863,2.50457096099854,0.442827701568604,4.52663421630859,0.362812101840973,0.401235461235046,0.525521218776703,0.185945302248001,0.369727343320847,0.608991205692291,0.129829406738281,2012-01-25 20:18:23
1.00500011444092,43,-5.29809951782227,0.616848349571228,0.719399571418762,1.09104681015015,63.595760345459,68.9261093139648,11.9719076156616,17.1035842895508,7.09134817123413,0.57317715883255,0.645661950111389,1.0896782875061,54.8166007995605,64.5496444702148,7.97405195236206,1.47295892238617,3.19993257522583,0.429784744977951,0.581034123897552,1.67990183830261,15.6604537963867,19.1324310302734,11.2280693054199,7.22092628479004,2012-01-25 20:18:24
1.00499987602234,48,-3.91693925857544,0.400404155254364,0.492211908102036,1.16290509700775,21.2620239257812,59.7949752807617,52.5777168273926,6.04921102523804,8.3329963684082,0.231962993741035,0.282198637723923,0.522408545017242,17.2266178131104,22.401439666748,5.2514066696167,2.0247790813446,2.68150591850281,0.20200677216053,0.245541125535965,0.504429459571838,12.0418949127197,13.9564533233643,6.05376243591309,1.89624643325806,2012-01-25 20:18:25
1.24100017547607,15,-3.04659914970398,0.154291272163391,0.191088512539864,0.487063676118851,0.0132922967895865,0.0275682657957077,0.0549040511250496,0.05300273001194,8.83775329589844,0.0794991031289101,0.0998929664492607,0.194171339273453,0.00295147695578635,0.00626964913681149,0.0125352349132299,0.00906333699822426,2.14896392822266,0.148450866341591,0.170904740691185,0.35434690117836,0.0141857415437698,0.0286086779087782,0.0681731328368187,0.0589277036488056,2012-01-25 20:18:26
1.0019998550415,46,-2.84051752090454,0.127653285861015,0.149862542748451,0.310401827096939,2.1973888874054,2.41934514045715,0.460272461175919,0.436930328607559,8.84879589080811,0.0886026546359062,0.10273190587759,0.202741473913193,0.490930318832397,0.94465309381485,0.253199219703674,0.28814372420311,2.3785388469696,0.159687116742134,0.200431793928146,0.564308762550354,4.01549243927002,3.15547823905945,0.640807747840881,0.169396162033081,2012-01-25 20:18:27
1.00200009346008,48,-2.83820796012878,0.0299307387322187,0.03880725055933,0.11359366774559,0.0766705647110939,0.0425472110509872,0.0589479506015778,0.184504747390747,8.76673698425293,0.0442490763962269,0.0657837018370628,0.206347942352295,0.000183364361873828,0.0912087708711624,0.0467729642987251,0.0579335950314999,2.54502987861633,0.0635048598051071,0.0765397772192955,0.171820685267448,0.522980153560638,0.58087283372879,0.170714110136032,0.234388828277588,2012-01-25 20:18:28
1.00600004196167,47,-3.10036182403564,0.209477856755257,0.230909556150436,0.410418689250946,7.61730909347534,7.46619319915771,1.82320868968964,1.26889407634735,8.74148082733154,0.0583782009780407,0.0720796212553978,0.229309156537056,0.143112331628799,0.13020433485508,1.05129241943359,0.300091624259949,2.53595781326294,0.136920168995857,0.167694002389908,0.398108333349228,3.86736345291138,7.58208036422729,1.15192484855652,1.21788513660431,2012-01-25 20:18:29
1.00099992752075,40,-2.73066163063049,0.121823132038116,0.160481125116348,0.633019208908081,1.06805765628815,1.62838530540466,1.80844581127167,0.221531346440315,8.84314632415771,0.062762476503849,0.0907776951789856,0.389814585447311,0.116110779345036,0.187219008803368,0.0466605462133884,0.0796051770448685,2.41268110275269,0.248806968331337,0.268910497426987,0.500384330749512,6.78670454025269,8.24930667877197,0.847613453865051,0.762296617031097,2012-01-25 20:18:30
1.00099992752075,47,-2.83766889572144,0.14376574754715,0.177010789513588,0.425233095884323,3.70032262802124,3.80152535438538,0.896077811717987,0.444981962442398,8.88169479370117,0.127872616052628,0.162883952260017,0.336556196212769,1.77477359771729,5.88406801223755,4.82797574996948,0.931733548641205,2.29287815093994,0.37898325920105,0.41870641708374,0.772847414016724,32.0435981750488,52.661865234375,14.8261699676514,1.02331554889679,2012-01-25 20:18:31
1.00699996948242,35,-3.01568484306335,0.131273001432419,0.155240416526794,0.397309362888336,9.50041521718958e-06,0.119367994368076,0.389769822359085,0.571330726146698,8.77330875396729,0.0943199247121811,0.105623111128807,0.202297642827034,0.0207048282027245,0.157648473978043,0.518635988235474,0.567787349224091,2.16586875915527,0.126886069774628,0.150344863533974,0.364246964454651,0.0552815571427345,0.671884953975677,1.2042328119278,0.173073992133141,2012-01-25 20:18:32
1.00100016593933,27,-2.90385794639587,0.0377737618982792,0.0539338365197182,0.175430044531822,8.12466241768561e-05,0.00332029722630978,0.00858076568692923,0.0138781955465674,8.82925415039062,0.0317202210426331,0.0373663827776909,0.0915285721421242,0.000887700298335403,0.00229023606516421,0.00170919636730105,0.0116965267807245,2.12659025192261,0.055988036096096,0.0639846548438072,0.135840222239494,0.000853041128721088,0.000539488100912422,0.0141115477308631,0.0443349033594131,2012-01-25 20:18:33
1,50,-2.98180985450745,0.0771273449063301,0.098719596862793,0.244577810168266,0.0312015768140554,0.352500766515732,0.746480643749237,0.343354642391205,8.84912872314453,0.0687876492738724,0.0825334042310715,0.182795643806458,0.215192168951035,0.719297289848328,0.3603136241436,0.611308515071869,2.19649338722229,0.07037253677845,0.0822705030441284,0.186522454023361,0.299703508615494,1.17568790912628,0.190917745232582,0.0653345510363579,2012-01-25 20:18:34
1.00999999046326,34,-2.99679684638977,0.0863935425877571,0.111917100846767,0.27862411737442,0.0240091625601053,0.195684164762497,0.471324473619461,0.417172312736511,8.88395977020264,0.0332203917205334,0.0390362590551376,0.0873944088816643,0.00378013215959072,0.00584661774337292,0.0101619036868215,0.0336161516606808,2.11044883728027,0.0444862134754658,0.0507777705788612,0.0902789831161499,0.0356811583042145,0.0593882128596306,0.0908715575933456,0.138842448592186,2012-01-25 20:18:35
1.06599998474121,28,-2.94829916954041,0.0305707044899464,0.0380003526806831,0.101568914949894,0.0095674404874444,0.0125718070194125,0.00627979729324579,0.0141918929293752,8.82248306274414,0.0369249768555164,0.0461622327566147,0.101568698883057,0.0217811819165945,0.0299575496464968,0.00911564659327269,0.0241733901202679,2.14870691299438,0.0300704371184111,0.035488273948431,0.0872091501951218,0.0107601191848516,0.0173435490578413,0.0106151103973389,0.000610773218795657,2012-01-25 20:18:36
1.00999999046326,47,-2.95555734634399,0.0633147954940796,0.0952628776431084,0.339477092027664,0.0224729795008898,0.175363451242447,0.206945478916168,0.0301024243235588,8.86249923706055,0.0363409221172333,0.042177602648735,0.081165537238121,0.0393807329237461,0.148405775427818,0.264260679483414,0.0405376814305782,2.15120339393616,0.0738007128238678,0.100527472794056,0.310265779495239,0.0933161899447441,0.163203373551369,0.387686043977737,0.0985546410083771,2012-01-25 20:18:37
1.0149998664856,25,-2.95611643791199,0.0655868574976921,0.0770220905542374,0.152591407299042,0.00255132210440934,0.00816651433706284,0.0357842482626438,0.0221928432583809,8.88717842102051,0.0634528398513794,0.0692478865385056,0.105519369244576,0.00304548116400838,0.0034897611476481,0.0147268399596214,0.0398629680275917,2.18256807327271,0.0418940149247646,0.0519719272851944,0.121994830667973,0.0024112444370985,0.00576780689880252,0.0227629467844963,0.0159976314753294,2012-01-25 20:18:38
1.01699995994568,47,-3.03296732902527,0.0515503771603107,0.0656979158520699,0.149812161922455,0.00370876863598824,0.00741080660372972,0.0308889988809824,0.281329870223999,8.82014274597168,0.0469510853290558,0.0614811480045319,0.192168280482292,0.00702155940234661,0.552988111972809,0.825914025306702,0.337941974401474,2.1618447303772,0.0431865900754929,0.0546501316130161,0.132911264896393,0.440151184797287,0.703538835048676,0.180561721324921,0.0119137577712536,2012-01-25 20:18:39
1.01300001144409,29,-3.04141402244568,0.0239044036716223,0.0275844018906355,0.0503860339522362,0.00842898432165384,0.0165297985076904,0.0186868719756603,0.00309663778170943,8.83274841308594,0.0241142883896828,0.0296000875532627,0.065602995455265,0.0114853549748659,0.0185165535658598,0.0102078290656209,0.00183908373583108,2.15678668022156,0.0283355638384819,0.0349272675812244,0.0693228915333748,0.00159434590023011,0.00396880554035306,0.0125783067196608,0.0155872767791152,2012-01-25 20:18:40
1.18500018119812,50,-3.01887917518616,0.0253717638552189,0.0296388138085604,0.067077562212944,0.0125679885968566,0.00929466634988785,0.162854924798012,0.100526958703995,8.81951236724854,0.0446554832160473,0.0544108189642429,0.121013849973679,0.325993239879608,0.525814473628998,0.241716861724854,0.152653321623802,2.15609002113342,0.0359472930431366,0.044380284845829,0.0994393900036812,0.0130891678854823,0.196543708443642,0.118357434868813,0.184744834899902,2012-01-25 20:18:41
1.03900003433228,48,-3.05395412445068,0.0623130612075329,0.0834726095199585,0.280306726694107,0.0420825853943825,0.353289842605591,0.203631967306137,0.545316398143768,8.84641551971436,0.0397372953593731,0.0500375926494598,0.108690179884434,0.000275970029179007,0.11027966439724,0.124875918030739,0.151224672794342,2.14234447479248,0.0620406940579414,0.0788088738918304,0.211251616477966,0.073008693754673,0.653789639472961,0.186991065740585,0.178405538201332,2012-01-25 20:18:42
1.00599980354309,27,-3.04296708106995,0.0185639970004559,0.0226183049380779,0.0421322025358677,0.00624134857207537,0.0109054176136851,0.0101186465471983,0.00582229858264327,8.81000423431396,0.0130217019468546,0.0160470809787512,0.0355944447219372,0.0012354392092675,0.00231766141951084,0.00327835534699261,0.00187817821279168,2.10189199447632,0.0539970882236958,0.0720144137740135,0.199401900172234,0.0215486213564873,0.058809045702219,0.154437035322189,0.129800230264664,2012-01-25 20:18:43
1.15900015830994,43,-3.05648183822632,0.0241108573973179,0.0338208228349686,0.101259425282478,0.0125836245715618,0.0225340649485588,0.0184781551361084,0.0511219054460526,8.83601951599121,0.0303586628288031,0.0355468392372131,0.0590678602457047,0.0209745913743973,0.0636262744665146,0.0300496760755777,0.0708913058042526,2.12713074684143,0.0371369123458862,0.0463274046778679,0.116767652332783,0.00626487331464887,0.12450896948576,0.305074542760849,0.0549449026584625,2012-01-25 20:18:45
1.01199984550476,49,-3.06067538261414,0.026760958135128,0.0355655811727047,0.0774523839354515,0.0150194149464369,0.131630524992943,0.0476163700222969,0.0136974127963185,8.82318305969238,0.0335655584931374,0.0395255945622921,0.0952644348144531,0.0194246526807547,0.138918176293373,0.322422415018082,0.0274529587477446,2.13284635543823,0.0487269125878811,0.0563565939664841,0.112876512110233,0.115101657807827,0.0974277257919312,0.297397494316101,0.18213726580143,2012-01-25 20:18:46
1.13300013542175,22,-3.06502389907837,0.0230982676148415,0.0281638819724321,0.053490724414587,2.93571702059126e-06,0.000321377738146111,0.00310625834390521,0.00237344927154481,8.84069442749023,0.0213962905108929,0.0287814848124981,0.073549747467041,0.000539797707460821,0.001113589736633,0.0029694177210331,0.00214419676922262,2.11645317077637,0.028690479695797,0.0315197110176086,0.0472501404583454,0.00245178863406181,0.00448572635650635,0.00661980547010899,0.00161821988876909,2012-01-25 20:18:47
1.0479998588562,44,-3.09979271888733,0.0171008426696062,0.0221088230609894,0.0677551403641701,0.000363717292202637,0.0371994636952877,0.060684647411108,0.0118337096646428,8.80057716369629,0.0252257399260998,0.0304650701582432,0.0726582333445549,0.00514456536620855,0.0359391383826733,0.068786695599556,0.0469405874609947,2.11266446113586,0.0262692254036665,0.0317356921732426,0.0644119754433632,0.00382095342501998,0.0208666659891605,0.114573590457439,0.0782013237476349,2012-01-25 20:18:48
1.01600003242493,49,-3.08369112014771,0.0393981151282787,0.049255333840847,0.112276203930378,0.134807676076889,0.169214069843292,0.0743746981024742,0.185271739959717,8.82038116455078,0.0210428051650524,0.0279488153755665,0.0742502212524414,0.0432278737425804,0.111963994801044,0.0285972077399492,0.0435668714344501,2.09622144699097,0.0384668782353401,0.0478186085820198,0.0956649407744408,0.0745251700282097,0.200782269239426,0.297556191682816,0.13321827352047,2012-01-25 20:18:49
1.05100011825562,44,-3.0857515335083,0.0299163516610861,0.0368680246174335,0.0817964375019073,0.0237937066704035,0.152827680110931,0.28153783082962,0.0744839683175087,8.80726337432861,0.0461965352296829,0.0545536912977695,0.106981448829174,0.12743254005909,0.264766931533813,0.0975802317261696,0.077358640730381,2.11756777763367,0.039155650883913,0.0488276518881321,0.117011234164238,0.00826418958604336,0.0396159701049328,0.0193609464913607,0.0491552427411079,2012-01-25 20:18:50
1.05399990081787,29,-3.12527775764465,0.0374308563768864,0.048530425876379,0.120723202824593,0.0144587773829699,0.0404336825013161,0.107366934418678,0.0590682402253151,8.81786918640137,0.0413254536688328,0.0526574589312077,0.135602056980133,0.0126752778887749,0.0449763014912605,0.0995389968156815,0.022967591881752,2.07123208045959,0.0423982813954353,0.0519799701869488,0.129515379667282,0.0443055294454098,0.0843115672469139,0.0953537225723267,0.0324893146753311,2012-01-25 20:18:51
1.01600003242493,41,-3.09650945663452,0.0684656649827957,0.0750230029225349,0.159298151731491,0.510747730731964,0.901691436767578,0.273343861103058,0.0230113416910172,8.80015277862549,0.0248986966907978,0.0379349552094936,0.172931596636772,0.0233857706189156,0.0376383662223816,0.0359363332390785,0.00807225424796343,2.02471446990967,0.0448737740516663,0.0517152287065983,0.113135166466236,0.199068069458008,0.281908750534058,0.0537065081298351,0.105845011770725,2012-01-25 20:18:52
1.23200011253357,37,-3.00242519378662,0.0224787034094334,0.0271228030323982,0.0572496429085732,0.0178185272961855,0.0433000139892101,0.0447476431727409,0.026258047670126,8.8291654586792,0.0403869971632957,0.0485298633575439,0.120860122144222,0.0673675462603569,0.123952135443687,0.190704107284546,0.0415209569036961,2.10153841972351,0.0237250365316868,0.0299769621342421,0.0657311752438545,0.000306172441923991,0.0112443482503295,0.0493378303945065,0.0262235067784786,2012-01-25 20:18:53
1.08999991416931,36,-3.11796975135803,0.0768792778253555,0.0853968411684036,0.136748388409615,0.262065052986145,0.363433808088303,0.104160621762276,0.0590411089360714,8.79166126251221,0.0424954332411289,0.0599418766796589,0.161810368299484,0.0476024560630322,0.0865062773227692,0.0825217589735985,0.0253194440156221,2.00300812721252,0.0348681062459946,0.0431427694857121,0.105421453714371,0.0045607527717948,0.0269136428833008,0.0738176181912422,0.0173240751028061,2012-01-25 20:18:54
1.00600004196167,50,-3.13440132141113,0.097030907869339,0.136884644627571,0.513672292232513,0.222973674535751,0.635371088981628,1.06126070022583,1.23502457141876,8.8212776184082,0.0596086792647839,0.0788259208202362,0.240459561347961,0.23148912191391,0.547694385051727,0.370361059904099,1.09868109226227,2.02075815200806,0.0513790398836136,0.0782177299261093,0.254384428262711,0.27975457906723,0.678912281990051,0.614956259727478,0.283191412687302,2012-01-25 20:18:55
1.00999999046326,31,-3.16723155975342,0.0231032911688089,0.0295235272496939,0.0689628198742867,0.000455475295893848,0.000690555665642023,0.00365173118188977,0.00321141700260341,8.81016826629639,0.0368182435631752,0.0445358827710152,0.104076847434044,0.0113031407818198,0.0175277758389711,0.0104287201538682,0.0217682644724846,1.99581146240234,0.0280423257499933,0.0365975573658943,0.102811634540558,0.0071110394783318,0.0134501215070486,0.0241146851330996,0.0200889464467764,2012-01-25 20:18:56
1.03399991989136,30,-3.15970253944397,0.0385728664696217,0.0435927659273148,0.0902211517095566,0.0246086828410625,0.0436714217066765,0.0375532433390617,0.0119633646681905,8.78675842285156,0.0281123481690884,0.0334001891314983,0.0686464309692383,0.00716413324698806,0.0107840178534389,0.00400320300832391,0.0190604999661446,1.99957585334778,0.0256934203207493,0.030736219137907,0.059820618480444,0.0119546614587307,0.0162760317325592,0.00425568083301187,0.00961295422166586,2012-01-25 20:18:57
1.00600004196167,49,-3.18796181678772,0.0180612057447433,0.0225754342973232,0.0596405677497387,0.026314340531826,0.0419433452188969,0.00704072369262576,0.00633063772693276,8.79736518859863,0.0232973899692297,0.0291744917631149,0.0792536064982414,0.0191666278988123,0.0220456775277853,0.0523911826312542,0.0114220650866628,1.96713387966156,0.0279536414891481,0.0335010625422001,0.0646438524127007,0.0075365430675447,0.0844520851969719,0.261311650276184,0.111836537718773,2012-01-25 20:18:58
1.00999999046326,41,-3.17544102668762,0.0598549768328667,0.0887030810117722,0.305919647216797,0.0173983853310347,0.134529769420624,0.246203109622002,0.0697762370109558,8.76666641235352,0.0537528432905674,0.0696120113134384,0.185848519206047,0.0311347041279078,0.253156274557114,0.254801452159882,0.0469183437526226,1.97065830230713,0.0621535331010818,0.0699145570397377,0.136814787983894,0.00417618779465556,0.13727755844593,0.303501635789871,0.0220166556537151,2012-01-25 20:18:59
1.38800001144409,42,-3.17081689834595,0.0213255770504475,0.0272935889661312,0.0621088743209839,0.0351850762963295,0.0605041235685349,0.0355620086193085,0.00976969953626394,8.81057453155518,0.0291530527174473,0.0337101854383945,0.0728492736816406,0.0163524467498064,0.0313533172011375,0.0332179255783558,0.0447441302239895,1.92093586921692,0.035613052546978,0.0459076911211014,0.128653973340988,0.0589342899620533,0.13633106648922,0.131178706884384,0.117582589387894,2012-01-25 20:19:01
1.01600003242493,49,-3.19236469268799,0.0176690947264433,0.0218028165400028,0.0444300509989262,0.011866245418787,0.0562619380652905,0.0493843667209148,0.0214300211519003,8.80356979370117,0.0128658451139927,0.0173853021115065,0.0616416931152344,3.84002987630083e-07,0.00342942192219198,0.00384979066438973,0.00838944129645824,1.95252394676208,0.0291217695921659,0.0403242334723473,0.108873873949051,0.00810951367020607,0.0689787194132805,0.0823877081274986,0.123895578086376,2012-01-25 20:19:02
1.01699995994568,41,-3.1969678401947,0.025832112878561,0.0316847302019596,0.0588400289416313,0.00465234043076634,0.0304683651775122,0.0582281835377216,0.0159819666296244,8.82359313964844,0.0251787193119526,0.0333988182246685,0.100458189845085,0.006070327013731,0.064563937485218,0.102700501680374,0.0326532125473022,1.93788969516754,0.0511975847184658,0.0602920949459076,0.121506847441196,0.172058671712875,0.300547540187836,0.367157310247421,0.0638232603669167,2012-01-25 20:19:03
1.00300002098083,46,-3.19014573097229,0.0471979416906834,0.0616124197840691,0.179504230618477,0.0768998712301254,0.314545631408691,0.11265555024147,0.0738052129745483,8.82470607757568,0.0598964691162109,0.0724286064505577,0.158185258507729,0.261206299066544,0.865748524665833,0.375352948904037,0.302841782569885,1.9240220785141,0.0356023982167244,0.0408770963549614,0.0901785716414452,0.0486540496349335,0.153108149766922,0.0543578825891018,0.094164714217186,2012-01-25 20:19:04
1.00799989700317,24,-3.1597843170166,0.0786915421485901,0.0882134735584259,0.149142697453499,0.00828367657959461,0.0240923222154379,0.088494174182415,0.0611014775931835,8.80923175811768,0.0371834821999073,0.0426972694694996,0.0853994265198708,1.00084889709251e-05,0.001132543082349,0.0134471943601966,0.0193366594612598,1.99565327167511,0.0674207136034966,0.088712714612484,0.240262910723686,0.0340072773396969,0.0635195896029472,0.0771479457616806,0.0539036877453327,2012-01-25 20:19:05
1.07299995422363,30,-3.1760470867157,0.0884341672062874,0.107358783483505,0.226860389113426,0.113015584647655,0.166080117225647,0.225020155310631,0.156092599034309,8.78218173980713,0.042974941432476,0.0625750795006752,0.191557124257088,0.0208261385560036,0.0406394936144352,0.0339357741177082,0.0135597009211779,2.02572703361511,0.0419724956154823,0.0503673367202282,0.102316007018089,0.02039510384202,0.0301754232496023,0.0111914370208979,0.0221114605665207,2012-01-25 20:19:06
1.14900016784668,50,-3.11047315597534,0.0402386486530304,0.0491777844727039,0.135527849197388,0.250779092311859,0.686170101165771,0.414560854434967,0.0573465935885906,8.80146789550781,0.0423646531999111,0.0532546229660511,0.132389545440674,0.0898276716470718,0.160109713673592,0.651675939559937,0.152080550789833,2.04958987236023,0.0537404231727123,0.0698134154081345,0.176519691944122,0.483457267284393,1.70099687576294,0.97103476524353,0.152939677238464,2012-01-25 20:19:07
1.00699996948242,33,-3.14139676094055,0.0497266836464405,0.054342545568943,0.0915286913514137,0.0319611951708794,0.0725200772285461,0.152855321764946,0.0298515651375055,8.7876501083374,0.051059328019619,0.0653789043426514,0.156014621257782,0.0335642732679844,0.0621960610151291,0.0655085667967796,0.00745159992948174,1.96786773204803,0.0606229268014431,0.0746331736445427,0.1601752191782,0.161899134516716,0.341036945581436,0.437815725803375,0.154277116060257,2012-01-25 20:19:08
1.0090000629425,40,-3.19745826721191,0.0265514738857746,0.0328888259828091,0.0691369846463203,0.0610167905688286,0.0988818407058716,0.0406281091272831,0.0113357054069638,8.79999732971191,0.0318470411002636,0.0401084087789059,0.101498648524284,0.0197379197925329,0.0532002970576286,0.0391812287271023,0.0338798090815544,1.99982106685638,0.0380375422537327,0.0446922816336155,0.0889953598380089,0.055896233767271,0.0646459609270096,0.0208688098937273,0.108611725270748,2012-01-25 20:19:09
1.01399993896484,40,-3.1702446937561,0.0200791265815496,0.024417158216238,0.0517301857471466,0.00764276925474405,0.0431067496538162,0.054243478924036,0.0114559419453144,8.75268077850342,0.0286598857492208,0.0383580699563026,0.0934081822633743,0.00327939027920365,0.0192285850644112,0.0525327548384666,0.0265458766371012,1.97898197174072,0.0515829809010029,0.0620304606854916,0.145138457417488,0.0304196458309889,0.0984984636306763,0.106129057705402,0.152760043740273,2012-01-25 20:19:10
1.13199996948242,35,-3.18239808082581,0.0172436758875847,0.0221615862101316,0.0540768019855022,0.000479479058412835,0.00223620212636888,0.00945002306252718,0.0220424309372902,8.81533813476562,0.039995051920414,0.0496386401355267,0.108713530004025,0.0470669232308865,0.0675717741250992,0.0201699156314135,0.0534175671637058,2.00531983375549,0.0348716638982296,0.0406285375356674,0.0734097510576248,0.050311241298914,0.10749190300703,0.0967196002602577,0.00616951659321785,2012-01-25 20:19:11
1.00600004196167,37,-3.2051842212677,0.0268196016550064,0.0333155319094658,0.0702366977930069,0.00848281476646662,0.0579773783683777,0.0819009691476822,0.0066589592024684,8.77827739715576,0.0398139283061028,0.0480512678623199,0.096741110086441,0.0695244669914246,0.155567646026611,0.0838424488902092,0.0515125058591366,1.97537732124329,0.0332810059189796,0.0391961522400379,0.0728872790932655,0.00914906337857246,0.0053615253418684,0.0488441213965416,0.0123497042804956,2012-01-25 20:19:12
1.01799988746643,49,-3.18535995483398,0.0233137756586075,0.0320492312312126,0.086458683013916,0.108597032725811,0.256700575351715,0.153265818953514,0.0103044901043177,8.77595138549805,0.0230768322944641,0.0273270905017853,0.0598404742777348,0.0399955734610558,0.0401630513370037,0.0210196543484926,0.0249865353107452,1.99275124073029,0.0274961795657873,0.0335631892085075,0.0804545879364014,0.000743719167076051,0.0625828802585602,0.124502383172512,0.0596753880381584,2012-01-25 20:19:13
1.01200008392334,32,-3.19482254981995,0.035185169428587,0.0465644411742687,0.110018379986286,0.00355854909867048,0.00929030030965805,0.0370504297316074,0.0582339204847813,8.81342029571533,0.0366408005356789,0.0446198023855686,0.0855015814304352,0.0285899192094803,0.0592095740139484,0.071372851729393,0.0223099514842033,1.99105632305145,0.0407971814274788,0.0551206842064857,0.117986232042313,0.0453544966876507,0.0768581554293633,0.0583187937736511,0.0139532312750816,2012-01-25 20:19:14
1.01399993896484,30,-3.2528657913208,0.0373306609690189,0.0491083897650242,0.12454454600811,0.0381370447576046,0.0644074231386185,0.0826239064335823,0.075450599193573,8.8233699798584,0.0310761295258999,0.0432629510760307,0.13467775285244,0.0008865658310242,0.00299437809735537,0.0209010541439056,0.0426396280527115,1.98094320297241,0.0549172610044479,0.0631495714187622,0.1372931599617,0.072168692946434,0.121498949825764,0.0781944766640663,0.0117443511262536,2012-01-25 20:19:15
1.00800013542175,48,-3.21944141387939,0.0617682561278343,0.0833555236458778,0.301145821809769,0.295458793640137,0.200849533081055,0.128024876117706,0.210301727056503,8.7483491897583,0.0466837100684643,0.0618879944086075,0.18714414536953,0.017744455486536,0.139730989933014,0.077009953558445,0.0757955834269524,2.02098703384399,0.0499186106026173,0.0676716044545174,0.206756860017776,0.0666834712028503,0.0793373510241508,0.453583180904388,0.175744578242302,2012-01-25 20:19:16
1.01099991798401,17,-3.20792818069458,0.0221243072301149,0.0239935256540775,0.0380728095769882,0.00065847736550495,0.0013162000104785,0.00217163376510143,0.000444049655925483,8.80579471588135,0.0236852243542671,0.0332083478569984,0.0692232921719551,0.000214295723708346,0.000393657857785001,0.00114693434443325,0.000468327198177576,2.02247738838196,0.0238210633397102,0.0280476305633783,0.0611473880708218,2.23600218305364e-05,0.000138614443130791,0.00112528202589601,0.00116161676123738,2012-01-25 20:19:17
1.16300010681152,36,-3.19015765190125,0.0211871769279242,0.0250895246863365,0.0618364997208118,0.0137802688404918,0.0262495186179876,0.0259123239666224,0.00331473490223289,8.7761344909668,0.0322348028421402,0.0450806766748428,0.136476576328278,2.30204077524832e-05,0.0036575433332473,0.0208369418978691,0.00863844808191061,2.00355291366577,0.0349740423262119,0.0434170998632908,0.101063013076782,0.0963358804583549,0.159497961401939,0.108437083661556,0.00794777739793062,2012-01-25 20:19:18
1.0019998550415,49,-3.21317887306213,0.0217453204095364,0.0267688073217869,0.0554374977946281,0.0420923084020615,0.100088357925415,0.147105902433395,0.0331693179905415,8.78895950317383,0.0361795723438263,0.0469376109540462,0.139494344592094,0.182596668601036,0.4220871925354,0.360093533992767,0.0840698629617691,2.01616716384888,0.0242613963782787,0.0310694482177496,0.0842570960521698,0.00883700512349606,0.0252695064991713,0.137920171022415,0.0297821946442127,2012-01-25 20:19:19
1.00800013542175,35,-3.20061039924622,0.033446628600359,0.0376602374017239,0.0846174657344818,0.000309793394990265,0.0193394180387259,0.0379060916602612,0.0273477286100388,8.79180145263672,0.0273144748061895,0.0327666029334068,0.0734096542000771,0.0110742216929793,0.0405093133449554,0.0572389177978039,0.00358320353552699,2.00840187072754,0.0264499559998512,0.0313462652266026,0.0608012713491917,0.00117469555698335,0.0174824073910713,0.0356575585901737,0.0254951063543558,2012-01-25 20:19:20
1.41299986839294,43,-3.16982841491699,0.035036638379097,0.039614524692297,0.0761725381016731,0.161563128232956,0.166909426450729,0.0126798236742616,0.0288301054388285,8.78584575653076,0.0292130522429943,0.0381755717098713,0.0989785715937614,0.0267431642860174,0.012890849262476,0.0213303864002228,0.0486375465989113,2.04023933410645,0.0406055897474289,0.0493720546364784,0.107416927814484,0.0192434210330248,0.0262556057423353,0.228462547063828,0.309692591428757,2012-01-25 20:19:22
1.01099991798401,45,-3.13050055503845,0.0313813239336014,0.0430147983133793,0.139472469687462,0.0241390615701675,0.104818679392338,0.182101830840111,0.0478695705533028,8.7758617401123,0.0213566683232784,0.0289602801203728,0.0773634389042854,0.00555748771876097,0.00619144504889846,0.082032673060894,0.019387936219573,2.17010259628296,0.0288630686700344,0.0371919460594654,0.0952334031462669,0.020136509090662,0.084945060312748,0.087316207587719,0.0645977854728699,2012-01-25 20:19:23
1.02000021934509,44,-3.1147255897522,0.0298859588801861,0.039791751652956,0.123697578907013,0.0143109923228621,0.0238862726837397,0.092062696814537,0.111770682036877,8.77360820770264,0.0439272336661816,0.0496948026120663,0.104529790580273,0.000108808468212374,0.0724212601780891,0.345648974180222,0.0651607438921928,2.16370344161987,0.0415770001709461,0.0497014001011848,0.111439138650894,0.16398186981678,0.260469347238541,0.245306044816971,0.0497400760650635,2012-01-25 20:19:24
1.6159999370575,43,-3.14611005783081,0.0254687201231718,0.0346398800611496,0.0962419807910919,4.75000415463001e-05,0.00255557964555919,0.0415760166943073,0.0504243634641171,8.79474067687988,0.0307723544538021,0.0348970964550972,0.0864352062344551,0.00170466222334653,0.0442694649100304,0.134059995412827,0.0283245388418436,2.15358591079712,0.0286933928728104,0.0350815169513226,0.0823302417993546,0.0244721099734306,0.0578977465629578,0.0311638079583645,0.0426063127815723,2012-01-25 20:19:25
1.01199984550476,43,-3.07449865341187,0.0343471057713032,0.0416260585188866,0.0834706574678421,0.135851800441742,0.124889492988586,0.0400921627879143,0.0221930723637342,8.80682754516602,0.0287463236600161,0.0351968742907047,0.0887158215045929,0.017842885106802,0.0564378574490547,0.0854847878217697,0.0357321053743362,2.07764148712158,0.080182209610939,0.0945265144109726,0.187694638967514,0.0342738442122936,0.524747848510742,0.337608426809311,0.261477202177048,2012-01-25 20:19:26
1.00500011444092,47,-3.13791918754578,0.0461432263255119,0.0596854500472546,0.146891191601753,0.276068925857544,0.397564321756363,0.510601341724396,0.0919078215956688,8.79865169525146,0.0493749976158142,0.0582433752715588,0.100152850151062,0.175101980566978,0.280705630779266,0.205814197659492,0.220895007252693,1.98636817932129,0.156275987625122,0.169685110449791,0.308387726545334,4.14637517929077,4.78924322128296,0.468006700277328,0.265086591243744,2012-01-25 20:19:27
1.29699993133545,33,-3.20053386688232,0.0880707427859306,0.0978826358914375,0.153340339660645,0.000174349086591974,0.119791984558105,0.193863794207573,0.229270696640015,8.780517578125,0.0740225464105606,0.0850760340690613,0.150666475296021,0.134216442704201,0.222486391663551,0.101688206195831,0.073505699634552,1.99461317062378,0.0674668699502945,0.0863383412361145,0.219609573483467,0.128258675336838,0.18737468123436,0.0643191337585449,0.0249661188572645,2012-01-25 20:19:29
1.01800012588501,49,-3.16594672203064,0.0716812834143639,0.103031225502491,0.413480460643768,0.0443215146660805,0.0890352949500084,0.358270049095154,0.453332334756851,8.78695869445801,0.0490372478961945,0.0633838549256325,0.146899357438087,0.0185728371143341,0.103368170559406,0.247905850410461,0.251945108175278,2.05059051513672,0.0701046735048294,0.087067537009716,0.187326997518539,0.000466339668491855,0.538839161396027,0.480397135019302,0.435696303844452,2012-01-25 20:19:30
1.35699987411499,43,-3.12512826919556,0.0399160981178284,0.0523519366979599,0.114486813545227,0.194320052862167,0.319205641746521,0.14507569372654,0.105264976620674,8.80888080596924,0.0216286908835173,0.0326342806220055,0.115170925855637,0.0199457630515099,0.0288309920579195,0.03553332015872,0.018313767388463,1.96292638778687,0.0411783643066883,0.0526590123772621,0.119276255369186,0.000336692319251597,0.204202502965927,0.20370015501976,0.0890490189194679,2012-01-25 20:19:31
1.17900013923645,34,-3.10178565979004,0.026365963742137,0.0327442102134228,0.0715307667851448,0.0190203990787268,0.0325117968022823,0.0124003430828452,0.0274331383407116,8.80291080474854,0.0311844144016504,0.0365294553339481,0.0749918967485428,0.00210012798197567,0.010526729747653,0.028090488165617,0.023024894297123,1.95036959648132,0.0496100969612598,0.059640359133482,0.11652609705925,0.0167908538132906,0.0298243276774883,0.0371970161795616,0.0625016763806343,2012-01-25 20:19:32
1.01300001144409,45,-3.12701368331909,0.0462292768061161,0.059547521173954,0.128793939948082,0.0927354320883751,0.30101665854454,0.21286429464817,0.12264184653759,8.79242420196533,0.0433913245797157,0.0519531071186066,0.123345650732517,0.158659070730209,0.246588423848152,0.133216932415962,0.37468010187149,2.06026816368103,0.037977147847414,0.0497395657002926,0.128358125686646,0.0165875684469938,0.191447898745537,0.117701731622219,0.136353835463524,2012-01-25 20:19:33
1.07699990272522,38,-3.13632154464722,0.0975232049822807,0.144054904580116,0.54117214679718,0.155773714184761,0.365787774324417,0.866633296012878,1.51392865180969,8.81308174133301,0.050391424447298,0.0584559701383114,0.114582762122154,0.0092949103564024,0.0215170476585627,0.0788819193840027,0.129220455884933,2.05862212181091,0.0590164884924889,0.078979879617691,0.226327076554298,0.0194174870848656,0.0627875626087189,0.271597892045975,0.488799542188644,2012-01-25 20:19:34
1.00799989700317,48,-3.13669776916504,0.0240229368209839,0.0285202078521252,0.0574097633361816,0.0138514181599021,0.0207207482308149,0.0581930503249168,0.0489418432116508,8.78553295135498,0.0342721380293369,0.0453225336968899,0.138518691062927,0.196567997336388,0.572117924690247,0.348844200372696,0.0932974889874458,2.06777310371399,0.0181831419467926,0.0239368472248316,0.0672165229916573,3.53823998011649e-06,0.014805756509304,0.054759431630373,0.0514567494392395,2012-01-25 20:19:35
1.03600001335144,28,-3.11956524848938,0.0936634913086891,0.116428002715111,0.283342063426971,0.0350486151874065,0.0496880821883678,0.0574971586465836,0.219528868794441,8.8095235824585,0.0365497209131718,0.044328149408102,0.101218461990356,0.00318684661760926,0.00758858071640134,0.0262879524379969,0.0357917360961437,2.02367234230042,0.0590900927782059,0.0665230080485344,0.143597483634949,0.0304221902042627,0.0664923638105392,0.0979973673820496,0.0420605652034283,2012-01-25 20:19:36
1.00300002098083,41,-3.11779713630676,0.0271855909377337,0.0351514853537083,0.0875421911478043,0.0215612836182117,0.03077657148242,0.0562074854969978,0.00826111249625683,8.80541515350342,0.0326459966599941,0.0396313518285751,0.0774963200092316,0.000148003367939964,0.00224729161709547,0.0189052503556013,0.111170701682568,2.01036310195923,0.0483157150447369,0.0559798963367939,0.117679819464684,0.180609658360481,0.396854251623154,0.127147868275642,0.0204601511359215,2012-01-25 20:19:37
1.02100014686584,48,-3.14139676094055,0.0604743734002113,0.0825190767645836,0.261510610580444,0.0239085666835308,0.0327948555350304,0.611323773860931,1.16503572463989,8.80575847625732,0.0354724302887917,0.0430453419685364,0.09867924451828,0.00751354498788714,0.176668629050255,0.232692494988441,0.0829262733459473,2.04877257347107,0.0629941150546074,0.0808635726571083,0.226370096206665,0.290339350700378,0.492966592311859,0.267125338315964,0.244098871946335,2012-01-25 20:19:38
1.00799989700317,20,-3.131263256073,0.0353039875626564,0.041733056306839,0.0853178352117538,0.000556695391424,0.00134039216209203,0.00391088146716356,0.00685840239748359,8.8289270401001,0.022261057049036,0.0265142042189837,0.0519751533865929,0.000231218233238906,0.000630286056548357,0.00248932791873813,0.00243504368700087,1.97996258735657,0.0284392833709717,0.0330965407192707,0.0598206520080566,0.00318873394280672,0.00591460289433599,0.00780499214306474,0.00241942214779556,2012-01-25 20:19:39
1.02999997138977,43,-3.06537628173828,0.0479141063988209,0.0572693198919296,0.133187994360924,0.0136769898235798,0.108203984797001,0.380149364471436,0.221954360604286,8.82575702667236,0.0485823452472687,0.0655801966786385,0.147327557206154,0.0646761804819107,0.315862894058228,0.583103001117706,0.305209517478943,2.0149245262146,0.0346547961235046,0.0489350594580173,0.181080996990204,0.000747641955967993,0.0498767718672752,0.137902736663818,0.0645289123058319,2012-01-25 20:19:41
1.01300001144409,48,-3.14180541038513,0.0225758049637079,0.0293262023478746,0.0919373109936714,0.105048812925816,0.10044964402914,0.0352951064705849,0.023257477208972,8.79288768768311,0.0333527661859989,0.0423517599701881,0.101743817329407,0.0014867982827127,0.0999434664845467,0.186845943331718,0.298640012741089,2.01506209373474,0.0335315987467766,0.0446260757744312,0.122787363827229,0.0142791057005525,0.0657937005162239,0.0854277238249779,0.0598717033863068,2012-01-25 20:19:42
1.375,39,-3.18062329292297,0.0370473489165306,0.0490248762071133,0.163444176316261,0.0557305254042149,0.0499236285686493,0.0285556074231863,0.0169877596199512,8.77041435241699,0.0251452121883631,0.0286412686109543,0.0523020438849926,0.0198361035436392,0.029054194688797,0.0111692165955901,0.00632592104375362,2.03223967552185,0.0195359699428082,0.0251704342663288,0.0709096565842628,0.0119171487167478,0.0210619978606701,0.0107414731755853,0.00958969816565514,2012-01-25 20:19:43
1.00100016593933,36,-3.13213491439819,0.0379251390695572,0.045897152274847,0.0942527651786804,3.34914584527723e-05,0.0235451124608517,0.0818798169493675,0.0363378003239632,8.80909538269043,0.0635615065693855,0.0816765278577805,0.193408593535423,0.021221436560154,0.0941156670451164,0.157277479767799,0.113389797508717,1.98557412624359,0.0477014891803265,0.0541336573660374,0.102697432041168,0.0391587167978287,0.0670424401760101,0.0268266778439283,0.0441650077700615,2012-01-25 20:19:44
1,48,-3.15059041976929,0.058371726423502,0.0739503130316734,0.169369086623192,0.0157949663698673,0.0729217901825905,0.249859675765038,0.835077822208405,8.79023170471191,0.0313522815704346,0.0390468202531338,0.101539514958858,0.0204940140247345,0.0459552370011806,0.141555398702621,0.294622510671616,2.00219106674194,0.0638794377446175,0.0845813676714897,0.282758295536041,0.153279274702072,0.170315638184547,0.767475724220276,0.638988316059113,2012-01-25 20:19:45
1.00399994850159,34,-3.12889814376831,0.0322364345192909,0.0364566035568714,0.0692234039306641,0.0328882709145546,0.0528866276144981,0.0372513011097908,0.00424292357638478,8.83175373077393,0.0280286464840174,0.0345587283372879,0.0940283015370369,0.00195886101573706,0.00244200695306063,0.0257394015789032,0.0284821968525648,2.04209065437317,0.0429592505097389,0.0507933311164379,0.0957589894533157,0.00436432706192136,0.0362412370741367,0.0351346656680107,0.0579905062913895,2012-01-25 20:19:46
1.01399993896484,33,-3.14407134056091,0.0478355921804905,0.0553137809038162,0.113816514611244,0.0709781795740128,0.116165764629841,0.0900525152683258,0.139583840966225,8.80250835418701,0.0505730509757996,0.0605936795473099,0.104009747505188,0.0530827231705189,0.096539318561554,0.0973277911543846,0.0347986370325089,2.00976896286011,0.0552558153867722,0.0675095468759537,0.157500863075256,0.0484904386103153,0.108534872531891,0.234660014510155,0.219687581062317,2012-01-25 20:19:47
1.00399994850159,47,-3.16942572593689,0.0987945646047592,0.121185749769211,0.302128314971924,0.613567531108856,1.20814955234528,1.00162708759308,2.59490251541138,8.78988838195801,0.0553948245942593,0.0650531873106956,0.130616009235382,0.0956298857927322,0.526414453983307,0.846828460693359,0.161370649933815,2.02893328666687,0.0467736348509789,0.0664267912507057,0.197176247835159,0.0407784543931484,0.110106088221073,0.0922324731945992,0.16021440923214,2012-01-25 20:19:48
1.01800012588501,44,-3.12408661842346,0.0733979195356369,0.0869977027177811,0.191898301243782,0.236328303813934,0.229375168681145,0.135150372982025,0.580375075340271,8.83935737609863,0.05815090239048,0.0746877491474152,0.16314671933651,0.280045360326767,0.446135997772217,0.923156917095184,0.851762652397156,1.99253296852112,0.07415771484375,0.0846257209777832,0.145316645503044,0.559227049350739,0.699590265750885,0.563548147678375,0.0632795616984367,2012-01-25 20:19:49
1.01199984550476,28,-3.10275387763977,0.0540366284549236,0.0693107545375824,0.180372282862663,0.0346422530710697,0.0461544506251812,0.0118134431540966,0.0148128848522902,8.8095235824585,0.0297701358795166,0.0392312221229076,0.101218461990356,0.00487919431179762,0.00579054467380047,0.00428719585761428,0.00905375927686691,2.01491618156433,0.0374253988265991,0.0468468070030212,0.1229332908988,0.00307062198407948,0.0190663654357195,0.0714584141969681,0.0409140326082706,2012-01-25 20:19:50
1.01800012588501,46,-3.15475654602051,0.0460115820169449,0.0602398738265038,0.140277817845345,0.148542210459709,0.52960216999054,0.256793946027756,0.357270807027817,8.82299995422363,0.0217822194099426,0.0271945931017399,0.07163105905056,0.0749574154615402,0.117069080471992,0.0282038990408182,0.052188765257597,1.99927735328674,0.0322562716901302,0.0438856966793537,0.126207292079926,0.000630339374765754,0.079629622399807,0.391692310571671,0.167416825890541,2012-01-25 20:19:51
1.01399993896484,42,-3.16054320335388,0.0440298691391945,0.0630946308374405,0.17371778190136,0.00133155763614923,0.0613315477967262,0.342497676610947,0.395201146602631,8.80847358703613,0.0306207109242678,0.0357150062918663,0.0763516426086426,0.00207540835253894,0.00514459097757936,0.0506218858063221,0.0620019808411598,2.00942921638489,0.0497448518872261,0.0718350410461426,0.23629355430603,0.262638717889786,0.37748196721077,0.359112858772278,0.616936266422272,2012-01-25 20:19:52
1.43400001525879,35,-3.16250443458557,0.0446702986955643,0.0715423226356506,0.240402907133102,0.0094577930867672,0.0134865865111351,0.0126209231093526,0.0113450884819031,8.80749225616455,0.0355760976672173,0.050592727959156,0.16783444583416,0.0527649968862534,0.0761783942580223,0.018745306879282,0.0128838578239083,2.04594731330872,0.026658084243536,0.0309302471578121,0.0551973916590214,0.00211123982444406,0.00340543105266988,0.00464203814044595,0.0183275695890188,2012-01-25 20:19:53
1.01500010490417,46,-3.14324450492859,0.0230429247021675,0.0266408864408731,0.0635300576686859,0.0475795194506645,0.0603252276778221,0.0859132334589958,0.0307934638112783,8.81553840637207,0.0407188460230827,0.0500210262835026,0.117040030658245,9.04835978872143e-05,0.169120982289314,0.0971771031618118,0.14048233628273,2.03999638557434,0.0314035527408123,0.0403038337826729,0.117466524243355,0.13681823015213,0.210137829184532,0.0248686894774437,0.00816703122109175,2012-01-25 20:19:54
1.0019998550415,36,-3.14711737632751,0.0489424876868725,0.0674046203494072,0.187143579125404,0.000271605851594359,0.0347689539194107,0.147662997245789,0.0993394926190376,8.82108116149902,0.0356852486729622,0.0397340096533298,0.073549747467041,0.0822684019804001,0.1589635014534,0.111387744545937,0.00845508929342031,2.00682187080383,0.0309333354234695,0.0385501682758331,0.101607777178288,0.000331707677105442,0.0400016531348228,0.0871029570698738,0.0227722208946943,2012-01-25 20:19:55
1.00500011444092,38,-3.14096665382385,0.0195047240704298,0.0240116380155087,0.0616786740720272,0.00277287652716041,0.00322981528006494,0.00294008245691657,0.0196510516107082,8.781081199646,0.0388462208211422,0.0455899685621262,0.0939372181892395,0.0207503624260426,0.0141995325684547,0.0341835804283619,0.0615425445139408,2.01165342330933,0.0285099353641272,0.0373880751430988,0.0895501300692558,0.00143208797089756,0.00242913281545043,0.0486567951738834,0.0883574336767197,2012-01-25 20:19:56
1.00300002098083,36,-3.12123870849609,0.0638945773243904,0.0769268646836281,0.213022232055664,0.0153175015002489,0.123822018504143,0.151131093502045,0.0330647267401218,8.79738235473633,0.0341416113078594,0.042140319943428,0.0792702808976173,0.00200670002959669,0.0298258122056723,0.0897809639573097,0.0670100674033165,2.00763916969299,0.0372289791703224,0.0441366694867611,0.100790537893772,0.00886438973248005,0.0300285201519728,0.0397903099656105,0.0203535780310631,2012-01-25 20:19:57
1.05099987983704,42,-3.14559960365295,0.0324442833662033,0.0368059128522873,0.0761182829737663,0.0331375673413277,0.112565629184246,0.13467974960804,0.0180194862186909,8.81991386413574,0.0213255360722542,0.0304864849895239,0.0747172012925148,0.00761269265785813,0.0405780002474785,0.0216703452169895,0.0348230786621571,2.06616759300232,0.0416504442691803,0.0487751513719559,0.091295138001442,0.000867974478751421,0.0237208530306816,0.210555836558342,0.0850300118327141,2012-01-25 20:19:58
