"diffSecs","N.samples","x.mean","x.absolute.deviation","x.standard.deviation","x.max.deviation","x.PSD.1","x.PSD.3","x.PSD.6","x.PSD.10","y.mean","y.absolute.deviation","y.standard.deviation","y.max.deviation","y.PSD.1","y.PSD.3","y.PSD.6","y.PSD.10","z.mean","z.absolute.deviation","z.standard.deviation","z.max.deviation","z.PSD.1","z.PSD.3","z.PSD.6","z.PSD.10","time"
1.00399994850159,43,5.30836248397827,0.608585119247437,0.748182237148285,2.16430497169495,9.99010848999023,10.0909023284912,30.4980144500732,44.182071685791,8.45698070526123,0.348106801509857,0.418077260255814,0.898562967777252,0.133095666766167,1.39447069168091,17.0695266723633,17.2851333618164,-0.421457886695862,0.723209917545319,0.821092188358307,1.31386303901672,89.0920181274414,127.37922668457,51.7009315490723,6.19464254379272,2012-01-13 09:22:48
1.06800007820129,42,4.7216682434082,0.506187617778778,0.594820857048035,1.26038777828217,6.50236320495605,5.22637033462524,24.9530277252197,33.4488372802734,8.90607261657715,0.241430401802063,0.285356819629669,0.586764574050903,1.7386349439621,3.05974888801575,3.29509115219116,3.24479842185974,-0.342999249696732,0.815030455589294,1.05422186851501,2.89319515228271,89.1980514526367,210.592132568359,141.277572631836,58.7588348388672,2012-01-13 09:22:49
1,47,4.04722499847412,0.910415768623352,1.16619050502777,3.5431215763092,5.4800443649292,26.3680858612061,60.1424102783203,58.8694801330566,8.90715026855469,0.461085647344589,0.585147857666016,1.45409655570984,2.24361300468445,2.76840591430664,24.7339324951172,24.9505596160889,-0.214285731315613,0.443523377180099,0.532525897026062,1.08019208908081,36.3307342529297,40.6701965332031,10.0157585144043,3.41319131851196,2012-01-13 09:22:50
1.00200009346008,42,3.93830394744873,0.926439344882965,1.08923435211182,1.92794072628021,1.6317435503006,50.6592636108398,120.213523864746,58.4447822570801,8.93876171112061,0.599139630794525,0.703125596046448,1.24054110050201,1.32449889183044,6.71622133255005,63.0816764831543,29.9900188446045,-0.464181423187256,0.747017681598663,0.86834329366684,1.70308828353882,42.1514015197754,108.185165405273,79.1337280273438,5.15905046463013,2012-01-13 09:22:51
1.01300001144409,41,4.28407096862793,0.469249069690704,0.720200955867767,2.56097102165222,1.59708333015442,18.6792907714844,52.3983917236328,14.0292940139771,8.9168758392334,0.310767471790314,0.384633541107178,0.830933749675751,0.996683478355408,0.865141272544861,6.72022342681885,6.37490653991699,-0.324815362691879,0.761173367500305,0.881780028343201,2.66621279716492,46.7410926818848,90.5979614257812,58.0339469909668,14.7574729919434,2012-01-13 09:22:52
1.01799988746643,40,4.91509294509888,0.829054176807404,1.0529648065567,2.7380166053772,30.9777927398682,47.7606925964355,82.9482498168945,34.1911430358887,8.96744537353516,0.315810829401016,0.387684553861618,0.868624329566956,0.280565619468689,0.316782087087631,1.65104758739471,0.635993719100952,-0.358923375606537,0.77217561006546,0.883572578430176,2.06331896781921,0.213564991950989,40.534423828125,57.4548416137695,26.7173233032227,2012-01-13 09:22:53
1.01999998092651,34,4.2537784576416,0.829527199268341,1.07667660713196,2.32186841964722,3.01683354377747,19.1936702728271,64.1138229370117,34.9072189331055,8.60793113708496,0.857963025569916,1.04432916641235,2.91488289833069,1.55890619754791,2.96144127845764,30.5047645568848,32.8781509399414,-0.72424989938736,0.798088252544403,0.917642951011658,1.53820180892944,12.5112466812134,38.0083236694336,60.2323188781738,12.6646289825439,2012-01-13 09:22:54
1.00500011444092,40,4.34483623504639,0.64084005355835,0.790062248706818,1.80491387844086,1.9242035150528,10.6545915603638,38.8974876403809,8.80093193054199,8.42856979370117,0.680176913738251,0.865733325481415,2.5053539276123,30.0282516479492,54.1105651855469,44.3488502502441,36.8848037719727,-1.08142828941345,1.2900402545929,1.47039258480072,3.23349738121033,132.68293762207,185.088104248047,46.5829887390137,64.2472229003906,2012-01-13 09:22:55
