"diffSecs","latitude","longitude","altitude","time"
2.15400004386902,44.35490658,-71.90706464,234.100006103516,2012-02-12 17:00:02
17.0529999732971,44.35490652,-71.90706445,234.100006103516,2012-02-12 17:00:19
12.0160000324249,44.35490649,-71.9070642,234.199996948242,2012-02-12 17:00:31
0.947000026702881,44.35490649,-71.90706419,234.199996948242,2012-02-12 17:00:32
1.0019998550415,44.35490649,-71.9070642,234.199996948242,2012-02-12 17:00:33
1.00300002098083,44.35490649,-71.90706424,234.199996948242,2012-02-12 17:00:34
0.999000072479248,44.35490649,-71.90706419,234.199996948242,2012-02-12 17:00:35
30.0429999828339,44.35490655,-71.9070644,234.199996948242,2012-02-12 17:01:05
30.0160000324249,44.35490655,-71.9070642,234.199996948242,2012-02-12 17:01:35
10.9739999771118,44.35490645,-71.90706392,234.199996948242,2012-02-12 17:01:46
0.967999935150146,44.35490643,-71.90706389,234.199996948242,2012-02-12 17:01:47
1.00300002098083,44.35490637,-71.90706375,234.300003051758,2012-02-12 17:01:48
1.03999996185303,44.35490634,-71.9070637,234.300003051758,2012-02-12 17:01:49
0.96399998664856,44.35490634,-71.90706372,234.300003051758,2012-02-12 17:01:50
0.991000175476074,44.35490636,-71.90706378,234.300003051758,2012-02-12 17:01:51
1.00099992752075,44.35490639,-71.90706385,234.300003051758,2012-02-12 17:01:52
0.996999979019165,44.35490636,-71.90706376,234.300003051758,2012-02-12 17:01:53
1.13599991798401,44.35490634,-71.90706372,234.300003051758,2012-02-12 17:01:54
0.867000102996826,44.35490634,-71.90706373,234.300003051758,2012-02-12 17:01:55
1,44.35490636,-71.90706374,234.300003051758,2012-02-12 17:01:56
1,44.35490632,-71.90706366,234.300003051758,2012-02-12 17:01:57
1.00399994850159,44.35490636,-71.90706379,234.199996948242,2012-02-12 17:01:58
1.0090000629425,44.35490636,-71.90706387,234.199996948242,2012-02-12 17:01:59
0.990000009536743,44.35490622,-71.90706361,234.300003051758,2012-02-12 17:02:00
0.991999864578247,44.35490615,-71.90706351,234.300003051758,2012-02-12 17:02:01
1.00200009346008,44.35490612,-71.90706347,234.300003051758,2012-02-12 17:02:02
1.00399994850159,44.35490606,-71.90706343,234.300003051758,2012-02-12 17:02:03
0.993000030517578,44.35490601,-71.90706338,234.300003051758,2012-02-12 17:02:04
1.00799989700317,44.35490602,-71.90706348,234.300003051758,2012-02-12 17:02:05
0.997000217437744,44.35490595,-71.90706333,234.300003051758,2012-02-12 17:02:06
1.0019998550415,44.35490591,-71.90706326,234.300003051758,2012-02-12 17:02:07
1.00200009346008,44.35490593,-71.90706333,234.300003051758,2012-02-12 17:02:08
0.997999906539917,44.35490591,-71.90706329,234.300003051758,2012-02-12 17:02:09
1,44.35490595,-71.90706338,234.300003051758,2012-02-12 17:02:10
0.99399995803833,44.35490594,-71.90706338,234.300003051758,2012-02-12 17:02:11
1.00600004196167,44.35490589,-71.90706325,234.300003051758,2012-02-12 17:02:12
1.00099992752075,44.3549059,-71.90706329,234.300003051758,2012-02-12 17:02:13
1.01100015640259,44.3549059,-71.90706331,234.300003051758,2012-02-12 17:02:14
1.12299990653992,44.35490592,-71.90706334,234.300003051758,2012-02-12 17:02:15
0.857000112533569,44.35490592,-71.90706334,234.300003051758,2012-02-12 17:02:16
1.0019998550415,44.3549059,-71.90706327,234.300003051758,2012-02-12 17:02:17
1.00600004196167,44.35490589,-71.90706327,234.300003051758,2012-02-12 17:02:18
0.993000030517578,44.35490589,-71.90706325,234.300003051758,2012-02-12 17:02:19
1.00099992752075,44.35490591,-71.90706329,234.300003051758,2012-02-12 17:02:20
0.999000072479248,44.3549059,-71.90706324,234.300003051758,2012-02-12 17:02:21
1,44.3549059,-71.90706323,234.300003051758,2012-02-12 17:02:22
1.00600004196167,44.35490588,-71.90706316,234.300003051758,2012-02-12 17:02:23
0.994999885559082,44.35490585,-71.90706309,234.300003051758,2012-02-12 17:02:24
1.0770001411438,44.35490585,-71.9070631,234.199996948242,2012-02-12 17:02:25
0.925999879837036,44.35490585,-71.90706311,234.199996948242,2012-02-12 17:02:26
1,44.3549058,-71.90706293,234.199996948242,2012-02-12 17:02:27
1.00300002098083,44.3549058,-71.90706291,234.199996948242,2012-02-12 17:02:28
1.00200009346008,44.35490571,-71.90706268,234.199996948242,2012-02-12 17:02:29
0.998999834060669,44.35490573,-71.90706272,234.199996948242,2012-02-12 17:02:30
0.993000030517578,44.35490573,-71.90706275,234.199996948242,2012-02-12 17:02:31
1.00100016593933,44.35490572,-71.90706272,234.199996948242,2012-02-12 17:02:32
1.00699996948242,44.35490569,-71.90706266,234.300003051758,2012-02-12 17:02:33
0.993000030517578,44.35490569,-71.90706268,234.199996948242,2012-02-12 17:02:34
0.998999834060669,44.3549057,-71.90706271,234.300003051758,2012-02-12 17:02:35
0.999000072479248,44.3549057,-71.90706271,234.300003051758,2012-02-12 17:02:36
1.00699996948242,44.35490574,-71.90706282,234.300003051758,2012-02-12 17:02:37
0.99399995803833,44.35490576,-71.90706291,234.199996948242,2012-02-12 17:02:38
1.00800013542175,44.35490573,-71.90706279,234.199996948242,2012-02-12 17:02:39
0.994999885559082,44.35490573,-71.90706277,234.199996948242,2012-02-12 17:02:40
0.999000072479248,44.35490575,-71.90706281,234.199996948242,2012-02-12 17:02:41
1.00600004196167,44.35490573,-71.90706277,234.199996948242,2012-02-12 17:02:42
0.997999906539917,44.35490574,-71.9070628,234.199996948242,2012-02-12 17:02:43
0.995000123977661,44.35490569,-71.90706273,234.199996948242,2012-02-12 17:02:44
1.00099992752075,44.35490567,-71.9070627,234.199996948242,2012-02-12 17:02:45
1.03299999237061,44.35490566,-71.90706266,234.199996948242,2012-02-12 17:02:46
0.964999914169312,44.35490558,-71.90706248,234.300003051758,2012-02-12 17:02:47
1.00699996948242,44.35490554,-71.90706246,234.199996948242,2012-02-12 17:02:48
1,44.35490554,-71.90706249,234.199996948242,2012-02-12 17:02:49
0.993000030517578,44.35490556,-71.90706252,234.199996948242,2012-02-12 17:02:50
1.00800013542175,44.3549056,-71.90706261,234.199996948242,2012-02-12 17:02:51
1.01999998092651,44.35490559,-71.90706259,234.199996948242,2012-02-12 17:02:52
0.974999904632568,44.35490558,-71.90706262,234.199996948242,2012-02-12 17:02:53
0.996999979019165,44.35490556,-71.9070625,234.199996948242,2012-02-12 17:02:54
1.00200009346008,44.35490557,-71.90706253,234.199996948242,2012-02-12 17:02:55
0.996999979019165,44.35490559,-71.90706258,234.199996948242,2012-02-12 17:02:56
1.00300002098083,44.35490559,-71.90706259,234.199996948242,2012-02-12 17:02:57
1.00399994850159,44.35490556,-71.9070625,234.199996948242,2012-02-12 17:02:58
1,44.35490554,-71.90706245,234.199996948242,2012-02-12 17:02:59
0.99399995803833,44.35490553,-71.90706244,234.199996948242,2012-02-12 17:03:00
1.00200009346008,44.3549055,-71.90706236,234.199996948242,2012-02-12 17:03:01
0.997999906539917,44.3549055,-71.90706235,234.199996948242,2012-02-12 17:03:02
0.998000144958496,44.3549055,-71.90706237,234.199996948242,2012-02-12 17:03:03
1.00099992752075,44.35490549,-71.90706233,234.199996948242,2012-02-12 17:03:04
0.999000072479248,44.3549055,-71.90706233,234.199996948242,2012-02-12 17:03:05
0.998999834060669,44.35490551,-71.90706238,234.199996948242,2012-02-12 17:03:06
1,44.3549055,-71.90706233,234.199996948242,2012-02-12 17:03:07
1.0310001373291,44.3549055,-71.90706235,234.199996948242,2012-02-12 17:03:08
0.977999925613403,44.3549055,-71.90706237,234.199996948242,2012-02-12 17:03:09
0.992000102996826,44.35490553,-71.90706244,234.199996948242,2012-02-12 17:03:10
0.997999906539917,44.35490553,-71.90706245,234.199996948242,2012-02-12 17:03:11
1.00300002098083,44.35490555,-71.90706255,234.199996948242,2012-02-12 17:03:12
0.999000072479248,44.35490555,-71.90706252,234.199996948242,2012-02-12 17:03:13
1,44.35490552,-71.90706242,234.199996948242,2012-02-12 17:03:14
1.00099992752075,44.35490552,-71.90706239,234.199996948242,2012-02-12 17:03:15
0.999000072479248,44.35490553,-71.9070624,234.199996948242,2012-02-12 17:03:16
1.03299999237061,44.35490548,-71.90706225,234.199996948242,2012-02-12 17:03:17
1.01600003242493,44.35490546,-71.90706218,234.199996948242,2012-02-12 17:03:18
0.950999975204468,44.35490547,-71.90706219,234.199996948242,2012-02-12 17:03:19
1,44.35490547,-71.9070622,234.199996948242,2012-02-12 17:03:20
1,44.35490549,-71.90706224,234.199996948242,2012-02-12 17:03:21
1,44.3549055,-71.90706226,234.199996948242,2012-02-12 17:03:22
0.998999834060669,44.35490551,-71.90706227,234.199996948242,2012-02-12 17:03:23
1.01600003242493,44.35490553,-71.90706233,234.199996948242,2012-02-12 17:03:24
1.03500008583069,44.35490551,-71.90706225,234.300003051758,2012-02-12 17:03:25
0.950000047683716,44.35490547,-71.90706213,234.300003051758,2012-02-12 17:03:26
1.07399988174438,44.35490543,-71.90706202,234.199996948242,2012-02-12 17:03:27
0.924999952316284,44.35490544,-71.90706202,234.199996948242,2012-02-12 17:03:28
1.00100016593933,44.35490544,-71.90706204,234.300003051758,2012-02-12 17:03:29
1.00899982452393,44.35490544,-71.90706203,234.300003051758,2012-02-12 17:03:30
0.999000072479248,44.35490544,-71.90706201,234.300003051758,2012-02-12 17:03:31
0.99399995803833,44.35490543,-71.90706196,234.300003051758,2012-02-12 17:03:32
1.00200009346008,44.35490543,-71.90706193,234.300003051758,2012-02-12 17:03:33
0.996999979019165,44.35490544,-71.90706193,234.300003051758,2012-02-12 17:03:34
1.00600004196167,44.35490544,-71.90706195,234.300003051758,2012-02-12 17:03:35
0.991999864578247,44.3549054,-71.90706179,234.300003051758,2012-02-12 17:03:36
1.00100016593933,44.3549054,-71.90706177,234.300003051758,2012-02-12 17:03:37
0.994999885559082,44.3549054,-71.90706178,234.300003051758,2012-02-12 17:03:38
1.00500011444092,44.3549054,-71.90706181,234.300003051758,2012-02-12 17:03:39
1,44.35490543,-71.90706186,234.300003051758,2012-02-12 17:03:40
1.00399994850159,44.35490542,-71.90706181,234.300003051758,2012-02-12 17:03:41
0.997999906539917,44.35490543,-71.90706182,234.300003051758,2012-02-12 17:03:42
1.00500011444092,44.35490538,-71.90706165,234.300003051758,2012-02-12 17:03:43
0.993000030517578,44.35490538,-71.90706163,234.300003051758,2012-02-12 17:03:44
1.00799989700317,44.3549054,-71.90706171,234.300003051758,2012-02-12 17:03:45
1.01699995994568,44.35490544,-71.90706187,234.300003051758,2012-02-12 17:03:46
0.985000133514404,44.35490544,-71.90706191,234.300003051758,2012-02-12 17:03:47
1.02999997138977,44.35490543,-71.90706187,234.300003051758,2012-02-12 17:03:48
0.970999956130981,44.35490543,-71.90706185,234.300003051758,2012-02-12 17:03:49
0.996999979019165,44.35490542,-71.90706184,234.300003051758,2012-02-12 17:03:50
1,44.35490544,-71.90706189,234.300003051758,2012-02-12 17:03:51
0.992000102996826,44.35490543,-71.90706186,234.300003051758,2012-02-12 17:03:52
1.00899982452393,44.35490542,-71.90706187,234.300003051758,2012-02-12 17:03:53
0.990000009536743,44.35490541,-71.90706184,234.300003051758,2012-02-12 17:03:54
1.00200009346008,44.3549054,-71.90706179,234.300003051758,2012-02-12 17:03:55
1.00099992752075,44.35490539,-71.90706178,234.300003051758,2012-02-12 17:03:56
0.999000072479248,44.35490539,-71.90706178,234.300003051758,2012-02-12 17:03:57
30.1489999294281,44.35490538,-71.9070618,234.300003051758,2012-02-12 17:04:27
29.9820001125336,44.35490541,-71.90706215,234.300003051758,2012-02-12 17:04:57
19.9079999923706,44.35490555,-71.90706281,234.199996948242,2012-02-12 17:05:17
0.98799991607666,44.35490555,-71.90706284,234.199996948242,2012-02-12 17:05:18
0.973000049591064,44.35490556,-71.90706286,234.199996948242,2012-02-12 17:05:19
1.00300002098083,44.35490554,-71.90706279,234.199996948242,2012-02-12 17:05:20
1.06599998474121,44.35490554,-71.90706277,234.199996948242,2012-02-12 17:05:21
0.930999994277954,44.35490554,-71.90706278,234.199996948242,2012-02-12 17:05:22
1.00500011444092,44.35490555,-71.90706279,234.199996948242,2012-02-12 17:05:23
0.995999813079834,44.35490557,-71.90706282,234.199996948242,2012-02-12 17:05:24
1.01200008392334,44.35490557,-71.90706281,234.199996948242,2012-02-12 17:05:25
0.989000082015991,44.35490557,-71.9070628,234.199996948242,2012-02-12 17:05:26
1.00499987602234,44.35490556,-71.90706281,234.199996948242,2012-02-12 17:05:27
0.993000030517578,44.35490557,-71.90706284,234.199996948242,2012-02-12 17:05:28
1.00099992752075,44.35490556,-71.9070628,234.199996948242,2012-02-12 17:05:29
0.999000072479248,44.35490556,-71.9070628,234.199996948242,2012-02-12 17:05:30
1.00300002098083,44.35490556,-71.90706279,234.199996948242,2012-02-12 17:05:31
2.00300002098083,44.35490557,-71.90706287,234.199996948242,2012-02-12 17:05:33
1.00099992752075,44.35490559,-71.90706296,234.199996948242,2012-02-12 17:05:34
1.00099992752075,44.35490558,-71.90706296,234.199996948242,2012-02-12 17:05:35
0.994000196456909,44.35490559,-71.90706298,234.199996948242,2012-02-12 17:05:36
0.996999979019165,44.35490559,-71.907063,234.199996948242,2012-02-12 17:05:37
1,44.3549056,-71.90706304,234.199996948242,2012-02-12 17:05:38
1,44.35490558,-71.907063,234.199996948242,2012-02-12 17:05:39
1.00600004196167,44.35490556,-71.90706295,234.199996948242,2012-02-12 17:05:40
0.997999906539917,44.35490562,-71.90706314,234.199996948242,2012-02-12 17:05:41
0.996000051498413,44.35490564,-71.9070632,234.199996948242,2012-02-12 17:05:42
1.00899982452393,44.35490564,-71.90706319,234.199996948242,2012-02-12 17:05:43
0.998000144958496,44.35490564,-71.90706319,234.199996948242,2012-02-12 17:05:44
1.00999999046326,44.35490561,-71.90706311,234.199996948242,2012-02-12 17:05:45
0.986999988555908,44.35490557,-71.90706298,234.199996948242,2012-02-12 17:05:46
0.996000051498413,44.35490559,-71.90706306,234.199996948242,2012-02-12 17:05:47
1.00699996948242,44.35490561,-71.90706316,234.199996948242,2012-02-12 17:05:48
0.994999885559082,44.35490567,-71.90706331,234.199996948242,2012-02-12 17:05:49
0.998000144958496,44.35490572,-71.90706347,234.199996948242,2012-02-12 17:05:50
1.00099992752075,44.35490572,-71.90706349,234.199996948242,2012-02-12 17:05:51
1.04699993133545,44.35490574,-71.90706357,234.199996948242,2012-02-12 17:05:52
0.960999965667725,44.35490575,-71.90706361,234.199996948242,2012-02-12 17:05:53
0.994000196456909,44.35490578,-71.90706365,234.199996948242,2012-02-12 17:05:54
1.00099992752075,44.35490576,-71.90706362,234.199996948242,2012-02-12 17:05:55
1.00399994850159,44.35490574,-71.90706355,234.199996948242,2012-02-12 17:05:56
0.999000072479248,44.35490575,-71.90706359,234.199996948242,2012-02-12 17:05:57
1.0019998550415,44.35490576,-71.90706365,234.199996948242,2012-02-12 17:05:58
0.995000123977661,44.35490576,-71.90706363,234.199996948242,2012-02-12 17:05:59
1.09400010108948,44.35490576,-71.90706361,234.199996948242,2012-02-12 17:06:00
0.903999805450439,44.35490577,-71.90706366,234.199996948242,2012-02-12 17:06:01
1.00800013542175,44.35490578,-71.90706365,234.199996948242,2012-02-12 17:06:02
0.997999906539917,44.35490576,-71.9070636,234.199996948242,2012-02-12 17:06:03
0.998000144958496,44.35490569,-71.90706345,234.199996948242,2012-02-12 17:06:04
1.00799989700317,44.35490569,-71.90706342,234.199996948242,2012-02-12 17:06:05
1.00699996948242,44.35490566,-71.90706338,234.199996948242,2012-02-12 17:06:06
0.980999946594238,44.35490564,-71.90706331,234.199996948242,2012-02-12 17:06:07
1.00699996948242,44.35490564,-71.90706335,234.199996948242,2012-02-12 17:06:08
0.993000030517578,44.35490564,-71.90706334,234.199996948242,2012-02-12 17:06:09
1,44.35490566,-71.90706338,234.199996948242,2012-02-12 17:06:10
1.0090000629425,44.35490565,-71.90706335,234.199996948242,2012-02-12 17:06:11
0.999000072479248,44.3549056,-71.90706321,234.199996948242,2012-02-12 17:06:12
0.99399995803833,44.3549056,-71.90706321,234.199996948242,2012-02-12 17:06:13
0.996999979019165,44.3549056,-71.90706322,234.199996948242,2012-02-12 17:06:14
1.00099992752075,44.35490561,-71.90706321,234.199996948242,2012-02-12 17:06:15
1,44.35490566,-71.90706335,234.199996948242,2012-02-12 17:06:16
1.00600004196167,44.35490564,-71.90706325,234.199996948242,2012-02-12 17:06:17
1.03900003433228,44.35490562,-71.90706321,234.199996948242,2012-02-12 17:06:18
0.960999965667725,44.35490559,-71.90706313,234.199996948242,2012-02-12 17:06:19
0.996000051498413,44.35490559,-71.90706313,234.199996948242,2012-02-12 17:06:20
1,44.3549056,-71.90706318,234.199996948242,2012-02-12 17:06:21
1.00399994850159,44.35490554,-71.90706302,234.199996948242,2012-02-12 17:06:22
1.02999997138977,44.35490548,-71.90706283,234.199996948242,2012-02-12 17:06:23
0.970999956130981,44.35490545,-71.90706273,234.199996948242,2012-02-12 17:06:24
1.00300002098083,44.35490545,-71.90706276,234.199996948242,2012-02-12 17:06:25
1.00600004196167,44.35490546,-71.9070628,234.199996948242,2012-02-12 17:06:26
1.01500010490417,44.35490547,-71.90706281,234.199996948242,2012-02-12 17:06:27
0.984999895095825,44.35490548,-71.90706287,234.199996948242,2012-02-12 17:06:28
0.996000051498413,44.35490545,-71.90706283,234.199996948242,2012-02-12 17:06:29
0.990000009536743,44.35490545,-71.90706282,234.199996948242,2012-02-12 17:06:30
1.00200009346008,44.35490549,-71.90706297,234.199996948242,2012-02-12 17:06:31
1.00099992752075,44.35490553,-71.90706308,234.199996948242,2012-02-12 17:06:32
1.01199984550476,44.35490554,-71.90706319,234.199996948242,2012-02-12 17:06:33
0.985000133514404,44.35490556,-71.90706325,234.199996948242,2012-02-12 17:06:34
0.997999906539917,44.35490561,-71.90706341,234.199996948242,2012-02-12 17:06:35
1.00600004196167,44.35490563,-71.90706347,234.199996948242,2012-02-12 17:06:36
1.01300001144409,44.35490563,-71.90706347,234.199996948242,2012-02-12 17:06:37
0.983000040054321,44.35490561,-71.90706341,234.199996948242,2012-02-12 17:06:38
1,44.3549056,-71.90706339,234.199996948242,2012-02-12 17:06:39
1.00099992752075,44.35490559,-71.9070634,234.199996948242,2012-02-12 17:06:40
1.00399994850159,44.3549056,-71.90706338,234.199996948242,2012-02-12 17:06:41
0.995000123977661,44.35490559,-71.90706337,234.199996948242,2012-02-12 17:06:42
1.03600001335144,44.35490559,-71.90706334,234.199996948242,2012-02-12 17:06:43
0.968999862670898,44.35490558,-71.90706333,234.199996948242,2012-02-12 17:06:44
0.998000144958496,44.35490559,-71.90706339,234.199996948242,2012-02-12 17:06:45
1.00099992752075,44.35490557,-71.90706335,234.199996948242,2012-02-12 17:06:46
1,44.35490555,-71.90706329,234.199996948242,2012-02-12 17:06:47
0.996000051498413,44.35490555,-71.90706327,234.199996948242,2012-02-12 17:06:48
1.00300002098083,44.35490554,-71.90706322,234.199996948242,2012-02-12 17:06:49
0.994999885559082,44.35490554,-71.90706318,234.199996948242,2012-02-12 17:06:50
1.00699996948242,44.35490555,-71.90706318,234.199996948242,2012-02-12 17:06:51
0.998000144958496,44.35490554,-71.90706318,234.199996948242,2012-02-12 17:06:52
1.00099992752075,44.35490557,-71.90706316,234.100006103516,2012-02-12 17:06:53
1.01900005340576,44.35490561,-71.90706332,234.100006103516,2012-02-12 17:06:54
0.983000040054321,44.35490567,-71.9070635,234.100006103516,2012-02-12 17:06:55
1.00999999046326,44.35490571,-71.90706371,234.199996948242,2012-02-12 17:06:56
0.983999967575073,44.35490573,-71.90706377,234.199996948242,2012-02-12 17:06:57
1.02300000190735,44.35490577,-71.9070639,234.199996948242,2012-02-12 17:06:58
1.03200006484985,44.35490576,-71.90706387,234.199996948242,2012-02-12 17:06:59
0.949999809265137,44.35490577,-71.90706392,234.199996948242,2012-02-12 17:07:00
1.00100016593933,44.35490578,-71.90706394,234.199996948242,2012-02-12 17:07:01
0.998999834060669,44.35490579,-71.90706397,234.100006103516,2012-02-12 17:07:02
1.00100016593933,44.35490581,-71.90706403,234.100006103516,2012-02-12 17:07:03
1.02900004386902,44.35490584,-71.90706414,234.100006103516,2012-02-12 17:07:04
1.02199983596802,44.35490585,-71.90706416,234.100006103516,2012-02-12 17:07:05
0.949000120162964,44.35490585,-71.90706414,234.100006103516,2012-02-12 17:07:06
1,44.35490583,-71.90706408,234.100006103516,2012-02-12 17:07:07
1.99799990653992,44.35490585,-71.90706408,234.100006103516,2012-02-12 17:07:09
1.00099992752075,44.35490585,-71.90706407,234.100006103516,2012-02-12 17:07:10
0.998000144958496,44.35490584,-71.90706407,234.100006103516,2012-02-12 17:07:11
1.0019998550415,44.35490584,-71.90706406,234.100006103516,2012-02-12 17:07:12
1.00400018692017,44.35490585,-71.90706408,234.100006103516,2012-02-12 17:07:13
0.99399995803833,44.35490585,-71.90706408,234.100006103516,2012-02-12 17:07:14
1.00300002098083,44.35490585,-71.90706408,234.100006103516,2012-02-12 17:07:15
1.00999999046326,44.35490585,-71.90706406,234.100006103516,2012-02-12 17:07:16
1.01099991798401,44.35490587,-71.90706411,234.100006103516,2012-02-12 17:07:17
1.04699993133545,44.35490587,-71.90706411,234.100006103516,2012-02-12 17:07:18
0.930000066757202,44.35490593,-71.90706427,234.100006103516,2012-02-12 17:07:19
1.00099992752075,44.35490596,-71.90706434,234.100006103516,2012-02-12 17:07:20
0.999000072479248,44.35490597,-71.90706438,234.100006103516,2012-02-12 17:07:21
1.0220000743866,44.35490597,-71.90706439,234.100006103516,2012-02-12 17:07:22
0.980999946594238,44.35490594,-71.90706433,234.100006103516,2012-02-12 17:07:23
0.996999979019165,44.35490594,-71.90706432,234.100006103516,2012-02-12 17:07:24
0.998000144958496,44.35490594,-71.90706432,234.100006103516,2012-02-12 17:07:25
1.07399988174438,44.35490596,-71.90706435,234.100006103516,2012-02-12 17:07:26
0.930000066757202,44.35490596,-71.90706436,234.100006103516,2012-02-12 17:07:27
1,44.35490596,-71.90706436,234.100006103516,2012-02-12 17:07:28
0.997999906539917,44.35490595,-71.90706437,234.100006103516,2012-02-12 17:07:29
0.99399995803833,44.35490595,-71.90706436,234.100006103516,2012-02-12 17:07:30
1.00500011444092,44.35490596,-71.90706436,234.100006103516,2012-02-12 17:07:31
1.0019998550415,44.35490596,-71.90706434,234.100006103516,2012-02-12 17:07:32
0.998000144958496,44.35490597,-71.90706435,234.100006103516,2012-02-12 17:07:33
0.996999979019165,44.35490596,-71.90706432,234.100006103516,2012-02-12 17:07:34
1.09400010108948,44.35490593,-71.9070643,234.100006103516,2012-02-12 17:07:35
0.909999847412109,44.3549059,-71.90706424,234.100006103516,2012-02-12 17:07:36
0.99399995803833,44.35490591,-71.9070643,234.100006103516,2012-02-12 17:07:37
1.00400018692017,44.35490593,-71.90706433,234.100006103516,2012-02-12 17:07:38
0.995999813079834,44.35490597,-71.90706444,234.100006103516,2012-02-12 17:07:39
1,44.35490596,-71.90706442,234.100006103516,2012-02-12 17:07:40
1,44.35490597,-71.90706446,234.100006103516,2012-02-12 17:07:41
1.00100016593933,44.35490595,-71.90706444,234.100006103516,2012-02-12 17:07:42
1.00699996948242,44.35490595,-71.90706441,234.100006103516,2012-02-12 17:07:43
0.996000051498413,44.35490595,-71.90706443,234.100006103516,2012-02-12 17:07:44
1.00399994850159,44.35490591,-71.90706429,234.100006103516,2012-02-12 17:07:45
1.00999999046326,44.35490589,-71.90706421,234.100006103516,2012-02-12 17:07:46
0.98199987411499,44.35490589,-71.90706422,234.100006103516,2012-02-12 17:07:47
1.00400018692017,44.35490587,-71.90706419,234.100006103516,2012-02-12 17:07:48
0.998999834060669,44.35490588,-71.90706418,234.100006103516,2012-02-12 17:07:49
0.999000072479248,44.35490586,-71.90706416,234.100006103516,2012-02-12 17:07:50
0.999000072479248,44.35490586,-71.90706415,234.100006103516,2012-02-12 17:07:51
1.00699996948242,44.35490585,-71.90706414,234.100006103516,2012-02-12 17:07:52
1,44.3549058,-71.90706406,234.100006103516,2012-02-12 17:07:53
0.991999864578247,44.35490579,-71.90706404,234.100006103516,2012-02-12 17:07:54
1,44.35490579,-71.90706403,234.100006103516,2012-02-12 17:07:55
0.998000144958496,44.35490578,-71.90706403,234.100006103516,2012-02-12 17:07:56
26.0609998703003,44.35490579,-71.9070642,234.100006103516,2012-02-12 17:08:22
0.943000078201294,44.35490579,-71.90706415,234.100006103516,2012-02-12 17:08:23
0.999000072479248,44.35490581,-71.90706423,234.100006103516,2012-02-12 17:08:24
1.00599980354309,44.35490583,-71.90706425,234.100006103516,2012-02-12 17:08:25
0.999000072479248,44.35490583,-71.90706426,234.100006103516,2012-02-12 17:08:26
1,44.35490581,-71.90706421,234.100006103516,2012-02-12 17:08:27
0.998000144958496,44.35490579,-71.90706415,234.100006103516,2012-02-12 17:08:28
1.00399994850159,44.35490578,-71.90706415,234.100006103516,2012-02-12 17:08:29
0.994999885559082,44.3549058,-71.90706418,234.100006103516,2012-02-12 17:08:30
0.999000072479248,44.35490579,-71.90706414,234.100006103516,2012-02-12 17:08:31
1.00200009346008,44.35490578,-71.90706412,234.100006103516,2012-02-12 17:08:32
0.996999979019165,44.35490575,-71.90706403,234.100006103516,2012-02-12 17:08:33
0.996999979019165,44.35490577,-71.90706406,234.100006103516,2012-02-12 17:08:34
1.00399994850159,44.35490579,-71.90706412,234.100006103516,2012-02-12 17:08:35
1.00600004196167,44.3549058,-71.90706415,234.100006103516,2012-02-12 17:08:36
1.01999998092651,44.35490583,-71.90706422,234.199996948242,2012-02-12 17:08:37
0.970999956130981,44.35490587,-71.90706435,234.199996948242,2012-02-12 17:08:38
1.00099992752075,44.35490588,-71.90706437,234.199996948242,2012-02-12 17:08:39
1.00699996948242,44.35490587,-71.90706433,234.199996948242,2012-02-12 17:08:40
1.00999999046326,44.35490587,-71.90706431,234.199996948242,2012-02-12 17:08:41
0.984000205993652,44.35490585,-71.90706427,234.199996948242,2012-02-12 17:08:42
1.0019998550415,44.35490587,-71.90706432,234.199996948242,2012-02-12 17:08:43
0.998000144958496,44.35490588,-71.90706435,234.199996948242,2012-02-12 17:08:44
1.0019998550415,44.35490587,-71.90706434,234.199996948242,2012-02-12 17:08:45
0.996000051498413,44.35490587,-71.90706433,234.199996948242,2012-02-12 17:08:46
1.06900000572205,44.35490584,-71.90706424,234.199996948242,2012-02-12 17:08:47
0.930000066757202,44.35490585,-71.90706429,234.199996948242,2012-02-12 17:08:48
1.00099992752075,44.35490581,-71.90706415,234.199996948242,2012-02-12 17:08:49
1,44.35490581,-71.90706413,234.199996948242,2012-02-12 17:08:50
0.999000072479248,44.35490575,-71.90706397,234.199996948242,2012-02-12 17:08:51
1.00799989700317,44.35490567,-71.90706374,234.199996948242,2012-02-12 17:08:52
0.999000072479248,44.35490563,-71.90706361,234.199996948242,2012-02-12 17:08:53
1.0019998550415,44.35490559,-71.90706349,234.199996948242,2012-02-12 17:08:54
0.998000144958496,44.35490555,-71.9070634,234.199996948242,2012-02-12 17:08:55
1.00699996948242,44.35490557,-71.90706342,234.199996948242,2012-02-12 17:08:56
1.0090000629425,44.35490555,-71.90706337,234.199996948242,2012-02-12 17:08:57
0.996999979019165,44.35490553,-71.90706331,234.199996948242,2012-02-12 17:08:58
0.98199987411499,44.35490552,-71.90706329,234.199996948242,2012-02-12 17:08:59
1.02999997138977,44.35490551,-71.90706333,234.199996948242,2012-02-12 17:09:00
0.975000143051147,44.35490551,-71.90706334,234.199996948242,2012-02-12 17:09:01
1.0019998550415,44.35490548,-71.90706329,234.199996948242,2012-02-12 17:09:02
0.999000072479248,44.35490549,-71.90706332,234.199996948242,2012-02-12 17:09:03
1.00300002098083,44.35490549,-71.90706336,234.199996948242,2012-02-12 17:09:04
0.993000030517578,44.35490553,-71.90706345,234.199996948242,2012-02-12 17:09:05
0.997999906539917,44.35490556,-71.90706354,234.199996948242,2012-02-12 17:09:06
1.00699996948242,44.35490556,-71.90706356,234.199996948242,2012-02-12 17:09:07
0.998000144958496,44.35490559,-71.90706363,234.199996948242,2012-02-12 17:09:08
0.996999979019165,44.3549056,-71.90706368,234.199996948242,2012-02-12 17:09:09
1.00600004196167,44.35490561,-71.90706368,234.199996948242,2012-02-12 17:09:10
1.02300000190735,44.35490557,-71.90706357,234.199996948242,2012-02-12 17:09:11
0.991999864578247,44.35490553,-71.90706345,234.199996948242,2012-02-12 17:09:12
0.976999998092651,44.35490553,-71.90706346,234.199996948242,2012-02-12 17:09:13
1.00699996948242,44.35490553,-71.90706342,234.199996948242,2012-02-12 17:09:14
0.998000144958496,44.35490553,-71.90706342,234.199996948242,2012-02-12 17:09:15
1.00300002098083,44.35490549,-71.90706331,234.199996948242,2012-02-12 17:09:16
0.990000009536743,44.35490548,-71.90706326,234.199996948242,2012-02-12 17:09:17
1.11899995803833,44.35490543,-71.90706311,234.199996948242,2012-02-12 17:09:18
0.881999969482422,44.35490542,-71.90706309,234.199996948242,2012-02-12 17:09:19
1.00300002098083,44.35490544,-71.90706314,234.199996948242,2012-02-12 17:09:20
1.00600004196167,44.3549054,-71.90706304,234.199996948242,2012-02-12 17:09:21
0.991999864578247,44.35490536,-71.90706291,234.199996948242,2012-02-12 17:09:22
1.00500011444092,44.35490539,-71.90706305,234.199996948242,2012-02-12 17:09:23
1.0019998550415,44.3549054,-71.90706307,234.199996948242,2012-02-12 17:09:24
1.00100016593933,44.35490544,-71.90706317,234.199996948242,2012-02-12 17:09:25
1,44.35490544,-71.90706318,234.199996948242,2012-02-12 17:09:26
1.00099992752075,44.35490544,-71.90706321,234.199996948242,2012-02-12 17:09:27
0.996000051498413,44.35490543,-71.90706318,234.199996948242,2012-02-12 17:09:28
1,44.35490545,-71.90706324,234.199996948242,2012-02-12 17:09:29
1.00099992752075,44.35490546,-71.90706329,234.199996948242,2012-02-12 17:09:30
1.00300002098083,44.35490548,-71.90706337,234.199996948242,2012-02-12 17:09:31
0.990999937057495,44.35490551,-71.90706345,234.199996948242,2012-02-12 17:09:32
1.00600004196167,44.3549055,-71.90706344,234.199996948242,2012-02-12 17:09:33
0.992000102996826,44.35490551,-71.90706345,234.199996948242,2012-02-12 17:09:34
1.00799989700317,44.35490547,-71.90706336,234.199996948242,2012-02-12 17:09:35
0.99399995803833,44.35490548,-71.9070634,234.199996948242,2012-02-12 17:09:36
1.00300002098083,44.35490549,-71.90706343,234.199996948242,2012-02-12 17:09:37
1.00300002098083,44.35490552,-71.90706355,234.199996948242,2012-02-12 17:09:38
1.05200004577637,44.35490552,-71.90706357,234.199996948242,2012-02-12 17:09:39
0.944999933242798,44.35490555,-71.90706369,234.199996948242,2012-02-12 17:09:40
1.00500011444092,44.35490558,-71.90706378,234.199996948242,2012-02-12 17:09:41
0.996999979019165,44.35490562,-71.9070639,234.199996948242,2012-02-12 17:09:42
1.01799988746643,44.35490562,-71.90706393,234.100006103516,2012-02-12 17:09:43
0.976999998092651,44.35490565,-71.90706403,234.100006103516,2012-02-12 17:09:44
1,44.35490565,-71.90706404,234.100006103516,2012-02-12 17:09:45
0.999000072479248,44.35490568,-71.90706414,234.100006103516,2012-02-12 17:09:46
0.999000072479248,44.35490565,-71.90706404,234.100006103516,2012-02-12 17:09:47
1.00399994850159,44.35490564,-71.907064,234.100006103516,2012-02-12 17:09:48
1.00200009346008,44.35490565,-71.90706402,234.100006103516,2012-02-12 17:09:49
0.997999906539917,44.35490564,-71.90706397,234.100006103516,2012-02-12 17:09:50
1.00399994850159,44.35490562,-71.90706394,234.100006103516,2012-02-12 17:09:51
0.993000030517578,44.35490561,-71.90706391,234.100006103516,2012-02-12 17:09:52
1.00600004196167,44.35490561,-71.90706387,234.100006103516,2012-02-12 17:09:53
0.993000030517578,44.35490561,-71.90706388,234.100006103516,2012-02-12 17:09:54
1.00699996948242,44.35490559,-71.90706378,234.100006103516,2012-02-12 17:09:55
1.00300002098083,44.35490561,-71.90706383,234.100006103516,2012-02-12 17:09:56
0.990000009536743,44.35490562,-71.90706387,234.100006103516,2012-02-12 17:09:57
1.00099992752075,44.35490567,-71.90706402,234.100006103516,2012-02-12 17:09:58
1.00099992752075,44.35490566,-71.90706397,234.100006103516,2012-02-12 17:09:59
1.09400010108948,44.35490566,-71.90706397,234.100006103516,2012-02-12 17:10:00
0.907999992370605,44.35490566,-71.90706397,234.100006103516,2012-02-12 17:10:01
0.994999885559082,44.35490569,-71.90706407,234.100006103516,2012-02-12 17:10:02
1.00200009346008,44.35490568,-71.90706403,234.100006103516,2012-02-12 17:10:03
0.997999906539917,44.35490569,-71.90706405,234.100006103516,2012-02-12 17:10:04
1.00100016593933,44.35490569,-71.90706405,234.100006103516,2012-02-12 17:10:05
30.0999999046326,44.35490583,-71.90706454,234.100006103516,2012-02-12 17:10:35
30.0080001354218,44.35490589,-71.90706471,234.100006103516,2012-02-12 17:11:05
16.9349999427795,44.35490606,-71.90706514,234.100006103516,2012-02-12 17:11:22
0.968999862670898,44.35490602,-71.9070651,234.199996948242,2012-02-12 17:11:23
0.992000102996826,44.35490602,-71.9070651,234.100006103516,2012-02-12 17:11:24
1.01999998092651,44.35490605,-71.90706515,234.100006103516,2012-02-12 17:11:25
0.976999998092651,44.35490612,-71.90706537,234.100006103516,2012-02-12 17:11:26
1.00099992752075,44.35490613,-71.90706539,234.100006103516,2012-02-12 17:11:27
1.00800013542175,44.35490616,-71.90706547,234.100006103516,2012-02-12 17:11:28
0.99399995803833,44.35490616,-71.90706546,234.100006103516,2012-02-12 17:11:29
1.00300002098083,44.35490616,-71.90706546,234.100006103516,2012-02-12 17:11:30
1.00099992752075,44.35490611,-71.90706531,234.100006103516,2012-02-12 17:11:31
0.996000051498413,44.35490615,-71.90706536,234.100006103516,2012-02-12 17:11:32
1.01600003242493,44.35490606,-71.90706513,234.100006103516,2012-02-12 17:11:33
0.996000051498413,44.35490609,-71.90706523,234.100006103516,2012-02-12 17:11:34
1.00099992752075,44.3549061,-71.90706523,234.100006103516,2012-02-12 17:11:35
0.99399995803833,44.35490608,-71.90706519,234.100006103516,2012-02-12 17:11:36
1.03699994087219,44.35490603,-71.90706504,234.100006103516,2012-02-12 17:11:37
0.965000152587891,44.35490605,-71.9070651,234.100006103516,2012-02-12 17:11:38
1.00499987602234,44.3549061,-71.90706527,234.100006103516,2012-02-12 17:11:39
1.01200008392334,44.35490612,-71.90706538,234.199996948242,2012-02-12 17:11:40
1,44.35490624,-71.9070657,234.100006103516,2012-02-12 17:11:41
0.971999883651733,44.35490622,-71.90706571,234.100006103516,2012-02-12 17:11:42
1.04200005531311,44.35490609,-71.90706536,234.100006103516,2012-02-12 17:11:43
0.963000059127808,44.35490605,-71.90706526,234.199996948242,2012-02-12 17:11:44
1,44.35490601,-71.90706513,234.199996948242,2012-02-12 17:11:45
0.994999885559082,44.35490599,-71.90706507,234.199996948242,2012-02-12 17:11:46
1.00200009346008,44.35490594,-71.90706498,234.199996948242,2012-02-12 17:11:47
1.00699996948242,44.35490598,-71.90706509,234.199996948242,2012-02-12 17:11:48
0.999000072479248,44.35490602,-71.90706518,234.199996948242,2012-02-12 17:11:49
1.00999999046326,44.35490603,-71.90706521,234.199996948242,2012-02-12 17:11:50
0.983999967575073,44.3549061,-71.90706544,234.199996948242,2012-02-12 17:11:51
1.00300002098083,44.35490611,-71.90706546,234.199996948242,2012-02-12 17:11:52
0.99399995803833,44.35490616,-71.9070656,234.199996948242,2012-02-12 17:11:53
1.00600004196167,44.35490617,-71.9070656,234.199996948242,2012-02-12 17:11:54
1.00099992752075,44.35490621,-71.90706575,234.199996948242,2012-02-12 17:11:55
0.998000144958496,44.35490622,-71.90706578,234.100006103516,2012-02-12 17:11:56
1.00099992752075,44.3549063,-71.90706606,234.100006103516,2012-02-12 17:11:57
0.994999885559082,44.35490633,-71.90706614,234.100006103516,2012-02-12 17:11:58
1,44.35490641,-71.90706632,234.100006103516,2012-02-12 17:11:59
1.06900000572205,44.35490642,-71.90706629,234.100006103516,2012-02-12 17:12:00
0.946000099182129,44.35490647,-71.90706645,234.100006103516,2012-02-12 17:12:01
0.990999937057495,44.35490651,-71.90706657,234.100006103516,2012-02-12 17:12:02
0.996000051498413,44.35490653,-71.90706659,234.100006103516,2012-02-12 17:12:03
1.0460000038147,44.35490651,-71.90706657,234.100006103516,2012-02-12 17:12:04
0.953999996185303,44.35490651,-71.9070666,234.100006103516,2012-02-12 17:12:05
1.00200009346008,44.35490652,-71.90706664,234.100006103516,2012-02-12 17:12:06
1.0019998550415,44.35490648,-71.90706662,234.199996948242,2012-02-12 17:12:07
1.00099992752075,44.3549065,-71.90706666,234.100006103516,2012-02-12 17:12:08
0.998000144958496,44.35490649,-71.90706662,234.100006103516,2012-02-12 17:12:09
1.0019998550415,44.35490647,-71.90706654,234.199996948242,2012-02-12 17:12:10
0.999000072479248,44.35490652,-71.90706664,234.100006103516,2012-02-12 17:12:11
0.99399995803833,44.35490657,-71.90706673,234.100006103516,2012-02-12 17:12:12
1.0090000629425,44.35490657,-71.90706672,234.100006103516,2012-02-12 17:12:13
0.990999937057495,44.35490661,-71.90706676,234.100006103516,2012-02-12 17:12:14
1.00500011444092,44.35490658,-71.90706666,234.100006103516,2012-02-12 17:12:15
0.996999979019165,44.35490656,-71.90706663,234.100006103516,2012-02-12 17:12:16
1.00300002098083,44.35490655,-71.90706661,234.100006103516,2012-02-12 17:12:17
1.04099988937378,44.35490656,-71.90706663,234.100006103516,2012-02-12 17:12:18
0.957000017166138,44.3549066,-71.90706679,234.100006103516,2012-02-12 17:12:19
0.999000072479248,44.35490661,-71.90706686,234.199996948242,2012-02-12 17:12:20
1.00300002098083,44.35490661,-71.90706684,234.199996948242,2012-02-12 17:12:21
1.00300002098083,44.3549066,-71.9070668,234.199996948242,2012-02-12 17:12:22
0.998999834060669,44.35490658,-71.90706675,234.199996948242,2012-02-12 17:12:23
0.993000030517578,44.35490659,-71.90706674,234.199996948242,2012-02-12 17:12:24
1.01500010490417,44.3549066,-71.90706674,234.199996948242,2012-02-12 17:12:25
0.990999937057495,44.35490661,-71.90706677,234.199996948242,2012-02-12 17:12:26
0.996999979019165,44.35490662,-71.90706679,234.199996948242,2012-02-12 17:12:27
1.00300002098083,44.35490665,-71.90706687,234.199996948242,2012-02-12 17:12:28
0.99399995803833,44.35490667,-71.90706697,234.199996948242,2012-02-12 17:12:29
1.00600004196167,44.35490673,-71.9070671,234.199996948242,2012-02-12 17:12:30
1.00200009346008,44.35490676,-71.90706719,234.100006103516,2012-02-12 17:12:31
0.99399995803833,44.35490677,-71.90706719,234.100006103516,2012-02-12 17:12:32
1.00300002098083,44.35490678,-71.90706723,234.100006103516,2012-02-12 17:12:33
0.996000051498413,44.35490677,-71.90706723,234.199996948242,2012-02-12 17:12:34
1.00699996948242,44.3549068,-71.90706727,234.199996948242,2012-02-12 17:12:35
0.991999864578247,44.35490683,-71.90706734,234.199996948242,2012-02-12 17:12:36
1,44.35490684,-71.90706736,234.199996948242,2012-02-12 17:12:37
1.00200009346008,44.35490686,-71.90706742,234.199996948242,2012-02-12 17:12:38
0.997999906539917,44.35490688,-71.90706748,234.199996948242,2012-02-12 17:12:39
1.00600004196167,44.35490689,-71.90706756,234.199996948242,2012-02-12 17:12:40
1.00099992752075,44.35490692,-71.90706764,234.199996948242,2012-02-12 17:12:41
1,44.35490695,-71.90706774,234.199996948242,2012-02-12 17:12:42
0.996000051498413,44.35490695,-71.90706776,234.199996948242,2012-02-12 17:12:43
1.00200009346008,44.35490695,-71.9070678,234.199996948242,2012-02-12 17:12:44
1.06299996376038,44.35490695,-71.9070678,234.199996948242,2012-02-12 17:12:45
0.931999921798706,44.35490698,-71.90706787,234.199996948242,2012-02-12 17:12:46
1.00300002098083,44.35490702,-71.90706796,234.199996948242,2012-02-12 17:12:47
1.00399994850159,44.35490702,-71.90706804,234.199996948242,2012-02-12 17:12:48
0.995000123977661,44.3549071,-71.90706818,234.100006103516,2012-02-12 17:12:49
1,44.35490714,-71.90706833,234.100006103516,2012-02-12 17:12:50
1.00300002098083,44.35490718,-71.90706837,234.100006103516,2012-02-12 17:12:51
1.03200006484985,44.35490724,-71.90706851,234.100006103516,2012-02-12 17:12:52
0.967999935150146,44.35490724,-71.90706852,234.100006103516,2012-02-12 17:12:53
1,44.35490726,-71.9070686,234.100006103516,2012-02-12 17:12:54
0.996999979019165,44.35490731,-71.90706874,234.100006103516,2012-02-12 17:12:55
0.997999906539917,44.35490736,-71.90706883,234.100006103516,2012-02-12 17:12:56
1,44.35490741,-71.90706892,234.100006103516,2012-02-12 17:12:57
1.00500011444092,44.35490749,-71.90706914,234.100006103516,2012-02-12 17:12:58
0.999000072479248,44.35490749,-71.90706915,234.100006103516,2012-02-12 17:12:59
1.0719997882843,44.35490749,-71.90706913,234.100006103516,2012-02-12 17:13:00
0.926000118255615,44.35490748,-71.90706911,234.100006103516,2012-02-12 17:13:01
1,44.35490749,-71.90706912,234.100006103516,2012-02-12 17:13:02
1.00300002098083,44.35490749,-71.90706914,234.100006103516,2012-02-12 17:13:03
1.00300002098083,44.35490746,-71.90706912,234.100006103516,2012-02-12 17:13:04
0.99399995803833,44.35490746,-71.90706914,234.100006103516,2012-02-12 17:13:05
1.00300002098083,44.35490747,-71.90706915,234.100006103516,2012-02-12 17:13:06
1.00099992752075,44.35490747,-71.9070691,234.100006103516,2012-02-12 17:13:07
0.99399995803833,44.35490742,-71.90706902,234.100006103516,2012-02-12 17:13:08
1.00500011444092,44.35490743,-71.90706907,234.100006103516,2012-02-12 17:13:09
1.00099992752075,44.35490747,-71.9070691,234.100006103516,2012-02-12 17:13:10
1.00099992752075,44.35490749,-71.90706915,234.100006103516,2012-02-12 17:13:11
0.999000072479248,44.3549075,-71.90706917,234.100006103516,2012-02-12 17:13:12
1.00200009346008,44.35490757,-71.90706934,234.100006103516,2012-02-12 17:13:13
1.01300001144409,44.35490759,-71.90706936,234.100006103516,2012-02-12 17:13:14
0.984999895095825,44.3549076,-71.9070694,234.100006103516,2012-02-12 17:13:15
1.08200001716614,44.35490762,-71.90706942,234.100006103516,2012-02-12 17:13:16
0.91700005531311,44.35490764,-71.90706946,234.100006103516,2012-02-12 17:13:17
1.0239999294281,44.35490767,-71.90706954,234.100006103516,2012-02-12 17:13:18
0.976000070571899,44.35490769,-71.90706959,234.100006103516,2012-02-12 17:13:19
1.0019998550415,44.35490767,-71.90706956,234.100006103516,2012-02-12 17:13:20
0.999000072479248,44.35490766,-71.9070695,234.100006103516,2012-02-12 17:13:21
1.16799998283386,44.35490763,-71.90706945,234.100006103516,2012-02-12 17:13:22
0.832000017166138,44.35490761,-71.90706941,234.100006103516,2012-02-12 17:13:23
0.999000072479248,44.35490764,-71.90706948,234.100006103516,2012-02-12 17:13:24
1.03499984741211,44.35490765,-71.90706951,234.100006103516,2012-02-12 17:13:25
0.962000131607056,44.35490767,-71.90706953,234.100006103516,2012-02-12 17:13:26
1.01600003242493,44.35490771,-71.90706961,234.100006103516,2012-02-12 17:13:27
0.98799991607666,44.35490772,-71.90706964,234.100006103516,2012-02-12 17:13:28
0.996999979019165,44.35490772,-71.90706967,234.100006103516,2012-02-12 17:13:29
0.998000144958496,44.35490772,-71.90706965,234.100006103516,2012-02-12 17:13:30
1.00499987602234,44.3549077,-71.90706961,234.100006103516,2012-02-12 17:13:31
1,44.35490771,-71.90706962,234.100006103516,2012-02-12 17:13:32
0.999000072479248,44.35490773,-71.90706973,234.100006103516,2012-02-12 17:13:33
0.997999906539917,44.35490777,-71.90706985,234.100006103516,2012-02-12 17:13:34
0.999000072479248,44.35490778,-71.90706993,234.100006103516,2012-02-12 17:13:35
1.02600002288818,44.35490777,-71.90706993,234.100006103516,2012-02-12 17:13:36
0.973999977111816,44.35490779,-71.90706999,234.100006103516,2012-02-12 17:13:37
0.997999906539917,44.3549078,-71.90707002,234.100006103516,2012-02-12 17:13:38
1.00500011444092,44.35490778,-71.90706995,234.100006103516,2012-02-12 17:13:39
0.999000072479248,44.35490777,-71.90706997,234.100006103516,2012-02-12 17:13:40
1.00299978256226,44.35490778,-71.90707001,234.100006103516,2012-02-12 17:13:41
0.999000072479248,44.35490776,-71.90707001,234.100006103516,2012-02-12 17:13:42
1.00200009346008,44.3549078,-71.90707014,234,2012-02-12 17:13:43
0.998999834060669,44.35490787,-71.90707032,234,2012-02-12 17:13:44
0.995000123977661,44.35490791,-71.90707042,234,2012-02-12 17:13:45
0.997999906539917,44.35490793,-71.90707049,234,2012-02-12 17:13:46
1.06800007820129,44.35490797,-71.90707062,234,2012-02-12 17:13:47
0.937000036239624,44.35490794,-71.90707055,234,2012-02-12 17:13:48
0.996999979019165,44.35490796,-71.90707057,234,2012-02-12 17:13:49
1.00399994850159,44.35490798,-71.90707069,234,2012-02-12 17:13:50
0.99399995803833,44.354908,-71.90707074,234,2012-02-12 17:13:51
1.00800013542175,44.35490801,-71.90707078,234,2012-02-12 17:13:52
0.991999864578247,44.35490804,-71.90707082,234,2012-02-12 17:13:53
1.00600004196167,44.35490805,-71.90707088,234,2012-02-12 17:13:54
0.992000102996826,44.35490801,-71.90707081,234,2012-02-12 17:13:55
1.00799989700317,44.35490804,-71.90707091,234,2012-02-12 17:13:56
0.99399995803833,44.35490804,-71.90707089,234,2012-02-12 17:13:57
1.00600004196167,44.35490806,-71.90707097,234,2012-02-12 17:13:58
1.00200009346008,44.35490811,-71.90707108,234,2012-02-12 17:13:59
0.991999864578247,44.35490812,-71.90707114,234,2012-02-12 17:14:00
1,44.35490812,-71.90707115,234,2012-02-12 17:14:01
0.999000072479248,44.35490811,-71.9070711,234,2012-02-12 17:14:02
1.0090000629425,44.35490812,-71.90707111,234,2012-02-12 17:14:03
0.99399995803833,44.35490811,-71.90707108,234,2012-02-12 17:14:04
0.997999906539917,44.35490809,-71.907071,234,2012-02-12 17:14:05
0.999000072479248,44.35490804,-71.90707083,234,2012-02-12 17:14:06
1.00099992752075,44.35490802,-71.90707078,234,2012-02-12 17:14:07
1.00100016593933,44.35490802,-71.90707077,234,2012-02-12 17:14:08
1.00499987602234,44.35490802,-71.90707083,234,2012-02-12 17:14:09
0.996000051498413,44.35490803,-71.90707088,233.899993896484,2012-02-12 17:14:10
0.999000072479248,44.35490804,-71.90707089,233.899993896484,2012-02-12 17:14:11
1.00399994850159,44.35490803,-71.90707088,233.899993896484,2012-02-12 17:14:12
1,44.35490804,-71.90707091,233.899993896484,2012-02-12 17:14:13
1.00300002098083,44.35490804,-71.90707095,233.899993896484,2012-02-12 17:14:14
0.998999834060669,44.35490807,-71.90707108,233.899993896484,2012-02-12 17:14:15
0.996000051498413,44.35490805,-71.90707102,233.899993896484,2012-02-12 17:14:16
1.00100016593933,44.35490798,-71.90707094,233.899993896484,2012-02-12 17:14:17
1.12399983406067,44.35490798,-71.90707097,233.899993896484,2012-02-12 17:14:18
0.876000165939331,44.35490799,-71.90707101,233.899993896484,2012-02-12 17:14:19
0.995999813079834,44.35490801,-71.90707104,233.899993896484,2012-02-12 17:14:20
0.998000144958496,44.354908,-71.90707101,233.899993896484,2012-02-12 17:14:21
1.02999997138977,44.35490799,-71.90707098,233.899993896484,2012-02-12 17:14:22
1.0220000743866,44.35490799,-71.90707101,233.899993896484,2012-02-12 17:14:23
0.960999965667725,44.354908,-71.90707101,233.899993896484,2012-02-12 17:14:24
0.996999979019165,44.354908,-71.90707102,233.899993896484,2012-02-12 17:14:25
1.00799989700317,44.35490801,-71.90707104,233.899993896484,2012-02-12 17:14:26
1.01200008392334,44.35490801,-71.90707102,233.899993896484,2012-02-12 17:14:27
1.11500000953674,44.35490801,-71.90707102,233.899993896484,2012-02-12 17:14:28
0.853999853134155,44.354908,-71.907071,233.899993896484,2012-02-12 17:14:29
1.00200009346008,44.35490799,-71.90707097,233.899993896484,2012-02-12 17:14:30
1.0090000629425,44.35490799,-71.90707099,233.899993896484,2012-02-12 17:14:31
0.994999885559082,44.35490799,-71.90707097,233.899993896484,2012-02-12 17:14:32
1.00399994850159,44.35490799,-71.90707097,233.899993896484,2012-02-12 17:14:33
0.997000217437744,44.35490796,-71.9070709,233.899993896484,2012-02-12 17:14:34
0.996999979019165,44.35490795,-71.90707089,233.899993896484,2012-02-12 17:14:35
0.997999906539917,44.35490795,-71.90707088,233.899993896484,2012-02-12 17:14:36
0.999000072479248,44.35490795,-71.90707088,233.899993896484,2012-02-12 17:14:37
0.997999906539917,44.35490796,-71.9070709,233.899993896484,2012-02-12 17:14:38
1.00099992752075,44.35490796,-71.90707092,233.899993896484,2012-02-12 17:14:39
1,44.35490796,-71.90707091,233.899993896484,2012-02-12 17:14:40
30.1579999923706,44.35490785,-71.90707071,233.800003051758,2012-02-12 17:15:10
30.0940001010895,44.35490782,-71.90707081,233.800003051758,2012-02-12 17:15:40
6.75799989700317,44.35490774,-71.90707063,233.800003051758,2012-02-12 17:15:47
0.997000217437744,44.35490774,-71.90707064,233.800003051758,2012-02-12 17:15:48
1.00299978256226,44.35490772,-71.9070706,233.800003051758,2012-02-12 17:15:49
0.999000072479248,44.35490771,-71.90707055,233.800003051758,2012-02-12 17:15:50
1.06599998474121,44.35490771,-71.90707057,233.800003051758,2012-02-12 17:15:51
0.934000015258789,44.35490772,-71.90707058,233.800003051758,2012-02-12 17:15:52
0.99399995803833,44.35490774,-71.90707064,233.800003051758,2012-02-12 17:15:53
0.998000144958496,44.35490774,-71.90707067,233.800003051758,2012-02-12 17:15:54
1.00399994850159,44.35490774,-71.90707067,233.800003051758,2012-02-12 17:15:55
1.01200008392334,44.35490772,-71.90707062,233.800003051758,2012-02-12 17:15:56
1.05399990081787,44.35490773,-71.90707065,233.800003051758,2012-02-12 17:15:57
0.936000108718872,44.35490774,-71.90707068,233.800003051758,2012-02-12 17:15:58
0.99399995803833,44.35490775,-71.90707069,233.800003051758,2012-02-12 17:15:59
1.05200004577637,44.35490776,-71.90707076,233.800003051758,2012-02-12 17:16:00
0.95199990272522,44.35490778,-71.90707083,233.800003051758,2012-02-12 17:16:01
1.00300002098083,44.35490778,-71.90707084,233.800003051758,2012-02-12 17:16:02
51.0360000133514,44.35491022,-71.90707682,234.800003051758,2012-02-12 17:16:53
30.0249998569489,44.3549104,-71.9070773,234.800003051758,2012-02-12 17:17:23
30.0390000343323,44.35491057,-71.90707773,234.899993896484,2012-02-12 17:17:53
29.9850001335144,44.35491067,-71.90707816,234.800003051758,2012-02-12 17:18:23
30.0329999923706,44.35491089,-71.90707901,234.699996948242,2012-02-12 17:18:53
30.0189998149872,44.35491057,-71.90707897,234.699996948242,2012-02-12 17:19:23
30.0060000419617,44.35491055,-71.90707906,234.699996948242,2012-02-12 17:19:53
5.85800004005432,44.35491051,-71.9070789,234.699996948242,2012-02-12 17:19:59
1.08599996566772,44.35491052,-71.9070789,234.699996948242,2012-02-12 17:20:00
0.926000118255615,44.35491052,-71.90707887,234.699996948242,2012-02-12 17:20:01
0.98199987411499,44.35491053,-71.90707888,234.699996948242,2012-02-12 17:20:02
0.999000072479248,44.35491054,-71.90707893,234.699996948242,2012-02-12 17:20:03
1.00099992752075,44.35491054,-71.90707894,234.699996948242,2012-02-12 17:20:04
1.00600004196167,44.35491056,-71.90707897,234.699996948242,2012-02-12 17:20:05
1,44.35491057,-71.907079,234.699996948242,2012-02-12 17:20:06
1.00099992752075,44.35491061,-71.90707901,234.600006103516,2012-02-12 17:20:07
1.00100016593933,44.35491062,-71.907079,234.600006103516,2012-02-12 17:20:08
0.990000009536743,44.35491061,-71.90707899,234.600006103516,2012-02-12 17:20:09
1.07299995422363,44.35491064,-71.90707903,234.600006103516,2012-02-12 17:20:10
0.927999973297119,44.35491064,-71.90707899,234.600006103516,2012-02-12 17:20:11
1.06100010871887,44.35491059,-71.90707891,234.600006103516,2012-02-12 17:20:12
0.937999963760376,44.3549106,-71.90707897,234.699996948242,2012-02-12 17:20:13
0.998999834060669,44.3549106,-71.90707895,234.699996948242,2012-02-12 17:20:14
1.01900005340576,44.35491056,-71.9070789,234.699996948242,2012-02-12 17:20:15
0.986999988555908,44.35491055,-71.90707888,234.699996948242,2012-02-12 17:20:16
0.995000123977661,44.35491055,-71.90707888,234.699996948242,2012-02-12 17:20:17
1.04999995231628,44.35491056,-71.90707891,234.699996948242,2012-02-12 17:20:18
1.00300002098083,44.35491056,-71.9070789,234.699996948242,2012-02-12 17:20:19
0.955999851226807,44.3549106,-71.90707902,234.699996948242,2012-02-12 17:20:20
30.1210000514984,44.35491052,-71.90707901,234.699996948242,2012-02-12 17:20:50
10.9320001602173,44.35491032,-71.90707872,234.699996948242,2012-02-12 17:21:01
0.937999963760376,44.35491031,-71.9070787,234.699996948242,2012-02-12 17:21:02
1.00699996948242,44.35491032,-71.90707872,234.699996948242,2012-02-12 17:21:03
0.994999885559082,44.35491032,-71.90707877,234.699996948242,2012-02-12 17:21:04
1.02300000190735,44.3549103,-71.90707873,234.699996948242,2012-02-12 17:21:05
0.979000091552734,44.35491031,-71.90707877,234.699996948242,2012-02-12 17:21:06
1,44.35491031,-71.90707877,234.699996948242,2012-02-12 17:21:07
1.00399994850159,44.35491035,-71.90707881,234.699996948242,2012-02-12 17:21:08
0.99399995803833,44.3549104,-71.90707899,234.699996948242,2012-02-12 17:21:09
1.00200009346008,44.35491042,-71.90707903,234.699996948242,2012-02-12 17:21:10
1.00499987602234,44.35491046,-71.90707912,234.699996948242,2012-02-12 17:21:11
1.07400012016296,44.35491045,-71.90707908,234.699996948242,2012-02-12 17:21:12
0.924000024795532,44.35491046,-71.90707907,234.699996948242,2012-02-12 17:21:13
1.00099992752075,44.35491049,-71.90707909,234.699996948242,2012-02-12 17:21:14
1.0550000667572,44.35491049,-71.90707906,234.699996948242,2012-02-12 17:21:15
0.938999891281128,44.35491052,-71.90707907,234.699996948242,2012-02-12 17:21:16
1.00200009346008,44.35491052,-71.90707905,234.699996948242,2012-02-12 17:21:17
1.05900001525879,44.35491051,-71.90707899,234.699996948242,2012-02-12 17:21:18
0.944000005722046,44.35491048,-71.90707888,234.699996948242,2012-02-12 17:21:19
0.996999979019165,44.35491051,-71.90707885,234.699996948242,2012-02-12 17:21:20
0.999000072479248,44.35491047,-71.90707877,234.699996948242,2012-02-12 17:21:21
1.00499987602234,44.35491049,-71.90707879,234.699996948242,2012-02-12 17:21:22
1.00200009346008,44.35491052,-71.90707881,234.699996948242,2012-02-12 17:21:23
0.991999864578247,44.35491051,-71.90707877,234.699996948242,2012-02-12 17:21:24
1.05000019073486,44.35491052,-71.9070788,234.699996948242,2012-02-12 17:21:25
0.95199990272522,44.35491053,-71.90707884,234.699996948242,2012-02-12 17:21:26
1.00300002098083,44.35491053,-71.90707884,234.699996948242,2012-02-12 17:21:27
0.99399995803833,44.35491049,-71.90707878,234.699996948242,2012-02-12 17:21:28
1.00399994850159,44.35491049,-71.9070788,234.699996948242,2012-02-12 17:21:29
1.00300002098083,44.35491049,-71.9070788,234.699996948242,2012-02-12 17:21:30
1.00200009346008,44.35491054,-71.90707892,234.699996948242,2012-02-12 17:21:31
0.993000030517578,44.35491057,-71.90707895,234.699996948242,2012-02-12 17:21:32
1.00499987602234,44.35491054,-71.90707888,234.699996948242,2012-02-12 17:21:33
0.993000030517578,44.35491055,-71.90707889,234.699996948242,2012-02-12 17:21:34
0.999000072479248,44.35491052,-71.90707884,234.699996948242,2012-02-12 17:21:35
1,44.35491053,-71.90707884,234.699996948242,2012-02-12 17:21:36
0.998999834060669,44.35491054,-71.90707885,234.699996948242,2012-02-12 17:21:37
1.00500011444092,44.35491051,-71.90707882,234.699996948242,2012-02-12 17:21:38
1.00200009346008,44.35491045,-71.90707881,234.699996948242,2012-02-12 17:21:39
1.01399993896484,44.3549104,-71.90707874,234.699996948242,2012-02-12 17:21:40
1.0239999294281,44.35491032,-71.90707863,234.800003051758,2012-02-12 17:21:41
0.960000038146973,44.35491026,-71.90707854,234.800003051758,2012-02-12 17:21:42
1.07500004768372,44.35491025,-71.90707854,234.800003051758,2012-02-12 17:21:43
0.922999858856201,44.3549103,-71.90707859,234.800003051758,2012-02-12 17:21:44
1,44.35491032,-71.90707862,234.800003051758,2012-02-12 17:21:45
1.00300002098083,44.35491033,-71.90707864,234.800003051758,2012-02-12 17:21:46
0.996999979019165,44.35491035,-71.90707869,234.800003051758,2012-02-12 17:21:47
1.00699996948242,44.35491038,-71.90707874,234.699996948242,2012-02-12 17:21:48
0.995000123977661,44.35491037,-71.90707873,234.800003051758,2012-02-12 17:21:49
0.996000051498413,44.35491037,-71.90707871,234.800003051758,2012-02-12 17:21:50
1.00099992752075,44.35491031,-71.90707858,234.800003051758,2012-02-12 17:21:51
1,44.3549103,-71.90707855,234.800003051758,2012-02-12 17:21:52
1,44.35491034,-71.90707864,234.800003051758,2012-02-12 17:21:53
0.999000072479248,44.35491037,-71.90707872,234.800003051758,2012-02-12 17:21:54
1.0019998550415,44.35491035,-71.9070787,234.800003051758,2012-02-12 17:21:55
0.999000072479248,44.35491037,-71.90707872,234.800003051758,2012-02-12 17:21:56
0.999000072479248,44.35491036,-71.90707869,234.800003051758,2012-02-12 17:21:57
1.00099992752075,44.35491037,-71.90707866,234.800003051758,2012-02-12 17:21:58
0.999000072479248,44.35491036,-71.90707868,234.800003051758,2012-02-12 17:21:59
1.00099992752075,44.35491035,-71.90707874,234.800003051758,2012-02-12 17:22:00
1.00500011444092,44.35491032,-71.90707864,234.800003051758,2012-02-12 17:22:01
1.04899978637695,44.35491032,-71.90707863,234.800003051758,2012-02-12 17:22:02
0.945000171661377,44.35491033,-71.90707866,234.800003051758,2012-02-12 17:22:03
1,44.35491032,-71.90707858,234.800003051758,2012-02-12 17:22:04
1,44.35491032,-71.90707857,234.800003051758,2012-02-12 17:22:05
1,44.35491032,-71.90707854,234.800003051758,2012-02-12 17:22:06
1,44.35491032,-71.90707855,234.800003051758,2012-02-12 17:22:07
1,44.35491031,-71.90707852,234.800003051758,2012-02-12 17:22:08
1,44.35491031,-71.90707854,234.800003051758,2012-02-12 17:22:09
1,44.35491036,-71.90707863,234.800003051758,2012-02-12 17:22:10
1.00399994850159,44.35491035,-71.90707865,234.800003051758,2012-02-12 17:22:11
0.996999979019165,44.35491032,-71.90707861,234.800003051758,2012-02-12 17:22:12
0.999000072479248,44.3549103,-71.90707859,234.800003051758,2012-02-12 17:22:13
1.05900001525879,44.35491031,-71.90707866,234.800003051758,2012-02-12 17:22:14
0.949999809265137,44.35491029,-71.90707869,234.800003051758,2012-02-12 17:22:15
0.993000030517578,44.35491025,-71.90707865,234.800003051758,2012-02-12 17:22:16
1.00200009346008,44.35491024,-71.90707864,234.800003051758,2012-02-12 17:22:17
1.07599997520447,44.35491023,-71.90707861,234.800003051758,2012-02-12 17:22:18
0.92300009727478,44.35491018,-71.90707854,234.800003051758,2012-02-12 17:22:19
1,44.35491018,-71.90707853,234.800003051758,2012-02-12 17:22:20
0.998999834060669,44.35491021,-71.90707857,234.800003051758,2012-02-12 17:22:21
1,44.35491017,-71.90707851,234.800003051758,2012-02-12 17:22:22
1.00400018692017,44.35491014,-71.90707847,234.800003051758,2012-02-12 17:22:23
1.00299978256226,44.35491011,-71.9070784,234.800003051758,2012-02-12 17:22:24
1.06800007820129,44.35491005,-71.90707834,234.800003051758,2012-02-12 17:22:25
0.924999952316284,44.35491001,-71.90707828,234.800003051758,2012-02-12 17:22:26
1.00200009346008,44.35490998,-71.90707822,234.800003051758,2012-02-12 17:22:27
1.00399994850159,44.35490994,-71.90707812,234.800003051758,2012-02-12 17:22:28
0.999000072479248,44.35490993,-71.90707812,234.800003051758,2012-02-12 17:22:29
1.0019998550415,44.35490989,-71.90707804,234.800003051758,2012-02-12 17:22:30
0.999000072479248,44.35490985,-71.90707794,234.800003051758,2012-02-12 17:22:31
0.99399995803833,44.35490982,-71.9070779,234.800003051758,2012-02-12 17:22:32
1,44.35490983,-71.9070779,234.800003051758,2012-02-12 17:22:33
1.00699996948242,44.35490984,-71.9070779,234.800003051758,2012-02-12 17:22:34
0.991000175476074,44.35490978,-71.90707778,234.899993896484,2012-02-12 17:22:35
1.00099992752075,44.35490984,-71.90707789,234.800003051758,2012-02-12 17:22:36
1,44.35490984,-71.90707786,234.800003051758,2012-02-12 17:22:37
1.00699996948242,44.35490982,-71.9070778,234.800003051758,2012-02-12 17:22:38
0.996000051498413,44.35490977,-71.90707769,234.899993896484,2012-02-12 17:22:39
1.00300002098083,44.35490977,-71.90707771,234.899993896484,2012-02-12 17:22:40
1.00099992752075,44.35490977,-71.90707771,234.899993896484,2012-02-12 17:22:41
0.996000051498413,44.35490979,-71.90707776,234.899993896484,2012-02-12 17:22:42
0.996000051498413,44.35490984,-71.90707783,234.800003051758,2012-02-12 17:22:43
1.00300002098083,44.35490984,-71.90707783,234.800003051758,2012-02-12 17:22:44
1.07299995422363,44.35490984,-71.90707783,234.800003051758,2012-02-12 17:22:45
0.942999839782715,44.35490984,-71.90707782,234.800003051758,2012-02-12 17:22:46
1.04100012779236,44.3549098,-71.90707775,234.899993896484,2012-02-12 17:22:47
0.940000057220459,44.35490978,-71.9070777,234.899993896484,2012-02-12 17:22:48
1.00799989700317,44.35490975,-71.90707763,234.899993896484,2012-02-12 17:22:49
0.992000102996826,44.35490973,-71.90707759,234.899993896484,2012-02-12 17:22:50
1.0019998550415,44.35490973,-71.90707758,234.899993896484,2012-02-12 17:22:51
0.999000072479248,44.35490974,-71.90707761,234.899993896484,2012-02-12 17:22:52
1.00699996948242,44.35490972,-71.90707757,234.899993896484,2012-02-12 17:22:53
0.99399995803833,44.3549097,-71.90707754,234.899993896484,2012-02-12 17:22:54
30.1119999885559,44.35490976,-71.90707779,234.899993896484,2012-02-12 17:23:24
30.0060000419617,44.35490962,-71.90707754,234.899993896484,2012-02-12 17:23:54
30.0130000114441,44.35490957,-71.90707737,234.899993896484,2012-02-12 17:24:24
29.989000082016,44.35490952,-71.90707733,234.899993896484,2012-02-12 17:24:54
30.0069999694824,44.35490948,-71.90707719,234.899993896484,2012-02-12 17:25:24
30.0469999313354,44.35490929,-71.90707649,234.899993896484,2012-02-12 17:25:54
5.83299994468689,44.35490915,-71.90707621,234.899993896484,2012-02-12 17:26:00
1.00100016593933,44.35490912,-71.90707615,234.899993896484,2012-02-12 17:26:01
1.01199984550476,44.35490916,-71.90707619,234.899993896484,2012-02-12 17:26:02
0.980000019073486,44.35490916,-71.9070762,234.899993896484,2012-02-12 17:26:03
1.00600004196167,44.35490915,-71.90707621,234.899993896484,2012-02-12 17:26:04
1.00200009346008,44.35490911,-71.90707617,234.899993896484,2012-02-12 17:26:05
0.990999937057495,44.35490911,-71.90707618,234.899993896484,2012-02-12 17:26:06
1.0090000629425,44.35490911,-71.90707619,234.899993896484,2012-02-12 17:26:07
1,44.35490906,-71.90707611,234.899993896484,2012-02-12 17:26:08
0.994999885559082,44.35490904,-71.90707606,234.899993896484,2012-02-12 17:26:09
1.00200009346008,44.35490898,-71.90707597,234.899993896484,2012-02-12 17:26:10
0.999000072479248,44.35490898,-71.90707598,234.899993896484,2012-02-12 17:26:11
0.994999885559082,44.35490897,-71.90707597,234.899993896484,2012-02-12 17:26:12
1.0090000629425,44.35490897,-71.90707597,234.899993896484,2012-02-12 17:26:13
0.990999937057495,44.35490896,-71.90707597,234.899993896484,2012-02-12 17:26:14
1.00399994850159,44.35490897,-71.90707597,234.899993896484,2012-02-12 17:26:15
0.996000051498413,44.35490898,-71.90707598,234.899993896484,2012-02-12 17:26:16
1.00300002098083,44.35490898,-71.907076,234.899993896484,2012-02-12 17:26:17
2.00699996948242,44.35490899,-71.90707603,234.899993896484,2012-02-12 17:26:19
0.999000072479248,44.354909,-71.90707606,234.899993896484,2012-02-12 17:26:20
0.990999937057495,44.35490901,-71.90707611,234.899993896484,2012-02-12 17:26:21
1.13100004196167,44.35490901,-71.90707612,234.899993896484,2012-02-12 17:26:22
0.878000020980835,44.35490901,-71.90707614,234.899993896484,2012-02-12 17:26:23
0.991999864578247,44.35490899,-71.90707613,234.899993896484,2012-02-12 17:26:24
0.999000072479248,44.354909,-71.90707617,234.899993896484,2012-02-12 17:26:25
1.00600004196167,44.354909,-71.90707619,234.899993896484,2012-02-12 17:26:26
1,44.354909,-71.90707615,234.899993896484,2012-02-12 17:26:27
1.0019998550415,44.35490899,-71.90707614,234.899993896484,2012-02-12 17:26:28
1.02700018882751,44.35490897,-71.90707607,234.899993896484,2012-02-12 17:26:29
0.984999895095825,44.35490894,-71.90707604,234.899993896484,2012-02-12 17:26:30
0.999000072479248,44.35490895,-71.90707606,234.899993896484,2012-02-12 17:26:31
0.986999988555908,44.35490896,-71.90707608,234.899993896484,2012-02-12 17:26:32
1.0019998550415,44.35490893,-71.90707602,234.899993896484,2012-02-12 17:26:33
11.058000087738,44.35490898,-71.90707624,234.899993896484,2012-02-12 17:26:44
0.934999942779541,44.35490897,-71.9070762,234.899993896484,2012-02-12 17:26:45
1.00200009346008,44.35490895,-71.90707616,234.899993896484,2012-02-12 17:26:46
1.00300002098083,44.35490895,-71.90707615,234.899993896484,2012-02-12 17:26:47
1,44.35490894,-71.90707611,234.899993896484,2012-02-12 17:26:48
1.00399994850159,44.35490892,-71.90707606,234.899993896484,2012-02-12 17:26:49
0.990999937057495,44.35490892,-71.90707605,234.899993896484,2012-02-12 17:26:50
1.00600004196167,44.35490896,-71.9070761,234.899993896484,2012-02-12 17:26:51
1.00200009346008,44.35490894,-71.90707605,234.899993896484,2012-02-12 17:26:52
0.990000009536743,44.35490894,-71.90707602,234.899993896484,2012-02-12 17:26:53
1.0019998550415,44.35490892,-71.90707597,234.899993896484,2012-02-12 17:26:54
1.00600004196167,44.35490892,-71.90707601,234.899993896484,2012-02-12 17:26:55
0.996000051498413,44.35490892,-71.90707603,234.899993896484,2012-02-12 17:26:56
1,44.35490892,-71.90707602,234.899993896484,2012-02-12 17:26:57
1.00200009346008,44.35490892,-71.90707603,234.899993896484,2012-02-12 17:26:58
0.995999813079834,44.35490892,-71.90707604,234.899993896484,2012-02-12 17:26:59
1.06400012969971,44.35490893,-71.90707608,234.899993896484,2012-02-12 17:27:00
0.941999912261963,44.35490894,-71.90707612,234.899993896484,2012-02-12 17:27:01
0.993000030517578,44.35490895,-71.90707613,234.899993896484,2012-02-12 17:27:02
1.00699996948242,44.35490896,-71.90707617,234.899993896484,2012-02-12 17:27:03
1.00699996948242,44.35490897,-71.90707617,234.899993896484,2012-02-12 17:27:04
1.00100016593933,44.35490896,-71.90707616,234.899993896484,2012-02-12 17:27:05
0.98799991607666,44.3549089,-71.90707609,234.899993896484,2012-02-12 17:27:06
0.997999906539917,44.3549089,-71.90707611,234.899993896484,2012-02-12 17:27:07
1.00800013542175,44.35490891,-71.90707616,234.899993896484,2012-02-12 17:27:08
0.99399995803833,44.35490893,-71.90707621,234.899993896484,2012-02-12 17:27:09
1,44.3549089,-71.90707622,234.899993896484,2012-02-12 17:27:10
0.999000072479248,44.35490892,-71.9070763,234.899993896484,2012-02-12 17:27:11
0.997999906539917,44.35490896,-71.90707635,234.899993896484,2012-02-12 17:27:12
1.00200009346008,44.35490896,-71.90707637,234.899993896484,2012-02-12 17:27:13
1.0789999961853,44.35490897,-71.90707643,234.899993896484,2012-02-12 17:27:14
0.924000024795532,44.35490899,-71.90707646,234.899993896484,2012-02-12 17:27:15
1.00799989700317,44.35490902,-71.9070765,234.899993896484,2012-02-12 17:27:16
0.996999979019165,44.35490903,-71.90707652,234.899993896484,2012-02-12 17:27:17
1.03699994087219,44.35490905,-71.90707654,234.899993896484,2012-02-12 17:27:18
30.0299999713898,44.35490893,-71.90707637,234.899993896484,2012-02-12 17:27:48
30.0620000362396,44.35490911,-71.90707656,234.800003051758,2012-02-12 17:28:18
29.9680001735687,44.35490921,-71.90707672,234.800003051758,2012-02-12 17:28:48
16.936999797821,44.35490933,-71.90707702,234.800003051758,2012-02-12 17:29:05
0.959000110626221,44.35490933,-71.90707702,234.800003051758,2012-02-12 17:29:06
1.00499987602234,44.3549093,-71.90707695,234.800003051758,2012-02-12 17:29:07
1.01500010490417,44.35490937,-71.90707706,234.800003051758,2012-02-12 17:29:08
0.979000091552734,44.35490943,-71.90707714,234.800003051758,2012-02-12 17:29:09
1.04099988937378,44.35490945,-71.90707718,234.800003051758,2012-02-12 17:29:10
0.966000080108643,44.35490941,-71.90707708,234.800003051758,2012-02-12 17:29:11
0.991999864578247,44.35490941,-71.90707711,234.800003051758,2012-02-12 17:29:12
1.00500011444092,44.3549094,-71.9070771,234.800003051758,2012-02-12 17:29:13
0.994999885559082,44.35490944,-71.90707716,234.800003051758,2012-02-12 17:29:14
0.999000072479248,44.35490949,-71.90707723,234.800003051758,2012-02-12 17:29:15
0.999000072479248,44.35490949,-71.90707723,234.800003051758,2012-02-12 17:29:16
1.00799989700317,44.35490949,-71.90707723,234.800003051758,2012-02-12 17:29:17
1.15199995040894,44.35490953,-71.90707729,234.800003051758,2012-02-12 17:29:18
0.842000007629395,44.35490954,-71.90707733,234.800003051758,2012-02-12 17:29:19
1.00600004196167,44.35490954,-71.90707735,234.800003051758,2012-02-12 17:29:20
1.0220000743866,44.35490955,-71.90707737,234.800003051758,2012-02-12 17:29:21
1.0479998588562,44.35490953,-71.90707732,234.800003051758,2012-02-12 17:29:22
0.922000169754028,44.35490952,-71.90707731,234.800003051758,2012-02-12 17:29:23
1.00399994850159,44.35490952,-71.90707731,234.800003051758,2012-02-12 17:29:24
0.996999979019165,44.35490949,-71.90707726,234.800003051758,2012-02-12 17:29:25
1.01300001144409,44.35490953,-71.90707733,234.800003051758,2012-02-12 17:29:26
0.986999988555908,44.35490957,-71.90707738,234.800003051758,2012-02-12 17:29:27
6.0090000629425,44.35490992,-71.90707795,234.699996948242,2012-02-12 17:29:33
2,44.35491013,-71.90707828,234.699996948242,2012-02-12 17:29:35
0.997999906539917,44.35491015,-71.90707833,234.699996948242,2012-02-12 17:29:36
30.0360000133514,44.35491021,-71.90707884,234.600006103516,2012-02-12 17:30:06
4.96399998664856,44.35491021,-71.90707895,234.600006103516,2012-02-12 17:30:11
0.999000072479248,44.3549102,-71.90707896,234.600006103516,2012-02-12 17:30:12
1,44.35491019,-71.90707889,234.600006103516,2012-02-12 17:30:13
1,44.35491018,-71.90707886,234.600006103516,2012-02-12 17:30:14
1,44.35491017,-71.90707884,234.600006103516,2012-02-12 17:30:15
0.996999979019165,44.35491017,-71.90707888,234.600006103516,2012-02-12 17:30:16
1.00600004196167,44.35491011,-71.90707881,234.600006103516,2012-02-12 17:30:17
1.03399991989136,44.35491006,-71.90707874,234.600006103516,2012-02-12 17:30:18
0.96399998664856,44.35491011,-71.90707881,234.600006103516,2012-02-12 17:30:19
1.00200009346008,44.35491013,-71.90707884,234.600006103516,2012-02-12 17:30:20
1,44.35491012,-71.90707884,234.600006103516,2012-02-12 17:30:21
0.997999906539917,44.35491011,-71.90707883,234.600006103516,2012-02-12 17:30:22
1.00099992752075,44.35491007,-71.90707877,234.600006103516,2012-02-12 17:30:23
0.999000072479248,44.35491012,-71.90707888,234.600006103516,2012-02-12 17:30:24
1.05200004577637,44.35491012,-71.9070789,234.600006103516,2012-02-12 17:30:25
0.941999912261963,44.35491017,-71.907079,234.600006103516,2012-02-12 17:30:26
1.00600004196167,44.35491017,-71.907079,234.600006103516,2012-02-12 17:30:27
1.00200009346008,44.35491017,-71.90707901,234.600006103516,2012-02-12 17:30:28
1.00899982452393,44.35491013,-71.90707896,234.600006103516,2012-02-12 17:30:29
1.09600019454956,44.35491013,-71.90707898,234.600006103516,2012-02-12 17:30:30
0.893999814987183,44.35491017,-71.90707909,234.600006103516,2012-02-12 17:30:31
1,44.35491021,-71.90707913,234.600006103516,2012-02-12 17:30:32
0.995000123977661,44.3549102,-71.90707915,234.600006103516,2012-02-12 17:30:33
1.00200009346008,44.3549102,-71.90707915,234.600006103516,2012-02-12 17:30:34
1.0019998550415,44.3549102,-71.90707917,234.600006103516,2012-02-12 17:30:35
0.99399995803833,44.35491019,-71.90707917,234.600006103516,2012-02-12 17:30:36
1.00400018692017,44.35491018,-71.90707914,234.600006103516,2012-02-12 17:30:37
1.00399994850159,44.35491017,-71.90707912,234.600006103516,2012-02-12 17:30:38
1,44.35491018,-71.90707912,234.600006103516,2012-02-12 17:30:39
0.996999979019165,44.35491013,-71.90707906,234.600006103516,2012-02-12 17:30:40
1.0019998550415,44.35491011,-71.90707899,234.600006103516,2012-02-12 17:30:41
0.999000072479248,44.35491007,-71.90707892,234.600006103516,2012-02-12 17:30:42
0.996000051498413,44.35491007,-71.90707891,234.600006103516,2012-02-12 17:30:43
1,44.35491006,-71.9070789,234.600006103516,2012-02-12 17:30:44
1,44.35491004,-71.90707884,234.600006103516,2012-02-12 17:30:45
1,44.35491002,-71.90707881,234.600006103516,2012-02-12 17:30:46
1.00200009346008,44.35491001,-71.9070788,234.600006103516,2012-02-12 17:30:47
1.00499987602234,44.35490998,-71.90707874,234.600006103516,2012-02-12 17:30:48
1.01600003242493,44.35490998,-71.90707875,234.600006103516,2012-02-12 17:30:49
0.977999925613403,44.35490997,-71.90707876,234.600006103516,2012-02-12 17:30:50
1.09500002861023,44.35490996,-71.90707874,234.600006103516,2012-02-12 17:30:51
0.907000064849854,44.35490994,-71.90707869,234.600006103516,2012-02-12 17:30:52
1.00300002098083,44.35490993,-71.90707869,234.600006103516,2012-02-12 17:30:53
0.996999979019165,44.35490994,-71.90707872,234.600006103516,2012-02-12 17:30:54
3.0019998550415,44.35490991,-71.90707871,234.600006103516,2012-02-12 17:30:57
0.999000072479248,44.3549099,-71.90707869,234.600006103516,2012-02-12 17:30:58
0.998000144958496,44.35490989,-71.90707868,234.600006103516,2012-02-12 17:30:59
1.00099992752075,44.35490989,-71.90707869,234.600006103516,2012-02-12 17:31:00
0.99399995803833,44.3549099,-71.90707871,234.600006103516,2012-02-12 17:31:01
0.999000072479248,44.35490988,-71.90707866,234.600006103516,2012-02-12 17:31:02
1.00999999046326,44.35490988,-71.90707866,234.600006103516,2012-02-12 17:31:03
0.99399995803833,44.35490985,-71.90707862,234.600006103516,2012-02-12 17:31:04
0.996999979019165,44.35490984,-71.9070786,234.600006103516,2012-02-12 17:31:05
1.00099992752075,44.35490983,-71.90707858,234.600006103516,2012-02-12 17:31:06
1.00699996948242,44.35490983,-71.90707861,234.600006103516,2012-02-12 17:31:07
0.998000144958496,44.35490983,-71.9070786,234.600006103516,2012-02-12 17:31:08
1.00699996948242,44.35490983,-71.90707859,234.600006103516,2012-02-12 17:31:09
0.993000030517578,44.35490982,-71.90707856,234.600006103516,2012-02-12 17:31:10
0.996000051498413,44.35490982,-71.90707862,234.600006103516,2012-02-12 17:31:11
1.00099992752075,44.35490983,-71.90707866,234.600006103516,2012-02-12 17:31:12
1.00200009346008,44.35490982,-71.90707862,234.600006103516,2012-02-12 17:31:13
0.997999906539917,44.3549098,-71.90707859,234.600006103516,2012-02-12 17:31:14
0.996999979019165,44.35490982,-71.90707864,234.600006103516,2012-02-12 17:31:15
1.00300002098083,44.35490981,-71.90707862,234.600006103516,2012-02-12 17:31:16
0.997999906539917,44.35490983,-71.90707866,234.600006103516,2012-02-12 17:31:17
1.04700016975403,44.35490982,-71.90707866,234.600006103516,2012-02-12 17:31:18
0.95199990272522,44.35490982,-71.90707865,234.600006103516,2012-02-12 17:31:19
1.00699996948242,44.35490983,-71.90707867,234.600006103516,2012-02-12 17:31:20
0.992000102996826,44.35490983,-71.90707868,234.600006103516,2012-02-12 17:31:21
1.1399998664856,44.35490979,-71.90707859,234.600006103516,2012-02-12 17:31:22
0.86899995803833,44.3549098,-71.90707861,234.600006103516,2012-02-12 17:31:23
0.998000144958496,44.35490978,-71.90707858,234.600006103516,2012-02-12 17:31:24
1.07099986076355,44.35490976,-71.90707854,234.600006103516,2012-02-12 17:31:25
0.930999994277954,44.35490976,-71.90707853,234.600006103516,2012-02-12 17:31:26
0.998000144958496,44.35490973,-71.90707848,234.600006103516,2012-02-12 17:31:27
0.996999979019165,44.35490973,-71.90707849,234.600006103516,2012-02-12 17:31:28
1.00499987602234,44.35490978,-71.90707858,234.600006103516,2012-02-12 17:31:29
0.995000123977661,44.3549098,-71.90707862,234.600006103516,2012-02-12 17:31:30
1.00200009346008,44.3549098,-71.90707861,234.600006103516,2012-02-12 17:31:31
2.00099992752075,44.35490977,-71.90707858,234.600006103516,2012-02-12 17:31:33
1.00099992752075,44.35490977,-71.90707857,234.600006103516,2012-02-12 17:31:34
1,44.35490975,-71.90707853,234.600006103516,2012-02-12 17:31:35
30.0250000953674,44.35490968,-71.90707839,234.600006103516,2012-02-12 17:32:05
30.0379998683929,44.35490968,-71.90707841,234.5,2012-02-12 17:32:35
29.9990000724792,44.35490942,-71.907078,234.5,2012-02-12 17:33:05
30.0280001163483,44.35490913,-71.90707762,234.5,2012-02-12 17:33:35
29.9719998836517,44.35490891,-71.90707729,234.5,2012-02-12 17:34:05
30.0610001087189,44.35490871,-71.90707697,234.5,2012-02-12 17:34:35
29.9969999790192,44.35490858,-71.90707673,234.5,2012-02-12 17:35:05
30.0209999084473,44.35490861,-71.90707678,234.5,2012-02-12 17:35:35
30.0069999694824,44.35490857,-71.90707686,234.5,2012-02-12 17:36:05
60.0720000267029,44.35490798,-71.90707337,235.699996948242,2012-02-12 17:37:05
23.8220000267029,44.35490787,-71.90707309,235.699996948242,2012-02-12 17:37:29
3.96300005912781,44.35490793,-71.90707313,235.699996948242,2012-02-12 17:37:33
0.996999979019165,44.35490798,-71.90707317,235.699996948242,2012-02-12 17:37:34
1.03999996185303,44.35490799,-71.90707315,235.699996948242,2012-02-12 17:37:35
0.960000038146973,44.35490796,-71.90707309,235.699996948242,2012-02-12 17:37:36
0.998999834060669,44.3549079,-71.907073,235.699996948242,2012-02-12 17:37:37
0.996000051498413,44.35490788,-71.90707297,235.699996948242,2012-02-12 17:37:38
0.999000072479248,44.35490785,-71.90707293,235.699996948242,2012-02-12 17:37:39
1.00499987602234,44.35490785,-71.90707292,235.699996948242,2012-02-12 17:37:40
0.993000030517578,44.35490783,-71.90707288,235.699996948242,2012-02-12 17:37:41
1.00600004196167,44.35490781,-71.90707285,235.699996948242,2012-02-12 17:37:42
0.993000030517578,44.35490781,-71.90707285,235.699996948242,2012-02-12 17:37:43
1.01900005340576,44.35490781,-71.90707286,235.699996948242,2012-02-12 17:37:44
0.983999967575073,44.35490781,-71.90707284,235.699996948242,2012-02-12 17:37:45
0.996999979019165,44.35490781,-71.90707285,235.699996948242,2012-02-12 17:37:46
1.00099992752075,44.35490781,-71.90707283,235.699996948242,2012-02-12 17:37:47
1.00699996948242,44.35490781,-71.90707286,235.699996948242,2012-02-12 17:37:48
0.997000217437744,44.35490782,-71.90707285,235.699996948242,2012-02-12 17:37:49
30.0819997787476,44.3549078,-71.90707271,235.699996948242,2012-02-12 17:38:19
30.0130000114441,44.35490786,-71.90707274,235.800003051758,2012-02-12 17:38:49
30.0130000114441,44.35490796,-71.90707281,235.800003051758,2012-02-12 17:39:19
30.0970001220703,44.35490799,-71.90707284,235.800003051758,2012-02-12 17:39:49
29.9809999465942,44.35490798,-71.90707288,235.800003051758,2012-02-12 17:40:19
29.9969999790192,44.35490805,-71.90707299,235.800003051758,2012-02-12 17:40:49
30.0169999599457,44.35490804,-71.907073,235.800003051758,2012-02-12 17:41:19
30.0140001773834,44.35490801,-71.90707289,235.800003051758,2012-02-12 17:41:49
30.0059998035431,44.35490791,-71.90707268,235.800003051758,2012-02-12 17:42:19
30.0120000839233,44.35490788,-71.90707263,235.800003051758,2012-02-12 17:42:49
29.9860000610352,44.35490787,-71.90707268,235.800003051758,2012-02-12 17:43:19
30.0369999408722,44.3549079,-71.90707263,235.800003051758,2012-02-12 17:43:49
30.010999917984,44.35490786,-71.9070726,235.800003051758,2012-02-12 17:44:19
29.978000164032,44.35490802,-71.90707334,235.800003051758,2012-02-12 17:44:49
30.0699999332428,44.35490807,-71.90707391,235.800003051758,2012-02-12 17:45:19
29.9769999980927,44.35490807,-71.90707403,235.800003051758,2012-02-12 17:45:49
30.0230000019073,44.35490805,-71.90707437,235.800003051758,2012-02-12 17:46:19
29.9649999141693,44.35490804,-71.90707457,235.800003051758,2012-02-12 17:46:49
30.1480000019073,44.35490814,-71.90707491,235.800003051758,2012-02-12 17:47:19
59.9880001544952,44.35490809,-71.90707489,235.800003051758,2012-02-12 17:48:19
120.053999900818,44.35490807,-71.90707486,235.800003051758,2012-02-12 17:50:19
30.1349999904633,44.35490808,-71.90707494,235.800003051758,2012-02-12 17:50:49
