"diffSecs","latitude","longitude","altitude","time"
543.271000146866,42.3475848877832,-71.036211323717,0,2012-02-23 15:38:19
1.98499989509583,42.3476091820918,-71.0362540469133,0,2012-02-23 15:38:21
1.0090000629425,42.3476216254417,-71.0362648887225,0,2012-02-23 15:38:22
1.00399994850159,42.3476343642138,-71.0362685196765,0,2012-02-23 15:38:23
1.05599999427795,42.3476425745865,-71.0362529654205,0,2012-02-23 15:38:24
1.00600004196167,42.3476504457631,-71.0362430902015,0,2012-02-23 15:38:25
1.00999999046326,42.3476610450367,-71.0362442155166,0,2012-02-23 15:38:26
1.00600004196167,42.3476712914406,-71.0362507521663,0,2012-02-23 15:38:27
1.0019998550415,42.3476840853188,-71.0362713013008,0,2012-02-23 15:38:28
1.01100015640259,42.3476916131855,-71.0362809476569,0,2012-02-23 15:38:29
1.00399994850159,42.3477002698931,-71.0362899157077,0,2012-02-23 15:38:30
1.00999999046326,42.3477163096257,-71.0363006353628,0,2012-02-23 15:38:31
1.01200008392334,42.3477265337446,-71.0363123719409,0,2012-02-23 15:38:32
0.998999834060669,42.3477324302231,-71.0363258804231,0,2012-02-23 15:38:33
1.00500011444092,42.347743615017,-71.0363376670023,0,2012-02-23 15:38:34
1.01099991798401,42.3477532826907,-71.0363462137787,0,2012-02-23 15:38:35
1,42.3477615526127,-71.0363634478141,0,2012-02-23 15:38:36
1.00800013542175,42.3477681133057,-71.0363846452211,0,2012-02-23 15:38:37
1.00499987602234,42.3477714622921,-71.0364021472605,0,2012-02-23 15:38:38
1.00500011444092,42.3477731545885,-71.0364262469826,0,2012-02-23 15:38:39
1.00599980354309,42.3477751595731,-71.0364441273713,0,2012-02-23 15:38:40
1.00400018692017,42.3477858364182,-71.0364544141999,0,2012-02-23 15:38:41
1.00699996948242,42.347801171869,-71.0364588158309,0,2012-02-23 15:38:42
1.00799989700317,42.3478080672667,-71.0364756180731,0,2012-02-23 15:38:43
1.00399994850159,42.3478157090695,-71.036492975403,0,2012-02-23 15:38:44
1.05599999427795,42.3478212454937,-71.0365052892111,0,2012-02-23 15:38:45
1.00500011444092,42.3478260368231,-71.0365204613379,0,2012-02-23 15:38:46
1.00699996948242,42.3478308224481,-71.0365306994672,0,2012-02-23 15:38:47
1.00800013542175,42.3478357588355,-71.0365450025263,0,2012-02-23 15:38:48
1.01199984550476,42.3478411850476,-71.0365639036147,0,2012-02-23 15:38:49
0.996999979019165,42.3478449542624,-71.0365826807875,0,2012-02-23 15:38:50
1.00600004196167,42.3478482368108,-71.0366001150509,0,2012-02-23 15:38:51
1.00699996948242,42.3478547094092,-71.0366175086491,0,2012-02-23 15:38:52
1.00500011444092,42.347861307485,-71.0366370014577,0,2012-02-23 15:38:53
1.00499987602234,42.3478682956541,-71.0366533018579,0,2012-02-23 15:38:54
1.00699996948242,42.3478762392281,-71.036666249792,0,2012-02-23 15:38:55
1.00300002098083,42.3478852350288,-71.0366815514155,0,2012-02-23 15:38:56
1.00800013542175,42.3478950035675,-71.036695829604,0,2012-02-23 15:38:57
1.00499987602234,42.3479032964365,-71.0367049391716,0,2012-02-23 15:38:58
1.00800013542175,42.3479068154383,-71.0367164540013,0,2012-02-23 15:38:59
1.00300002098083,42.347909431556,-71.0367269643061,0,2012-02-23 15:39:00
1.03600001335144,42.3479137115081,-71.0367406104983,0,2012-02-23 15:39:01
0.976999998092651,42.3479189008122,-71.0367544038423,0,2012-02-23 15:39:02
1.00299978256226,42.347920692003,-71.0367624358935,0,2012-02-23 15:39:03
1.02000021934509,42.3479268915686,-71.0367718679842,0,2012-02-23 15:39:04
0.992999792098999,42.3479347432758,-71.0367851461872,0,2012-02-23 15:39:05
1.0550000667572,42.3479427147449,-71.0367950359351,0,2012-02-23 15:39:06
1.00699996948242,42.3479503402271,-71.0368047476565,0,2012-02-23 15:39:07
1.00500011444092,42.3479554504689,-71.0368148735317,0,2012-02-23 15:39:08
1.01799988746643,42.347959854932,-71.0368294281506,0,2012-02-23 15:39:09
0.993000030517578,42.3479659363818,-71.0368411606724,0,2012-02-23 15:39:10
1.00699996948242,42.3479713138409,-71.0368522194807,0,2012-02-23 15:39:11
1.00500011444092,42.3479767592894,-71.0368627031922,0,2012-02-23 15:39:12
1.00499987602234,42.3479800788521,-71.0368713656833,0,2012-02-23 15:39:13
1.00699996948242,42.3479846259065,-71.0368869121075,0,2012-02-23 15:39:14
1.00600004196167,42.347991995432,-71.036903240145,0,2012-02-23 15:39:15
1.01100015640259,42.3480004951492,-71.0369220337763,0,2012-02-23 15:39:16
0.997999906539917,42.3480086331094,-71.0369414442834,0,2012-02-23 15:39:17
1.00799989700317,42.3480160885215,-71.0369593072489,0,2012-02-23 15:39:18
1.00500011444092,42.3480215243569,-71.0369776391512,0,2012-02-23 15:39:19
1.01099991798401,42.3480293939201,-71.0369899704082,0,2012-02-23 15:39:20
1,42.3480390552594,-71.0370000248939,0,2012-02-23 15:39:21
1.00600004196167,42.3480459795603,-71.0370070883818,0,2012-02-23 15:39:22
1.0090000629425,42.3480522425584,-71.0370157917062,0,2012-02-23 15:39:23
1.00699996948242,42.348059135576,-71.0370271065838,0,2012-02-23 15:39:24
1.00200009346008,42.3480655431293,-71.0370379598623,0,2012-02-23 15:39:25
1.05699992179871,42.3480726504054,-71.0370470744088,0,2012-02-23 15:39:26
1.00399994850159,42.348080526399,-71.0370540858062,0,2012-02-23 15:39:27
1.00600004196167,42.3480853818715,-71.037060303274,0,2012-02-23 15:39:28
1.00499987602234,42.3480879538822,-71.037066489827,0,2012-02-23 15:39:29
1.00800013542175,42.348091209969,-71.0370713167479,0,2012-02-23 15:39:30
1.00399994850159,42.3480960389949,-71.0370768295311,0,2012-02-23 15:39:31
1.00600004196167,42.3480999667402,-71.0370831439055,0,2012-02-23 15:39:32
1.00499987602234,42.3481036816214,-71.0370902236586,0,2012-02-23 15:39:33
1.00600004196167,42.3481095510585,-71.0370954815767,0,2012-02-23 15:39:34
1.00600004196167,42.3481135343659,-71.0371031014729,0,2012-02-23 15:39:35
1.00500011444092,42.3481191644695,-71.0371128712086,0,2012-02-23 15:39:36
1.00699996948242,42.3481270751743,-71.0371259517932,0,2012-02-23 15:39:37
1.00600004196167,42.3481343035424,-71.0371374930363,0,2012-02-23 15:39:38
1.00599980354309,42.348140698524,-71.0371436731938,0,2012-02-23 15:39:39
1.00400018692017,42.3481472798833,-71.0371456468681,0,2012-02-23 15:39:40
1.00599980354309,42.3481519409399,-71.0371474959418,0,2012-02-23 15:39:41
1.00500011444092,42.3481567227331,-71.0371486796055,0,2012-02-23 15:39:42
1.00499987602234,42.3481606294022,-71.0371522971566,0,2012-02-23 15:39:43
1.05600023269653,42.3481630671654,-71.0371582106731,0,2012-02-23 15:39:44
1.00499987602234,42.3481665250185,-71.0371648077749,0,2012-02-23 15:39:45
1.00999999046326,42.3481721583101,-71.0371680648546,0,2012-02-23 15:39:47
1.00200009346008,42.3481764093309,-71.0371751805644,0,2012-02-23 15:39:48
1.00699996948242,42.3481798366251,-71.0371821999974,0,2012-02-23 15:39:49
1.00499987602234,42.3481779442188,-71.03719091406,0,2012-02-23 15:39:50
1.00500011444092,42.3481751176834,-71.0371929943601,0,2012-02-23 15:39:51
1.00600004196167,42.3481721616343,-71.0371903675742,0,2012-02-23 15:39:52
1.00499987602234,42.3481712206603,-71.0371919553579,0,2012-02-23 15:39:53
1.00699996948242,42.3481735280699,-71.0371942373151,0,2012-02-23 15:39:54
1.00300002098083,42.3481778451262,-71.0371983997749,0,2012-02-23 15:39:55
1.00999999046326,42.3481825378006,-71.0372049256093,0,2012-02-23 15:39:56
1.00300002098083,42.3481887367465,-71.0372114181283,0,2012-02-23 15:39:57
1.02100014686584,42.3481893305463,-71.0372198318651,0,2012-02-23 15:39:58
0.992999792098999,42.3481851948894,-71.0372386678847,0,2012-02-23 15:39:59
1.00300002098083,42.3481800163499,-71.0372600902332,0,2012-02-23 15:40:00
1.00800013542175,42.3481783697325,-71.0372758054255,0,2012-02-23 15:40:01
1.00699996948242,42.3481820680306,-71.0372832200444,0,2012-02-23 15:40:02
1.00499987602234,42.3481854723497,-71.0372896431582,0,2012-02-23 15:40:03
1.05700016021729,42.3481914382962,-71.0372987207121,0,2012-02-23 15:40:04
1.00499987602234,42.3481962254404,-71.0373118515635,0,2012-02-23 15:40:05
1.00600004196167,42.3482006539048,-71.0373188037139,0,2012-02-23 15:40:06
1.00500011444092,42.3482048652888,-71.0373244298747,0,2012-02-23 15:40:07
1.00599980354309,42.348209544221,-71.0373298088649,0,2012-02-23 15:40:08
1.00600004196167,42.3482147101357,-71.0373411313354,0,2012-02-23 15:40:09
1.00500011444092,42.3482185894574,-71.0373532180259,0,2012-02-23 15:40:10
1.00699996948242,42.3482257480403,-71.03736191165,0,2012-02-23 15:40:11
1.00399994850159,42.3482329762899,-71.0373689812703,0,2012-02-23 15:40:12
1.0789999961853,42.3482446963536,-71.0373792663457,0,2012-02-23 15:40:13
1.9449999332428,42.348239191355,-71.0373790593409,0,2012-02-23 15:40:15
1.00400018692017,42.3482304544779,-71.037374677332,0,2012-02-23 15:40:16
1.00499987602234,42.3482276516635,-71.0373716886598,0,2012-02-23 15:40:17
1.00300002098083,42.348232199762,-71.037371798117,0,2012-02-23 15:40:18
1.00800013542175,42.3482375845481,-71.0373693089711,0,2012-02-23 15:40:19
2.05599999427795,42.3482414347498,-71.0373681731874,0,2012-02-23 15:40:21
1.00599980354309,42.348241817212,-71.0373713065563,0,2012-02-23 15:40:22
1.00500011444092,42.3482443481711,-71.0373786989632,0,2012-02-23 15:40:23
1.00699996948242,42.3482487972345,-71.0373863590957,0,2012-02-23 15:40:24
1.00600004196167,42.348255647306,-71.0373926110747,0,2012-02-23 15:40:25
1.00999999046326,42.3482636500819,-71.0373929104475,0,2012-02-23 15:40:26
1.0019998550415,42.348267146915,-71.0373902123473,0,2012-02-23 15:40:27
1.00400018692017,42.3482743921782,-71.037391419127,0,2012-02-23 15:40:28
1.00699996948242,42.348281501474,-71.0373979518516,0,2012-02-23 15:40:29
1.00499987602234,42.3482901674112,-71.0373988792658,0,2012-02-23 15:40:30
1.00600004196167,42.3483005301848,-71.0374012787347,0,2012-02-23 15:40:31
1.00999999046326,42.3483079845588,-71.0374079461884,0,2012-02-23 15:40:32
1,42.3483167183263,-71.0374180557574,0,2012-02-23 15:40:33
1.00800013542175,42.3483253868089,-71.0374283044195,0,2012-02-23 15:40:34
1.07299995422363,42.348330378022,-71.0374396197561,0,2012-02-23 15:40:35
0.937999963760376,42.3483306498874,-71.0374555689929,0,2012-02-23 15:40:36
1.0090000629425,42.3483334334486,-71.0374716117867,0,2012-02-23 15:40:37
1.00300002098083,42.3483344921252,-71.0374881163611,0,2012-02-23 15:40:38
1.00799989700317,42.348336271481,-71.0374959993188,0,2012-02-23 15:40:39
1.00300002098083,42.3483412064049,-71.0375042806469,0,2012-02-23 15:40:40
1.00699996948242,42.3483490476585,-71.0375183104138,0,2012-02-23 15:40:41
1.0550000667572,42.3483592438388,-71.0375311433865,0,2012-02-23 15:40:42
1.00600004196167,42.3483681416932,-71.0375417275745,0,2012-02-23 15:40:43
1.00599980354309,42.34837538965,-71.037554801197,0,2012-02-23 15:40:44
1.00500011444092,42.348383250123,-71.0375627964197,0,2012-02-23 15:40:45
1.00699996948242,42.3483934361568,-71.0375716082841,0,2012-02-23 15:40:46
1.00500011444092,42.3484043414277,-71.0375804019217,0,2012-02-23 15:40:47
1.00699996948242,42.3484139848055,-71.0375941154313,0,2012-02-23 15:40:48
1.00499987602234,42.3484247113038,-71.0376085343177,0,2012-02-23 15:40:49
1.05599999427795,42.3484400600161,-71.0376106055282,0,2012-02-23 15:40:50
0.953999996185303,42.3484543695335,-71.0376077574866,0,2012-02-23 15:40:51
1.00500011444092,42.348462157322,-71.0376140571677,0,2012-02-23 15:40:52
1.00600004196167,42.3484706579936,-71.0376173683017,0,2012-02-23 15:40:53
1.00399994850159,42.3484837610913,-71.0376152481807,0,2012-02-23 15:40:54
1.00799989700317,42.3485027588723,-71.0376057458119,0,2012-02-23 15:40:55
1.00999999046326,42.3485223086578,-71.0376017050289,0,2012-02-23 15:40:56
1.00100016593933,42.3485414977611,-71.0376001887942,0,2012-02-23 15:40:57
1.08599996566772,42.3485654586128,-71.0375914505353,0,2012-02-23 15:40:58
0.927000045776367,42.3485912011992,-71.0375800438503,0,2012-02-23 15:40:59
1.00300002098083,42.3486238599835,-71.0375709525918,0,2012-02-23 15:41:00
1.00499987602234,42.3486478976588,-71.0375703074299,0,2012-02-23 15:41:01
1.07100009918213,42.3486663761831,-71.0375829923199,0,2012-02-23 15:41:02
0.990000009536743,42.3486806511226,-71.0375861259376,0,2012-02-23 15:41:03
1.00799989700317,42.3486935207333,-71.0375860201141,0,2012-02-23 15:41:04
1.00399994850159,42.3487044515561,-71.0375890664796,0,2012-02-23 15:41:05
1.00800013542175,42.3487121072969,-71.0375909067711,0,2012-02-23 15:41:06
1.00399994850159,42.3487155487249,-71.0375937106523,0,2012-02-23 15:41:07
1.00499987602234,42.3487157253431,-71.0375963964941,0,2012-02-23 15:41:08
1.00600004196167,42.3487223016298,-71.0376004779981,0,2012-02-23 15:41:09
1.00699996948242,42.3487290900916,-71.0376097904753,0,2012-02-23 15:41:10
1.00500011444092,42.348721435772,-71.03762597924,0,2012-02-23 15:41:11
1.00399994850159,42.3487124783226,-71.0376356400002,0,2012-02-23 15:41:12
1.00600004196167,42.3487055023326,-71.0376376372766,0,2012-02-23 15:41:13
1.00499987602234,42.3486985037419,-71.037633812802,0,2012-02-23 15:41:14
1.00600004196167,42.3486920575432,-71.0376384703161,0,2012-02-23 15:41:15
1.00699996948242,42.3486921819456,-71.0376480795592,0,2012-02-23 15:41:16
1.00400018692017,42.3486926056913,-71.0376573835284,0,2012-02-23 15:41:17
1.00799989700317,42.3486907924696,-71.0376683087773,0,2012-02-23 15:41:18
1.00500011444092,42.3486951631809,-71.0376732650775,0,2012-02-23 15:41:19
