"diffSecs","level","azimuth.mean","azimuth.absolute.deviation","azimuth.standard.deviation","azimuth.max.deviation","pitch.mean","pitch.absolute.deviation","pitch.standard.deviation","pitch.max.deviation","roll.mean","roll.absolute.deviation","roll.standard.deviation","roll.max.deviation","time"
1.00400018692017,25,43.3759994506836,0.553280055522919,0.654999256134033,1.22400164604187,136.128005981445,0.125118255615234,0.151049390435219,0.327999264001846,53.9640007019043,0.115200072526932,0.143889084458351,0.335998684167862,2012-01-25 13:05:37
1,36,42.2750015258789,0.159721657633781,0.205986395478249,0.524998545646667,136.013885498047,0.0947535037994385,0.120536610484123,0.286110758781433,53.7388877868652,0.133332893252373,0.163770899176598,0.338887840509415,2012-01-25 13:05:38
1.00999999046326,40,42.2099990844727,0.159999281167984,0.199749514460564,0.490000158548355,135.982498168945,0.0918723121285439,0.115945354104042,0.217493817210197,53.9025001525879,0.163375169038773,0.21152725815773,0.597499072551727,2012-01-25 13:05:39
1.02699995040894,40,42.2775001525879,0.460874974727631,0.524160027503967,1.12250089645386,135.720001220703,0.175000950694084,0.214709237217903,0.47999495267868,54.2675018310547,0.28087517619133,0.302809923887253,0.532498180866241,2012-01-25 13:05:40
1.0019998550415,37,42.6486511230469,0.457852572202682,0.538075566291809,1.05135118961334,135.186492919922,0.358072757720947,0.41143411397934,0.686488389968872,54.8297309875488,0.219576060771942,0.284618586301804,0.670269548892975,2012-01-25 13:05:41
1.00100016593933,49,45.5142860412598,1.41574358940125,1.57842624187469,3.08571600914001,131.269393920898,1.84189939498901,2.08475637435913,3.96938824653625,56.0081634521484,0.257975727319717,0.304949969053268,0.708164691925049,2012-01-25 13:05:42
1.01600003242493,40,57.0175018310547,4.76987504959106,5.26938724517822,7.91749858856201,124.13500213623,1.18524956703186,1.39203917980194,2.96499752998352,53.2224998474121,1.17812502384186,1.25767397880554,2.27749919891357,2012-01-25 13:05:43
1.02499985694885,39,64.5974349975586,0.669428527355194,0.746784031391144,1.29743826389313,128.561538696289,2.03944969177246,2.33508682250977,4.26153802871704,53.5871810913086,0.893885493278503,1.04909694194794,1.91281974315643,2012-01-25 13:05:44
1.18700003623962,48,61.7374992370605,0.45156255364418,0.614622354507446,1.76249945163727,132.620834350586,0.229860246181488,0.270769387483597,0.520830452442169,57.5458335876465,0.850346982479095,0.986778736114502,1.94583189487457,2012-01-25 13:05:45
1,48,61.5229187011719,0.396267473697662,0.506309807300568,1.37708401679993,133.579162597656,0.532292783260345,0.610655725002289,1.22083377838135,59.34375,0.345833510160446,0.452265948057175,1.0437513589859,2012-01-25 13:05:46
1.00800013542175,34,66.4411773681641,6.02871990203857,7.20466041564941,16.7588272094727,128.920593261719,7.4522500038147,7.64275169372559,10.7205867767334,61.1970596313477,3.79048418998718,4.15292119979858,6.70294189453125,2012-01-25 13:05:47
1.00899982452393,41,83.3536605834961,1.6276022195816,2.28239274024963,6.75366163253784,128.458541870117,4.71528911590576,5.63676929473877,12.5414609909058,48.2609748840332,4.60880422592163,5.44757175445557,10.6390247344971,2012-01-25 13:05:48
1.01100015640259,40,70.5800018310547,1.13900029659271,1.60252916812897,4.72000169754028,147.372497558594,1.25075089931488,1.67077791690826,5.17250633239746,41.3349990844727,4.16624975204468,4.71633052825928,9.23499870300293,2012-01-25 13:05:49
