"diffSecs","N.samples","x.mean","x.absolute.deviation","x.standard.deviation","x.max.deviation","x.PSD.1","x.PSD.3","x.PSD.6","x.PSD.10","y.mean","y.absolute.deviation","y.standard.deviation","y.max.deviation","y.PSD.1","y.PSD.3","y.PSD.6","y.PSD.10","z.mean","z.absolute.deviation","z.standard.deviation","z.max.deviation","z.PSD.1","z.PSD.3","z.PSD.6","z.PSD.10","time"
1.02600002288818,8,9.03682804107666,0.18142306804657,0.221574008464813,0.436396241188049,3.773636490223e-05,0.000122502780868672,0.000659927958622575,0.00235382979735732,3.85523915290833,0.221569046378136,0.271302312612534,0.579818308353424,0.000571888871490955,0.00165182689670473,0.00633596489205956,0.0110052898526192,1.1020222902298,0.139438301324844,0.156671583652496,0.239037066698074,0.000305375142488629,0.00106909987516701,0.00442182179540396,0.00765493093058467,2012-03-04 11:34:31
1.01600003242493,40,8.77351951599121,0.424971163272858,0.519500553607941,1.0654923915863,0.000160486437380314,7.41235399246216,19.738260269165,2.80792999267578,3.98836445808411,0.686465501785278,0.836741149425507,1.54650855064392,42.0752868652344,56.0951499938965,12.6127853393555,1.79764592647552,-0.581044018268585,0.454538226127625,0.5169358253479,1.17924964427948,0.0180493053048849,13.2758283615112,23.6313056945801,9.51161670684814,2012-03-04 11:34:32
1.01799988746643,41,9.07330417633057,0.25090092420578,0.353408008813858,1.04715871810913,0.561677753925323,1.70018351078033,12.2464418411255,14.3514709472656,3.54785442352295,0.41052582859993,0.50389575958252,1.28251850605011,1.07902538776398,1.69390225410461,8.98665714263916,3.77417206764221,0.71229761838913,0.662966847419739,0.839809238910675,1.92832219600677,60.3489379882812,118.421440124512,93.532470703125,19.7221088409424,2012-03-04 11:34:33
1.01799988746643,45,9.50830936431885,0.173226535320282,0.258935928344727,0.906352758407593,4.76578825328033e-05,0.929037034511566,0.536726593971252,0.657292783260345,2.6872398853302,0.355073362588882,0.471814304590225,1.37271320819855,25.56569480896,29.0197257995605,2.16129302978516,0.712466955184937,0.296160817146301,0.402726411819458,0.489899069070816,1.5317987203598,11.050066947937,12.8560075759888,1.30971443653107,3.09968543052673,2012-03-04 11:34:34
1.10199999809265,14,9.43539810180664,0.0284192226827145,0.0343446508049965,0.0700473785400391,0.000352559669408947,0.000786689401138574,0.00166125723626465,0.000541330606210977,2.52941513061523,0.125485062599182,0.150764897465706,0.324319779872894,0.00811075977981091,0.0178653337061405,0.038261279463768,0.0138660557568073,0.51625007390976,0.0497337207198143,0.0534063316881657,0.084757462143898,0.000515948515385389,0.00120299321133643,0.00348349520936608,0.00331240682862699,2012-03-04 11:34:35
1.01300001144409,44,9.34150314331055,0.0316182859241962,0.0397467203438282,0.103638283908367,0.0458935089409351,0.119223676621914,0.120155043900013,0.00912917405366898,2.92171311378479,0.125480517745018,0.147521063685417,0.353707909584045,0.00886697694659233,0.932652771472931,3.16635394096375,0.56858879327774,0.514626204967499,0.0545849464833736,0.0751371309161186,0.161586850881577,0.295874983072281,0.714141070842743,0.627732396125793,0.0758638828992844,2012-03-04 11:34:36
1.01400017738342,45,9.34791660308838,0.0408730767667294,0.0492240823805332,0.095887079834938,0.148717567324638,0.451175272464752,0.344203025102615,0.0595013350248337,2.95855736732483,0.0589367225766182,0.0717315822839737,0.189377397298813,0.570754945278168,0.689266204833984,0.0939636677503586,0.105454653501511,0.636778473854065,0.107074089348316,0.123430535197258,0.245820000767708,2.53592252731323,3.56547975540161,0.636656939983368,0.252439767122269,2012-03-04 11:34:37
1.00399994850159,39,9.14834690093994,0.168202415108681,0.210343033075333,0.469461590051651,2.01728129386902,3.19458293914795,1.83402717113495,0.818967342376709,3.44515156745911,0.326501458883286,0.375553965568542,0.693254768848419,13.3747634887695,17.9097633361816,3.34700536727905,0.331458568572998,0.866254031658173,0.210884869098663,0.272217094898224,0.719154298305511,4.4873161315918,11.4323921203613,9.37558269500732,2.79469704627991,2012-03-04 11:34:38
1.01900005340576,42,8.79796600341797,0.265113115310669,0.383473247289658,1.25385022163391,0.642311453819275,2.84888625144958,7.88495397567749,5.47692012786865,4.12813282012939,0.331691563129425,0.385993003845215,0.676191806793213,0.265184819698334,6.23500967025757,17.5596485137939,2.49178147315979,-0.511580228805542,0.647939324378967,0.759767234325409,1.26342332363129,22.0872688293457,98.5410003662109,60.0144805908203,7.77536106109619,2012-03-04 11:34:39
1.00099992752075,38,8.9400520324707,0.270457059144974,0.296567887067795,0.506332993507385,6.51457929611206,10.9612112045288,2.96453666687012,0.846755504608154,3.90356278419495,0.767988324165344,0.818528175354004,1.30376839637756,58.8574981689453,90.8761596679688,27.1726551055908,3.669837474823,0.446976780891418,0.328101694583893,0.377421140670776,0.662723064422607,11.6897916793823,20.5061855316162,9.96525955200195,1.52598214149475,2012-03-04 11:34:40
1.01699995994568,40,9.27218723297119,0.0556528232991695,0.0662585720419884,0.122583672404289,0.237236499786377,0.28462415933609,0.135871842503548,0.0716450959444046,3.05942964553833,0.0865681767463684,0.0997796431183815,0.205694586038589,0.0274086091667414,0.263961613178253,0.325729250907898,0.0781795531511307,-0.212313964962959,0.0472190193831921,0.0528809428215027,0.101498827338219,0.016290033236146,0.157084420323372,0.147150203585625,0.0575065985321999,2012-03-04 11:34:41
1.00200009346008,37,8.95108604431152,0.270001739263535,0.312172055244446,0.684080004692078,6.36343479156494,11.1763525009155,5.9901647567749,1.42909443378448,3.99051141738892,0.582768619060516,0.724772334098816,1.66792547702789,40.3259811401367,66.5417327880859,36.8283424377441,16.6389102935791,0.380604028701782,0.503068923950195,0.592035830020905,1.13942670822144,27.2318801879883,44.4299583435059,20.6140747070312,3.72858810424805,2012-03-04 11:34:42
1.07799983024597,46,8.65458202362061,0.403574287891388,0.51700484752655,1.21090829372406,0.353032618761063,31.4203052520752,22.4960803985596,16.1711387634277,4.69013690948486,0.503420352935791,0.651207625865936,1.44413578510284,13.8319625854492,46.5994682312012,72.8919677734375,13.5350780487061,0.705226063728333,0.498266786336899,0.673884272575378,2.22525668144226,35.0453720092773,113.756721496582,90.9413146972656,15.9444980621338,2012-03-04 11:34:43
