"diffSecs","N.samples","x.mean","x.absolute.deviation","x.standard.deviation","x.max.deviation","x.PSD.1","x.PSD.3","x.PSD.6","x.PSD.10","y.mean","y.absolute.deviation","y.standard.deviation","y.max.deviation","y.PSD.1","y.PSD.3","y.PSD.6","y.PSD.10","z.mean","z.absolute.deviation","z.standard.deviation","z.max.deviation","z.PSD.1","z.PSD.3","z.PSD.6","z.PSD.10","time"
0,44,0.550732553005219,0.0692949146032333,0.0845396816730499,0.184766188263893,0.758312344551086,1.59811675548553,1.15291690826416,0.127899393439293,2.8325617313385,0.0966279208660126,0.120341747999191,0.302446037530899,1.161736369133,1.05855405330658,0.101644888520241,0.271049529314041,9.18548774719238,0.178383901715279,0.248292878270149,0.77138215303421,0.824425220489502,1.87804472446442,1.11533176898956,0.202691406011581,2012-01-04 16:01:15
1.29805171489716,28,0.768421053886414,0.0679460689425468,0.0834682881832123,0.229055345058441,0.00211359583772719,0.00368670397438109,0.020522290840745,0.114845350384712,2.78929138183594,0.108573615550995,0.164607167243958,0.643036127090454,0.00593275995925069,0.110241591930389,0.46807324886322,0.241743996739388,9.00775814056396,0.108073189854622,0.220618113875389,1.04475808143616,0.0643319189548492,0.202753514051437,0.50437319278717,0.29155820608139,2012-01-04 16:01:16
