"diffSecs","N.samples","x.mean","x.absolute.deviation","x.standard.deviation","x.max.deviation","x.PSD.1","x.PSD.3","x.PSD.6","x.PSD.10","y.mean","y.absolute.deviation","y.standard.deviation","y.max.deviation","y.PSD.1","y.PSD.3","y.PSD.6","y.PSD.10","z.mean","z.absolute.deviation","z.standard.deviation","z.max.deviation","z.PSD.1","z.PSD.3","z.PSD.6","z.PSD.10","time"
1.00800013542175,43,2.15358591079712,0.0371793881058693,0.0487881563603878,0.150976911187172,0.124868422746658,0.179724663496017,0.137636139988899,0.223679214715958,-0.693991541862488,0.0463336408138275,0.0555488094687462,0.125205844640732,0.101780608296394,0.246514409780502,0.129640638828278,0.113069921731949,9.17218208312988,0.0288525950163603,0.0366649515926838,0.114715576171875,0.0256323739886284,0.0429245047271252,0.0129294395446777,0.0295303128659725,2012-01-23 11:58:43
1.01099991798401,36,2.17135572433472,0.0391812324523926,0.0465385727584362,0.102152556180954,0.0209553875029087,0.0331270545721054,0.0409785471856594,0.0318543538451195,-0.72487485408783,0.0399984121322632,0.0522190630435944,0.118496999144554,0.0150760756805539,0.0382270477712154,0.0405410081148148,0.0408506244421005,9.16976261138916,0.0311151370406151,0.037051610648632,0.0877155959606171,0.00712428661063313,0.0112485801801085,0.0172501280903816,0.0238682944327593,2012-01-23 11:58:44
1.00099992752075,33,2.17291593551636,0.0318784043192863,0.0382509417831898,0.0840994566679001,0.000384860584745184,0.00565028842538595,0.0391968600451946,0.0167522598057985,-0.668338060379028,0.0472051948308945,0.056367039680481,0.128972336649895,0.0235881861299276,0.0522283762693405,0.116118110716343,0.0671458318829536,9.16951465606689,0.0401273183524609,0.0467194803059101,0.0885571241378784,0.0402341224253178,0.0531127080321312,0.0108819073066115,0.0104361632838845,2012-01-23 11:58:45
1.01699995994568,50,2.20159292221069,0.0482486933469772,0.0570220910012722,0.112776458263397,7.74014552007429e-05,0.215021625161171,0.206536963582039,0.137295797467232,-0.658614575862885,0.0451105870306492,0.055936086922884,0.129055514931679,0.0142725883051753,0.0618986859917641,0.322561591863632,0.0569816045463085,9.17235565185547,0.0455030426383018,0.0555941686034203,0.114542156457901,0.165178075432777,0.334106683731079,0.221017628908157,0.0901335030794144,2012-01-23 11:58:46
1.00699996948242,43,2.21949577331543,0.0282053630799055,0.038809347897768,0.134100243449211,0.00872925110161304,0.00731775909662247,0.04793556407094,0.126153007149696,-0.680079758167267,0.0378688313066959,0.0466194935142994,0.121100723743439,0.0164571106433868,0.110084295272827,0.146406620740891,0.122710824012756,9.18860244750977,0.0366811975836754,0.0411463640630245,0.0884883105754852,0.0488247238099575,0.0324222892522812,0.108884297311306,0.0790494829416275,2012-01-23 11:58:47
1.05400013923645,36,2.22692680358887,0.076046921312809,0.0944977104663849,0.205122321844101,0.00931282434612513,0.02082908898592,0.104058481752872,0.494571328163147,-0.685920655727386,0.0386817865073681,0.0461679510772228,0.078998014330864,0.0032502762041986,0.0329953245818615,0.0498133338987827,0.0145697547122836,9.16267967224121,0.035594642162323,0.0465745851397514,0.11114202439785,0.0180449262261391,0.0232215113937855,0.0367226116359234,0.0285718627274036,2012-01-23 11:58:48
1.01699995994568,51,2.23841595649719,0.064570814371109,0.0824116393923759,0.223053276538849,0.151823163032532,0.592970848083496,0.409440189599991,0.130193829536438,-0.680504560470581,0.0579123944044113,0.0723531693220139,0.172673925757408,0.392794460058212,0.596428036689758,0.117045879364014,0.525006532669067,9.17421722412109,0.0396942161023617,0.0507669299840927,0.132294163107872,0.125047564506531,0.225028395652771,0.176615104079247,0.242525964975357,2012-01-23 11:58:49
1.00600004196167,35,2.24740386009216,0.019933482632041,0.0266754552721977,0.070327565073967,0.0101138735190034,0.0155206155031919,0.00614067912101746,0.00904602650552988,-0.666571974754333,0.0411639101803303,0.0503048337996006,0.0885400548577309,0.00107560376636684,0.00974355731159449,0.0469554960727692,0.0738376900553703,9.18126583099365,0.0301967412233353,0.0350923277437687,0.0610816404223442,0.00500417966395617,0.0313289985060692,0.0904238298535347,0.0364715307950974,2012-01-23 11:58:50
1.01300001144409,42,2.24992561340332,0.0366248115897179,0.0436548143625259,0.0924628078937531,0.000378279626602307,0.0125683443620801,0.152512207627296,0.0958137139678001,-0.684130549430847,0.0623311586678028,0.0706458017230034,0.134958162903786,0.000278057006653398,0.0007137042703107,0.0101103717461228,0.0589083023369312,9.15357303619385,0.023682763800025,0.0310895573347807,0.072615846991539,0.0098160607740283,0.023411363363266,0.105775266885757,0.0867788419127464,2012-01-23 11:58:51
1,37,2.21921825408936,0.0441836379468441,0.0555153042078018,0.134377643465996,0.02146259509027,0.0183791108429432,0.0184916369616985,0.034121572971344,-0.677984058856964,0.0543699599802494,0.0703911706805229,0.175194442272186,0.040281631052494,0.124744765460491,0.185211852192879,0.0451123081147671,9.14907360076904,0.0357022285461426,0.0479855835437775,0.136762872338295,0.0068706851452589,0.0303203798830509,0.0713907480239868,0.0593421757221222,2012-01-23 11:58:52
1.00600004196167,27,2.25371336936951,0.0316664278507233,0.0384967252612114,0.0900759622454643,0.000253741251071915,0.00329021969810128,0.0180440247058868,0.00724821584299207,-0.671573877334595,0.0332269184291363,0.040773369371891,0.0737314596772194,0.00242189131677151,0.00452818442136049,0.00471226079389453,0.00175868021324277,9.1416130065918,0.0370205864310265,0.0456895530223846,0.0802692845463753,4.221560084261e-05,0.000330969807691872,0.00715525401756167,0.0111744711175561,2012-01-23 11:58:53
1.00300002098083,49,2.30296158790588,0.041326031088829,0.0527675598859787,0.11607863754034,0.000440134521340951,0.144636198878288,0.377753913402557,0.140906274318695,-0.627025187015533,0.0466928891837597,0.0557714700698853,0.126886054873466,0.164811089634895,0.303780406713486,0.23394013941288,0.117870882153511,9.17382049560547,0.0350934229791164,0.0441291518509388,0.102669715881348,0.00296508986502886,0.0459551177918911,0.0664769411087036,0.0326644144952297,2012-01-23 11:58:54
1.01599979400635,36,2.65269875526428,0.271862119436264,0.318925589323044,0.573688983917236,7.06208038330078,12.1695184707642,6.68596982955933,1.50339949131012,-0.403434664011002,0.122083708643913,0.143499001860619,0.22691498696804,1.37376129627228,2.24269342422485,1.03098130226135,0.101698949933052,9.09866428375244,0.0837348699569702,0.0920474082231522,0.174612700939178,0.573215901851654,0.855131983757019,0.270986288785934,0.0559215508401394,2012-01-23 11:58:55
1.02900004386902,48,3.56165266036987,0.180273801088333,0.209734484553337,0.374491393566132,7.94998407363892,7.0888409614563,1.97567081451416,0.192961245775223,0.0484203323721886,0.112955242395401,0.137240648269653,0.264166623353958,3.94994115829468,4.54260778427124,0.833297193050385,0.187303110957146,8.85172748565674,0.0726814717054367,0.0920515730977058,0.221876010298729,0.899681687355042,1.29836452007294,0.238510981202126,0.0688108652830124,2012-01-23 11:58:56
1,36,3.29803085327148,0.259770303964615,0.303247928619385,0.546176016330719,6.08309125900269,8.37873554229736,2.15530681610107,0.326572865247726,0.538820922374725,0.0970676764845848,0.118086449801922,0.254428088665009,0.343542248010635,0.377633780241013,0.363295257091522,0.11103767156601,8.9147891998291,0.114864729344845,0.123569294810295,0.206484109163284,0.777468979358673,1.13451540470123,0.291306465864182,0.034553375095129,2012-01-23 11:58:57
1.00600004196167,42,2.97118139266968,0.0754289105534554,0.0890472903847694,0.176753282546997,1.01292967796326,1.56423056125641,0.452174961566925,0.156811967492104,0.657746016979218,0.0314880162477493,0.0401150695979595,0.0889603421092033,0.0468950271606445,0.0667237266898155,0.11747095733881,0.138052523136139,8.98616027832031,0.0364246368408203,0.0447183027863503,0.0915285721421242,0.123567655682564,0.301865041255951,0.183706268668175,0.0665162578225136,2012-01-23 11:58:58
1.00799989700317,43,3.2745087146759,0.0856875404715538,0.111468717455864,0.383371531963348,1.41507697105408,2.158287525177,0.760586738586426,0.458037585020065,0.670273125171661,0.0252352822571993,0.028286999091506,0.05245416238904,0.0941901132464409,0.152070552110672,0.0318429097533226,0.00375864352099597,8.92405128479004,0.0278234705328941,0.0387677252292633,0.156906127929688,0.0076138311997056,0.0331606306135654,0.0798062011599541,0.0365700908005238,2012-01-23 11:58:59
1.00500011444092,42,3.80894947052002,0.0507566146552563,0.0615802742540836,0.14313031733036,0.0124980956315994,0.165344476699829,0.165540397167206,0.195873782038689,0.732696831226349,0.0398270078003407,0.0462596453726292,0.0952646136283875,0.128736391663551,0.154670163989067,0.117161840200424,0.048464335501194,8.70643711090088,0.0368695221841335,0.0470914021134377,0.115812502801418,0.0325118340551853,0.0734887942671776,0.145689398050308,0.0544083751738071,2012-01-23 11:59:00
1.01099991798401,42,3.81852269172668,0.0430959165096283,0.0509996376931667,0.123750530183315,0.0171848628669977,0.138157308101654,0.0941914245486259,0.0111828343942761,0.763751208782196,0.0244387872517109,0.0309523940086365,0.0772857218980789,0.060157872736454,0.0942652672529221,0.0161425918340683,0.0442419275641441,8.69896602630615,0.0313768498599529,0.0403178110718727,0.0975994393229485,0.00421509984880686,0.101305224001408,0.143873572349548,0.0560328736901283,2012-01-23 11:59:01
1.39100003242493,46,3.78536677360535,0.0332572981715202,0.0422047339379787,0.088259719312191,0.0215903781354427,0.0813770815730095,0.0838786214590073,0.120881900191307,0.781120955944061,0.023209685459733,0.0299982130527496,0.0946554616093636,0.0329234190285206,0.0352271981537342,0.00915587693452835,0.0145975211635232,8.70660018920898,0.0193351954221725,0.0245638098567724,0.0605452992022038,0.000220636458834633,0.0232297778129578,0.0858196169137955,0.0344922207295895,2012-01-23 11:59:02
1.07400012016296,40,3.81135439872742,0.0354755446314812,0.0426645614206791,0.101498834788799,0.000196458946447819,0.015445290133357,0.0601204745471478,0.0163959320634604,0.786738455295563,0.0266740918159485,0.0328550226986408,0.0762467235326767,0.00459867529571056,0.0272783823311329,0.0215740967541933,0.0780093371868134,8.71811199188232,0.0377556122839451,0.0450999811291695,0.0882605761289597,0.00118302856571972,0.0778350010514259,0.17608018219471,0.0355679765343666,2012-01-23 11:59:03
1.01600003242493,49,3.79777526855469,0.03288758918643,0.0416426435112953,0.100668124854565,0.0159971341490746,0.0130738727748394,0.0381269045174122,0.09652029722929,0.757913947105408,0.0299059916287661,0.041322086006403,0.140094965696335,0.132943019270897,0.112806066870689,0.0120552033185959,0.025840025395155,8.71751117706299,0.0387364290654659,0.0538740009069443,0.177119821310043,0.0376397632062435,0.11636146903038,0.17619788646698,0.118769727647305,2012-01-23 11:59:04
1.0389997959137,35,3.80834245681763,0.0174998734146357,0.0226000789552927,0.0554777346551418,0.00325218075886369,0.00806888937950134,0.004044100176543,0.00728574069216847,0.789295196533203,0.0222871154546738,0.0279713235795498,0.0638832971453667,0.0118119996041059,0.0229095946997404,0.0107299871742725,0.00447854259982705,8.71026611328125,0.0396749339997768,0.0485999584197998,0.11964176595211,0.00641349237412214,0.035817164927721,0.0955285429954529,0.0962496772408485,2012-01-23 11:59:05
1.39100003242493,36,3.80688691139221,0.0253338217735291,0.0325101315975189,0.0863530710339546,0.000146937862155028,0.000178693633642979,0.0172942094504833,0.0377034172415733,0.773363292217255,0.0191744118928909,0.0278481915593147,0.0770911574363708,0.0106999250128865,0.0154590392485261,0.0201406199485064,0.0158935450017452,8.72165298461914,0.0428132377564907,0.0517450831830502,0.133751600980759,0.0282094497233629,0.0765300542116165,0.114283584058285,0.0634304508566856,2012-01-23 11:59:07
1.01200008392334,47,3.81103110313416,0.0284921191632748,0.0377135574817657,0.111628890037537,0.00249646464362741,0.0851729586720467,0.179929286241531,0.0807428583502769,0.804562568664551,0.0200750026851892,0.0243560634553432,0.0584226101636887,0.000330580485751852,0.0450775362551212,0.151940479874611,0.0477112606167793,8.74252414703369,0.0453706793487072,0.0522796958684921,0.102866254746914,0.0135765299201012,0.00933459401130676,0.23263581097126,0.0980365499854088,2012-01-23 11:59:08
1.00099992752075,35,3.77359890937805,0.021742707118392,0.0277175270020962,0.06080112606287,0.00172501930501312,0.0069774049334228,0.00616850843653083,0.00466646999120712,0.803024530410767,0.0163470860570669,0.0222111381590366,0.0599606819450855,0.00122339138761163,0.0022173288743943,0.00755742844194174,0.0247847996652126,8.71671104431152,0.0284192226827145,0.0402049981057644,0.119080543518066,0.000194140986423008,0.00443830108270049,0.0851266831159592,0.126543998718262,2012-01-23 11:59:09
1.00600004196167,43,3.81683921813965,0.0350154303014278,0.0424341857433319,0.100118972361088,0.042895995080471,0.118783310055733,0.101390212774277,0.13459686934948,0.803689181804657,0.0207058768719435,0.027571888640523,0.0878036916255951,0.000640258309431374,0.0102491285651922,0.0692263916134834,0.0479701831936836,8.69439315795898,0.0360125377774239,0.0434588231146336,0.111978150904179,0.038160715252161,0.11542022973299,0.112053945660591,0.0660207495093346,2012-01-23 11:59:10
1.04299998283386,42,3.84537410736084,0.0275965295732021,0.0382335223257542,0.106705620884895,0.0129412673413754,0.0132142901420593,0.0822736248373985,0.0815411508083344,0.777293741703033,0.0265068616718054,0.031528290361166,0.0614082776010036,0.0107679357752204,0.101415038108826,0.0689733251929283,0.0309886988252401,8.65763759613037,0.0284084770828485,0.033490713685751,0.086625874042511,0.00108734262175858,0.00403876323252916,0.0346258617937565,0.0614874847233295,2012-01-23 11:59:11
1.01600003242493,49,3.87002420425415,0.0410074107348919,0.047537200152874,0.12128234654665,0.0172484144568443,0.0498570986092091,0.0582730062305927,0.184499457478523,0.774525165557861,0.0258624274283648,0.0331223048269749,0.0880596861243248,0.0012754921335727,0.106505513191223,0.119736135005951,0.0565159879624844,8.70510292053223,0.0619930922985077,0.0766408443450928,0.169915124773979,0.764731168746948,1.35260128974915,0.497716635465622,0.134326279163361,2012-01-23 11:59:12
1.00600004196167,35,3.8940806388855,0.0224471818655729,0.0302371084690094,0.0776124969124794,0.00214801519177854,0.00275220535695553,0.0337844304740429,0.0494463630020618,0.799101829528809,0.0273465421050787,0.035114411264658,0.0736899673938751,0.0375220105051994,0.0496621914207935,0.0226281080394983,0.0139264687895775,8.6802864074707,0.0547573119401932,0.0647599101066589,0.128887832164764,0.192419797182083,0.345581024885178,0.161908507347107,0.0299960449337959,2012-01-23 11:59:13
1.00799989700317,40,3.87828493118286,0.027237955480814,0.0317762307822704,0.0733047872781754,0.0266471598297358,0.0649789050221443,0.0500515475869179,0.0169737469404936,0.797770977020264,0.0179706867784262,0.0230560600757599,0.0720788612961769,0.00291503733024001,0.00569316279143095,0.0110955676063895,0.0167572256177664,8.68501472473145,0.0485430620610714,0.0564496889710426,0.131163999438286,0.0491531640291214,0.26409313082695,0.343942791223526,0.151042386889458,2012-01-23 11:59:14
1.01800012588501,40,3.87730407714844,0.0309522226452827,0.037961196154356,0.101744018495083,0.0245938207954168,0.0529981665313244,0.0284457337111235,0.0397222116589546,0.780119001865387,0.0214765593409538,0.0275591257959604,0.0544268861413002,0.0283326171338558,0.0463192462921143,0.036475095897913,0.0225561708211899,8.73086071014404,0.0467286966741085,0.0554835200309753,0.101009175181389,0.134096726775169,0.317745268344879,0.170947059988976,0.0461635775864124,2012-01-23 11:59:15
1.02799987792969,47,3.86841034889221,0.0401322394609451,0.049628522247076,0.113089561462402,0.00282306363806129,0.0673835426568985,0.100924052298069,0.202737227082253,0.768257081508636,0.0136999990791082,0.0186810605227947,0.0719849765300751,0.00140409823507071,0.00163714878726751,0.0120226889848709,0.000888098031282425,8.64883899688721,0.0299042649567127,0.0362674072384834,0.0790794417262077,2.20627516682725e-05,0.0252855718135834,0.0434343554079533,0.0527257695794106,2012-01-23 11:59:16
1.02800011634827,35,3.9010853767395,0.0280189588665962,0.0328025370836258,0.0666853338479996,0.0216750632971525,0.0333233810961246,0.0277550723403692,0.0220355037599802,0.806106626987457,0.02566540800035,0.03018519282341,0.06668521463871,0.00138403731398284,0.00747557170689106,0.034059576690197,0.0409955009818077,8.6718807220459,0.0230558067560196,0.0270933359861374,0.0560381226241589,0.0300645884126425,0.0508918240666389,0.0227992665022612,0.0164567213505507,2012-01-23 11:59:17
1.01199984550476,43,3.91650223731995,0.0239093098789454,0.0314427018165588,0.104223974049091,0.000527432654052973,0.0139037556946278,0.0492042005062103,0.0439307428896427,0.815092206001282,0.0241533257067204,0.0469696260988712,0.214606016874313,0.0798233598470688,0.147522956132889,0.148664921522141,0.12676040828228,8.67865753173828,0.0426742397248745,0.0527254045009613,0.108101271092892,0.0959928706288338,0.124436795711517,0.0870429277420044,0.0422814972698689,2012-01-23 11:59:18
1.14900016784668,39,3.31665921211243,0.14822806417942,0.200167298316956,0.556967437267303,2.13139343261719,2.35454702377319,0.303703159093857,0.0719324350357056,0.307526469230652,0.212819129228592,0.243166446685791,0.535845398902893,4.97240924835205,6.16356372833252,0.811401426792145,0.383381128311157,8.94014453887939,0.0776536092162132,0.108442716300488,0.31029286980629,0.280825942754745,0.316719353199005,0.066798560321331,0.0286628622561693,2012-01-23 11:59:19
1.01300001144409,43,3.03207921981812,0.0925187766551971,0.114193089306355,0.282568424940109,0.0886042863130569,1.39537370204926,1.30953419208527,0.334393173456192,0.06636593490839,0.0422603487968445,0.0509716458618641,0.149380370974541,0.076471209526062,0.156355306506157,0.097911074757576,0.126988753676414,8.98973274230957,0.0653846487402916,0.0870871990919113,0.218711659312248,0.000753867789171636,0.231646329164505,0.611099123954773,1.023592710495,2012-01-23 11:59:20
1.00799989700317,36,3.72952342033386,0.132707551121712,0.161963492631912,0.346229255199432,1.71195209026337,2.24608635902405,0.702042520046234,0.411602735519409,0.181967839598656,0.0559342242777348,0.068508043885231,0.14165161550045,0.240043640136719,0.425129741430283,0.209995821118355,0.163506284356117,8.7442626953125,0.0728234574198723,0.088078074157238,0.199401676654816,0.27752298116684,0.462066113948822,0.18860986828804,0.0184949208050966,2012-01-23 11:59:21
1.01200008392334,49,4.36035680770874,0.214071705937386,0.255746811628342,0.542968332767487,9.89527606964111,23.1855945587158,7.13136339187622,2.98858284950256,-0.315614014863968,0.270959228277206,0.352447777986526,0.874593019485474,14.8256435394287,11.9422264099121,4.40596914291382,0.604276776313782,8.44772815704346,0.151874363422394,0.190539509057999,0.425889134407043,2.28156638145447,5.02489852905273,5.9957594871521,0.884494304656982,2012-01-23 11:59:22
1.00899982452393,35,4.144850730896,0.332385420799255,0.371965944766998,0.581954658031464,6.01076364517212,8.60980606079102,2.23520565032959,0.0713647976517677,-0.586717844009399,0.156954422593117,0.185690939426422,0.433173775672913,1.59523284435272,2.52174305915833,1.22041153907776,0.115656837821007,8.45417213439941,0.148148283362389,0.162165716290474,0.273746013641357,1.06969022750854,1.49056053161621,0.330209165811539,0.0800482556223869,2012-01-23 11:59:23
1.00100016593933,43,2.62270855903625,0.454075992107391,0.554305493831635,1.09401166439056,46.3723373413086,64.4146423339844,20.9133014678955,4.89954137802124,-0.844056069850922,0.218727007508278,0.277659207582474,0.736182928085327,1.98467576503754,13.9363088607788,14.112681388855,2.78634405136108,9.06339740753174,0.183806985616684,0.212987288832664,0.364898234605789,4.43361616134644,6.21674633026123,1.64409577846527,0.279966175556183,2012-01-23 11:59:24
1.04200005531311,32,2.34256339073181,0.294352740049362,0.338895231485367,0.675432980060577,2.28523874282837,3.36938881874084,1.13740909099579,0.179827153682709,-0.958600044250488,0.313506335020065,0.356689512729645,0.782080352306366,3.11614060401917,4.58786058425903,1.38514459133148,0.146364614367485,8.83058166503906,0.364454805850983,0.426194369792938,0.985261797904968,4.2275128364563,6.08251762390137,1.57142508029938,0.412512481212616,2012-01-23 11:59:25
1.09799981117249,49,2.51050233840942,0.089260496199131,0.107918605208397,0.284392833709717,0.466431111097336,0.352008312940598,0.687794268131256,1.30674648284912,-1.37953543663025,0.0674498155713081,0.080365888774395,0.209141835570335,0.210299372673035,0.434070914983749,0.273891925811768,0.830705881118774,9.00630664825439,0.0359671860933304,0.0490858256816864,0.133490294218063,0.00984370894730091,0.0140910437330604,0.170723766088486,0.0852809995412827,2012-01-23 11:59:26
1.00100016593933,47,2.50194764137268,0.053228460252285,0.0651636198163033,0.155654475092888,0.00818457268178463,0.059279277920723,0.143651768565178,0.151190087199211,-1.42676317691803,0.0739605203270912,0.0877103582024574,0.181527331471443,0.149399101734161,0.0930018201470375,0.0339075326919556,1.30159389972687,9.0020866394043,0.0413219295442104,0.0473542995750904,0.0984836369752884,0.0558268576860428,0.157398462295532,0.0994878560304642,0.0944698005914688,2012-01-23 11:59:27
1.01799988746643,44,2.55463218688965,0.0588398836553097,0.0728331580758095,0.161809623241425,0.0386307388544083,0.0801801681518555,0.0729058906435966,0.564033329486847,-1.3702564239502,0.0646347403526306,0.0777075737714767,0.179194226861,0.0249279029667377,0.0687010511755943,0.109972395002842,0.125267460942268,9.04551982879639,0.0397229418158531,0.0474112406373024,0.0942774042487144,0.0232777148485184,0.110954917967319,0.22499717772007,0.178694188594818,2012-01-23 11:59:28
1.01900005340576,46,2.57936215400696,0.0360566414892673,0.0466063506901264,0.117892883718014,0.0912285596132278,0.114812947809696,0.0735431909561157,0.078058272600174,-1.3492671251297,0.060684435069561,0.0727446153759956,0.162662476301193,0.0472790487110615,0.0814472809433937,0.103936418890953,0.486862033605576,8.97969341278076,0.0597852393984795,0.0754386186599731,0.199330478906631,0.105629481375217,0.718764245510101,0.266092270612717,0.39089047908783,2012-01-23 11:59:29
1,42,2.62818217277527,0.0658446252346039,0.0760824531316757,0.147099688649178,0.190604478120804,0.267862051725388,0.222600176930428,0.292633295059204,-1.31712651252747,0.0484439469873905,0.0631382241845131,0.159941747784615,0.0629691705107689,0.0997967943549156,0.116050444543362,0.181976616382599,8.97378540039062,0.0311544053256512,0.0414622910320759,0.128186702728271,0.00624740403145552,0.0134721491485834,0.0122055197134614,0.100684456527233,2012-01-23 11:59:30
1.01799988746643,45,2.60813307762146,0.0640797987580299,0.0753675848245621,0.166277065873146,0.0176549106836319,0.137286230921745,0.218200072646141,0.35671478509903,-1.34263932704926,0.0571158640086651,0.0706509128212929,0.147971406579018,0.030122559517622,0.0327859781682491,0.187267482280731,0.738802552223206,8.98942852020264,0.0334151946008205,0.0407234467566013,0.0915285721421242,0.00140369031578302,0.0125644896179438,0.0168505143374205,0.137102127075195,2012-01-23 11:59:31
1.2110002040863,39,2.6397488117218,0.0513607934117317,0.0604878179728985,0.125726342201233,0.0549664236605167,0.14115671813488,0.0465371981263161,0.125852033495903,-1.31559979915619,0.0724570155143738,0.0851032212376595,0.175010934472084,0.00488899135962129,0.0097847655415535,0.101256415247917,0.363004237413406,8.97031879425049,0.0537075959146023,0.0640931725502014,0.149865463376045,0.00143633037805557,0.0693587884306908,0.321325927972794,0.102467104792595,2012-01-23 11:59:32
1.00399994850159,46,2.63564372062683,0.0631129145622253,0.0764881744980812,0.178864717483521,0.0543935187160969,0.0863658785820007,0.0764550492167473,0.69433206319809,-1.2923458814621,0.061398159712553,0.0716248378157616,0.154774561524391,9.45047304412583e-07,0.0082810502499342,0.0318016186356544,0.455637603998184,8.9813985824585,0.022875964641571,0.0270479638129473,0.0671541169285774,1.50822461364442e-05,0.00247372011654079,0.0114616798236966,0.0704519674181938,2012-01-23 11:59:33
1.00699996948242,43,2.67630314826965,0.0506508909165859,0.0620160028338432,0.187238693237305,0.0143941957503557,0.105186127126217,0.0746095255017281,0.151818037033081,-1.29470586776733,0.0458987317979336,0.0651697814464569,0.186098247766495,0.2015380859375,0.219627663493156,0.018392464146018,0.182407364249229,8.96806716918945,0.0325119867920876,0.0393046848475933,0.0736637786030769,0.00756753841415048,0.0641715750098228,0.113008081912994,0.0605495646595955,2012-01-23 11:59:34
1.01300001144409,36,2.67421889305115,0.0549202673137188,0.067223846912384,0.153909936547279,0.0134905846789479,0.0250126421451569,0.0432440489530563,0.174989715218544,-1.26914393901825,0.0580226816236973,0.065352126955986,0.133206978440285,0.0128782605752349,0.0289527289569378,0.0678336322307587,0.177567571401596,8.97117805480957,0.0284816101193428,0.0365339629352093,0.0863528549671173,0.00496944831684232,0.0172453485429287,0.0401776246726513,0.0400089286267757,2012-01-23 11:59:35
1.25300002098083,35,2.69234561920166,0.0802143737673759,0.100347131490707,0.260296583175659,0.079768642783165,0.0857324823737144,0.0645671337842941,0.0273615159094334,-1.20958018302917,0.0628586336970329,0.0803544670343399,0.173157423734665,0.000273145938990638,0.00236309226602316,0.00736560812219977,0.0303924009203911,8.97980880737305,0.0326941125094891,0.0491043627262115,0.140374943614006,0.0244789142161608,0.0458275601267815,0.0675513669848442,0.0829438343644142,2012-01-23 11:59:37
1.00600004196167,51,2.65279483795166,0.0349057503044605,0.0415776111185551,0.102873735129833,0.126398831605911,0.152131795883179,0.104224741458893,0.134603932499886,-1.25928914546967,0.0479813255369663,0.0582982487976551,0.143061697483063,8.38701598695479e-05,0.0112073570489883,0.152580291032791,0.675389766693115,8.9765453338623,0.0548130832612514,0.0678541287779808,0.209400460124016,0.00727783376350999,0.0746370926499367,0.729864716529846,1.05605006217957,2012-01-23 11:59:38
1.28399991989136,44,2.68234157562256,0.0505731329321861,0.0620751492679119,0.152225971221924,0.00050242873840034,0.00345120881684124,0.0246749669313431,0.148859247565269,-1.23340904712677,0.0582928359508514,0.0700604394078255,0.139521911740303,0.000249169737799093,0.0139372330158949,0.0790897533297539,0.109495148062706,9.0007209777832,0.0325401909649372,0.0385675579309464,0.0802360847592354,0.00197298172861338,0.003090854967013,0.014706245623529,0.0771517604589462,2012-01-23 11:59:39
1.0019998550415,42,2.58988952636719,0.0806991904973984,0.0989453792572021,0.216680243611336,0.48510679602623,1.00433230400085,1.68204414844513,0.4313884973526,-1.29354381561279,0.0621087923645973,0.0734738633036613,0.157840386033058,0.319022864103317,0.713899791240692,0.499827682971954,0.114084020256996,8.99526596069336,0.0357241630554199,0.043545339256525,0.100634731352329,0.012722316198051,0.0174889508634806,0.171315416693687,0.123138442635536,2012-01-23 11:59:40
1.02100014686584,45,2.35337805747986,0.0516628660261631,0.0611023716628551,0.137511074542999,0.0450681149959564,0.341885209083557,0.510759830474854,0.286343365907669,-1.3984283208847,0.055876113474369,0.0678606331348419,0.143177092075348,0.383519619703293,0.473787009716034,0.143913984298706,0.107136026024818,9.05916500091553,0.029686251655221,0.0368609353899956,0.100245580077171,0.000951970112510026,0.0866928771138191,0.0992569327354431,0.0323761142790318,2012-01-23 11:59:41
1.1159999370575,48,2.0898380279541,0.121408350765705,0.137908115983009,0.244144782423973,3.95744132995605,4.18962430953979,0.936239421367645,0.23305332660675,-1.48407304286957,0.0386817865073681,0.0462723113596439,0.0947976633906364,0.201744273304939,0.345829427242279,0.34972819685936,0.0472755767405033,9.07687091827393,0.0338124521076679,0.040077093988657,0.0923457965254784,0.122941978275776,0.176094546914101,0.103139959275723,0.0401414930820465,2012-01-23 11:59:42
1.03699994087219,45,1.94825446605682,0.0373379029333591,0.0448206700384617,0.0915288180112839,0.0172768533229828,0.0207452848553658,0.19731567800045,0.0845598131418228,-1.55533468723297,0.0308582596480846,0.0354127362370491,0.0647239312529564,0.0046115699224174,0.0130837643519044,0.110554397106171,0.0401016920804977,9.10144233703613,0.041899748146534,0.0524987131357193,0.0989380329847336,0.199944496154785,0.29381251335144,0.0563279800117016,0.064583495259285,2012-01-23 11:59:43
1.01200008392334,52,1.91078794002533,0.0320021770894527,0.0390083789825439,0.0995751097798347,0.00605129078030586,0.0179094932973385,0.154033750295639,0.255287289619446,-1.59131753444672,0.032684002071619,0.0390903614461422,0.100706778466702,0.254007250070572,0.262449085712433,0.0533782914280891,0.0463003627955914,9.10189056396484,0.0288541316986084,0.03535982593894,0.0895798206329346,0.00489687081426382,0.116651743650436,0.141619071364403,0.0348300449550152,2012-01-23 11:59:44
1.00600004196167,41,1.88694298267365,0.0395649597048759,0.0454316064715385,0.0940002724528313,0.107511691749096,0.14367538690567,0.0224485844373703,0.0964307561516762,-1.63292682170868,0.0331127718091011,0.0394128486514091,0.0932827740907669,0.0264431349933147,0.0396508611738682,0.0579745024442673,0.0259504485875368,9.06062698364258,0.0410583466291428,0.0538174211978912,0.126768663525581,0.0560956113040447,0.101393550634384,0.117108032107353,0.114797241985798,2012-01-23 11:59:45
1.01699995994568,43,2.12918329238892,0.104250676929951,0.12598130106926,0.253832578659058,2.29088044166565,3.25997519493103,1.1845383644104,0.230241119861603,-1.62721967697144,0.0304117538034916,0.0347133502364159,0.0777690410614014,0.0262770857661963,0.0738584026694298,0.0339102670550346,0.110718764364719,9.06613349914551,0.0220317766070366,0.0277673322707415,0.0638571456074715,9.91915112535935e-06,0.0240604747086763,0.0301691927015781,0.0553019754588604,2012-01-23 11:59:46
1.00600004196167,43,2.31870245933533,0.0438090600073338,0.0522056967020035,0.113346539437771,0.00242434116080403,0.106271468102932,0.142034918069839,0.127770081162453,-1.60076451301575,0.0284387487918139,0.0365610606968403,0.10034704208374,0.0251006837934256,0.0943558812141418,0.0473837219178677,0.0723549798130989,9.03831005096436,0.0500249676406384,0.0611833482980728,0.114258676767349,0.0183747746050358,0.0460385344922543,0.068055547773838,0.293820887804031,2012-01-23 11:59:47
1.1010000705719,48,2.36156392097473,0.0497227758169174,0.0620761923491955,0.145260974764824,0.00653664860874414,0.119468726217747,0.227034687995911,0.305301487445831,-1.59194612503052,0.0369111336767673,0.0478056669235229,0.130755320191383,0.123517386615276,0.269048005342484,0.220817536115646,0.145258247852325,9.01435375213623,0.0348339788615704,0.047029186040163,0.145056441426277,0.0174082331359386,0.169970750808716,0.312269151210785,0.219872236251831,2012-01-23 11:59:48
1,50,2.3834080696106,0.0313655436038971,0.0367956720292568,0.0690387040376663,2.7881801543117e-06,0.0165955517441034,0.0671408846974373,0.270550698041916,-1.5512158870697,0.0264387223869562,0.0319696702063084,0.0864945948123932,0.0423003956675529,0.136626690626144,0.123995050787926,0.0329090654850006,8.98642158508301,0.0277410037815571,0.0369937606155872,0.114149205386639,0.00108213827479631,0.0672150552272797,0.190208360552788,0.206240266561508,2012-01-23 11:59:49
1.02699995040894,38,2.41682291030884,0.0288223382085562,0.0353367328643799,0.0828403010964394,5.75935046072118e-05,0.00109573930967599,0.00741416541859508,0.0231857150793076,-1.53680527210236,0.0211345367133617,0.0289785880595446,0.0952276811003685,0.00192378670908511,0.00450760358944535,0.00377725879661739,0.0121245803311467,9.020827293396,0.0477428175508976,0.0597858056426048,0.136002510786057,0.0780660733580589,0.135613784193993,0.285012811422348,0.157898664474487,2012-01-23 11:59:50
1.0019998550415,46,2.42202925682068,0.0398847237229347,0.049181804060936,0.117892920970917,0.0170853454619646,0.0391083434224129,0.0329457446932793,0.181677371263504,-1.52727913856506,0.0382626056671143,0.0439725778996944,0.0810114443302155,0.0124454852193594,0.0392145477235317,0.0865185707807541,0.0242486260831356,9.01785373687744,0.0315517745912075,0.0398427173495293,0.103609211742878,0.0125069776549935,0.0706835240125656,0.0811239629983902,0.0518795251846313,2012-01-23 11:59:51
1,43,2.4468731880188,0.0379537269473076,0.0475452542304993,0.103083834052086,0.111351072788239,0.171057403087616,0.0643993839621544,0.024182915687561,-1.50634706020355,0.0389083735644817,0.0465357452630997,0.111750170588493,0.000837069004774094,0.0536966547369957,0.0990577414631844,0.220510914921761,8.97969818115234,0.0212043914943933,0.0259649492800236,0.0556469410657883,1.88081812666496e-05,0.00332142459228635,0.0176911987364292,0.0260677523910999,2012-01-23 11:59:52
1.01999998092651,44,2.49490094184875,0.0527816265821457,0.0643173009157181,0.13328130543232,0.0637510344386101,0.106690056622028,0.0871535390615463,0.393993407487869,-1.45896208286285,0.0510594211518764,0.0609514452517033,0.139521881937981,0.0787107273936272,0.157017365098,0.0499627627432346,0.158740863204002,9.0410623550415,0.0404320992529392,0.0512304417788982,0.117010958492756,0.148685798048973,0.18005795776844,0.0868207365274429,0.0525555685162544,2012-01-23 11:59:53
1.0090000629425,44,2.46748685836792,0.0564895495772362,0.0681100562214851,0.170502007007599,0.281279653310776,0.468770086765289,0.201207414269447,0.0673619732260704,-1.4734491109848,0.0322059206664562,0.0401694625616074,0.0907114893198013,0.0757861509919167,0.128004759550095,0.0676985457539558,0.0272331107407808,9.04329109191895,0.0316588096320629,0.0376887992024422,0.0898198410868645,0.0247488375753164,0.0666728019714355,0.0479074940085411,0.00468921149149537,2012-01-23 11:59:54
1.00300002098083,44,2.45678853988647,0.0570467337965965,0.0711631253361702,0.152225837111473,0.180227980017662,0.344129502773285,0.0917434468865395,0.255688905715942,-1.49484539031982,0.043714564293623,0.0515707060694695,0.102301180362701,0.138496473431587,0.192862197756767,0.119507268071175,0.308744966983795,8.97041034698486,0.0273126885294914,0.0345050878822803,0.090934231877327,0.0156634822487831,0.0196377336978912,0.0312208980321884,0.051873940974474,2012-01-23 11:59:55
1.01999998092651,48,2.50049138069153,0.0492460541427135,0.0641970410943031,0.157110691070557,1.05613835330587e-05,0.00198222161270678,0.0532290264964104,0.144742459058762,-1.4536315202713,0.039396844804287,0.0491654388606548,0.110120549798012,0.0239809136837721,0.0259656924754381,0.0244036484509706,0.132421866059303,8.99085903167725,0.0278109982609749,0.0347672589123249,0.0864209532737732,0.000769343401771039,0.0187724381685257,0.0330674424767494,0.0643721967935562,2012-01-23 11:59:56
1.01999998092651,43,2.51346707344055,0.0840857774019241,0.0982837155461311,0.218711212277412,0.00189765635877848,0.0515783689916134,0.268792152404785,1.26476120948792,-1.46164691448212,0.0507039353251457,0.0669794902205467,0.195676878094673,0.0105235604569316,0.0225873105227947,0.0578448325395584,0.220195323228836,8.99110126495361,0.0311330109834671,0.0393932461738586,0.0866632685065269,0.0668049901723862,0.0646558254957199,0.0904749259352684,0.0716346129775047,2012-01-23 11:59:57
1.00399994850159,43,2.5073094367981,0.0435544364154339,0.0510980039834976,0.0914527922868729,0.0260437857359648,0.0727017000317574,0.0949967056512833,0.193519845604897,-1.47373425960541,0.0418254472315311,0.0507733039557934,0.124749712646008,0.0241088885813951,0.0286188740283251,0.0609700009226799,0.350505977869034,9.01436328887939,0.0322998352348804,0.0413124598562717,0.1156270429492,0.0565135329961777,0.0753305107355118,0.0146523099392653,0.100709080696106,2012-01-23 11:59:58
