"diffSecs","N.samples","x.mean","x.absolute.deviation","x.standard.deviation","x.max.deviation","x.PSD.1","x.PSD.3","x.PSD.6","x.PSD.10","y.mean","y.absolute.deviation","y.standard.deviation","y.max.deviation","y.PSD.1","y.PSD.3","y.PSD.6","y.PSD.10","z.mean","z.absolute.deviation","z.standard.deviation","z.max.deviation","z.PSD.1","z.PSD.3","z.PSD.6","z.PSD.10","time"
1.03699994087219,43,-0.776321768760681,0.535679638385773,0.607382714748383,1.23404133319855,6.43853569030762,7.82619667053223,26.2966289520264,29.2347831726074,3.96371102333069,0.974862635135651,1.135582447052,2.42041802406311,53.5261192321777,105.243309020996,75.6605606079102,121.669097900391,-8.62802696228027,0.596481919288635,0.732865989208221,1.55127489566803,1.24238014221191,4.56774234771729,7.04608011245728,21.6512107849121,2012-01-15 15:20:46
1.01900005340576,46,-0.9245964884758,0.294839054346085,0.37346339225769,0.777496755123138,17.4504337310791,20.8177089691162,3.22760772705078,9.05333805084229,4.41555070877075,0.49682080745697,0.628309547901154,1.17935621738434,3.57812690734863,6.81773138046265,6.70762538909912,6.99768972396851,-8.20816612243652,0.176946058869362,0.221503064036369,0.451106309890747,2.58616971969604,4.46938323974609,1.01239264011383,3.90465831756592,2012-01-15 15:20:47
1.01899981498718,50,0.0884559825062752,0.141780614852905,0.17702554166317,0.343036621809006,3.73078942298889,5.91560125350952,4.59191131591797,1.00990355014801,4.12859964370728,0.398934543132782,0.513950824737549,1.62790381908417,0.0419110767543316,18.4763088226318,20.2388324737549,2.99422121047974,-8.61612224578857,0.334524512290955,0.408408969640732,0.859062492847443,20.9835567474365,29.3445148468018,6.5794734954834,6.7653489112854,2012-01-15 15:20:48
1.00500011444092,37,0.861394882202148,0.234156146645546,0.287826955318451,0.616228640079498,0.499910831451416,0.409544348716736,1.91058444976807,0.596367418766022,3.52376770973206,0.295173674821854,0.381190091371536,0.889224708080292,1.81586217880249,4.16693449020386,7.598304271698,5.401198387146,-8.87978839874268,0.471593081951141,0.576531767845154,1.09357416629791,0.0452067255973816,4.82634735107422,11.5040578842163,0.924812436103821,2012-01-15 15:20:49
