"diffSecs","level","azimuth.mean","azimuth.absolute.deviation","azimuth.standard.deviation","azimuth.max.deviation","pitch.mean","pitch.absolute.deviation","pitch.standard.deviation","pitch.max.deviation","roll.mean","roll.absolute.deviation","roll.standard.deviation","roll.max.deviation","time"
1.01699995994568,16,12.6312503814697,0.214062348008156,0.286615401506424,0.668749988079071,-17.125,0.24999988079071,0.309232831001282,0.725000500679016,-44.8624992370605,0.342187702655792,0.458086967468262,1.06250143051147,2012-02-19 08:33:48
1.00200009346008,44,14.7818183898926,0.752479374408722,0.831283986568451,1.58181858062744,-11.3590908050537,3.28904962539673,3.51893043518066,5.25909090042114,-40.731819152832,0.747933685779572,1.04485166072845,2.66818237304688,2012-02-19 08:33:49
1.03699994087219,29,15.3551721572876,0.101545907557011,0.11915285140276,0.255172222852707,-5.29310369491577,0.240665927529335,0.283975571393967,0.60689651966095,-41.0379333496094,0.268490076065063,0.318848878145218,0.56207001209259,2012-02-19 08:33:50
1.00399994850159,44,16.9795455932617,0.506921589374542,0.641581773757935,1.67954564094543,-5.11363649368286,0.234917417168617,0.289663553237915,0.686363697052002,-39.4977264404297,0.429028958082199,0.609951138496399,1.90227353572845,2012-02-19 08:33:51
1.01600003242493,45,13.9288892745972,1.77046918869019,1.94577860832214,3.07111096382141,-4.50888919830322,2.171555519104,2.42778563499451,4.30888891220093,-39.1555557250977,0.188642054796219,0.220661416649818,0.444446295499802,2012-02-19 08:33:52
1.01600003242493,44,18.4454555511475,1.78140497207642,2.20839881896973,5.54545450210571,-5.88181829452515,2.2359504699707,2.60988283157349,5.38181829452515,-40.3250007629395,1.52272737026215,1.65750706195831,2.97499823570251,2012-02-19 08:33:53
1.0479998588562,34,19.0970592498779,0.232699021697044,0.289507925510406,0.602941632270813,-5.80882358551025,0.611937701702118,0.756683051586151,1.79117631912231,-45.4735298156738,1.0134950876236,1.1725560426712,2.17353057861328,2012-02-19 08:33:54
1.14000010490417,51,19.0411777496338,0.416839718818665,0.466180384159088,0.958823025226593,-6.93921566009521,0.61337947845459,0.716767907142639,2.03921556472778,-47.4098052978516,0.627297520637512,0.771363973617554,1.90980458259583,2012-02-19 08:33:55
1.01999998092651,48,19.0729179382324,0.324826329946518,0.372345894575119,0.72708398103714,-8.57499980926514,0.189583286643028,0.261007636785507,1.07500016689301,-43.8020820617676,0.244704887270927,0.313242018222809,0.697916209697723,2012-02-19 08:33:56
1.01799988746643,44,19.3159103393555,0.273347079753876,0.325397223234177,0.684090375900269,-7.82500028610229,0.4375,0.517478585243225,1.07500052452087,-44.0227279663086,0.136777237057686,0.176922604441643,0.422726362943649,2012-02-19 08:33:57
1.0310001373291,42,19.4880962371826,0.285034000873566,0.329647958278656,0.688094437122345,-7.31190490722656,0.143877521157265,0.197848409414291,0.511904716491699,-43.9738121032715,0.116893753409386,0.138116359710693,0.273809522390366,2012-02-19 08:33:58
1.04999995231628,44,19.10227394104,0.266115635633469,0.309316277503967,0.602273166179657,-7.47272729873657,0.304958641529083,0.366409868001938,0.772727072238922,-44.0022735595703,0.130062341690063,0.165815681219101,0.402271181344986,2012-02-19 08:33:59
1.02999997138977,43,19.072093963623,0.359545826911926,0.415583550930023,0.672093570232391,-7.98604679107666,0.148404568433762,0.181186571717262,0.413953870534897,-43.7674407958984,0.143212512135506,0.174836859107018,0.467443346977234,2012-02-19 08:34:00
1.01600003242493,50,18.1520004272461,0.717760026454926,0.840533256530762,1.45199966430664,-10.28600025177,1.28263998031616,1.56907737255096,3.91399955749512,-41.9060020446777,0.933040022850037,1.22791028022766,3.40600109100342,2012-02-19 08:34:01
1.02699995040894,43,12.7790699005127,1.91519749164581,2.18403911590576,4.2209300994873,-18.9837207794189,1.93293678760529,2.22302222251892,4.58372068405151,-36.2186050415039,0.537046730518341,0.660251975059509,1.78139436244965,2012-02-19 08:34:02
1.01900005340576,39,10.0307693481445,0.284023642539978,0.385076612234116,1.0692310333252,-20.4307689666748,0.944378674030304,1.05712568759918,1.63076841831207,-41.1692314147949,1.58974313735962,1.77650630474091,3.46923065185547,2012-02-19 08:34:03
1.00999999046326,42,10.5380954742432,0.300000041723251,0.353857904672623,0.661904394626617,-19.2023811340332,0.164852619171143,0.200580313801765,0.397619158029556,-42.7571449279785,0.140816032886505,0.163507387042046,0.342858642339706,2012-02-19 08:34:04
1.4539999961853,47,10.7510643005371,0.281937479972839,0.31948909163475,0.651063680648804,-18.7340431213379,0.166681855916977,0.200294137001038,0.465957850217819,-43.042552947998,0.125487104058266,0.155392110347748,0.357447773218155,2012-02-19 08:34:05
1.01800012588501,50,10.3100004196167,0.278800070285797,0.348855316638947,0.790000200271606,-19.5179996490479,0.235040098428726,0.288922101259232,0.582000017166138,-42.8680000305176,0.12528058886528,0.156767547130585,0.368000626564026,2012-02-19 08:34:06
1.2039999961853,40,9.90750026702881,0.222124934196472,0.255330622196198,0.507499575614929,-20.0300006866455,0.0745002403855324,0.090000219643116,0.229999020695686,-42.7224998474121,0.0892493799328804,0.108367957174778,0.27749902009964,2012-02-19 08:34:08
1.00999999046326,50,10.1440000534058,0.285279929637909,0.356179744005203,0.756000339984894,-19.7639999389648,0.180320024490356,0.251205146312714,0.764000415802002,-42.6440010070801,0.111999586224556,0.134402200579643,0.256000608205795,2012-02-19 08:34:09
1.01199984550476,33,10.2848491668701,0.194123223423958,0.232406750321388,0.584848880767822,-19.6121215820312,0.193388551473618,0.235819235444069,0.4878790974617,-42.8363647460938,0.134986773133278,0.17023740708828,0.363636493682861,2012-02-19 08:34:10
1.00999999046326,43,10.1558141708374,0.50362354516983,0.59778755903244,0.955814301967621,-19.179069519043,0.285776078701019,0.338641613721848,0.679070174694061,-43.5069770812988,0.165603145956993,0.199295446276665,0.406975328922272,2012-02-19 08:34:11
1.01300001144409,33,8.92424297332764,0.22038559615612,0.270835191011429,0.575757443904877,-20.2969703674316,0.445179134607315,0.521353185176849,1.00303101539612,-42.6878814697266,0.452525436878204,0.540907204151154,1.08787727355957,2012-02-19 08:34:12
1.1470000743866,40,8.76249980926514,0.293125063180923,0.349776744842529,0.637500286102295,-20.8000011444092,0.159999966621399,0.209761708974838,0.599999189376831,-42.3450012207031,0.203250259160995,0.249950021505356,0.645000159740448,2012-02-19 08:34:13
1.00399994850159,43,8.93953514099121,0.317576974630356,0.377962350845337,0.760464727878571,-20.9209308624268,0.45051372051239,0.527635335922241,0.979068994522095,-42.4697685241699,0.580313742160797,0.70067572593689,1.8697657585144,2012-02-19 08:34:14
1.03400015830994,43,11.734884262085,0.907842099666595,1.2032675743103,3.13488364219666,-16.3139533996582,3.03883194923401,3.42993545532227,5.78604650497437,-30.4604663848877,3.35402941703796,4.25124597549438,9.93953609466553,2012-02-19 08:34:15
