"diffSecs","level","azimuth.mean","azimuth.absolute.deviation","azimuth.standard.deviation","azimuth.max.deviation","pitch.mean","pitch.absolute.deviation","pitch.standard.deviation","pitch.max.deviation","roll.mean","roll.absolute.deviation","roll.standard.deviation","roll.max.deviation","time"
1.01399993896484,32,-38.5687522888184,0.518359780311584,0.611063718795776,1.36875021457672,2.62812495231628,0.331640630960464,0.402518928050995,0.828125,23.53125,0.178906440734863,0.214239254593849,0.468749582767487,2012-01-12 19:07:16
1.0149998664856,36,-36.7083358764648,1.19675934314728,1.32169389724731,2.10833191871643,5.22499990463257,0.988888919353485,1.12678873538971,1.82500004768372,24.2611122131348,0.779012322425842,0.843365550041199,1.43888938426971,2012-01-12 19:07:17
1.01999998092651,40,-30.4700012207031,2.98350024223328,3.56526327133179,6.02999973297119,-0.625000059604645,3.89750003814697,4.46165609359741,8.07499980926514,30.1499996185303,2.125,2.56339621543884,5.15000057220459,2012-01-12 19:07:18
1.01600003242493,40,-13.0150003433228,7.11724996566772,7.71140575408936,11.1850004196167,-23.4525012969971,7.16174983978271,7.87991094589233,14.352499961853,31.1350002288818,1.51125001907349,1.84709894657135,3.93499946594238,2012-01-12 19:07:19
1.17700004577637,41,-3.71463418006897,1.40606784820557,1.99090147018433,5.98536539077759,-31.7463417053223,0.703390896320343,0.934983432292938,2.74634194374084,27.6463413238525,0.530755519866943,0.600851953029633,0.946341097354889,2012-01-12 19:07:20
1.00699996948242,39,-20.9846153259277,3.36094665527344,4.18909072875977,10.4846162796021,-26.8435897827148,2.26522016525269,2.59504389762878,4.45641088485718,22.0435905456543,2.14082837104797,2.51546955108643,5.25641107559204,2012-01-12 19:07:21
1.08400011062622,39,-19.6333332061768,0.4427350461483,0.554391860961914,1.26666593551636,-33.235897064209,0.449967265129089,0.611214756965637,1.83589851856232,16.4897441864014,0.364891588687897,0.459539890289307,1.41025543212891,2012-01-12 19:07:22
1.03600001335144,43,-19.2255821228027,0.235478550195694,0.291820913553238,0.674417793750763,-33.5627899169922,0.10438122600317,0.12763187289238,0.33720999956131,16.251163482666,0.122119963169098,0.146861732006073,0.351162672042847,2012-01-12 19:07:23
1.0149998664856,33,-19.3151512145996,0.232322961091995,0.322979658842087,0.78484833240509,-33.4121208190918,0.0927455052733421,0.11744149774313,0.312119573354721,16.1666679382324,0.0909092202782631,0.117206543684006,0.333332866430283,2012-01-12 19:07:24
1,39,-19.7051296234131,0.353977560997009,0.395454078912735,0.705128729343414,-33.4769248962402,0.10414207726717,0.127020567655563,0.27692323923111,16.1538467407227,0.144378885626793,0.167708858847618,0.353846520185471,2012-01-12 19:07:25
1.00999999046326,39,-19.4153842926025,0.213806629180908,0.252716869115829,0.515385448932648,-33.4923095703125,0.0765283852815628,0.0997039079666138,0.207692176103592,16.1692314147949,0.116765506565571,0.138033628463745,0.26923069357872,2012-01-12 19:07:26
1.23399996757507,38,-19.189474105835,0.199446111917496,0.267335265874863,0.710525691509247,-33.4394760131836,0.12257607281208,0.153107300400734,0.360525041818619,16.2342109680176,0.129085838794708,0.154368460178375,0.265789031982422,2012-01-12 19:07:27
1.00800013542175,43,-19.572093963623,0.288480252027512,0.330134212970734,0.627907395362854,-33.4767456054688,0.0921578034758568,0.117804169654846,0.323254436254501,16.195348739624,0.108383022248745,0.149344980716705,0.304650664329529,2012-01-12 19:07:28
1.05999994277954,39,-19.6128215789795,0.309270262718201,0.354588598012924,0.712821483612061,-33.5615386962891,0.186982318758965,0.215567529201508,0.461536794900894,16.2461547851562,0.111637055873871,0.133677929639816,0.346153795719147,2012-01-12 19:07:29
1.08400011062622,43,-19.2116279602051,0.314764767885208,0.386522531509399,0.911627113819122,-33.5465126037598,0.103407748043537,0.122662112116814,0.253486633300781,16.2976741790771,0.0867494642734528,0.110995963215828,0.302325487136841,2012-01-12 19:07:30
1.02799987792969,42,-19.2523803710938,0.221541941165924,0.267473369836807,0.552380502223969,-33.6809539794922,0.116099111735821,0.140132337808609,0.31904673576355,16.3428573608398,0.123128779232502,0.152974843978882,0.342857599258423,2012-01-12 19:07:31
1.00300002098083,38,-19.1052627563477,0.216897577047348,0.25644052028656,0.594737231731415,-33.5473709106445,0.113296993076801,0.135213240981102,0.252629935741425,16.2105274200439,0.112188383936882,0.127298772335052,0.210526764392853,2012-01-12 19:07:32
1.2039999961853,44,-19.2295455932617,0.277685791254044,0.326537758111954,0.67045384645462,-33.5681838989258,0.110537581145763,0.131032139062881,0.331818759441376,16.2090911865234,0.123140558600426,0.145880073308945,0.309090822935104,2012-01-12 19:07:34
1.05299997329712,43,-19.2279071807861,0.298323392868042,0.360442578792572,0.927906155586243,-33.6255836486816,0.135532364249229,0.158617302775383,0.374418050050735,16.1674423217773,0.118550658226013,0.144223481416702,0.267441689968109,2012-01-12 19:07:35
1.02100014686584,41,-19.0268306732178,0.3010114133358,0.370250105857849,0.773171424865723,-33.6853675842285,0.10493678599596,0.127949506044388,0.285365223884583,16.1658535003662,0.100059799849987,0.120182573795319,0.334145724773407,2012-01-12 19:07:36
1.08299994468689,42,-19.1714286804199,0.246258646249771,0.286427766084671,0.528572022914886,-33.5952377319336,0.129932463169098,0.171759083867073,0.404760897159576,16.1166667938232,0.125397071242332,0.149470150470734,0.316667050123215,2012-01-12 19:07:37
1.00699996948242,44,-19.1863632202148,0.355165272951126,0.417563706636429,0.786364376544952,-33.6727294921875,0.147933334112167,0.174984902143478,0.372728615999222,16.254545211792,0.109090894460678,0.133917361497879,0.345454394817352,2012-01-12 19:07:38
1.00200009346008,37,-18.8702697753906,0.264572441577911,0.34863817691803,0.929730474948883,-33.5810813903809,0.0721701607108116,0.0864867568016052,0.181080684065819,16.2189197540283,0.101534105837345,0.126998350024223,0.318919003009796,2012-01-12 19:07:39
1.01399993896484,39,-19.028205871582,0.250887602567673,0.317803859710693,0.82820463180542,-33.6717948913574,0.0999338924884796,0.119719006121159,0.228205949068069,16.1461544036865,0.101380884647369,0.123716413974762,0.253845244646072,2012-01-12 19:07:40
1.0239999294281,38,-18.9684219360352,0.250969409942627,0.295675069093704,0.668420493602753,-33.6236839294434,0.0995843186974525,0.126562461256981,0.276316195726395,16.3868427276611,0.0909967198967934,0.123907744884491,0.313158422708511,2012-01-12 19:07:41
1.08100008964539,41,-19.2926826477051,0.316597193479538,0.374419987201691,0.792683303356171,-33.7902450561523,0.130398094654083,0.167920902371407,0.390242964029312,16.3658542633057,0.142295837402344,0.163214087486267,0.36585408449173,2012-01-12 19:07:42
1.0149998664856,41,-18.8365859985352,0.237953469157219,0.28176811337471,0.563413858413696,-33.5414657592773,0.10672266036272,0.122923105955124,0.258534580469131,16.309757232666,0.123140521347523,0.149478361010551,0.309756428003311,2012-01-12 19:07:43
1.19900012016296,43,-18.9604663848877,0.240562409162521,0.277144402265549,0.539534389972687,-33.6046524047852,0.144942715764046,0.171115785837173,0.304652720689774,16.3720932006836,0.104812920093536,0.141955584287643,0.372093230485916,2012-01-12 19:07:44
1.1710000038147,46,-19.008695602417,0.301890254020691,0.34630087018013,0.691304743289948,-33.5652198791504,0.177126973867416,0.212865933775902,0.465215861797333,16.3260879516602,0.0775041580200195,0.100940406322479,0.273912847042084,2012-01-12 19:07:45
1.05699992179871,41,-19.2219524383545,0.39000591635704,0.48464834690094,1.72195160388947,-33.7243919372559,0.0955380201339722,0.118487119674683,0.2756088078022,16.3999996185303,0.136585205793381,0.159266397356987,0.300000220537186,2012-01-12 19:07:46
1.01099991798401,39,-19.0230770111084,0.337672591209412,0.393838107585907,0.923076987266541,-33.6051292419434,0.104273155331612,0.139502346515656,0.305129915475845,16.3051280975342,0.123733922839165,0.158435672521591,0.305128544569016,2012-01-12 19:07:47
1.01100015640259,42,-18.6738109588623,0.19659885764122,0.257330298423767,0.626191020011902,-33.523811340332,0.0938782170414925,0.115076959133148,0.27618870139122,16.2452392578125,0.116213247179985,0.148327812552452,0.35476166009903,2012-01-12 19:07:48
1.00799989700317,34,-18.9941177368164,0.252249091863632,0.310541301965714,0.905881464481354,-33.7029418945312,0.127162173390388,0.158086240291595,0.302940487861633,16.1264705657959,0.157439559698105,0.175413474440575,0.273528635501862,2012-01-12 19:07:49
1.00999999046326,33,-19.2484855651855,0.359045028686523,0.392444729804993,0.65151435136795,-33.7000007629395,0.0969693064689636,0.12792019546032,0.299999117851257,16.0303039550781,0.109458453953266,0.138136848807335,0.330303579568863,2012-01-12 19:07:50
1.07200002670288,42,-18.9380950927734,0.194104298949242,0.241968467831612,0.661904752254486,-33.728572845459,0.104761302471161,0.122056908905506,0.228572025895119,16.2071437835693,0.13639460504055,0.176463752985001,0.407143175601959,2012-01-12 19:07:51
1.05800008773804,41,-18.9170742034912,0.245211035013199,0.297880411148071,0.617072284221649,-33.7390251159668,0.0895890817046165,0.110161609947681,0.26097497344017,16.0926837921143,0.10196328908205,0.13684655725956,0.307316303253174,2012-01-12 19:07:52
1.02199983596802,41,-18.9853668212891,0.288161724805832,0.346804857254028,0.914633393287659,-33.7195129394531,0.125282242894173,0.150153398513794,0.31951168179512,16.2731704711914,0.138369828462601,0.159303784370422,0.326829314231873,2012-01-12 19:07:53
1.00200009346008,41,-19.1195125579834,0.33813214302063,0.398912847042084,0.819511294364929,-33.809757232666,0.100178889930248,0.133990913629532,0.39024418592453,16.3487815856934,0.108506299555302,0.127110049128532,0.251219481229782,2012-01-12 19:07:54
1.0090000629425,39,-18.9410266876221,0.27100595831871,0.344716936349869,0.75897479057312,-33.6666679382324,0.174358457326889,0.227959901094437,0.566665470600128,16.1512832641602,0.126890301704407,0.1583112180233,0.351282238960266,2012-01-12 19:07:55
1.01099991798401,39,-18.9461536407471,0.257199048995972,0.307884454727173,0.553845703601837,-33.6846160888672,0.113214433193207,0.138745859265327,0.315383613109589,16.0410251617432,0.110848344862461,0.135340139269829,0.341026216745377,2012-01-12 19:07:56
1.01300001144409,40,-18.8299999237061,0.292999863624573,0.372290223836899,1.2299998998642,-33.7750015258789,0.161249577999115,0.190722048282623,0.524998486042023,16.0599994659424,0.137000232934952,0.174356147646904,0.360000520944595,2012-01-12 19:07:57
1.11899995803833,37,-18.8864860534668,0.166690722107887,0.196127533912659,0.413514256477356,-33.7594604492188,0.108691893517971,0.130403310060501,0.259460031986237,16.0567569732666,0.120087899267673,0.146196246147156,0.356757372617722,2012-01-12 19:07:59
1.1230001449585,43,-18.8255825042725,0.268144845962524,0.319223701953888,0.725581407546997,-33.7046508789062,0.0988635197281837,0.125666990876198,0.295348227024078,16.0302333831787,0.0863170549273491,0.102378502488136,0.269768238067627,2012-01-12 19:08:00
1.00899982452393,43,-18.9418601989746,0.248675018548965,0.304411500692368,0.758139669895172,-33.8883743286133,0.0895624756813049,0.112496919929981,0.211629554629326,15.94651222229,0.185289368033409,0.241457760334015,0.646511793136597,2012-01-12 19:08:01
1.01800012588501,43,-18.9046516418457,0.247701302170753,0.301895797252655,0.695348680019379,-33.820930480957,0.0950788632035255,0.117251746356487,0.320930570363998,16,0.125581532716751,0.167053937911987,0.39999994635582,2012-01-12 19:08:02
1.03900003433228,41,-18.8170738220215,0.34598445892334,0.43555548787117,0.982927620410919,-33.8195114135742,0.085187740623951,0.10869388282299,0.219510048627853,15.8317079544067,0.102320171892643,0.119835361838341,0.231707125902176,2012-01-12 19:08:03
1.03499984741211,40,-19.0725002288818,0.380250006914139,0.421893090009689,0.672500669956207,-33.8125,0.111250035464764,0.13264100253582,0.212498098611832,15.852499961853,0.122750118374825,0.153276830911636,0.447500944137573,2012-01-12 19:08:04
1.01500010490417,39,-19.4769229888916,0.630374789237976,0.707636594772339,1.12307691574097,-32.2769241333008,0.928599834442139,1.04033088684082,1.52307569980621,17.792308807373,0.768836259841919,0.912698030471802,1.59230732917786,2012-01-12 19:08:05
1.02900004386902,28,-28.3107147216797,3.18137788772583,3.77182626724243,7.91071557998657,-21.9250011444092,3.72142863273621,4.49345779418945,9.17500019073486,18.3107147216797,0.861479461193085,0.967079222202301,1.68928527832031,2012-01-12 19:08:06
1.01399993896484,40,-37.9125022888184,2.99812507629395,3.17121338844299,4.21250009536743,-8.13000011444092,4.08850002288818,4.43007898330688,7.36999988555908,11.8000001907349,4.37000036239624,4.9803614616394,10.5,2012-01-12 19:08:07
1.01900005340576,43,-41.0627899169922,0.357274293899536,0.436701774597168,0.962789058685303,-7.22325611114502,0.810924828052521,0.933071255683899,1.57674419879913,-1.44186043739319,2.2056245803833,2.61278009414673,5.04186058044434,2012-01-12 19:08:08
1.0149998664856,39,-39.6794891357422,1.50295841693878,1.66351175308228,2.62051129341125,-11.4743595123291,3.70177507400513,4.28064918518066,7.47435903549194,12.1384620666504,9.51479339599609,10.8569164276123,17.3384628295898,2012-01-12 19:08:09
1.01500010490417,38,-38.5578956604004,2.39224362373352,2.6529655456543,5.15789365768433,1.12368416786194,1.8813019990921,2.2845516204834,4.62368440628052,23.5447368621826,4.43019390106201,4.88066530227661,7.45526266098022,2012-01-12 19:08:10
1.00600004196167,39,-32.4128227233887,0.562524795532227,0.672225415706635,1.41282105445862,19.0897445678711,5.13464832305908,6.21275758743286,14.3897438049316,23.1282062530518,5.42458915710449,5.95138216018677,8.17179584503174,2012-01-12 19:08:11
1.05299997329712,35,-31.2600002288818,1.1177145242691,1.27014088630676,2.14000082015991,26.7228584289551,0.722448945045471,0.807849168777466,1.52285695075989,17.8400001525879,0.772571444511414,0.947839736938477,2.14000058174133,2012-01-12 19:08:12
1.01099991798401,38,-32.8947372436523,2.85706377029419,3.09030318260193,4.50526428222656,25.3210525512695,1.64847636222839,1.76950144767761,2.72105240821838,13.1921052932739,6.3678674697876,7.03855514526367,13.3921060562134,2012-01-12 19:08:13
1.0090000629425,44,-38.9113655090332,1.39628076553345,1.67497825622559,3.38863468170166,14.9250001907349,2.25113654136658,2.61517643928528,5.125,-9.22272777557373,3.23987603187561,3.57375931739807,5.52272748947144,2012-01-12 19:08:14
1,38,-38.5947380065918,1.60000002384186,1.8443295955658,3.50526475906372,14.5131578445435,3.05664825439453,3.57845687866211,6.98684167861938,-10.3526315689087,1.18171751499176,1.67217743396759,4.95263147354126,2012-01-12 19:08:15
1.01399993896484,29,-36.6551742553711,1.86777603626251,1.98434972763062,2.8448269367218,22.1103458404541,1.97003567218781,2.19534683227539,3.38965463638306,2.98965525627136,4.99976205825806,6.11844825744629,13.1896553039551,2012-01-12 19:08:16
