"diffSecs","N.samples","x.mean","x.absolute.deviation","x.standard.deviation","x.max.deviation","x.PSD.1","x.PSD.3","x.PSD.6","x.PSD.10","y.mean","y.absolute.deviation","y.standard.deviation","y.max.deviation","y.PSD.1","y.PSD.3","y.PSD.6","y.PSD.10","z.mean","z.absolute.deviation","z.standard.deviation","z.max.deviation","z.PSD.1","z.PSD.3","z.PSD.6","z.PSD.10","time"
6.12100028991699,15,-7.22946214675903,0.0138600412756205,0.0179758556187153,0.0470718368887901,3.12112824758515e-05,7.6467462349683e-05,0.000259490072494373,0.000281558895949274,3.05640578269958,0.0135113606229424,0.0154711529612541,0.022882143035531,3.47970599250402e-05,6.87674983055331e-05,0.000225675743422471,0.000330949551425874,5.73558282852173,0.0370474494993687,0.044273879379034,0.0771458595991135,0.000564900576137006,0.00108029670082033,0.00329653569497168,0.0033381984103471,2012-01-17 11:54:06
0.369999885559082,99,-7.25880289077759,0.0303534343838692,0.0372364372014999,0.099948413670063,0.00419067917391658,0.222377553582191,0.46615070104599,0.180889591574669,3.07740592956543,0.0296750646084547,0.0381895303726196,0.0901420041918755,0.113479532301426,0.582941055297852,0.368609666824341,0.162355750799179,5.73500823974609,0.0396729819476604,0.0494707487523556,0.119561895728111,0.225552767515182,0.848526060581207,0.11889486759901,0.0892680957913399,2012-01-17 11:54:06
0.311000108718872,99,-7.22452926635742,0.0264391917735338,0.0349425375461578,0.114708364009857,0.197732448577881,0.282972306013107,0.159928515553474,0.114345736801624,3.03174066543579,0.0389144122600555,0.0457296185195446,0.0965805351734161,0.166252389550209,1.06969606876373,0.125505909323692,0.260174751281738,5.76987600326538,0.0530586093664169,0.0622955337166786,0.133726939558983,0.0319688320159912,0.645008504390717,0.232427135109901,0.194851949810982,2012-01-17 11:54:06
1.01899981498718,93,-7.22212314605713,0.0363760441541672,0.0432515442371368,0.102495133876801,0.454146146774292,1.18865013122559,0.155225589871407,0.0490108504891396,3.03974509239197,0.0273551940917969,0.0341972894966602,0.0885760635137558,0.0884746536612511,0.13088721036911,0.328091502189636,0.0206645913422108,5.79499197006226,0.0465897917747498,0.0568963252007961,0.126748517155647,0.0231478679925203,0.46713125705719,0.380351930856705,0.137233436107635,2012-01-17 11:54:07
1.01200008392334,47,-7.27069187164307,0.0208296608179808,0.0265045240521431,0.0646820440888405,0.00435499520972371,0.0176654644310474,0.0374822393059731,0.0924553051590919,3.0511200428009,0.0277285017073154,0.0346047841012478,0.0698985680937767,0.00416751345619559,0.00556168425828218,0.1449124366045,0.0647915527224541,5.71206045150757,0.0392977856099606,0.0448190718889236,0.0836696326732635,0.0208406709134579,0.0731281265616417,0.10391241312027,0.158913165330887,2012-01-17 11:54:08
1.00500011444092,47,-7.24398422241211,0.0335085839033127,0.0400067642331123,0.0753232911229134,0.00983819458633661,0.0107089346274734,0.125681042671204,0.0210299696773291,3.07928800582886,0.0333842895925045,0.0389123074710369,0.0882599279284477,0.0514025166630745,0.0802018269896507,0.0216688048094511,0.0331636518239975,5.75483417510986,0.0390579625964165,0.0487747192382812,0.106204114854336,0.247922152280807,0.432259976863861,0.204462811350822,0.0212294720113277,2012-01-17 11:54:09
1.15399980545044,23,-7.21343040466309,0.0335538871586323,0.0407762862741947,0.0925234481692314,0.0022726715542376,0.0051791206933558,0.013804504647851,0.0135893458500504,3.0767297744751,0.0231354963034391,0.0265382267534733,0.0464749112725258,0.000135037160362117,0.000275562138995156,0.000414505164371803,0.00242425571195781,5.78592348098755,0.0264352709054947,0.0294908750802279,0.0490331649780273,0.00507636880502105,0.00904553476721048,0.00875318516045809,0.00319857546128333,2012-01-17 11:54:10
1.01500010490417,38,-7.19808101654053,0.0160002950578928,0.0228329338133335,0.0686464309692383,2.34609160543187e-05,0.00253507401794195,0.014361266978085,0.00456461682915688,3.04496479034424,0.0312263946980238,0.0365375652909279,0.0735499709844589,0.0388056971132755,0.0727914720773697,0.0692326873540878,0.0169599298387766,5.8432149887085,0.044224925339222,0.050030842423439,0.0996147468686104,0.0896860137581825,0.245753332972527,0.227608293294907,0.0251485425978899,2012-01-17 11:54:12
1.23600006103516,35,-7.20676708221436,0.015354385599494,0.0204058010131121,0.0577190406620502,0.0076863020658493,0.00964406691491604,0.00210090866312385,0.0032789905089885,3.03725957870483,0.0206539891660213,0.0265811495482922,0.0616417117416859,0.00616622576490045,0.0109492614865303,0.0113022224977612,0.013823488727212,5.79965257644653,0.034631434828043,0.0423392504453659,0.103950321674347,0.0161246843636036,0.0325360894203186,0.0953861176967621,0.0431954637169838,2012-01-17 11:54:13
1.00099992752075,49,-7.19427824020386,0.0229624696075916,0.0299040004611015,0.111675538122654,0.0431588850915432,0.0414708442986012,0.0429875664412975,0.00791529659181833,3.06808042526245,0.0403130128979683,0.0534568205475807,0.138694033026695,0.301555871963501,0.585786938667297,0.332651555538177,0.241035997867584,5.80313491821289,0.0435642376542091,0.0526627041399479,0.120081275701523,0.0335871428251266,0.61295211315155,0.421819299459457,0.143039479851723,2012-01-17 11:54:14
1.00300002098083,38,-7.17098379135132,0.0207813829183578,0.0260854605585337,0.0611628852784634,0.00138217385392636,0.00330995256081223,0.00322249019518495,0.0347548462450504,3.16651558876038,0.0279258731752634,0.0343261994421482,0.0872276052832603,0.00196934887208045,0.0104483775794506,0.031768549233675,0.0549278743565083,5.81611776351929,0.0239189490675926,0.0298792533576488,0.0890339016914368,0.0194897279143333,0.0331008397042751,0.0485406368970871,0.00690808007493615,2012-01-17 11:54:15
1.00200009346008,46,-7.13668298721313,0.0232468266040087,0.0278454255312681,0.0660885646939278,0.0009566291118972,0.0102777881547809,0.0520460680127144,0.0480437427759171,3.1221387386322,0.023710235953331,0.0308327917009592,0.0944423228502274,0.00650359038263559,0.0760616362094879,0.0804665759205818,0.0558941811323166,5.85286426544189,0.0361862890422344,0.0467323735356331,0.115974090993404,0.069209098815918,0.0965719148516655,0.149441957473755,0.121537789702415,2012-01-17 11:54:16
1.01899981498718,34,-7.12626171112061,0.026433989405632,0.0323262698948383,0.0654739886522293,0.0426208265125751,0.0561748929321766,0.0191444493830204,0.0268357452005148,3.09745907783508,0.0327623151242733,0.0383612737059593,0.0770109295845032,0.00353036751039326,0.0146684367209673,0.0149941518902779,0.0176147371530533,5.85687732696533,0.0221582390367985,0.0288430377840996,0.0761456191539764,0.00509061245247722,0.0159693900495768,0.0463905967772007,0.0211988501250744,2012-01-17 11:54:17
1,47,-7.13569402694702,0.0300637744367123,0.0352382436394691,0.0749063119292259,0.029211301356554,0.125243440270424,0.0419111102819443,0.0354957096278667,3.11496758460999,0.0326829254627228,0.045748632401228,0.133746072649956,0.200191408395767,0.28934708237648,0.140153706073761,0.0182633455842733,5.8641676902771,0.0365096181631088,0.0417282655835152,0.0786617174744606,0.119833216071129,0.143254473805428,0.16622856259346,0.0829783901572227,2012-01-17 11:54:18
1.00100016593933,47,-7.10961246490479,0.0323811583220959,0.0384623669087887,0.0880512669682503,0.0330678336322308,0.0250169802457094,0.279800742864609,0.118614099919796,3.13124251365662,0.0309870969504118,0.0399970561265945,0.120600819587708,0.00403643632307649,0.0557478405535221,0.0660039633512497,0.258967190980911,5.83307886123657,0.0435327924787998,0.0570616498589516,0.125608816742897,0.252370476722717,0.34578150510788,0.127406418323517,0.0595354959368706,2012-01-17 11:54:19
1.00899982452393,26,-7.13132047653198,0.0287527944892645,0.0341905169188976,0.0803392454981804,0.000285661109955981,0.00138902687467635,0.00533254025503993,0.00887335743755102,3.12115478515625,0.0402131117880344,0.0439878851175308,0.075812965631485,0.0130149303004146,0.0220465883612633,0.0159848388284445,0.00208478816784918,5.83721971511841,0.0403290539979935,0.0480661764740944,0.0958032608032227,0.00836956407874823,0.0153439100831747,0.0203967299312353,0.00350259756669402,2012-01-17 11:54:20
1.00500011444092,46,-7.17441701889038,0.0412935502827168,0.0478059239685535,0.092310294508934,0.0113111929967999,0.0622984878718853,0.186025217175484,0.0788487195968628,3.13556957244873,0.0335910655558109,0.0414770171046257,0.0758949294686317,0.273775607347488,0.396222680807114,0.134258389472961,0.0294058229774237,5.83282470703125,0.0356672368943691,0.0547506660223007,0.149231389164925,0.0316435024142265,0.398837268352509,0.24650476872921,0.384791493415833,2012-01-17 11:54:21
1.00600004196167,32,-7.18153238296509,0.0227161459624767,0.0251743048429489,0.0520977377891541,0.000689243664965034,0.00412250217050314,0.0206136964261532,0.00900065433233976,3.13414406776428,0.0278877168893814,0.0328796952962875,0.0824371427297592,0.00876540970057249,0.0236484985798597,0.04128323122859,0.00776980118826032,5.85487651824951,0.0358938090503216,0.0469979979097843,0.127179771661758,0.00924632325768471,0.0163493510335684,0.0124733168631792,0.0299341417849064,2012-01-17 11:54:22
1.00300002098083,48,-7.13270330429077,0.0350044034421444,0.0422907993197441,0.1046042740345,0.00234352052211761,0.0720979273319244,0.0812965780496597,0.121322453022003,3.09297633171082,0.0416441932320595,0.0520360991358757,0.131368264555931,0.0147435497492552,0.221479296684265,0.0771323665976524,0.0292353238910437,5.8241286277771,0.0355149954557419,0.0415211617946625,0.0872381702065468,0.0965573787689209,0.0871067196130753,0.300877273082733,0.0180050823837519,2012-01-17 11:54:23
1.01599979400635,47,-7.17074775695801,0.0259172227233648,0.0299326423555613,0.0609267838299274,0.118413910269737,0.157166048884392,0.0150412758812308,0.0104128587990999,3.10161375999451,0.0193469021469355,0.0259618479758501,0.0713589042425156,0.00116709980648011,0.0333178639411926,0.0338323600590229,0.0251882318407297,5.82869720458984,0.0463029444217682,0.054560761898756,0.111420512199402,0.0320860296487808,0.094892606139183,0.37060958147049,0.0340288020670414,2012-01-17 11:54:24
1.00300002098083,23,-7.19680166244507,0.0331089720129967,0.0393653213977814,0.0771739408373833,0.00703587289899588,0.0128742726519704,0.0164235178381205,0.0039012914057821,3.08227276802063,0.0366312377154827,0.0439932234585285,0.0716310888528824,0.00487933633849025,0.00909565854817629,0.0110893743112683,0.015493668615818,5.80084657669067,0.0416364781558514,0.0487225949764252,0.0929498225450516,0.00465362425893545,0.00951530132442713,0.0180156081914902,0.0150355482473969,2012-01-17 11:54:25
1.01300001144409,44,-7.23931360244751,0.080398291349411,0.121456019580364,0.439293473958969,0.0012357085943222,0.875689208507538,1.33867990970612,0.410435616970062,3.17334270477295,0.0378690846264362,0.0530712977051735,0.190338134765625,0.0518205389380455,0.107451163232327,0.0509699918329716,0.16566826403141,5.75427484512329,0.0459130257368088,0.0569087453186512,0.164484307169914,0.071332685649395,0.141418486833572,0.246513441205025,0.177065148949623,2012-01-17 11:54:26
1.00300002098083,46,-7.17889404296875,0.0337022207677364,0.0389568619430065,0.0788798853754997,0.0707398280501366,0.232822492718697,0.118318520486355,0.0344245843589306,3.13151907920837,0.020095331594348,0.0265870727598667,0.0620376765727997,0.0014404522953555,0.0174370724707842,0.0309811569750309,0.0386497341096401,5.79679584503174,0.0293920915573835,0.0352534055709839,0.0773871243000031,0.00181066140066832,0.00782452709972858,0.148047089576721,0.0354527570307255,2012-01-17 11:54:27
1.14199995994568,40,-7.28266334533691,0.0838467851281166,0.116791486740112,0.376329958438873,0.239236161112785,0.69560432434082,1.01873433589935,0.210780560970306,3.24575591087341,0.0884927660226822,0.114668391644955,0.323864698410034,0.133796751499176,0.566114902496338,0.705092251300812,0.282682418823242,5.66775321960449,0.0637922435998917,0.0817238688468933,0.215255707502365,0.117385938763618,0.228227868676186,0.242358237504959,0.263563245534897,2012-01-17 11:54:28
1.00400018692017,50,-7.2873215675354,0.141764879226685,0.172075212001801,0.352058529853821,6.35678195953369,11.8219594955444,3.482825756073,0.591756045818329,3.18971085548401,0.0825877115130424,0.0898111760616302,0.134743392467499,0.0142691116780043,1.0645307302475,1.26265382766724,0.176131650805473,5.60567712783813,0.138815075159073,0.162919029593468,0.280666351318359,6.14785861968994,9.59454727172852,2.22437167167664,0.372920155525208,2012-01-17 11:54:29
1.00699996948242,49,-7.21149015426636,0.0727104619145393,0.0875048264861107,0.221950650215149,0.876527607440948,1.13518095016479,0.133026316761971,0.122301399707794,2.97061443328857,0.0728330612182617,0.0844956785440445,0.156105890870094,0.43734547495842,1.0410076379776,0.699029803276062,0.0626856610178947,5.81954622268677,0.0936634391546249,0.127232104539871,0.367048680782318,1.93129944801331,1.2814325094223,0.856215596199036,0.442334711551666,2012-01-17 11:54:30
1.01099991798401,34,-7.07347869873047,0.130947604775429,0.142817243933678,0.203055262565613,0.68089359998703,1.18238747119904,0.704953551292419,0.0518877059221268,3.1043815612793,0.154039055109024,0.179210305213928,0.338906228542328,0.732531428337097,0.896336257457733,0.157652854919434,0.0618307664990425,5.92465877532959,0.088870607316494,0.113747484982014,0.236801892518997,0.00114163476973772,0.0556934028863907,0.18859389424324,0.0351978279650211,2012-01-17 11:54:31
1.04100012779236,47,-7.376060962677,0.216545417904854,0.265184789896011,0.596745252609253,3.16349148750305,8.70247173309326,13.6091251373291,1.59895658493042,3.15210771560669,0.166477769613266,0.209292963147163,0.42731961607933,0.928601741790771,5.72199869155884,11.3467607498169,0.893220186233521,5.61232471466064,0.237890049815178,0.275634258985519,0.571706831455231,5.45672559738159,12.0248956680298,9.13319396972656,0.377343833446503,2012-01-17 11:54:32
1.0149998664856,32,-7.37551975250244,0.0256660021841526,0.0318112820386887,0.0775340050458908,0.0155715420842171,0.0448780991137028,0.0561889447271824,0.0160810220986605,2.93188190460205,0.0493971556425095,0.0553383380174637,0.0879534557461739,0.0492518730461597,0.0761329606175423,0.103891924023628,0.0607181377708912,5.64954948425293,0.0631686076521873,0.079569935798645,0.205020323395729,0.0494628958404064,0.143461912870407,0.243519335985184,0.029972143471241,2012-01-17 11:54:33
1.0090000629425,48,-7.47450590133667,0.0410653054714203,0.0496688298881054,0.0999055206775665,0.0389070995151997,0.349376142024994,0.702742755413055,0.116716004908085,3.11912751197815,0.0494674034416676,0.0632195025682449,0.196745917201042,0.0498743765056133,0.186311900615692,0.0939419865608215,0.0766027793288231,5.45454025268555,0.0442151464521885,0.0516582243144512,0.109916307032108,0.0523897223174572,0.540969252586365,0.23138739168644,0.0533459521830082,2012-01-17 11:54:34
1.03200006484985,35,-7.34097766876221,0.0841370820999146,0.0920031070709229,0.142896845936775,0.458713173866272,0.727884352207184,0.283953338861465,0.0199466720223427,3.02885389328003,0.0514749139547348,0.0714951381087303,0.207340553402901,0.0287761799991131,0.169511467218399,0.384838938713074,0.259296029806137,5.62593507766724,0.0758754014968872,0.0846451818943024,0.179601892828941,0.127598375082016,0.27972200512886,0.340862244367599,0.0617356114089489,2012-01-17 11:54:35
1.04299998283386,42,-7.406822681427,0.0604410469532013,0.0758801698684692,0.173717707395554,0.538918375968933,0.972761631011963,0.530354857444763,0.120550364255905,3.4393322467804,0.111142039299011,0.129310548305511,0.257774889469147,2.33991360664368,3.41985630989075,0.990964710712433,0.226677536964417,5.34345674514771,0.10464870929718,0.134465456008911,0.302838683128357,2.33541250228882,3.31784534454346,1.32103526592255,0.218420699238777,2012-01-17 11:54:36
1.00799989700317,48,-7.35049247741699,0.0595209151506424,0.0768263936042786,0.191638097167015,0.640365421772003,1.56074976921082,0.820616841316223,0.308867126703262,3.77372145652771,0.0698978900909424,0.0825268998742104,0.204100802540779,0.338623553514481,1.37475335597992,0.437834143638611,0.173950642347336,5.06431722640991,0.106919698417187,0.129649966955185,0.270500034093857,2.23214793205261,5.21803331375122,1.84812808036804,0.349804908037186,2012-01-17 11:54:37
1.02500009536743,41,-7.27270698547363,0.041046716272831,0.0601362623274326,0.160733550786972,0.016113942489028,0.0500493943691254,0.201477885246277,0.0402466915547848,3.40912628173828,0.0480356737971306,0.0580272749066353,0.121267519891262,0.235530853271484,0.398531496524811,0.208987087011337,0.0498385727405548,5.49483346939087,0.0730278044939041,0.0823747515678406,0.143990263342857,0.112333483994007,0.423852860927582,0.543770313262939,0.0648930445313454,2012-01-17 11:54:38
1.03699994087219,33,-7.17519855499268,0.0647833570837975,0.0740058124065399,0.120948605239391,0.159685224294662,0.252294927835464,0.115690544247627,0.0170054584741592,3.29265689849854,0.087296262383461,0.0883103311061859,0.110250450670719,0.305094420909882,0.492862105369568,0.194327339529991,0.0413631461560726,5.69617748260498,0.106819592416286,0.118669219315052,0.25348687171936,0.485730171203613,0.730538785457611,0.269721031188965,0.0399965234100819,2012-01-17 11:54:39
1,50,-7.19827699661255,0.0912803038954735,0.119278736412525,0.333229899406433,0.836906433105469,3.21237516403198,3.63687825202942,0.85298877954483,3.23992085456848,0.0711962580680847,0.0930317565798759,0.190052807331085,0.0315276645123959,1.48355686664581,3.18578100204468,0.484275072813034,5.66334009170532,0.0696271508932114,0.0864153876900673,0.181422799825668,0.740390837192535,2.3389368057251,1.81642210483551,0.472114413976669,2012-01-17 11:54:40
1.24900007247925,41,-7.18229484558105,0.045912116765976,0.0561421252787113,0.121507003903389,0.304275125265121,0.458597809076309,0.199162513017654,0.0183061864227057,3.24911046028137,0.0345828905701637,0.0424123145639896,0.0913691818714142,0.0188600290566683,0.0327132493257523,0.14503937959671,0.0272110439836979,5.68498659133911,0.0611267536878586,0.0859915092587471,0.271716117858887,0.409552276134491,1.1969518661499,0.8815678358078,0.369414925575256,2012-01-17 11:54:41
1.00899982452393,53,-7.33093309402466,0.030631372705102,0.0394372828304768,0.112314134836197,0.00108164851553738,0.0291784815490246,0.147753983736038,0.100075751543045,3.59996557235718,0.0867272317409515,0.113396473228931,0.285317957401276,2.41182804107666,2.73048138618469,0.317403137683868,0.127052277326584,5.24470710754395,0.0745779797434807,0.0898805633187294,0.276436567306519,0.491410702466965,1.46950125694275,0.689968347549438,0.515388965606689,2012-01-17 11:54:42
1.03700017929077,36,-7.18337106704712,0.0400438085198402,0.0533889904618263,0.132389962673187,0.00391987571492791,0.0126405777409673,0.040320347994566,0.0666007399559021,3.40345215797424,0.0360182896256447,0.0478165559470654,0.128031358122826,0.0283076167106628,0.0241390839219093,0.0634709745645523,0.0792587846517563,5.61485195159912,0.0838407799601555,0.104870662093163,0.221194550395012,0.457519292831421,0.603125929832458,0.121247939765453,0.0163566023111343,2012-01-17 11:54:43
1.00699996948242,48,-7.13106870651245,0.0196134150028229,0.0230277925729752,0.0506679303944111,0.000599910272285342,0.0250314548611641,0.02189115062356,0.0187331102788448,3.28502345085144,0.0247039794921875,0.0302586052566767,0.0688508674502373,5.24343658980797e-06,0.0128292208537459,0.060505211353302,0.076665498316288,5.73934173583984,0.033403966575861,0.0431428514420986,0.139744877815247,0.0692861154675484,0.114362575113773,0.0629160404205322,0.0499852858483791,2012-01-17 11:54:45
1.00600004196167,48,-7.04505634307861,0.047202967107296,0.0536288134753704,0.101948164403439,0.191504701972008,0.249047368764877,0.514379441738129,0.0621419288218021,3.22352743148804,0.0318205021321774,0.0382416322827339,0.0813135430216789,0.081512525677681,0.098409429192543,0.0843296572566032,0.129189342260361,5.90074300765991,0.0357873998582363,0.0409731827676296,0.0755927935242653,0.015844501554966,0.127420902252197,0.324642866849899,0.0193194095045328,2012-01-17 11:54:46
1.00799989700317,25,-7.02038431167603,0.0217158086597919,0.0290011167526245,0.067469634115696,0.000435169436968863,0.00093398365424946,0.00242309062741697,0.00463950727134943,3.23148727416992,0.035429410636425,0.0415245927870274,0.0835525244474411,0.0172861479222775,0.032417144626379,0.0385392867028713,0.0165270436555147,6.01539897918701,0.060409065335989,0.0668581500649452,0.121602557599545,0.0287488363683224,0.0479880087077618,0.0292559657245874,0.00340986321680248,2012-01-17 11:54:47
1.01799988746643,41,-6.95578479766846,0.0312225464731455,0.0364521592855453,0.0657761991024017,0.0652577131986618,0.091770812869072,0.0407691635191441,0.0857167765498161,3.16946148872375,0.0277923233807087,0.0334297157824039,0.070560097694397,0.00430607097223401,0.0200112666934729,0.0160585809499025,0.0646939352154732,6.07653522491455,0.0210250485688448,0.0272042062133551,0.072234220802784,0.0371562466025352,0.0618801973760128,0.0984345003962517,0.0386189520359039,2012-01-17 11:54:48
1.01300001144409,48,-6.94882869720459,0.0259126648306847,0.0311295166611671,0.0727325305342674,0.0687560066580772,0.0508987903594971,0.0617484636604786,0.034635417163372,3.17919325828552,0.0280408523976803,0.0328715220093727,0.0766143351793289,0.0177271943539381,0.0968984663486481,0.120433621108532,0.0520828850567341,6.06623029708862,0.0305776596069336,0.0384962111711502,0.0825391933321953,0.0726148262619972,0.230129808187485,0.12664932012558,0.0455484949052334,2012-01-17 11:54:49
1.01200008392334,43,-6.9399151802063,0.0225621499121189,0.0277148354798555,0.0654535740613937,0.0384233891963959,0.062937468290329,0.0422274880111217,0.0186017286032438,3.15956568717957,0.0210241116583347,0.0287086348980665,0.0802777409553528,0.000672062102239579,0.0086399931460619,0.0371849685907364,0.0192547906190157,6.03793144226074,0.0206846334040165,0.0252500139176846,0.0618046037852764,0.00536816520616412,0.0110602313652635,0.0726810246706009,0.0495463870465755,2012-01-17 11:54:50
1.00399994850159,41,-6.96870088577271,0.0275472458451986,0.0345108434557915,0.0844327211380005,0.0431655943393707,0.04903220012784,0.0203116163611412,0.0387117154896259,3.14291167259216,0.0491791293025017,0.0638166591525078,0.151883602142334,0.000305500900140032,0.28267115354538,0.594568192958832,0.0886959061026573,6.07916593551636,0.0328327231109142,0.0481793433427811,0.175563097000122,0.0250944588333368,0.0986243486404419,0.128983706235886,0.273221403360367,2012-01-17 11:54:51
1.01500010490417,43,-6.92691564559937,0.0258716903626919,0.035697229206562,0.124065309762955,0.0128213874995708,0.0170842166990042,0.0398209802806377,0.00409027421846986,3.1823718547821,0.0245245527476072,0.03030901029706,0.0832423642277718,0.00271270633675158,0.0717811733484268,0.1038548797369,0.034566555172205,6.05047512054443,0.0353760719299316,0.0476916395127773,0.166485115885735,0.031540684401989,0.0279741641134024,0.0425547137856483,0.0966794118285179,2012-01-17 11:54:52
1.01300001144409,31,-6.940260887146,0.0274299997836351,0.0342615693807602,0.0854126065969467,0.0143485907465219,0.0299709904938936,0.0334627479314804,0.00849622301757336,3.14413833618164,0.034287616610527,0.0409808680415154,0.074657067656517,0.00219601253047585,0.0034114730078727,0.00491831824183464,0.0130985248833895,6.1092267036438,0.025674806907773,0.0322359576821327,0.078136719763279,0.00328906066715717,0.0100937504321337,0.0150825539603829,0.00504022231325507,2012-01-17 11:54:53
1.00099992752075,46,-6.93415403366089,0.0274363271892071,0.0334018208086491,0.0694991797208786,0.00857549253851175,0.00757452892139554,0.186011865735054,0.1015560105443,3.15283799171448,0.0379475131630898,0.0468863621354103,0.112776406109333,0.14527440071106,0.315497875213623,0.103379622101784,0.164848923683167,6.11167478561401,0.0317000783979893,0.0386311113834381,0.100198209285736,0.00393801368772984,0.0149198574945331,0.303756415843964,0.174639657139778,2012-01-17 11:54:54
1.00999999046326,40,-6.93035936355591,0.0253501459956169,0.0288588404655457,0.0558978095650673,5.52895926375641e-07,0.00210313126444817,0.0465562343597412,0.0229163616895676,3.12954711914062,0.025374747812748,0.0365741811692715,0.0992922335863113,0.00391971413046122,0.0240652766078711,0.0444947220385075,0.0795193016529083,6.14043378829956,0.0416781902313232,0.0519635900855064,0.109343960881233,0.000717457616701722,0.00322610512375832,0.0950658023357391,0.196852013468742,2012-01-17 11:54:55
1.01800012588501,49,-6.89927864074707,0.0357547961175442,0.0469307824969292,0.141895979642868,0.287328660488129,0.580593168735504,0.185743257403374,0.149346590042114,3.11471199989319,0.0309189036488533,0.0397147014737129,0.0942637994885445,0.168196514248848,0.267299473285675,0.034458614885807,0.192580476403236,6.10994291305542,0.0319808162748814,0.0454805158078671,0.108273230493069,0.034645177423954,0.0806275233626366,0.0283817443996668,0.0404650010168552,2012-01-17 11:54:56
1.32499980926514,37,-6.94602346420288,0.0401434414088726,0.0495270974934101,0.0951508432626724,0.0418296083807945,0.0495622269809246,0.0144012561067939,0.00837806798517704,3.16065669059753,0.023510217666626,0.0281896255910397,0.0559243969619274,0.000433930574217811,0.0164493452757597,0.0351824574172497,0.00935961678624153,6.08171319961548,0.0359170772135258,0.0418249666690826,0.0898504257202148,0.00573142804205418,0.00366116152144969,0.0576450936496258,0.0711850747466087,2012-01-17 11:54:57
1.01600003242493,25,-6.90937328338623,0.0322912819683552,0.0379383638501167,0.0729613527655602,0.0078880786895752,0.0142536237835884,0.013536186888814,0.0023232966195792,3.17853140830994,0.0361512564122677,0.040511816740036,0.0796300321817398,0.00499369204044342,0.0131013793870807,0.0285233780741692,0.0107491789385676,6.13268661499023,0.054163996130228,0.0636679381132126,0.123955838382244,0.000153136352309957,0.00289180688560009,0.0207284055650234,0.00786269269883633,2012-01-17 11:54:58
1.09400010108948,32,-6.91613960266113,0.0280408412218094,0.0325249210000038,0.0612914562225342,0.0136500652879477,0.0247020423412323,0.025045208632946,0.00516044721007347,3.12249851226807,0.035012811422348,0.0427363216876984,0.0940825715661049,0.0217880234122276,0.0464432276785374,0.072062186896801,0.0362200401723385,6.08809089660645,0.0405672825872898,0.0475670658051968,0.0999050736427307,0.00977695174515247,0.0276649389415979,0.0801344215869904,0.0448160842061043,2012-01-17 11:54:59
1.00099992752075,54,-6.93148517608643,0.0259223338216543,0.0331257432699203,0.0704624727368355,0.0108657851815224,0.160098105669022,0.104932397603989,0.13218779861927,3.1250524520874,0.0392266102135181,0.0479683876037598,0.101335354149342,0.0304824728518724,0.0440697148442268,0.514840662479401,0.240543231368065,6.11117744445801,0.0367446057498455,0.0436836704611778,0.089894138276577,0.0421082600951195,0.425894528627396,0.378408282995224,0.252281427383423,2012-01-17 11:55:00
1.02500009536743,42,-6.91392183303833,0.01939089410007,0.0232941918075085,0.0590732879936695,0.00041759482701309,0.00672628544270992,0.0496933870017529,0.0307198595255613,3.12411832809448,0.0344900600612164,0.0430208072066307,0.0924627035856247,6.38859200989828e-05,0.0839817747473717,0.174889802932739,0.0317816808819771,6.10043668746948,0.0437295772135258,0.0481088347733021,0.0875592231750488,0.0320520140230656,0.0627306923270226,0.17650206387043,0.0718306601047516,2012-01-17 11:55:01
1.0239999294281,38,-6.91704320907593,0.0284826997667551,0.0360863544046879,0.0818079635500908,0.0124965682625771,0.0593570359051228,0.0673639327287674,0.0306250937283039,3.11309504508972,0.0250327531248331,0.0334227606654167,0.0838727280497551,0.053208127617836,0.0719810873270035,0.03364123031497,0.0148708745837212,6.13638210296631,0.046045009046793,0.057696845382452,0.149680659174919,0.0207328088581562,0.0972263142466545,0.249617218971252,0.0505047105252743,2012-01-17 11:55:02
1.08699989318848,25,-6.94899225234985,0.0266740415245295,0.032227884978056,0.0647237747907639,0.00380896287970245,0.00731777073815465,0.011473692022264,0.0101956389844418,3.17107820510864,0.026140620931983,0.03315519541502,0.0749227330088615,6.56354823149741e-05,0.000347554305335507,0.00210182718001306,0.00237978133372962,6.11856508255005,0.0187345910817385,0.022690437734127,0.0498176962137222,0.00118465791456401,0.00228175194934011,0.00342565565370023,0.000610841147135943,2012-01-17 11:55:03
1.0090000629425,44,-7.01732635498047,0.0815329849720001,0.0939783602952957,0.200367704033852,0.361549496650696,0.600857853889465,0.682434380054474,0.142289966344833,3.01353883743286,0.193519219756126,0.234182611107826,0.434390097856522,4.6453595161438,13.4571733474731,9.7171049118042,0.670677542686462,6.06518983840942,0.106140725314617,0.137364476919174,0.29887980222702,0.0450377091765404,2.20737910270691,3.0229377746582,0.240326970815659,2012-01-17 11:55:04
1.01800012588501,47,-7.59201622009277,0.200749948620796,0.236827045679092,0.518083691596985,6.7036075592041,5.02333164215088,1.2109078168869,1.11948382854462,3.07407164573669,0.283615946769714,0.329082697629929,0.711295008659363,22.4950218200684,34.1452407836914,8.57236003875732,1.90226829051971,5.33377408981323,0.358606368303299,0.423340886831284,0.785575211048126,37.1265449523926,42.2641487121582,5.61512565612793,1.6115927696228,2012-01-17 11:55:05
1.25399994850159,41,-7.42578649520874,0.131575971841812,0.159567400813103,0.390113294124603,0.0149183999747038,0.502550184726715,1.94869720935822,0.153795003890991,3.25221991539001,0.46256348490715,0.545072734355927,0.937850475311279,36.2191200256348,51.2441062927246,17.4771270751953,3.09486770629883,5.17145299911499,0.328700691461563,0.358574420213699,0.630974292755127,11.7542209625244,12.9360179901123,1.40976178646088,0.880839467048645,2012-01-17 11:55:06
1.00600004196167,49,-7.48567581176758,0.135079354047775,0.166641086339951,0.359643787145615,0.0570301339030266,1.6918797492981,1.05364859104156,1.11155140399933,3.18555998802185,0.190953969955444,0.224190041422844,0.420084834098816,3.5766395740211e-05,6.87354278564453,4.44021368026733,2.28016233444214,5.39846038818359,0.222844958305359,0.256355613470078,0.495335847139359,0.829861283302307,12.678147315979,3.83568549156189,0.559824645519257,2012-01-17 11:55:07
1.01099991798401,28,-7.78893184661865,0.0826560482382774,0.117552116513252,0.380007952451706,0.0336192175745964,0.0449923127889633,0.0294612664729357,0.0841526389122009,2.70278263092041,0.0861083939671516,0.111946247518063,0.22940556704998,0.00115193414967507,0.0357279404997826,0.0945372059941292,0.0573746487498283,5.45775079727173,0.207840979099274,0.258378237485886,0.602758884429932,0.671353161334991,0.924947023391724,0.219183996319771,0.172190099954605,2012-01-17 11:55:08
1.01099991798401,50,-7.55151271820068,0.1702591329813,0.191307216882706,0.372260242700577,5.01889181137085,8.66837596893311,1.79620921611786,1.55707740783691,2.68506073951721,0.435964405536652,0.467582881450653,0.7041175365448,52.5332260131836,79.4664077758789,11.3947143554688,1.31179189682007,5.60567712783813,0.132295608520508,0.156708806753159,0.310086280107498,3.84911894798279,7.19882822036743,1.89627885818481,0.392365425825119,2012-01-17 11:55:10
1.00800013542175,34,-7.61544036865234,0.0876660123467445,0.113823518157005,0.249492660164833,0.444949954748154,0.982861280441284,0.953871309757233,0.487987875938416,2.89267325401306,0.0672552958130836,0.093986451625824,0.323331117630005,0.173920214176178,0.25080817937851,0.0726005211472511,0.00825254712253809,5.37289047241211,0.0838485658168793,0.101517878472805,0.234206080436707,0.499438911676407,0.823240518569946,0.387113362550735,0.210078880190849,2012-01-17 11:55:11
1.00099992752075,46,-7.64172506332397,0.0255732964724302,0.0385917574167252,0.134948238730431,0.0017160790739581,0.00243752589449286,0.0206943079829216,0.0054608965292573,2.8415834903717,0.04167365655303,0.0484837777912617,0.0957213714718819,0.281371414661407,0.538733243942261,0.141808316111565,0.0243642702698708,5.3478217124939,0.0394489988684654,0.048950158059597,0.130684047937393,0.00338009838014841,0.0487784408032894,0.307277649641037,0.0481010340154171,2012-01-17 11:55:12
1.01699995994568,34,-7.6748571395874,0.0356129035353661,0.0401542373001575,0.0648970454931259,0.0770938247442245,0.127915903925896,0.0544882863759995,0.00472635310143232,2.90276837348938,0.025381887331605,0.0352782532572746,0.0882597118616104,0.00374000240117311,0.0159645602107048,0.0656212568283081,0.0740389600396156,5.2410774230957,0.0516291074454784,0.0572903901338577,0.0839333087205887,0.140593752264977,0.22771418094635,0.123071536421776,0.0126767912879586,2012-01-17 11:55:13
1.02500009536743,50,-7.67056512832642,0.0359631218016148,0.0478698089718819,0.129251658916473,0.201641961932182,0.296810775995255,0.403582334518433,0.0730337053537369,2.87982082366943,0.0301338788121939,0.0381129421293736,0.094732254743576,0.000105093175079674,0.209247693419456,0.101250492036343,0.163266181945801,5.2430272102356,0.0576630495488644,0.0645977184176445,0.111403398215771,0.662557065486908,1.04213261604309,0.213399603962898,0.158469498157501,2012-01-17 11:55:14
1.01699995994568,49,-7.65158843994141,0.0478774756193161,0.0584225803613663,0.110274761915207,0.11341904848814,0.0993939861655235,0.148007676005363,0.191184118390083,2.87514972686768,0.0338597185909748,0.0405876263976097,0.0864585638046265,0.0673365518450737,0.203120991587639,0.313202708959579,0.0452024452388287,5.28658485412598,0.0509487465023994,0.0590341649949551,0.118480138480663,0.00921334885060787,0.164680674672127,0.340376257896423,0.166370630264282,2012-01-17 11:55:15
1.0090000629425,32,-7.62528276443481,0.0253976620733738,0.0299200527369976,0.0643560439348221,0.0156195070594549,0.0229212176054716,0.0143520180135965,0.0173944253474474,2.82278275489807,0.036334365606308,0.044273316860199,0.0965340808033943,0.0129993027076125,0.0219625309109688,0.0649848803877831,0.0314589068293571,5.36209201812744,0.0392648726701736,0.0447879247367382,0.0904053449630737,0.00606205081567168,0.0151054728776217,0.0797586441040039,0.0679597929120064,2012-01-17 11:55:16
1.00799989700317,49,-7.56492948532104,0.0341047011315823,0.0426734425127506,0.0842569917440414,0.0397896878421307,0.143522053956985,0.135226830840111,0.126870810985565,2.7824866771698,0.0375029742717743,0.0496409274637699,0.120281621813774,0.0659338906407356,0.0578661300241947,0.262916713953018,0.32349556684494,5.49932909011841,0.0350278429687023,0.0438685826957226,0.115478523075581,0.026359623298049,0.119152911007404,0.219906151294708,0.160983264446259,2012-01-17 11:55:17
1.0090000629425,30,-7.52660369873047,0.043149184435606,0.049731008708477,0.093163013458252,0.0154095822945237,0.0361347496509552,0.0546371154487133,0.019681952893734,2.76514840126038,0.0278072785586119,0.0338277965784073,0.0879330262541771,0.000517706270329654,0.0097954822704196,0.0309703405946493,0.0124232685193419,5.56658124923706,0.0369383171200752,0.0437455959618092,0.0820488259196281,0.0069934600032866,0.0207272749394178,0.0430167354643345,0.0317721888422966,2012-01-17 11:55:18
1.00699996948242,49,-7.46025896072388,0.0293668024241924,0.0372122637927532,0.0908614546060562,0.00334097258746624,0.0468258261680603,0.117054298520088,0.0427412055432796,2.78869104385376,0.0350441224873066,0.0400530993938446,0.0748508647084236,0.0190169382840395,0.0666687414050102,0.245983317494392,0.111968733370304,5.63021755218506,0.0314988568425179,0.0380394123494625,0.0992671400308609,0.00412405282258987,0.0240174289792776,0.0788995176553726,0.0132275223731995,2012-01-17 11:55:19
1.0090000629425,17,-7.44670867919922,0.0181880798190832,0.0225492790341377,0.052494328469038,0.000483078736579046,0.000942045589908957,0.0018606735393405,0.000873845769092441,2.74240064620972,0.0413304679095745,0.0459900498390198,0.0819143280386925,0.000691564579028636,0.0015549996169284,0.00454684440046549,0.00348178180865943,5.66651296615601,0.0260605327785015,0.0312358252704144,0.0507637485861778,5.775755198556e-05,0.00013139852671884,0.000344055646564811,0.00170763372443616,2012-01-17 11:55:20
1.01699995994568,54,-7.43453025817871,0.0176357962191105,0.0218197405338287,0.0577501729130745,0.0106714582070708,0.0349697768688202,0.023906571790576,0.0120356976985931,2.78073000907898,0.0305902417749166,0.0354923866689205,0.0642881616950035,0.141750156879425,0.34325584769249,0.157641619443893,0.0273236948996782,5.70093250274658,0.0305096749216318,0.0386780463159084,0.111141987144947,0.00597253022715449,0.0416329689323902,0.0976144447922707,0.123359769582748,2012-01-17 11:55:21
1.00200009346008,35,-7.40430068969727,0.0121202487498522,0.0156355816870928,0.038946408778429,0.001303153578192,0.0030128185171634,0.0069890609011054,0.00972567871212959,2.77219986915588,0.0210382491350174,0.0295384470373392,0.104791104793549,0.00547301629558206,0.00471418350934982,0.0136234257370234,0.0135308671742678,5.69934463500977,0.0173237826675177,0.0206354483962059,0.0409077368676662,0.0180273558944464,0.0295235570520163,0.0139789013192058,0.0101808439940214,2012-01-17 11:55:22
1.00099992752075,45,-7.41840362548828,0.0279816724359989,0.0325316041707993,0.0738767236471176,0.0514786504209042,0.14409002661705,0.116222277283669,0.00609670905396342,2.78029417991638,0.0214535295963287,0.0266867280006409,0.0638523101806641,0.0338899679481983,0.045583751052618,0.0274468548595905,0.0165720656514168,5.67085838317871,0.0313522294163704,0.0366581939160824,0.0758383870124817,0.000299863371765241,0.0136858774349093,0.152665704488754,0.144353404641151,2012-01-17 11:55:23
1.00999999046326,39,-7.43268632888794,0.0233657173812389,0.0311212278902531,0.0988207012414932,0.0488875545561314,0.0676834285259247,0.0237101037055254,0.00697401212528348,2.7908718585968,0.02116066403687,0.0273540169000626,0.064623199403286,0.00641923490911722,0.0244320575147867,0.0769499242305756,0.0444196127355099,5.68131923675537,0.0278274528682232,0.0380351059138775,0.101335294544697,0.0200802590698004,0.132935166358948,0.15106113255024,0.0771558210253716,2012-01-17 11:55:24
1.01900005340576,46,-7.41254806518555,0.0253230817615986,0.0328199565410614,0.0967875942587852,0.000122121840831824,0.00964824575930834,0.0308987535536289,0.049769215285778,2.79191064834595,0.0224310513585806,0.0279527977108955,0.0656618028879166,0.0435512587428093,0.160708248615265,0.0843033269047737,0.0423996262252331,5.65246772766113,0.0463822893798351,0.0525118298828602,0.113842628896236,0.337609022855759,0.60154139995575,0.290087252855301,0.0262355208396912,2012-01-17 11:55:25
1.00300002098083,39,-7.39899158477783,0.0167378783226013,0.018957756459713,0.0440044291317463,0.00090352917322889,0.00263351807370782,0.00169414165429771,0.0196713134646416,2.77528190612793,0.0276597402989864,0.0314847901463509,0.0588400289416313,0.000723190954886377,0.00730276573449373,0.0907924920320511,0.0362660363316536,5.65215063095093,0.0275694690644741,0.0329757183790207,0.0651260986924171,0.0104876197874546,0.0258795544505119,0.0436002388596535,0.074415422976017,2012-01-17 11:55:26
1.00999999046326,36,-7.4040207862854,0.0239719580858946,0.0284037012606859,0.0588399954140186,9.96363523881882e-05,0.00231691007502377,0.0348251238465309,0.0188623853027821,2.81287407875061,0.021610913798213,0.0246253032237291,0.0473987273871899,0.0156363230198622,0.0176349673420191,0.00660131219774485,0.0242487788200378,5.71346282958984,0.00914083328098059,0.0118490271270275,0.0354129336774349,6.14704731560778e-06,2.93232897092821e-05,0.000397239666199312,0.00386136537417769,2012-01-17 11:55:27
1.00499987602234,37,-7.41939306259155,0.0199571903795004,0.0238629300147295,0.0447928570210934,0.00698672793805599,0.01269590575248,0.0102930096909404,0.00875952653586864,2.7599093914032,0.0291119255125523,0.034693531692028,0.0728873312473297,0.00126487563829869,0.00564786279574037,0.0706591755151749,0.0368802733719349,5.68520641326904,0.0351578928530216,0.0402502454817295,0.0712972208857536,9.80054755927995e-06,0.0115207005292177,0.0301183443516493,0.109636507928371,2012-01-17 11:55:28
1.00100016593933,41,-7.40665149688721,0.0212584957480431,0.027823980897665,0.0660154968500137,0.00361997075378895,0.0185227058827877,0.0269857011735439,0.0113045172765851,2.79752612113953,0.0312692150473595,0.0361147373914719,0.0712774768471718,0.0252671800553799,0.0951574146747589,0.133439257740974,0.0106616141274571,5.67948532104492,0.0262054912745953,0.0316522382199764,0.0700815692543983,0.00022257307136897,0.0171202644705772,0.0509244725108147,0.128731444478035,2012-01-17 11:55:29
1,46,-7.4102029800415,0.0234415326267481,0.0281385276466608,0.0552159510552883,0.0526849813759327,0.0952368825674057,0.0732192844152451,0.0168931912630796,2.80853915214539,0.0267133433371782,0.0325556509196758,0.0822904407978058,0.0439621694386005,0.180171892046928,0.142743423581123,0.0808129385113716,5.65609169006348,0.0272973030805588,0.0319532975554466,0.0807985961437225,0.00709455879405141,0.0520234443247318,0.0379417724907398,0.0121267950162292,2012-01-17 11:55:30
1.00799989700317,34,-7.40084791183472,0.0247033927589655,0.0298704896122217,0.0718193352222443,0.00249487534165382,0.00679953442886472,0.01891765370965,0.0104029159992933,2.82691097259521,0.0288600437343121,0.036173652857542,0.0856640264391899,0.00211970997042954,0.0201364476233721,0.063854031264782,0.062658816576004,5.67141628265381,0.0350867658853531,0.0417229048907757,0.101239122450352,1.70527255249908e-05,0.000185721495654434,0.0258507169783115,0.0652003884315491,2012-01-17 11:55:31
1.01300001144409,48,-7.39441823959351,0.0243294760584831,0.0306534077972174,0.0786576569080353,0.00334872421808541,0.0308195501565933,0.0440635085105896,0.0364187136292458,2.81185245513916,0.0234184432774782,0.0274278782308102,0.0561838336288929,0.00160737650003284,0.0402128137648106,0.108813785016537,0.0501282289624214,5.60756492614746,0.0341189093887806,0.0415894649922848,0.0900984406471252,0.27606800198555,0.395253360271454,0.0946621373295784,0.00710142031311989,2012-01-17 11:55:32
1.01799988746643,34,-7.42363405227661,0.0236513186246157,0.0286404676735401,0.0588398277759552,0.0101269194856286,0.019964836537838,0.0258521661162376,0.0239528901875019,2.81912326812744,0.0314219892024994,0.0360111519694328,0.0738383755087852,0.00923481397330761,0.0149972094222903,0.0324082858860493,0.0318708494305611,5.65411043167114,0.0381067730486393,0.0459474660456181,0.0937399044632912,0.0148970307782292,0.016690231859684,0.0111929634585977,0.0514109507203102,2012-01-17 11:55:33
1.0090000629425,49,-7.41362714767456,0.0166480764746666,0.0228049997240305,0.0590400025248528,0.00600633444264531,0.00468079699203372,0.0208045244216919,0.00120584946125746,2.83372139930725,0.0232729390263557,0.0299789886921644,0.07805285602808,0.0134587651118636,0.0216238629072905,0.101684629917145,0.044347271323204,5.65923738479614,0.0383116453886032,0.0453022979199886,0.0890602543950081,0.0188064444810152,0.192171305418015,0.492412865161896,0.0223510134965181,2012-01-17 11:55:34
1.30999994277954,44,-7.41494178771973,0.0287513844668865,0.0345591977238655,0.0697611793875694,0.00404239585623145,0.0586858056485653,0.183697506785393,0.0211248397827148,2.82542943954468,0.0226120185106993,0.0273578129708767,0.0577256195247173,0.00901442766189575,0.0447666235268116,0.0527426600456238,0.0474851951003075,5.69632625579834,0.0304331090301275,0.0347719974815845,0.069984033703804,0.0688076615333557,0.141176745295525,0.0430172272026539,0.0422178879380226,2012-01-17 11:55:35
1.00500011444092,49,-7.39861679077148,0.0256501995027065,0.032134223729372,0.0926629975438118,0.0017530134646222,0.0375216715037823,0.102151557803154,0.0645403563976288,2.81831097602844,0.0252742506563663,0.0301002785563469,0.0648440793156624,0.0692884996533394,0.157832622528076,0.131509974598885,0.0249739997088909,5.70146608352661,0.044176984578371,0.0512379705905914,0.101869113743305,0.0074442676268518,0.384385377168655,0.351061284542084,0.204890474677086,2012-01-17 11:55:36
1.00999999046326,47,-7.42217350006104,0.0165767595171928,0.0201260596513748,0.0475730374455452,0.000549423217307776,0.0254212953150272,0.0374289304018021,0.0719362646341324,2.82118535041809,0.0355951488018036,0.0435808263719082,0.101196296513081,0.0587529204785824,0.129539921879768,0.186935439705849,0.0841689556837082,5.68201446533203,0.0326740182936192,0.0382579416036606,0.0824174880981445,0.0142729105427861,0.0300962161272764,0.119262099266052,0.122868195176125,2012-01-17 11:55:37
1.00600004196167,28,-7.40997457504272,0.0125335324555635,0.0162285733968019,0.0430791899561882,0.00047798638115637,0.000942111248150468,0.00106248876545578,0.0021301272790879,2.83202028274536,0.0207640845328569,0.0315991081297398,0.0959649607539177,0.000705763523001224,0.00236698798835278,0.00331869767978787,0.00119503226596862,5.667893409729,0.0235409364104271,0.0285287592560053,0.0591904930770397,0.00437674671411514,0.00713729718700051,0.00610401434823871,0.00258678942918777,2012-01-17 11:55:38
1,46,-7.38014364242554,0.0160170551389456,0.0182498563081026,0.0336839631199837,0.0122379995882511,0.0268289670348167,0.00992365647107363,0.0173630807548761,2.81791949272156,0.0283817779272795,0.0340460352599621,0.0720574483275414,0.0329860523343086,0.0975992679595947,0.0477840639650822,0.0169290639460087,5.70171403884888,0.033470630645752,0.0394698493182659,0.0825037956237793,0.114640727639198,0.206527531147003,0.161381617188454,0.0145200798287988,2012-01-17 11:55:39
1.00999999046326,41,-7.39038705825806,0.0266957487910986,0.0324802324175835,0.0724736526608467,0.020444905385375,0.0298110190778971,0.044371522963047,0.0340417847037315,2.84440684318542,0.0339762046933174,0.0404020324349403,0.0789315328001976,0.000192905848962255,0.0225913822650909,0.132747083902359,0.12895143032074,5.69790267944336,0.0304409638047218,0.0363391600549221,0.0782142356038094,0.0373400188982487,0.0993670299649239,0.061274841427803,0.0397739447653294,2012-01-17 11:55:40
1.0019998550415,46,-7.41595935821533,0.0213558841496706,0.0267328135669231,0.086127869784832,0.00139603903517127,0.0158901996910572,0.0205588694661856,0.0158923584967852,2.83028435707092,0.0248966626822948,0.0316439047455788,0.0724839940667152,0.0251405499875546,0.0475517846643925,0.0987937301397324,0.0350254476070404,5.68636465072632,0.0307454392313957,0.0360010601580143,0.0769608318805695,0.0382096692919731,0.055137749761343,0.197210669517517,0.0417209342122078,2012-01-17 11:55:41
1.00999999046326,38,-7.39731073379517,0.0168968997895718,0.0221701115369797,0.0557430908083916,0.0120988097041845,0.0243229940533638,0.021661315113306,0.016169561073184,2.83902502059937,0.0449041426181793,0.0515862070024014,0.102969810366631,0.13466440141201,0.285948395729065,0.26640248298645,0.0431119464337826,5.70256662368774,0.0322588123381138,0.0376968570053577,0.0735500827431679,0.00790337845683098,0.0259621795266867,0.0769302248954773,0.0187884140759706,2012-01-17 11:55:42
1.01800012588501,47,-7.32139444351196,0.141004472970963,0.233796015381813,0.907845377922058,0.0141849359497428,1.88202571868896,5.99985790252686,3.85608506202698,2.80866622924805,0.0606511496007442,0.100694909691811,0.437334775924683,0.0365896075963974,0.0619414523243904,0.661513030529022,0.551084756851196,5.79113960266113,0.103331632912159,0.186187416315079,0.769509196281433,0.14458142220974,2.17857551574707,1.86272823810577,2.13821768760681,2012-01-17 11:55:43
1.00799989700317,33,-7.36390256881714,0.0302034523338079,0.0366426557302475,0.0677550509572029,0.0526264943182468,0.0775189697742462,0.0327669270336628,0.0138464719057083,2.80797076225281,0.0281321760267019,0.0333361737430096,0.0751844123005867,0.000121994205983356,0.00468835700303316,0.0295383203774691,0.0134257776662707,5.72411155700684,0.0319505855441093,0.0496819019317627,0.153934702277184,0.000228198419790715,0.00106153206434101,0.00787383038550615,0.00587549991905689,2012-01-17 11:55:44
1.01300001144409,45,-7.36370420455933,0.0290568098425865,0.0362373888492584,0.0675569325685501,0.0116499057039618,0.115393750369549,0.206137791275978,0.155802398920059,2.82910943031311,0.0197198390960693,0.0238984078168869,0.044239018112421,0.00131870247423649,0.00510519091039896,0.0412939302623272,0.0532310381531715,5.7519268989563,0.0188288036733866,0.0232620388269424,0.0542637817561626,0.00234947307035327,0.0437390021979809,0.0759649053215981,0.0144425062462687,2012-01-17 11:55:45
1.01699995994568,31,-7.33157777786255,0.0170621126890182,0.0215252749621868,0.0550436824560165,0.00249982066452503,0.00595404719933867,0.00811467692255974,0.00266306754201651,2.80153846740723,0.0233073364943266,0.0284427367150784,0.0521965958178043,0.00036870816256851,0.00248884363099933,0.00558873964473605,0.0117377527058125,5.77706575393677,0.0236951429396868,0.0292989630252123,0.0695959031581879,0.00291518936865032,0.00643606996163726,0.01000801846385,0.0017261354951188,2012-01-17 11:55:46
1.00500011444092,51,-7.35133361816406,0.0230970960110426,0.0288020670413971,0.0649930238723755,0.0609862804412842,0.22384811937809,0.153517156839371,0.0210932623594999,2.85585021972656,0.0241302400827408,0.0290856808423996,0.0707617253065109,0.00422928342595696,0.0253922436386347,0.0263869091868401,0.062684491276741,5.78573131561279,0.0352224633097649,0.0407122187316418,0.078645370900631,0.282337486743927,0.522220253944397,0.0895601287484169,0.0661159679293633,2012-01-17 11:55:47
1.07500004768372,34,-7.32614421844482,0.019138203933835,0.0236583258956671,0.0496100261807442,0.00306116347201169,0.00855841301381588,0.0235072206705809,0.00957395881414413,2.82604575157166,0.0180862974375486,0.0252240858972073,0.07037702947855,0.00682842079550028,0.0171031635254622,0.0264369435608387,0.0248829126358032,5.7544846534729,0.0234816707670689,0.0271998327225447,0.0568212196230888,0.0102900201454759,0.0108209932222962,0.0101715633645654,0.0136656006798148,2012-01-17 11:55:48
1.00300002098083,49,-7.34037733078003,0.0201197303831577,0.0230303555727005,0.0442299172282219,0.000878405175171793,0.066168837249279,0.0396434217691422,0.00836803391575813,2.80350089073181,0.0261891540139914,0.0327733792364597,0.0698474645614624,0.00664955796673894,0.0311952512711287,0.0623320154845715,0.155700296163559,5.7843222618103,0.0347908996045589,0.0405233688652515,0.0898607969284058,0.103205509483814,0.155383512377739,0.0528644435107708,0.0670991465449333,2012-01-17 11:55:49
1.00099992752075,47,-7.34851884841919,0.014126168563962,0.0169586520642042,0.0358881019055843,0.000299911684123799,0.00730806821957231,0.0262516513466835,0.0261335801333189,2.82118535041809,0.0326562598347664,0.04267942532897,0.134163349866867,0.00170629401691258,0.129380494356155,0.32512155175209,0.0801980122923851,5.75441694259644,0.0245144218206406,0.0331750698387623,0.095980241894722,0.0111358528956771,0.0117655713111162,0.0587426908314228,0.0312488600611687,2012-01-17 11:55:50
1.01999998092651,37,-7.40216541290283,0.0424216128885746,0.0454767271876335,0.0705019980669022,0.129768565297127,0.23158124089241,0.101370692253113,0.0173972342163324,2.80470180511475,0.0206734482198954,0.0277373604476452,0.0588400289416313,0.000272623263299465,0.00403185747563839,0.028893020004034,0.0549660697579384,5.68070030212402,0.0286534614861012,0.0421429201960564,0.15955662727356,0.0156228253617883,0.025621023029089,0.0120521355420351,0.00847189407795668,2012-01-17 11:55:51
1.00200009346008,36,-7.49963569641113,0.0265596304088831,0.0306102950125933,0.0710980892181396,0.0422624871134758,0.0716595575213432,0.0211049392819405,0.0183485634624958,2.80824303627014,0.0257272776216269,0.0286985095590353,0.0454918816685677,0.0110524529591203,0.0275109298527241,0.0277616009116173,0.00532916001975536,5.57017707824707,0.0631982982158661,0.0713933631777763,0.117679595947266,0.0369652025401592,0.079274408519268,0.22915406525135,0.0336341485381126,2012-01-17 11:55:52
1.01799988746643,49,-7.66779947280884,0.104487240314484,0.126213774085045,0.324620306491852,1.78038227558136,3.70025777816772,0.755806863307953,0.24721685051918,2.6758143901825,0.121911220252514,0.137493073940277,0.243765383958817,0.541684210300446,1.02405917644501,1.5832132101059,3.1171715259552,5.321608543396,0.180702120065689,0.244862258434296,0.594803273677826,4.3221378326416,9.14344882965088,9.29931259155273,3.46745181083679,2012-01-17 11:55:53
1.16300010681152,40,-7.66978073120117,0.060997486114502,0.0702324062585831,0.128467082977295,0.499387383460999,0.640268862247467,0.173228576779366,0.0603385902941227,2.74071335792542,0.0497687570750713,0.0564622767269611,0.122337892651558,0.264811158180237,0.479267328977585,0.137960776686668,0.0367327556014061,5.39905118942261,0.0596244297921658,0.0749086290597916,0.181913211941719,0.285786002874374,0.286793112754822,0.0111612975597382,0.0634588599205017,2012-01-17 11:55:54
1.01399993896484,47,-7.6251916885376,0.040780421346426,0.0449538044631481,0.0740714818239212,0.00507698906585574,0.163278713822365,0.184334889054298,0.0319677293300629,2.77903771400452,0.0327272824943066,0.0404870994389057,0.0845042243599892,0.0454374775290489,0.209557220339775,0.141697585582733,0.0483495779335499,5.37320947647095,0.0470665767788887,0.05554224178195,0.116845048964024,0.333662420511246,0.375749707221985,0.142999544739723,0.148060232400894,2012-01-17 11:55:55
1.00300002098083,44,-7.62689876556396,0.0404828190803528,0.0511864051222801,0.105198502540588,0.0151690784841776,0.0660869851708412,0.0725664272904396,0.0740994960069656,2.89117860794067,0.0629327446222305,0.0719810873270035,0.148882821202278,0.508287847042084,0.679933488368988,0.119190126657486,0.0701811909675598,5.3635687828064,0.0510391630232334,0.063808299601078,0.128155246376991,0.0077463542111218,0.0404143966734409,0.155062302947044,0.0141622414812446,2012-01-17 11:55:56
1.0019998550415,35,-7.56008625030518,0.0425727963447571,0.0524904988706112,0.107032395899296,0.0159239452332258,0.0500959344208241,0.126581326127052,0.0352281965315342,2.88455605506897,0.029860271140933,0.0347819812595844,0.0700475499033928,0.0068732132203877,0.0252856034785509,0.069634810090065,0.0361067019402981,5.41439151763916,0.0577512569725513,0.0651248320937157,0.136172384023666,0.102535411715508,0.171289846301079,0.0889265760779381,0.0280818119645119,2012-01-17 11:55:57
1.01800012588501,49,-7.55312156677246,0.0352646671235561,0.0439897365868092,0.100067682564259,0.0223032999783754,0.0440075956285,0.0933484509587288,0.0164336431771517,2.93619108200073,0.0593953728675842,0.0723877474665642,0.133290380239487,0.132162138819695,0.997215449810028,0.420665949583054,0.0888907760381699,5.41867446899414,0.0710196420550346,0.0916538760066032,0.259375751018524,0.0179258082062006,0.553570926189423,0.437603443861008,0.105418838560581,2012-01-17 11:55:58
