"diffSecs","N.samples","x.mean","x.absolute.deviation","x.standard.deviation","x.max.deviation","x.PSD.1","x.PSD.3","x.PSD.6","x.PSD.10","y.mean","y.absolute.deviation","y.standard.deviation","y.max.deviation","y.PSD.1","y.PSD.3","y.PSD.6","y.PSD.10","z.mean","z.absolute.deviation","z.standard.deviation","z.max.deviation","z.PSD.1","z.PSD.3","z.PSD.6","z.PSD.10","time"
1.00699996948242,30,4.51661586761475,0.0362845584750175,0.0460448153316975,0.093816801905632,0.00137779966462404,0.00980629306286573,0.0286354199051857,0.0171857699751854,-1.00452780723572,0.0224681291729212,0.0293854251503944,0.0643969774246216,5.18855231348425e-05,0.00157979293726385,0.00741667300462723,0.0051939133554697,8.29446411132812,0.0166058987379074,0.0203196965157986,0.0411878600716591,0.00054695294238627,0.00288929254747927,0.00921317003667355,0.00140172161627561,2012-01-23 14:23:05
1.00499987602234,42,4.50545501708984,0.0401605181396008,0.0493656471371651,0.11347720772028,0.0399662703275681,0.185442611575127,0.115842513740063,0.0836107581853867,-0.990938603878021,0.0192797314375639,0.026379382237792,0.0877928212285042,0.000877724145539105,0.0162996258586645,0.0281353499740362,0.0260853320360184,8.31720638275146,0.0336116217076778,0.0421637631952763,0.106705509126186,0.0179866179823875,0.022229265421629,0.0586411915719509,0.123150169849396,2012-01-23 14:23:06
