"diffSecs","latitude","longitude","altitude","time"
0.93500018119812,42.8548800833333,-71.4910518666667,66.9,2011-11-29 19:00:15
66.9619998931885,42.8548763,-71.4910618333333,65.1,2011-11-29 19:01:22
66.0380001068115,42.85487365,-71.4910669666667,64.3,2011-11-29 19:02:28
66.0749998092651,42.8548701666667,-71.4910813166667,63.1,2011-11-29 19:03:35
65.9010000228882,42.85487115,-71.4910880166667,63,2011-11-29 19:04:40
65.0010001659393,42.8548635833333,-71.4911093,60.4,2011-11-29 19:05:45
66.0820000171661,42.8548558666667,-71.4911363333333,57.1,2011-11-29 19:06:51
65.9599997997284,42.8548520833333,-71.49113145,57.7,2011-11-29 19:07:57
66.9990000724792,42.8548528333333,-71.49112825,58.7,2011-11-29 19:09:04
66.0469999313354,42.8548555,-71.4911296833333,58.7,2011-11-29 19:10:11
64.9050002098083,42.85485685,-71.491134,58.4,2011-11-29 19:11:15
67.0389997959137,42.8548602333333,-71.4911395166667,58.5,2011-11-29 19:12:22
66.0500001907349,42.8548610833333,-71.4911313833333,59.7,2011-11-29 19:13:28
65.9519999027252,42.85486005,-71.4911286333333,60.6,2011-11-29 19:14:34
64.039999961853,42.8548845666667,-71.4908974166667,69.8,2011-11-29 19:15:38
64.0169999599457,42.8553315333333,-71.4911617,51.8,2011-11-29 19:16:43
62.9210000038147,42.8632097166667,-71.4934723666667,37.6,2011-11-29 19:17:45
64.0099999904633,42.86666075,-71.4957886333333,52,2011-11-29 19:18:49
64.0460000038147,42.8668732833333,-71.4955092666667,70,2011-11-29 19:19:53
66.9609999656677,42.8666550166667,-71.4950516166667,67.2,2011-11-29 19:21:00
66.0260000228882,42.86657195,-71.49527185,65.3,2011-11-29 19:22:06
66.1900000572205,42.8666174666667,-71.4953123,68.3,2011-11-29 19:23:13
65.8029999732971,42.8666407,-71.495334,69,2011-11-29 19:24:18
65.0729999542236,42.8666589,-71.4953144666667,65.7,2011-11-29 19:25:24
65.933000087738,42.8666704833333,-71.4953026,66.8,2011-11-29 19:26:29
70.0009999275208,42.8666763833333,-71.4953069,67,2011-11-29 19:27:39
65.9990000724792,42.86668045,-71.4953114166667,67.9,2011-11-29 19:28:45
67.5190000534058,42.8666750666667,-71.4953162666667,68.9,2011-11-29 19:29:53
66.970999956131,42.8666742166667,-71.4953144666667,68.7,2011-11-29 19:31:00
77.0039999485016,42.8666858666667,-71.4953183833333,68.2,2011-11-29 19:32:17
67.6210000514984,42.8666864833333,-71.4953218666667,68.7,2011-11-29 19:33:25
