"diffSecs","level","azimuth.mean","azimuth.absolute.deviation","azimuth.standard.deviation","azimuth.max.deviation","pitch.mean","pitch.absolute.deviation","pitch.standard.deviation","pitch.max.deviation","roll.mean","roll.absolute.deviation","roll.standard.deviation","roll.max.deviation","time"
1.01600003242493,19,-16.4000015258789,0.221052527427673,0.255466490983963,0.499998986721039,169.178955078125,0.0919646769762039,0.115068510174751,0.278939485549927,-48.1052627563477,0.111356995999813,0.127624481916428,0.20526222884655,2012-02-03 08:20:22
1.00499987602234,44,-16.4795455932617,0.360433906316757,0.416467547416687,0.779545962810516,169.034088134766,0.0841945931315422,0.102119632065296,0.234090626239777,-47.9590911865234,0.106405071914196,0.12670373916626,0.259090781211853,2012-02-03 08:20:23
1.00999999046326,39,-16.4384613037109,0.305719971656799,0.375271171331406,0.861539125442505,169.056411743164,0.10045975446701,0.119387164711952,0.256410270929337,-48.0974388122559,0.105851821601391,0.140488415956497,0.302564561367035,2012-02-03 08:20:24
1.007000207901,48,-16.6833343505859,0.373611032962799,0.432209968566895,0.783333003520966,169.014587402344,0.118836127221584,0.148588597774506,0.314589500427246,-48.0854187011719,0.116406671702862,0.145758911967278,0.385416746139526,2012-02-03 08:20:25
1.0019998550415,41,-16.3512191772461,0.476978033781052,0.539250731468201,0.851219892501831,169.048782348633,0.14015394449234,0.168380364775658,0.351225316524506,-48.1097564697266,0.0801897943019867,0.118537500500679,0.409756630659103,2012-02-03 08:20:26
1.125,41,-16.4024391174316,0.310529321432114,0.392917573451996,0.902439475059509,169.146347045898,0.0936318337917328,0.12116713821888,0.346341401338577,-48.0512199401855,0.101130731403828,0.117124028503895,0.25122144818306,2012-02-03 08:20:27
1.08599996566772,54,-16.5518531799316,0.257475882768631,0.294857412576675,0.548148036003113,169.375930786133,0.21001347899437,0.249394193291664,0.475920230150223,-48.2092590332031,0.129492282867432,0.16246771812439,0.390742182731628,2012-02-03 08:20:28
1.01600003242493,50,-16.5699996948242,0.216800034046173,0.256319999694824,0.529999971389771,169.052001953125,0.100000001490116,0.120397821068764,0.251999497413635,-48.1920013427734,0.117919631302357,0.152105271816254,0.3920017182827,2012-02-03 08:20:29
1.01300001144409,41,-16.4512195587158,0.364663988351822,0.422028750181198,0.948779821395874,169.109756469727,0.0850648880004883,0.1143459379673,0.309755653142929,-48.1073188781738,0.150029316544533,0.201688215136528,0.507315874099731,2012-02-03 08:20:30
1.00600004196167,42,-16.7238101959229,0.341723382472992,0.39206999540329,0.823809266090393,169.04524230957,0.0907030180096626,0.107352569699287,0.245238170027733,-48.1523818969727,0.164172053337097,0.203818440437317,0.452380776405334,2012-02-03 08:20:31
