"diffSecs","latitude","longitude","altitude","time"
3.05999994277954,44.4539558887482,-71.6153454780579,50,2012-02-13 08:52:10
0.989000082015991,44.4539558887482,-71.6153454780579,50,2012-02-13 08:52:11
1.00099992752075,44.4539558887482,-71.6153454780579,50,2012-02-13 08:52:12
1.00100016593933,44.4539558887482,-71.6153454780579,50,2012-02-13 08:52:13
0.583999872207642,44.2661100625992,-71.6769450902939,50,2012-02-13 08:52:13
1,44.2661100625992,-71.6769450902939,50,2012-02-13 08:52:14
1.00099992752075,44.2661100625992,-71.6769450902939,50,2012-02-13 08:52:15
1.29900002479553,44.2661100625992,-71.6769450902939,50,2012-02-13 08:52:16
0.703000068664551,44.2661100625992,-71.6769450902939,50,2012-02-13 08:52:17
1,44.2661100625992,-71.6769450902939,50,2012-02-13 08:52:18
1.08899998664856,44.2661100625992,-71.6769450902939,50,2012-02-13 08:52:19
0.911999940872192,44.2661100625992,-71.6769450902939,50,2012-02-13 08:52:20
1.04100012779236,44.2661100625992,-71.6769450902939,50,2012-02-13 08:52:21
0.965999841690063,44.2661100625992,-71.6769450902939,50,2012-02-13 08:52:22
0.995000123977661,44.2661100625992,-71.6769450902939,50,2012-02-13 08:52:23
1.00099992752075,44.2661100625992,-71.6769450902939,50,2012-02-13 08:52:24
1.00100016593933,44.2661100625992,-71.6769450902939,50,2012-02-13 08:52:25
1.03299999237061,44.4539558887482,-71.6153454780579,50,2012-02-13 08:52:26
0.968999862670898,44.4539558887482,-71.6153454780579,50,2012-02-13 08:52:27
1.00099992752075,44.4539558887482,-71.6153454780579,50,2012-02-13 08:52:28
1.00100016593933,44.4539558887482,-71.6153454780579,50,2012-02-13 08:52:29
1,44.4539558887482,-71.6153454780579,50,2012-02-13 08:52:30
1,44.4539558887482,-71.6153454780579,50,2012-02-13 08:52:31
1.00099992752075,44.4539558887482,-71.6153454780579,50,2012-02-13 08:52:32
1.00099992752075,44.4539558887482,-71.6153454780579,50,2012-02-13 08:52:33
1,44.4539558887482,-71.6153454780579,50,2012-02-13 08:52:34
1.01999998092651,44.4539558887482,-71.6153454780579,50,2012-02-13 08:52:35
3.99000000953674,44.4539558887482,-71.6153454780579,50,2012-02-13 08:52:39
1,44.4539558887482,-71.6153454780579,50,2012-02-13 08:52:40
1.00100016593933,44.2661100625992,-71.6769450902939,50,2012-02-13 08:52:41
1.00099992752075,44.2661100625992,-71.6769450902939,50,2012-02-13 08:52:42
1.00399994850159,44.2661100625992,-71.6769450902939,50,2012-02-13 08:52:43
0.996999979019165,44.2661100625992,-71.6769450902939,50,2012-02-13 08:52:44
1.00200009346008,44.2661100625992,-71.6769450902939,50,2012-02-13 08:52:45
1,44.2661100625992,-71.6769450902939,50,2012-02-13 08:52:46
1.00200009346008,44.2661100625992,-71.6769450902939,50,2012-02-13 08:52:47
1,44.2661100625992,-71.6769450902939,50,2012-02-13 08:52:48
1.00299978256226,44.2661100625992,-71.6769450902939,50,2012-02-13 08:52:49
0.998000144958496,44.2661100625992,-71.6769450902939,50,2012-02-13 08:52:50
1.02300000190735,44.2661100625992,-71.6769450902939,50,2012-02-13 08:52:51
0.976999998092651,44.2661100625992,-71.6769450902939,50,2012-02-13 08:52:52
1,44.2661100625992,-71.6769450902939,50,2012-02-13 08:52:53
1.00099992752075,44.4539558887482,-71.6153454780579,50,2012-02-13 08:52:54
1.00099992752075,44.4539558887482,-71.6153454780579,50,2012-02-13 08:52:55
1,44.4539558887482,-71.6153454780579,50,2012-02-13 08:52:56
1.00100016593933,44.4539558887482,-71.6153454780579,50,2012-02-13 08:52:57
1.0019998550415,44.4539558887482,-71.6153454780579,50,2012-02-13 08:52:58
1,44.4539558887482,-71.6153454780579,50,2012-02-13 08:52:59
1,44.4539558887482,-71.6153454780579,50,2012-02-13 08:53:00
1.00200009346008,44.4539558887482,-71.6153454780579,50,2012-02-13 08:53:01
0.999000072479248,44.4539558887482,-71.6153454780579,50,2012-02-13 08:53:02
1.00300002098083,44.4539558887482,-71.6153454780579,50,2012-02-13 08:53:03
1.00099992752075,44.4539558887482,-71.6153454780579,50,2012-02-13 08:53:04
0.996999979019165,44.4539558887482,-71.6153454780579,50,2012-02-13 08:53:05
4.00399994850159,44.4539558887482,-71.6153454780579,50,2012-02-13 08:53:09
1.00100016593933,44.4539558887482,-71.6153454780579,50,2012-02-13 08:53:10
1.0019998550415,44.4539558887482,-71.6153454780579,50,2012-02-13 08:53:11
1.00099992752075,44.4539558887482,-71.6153454780579,50,2012-02-13 08:53:12
1,44.4539558887482,-71.6153454780579,50,2012-02-13 08:53:13
1.00100016593933,44.4539558887482,-71.6153454780579,50,2012-02-13 08:53:14
1,44.4539558887482,-71.6153454780579,50,2012-02-13 08:53:15
1.00099992752075,44.4539558887482,-71.6153454780579,50,2012-02-13 08:53:16
1.01699995994568,44.4539558887482,-71.6153454780579,50,2012-02-13 08:53:17
1.00100016593933,44.4539558887482,-71.6153454780579,50,2012-02-13 08:53:18
0.983999967575073,44.4539558887482,-71.6153454780579,50,2012-02-13 08:53:19
1.00099992752075,44.4539558887482,-71.6153454780579,50,2012-02-13 08:53:20
1.00099992752075,44.4539558887482,-71.6153454780579,50,2012-02-13 08:53:21
1,44.4539558887482,-71.6153454780579,50,2012-02-13 08:53:22
1.00100016593933,44.4539558887482,-71.6153454780579,50,2012-02-13 08:53:23
1,44.4539558887482,-71.6153454780579,50,2012-02-13 08:53:24
1.00099992752075,44.4539558887482,-71.6153454780579,50,2012-02-13 08:53:25
1.00099992752075,44.4539558887482,-71.6153454780579,50,2012-02-13 08:53:26
1.00099992752075,44.4539558887482,-71.6153454780579,50,2012-02-13 08:53:27
1,44.4539558887482,-71.6153454780579,50,2012-02-13 08:53:28
1.00100016593933,44.4539558887482,-71.6153454780579,50,2012-02-13 08:53:29
1,44.4539558887482,-71.6153454780579,50,2012-02-13 08:53:30
1.00099992752075,44.4539558887482,-71.6153454780579,50,2012-02-13 08:53:31
1,44.4539558887482,-71.6153454780579,50,2012-02-13 08:53:32
1.00300002098083,44.4539558887482,-71.6153454780579,50,2012-02-13 08:53:33
1.02099990844727,44.4539558887482,-71.6153454780579,50,2012-02-13 08:53:34
0.979000091552734,44.4539558887482,-71.6153454780579,50,2012-02-13 08:53:35
3.99900007247925,44.4539558887482,-71.6153454780579,50,2012-02-13 08:53:39
1.00099992752075,44.4539558887482,-71.6153454780579,50,2012-02-13 08:53:40
1,44.4539558887482,-71.6153454780579,50,2012-02-13 08:53:41
1.00099992752075,44.4539558887482,-71.6153454780579,50,2012-02-13 08:53:42
0.999000072479248,44.4539558887482,-71.6153454780579,50,2012-02-13 08:53:43
1,44.4539558887482,-71.6153454780579,50,2012-02-13 08:53:44
1.00099992752075,44.4539558887482,-71.6153454780579,50,2012-02-13 08:53:45
1,44.4539558887482,-71.6153454780579,50,2012-02-13 08:53:46
1.00100016593933,44.4539558887482,-71.6153454780579,50,2012-02-13 08:53:47
1.0019998550415,44.4539558887482,-71.6153454780579,50,2012-02-13 08:53:48
1.00100016593933,44.4539558887482,-71.6153454780579,50,2012-02-13 08:53:49
1.0239999294281,44.4539558887482,-71.6153454780579,50,2012-02-13 08:53:50
0.980000019073486,44.4539558887482,-71.6153454780579,50,2012-02-13 08:53:51
1.00099992752075,44.4539558887482,-71.6153454780579,50,2012-02-13 08:53:52
0.999000072479248,44.4539558887482,-71.6153454780579,50,2012-02-13 08:53:53
1.00099992752075,44.4539558887482,-71.6153454780579,50,2012-02-13 08:53:54
1,44.4539558887482,-71.6153454780579,50,2012-02-13 08:53:55
1,44.4539558887482,-71.6153454780579,50,2012-02-13 08:53:56
1.00099992752075,44.4539558887482,-71.6153454780579,50,2012-02-13 08:53:57
1,44.4539558887482,-71.6153454780579,50,2012-02-13 08:53:58
1,44.4539558887482,-71.6153454780579,50,2012-02-13 08:53:59
1.00200009346008,44.4539558887482,-71.6153454780579,50,2012-02-13 08:54:00
1.0090000629425,44.4539558887482,-71.6153454780579,50,2012-02-13 08:54:01
0.990999937057495,44.4539558887482,-71.6153454780579,50,2012-02-13 08:54:02
1.00200009346008,44.4539558887482,-71.6153454780579,50,2012-02-13 08:54:03
1.00099992752075,44.2661100625992,-71.6769450902939,50,2012-02-13 08:54:04
1.00099992752075,44.2661100625992,-71.6769450902939,50,2012-02-13 08:54:05
3.99500012397766,44.2661100625992,-71.6769450902939,50,2012-02-13 08:54:09
1,44.2661100625992,-71.6769450902939,50,2012-02-13 08:54:10
1.0019998550415,44.2661100625992,-71.6769450902939,50,2012-02-13 08:54:11
0.999000072479248,44.2661100625992,-71.6769450902939,50,2012-02-13 08:54:12
1.00200009346008,44.2661100625992,-71.6769450902939,50,2012-02-13 08:54:13
1.00099992752075,44.2661100625992,-71.6769450902939,50,2012-02-13 08:54:14
1,44.2661100625992,-71.6769450902939,50,2012-02-13 08:54:15
1.00099992752075,44.2661100625992,-71.6769450902939,50,2012-02-13 08:54:16
1.0220000743866,44.2661100625992,-71.6769450902939,50,2012-02-13 08:54:17
0.978999853134155,44.2661100625992,-71.6769450902939,50,2012-02-13 08:54:18
1,44.2661100625992,-71.6769450902939,50,2012-02-13 08:54:19
1.00100016593933,44.2661100625992,-71.6769450902939,50,2012-02-13 08:54:20
1,44.2661100625992,-71.6769450902939,50,2012-02-13 08:54:21
1,44.2661100625992,-71.6769450902939,50,2012-02-13 08:54:22
1.00099992752075,44.2661100625992,-71.6769450902939,50,2012-02-13 08:54:23
1.72200012207031,44.2661100625992,-71.6769450902939,50,2012-02-13 08:54:25
1.00099992752075,44.2661100625992,-71.6769450902939,50,2012-02-13 08:54:26
1,44.2661100625992,-71.6769450902939,50,2012-02-13 08:54:27
1,44.2661100625992,-71.6769450902939,50,2012-02-13 08:54:28
1.00099992752075,44.2661100625992,-71.6769450902939,50,2012-02-13 08:54:29
1.00099992752075,44.2661100625992,-71.6769450902939,50,2012-02-13 08:54:30
1.00100016593933,44.2661100625992,-71.6769450902939,50,2012-02-13 08:54:31
1.00099992752075,44.2661100625992,-71.6769450902939,50,2012-02-13 08:54:32
1,44.2661100625992,-71.6769450902939,50,2012-02-13 08:54:33
1.00200009346008,44.2661100625992,-71.6769450902939,50,2012-02-13 08:54:34
1,44.2661100625992,-71.6769450902939,50,2012-02-13 08:54:35
1,44.2661100625992,-71.6769450902939,50,2012-02-13 08:54:36
4.0019998550415,44.2661100625992,-71.6769450902939,50,2012-02-13 08:54:40
1,44.2661100625992,-71.6769450902939,50,2012-02-13 08:54:41
1.00100016593933,44.2661100625992,-71.6769450902939,50,2012-02-13 08:54:42
1,44.2661100625992,-71.6769450902939,50,2012-02-13 08:54:43
1.00099992752075,44.2661100625992,-71.6769450902939,50,2012-02-13 08:54:44
1.00099992752075,44.2661100625992,-71.6769450902939,50,2012-02-13 08:54:45
1,44.2661100625992,-71.6769450902939,50,2012-02-13 08:54:46
1,44.2661100625992,-71.6769450902939,50,2012-02-13 08:54:47
1.00100016593933,44.2661100625992,-71.6769450902939,50,2012-02-13 08:54:48
1.03599977493286,44.2661100625992,-71.6769450902939,50,2012-02-13 08:54:49
0.966000080108643,44.2661100625992,-71.6769450902939,50,2012-02-13 08:54:50
1.00099992752075,44.2661100625992,-71.6769450902939,50,2012-02-13 08:54:51
1,44.2661100625992,-71.6769450902939,50,2012-02-13 08:54:52
1,44.2661100625992,-71.6769450902939,50,2012-02-13 08:54:53
1.00100016593933,44.2661100625992,-71.6769450902939,50,2012-02-13 08:54:54
1.03299999237061,44.2661100625992,-71.6769450902939,50,2012-02-13 08:54:55
0.967999935150146,44.2661100625992,-71.6769450902939,50,2012-02-13 08:54:56
1.00099992752075,44.2661100625992,-71.6769450902939,50,2012-02-13 08:54:57
1.00100016593933,44.2661100625992,-71.6769450902939,50,2012-02-13 08:54:58
1,44.4539558887482,-71.6153454780579,50,2012-02-13 08:54:59
1.00099992752075,44.4539558887482,-71.6153454780579,50,2012-02-13 08:55:00
1.00099992752075,44.4539558887482,-71.6153454780579,50,2012-02-13 08:55:01
1.00699996948242,44.4539558887482,-71.6153454780579,50,2012-02-13 08:55:02
1.00300002098083,44.4539558887482,-71.6153454780579,50,2012-02-13 08:55:03
1,44.4539558887482,-71.6153454780579,50,2012-02-13 08:55:04
1,44.4539558887482,-71.6153454780579,50,2012-02-13 08:55:05
1.00100016593933,44.4539558887482,-71.6153454780579,50,2012-02-13 08:55:06
4.00099992752075,44.4539558887482,-71.6153454780579,50,2012-02-13 08:55:10
0.996999979019165,44.4539558887482,-71.6153454780579,50,2012-02-13 08:55:11
1.00099992752075,44.4539558887482,-71.6153454780579,50,2012-02-13 08:55:12
1,44.4539558887482,-71.6153454780579,50,2012-02-13 08:55:13
1.12700009346008,44.4539558887482,-71.6153454780579,50,2012-02-13 08:55:14
0.875,44.4539558887482,-71.6153454780579,50,2012-02-13 08:55:15
1.03900003433228,44.4539558887482,-71.6153454780579,50,2012-02-13 08:55:16
0.964999914169312,44.4539558887482,-71.6153454780579,50,2012-02-13 08:55:17
0.997999906539917,44.2661100625992,-71.6769450902939,50,2012-02-13 08:55:18
1.00300002098083,44.2661100625992,-71.6769450902939,50,2012-02-13 08:55:19
1.00100016593933,44.2661100625992,-71.6769450902939,50,2012-02-13 08:55:20
1.00099992752075,44.2661100625992,-71.6769450902939,50,2012-02-13 08:55:21
1,44.2661100625992,-71.6769450902939,50,2012-02-13 08:55:22
1.00200009346008,44.2661100625992,-71.6769450902939,50,2012-02-13 08:55:23
1.0019998550415,44.2661100625992,-71.6769450902939,50,2012-02-13 08:55:24
1,44.2661100625992,-71.6769450902939,50,2012-02-13 08:55:25
1.00300002098083,44.2661100625992,-71.6769450902939,50,2012-02-13 08:55:26
0.999000072479248,44.2661100625992,-71.6769450902939,50,2012-02-13 08:55:27
1.0019998550415,44.2661100625992,-71.6769450902939,50,2012-02-13 08:55:28
1.00100016593933,44.2661100625992,-71.6769450902939,50,2012-02-13 08:55:29
1.00099992752075,44.2661100625992,-71.6769450902939,50,2012-02-13 08:55:30
1.02900004386902,44.2661100625992,-71.6769450902939,50,2012-02-13 08:55:31
0.973000049591064,44.2661100625992,-71.6769450902939,50,2012-02-13 08:55:32
1,44.2661100625992,-71.6769450902939,50,2012-02-13 08:55:33
1.00300002098083,44.2661100625992,-71.6769450902939,50,2012-02-13 08:55:34
1,44.2661100625992,-71.6769450902939,50,2012-02-13 08:55:35
1.0019998550415,44.2661100625992,-71.6769450902939,50,2012-02-13 08:55:36
4.00399994850159,44.2661100625992,-71.6769450902939,50,2012-02-13 08:55:40
0.203999996185303,44.2661100625992,-71.6769450902939,50,2012-02-13 08:55:40
1.00200009346008,44.2661100625992,-71.6769450902939,50,2012-02-13 08:55:41
1.00099992752075,44.2661100625992,-71.6769450902939,50,2012-02-13 08:55:42
1,44.2661100625992,-71.6769450902939,50,2012-02-13 08:55:43
1.00100016593933,44.2661100625992,-71.6769450902939,50,2012-02-13 08:55:44
1.00999999046326,44.2661100625992,-71.6769450902939,50,2012-02-13 08:55:45
1.00099992752075,44.2661100625992,-71.6769450902939,50,2012-02-13 08:55:46
0.999000072479248,44.2661100625992,-71.6769450902939,50,2012-02-13 08:55:47
1.00399994850159,44.2661100625992,-71.6769450902939,50,2012-02-13 08:55:48
1.00099992752075,44.2661100625992,-71.6769450902939,50,2012-02-13 08:55:49
1.02100014686584,44.2661100625992,-71.6769450902939,50,2012-02-13 08:55:50
1.00699996948242,44.2661100625992,-71.6769450902939,50,2012-02-13 08:55:51
1.00099992752075,44.2661100625992,-71.6769450902939,50,2012-02-13 08:55:52
1,44.2661100625992,-71.6769450902939,50,2012-02-13 08:55:53
1.00200009346008,44.2661100625992,-71.6769450902939,50,2012-02-13 08:55:54
1.00099992752075,44.2661100625992,-71.6769450902939,50,2012-02-13 08:55:55
1,44.2661100625992,-71.6769450902939,50,2012-02-13 08:55:56
1.0220000743866,44.2661100625992,-71.6769450902939,50,2012-02-13 08:55:57
0.980000019073486,44.2661100625992,-71.6769450902939,50,2012-02-13 08:55:58
1,44.2661100625992,-71.6769450902939,50,2012-02-13 08:55:59
1.00099992752075,44.2661100625992,-71.6769450902939,50,2012-02-13 08:56:00
1.00099992752075,44.2661100625992,-71.6769450902939,50,2012-02-13 08:56:01
1,44.2661100625992,-71.6769450902939,50,2012-02-13 08:56:02
1.00200009346008,44.2661100625992,-71.6769450902939,50,2012-02-13 08:56:03
1,44.2661100625992,-71.6769450902939,50,2012-02-13 08:56:04
1.01699995994568,44.2661100625992,-71.6769450902939,50,2012-02-13 08:56:05
3.95499992370605,44.4539558887482,-71.6153454780579,50,2012-02-13 08:56:09
1.00100016593933,44.4539558887482,-71.6153454780579,50,2012-02-13 08:56:10
1.00399994850159,44.4539558887482,-71.6153454780579,50,2012-02-13 08:56:11
0.996000051498413,44.4539558887482,-71.6153454780579,50,2012-02-13 08:56:12
1,44.4539558887482,-71.6153454780579,50,2012-02-13 08:56:13
1.0019998550415,44.4539558887482,-71.6153454780579,50,2012-02-13 08:56:14
0.999000072479248,44.4539558887482,-71.6153454780579,50,2012-02-13 08:56:15
1.00099992752075,44.4539558887482,-71.6153454780579,50,2012-02-13 08:56:16
1.00099992752075,44.4539558887482,-71.6153454780579,50,2012-02-13 08:56:17
1.00100016593933,44.4539558887482,-71.6153454780579,50,2012-02-13 08:56:18
1.00099992752075,44.4539558887482,-71.6153454780579,50,2012-02-13 08:56:19
1,44.4539558887482,-71.6153454780579,50,2012-02-13 08:56:20
1.00099992752075,44.4539558887482,-71.6153454780579,50,2012-02-13 08:56:21
1.00100016593933,44.4539558887482,-71.6153454780579,50,2012-02-13 08:56:22
1.0019998550415,44.4539558887482,-71.6153454780579,50,2012-02-13 08:56:23
0.999000072479248,44.4539558887482,-71.6153454780579,50,2012-02-13 08:56:24
1.00099992752075,44.4539558887482,-71.6153454780579,50,2012-02-13 08:56:25
1.00100016593933,44.4539558887482,-71.6153454780579,50,2012-02-13 08:56:26
1,44.4539558887482,-71.6153454780579,50,2012-02-13 08:56:27
1,44.4539558887482,-71.6153454780579,50,2012-02-13 08:56:28
1.00099992752075,44.4539558887482,-71.6153454780579,50,2012-02-13 08:56:29
1.00099992752075,44.4539558887482,-71.6153454780579,50,2012-02-13 08:56:30
1,44.4539558887482,-71.6153454780579,50,2012-02-13 08:56:31
1.00200009346008,44.4539558887482,-71.6153454780579,50,2012-02-13 08:56:32
1,44.4539558887482,-71.6153454780579,50,2012-02-13 08:56:33
1.00099992752075,44.4539558887482,-71.6153454780579,50,2012-02-13 08:56:34
1,44.4539558887482,-71.6153454780579,50,2012-02-13 08:56:35
3.00200009346008,44.4539558887482,-71.6153454780579,50,2012-02-13 08:56:38
1.0149998664856,44.4539558887482,-71.6153454780579,50,2012-02-13 08:56:39
1.0090000629425,44.4539558887482,-71.6153454780579,50,2012-02-13 08:56:40
0.980000019073486,44.4539558887482,-71.6153454780579,50,2012-02-13 08:56:41
0.999000072479248,44.4539558887482,-71.6153454780579,50,2012-02-13 08:56:42
1,44.4539558887482,-71.6153454780579,50,2012-02-13 08:56:43
1.00099992752075,44.4539558887482,-71.6153454780579,50,2012-02-13 08:56:44
1,44.4539558887482,-71.6153454780579,50,2012-02-13 08:56:45
1.00099992752075,44.4539558887482,-71.6153454780579,50,2012-02-13 08:56:46
1.00100016593933,44.4539558887482,-71.6153454780579,50,2012-02-13 08:56:47
1,44.4539558887482,-71.6153454780579,50,2012-02-13 08:56:48
1.00099992752075,44.4539558887482,-71.6153454780579,50,2012-02-13 08:56:49
1,44.4539558887482,-71.6153454780579,50,2012-02-13 08:56:50
2.10999989509583,44.4539558887482,-71.6153454780579,50,2012-02-13 08:56:52
0.89300012588501,44.4539558887482,-71.6153454780579,50,2012-02-13 08:56:53
1.0019998550415,44.4539558887482,-71.6153454780579,50,2012-02-13 08:56:54
0.999000072479248,44.4539558887482,-71.6153454780579,50,2012-02-13 08:56:55
1,44.4539558887482,-71.6153454780579,50,2012-02-13 08:56:56
1.00099992752075,44.4539558887482,-71.6153454780579,50,2012-02-13 08:56:57
1.00100016593933,44.4539558887482,-71.6153454780579,50,2012-02-13 08:56:58
1.00899982452393,44.4539558887482,-71.6153454780579,50,2012-02-13 08:56:59
0.993000030517578,44.4539558887482,-71.6153454780579,50,2012-02-13 08:57:00
1.02500009536743,44.4539558887482,-71.6153454780579,50,2012-02-13 08:57:01
0.999000072479248,44.4539558887482,-71.6153454780579,50,2012-02-13 08:57:02
0.982999801635742,44.4539558887482,-71.6153454780579,50,2012-02-13 08:57:03
1.00100016593933,44.4539558887482,-71.6153454780579,50,2012-02-13 08:57:04
1.00099992752075,44.4539558887482,-71.6153454780579,50,2012-02-13 08:57:05
3.99200010299683,44.4539558887482,-71.6153454780579,50,2012-02-13 08:57:09
1,44.4539558887482,-71.6153454780579,50,2012-02-13 08:57:10
1.00099992752075,44.4539558887482,-71.6153454780579,50,2012-02-13 08:57:11
1.00099992752075,44.4539558887482,-71.6153454780579,50,2012-02-13 08:57:12
1,44.4539558887482,-71.6153454780579,50,2012-02-13 08:57:13
1.00200009346008,44.4539558887482,-71.6153454780579,50,2012-02-13 08:57:14
0.998999834060669,44.4539558887482,-71.6153454780579,50,2012-02-13 08:57:15
1.00400018692017,44.4539558887482,-71.6153454780579,50,2012-02-13 08:57:16
1.00099992752075,44.4539558887482,-71.6153454780579,50,2012-02-13 08:57:17
1,44.4539558887482,-71.6153454780579,50,2012-02-13 08:57:18
1,44.4539558887482,-71.6153454780579,50,2012-02-13 08:57:19
1.00099992752075,44.4539558887482,-71.6153454780579,50,2012-02-13 08:57:20
1,44.4539558887482,-71.6153454780579,50,2012-02-13 08:57:21
1.00100016593933,44.4539558887482,-71.6153454780579,50,2012-02-13 08:57:22
1,44.4539558887482,-71.6153454780579,50,2012-02-13 08:57:23
1,44.4539558887482,-71.6153454780579,50,2012-02-13 08:57:24
1,44.4539558887482,-71.6153454780579,50,2012-02-13 08:57:25
1.00099992752075,44.4539558887482,-71.6153454780579,50,2012-02-13 08:57:26
1,44.4539558887482,-71.6153454780579,50,2012-02-13 08:57:27
1.00099992752075,44.4539558887482,-71.6153454780579,50,2012-02-13 08:57:28
1.0090000629425,44.4539558887482,-71.6153454780579,50,2012-02-13 08:57:29
0.99399995803833,44.4539558887482,-71.6153454780579,50,2012-02-13 08:57:30
1.00200009346008,44.4539558887482,-71.6153454780579,50,2012-02-13 08:57:31
1.00099992752075,44.4539558887482,-71.6153454780579,50,2012-02-13 08:57:32
1.00099992752075,44.4539558887482,-71.6153454780579,50,2012-02-13 08:57:33
1,44.4539558887482,-71.6153454780579,50,2012-02-13 08:57:34
1.00100016593933,44.4539558887482,-71.6153454780579,50,2012-02-13 08:57:35
3.99799990653992,44.4539558887482,-71.6153454780579,50,2012-02-13 08:57:39
1.00300002098083,44.4539558887482,-71.6153454780579,50,2012-02-13 08:57:40
0.997999906539917,44.4539558887482,-71.6153454780579,50,2012-02-13 08:57:41
1.00100016593933,44.4539558887482,-71.6153454780579,50,2012-02-13 08:57:42
1.0019998550415,44.4539558887482,-71.6153454780579,50,2012-02-13 08:57:43
0.999000072479248,44.4539558887482,-71.6153454780579,50,2012-02-13 08:57:44
1.00200009346008,44.4539558887482,-71.6153454780579,50,2012-02-13 08:57:45
1.0019998550415,44.4539558887482,-71.6153454780579,50,2012-02-13 08:57:46
0.999000072479248,44.4539558887482,-71.6153454780579,50,2012-02-13 08:57:47
1.02099990844727,44.4539558887482,-71.6153454780579,50,2012-02-13 08:57:48
0.980999946594238,44.4539558887482,-71.6153454780579,50,2012-02-13 08:57:49
1,44.4539558887482,-71.6153454780579,50,2012-02-13 08:57:50
1.00100016593933,44.4539558887482,-71.6153454780579,50,2012-02-13 08:57:51
1.00099992752075,44.4539558887482,-71.6153454780579,50,2012-02-13 08:57:52
1,44.4539558887482,-71.6153454780579,50,2012-02-13 08:57:53
1.00099992752075,44.4539558887482,-71.6153454780579,50,2012-02-13 08:57:54
1.00100016593933,44.4539558887482,-71.6153454780579,50,2012-02-13 08:57:55
1,44.4539558887482,-71.6153454780579,50,2012-02-13 08:57:56
1,44.4539558887482,-71.6153454780579,50,2012-02-13 08:57:57
1,44.4539558887482,-71.6153454780579,50,2012-02-13 08:57:58
1,44.4539558887482,-71.6153454780579,50,2012-02-13 08:57:59
1,44.4539558887482,-71.6153454780579,50,2012-02-13 08:58:00
1.00099992752075,44.4539558887482,-71.6153454780579,50,2012-02-13 08:58:01
1.00600004196167,44.4539558887482,-71.6153454780579,50,2012-02-13 08:58:02
1.0090000629425,44.4539558887482,-71.6153454780579,50,2012-02-13 08:58:03
0.990999937057495,44.4539558887482,-71.6153454780579,50,2012-02-13 08:58:04
1,44.4539558887482,-71.6153454780579,50,2012-02-13 08:58:05
4,44.4539558887482,-71.6153454780579,50,2012-02-13 08:58:09
1,44.4539558887482,-71.6153454780579,50,2012-02-13 08:58:10
1.0019998550415,44.4539558887482,-71.6153454780579,50,2012-02-13 08:58:11
1.00200009346008,44.4539558887482,-71.6153454780579,50,2012-02-13 08:58:12
0.999000072479248,44.4539558887482,-71.6153454780579,50,2012-02-13 08:58:13
1,44.4539558887482,-71.6153454780579,50,2012-02-13 08:58:14
1,44.4539558887482,-71.6153454780579,50,2012-02-13 08:58:15
1.00099992752075,44.4539558887482,-71.6153454780579,50,2012-02-13 08:58:16
1,44.4539558887482,-71.6153454780579,50,2012-02-13 08:58:17
1.00099992752075,44.4539558887482,-71.6153454780579,50,2012-02-13 08:58:18
1,44.4539558887482,-71.6153454780579,50,2012-02-13 08:58:19
1.00100016593933,44.4539558887482,-71.6153454780579,50,2012-02-13 08:58:20
1.00099992752075,44.4539558887482,-71.6153454780579,50,2012-02-13 08:58:21
1.00300002098083,44.4539558887482,-71.6153454780579,50,2012-02-13 08:58:22
1.01900005340576,44.4539558887482,-71.6153454780579,50,2012-02-13 08:58:23
0.98199987411499,44.4539558887482,-71.6153454780579,50,2012-02-13 08:58:24
1.00099992752075,44.4539558887482,-71.6153454780579,50,2012-02-13 08:58:25
0.999000072479248,44.4539558887482,-71.6153454780579,50,2012-02-13 08:58:26
1.00099992752075,44.4539558887482,-71.6153454780579,50,2012-02-13 08:58:27
1,44.4539558887482,-71.6153454780579,50,2012-02-13 08:58:28
1.00300002098083,44.4539558887482,-71.6153454780579,50,2012-02-13 08:58:29
1.01300001144409,44.4539558887482,-71.6153454780579,50,2012-02-13 08:58:30
0.985000133514404,44.4539558887482,-71.6153454780579,50,2012-02-13 08:58:31
1,44.4539558887482,-71.6153454780579,50,2012-02-13 08:58:32
1,44.4539558887482,-71.6153454780579,50,2012-02-13 08:58:33
1.00300002098083,44.4539558887482,-71.6153454780579,50,2012-02-13 08:58:34
1.00899982452393,44.4539558887482,-71.6153454780579,50,2012-02-13 08:58:35
3.98900008201599,44.4539558887482,-71.6153454780579,50,2012-02-13 08:58:39
1,44.4539558887482,-71.6153454780579,50,2012-02-13 08:58:40
1.00200009346008,44.4539558887482,-71.6153454780579,50,2012-02-13 08:58:41
1,44.4539558887482,-71.6153454780579,50,2012-02-13 08:58:42
1.00499987602234,44.4539558887482,-71.6153454780579,50,2012-02-13 08:58:43
1.00399994850159,44.4539558887482,-71.6153454780579,50,2012-02-13 08:58:44
0.998000144958496,44.4539558887482,-71.6153454780579,50,2012-02-13 08:58:45
1,44.4539558887482,-71.6153454780579,50,2012-02-13 08:58:46
1.01099991798401,44.4539558887482,-71.6153454780579,50,2012-02-13 08:58:47
1.00300002098083,44.4539558887482,-71.6153454780579,50,2012-02-13 08:58:48
0.98799991607666,44.4539558887482,-71.6153454780579,50,2012-02-13 08:58:49
1.01400017738342,44.4539558887482,-71.6153454780579,50,2012-02-13 08:58:50
0.997999906539917,44.4539558887482,-71.6153454780579,50,2012-02-13 08:58:51
1,44.4539558887482,-71.6153454780579,50,2012-02-13 08:58:52
1.00500011444092,44.4539558887482,-71.6153454780579,50,2012-02-13 08:58:53
1.09799981117249,44.4539558887482,-71.6153454780579,50,2012-02-13 08:58:54
0.993000030517578,44.4539558887482,-71.6153454780579,50,2012-02-13 08:58:55
0.998000144958496,44.4539558887482,-71.6153454780579,50,2012-02-13 08:58:56
1,44.4539558887482,-71.6153454780579,50,2012-02-13 08:58:57
1,44.4539558887482,-71.6153454780579,50,2012-02-13 08:58:58
1.00099992752075,44.4539558887482,-71.6153454780579,50,2012-02-13 08:58:59
1.00799989700317,44.4539558887482,-71.6153454780579,50,2012-02-13 08:59:00
0.993000030517578,44.4539558887482,-71.6153454780579,50,2012-02-13 08:59:01
1.00200009346008,44.4539558887482,-71.6153454780579,50,2012-02-13 08:59:02
1,44.4539558887482,-71.6153454780579,50,2012-02-13 08:59:03
1.00300002098083,44.4539558887482,-71.6153454780579,50,2012-02-13 08:59:04
1.00300002098083,44.4539558887482,-71.6153454780579,50,2012-02-13 08:59:05
3.98899984359741,44.4539558887482,-71.6153454780579,50,2012-02-13 08:59:09
1.01800012588501,44.4539558887482,-71.6153454780579,50,2012-02-13 08:59:10
0.98199987411499,44.4539558887482,-71.6153454780579,50,2012-02-13 08:59:11
1,44.4539558887482,-71.6153454780579,50,2012-02-13 08:59:12
1.00200009346008,44.4539558887482,-71.6153454780579,50,2012-02-13 08:59:13
0.999000072479248,44.4539558887482,-71.6153454780579,50,2012-02-13 08:59:14
1.00300002098083,44.4539558887482,-71.6153454780579,50,2012-02-13 08:59:15
1,44.4539558887482,-71.6153454780579,50,2012-02-13 08:59:16
1.00099992752075,44.4539558887482,-71.6153454780579,50,2012-02-13 08:59:17
1,44.4539558887482,-71.6153454780579,50,2012-02-13 08:59:18
1.0019998550415,44.4539558887482,-71.6153454780579,50,2012-02-13 08:59:19
1.00100016593933,44.4539558887482,-71.6153454780579,50,2012-02-13 08:59:20
1.00099992752075,44.4539558887482,-71.6153454780579,50,2012-02-13 08:59:21
1.00099992752075,44.4539558887482,-71.6153454780579,50,2012-02-13 08:59:22
1.02100014686584,44.4539558887482,-71.6153454780579,50,2012-02-13 08:59:23
0.978999853134155,44.4539558887482,-71.6153454780579,50,2012-02-13 08:59:24
1.00100016593933,44.4539558887482,-71.6153454780579,50,2012-02-13 08:59:25
1.00099992752075,44.4539558887482,-71.6153454780579,50,2012-02-13 08:59:26
1.00099992752075,44.4539558887482,-71.6153454780579,50,2012-02-13 08:59:27
1,44.4539558887482,-71.6153454780579,50,2012-02-13 08:59:28
1.00100016593933,44.4539558887482,-71.6153454780579,50,2012-02-13 08:59:29
1,44.4539558887482,-71.6153454780579,50,2012-02-13 08:59:30
1.00099992752075,44.4539558887482,-71.6153454780579,50,2012-02-13 08:59:31
1,44.4539558887482,-71.6153454780579,50,2012-02-13 08:59:32
1.01099991798401,44.4539558887482,-71.6153454780579,50,2012-02-13 08:59:33
1.00200009346008,44.4539558887482,-71.6153454780579,50,2012-02-13 08:59:34
1,44.4539558887482,-71.6153454780579,50,2012-02-13 08:59:35
4.00600004196167,44.4539558887482,-71.6153454780579,50,2012-02-13 08:59:39
1.0019998550415,44.4539558887482,-71.6153454780579,50,2012-02-13 08:59:40
0.999000072479248,44.4539558887482,-71.6153454780579,50,2012-02-13 08:59:41
1.00200009346008,44.4539558887482,-71.6153454780579,50,2012-02-13 08:59:42
1,44.4539558887482,-71.6153454780579,50,2012-02-13 08:59:43
1.02199983596802,44.4539558887482,-71.6153454780579,50,2012-02-13 08:59:44
0.979000091552734,44.4539558887482,-71.6153454780579,50,2012-02-13 08:59:45
1,44.4539558887482,-71.6153454780579,50,2012-02-13 08:59:46
1.0019998550415,44.4539558887482,-71.6153454780579,50,2012-02-13 08:59:47
1,44.2661100625992,-71.6769450902939,50,2012-02-13 08:59:48
1,44.2661100625992,-71.6769450902939,50,2012-02-13 08:59:49
1,44.2661100625992,-71.6769450902939,50,2012-02-13 08:59:50
1.00100016593933,44.2661100625992,-71.6769450902939,50,2012-02-13 08:59:51
1.00099992752075,44.2661100625992,-71.6769450902939,50,2012-02-13 08:59:52
1,44.2661100625992,-71.6769450902939,50,2012-02-13 08:59:53
1.00099992752075,44.2661100625992,-71.6769450902939,50,2012-02-13 08:59:54
1.00300002098083,44.2661100625992,-71.6769450902939,50,2012-02-13 08:59:55
1,44.2661100625992,-71.6769450902939,50,2012-02-13 08:59:56
1.00100016593933,44.2661100625992,-71.6769450902939,50,2012-02-13 08:59:57
1.01199984550476,44.2661100625992,-71.6769450902939,50,2012-02-13 08:59:58
