"diffSecs","level","azimuth.mean","azimuth.absolute.deviation","azimuth.standard.deviation","azimuth.max.deviation","pitch.mean","pitch.absolute.deviation","pitch.standard.deviation","pitch.max.deviation","roll.mean","roll.absolute.deviation","roll.standard.deviation","roll.max.deviation","time"
1.00799989700317,12,25.3083343505859,0.14305517077446,0.180084779858589,0.308333724737167,41.625,0.0666660740971565,0.0829153135418892,0.174997970461845,12.3083333969116,0.175000116229057,0.189113467931747,0.291666746139526,2012-02-17 18:37:58
1.00999999046326,33,25.1424236297607,0.142332568764687,0.174130454659462,0.357575446367264,41.5454559326172,0.0958684459328651,0.115708686411381,0.254543542861938,12.0303030014038,0.210651963949203,0.232880368828773,0.369697272777557,2012-02-17 18:37:59
1.00500011444092,39,24.3205127716064,0.240630939602852,0.317990094423294,0.879487633705139,41.2794876098633,0.0908608883619308,0.111353993415833,0.279487699270248,11.9897441864014,0.119263455271721,0.153246596455574,0.31025642156601,2012-02-17 18:38:00
1.02499985694885,43,25.2000007629395,0.15813983976841,0.213498204946518,0.60000067949295,41.3255805969238,0.083288885653019,0.105858780443668,0.274420529603958,12.2767448425293,0.108274884521961,0.136121138930321,0.323255985975266,2012-02-17 18:38:01
1.01800012588501,32,25.4656257629395,0.222265735268593,0.287890493869781,0.665624260902405,41.3531265258789,0.127734750509262,0.154078811407089,0.353125810623169,11.5718755722046,0.316601574420929,0.357276499271393,0.728124976158142,2012-02-17 18:38:02
1.01799988746643,43,24.5813961029053,0.609734952449799,0.768040597438812,1.81860387325287,41.860466003418,0.559545755386353,0.625853657722473,1.13953423500061,6.72790718078613,5.24943208694458,6.07772636413574,13.4279069900513,2012-02-17 18:38:03
1.0220000743866,41,16.7390251159668,2.59881019592285,3.25275707244873,6.56097650527954,45.2487831115723,1.46484196186066,1.65088582038879,2.84878015518188,-9.64878082275391,1.00130879878998,1.1072096824646,1.94878041744232,2012-02-17 18:38:04
1.0019998550415,43,-4.65813970565796,12.6633853912354,13.4977045059204,18.1581401824951,47.3860473632812,1.07744717597961,1.26740539073944,2.48604559898376,-6.39302349090576,3.016765832901,3.70821809768677,7.49302339553833,2012-02-17 18:38:05
1.00500011444092,39,-17.2871799468994,4.98172235488892,5.66107606887817,9.51282119750977,46.6717948913574,1.76594364643097,2.09797835350037,3.97179532051086,-3.55128216743469,2.97580552101135,3.33150243759155,5.24871826171875,2012-02-17 18:38:06
1.00799989700317,40,-12.3225002288818,5.43975019454956,6.53978157043457,14.0774993896484,48.6975021362305,1.89825010299683,2.37513041496277,5.89750146865845,-4.02500009536743,4.59000015258789,5.49389457702637,10.9750003814697,2012-02-17 18:38:07
1.01600003242493,37,-14.464864730835,2.87552976608276,3.69047117233276,8.86486530303955,45.3648643493652,1.34799146652222,1.69246637821198,3.73513650894165,-18.5405406951904,1.24806427955627,1.57865142822266,4.34054088592529,2012-02-17 18:38:08
1.04400014877319,32,-19.1312503814697,7.64179706573486,8.05928993225098,13.03125,45.1687507629395,2.41249990463257,2.64851808547974,4.73125076293945,-11.3718748092651,3.64687514305115,4.19480609893799,7.62812471389771,2012-02-17 18:38:09
