"diffSecs","N.samples","x.mean","x.absolute.deviation","x.standard.deviation","x.max.deviation","x.PSD.1","x.PSD.3","x.PSD.6","x.PSD.10","y.mean","y.absolute.deviation","y.standard.deviation","y.max.deviation","y.PSD.1","y.PSD.3","y.PSD.6","y.PSD.10","z.mean","z.absolute.deviation","z.standard.deviation","z.max.deviation","z.PSD.1","z.PSD.3","z.PSD.6","z.PSD.10","time"
0,34,0.0155752599239349,0.832818686962128,1.15404212474823,3.06544327735901,10.5990180969238,13.2034502029419,6.43912839889526,0.961386442184448,6.85830926895142,0.998920917510986,1.1666419506073,2.82085371017456,8.85016250610352,31.7842502593994,28.3252029418945,1.64319729804993,6.19203424453735,0.4150011241436,0.474049121141434,0.878560304641724,1.69558656215668,9.53969669342041,13.8751249313354,1.1476548910141,2012-01-02 16:00:02
1.00471329689026,10,-0.168674379587173,0.633117318153381,1.1010890007019,3.16558647155762,0.0198417212814093,0.0474301539361477,0.146915718913078,0.177178889513016,8.20130157470703,1.11344707012177,1.90580356121063,5.56723546981812,0.0634016543626785,0.147985756397247,0.469441950321198,0.629891633987427,5.40346384048462,0.10002788901329,0.162920370697975,0.402072817087173,7.45996067053056e-06,1.20712029456627e-05,0.000102470185083803,0.000389126333175227,2012-01-02 16:00:03
1.01875329017639,39,-0.226810202002525,0.712526261806488,0.885555565357208,2.40137195587158,54.4459953308105,70.7014541625977,37.4016418457031,7.65450000762939,6.95542907714844,0.663409173488617,0.931123971939087,3.9593722820282,46.1299095153809,56.6655578613281,7.04781532287598,0.347357779741287,6.44950675964355,0.899026691913605,1.20773553848267,3.3800253868103,71.0815582275391,94.1770095825195,25.4757022857666,2.05949306488037,2012-01-02 16:00:04
1.00339162349701,49,0.860983848571777,0.378697603940964,0.424342066049576,0.65904688835144,40.4153099060059,50.1385459899902,8.4705638885498,4.62281703948975,7.27553367614746,0.351977467536926,0.387555807828903,0.763918161392212,23.2966804504395,23.449520111084,12.3915977478027,5.42721033096313,6.13035678863525,0.304933279752731,0.39768049120903,0.942638993263245,7.59602975845337,33.1452178955078,30.453821182251,7.23402166366577,2012-01-02 16:00:05
1.01153004169464,30,0.0768187567591667,0.393573552370071,0.44617623090744,1.0476770401001,4.63657093048096,8.57839679718018,6.83962392807007,1.18610465526581,8.29152202606201,0.517137348651886,0.673809170722961,1.70145380496979,7.43869638442993,13.2573642730713,12.1111307144165,7.61294269561768,4.85559940338135,0.973299086093903,1.11581039428711,2.49219655990601,15.0965232849121,28.7148017883301,32.2881011962891,10.8516340255737,2012-01-02 16:00:06
1.5568083524704,38,-0.165938839316368,0.331578850746155,0.468019902706146,1.28544533252716,0.0118497218936682,1.00779581069946,2.6340343952179,2.2622332572937,7.11059522628784,0.286240071058273,0.411377459764481,1.79539120197296,2.12439179420471,1.3933664560318,2.7087721824646,2.92388916015625,6.1389627456665,0.651367962360382,0.885538458824158,2.58895587921143,31.9809799194336,32.2125091552734,7.61806964874268,11.8225574493408,2012-01-02 16:00:07
1.00465834140778,47,0.647447526454926,0.39454784989357,0.443108439445496,0.804353952407837,25.1741714477539,38.8159065246582,6.12137603759766,4.09403657913208,6.36096858978271,0.689519822597504,0.830806314945221,1.6537766456604,122.712661743164,162.324325561523,45.0084075927734,11.0794458389282,6.96856355667114,0.833152413368225,0.968083262443542,1.84949266910553,183.564147949219,254.938812255859,55.0438423156738,13.9206914901733,2012-01-02 16:00:08
1.01627838611603,44,0.606675028800964,0.26573184132576,0.297293066978455,0.560316324234009,9.63909435272217,14.9007501602173,3.23387360572815,0.256734997034073,7.31108045578003,0.145539581775665,0.170773580670357,0.407198756933212,0.167985364794731,0.821082770824432,3.1674017906189,0.967242240905762,6.04156494140625,0.267676949501038,0.327475845813751,0.785200536251068,1.26732420921326,3.17575287818909,4.28475713729858,1.76808166503906,2012-01-02 16:00:09
1.00971496105194,49,0.398870468139648,0.159781813621521,0.198691934347153,0.562181234359741,0.532756805419922,1.55186438560486,4.2508602142334,3.9311854839325,8.23318290710449,0.167681023478508,0.216890037059784,0.58399623632431,3.48892140388489,3.27494382858276,1.16064202785492,0.650736212730408,4.92894220352173,0.244802728295326,0.314242869615555,0.866787850856781,10.5272407531738,7.48961067199707,3.12104916572571,0.264225661754608,2012-01-02 16:00:10
1.00795161724091,36,0.809048593044281,0.106238707900047,0.130458757281303,0.250069558620453,0.456458359956741,0.592780351638794,0.161906093358994,0.320144832134247,8.34845542907715,0.116953320801258,0.158006086945534,0.47371569275856,0.414708018302917,0.505435824394226,0.0895583182573318,0.153000816702843,4.67858934402466,0.21020732820034,0.238004922866821,0.411061942577362,1.72109866142273,2.60928106307983,0.989199459552765,0.106611974537373,2012-01-02 16:00:11
1.01155495643616,41,0.800557494163513,0.0533444434404373,0.0707086697220802,0.172931894659996,0.0495328679680824,0.164536833763123,0.346216052770615,0.108757972717285,8.41314888000488,0.0561795793473721,0.0662929862737656,0.136336117982864,0.256791830062866,0.470707803964615,0.109048761427402,0.136049389839172,4.64069795608521,0.0600883699953556,0.0763166770339012,0.168865770101547,0.00373814674094319,0.246970355510712,0.150663241744041,0.183590486645699,2012-01-02 16:00:12
1.18289995193481,45,0.914197683334351,0.0875092148780823,0.124370403587818,0.537186503410339,0.102121591567993,0.13471382856369,0.540627181529999,1.43853533267975,8.39144134521484,0.0822013989090919,0.102265723049641,0.258024334907532,0.348983645439148,0.335069596767426,0.969315528869629,1.49991035461426,4.44742441177368,0.127142563462257,0.166175305843353,0.367858111858368,0.451690256595612,1.9447922706604,5.6421422958374,3.38539862632751,2012-01-02 16:00:13
1.01007664203644,43,1.28832006454468,0.311097264289856,0.39722928404808,1.03585600852966,6.69180917739868,4.74140214920044,4.90669298171997,0.405926376581192,7.90849304199219,0.25479257106781,0.337441951036453,0.739831745624542,0.421511143445969,0.446942389011383,4.425865650177,0.718997716903687,5.38795566558838,0.29831525683403,0.409659147262573,1.10245013237,4.8318190574646,3.13332033157349,1.67687010765076,0.623658657073975,2012-01-02 16:00:14
1.08639001846313,33,1.43385100364685,0.106837540864944,0.142024829983711,0.423766195774078,0.260997653007507,0.300348967313766,0.221292123198509,0.0782308503985405,7.65602159500122,0.277233690023422,0.324069231748581,0.556007504463196,0.808022916316986,1.48401761054993,1.53147983551025,0.275357216596603,5.49291229248047,0.175655171275139,0.213829874992371,0.489143639802933,0.968429744243622,1.65363204479218,1.12285351753235,0.355361968278885,2012-01-02 16:00:15
1.00173163414001,48,1.59317195415497,0.0510763004422188,0.0600851811468601,0.141787767410278,0.636907517910004,0.867107927799225,0.221622556447983,0.0765028893947601,7.7805552482605,0.0336336866021156,0.0442540533840656,0.123604439198971,0.120334900915623,0.124631732702255,0.147299826145172,0.177294880151749,5.37097930908203,0.0528639368712902,0.0711166858673096,0.242101773619652,0.182930842041969,0.269705355167389,0.20168125629425,0.142793968319893,2012-01-02 16:00:16
1.00845837593079,29,1.3783415555954,0.332796394824982,0.384776830673218,0.711489319801331,3.54417443275452,6.5009388923645,5.73589706420898,1.7804012298584,7.82131052017212,0.0820212811231613,0.0987600982189178,0.180915459990501,0.00310156680643559,0.0186255741864443,0.105406418442726,0.102154798805714,5.48293161392212,0.138622403144836,0.160155951976776,0.352025002241135,0.550901174545288,0.971120178699493,0.824471473693848,0.37095832824707,2012-01-02 16:00:17
1.01569497585297,41,0.656088769435883,0.0397283025085926,0.0486637391149998,0.118636533617973,0.000112292247649748,0.0895511582493782,0.18710096180439,0.0491365529596806,7.63937997817993,0.0229619350284338,0.027225311845541,0.0588398575782776,0.000448843318736181,0.0316406190395355,0.0554569326341152,0.0767816305160522,5.7519588470459,0.0508709661662579,0.0609199143946171,0.132748633623123,0.0119423680007458,0.107215546071529,0.164098367094994,0.0314799696207047,2012-01-02 16:00:18
1.01760160923004,44,0.647684633731842,0.0263806972652674,0.0342885218560696,0.0878140851855278,0.0578332133591175,0.114818431437016,0.0352889634668827,0.047243993729353,7.67660093307495,0.0459637604653835,0.0555764324963093,0.125480592250824,0.0977413281798363,0.0567821078002453,0.0788199901580811,0.104246824979782,5.70189809799194,0.0508467257022858,0.0653650164604187,0.182091668248177,0.152466788887978,0.196139425039291,0.126383483409882,0.14070063829422,2012-01-02 16:00:19
1.02622663974762,31,0.634268820285797,0.0465127043426037,0.0559972748160362,0.101229928433895,0.00212838966399431,0.00708024017512798,0.00950966030359268,0.0492209121584892,7.71119022369385,0.0330018512904644,0.039336234331131,0.0949030369520187,0.000563434790819883,0.0104014985263348,0.0439997315406799,0.016571830958128,5.62174081802368,0.0448390990495682,0.0558074899017811,0.124955929815769,3.64918123523239e-05,0.00205219839699566,0.0277691930532455,0.0247951354831457,2012-01-02 16:00:20
1.01187002658844,44,0.702289819717407,0.0401687622070312,0.0503621324896812,0.123697489500046,0.00244571035727859,0.122408151626587,0.407087922096252,0.167196556925774,7.77489042282104,0.0410095676779747,0.0519033335149288,0.115897037088871,0.00401367945596576,0.00695814797654748,0.346225559711456,0.246892184019089,5.63993787765503,0.0819989815354347,0.0984272435307503,0.244051799178123,0.188199564814568,0.521793484687805,0.841396510601044,0.471380412578583,2012-01-02 16:00:22
1.02015995979309,49,0.793538093566895,0.430414319038391,0.545971035957336,1.19721186161041,21.4183521270752,85.560302734375,78.3970565795898,4.09251260757446,7.67520475387573,0.164291009306908,0.211645945906639,0.55557656288147,3.79278087615967,10.6416387557983,9.5731258392334,1.32990145683289,5.6290168762207,0.376255124807358,0.460765600204468,0.892405152320862,18.4746971130371,67.5201721191406,41.3915176391602,1.34883999824524,2012-01-02 16:00:23
1.02136838436127,24,0.988428592681885,0.114479012787342,0.13670751452446,0.276629239320755,0.00600671768188477,0.0273019354790449,0.141053006052971,0.0710633844137192,7.77463006973267,0.140289559960365,0.163949564099312,0.374696165323257,0.101746372878551,0.168860003352165,0.106824055314064,0.0186363197863102,5.61757612228394,0.131300121545792,0.150030687451363,0.27622053027153,0.00201587751507759,0.0209878198802471,0.183535560965538,0.179246142506599,2012-01-02 16:00:24
1.13287830352783,39,0.864493906497955,0.0307158958166838,0.0375919453799725,0.0867511183023453,0.00328667578287423,0.0299996621906757,0.0568554252386093,0.0333279296755791,7.65622758865356,0.0507548041641712,0.0601230151951313,0.100832611322403,0.113787069916725,0.161869749426842,0.0629897713661194,0.121433489024639,5.72658061981201,0.0472861342132092,0.0569206513464451,0.118182733654976,0.0369330458343029,0.108405999839306,0.156312540173531,0.0615089647471905,2012-01-02 16:00:25
1.01494169235229,42,0.652142226696014,0.0868588984012604,0.101288296282291,0.220649614930153,0.128021612763405,0.457201600074768,0.199115693569183,0.0733773857355118,7.64148139953613,0.0571721419692039,0.0709281042218208,0.159007728099823,0.0416238866746426,0.284594655036926,0.490441143512726,0.216509193181992,5.76140689849854,0.116045378148556,0.139645382761955,0.328522950410843,0.432673633098602,0.676126599311829,0.879202961921692,0.328666478395462,2012-01-02 16:00:26
1.010573387146,49,0.842571318149567,0.106251642107964,0.120576739311218,0.303205639123917,0.030444310978055,1.93903291225433,2.06154012680054,1.15085363388062,7.64238214492798,0.0583008378744125,0.0731506794691086,0.208941504359245,0.106662429869175,0.560131132602692,0.217364653944969,0.201949954032898,5.7216796875,0.113489285111427,0.146840184926987,0.308409333229065,1.26523113250732,3.10622692108154,2.11562514305115,2.66203856468201,2012-01-02 16:00:27
1.00413835048676,36,0.833837628364563,0.0384699143469334,0.0481251403689384,0.108145542442799,0.0662585720419884,0.134398952126503,0.0931322872638702,0.0287721008062363,7.70039939880371,0.0461882278323174,0.0541152395308018,0.119859136641026,0.000306611647829413,0.00862610153853893,0.0215427614748478,0.073740266263485,5.61103820800781,0.0534824840724468,0.0644101947546005,0.165078788995743,0.00144685455597937,0.00207846844568849,0.0209918227046728,0.132379114627838,2012-01-02 16:00:28
1.02837002277374,43,1.06025850772858,0.113320112228394,0.143165677785873,0.371512442827225,2.14818596839905,2.88131046295166,1.34306716918945,0.312997579574585,7.49524545669556,0.1524618268013,0.179454207420349,0.365810662508011,2.85641145706177,3.93076586723328,3.4212908744812,0.556173264980316,5.98935413360596,0.20894692838192,0.253566414117813,0.453614562749863,8.48870658874512,14.0589208602905,6.70914220809937,0.764236867427826,2012-01-02 16:00:29
1.01881670951843,43,1.48764598369598,0.0630616769194603,0.0745813697576523,0.140257850289345,0.0588171407580376,0.0522208474576473,0.181300714612007,0.518788933753967,7.09271621704102,0.0582035072147846,0.0755218490958214,0.188834890723228,0.0691529661417007,0.10615236312151,0.311203598976135,0.940706491470337,6.26051950454712,0.116820611059666,0.127497658133507,0.249043136835098,1.06174039840698,2.16707444190979,0.519924104213715,0.302541226148605,2012-01-02 16:00:30
1.01466000080109,42,1.70402216911316,0.0967767313122749,0.10628667473793,0.178854614496231,0.88078510761261,1.53261637687683,0.778696000576019,0.231154963374138,7.04981374740601,0.0400382243096828,0.0467968508601189,0.106705538928509,0.131880939006805,0.204545944929123,0.056644793599844,0.0986605659127235,6.25547504425049,0.0779195353388786,0.100173369050026,0.243998557329178,0.679445922374725,0.762288510799408,0.53745049238205,0.838705837726593,2012-01-02 16:00:31
1.01871335506439,28,1.65732383728027,0.0630427598953247,0.0789768025279045,0.196132972836494,0.0158431828022003,0.0295494608581066,0.0402255170047283,0.0456582792103291,7.09581136703491,0.0517351366579533,0.0669971108436584,0.152703449130058,5.67439246879076e-06,3.25964902003761e-05,0.00566410413011909,0.0311096161603928,6.21531438827515,0.0938636884093285,0.108582697808743,0.223451778292656,0.0231035705655813,0.0322627201676369,0.00847443658858538,0.0485017672181129,2012-01-02 16:00:32
1.01817834377289,45,1.55620634555817,0.112546436488628,0.131404593586922,0.297250509262085,0.0565056949853897,1.48382043838501,1.41335511207581,0.275486946105957,7.01066493988037,0.0935142189264297,0.108401238918304,0.20485021173954,0.166044846177101,0.86437463760376,0.518329739570618,0.258676499128342,6.46541500091553,0.242304101586342,0.279060930013657,0.669685065746307,7.53542900085449,11.7327184677124,6.11224794387817,2.05939722061157,2012-01-02 16:00:33
1.01225161552429,25,1.14933931827545,0.151257768273354,0.175229221582413,0.302044838666916,0.0773508697748184,0.10967693477869,0.047169666737318,0.143218711018562,6.96978187561035,0.0940810516476631,0.116150498390198,0.218492284417152,0.0804920792579651,0.145199656486511,0.153072342276573,0.100505918264389,6.44296884536743,0.175735160708427,0.226633369922638,0.696272015571594,5.05183343193494e-05,0.0263934023678303,0.202867686748505,0.0802526399493217,2012-01-02 16:00:34
1.00542497634888,32,1.35362410545349,0.246717691421509,0.304544270038605,0.656738996505737,0.650727391242981,0.675193428993225,0.670277714729309,1.09168350696564,7.08346557617188,0.265239238739014,0.308845609426498,0.601270318031311,0.0998711809515953,0.717066705226898,4.0881175994873,2.17364859580994,6.34612846374512,0.166713029146194,0.218593582510948,0.567559957504272,0.783347904682159,1.100261926651,0.295952469110489,0.570550978183746,2012-01-02 16:00:35
1.21555829048157,46,1.22476530075073,0.0628441423177719,0.0879092514514923,0.256038784980774,0.0121030854061246,0.0646837130188942,0.434560537338257,0.122977219521999,7.00919628143311,0.123871490359306,0.147418260574341,0.306564301252365,0.0422563180327415,0.470440208911896,1.79128432273865,0.359595715999603,6.38668727874756,0.146691903471947,0.187349498271942,0.517194271087646,0.00979362800717354,0.354311883449554,0.902519643306732,2.2334258556366,2012-01-02 16:00:36
1.02968835830688,42,1.25805306434631,0.250636607408524,0.331064164638519,0.919023275375366,2.87244987487793,5.70823383331299,8.95734882354736,3.36235666275024,7.01619100570679,0.199168369174004,0.249271243810654,0.484962373971939,0.317554801702499,3.07686424255371,11.4083433151245,2.03574848175049,6.5036768913269,0.4661605656147,0.582604169845581,1.19827926158905,5.8142523765564,22.3819904327393,45.3107032775879,10.1635036468506,2012-01-02 16:00:37
1.01668167114258,49,1.02409446239471,0.141067087650299,0.164311781525612,0.347435623407364,2.26889991760254,4.62398767471313,3.05406165122986,2.39509248733521,8.21256923675537,0.213434472680092,0.26411572098732,0.818354725837708,9.73320865631104,13.1347045898438,3.85530972480774,1.41920042037964,4.80345726013184,0.236617624759674,0.280768543481827,0.508144736289978,12.2593870162964,20.9004859924316,6.42833995819092,0.470232456922531,2012-01-02 16:00:38
1.01399338245392,35,1.09470236301422,0.0611134395003319,0.0877786502242088,0.212103843688965,0.0388610884547234,0.0583568215370178,0.0643131658434868,0.0632628947496414,8.30483150482178,0.0721288695931435,0.0970849022269249,0.263379037380219,0.110513150691986,0.149988651275635,0.0302027240395546,0.01184341032058,4.73941373825073,0.109914481639862,0.149711653590202,0.389463901519775,1.01828992366791,1.46340346336365,0.460543692111969,0.253226399421692,2012-01-02 16:00:39
1.01613163948059,35,1.29980134963989,0.442716211080551,0.514672756195068,1.09302115440369,6.72922515869141,14.0779685974121,17.5919132232666,4.79560327529907,7.59595060348511,0.940077364444733,1.03358089923859,1.85906028747559,49.4779205322266,88.6628952026367,57.4165382385254,4.88482141494751,5.57522058486938,1.23326826095581,1.44152581691742,2.88791799545288,83.2434310913086,153.518005371094,115.309707641602,20.4010334014893,2012-01-02 16:00:40
1.02611339092255,44,1.16431677341461,0.310246735811234,0.346801668405533,0.624951064586639,15.8230237960815,28.6070728302002,6.0510425567627,4.77454996109009,7.47311305999756,0.361529022455215,0.389402449131012,0.6566002368927,25.0348892211914,38.4343910217285,8.01610469818115,2.71232628822327,5.77990579605103,0.47879347205162,0.519096910953522,0.994260609149933,33.9371719360352,59.4207496643066,10.1651239395142,10.6614570617676,2012-01-02 16:00:41
1.0144716501236,48,0.734681487083435,0.142605036497116,0.183616623282433,0.510763049125671,0.156378790736198,0.945977509021759,3.48117661476135,0.455725789070129,7.88638496398926,0.138978540897369,0.169130951166153,0.38429793715477,0.600038170814514,0.537680506706238,4.56220436096191,0.564710080623627,5.31132221221924,0.159153714776039,0.198395252227783,0.427610546350479,0.122196182608604,1.17921054363251,5.64927434921265,1.71913707256317,2012-01-02 16:00:42
1.01836502552032,36,0.699268579483032,0.114849790930748,0.132072985172272,0.261783093214035,0.838079273700714,1.20071697235107,0.305415451526642,0.330720394849777,7.43044424057007,0.234496966004372,0.276841968297958,0.536369144916534,3.73995018005371,7.42127275466919,3.47294044494629,1.08060765266418,6.06786441802979,0.386136829853058,0.461105912923813,0.86053329706192,8.93148517608643,19.8116474151611,14.9587936401367,5.88387823104858,2012-01-02 16:00:43
1.01784670352936,42,0.462080001831055,0.0903056785464287,0.107131965458393,0.26361209154129,0.712638378143311,1.72645819187164,1.1261134147644,0.101049453020096,8.25976753234863,0.16615703701973,0.200440973043442,0.42892450094223,4.14807891845703,8.00819873809814,4.50135087966919,1.21786594390869,4.81343078613281,0.331402480602264,0.392615586519241,0.792704403400421,12.534255027771,28.806812286377,26.4459457397461,2.66421866416931,2012-01-02 16:00:44
1.0144350528717,41,0.462347656488419,0.171444267034531,0.231881245970726,0.714450359344482,0.716314375400543,2.22233867645264,6.69476127624512,3.57627272605896,8.44639587402344,0.36285188794136,0.413699090480804,0.954115152359009,11.8409738540649,28.1574401855469,17.8563423156738,1.255291223526,4.49288082122803,0.389920800924301,0.470243364572525,1.12632954120636,13.373722076416,25.3031044006348,8.65944385528564,21.5799732208252,2012-01-02 16:00:45
1.00818002223969,42,0.386195212602615,0.393155485391617,0.451891720294952,0.976929187774658,18.8916263580322,25.6177101135254,4.88706731796265,1.74576544761658,7.56022644042969,0.362712621688843,0.457168430089951,0.921124517917633,21.8544750213623,36.5518684387207,11.8580760955811,4.75346660614014,5.61150503158569,0.41881737112999,0.55271977186203,1.41986274719238,12.293288230896,27.4272232055664,22.928897857666,4.6793532371521,2012-01-02 16:00:46
1.01825332641602,41,0.0786923840641975,0.167150586843491,0.230724439024925,0.706317961215973,0.257180035114288,2.77352952957153,3.64861178398132,0.845369756221771,8.38899040222168,0.260958313941956,0.368067592382431,1.25955617427826,8.40878009796143,21.9406394958496,17.772855758667,7.22183656692505,4.55028533935547,0.376958042383194,0.597972273826599,2.08881640434265,14.6043996810913,34.2002410888672,33.9428558349609,41.6776580810547,2012-01-02 16:00:47
1.26047503948212,41,0.0490332506597042,0.243970304727554,0.291041225194931,0.598205626010895,0.000572570424992591,4.93715333938599,8.33588218688965,0.21423402428627,7.04643678665161,0.258671522140503,0.299541413784027,0.553716838359833,2.43661069869995,10.8898611068726,11.3857307434082,0.639440417289734,6.55419063568115,0.190625950694084,0.262752950191498,0.611361026763916,0.979708850383759,6.54293298721313,10.3002815246582,1.10340237617493,2012-01-02 16:00:48
1.01546335220337,42,0.576957881450653,0.142663404345512,0.17836394906044,0.429858148097992,1.70167946815491,4.62880182266235,5.9694299697876,0.876142978668213,7.39374685287476,0.233958676457405,0.275974899530411,0.461379408836365,7.39358186721802,10.9064855575562,8.21046161651611,0.371598303318024,6.06214380264282,0.239328965544701,0.315522253513336,0.629260241985321,8.60233116149902,8.97883796691895,7.16840934753418,2.74307632446289,2012-01-02 16:00:50
1.02270829677582,47,0.412922561168671,0.0611572675406933,0.0706366822123528,0.155863121151924,0.383682608604431,0.372578710317612,0.446115136146545,0.230518788099289,7.97113704681396,0.252921938896179,0.272276312112808,0.390596896409988,14.8835477828979,20.1628170013428,2.24891638755798,0.724271416664124,5.23842000961304,0.39556896686554,0.421597748994827,0.697941482067108,31.5849552154541,47.0208930969238,4.96842479705811,1.5596307516098,2012-01-02 16:00:51
1.01141333580017,25,0.427962183952332,0.126623466610909,0.15863461792469,0.290669083595276,0.0936178117990494,0.19225937128067,0.309597253799438,0.0754799470305443,8.41724395751953,0.25481578707695,0.306892693042755,0.78139328956604,1.04877257347107,1.88209617137909,1.77614164352417,0.588354527950287,4.58911991119385,0.633744955062866,1.16946423053741,3.91246104240417,6.85483169555664,14.0806312561035,20.9254932403564,13.3706464767456,2012-01-02 16:00:52
1.12874662876129,40,0.513868451118469,0.251540571451187,0.307010799646378,0.77864795923233,2.82973718643188,3.92569613456726,0.714719891548157,0.871430099010468,9.6168909072876,0.220159262418747,0.305249601602554,1.29104542732239,0.296726524829865,2.30421137809753,11.5318193435669,4.6374249458313,-0.574914813041687,1.03846287727356,1.43425345420837,5.59346771240234,76.5617599487305,244.347290039062,254.176071166992,104.794731140137,2012-01-02 16:00:53
1.00459337234497,49,0.285593658685684,0.938963234424591,1.072429895401,1.844850897789,132.911697387695,416.706970214844,129.870071411133,3.28128933906555,6.3214864730835,1.9761073589325,2.19343209266663,3.69110298156738,389.570129394531,1658.23095703125,500.061370849609,74.1728820800781,-6.42775869369507,2.21299457550049,2.84336519241333,7.55552339553833,1054.7099609375,3096.21459960938,1313.23803710938,325.363830566406,2012-01-02 16:00:54
1.00207996368408,31,0.658943593502045,0.415389686822891,0.532231986522675,1.34540903568268,2.62577128410339,3.50628876686096,1.03503286838531,0.238767713308334,8.87058925628662,0.303730577230453,0.386705160140991,0.945867478847504,1.60228967666626,2.06532788276672,0.444499462842941,0.217066094279289,3.2320818901062,0.738488674163818,0.912124812602997,1.78069770336151,17.4858226776123,24.0365180969238,5.98363971710205,2.50774121284485,2012-01-02 16:00:55
1.00762164592743,42,0.793171167373657,0.0651997625827789,0.0820818617939949,0.197300434112549,0.0273308344185352,0.227510035037994,0.905887961387634,0.408801406621933,8.51964378356934,0.291464447975159,0.345359802246094,0.821423709392548,10.5014133453369,24.8262348175049,18.3835029602051,1.86302554607391,4.54258012771606,0.463881224393845,0.506741106510162,0.811850428581238,34.7595634460449,53.1201210021973,11.7927522659302,2.03547382354736,2012-01-02 16:00:56
1.02380001544952,48,1.58929014205933,0.387132823467255,0.418516337871552,0.765531539916992,35.7687644958496,41.5868186950684,3.67243981361389,2.47078227996826,7.44120407104492,0.25636899471283,0.302744448184967,0.517709255218506,17.2666244506836,19.4772872924805,1.43254363536835,4.33231782913208,5.8472146987915,0.180401504039764,0.277817845344543,0.777177095413208,7.73667335510254,11.372615814209,7.10530138015747,2.79110169410706,2012-01-02 16:00:57
1.01216995716095,36,0.989654421806335,0.468630731105804,0.579424560070038,1.22664844989777,10.7333889007568,14.8893518447876,3.34526991844177,1.26479148864746,8.2166109085083,0.523611545562744,0.662782371044159,1.65868604183197,28.0919094085693,39.9950828552246,16.2541599273682,6.02277231216431,4.68648910522461,0.67526650428772,0.790244579315186,1.29338824748993,45.1299476623535,70.5469360351562,33.1215324401855,6.21682548522949,2012-01-02 16:00:58
1.01190996170044,43,0.475964605808258,0.240726992487907,0.288769781589508,0.632870972156525,0.0662375167012215,6.93370628356934,10.0020732879639,0.808472454547882,8.0382604598999,0.418625742197037,0.556051552295685,1.45457696914673,32.8735237121582,40.437183380127,12.1520433425903,14.1580209732056,5.22375154495239,0.740372896194458,0.982389271259308,2.48769593238831,43.1577072143555,94.1194610595703,22.2801990509033,29.1703147888184,2012-01-02 16:00:59
1.00845336914062,33,0.1976188570261,0.451628178358078,0.497220784425735,0.832079410552979,11.3407316207886,20.3117408752441,11.8122596740723,2.04265928268433,9.20933532714844,0.229038089513779,0.288491576910019,0.558087885379791,3.34683704376221,4.84907960891724,1.91496062278748,0.453546732664108,-2.18955731391907,1.48861157894135,1.86562418937683,4.5039267539978,136.384170532227,189.108444213867,56.0226097106934,15.4025354385376,2012-01-02 16:01:00
1.01488995552063,43,0.843599915504456,0.195029810070992,0.25296938419342,0.72546398639679,2.9136528968811,6.14181566238403,2.91351914405823,1.79929578304291,8.60271263122559,0.504069268703461,0.560566544532776,1.03722405433655,39.9706802368164,57.5567436218262,8.42107677459717,3.41533279418945,2.15244555473328,2.95399212837219,3.37351441383362,6.26143217086792,1581.74829101562,1823.54956054688,263.523834228516,79.9646606445312,2012-01-02 16:01:01
1.01852834224701,41,0.598923206329346,0.0641486793756485,0.0764050483703613,0.206657215952873,0.162435695528984,0.545053422451019,0.408536374568939,0.150071173906326,8.09670448303223,0.11608150601387,0.198460355401039,0.95483273267746,0.724362313747406,0.751871168613434,0.0649410486221313,0.0499899163842201,5.31089878082275,0.0946478620171547,0.140235170722008,0.455411434173584,0.334005057811737,0.87296849489212,0.558454751968384,0.209729805588722,2012-01-02 16:01:02
1.01696169376373,34,0.540807902812958,0.0956402868032455,0.107535220682621,0.21430416405201,0.000950767367612571,0.0418673232197762,0.322043985128403,0.103023923933506,8.30392456054688,0.12212498486042,0.147427409887314,0.291892349720001,0.451241046190262,0.492089092731476,0.112509496510029,0.0908031016588211,4.79256725311279,0.104276239871979,0.145874187350273,0.428608119487762,0.489212095737457,0.853636562824249,0.726787805557251,0.574190557003021,2012-01-02 16:01:03
1.01336669921875,42,0.497570723295212,0.674635231494904,1.02422678470612,2.30713105201721,12.3424167633057,44.364086151123,101.976875305176,61.6552124023438,8.61654281616211,0.22461910545826,0.305904507637024,0.866487622261047,0.356099098920822,1.12069594860077,8.06434154510498,4.98234272003174,4.61776447296143,0.512836635112762,0.751242518424988,1.76636445522308,0.36716440320015,13.9383039474487,79.2720642089844,54.8576393127441,2012-01-02 16:01:04
1.02602171897888,45,0.503408014774323,0.0369020625948906,0.0442447923123837,0.0849909707903862,0.0231629591435194,0.0338244624435902,0.0975637510418892,0.0573584586381912,8.99879932403564,0.0477014221251011,0.0900525376200676,0.506241142749786,0.0466633811593056,0.170795813202858,0.286903202533722,0.293932050466537,3.41794419288635,0.196162074804306,0.254524946212769,0.985241532325745,2.1452534198761,3.32771325111389,1.78872156143188,1.14713656902313,2012-01-02 16:01:05
1.01509165763855,34,0.846833050251007,0.680561125278473,0.840788424015045,1.57540929317474,16.7958488464355,43.5873908996582,65.2623138427734,18.7891139984131,7.22490501403809,0.278759926557541,0.333360821008682,0.708674490451813,0.290968656539917,0.902896821498871,2.19563698768616,2.37375354766846,5.97196102142334,0.698918879032135,0.821001827716827,1.7262589931488,1.36075437068939,9.12152862548828,31.7843322753906,25.8719387054443,2012-01-02 16:01:06
1.01394665241241,35,1.0134471654892,0.460360169410706,0.590482413768768,1.11459577083588,0.130297422409058,0.625244557857513,4.72427797317505,1.91893517971039,8.11794471740723,0.334322690963745,0.386285930871964,0.900250375270844,1.90843272209167,4.50250720977783,5.73630142211914,1.017165184021,5.08376741409302,0.606106996536255,0.7101229429245,1.46707451343536,8.37216663360596,11.9164361953735,10.0536794662476,2.38077092170715,2012-01-02 16:01:07
1.01584005355835,44,0.751768887042999,0.0776325985789299,0.100421741604805,0.297542661428452,0.478805750608444,1.30011677742004,0.3917575776577,0.804166734218597,8.49233531951904,0.06224375218153,0.0839049145579338,0.274362832307816,0.225792840123177,0.853717863559723,1.11646568775177,0.59982693195343,4.43572616577148,0.0754949524998665,0.106707312166691,0.300885826349258,0.00672616204246879,0.124461628496647,0.7229905128479,1.03575837612152,2012-01-02 16:01:08
1.01638495922089,36,0.797062695026398,0.136021867394447,0.17270427942276,0.428768575191498,0.346062630414963,0.464828312397003,0.225622817873955,0.331412881612778,8.62821769714355,0.173523381352425,0.227586805820465,0.478891134262085,1.39843225479126,1.70761358737946,0.677133321762085,0.18581885099411,4.23156929016113,0.221194431185722,0.297445923089981,0.809048593044281,3.4920380115509,4.1437029838562,0.447877019643784,0.868047952651978,2012-01-02 16:01:09
1.01893997192383,48,0.715476810932159,0.245489716529846,0.330516815185547,0.726100742816925,2.06998324394226,22.3205661773682,25.9655418395996,1.30768132209778,8.6206579208374,0.239062741398811,0.314140856266022,0.685852766036987,0.00168966001365334,17.592924118042,20.4325695037842,3.01647639274597,4.24096727371216,0.252163678407669,0.305642485618591,0.917330145835876,4.60230350494385,2.95500111579895,17.1038303375244,7.85963106155396,2012-01-02 16:01:10
1.00981330871582,38,1.01369786262512,0.151554852724075,0.188264295458794,0.437686294317245,0.078527107834816,1.43648552894592,1.03979563713074,0.483674764633179,8.22390842437744,0.181436538696289,0.232465833425522,0.651109933853149,0.1373300999403,1.1998085975647,0.700588524341583,0.391588926315308,4.93842220306396,0.174808293581009,0.237720176577568,0.868662476539612,0.0985744744539261,1.64537012577057,2.26531147956848,1.34840476512909,2012-01-02 16:01:11
1.01466333866119,38,0.41936331987381,0.122460879385471,0.134808525443077,0.29187685251236,0.215017527341843,1.1508229970932,1.21075463294983,0.392218172550201,9.13928127288818,0.117707096040249,0.136923089623451,0.275102466344833,0.179481044411659,0.879395306110382,1.25389409065247,0.182288959622383,2.98225378990173,0.380286127328873,0.442426383495331,0.881566226482391,3.2479145526886,7.88421106338501,9.24805927276611,4.22595882415771,2012-01-02 16:01:12
1.01785671710968,46,0.508666634559631,0.140945106744766,0.197202503681183,0.596926510334015,4.98744058609009,10.2990865707397,5.80506896972656,2.83728671073914,8.86180019378662,0.100068591535091,0.151195913553238,0.621229887008667,0.0183471776545048,0.457746624946594,4.4118185043335,2.77906727790833,3.76596665382385,0.152401641011238,0.211888864636421,0.470505923032761,2.15455651283264,2.48502850532532,3.98387145996094,4.25473880767822,2012-01-02 16:01:13
1.00990998744965,36,0.75892573595047,0.213476240634918,0.253915399312973,0.592212677001953,2.15384769439697,3.65514135360718,2.16166138648987,0.348792046308517,9.20190620422363,0.163081169128418,0.220849335193634,0.601474940776825,0.111041709780693,0.128078296780586,0.389601975679398,1.36494123935699,-1.29747426509857,1.06890964508057,1.41543173789978,4.5238618850708,4.71189975738525,49.4387817382812,64.9316253662109,19.5054321289062,2012-01-02 16:01:14
1.01758503913879,42,0.82609349489212,0.142340958118439,0.169637754559517,0.355374306440353,0.895827114582062,1.50945377349854,1.89052379131317,0.618383288383484,8.72605037689209,0.716930627822876,0.80540931224823,1.74745178222656,77.7113189697266,94.1897201538086,14.2399673461914,3.07306718826294,4.24978160858154,0.879696488380432,1.04103207588196,2.69052457809448,132.166366577148,168.147537231445,30.0904521942139,16.9052848815918,2012-01-02 16:01:15
1.00046503543854,15,0.998970687389374,0.0585783831775188,0.0972700268030167,0.305313736200333,0.000247405521804467,0.000513661827426404,0.00185866933315992,0.00431599374860525,7.936194896698,0.0812426432967186,0.101817183196545,0.232744917273521,0.00190171680878848,0.00451379735022783,0.0132449101656675,0.0113603183999658,5.62705564498901,0.0949283614754677,0.122965611517429,0.276547431945801,0.00498516438528895,0.010493092238903,0.0251678805798292,0.0189559105783701,2012-01-02 16:01:16
1.05813336372375,12,0.858899056911469,0.0446747392416,0.0702001601457596,0.211660161614418,0.000255577819189057,0.00058867153711617,0.0013383129844442,0.000804082315880805,8.04553890228271,0.128984823822975,0.147939637303352,0.309726595878601,0.00212147133424878,0.00519318738952279,0.0163057949393988,0.0191872008144855,5.42389440536499,0.249524757266045,0.286735057830811,0.538548350334167,0.00286330608651042,0.00741046108305454,0.0297014247626066,0.0572446435689926,2012-01-02 16:01:17
1.00301671028137,41,0.509945809841156,0.0636236295104027,0.074307382106781,0.137293100357056,0.232687145471573,0.750558316707611,0.631487369537354,0.194394588470459,8.15841484069824,0.0748830363154411,0.111905157566071,0.363563239574432,1.01229441165924,1.35549342632294,0.508161664009094,0.816412508487701,5.05329465866089,0.105988793075085,0.123158097267151,0.242296010255814,0.0438202954828739,0.709981143474579,0.715966522693634,0.766768157482147,2012-01-02 16:01:18
1.00131332874298,41,-0.0643411874771118,0.421820104122162,0.466479688882828,0.631930947303772,14.8243417739868,34.9073791503906,12.2310981750488,0.89372193813324,7.93860244750977,0.0974831804633141,0.151353538036346,0.475502878427505,0.412037074565887,0.634939849376678,0.205945670604706,0.28068020939827,5.25062370300293,0.123805299401283,0.156156778335571,0.455172091722488,0.00083590077701956,0.211503729224205,0.97567355632782,0.563960254192352,2012-01-02 16:01:19
1.02568662166595,49,0.79233729839325,0.268631130456924,0.300568133592606,0.586397647857666,11.8574934005737,14.0133800506592,2.33291888237,0.131356537342072,8.0204381942749,0.117222405970097,0.159536242485046,0.518351376056671,0.211602762341499,0.11100547015667,1.48354399204254,1.39879441261292,5.16870498657227,0.149489149451256,0.172577574849129,0.362245738506317,0.478313386440277,3.24758434295654,1.57130241394043,0.895486235618591,2012-01-02 16:01:20
1.00198328495026,42,0.668720126152039,0.124484412372112,0.136645093560219,0.227420881390572,2.20227670669556,2.75382661819458,0.244159728288651,0.278043329715729,8.07787704467773,0.098533608019352,0.112186960875988,0.257774859666824,1.39333045482635,2.84442591667175,1.46522331237793,0.158860504627228,5.07260608673096,0.110886335372925,0.136642172932625,0.267348051071167,1.82480525970459,3.02061915397644,2.3258204460144,0.168158113956451,2012-01-02 16:01:21
1.012446641922,42,0.398103266954422,0.0991450101137161,0.119073651731014,0.241196885704994,0.988580942153931,1.54387044906616,0.734928846359253,0.321288019418716,8.3050651550293,0.0484994724392891,0.0650921538472176,0.187493488192558,0.00178876344580203,0.0301192309707403,0.147936508059502,0.0277114827185869,4.8202018737793,0.0584173835813999,0.0888864621520042,0.377322763204575,0.000893617805559188,0.034280676394701,0.410056680440903,0.282309412956238,2012-01-02 16:01:22
1.00643670558929,47,1.01509261131287,0.554100096225739,0.597234666347504,0.985463917255402,68.8054962158203,117.191024780273,25.1814098358154,6.9792537689209,7.90290784835815,0.41342431306839,0.458353370428085,0.92057329416275,28.8938617706299,56.9826126098633,15.5768613815308,12.1359596252441,5.37571334838867,0.322478532791138,0.345175594091415,0.550841748714447,20.6065330505371,32.4445953369141,7.17925977706909,1.07329380512238,2012-01-02 16:01:23
1.00089168548584,29,1.41283392906189,0.261666148900986,0.300621300935745,0.677335143089294,1.00778913497925,1.64388489723206,0.963544130325317,0.0652344897389412,8.13072681427002,0.118053026497364,0.152367427945137,0.361831247806549,0.0161311123520136,0.0279250629246235,0.156119838356972,0.0747509151697159,4.92158555984497,0.21348412334919,0.298037678003311,1.10950422286987,0.103632718324661,0.256211906671524,0.97452449798584,0.810487449169159,2012-01-02 16:01:24
1.0199933052063,44,1.01008498668671,0.219758108258247,0.289488762617111,0.696272134780884,7.0193190574646,15.3344354629517,12.8118858337402,3.47934627532959,8.09628105163574,0.198442995548248,0.271997541189194,0.827770352363586,0.391415566205978,2.15622901916504,1.88149702548981,0.762408316135406,5.12976932525635,0.208127915859222,0.250814169645309,0.491223812103271,0.000106818130007014,0.655718684196472,7.2641749382019,3.24455976486206,2012-01-02 16:01:25
1.04342496395111,48,0.644991517066956,0.0778062343597412,0.0950840413570404,0.223305597901344,0.718178153038025,0.853101313114166,0.790395736694336,1.08997511863708,8.1466703414917,0.0868297219276428,0.109545581042767,0.213090762495995,1.31287086009979,1.40490889549255,0.159949496388435,0.430882900953293,5.02263927459717,0.169845730066299,0.209167033433914,0.567151188850403,1.25721049308777,1.76502728462219,1.23070359230042,1.19916105270386,2012-01-02 16:01:26
1.00227999687195,33,0.978287577629089,0.347312092781067,0.390598505735397,0.767296075820923,3.65260720252991,5.68591785430908,2.3877387046814,0.304733633995056,8.06552410125732,0.163714438676834,0.20737236738205,0.465370297431946,0.105732895433903,0.195972293615341,0.302883982658386,0.495308130979538,4.93720245361328,0.312948226928711,0.397909432649612,0.828216016292572,0.0715295895934105,0.828839361667633,3.03699684143066,1.93494403362274,2012-01-02 16:01:27
1.20637667179108,43,0.862300992012024,0.240398168563843,0.275305241346359,0.510630011558533,6.30839347839355,7.75246524810791,0.811881721019745,0.0609355457127094,7.9135103225708,0.134068414568901,0.163221418857574,0.343688994646072,0.164594084024429,1.57366585731506,0.971785128116608,2.02538371086121,5.44360303878784,0.12516875565052,0.153968468308449,0.420773714780807,1.94588351249695,2.54783344268799,0.323085427284241,1.80494272708893,2012-01-02 16:01:28
1.01787161827087,27,0.668668210506439,0.129006534814835,0.136539623141289,0.197949036955833,0.301228314638138,0.516707956790924,0.369770109653473,0.0581844486296177,7.74362134933472,0.0922013893723488,0.106298185884953,0.221920803189278,0.0257203672081232,0.0575380548834801,0.12087295204401,0.037266232073307,5.68349838256836,0.159489259123802,0.179209843277931,0.348681002855301,0.334994405508041,0.52794086933136,0.235713914036751,0.083259254693985,2012-01-02 16:01:29
1.00550830364227,43,0.481666147708893,0.0836720988154411,0.103852964937687,0.214605987071991,0.0805343240499496,0.784887790679932,0.351330697536469,0.69502329826355,7.83528518676758,0.0950644463300705,0.110878616571426,0.235587224364281,0.670687258243561,1.23949921131134,1.02972006797791,1.48516929149628,5.52228403091431,0.131214991211891,0.152059510350227,0.28553307056427,1.3303929567337,1.27038788795471,2.50693106651306,0.911546468734741,2012-01-02 16:01:30
1.19476497173309,41,0.569503247737885,0.0674039497971535,0.0825155600905418,0.195415437221527,0.0570765808224678,0.140461206436157,0.0883989408612251,0.204310908913612,7.88191509246826,0.08232681453228,0.0977316126227379,0.277217626571655,0.0358689427375793,0.527342975139618,0.665230095386505,0.0956620648503304,5.44986629486084,0.0774148479104042,0.100523881614208,0.311181932687759,0.0503429099917412,0.377078294754028,0.456330865621567,0.246908143162727,2012-01-02 16:01:32
1.00065505504608,48,0.92468535900116,0.199742376804352,0.253948986530304,0.512806057929993,3.83234643936157,3.4296178817749,2.08922576904297,0.290053695440292,8.08823871612549,0.127316415309906,0.157330349087715,0.350791871547699,3.08168864250183,5.88227319717407,1.56693351268768,0.390403419733047,5.12070560455322,0.236517339944839,0.272596746683121,0.491966724395752,5.43463468551636,10.1544322967529,4.12600803375244,5.79006195068359,2012-01-02 16:01:33
1.01392996311188,35,0.858502149581909,0.180362299084663,0.210816472768784,0.406555682420731,1.18936479091644,1.67316722869873,0.434744447469711,0.627978086471558,8.20592403411865,0.163566812872887,0.209780856966972,0.507704138755798,0.353085100650787,0.623211860656738,0.335704296827316,0.562886536121368,4.86914157867432,0.284480929374695,0.351466596126556,1.07396829128265,1.80973553657532,2.82202982902527,1.29059875011444,0.734772026538849,2012-01-02 16:01:34
1.00337994098663,43,0.601398527622223,0.0665091276168823,0.086757592856884,0.209132522344589,0.0437958650290966,0.216067224740982,0.259065806865692,0.545482277870178,8.29596996307373,0.0790471136569977,0.0983840897679329,0.234904006123543,0.110612250864506,0.132632583379745,0.060618981719017,0.250454485416412,4.87390470504761,0.115399248898029,0.150132119655609,0.333426177501678,0.580017626285553,0.779971539974213,0.546509087085724,0.212728172540665,2012-01-02 16:01:35
1.01422667503357,49,0.534962773323059,0.16446253657341,0.190560728311539,0.357442408800125,5.49447298049927,9.06554412841797,2.04969882965088,2.5434250831604,8.47874927520752,0.160484284162521,0.204921334981918,0.523755013942719,5.0003457069397,6.25945472717285,4.82946729660034,3.71226215362549,4.42099761962891,0.349020332098007,0.39743384718895,1.01809048652649,27.7336254119873,38.5524749755859,15.8841161727905,7.01605796813965,2012-01-02 16:01:36
1.01087999343872,37,0.85847944021225,0.0396993868052959,0.0513680800795555,0.112378910183907,0.112230390310287,0.178603932261467,0.0581456497311592,0.0219941306859255,8.60705757141113,0.0600006431341171,0.0747916623950005,0.179700538516045,0.0193747524172068,0.123981513082981,0.0967477262020111,0.0395930148661137,4.18770456314087,0.109971985220909,0.139964625239372,0.304271131753922,0.0280829258263111,0.310246765613556,0.299381911754608,0.417488038539886,2012-01-02 16:01:37
1.00996327400208,43,0.835389733314514,0.121657609939575,0.173726081848145,0.550996899604797,1.96769058704376,2.01026439666748,0.246201425790787,0.55291348695755,8.35047626495361,0.0657771304249763,0.0913937389850616,0.289410620927811,0.0313927717506886,0.211633309721947,0.216746792197227,0.161660969257355,4.61847591400146,0.145100250840187,0.178058117628098,0.450649708509445,2.63182759284973,2.70349311828613,0.318337619304657,0.708052515983582,2012-01-02 16:01:38
1.0186333656311,32,0.877695143222809,0.0971471145749092,0.110732659697533,0.230456292629242,0.1431655138731,0.212201938033104,0.332314163446426,0.136077910661697,8.22103691101074,0.0602188557386398,0.0754631981253624,0.212681353092194,0.00444918777793646,0.0166223235428333,0.0986248925328255,0.0405049659311771,4.92692232131958,0.125092253088951,0.149949923157692,0.319635599851608,0.684609413146973,1.20927858352661,0.613710284233093,0.127578869462013,2012-01-02 16:01:39
1.00067496299744,43,1.00164663791656,0.110222712159157,0.129524141550064,0.246534585952759,2.45949602127075,3.12014389038086,0.846105515956879,0.30034065246582,7.86995029449463,0.107082895934582,0.14254204928875,0.397055476903915,1.84134829044342,2.00283098220825,1.17118465900421,0.725709438323975,5.38658761978149,0.136699095368385,0.179700687527657,0.424422562122345,2.90206170082092,5.0859808921814,2.16998147964478,1.92885291576385,2012-01-02 16:01:40
1.01339328289032,50,1.17660188674927,0.276720136404037,0.354499161243439,0.990667879581451,13.0572938919067,23.746244430542,15.664568901062,11.0197553634644,7.84630060195923,0.28768789768219,0.371573716402054,1.08755743503571,0.560910880565643,5.08642673492432,42.522777557373,9.36271953582764,5.50859117507935,0.160436764359474,0.203799441456795,0.581338286399841,0.401469379663467,7.911217212677,7.77370834350586,0.785849332809448,2012-01-02 16:01:41
1.00664830207825,33,0.854367196559906,0.300250977277756,0.345106244087219,0.646050274372101,0.529532968997955,0.606536269187927,2.66941809654236,3.16321349143982,7.95170736312866,0.817653119564056,0.908675134181976,1.72448468208313,35.0092582702637,49.8871383666992,13.071738243103,8.86992740631104,5.30064296722412,0.532981038093567,0.619658708572388,1.1619393825531,11.1044540405273,17.346700668335,7.74939346313477,0.864781200885773,2012-01-02 16:01:42
1.01102828979492,43,0.81828510761261,0.388288170099258,0.505736947059631,1.07439827919006,17.295352935791,34.352367401123,34.751350402832,6.4317512512207,8.26176071166992,0.267998844385147,0.351937532424927,0.887843489646912,0.185907572507858,11.5407743453979,13.1603622436523,3.36464881896973,4.64584350585938,0.185695201158524,0.211591780185699,0.473227679729462,0.591318905353546,3.75616812705994,7.46746969223022,1.07369709014893,2012-01-02 16:01:43
1.00535333156586,49,1.36072266101837,0.341586738824844,0.422281414270401,0.890003502368927,6.66758155822754,29.3521423339844,36.0920829772949,11.8365716934204,8.2313814163208,0.1736850887537,0.23767226934433,0.71228289604187,7.20433378219604,8.8503532409668,4.19968271255493,5.80673503875732,4.97657442092896,0.282861143350601,0.366466104984283,1.2408412694931,2.79566431045532,24.7881813049316,26.7515144348145,5.16590595245361,2012-01-02 16:01:44
1.01300001144409,30,1.12122690677643,0.254319131374359,0.299911797046661,0.693003237247467,1.26861667633057,2.10221028327942,1.17304408550262,0.221433162689209,7.95678853988647,0.189028665423393,0.248058304190636,0.680254638195038,0.153746038675308,0.367324888706207,0.472782373428345,0.0495072267949581,5.08605527877808,0.288947492837906,0.409416258335114,1.15358889102936,1.5832405090332,2.42235779762268,1.33145356178284,1.04224324226379,2012-01-02 16:01:45
1.00125169754028,44,0.879255294799805,0.123819090425968,0.151865586638451,0.32696259021759,0.0284057687968016,0.605529427528381,0.479308247566223,1.30206072330475,7.82236337661743,0.198594734072685,0.234549701213837,0.477182775735855,0.122823223471642,2.31055593490601,4.09585189819336,4.81356811523438,5.50286769866943,0.178039357066154,0.244179978966713,0.724354684352875,0.0987714976072311,1.1523904800415,0.92038482427597,0.732241749763489,2012-01-02 16:01:46
1.00977838039398,49,0.661448538303375,0.198763355612755,0.25896030664444,0.642835915088654,3.26187896728516,7.2974534034729,9.08139801025391,1.35861527919769,8.22277545928955,0.190030857920647,0.20855924487114,0.397069245576859,0.516258537769318,0.857306838035583,9.04098701477051,2.03487014770508,4.9341459274292,0.332282453775406,0.417689889669418,0.864385962486267,4.1593656539917,9.51602840423584,25.2041435241699,5.59058284759521,2012-01-02 16:01:47
1.00257170200348,36,1.1086962223053,0.342173367738724,0.415225028991699,1.15663981437683,0.821708559989929,7.48794841766357,11.229305267334,3.179283618927,8.14605712890625,0.309817403554916,0.434706121683121,1.62463510036469,2.51443958282471,11.4009647369385,15.3854379653931,6.27290058135986,4.66878223419189,0.245393246412277,0.277627855539322,0.461729764938354,3.44893860816956,5.61968374252319,2.41271829605103,0.23897510766983,2012-01-02 16:01:48
1.00414335727692,44,0.22978763282299,0.511698424816132,0.747134268283844,2.35916805267334,5.20278596878052,5.357590675354,15.1639165878296,2.05571913719177,8.30600929260254,0.573010206222534,0.806686699390411,2.27491974830627,0.426064133644104,0.68484753370285,17.9643898010254,2.79289937019348,4.93742513656616,0.438533514738083,0.536287248134613,1.2799905538559,15.4265289306641,19.4200134277344,2.76527762413025,0.276046186685562,2012-01-02 16:01:49
1.01668000221252,36,0.194770961999893,0.132117360830307,0.15054889023304,0.283030807971954,0.0272763427346945,0.434191912412643,0.741846561431885,1.07257461547852,8.34627628326416,0.145737543702126,0.169279009103775,0.304823726415634,0.0778186321258545,0.408095479011536,0.699990153312683,1.46894347667694,4.62329053878784,0.0772425159811974,0.101083159446716,0.298557788133621,0.00636488804593682,0.111249297857285,0.59812605381012,0.158594533801079,2012-01-02 16:01:50
1.02108001708984,44,0.230902031064034,0.153137728571892,0.177266672253609,0.319161862134933,1.13408803939819,4.13556957244873,5.16268539428711,0.624039471149445,8.04033851623535,0.257677912712097,0.298493653535843,0.61670446395874,6.93484973907471,19.9565105438232,14.8320741653442,1.82486915588379,5.01097536087036,0.306812405586243,0.387407749891281,0.931854486465454,12.9563417434692,28.189395904541,27.1251983642578,12.6117095947266,2012-01-02 16:01:51
1.00246834754944,48,0.912835657596588,0.195792481303215,0.2262963950634,0.479708641767502,8.91330909729004,11.1349725723267,3.06728649139404,1.23881113529205,7.62896060943604,0.3181032538414,0.347585558891296,0.647851943969727,23.0067710876465,34.5159568786621,4.20421600341797,0.70502907037735,5.74485778808594,0.347267776727676,0.420418560504913,1.05115008354187,13.4787721633911,36.572811126709,9.75774383544922,3.85003733634949,2012-01-02 16:01:52
1.01861834526062,28,1.07277739048004,0.136067271232605,0.182608813047409,0.427640020847321,0.156438410282135,0.234306573867798,0.0686493217945099,0.0958919152617455,7.73919773101807,0.205088973045349,0.229583457112312,0.472470313310623,0.61290454864502,0.912854194641113,0.281940013170242,0.0897318795323372,5.56212139129639,0.187176883220673,0.225949332118034,0.482277125120163,0.263644993305206,0.424188226461411,0.231036767363548,0.0468768514692783,2012-01-02 16:01:53
1.00255501270294,41,1.11700129508972,0.0509642325341702,0.0661514103412628,0.126529723405838,0.460474491119385,0.60921710729599,0.274657368659973,0.0813371390104294,7.79174184799194,0.0287956818938255,0.0361194871366024,0.0928042307496071,0.0414353646337986,0.0299775339663029,0.055495947599411,0.0238445196300745,5.47689437866211,0.0467522852122784,0.0556488707661629,0.112896025180817,0.075366847217083,0.103346981108189,0.115602374076843,0.248846262693405,2012-01-02 16:01:54
1.00408005714417,48,1.10672128200531,0.055136863142252,0.0708579793572426,0.168143153190613,0.44679868221283,0.297739595174789,0.120053380727768,0.378465265035629,7.69576835632324,0.0698724463582039,0.0874503031373024,0.193681344389915,1.21792006492615,2.04476046562195,1.08964169025421,0.161777406930923,5.58754301071167,0.0930864885449409,0.113771177828312,0.286640167236328,2.19427728652954,3.90739560127258,1.40970087051392,0.397984981536865,2012-01-02 16:01:55
1.01698994636536,37,0.91678923368454,0.117780081927776,0.139985710382462,0.318848669528961,0.494865596294403,0.681167900562286,0.165517657995224,0.137179836630821,7.56728792190552,0.146032363176346,0.174627959728241,0.398626893758774,0.678057491779327,1.15415716171265,0.337360888719559,0.102430492639542,5.90015745162964,0.176662907004356,0.235074639320374,0.631070971488953,0.12256732583046,0.401716351509094,0.763658463954926,0.296954929828644,2012-01-02 16:01:56
1.00318002700806,44,0.949239134788513,0.0251042116433382,0.0312626138329506,0.0764472857117653,0.0164631418883801,0.050404068082571,0.0508916638791561,0.0200732741504908,7.63269376754761,0.0503705739974976,0.0596066005527973,0.114559642970562,0.0449709892272949,0.200740113854408,0.180114284157753,0.40840819478035,5.71660804748535,0.0635812506079674,0.0802817717194557,0.195464268326759,0.0234401468187571,0.26996037364006,0.229057520627975,0.0477168448269367,2012-01-02 16:01:57
1.20605671405792,46,0.907967865467072,0.0383089557290077,0.0548904314637184,0.151150301098824,0.160902291536331,0.271445959806442,0.087444543838501,0.101814948022366,7.59588956832886,0.0486809834837914,0.0605438686907291,0.133029162883759,0.0166200120002031,0.0385832823812962,0.265963315963745,0.312437891960144,5.81470394134521,0.0501547418534756,0.0564609728753567,0.107233859598637,0.290011167526245,0.270194590091705,0.110392369329929,0.26086899638176,2012-01-02 16:01:58
1.01342165470123,45,0.930760025978088,0.22496697306633,0.322834759950638,0.952116727828979,4.56912136077881,20.5671215057373,24.9459323883057,7.68988656997681,7.77013540267944,0.197295323014259,0.241340219974518,0.493601381778717,0.099110834300518,7.14562845230103,13.2060642242432,4.37534189224243,5.72446823120117,0.200462490320206,0.256896823644638,0.742690205574036,8.02252292633057,17.2877788543701,5.94359159469604,3.75733041763306,2012-01-02 16:01:59
1.54096829891205,50,0.842783510684967,0.604168057441711,0.786594569683075,2.02075839042664,10.6365242004395,138.871673583984,131.267166137695,25.6515407562256,8.53198146820068,0.546999275684357,0.655725479125977,1.412353515625,1.86551022529602,45.7495346069336,68.057373046875,15.3682489395142,4.48889589309692,0.406411111354828,0.469298422336578,0.997728586196899,5.06135034561157,23.7690277099609,10.3429164886475,4.69984674453735,2012-01-02 16:02:01
1.00262832641602,41,1.23492026329041,0.84772390127182,0.991808474063873,2.36412024497986,58.4234848022461,72.3731231689453,9.36787509918213,1.06403112411499,8.87406158447266,0.536466240882874,0.588828563690186,0.87183541059494,21.8228168487549,30.5911598205566,6.1860203742981,0.829214751720428,3.40099406242371,0.287560611963272,0.376797884702682,1.051225066185,5.81193017959595,7.53741025924683,2.24616122245789,5.05649137496948,2012-01-02 16:02:02
1.0132600069046,50,1.11246633529663,0.0464129112660885,0.0535755529999733,0.113364920020103,0.00405241036787629,0.137768134474754,0.251108139753342,0.0999140068888664,8.90659523010254,0.0686228945851326,0.0880915150046349,0.213588461279869,0.157929793000221,0.15050083398819,0.797989666461945,0.133030593395233,3.49254035949707,0.250508904457092,0.327835649251938,0.812578797340393,2.08728218078613,10.4069347381592,2.25075316429138,1.4003039598465,2012-01-02 16:02:03
1.01838338375092,27,0.970495104789734,0.151579320430756,0.166563019156456,0.254609644412994,0.426759451627731,0.773283660411835,0.728488564491272,0.166295737028122,9.08713245391846,0.104658268392086,0.118888974189758,0.212114155292511,0.197024688124657,0.355931043624878,0.340293973684311,0.0699111521244049,3.09926462173462,0.188465252518654,0.206181332468987,0.314175963401794,0.703603506088257,1.23990738391876,1.0607545375824,0.21395455300808,2012-01-02 16:02:04
1.00838005542755,36,1.02942585945129,0.169679254293442,0.198737442493439,0.38218691945076,0.130288615822792,0.804596364498138,1.9992082118988,0.337278485298157,8.66689968109131,0.267685204744339,0.32028466463089,0.615640163421631,0.176339909434319,1.59403657913208,3.29325437545776,0.498017251491547,3.83521723747253,0.35154116153717,0.431135684251785,1.00109565258026,1.95641255378723,3.97857904434204,1.9117466211319,0.814942181110382,2012-01-02 16:02:05
1.00415337085724,49,1.0831344127655,0.067596860229969,0.076836995780468,0.161309406161308,0.653113722801208,0.999778628349304,0.167027577757835,0.182799056172371,8.76574420928955,0.0380829237401485,0.0509760677814484,0.135892853140831,0.214877054095268,0.459896087646484,0.20472015440464,0.0795142352581024,3.94247341156006,0.0726288184523582,0.093065470457077,0.235159501433372,0.518603265285492,0.351372599601746,0.47817000746727,0.118184760212898,2012-01-02 16:02:06
1.00761663913727,24,1.14451777935028,0.115160040557384,0.150745123624802,0.404932886362076,0.115396812558174,0.247182235121727,0.463721603155136,0.20870965719223,8.72138023376465,0.0670121908187866,0.0823247656226158,0.150369122624397,0.0294682495296001,0.0603655241429806,0.108452893793583,0.0805157348513603,3.97823095321655,0.0716430023312569,0.0845339745283127,0.219015195965767,0.00580275477841496,0.017684530466795,0.0657641887664795,0.0440038815140724,2012-01-02 16:02:07
1.00059497356415,44,1.33727037906647,0.215543687343597,0.245469987392426,0.562545120716095,1.16041278839111,1.62511503696442,8.55210208892822,0.571320712566376,8.74507999420166,0.338663697242737,0.395750343799591,0.718337118625641,9.58234405517578,9.74714088439941,6.10758399963379,3.0776994228363,3.9202082157135,0.36741504073143,0.418298691511154,0.737950563430786,13.5313901901245,13.8486766815186,14.5054750442505,2.89717960357666,2012-01-02 16:02:08
1.16923499107361,46,0.918840408325195,0.0869436413049698,0.106818906962872,0.310828179121017,0.231827139854431,0.367218852043152,0.976984083652496,0.0748441591858864,8.7969913482666,0.0818826630711555,0.0970583558082581,0.20551298558712,9.72132474998944e-05,1.08023846149445,0.577159523963928,0.236722573637962,3.7894172668457,0.196142241358757,0.226233869791031,0.474769711494446,0.873983860015869,4.51157283782959,1.50670111179352,0.541481554508209,2012-01-02 16:02:09
