"diffSecs","level","azimuth.mean","azimuth.absolute.deviation","azimuth.standard.deviation","azimuth.max.deviation","pitch.mean","pitch.absolute.deviation","pitch.standard.deviation","pitch.max.deviation","roll.mean","roll.absolute.deviation","roll.standard.deviation","roll.max.deviation","time"
6.77200031280518,44,30.6568183898926,0.421694368124008,0.490546017885208,0.843181431293488,-12.6909093856812,0.578512370586395,0.67917674779892,1.49090945720673,-11.375,0.928409099578857,1.02161300182343,2.02500033378601,2012-01-17 12:06:06
0.168999910354614,99,30.9434337615967,0.539965331554413,0.612027823925018,1.15656757354736,-11.476767539978,1.06091213226318,1.18575966358185,1.92323267459869,-12.8343439102173,1.18210387229919,1.30903315544128,2.13434386253357,2012-01-17 12:06:06
0.449000120162964,99,30.6737384796143,0.488501280546188,0.546168684959412,1.07373738288879,-11.7828283309937,0.999000132083893,1.08414101600647,1.88282787799835,-12.3373737335205,1.32002854347229,1.44001865386963,2.46262621879578,2012-01-17 12:06:07
1.06099987030029,65,31.2200012207031,0.176615476608276,0.21993014216423,0.580000698566437,-12.3984613418579,0.0882841497659683,0.114344097673893,0.201538607478142,-11.1646156311035,0.140922978520393,0.171357244253159,0.4353848695755,2012-01-17 12:06:08
1.01600003242493,50,30.5540008544922,0.342960000038147,0.393553048372269,0.746000707149506,-12.3699998855591,0.189200058579445,0.237697243690491,0.569999992847443,-10.9980001449585,0.122399888932705,0.148983165621758,0.3019999563694,2012-01-17 12:06:09
1.14300012588501,37,30.3729724884033,0.22381280362606,0.267772227525711,0.627026617527008,-12.5945949554443,0.0718773752450943,0.101198099553585,0.305405795574188,-10.9513511657715,0.109568916261196,0.126537263393402,0.251351833343506,2012-01-17 12:06:10
1.02499985694885,46,30.8565216064453,0.388657957315445,0.47211492061615,1.2434800863266,-12.5673913955688,0.110680535435677,0.139960110187531,0.367391675710678,-11.1217393875122,0.114366672933102,0.141287669539452,0.321739107370377,2012-01-17 12:06:11
1.01600003242493,41,30.6682929992676,0.329803764820099,0.4093057513237,0.931707262992859,-12.5731706619263,0.143248006701469,0.171114459633827,0.426829040050507,-11.1243906021118,0.110291339457035,0.141042202711105,0.375609636306763,2012-01-17 12:06:12
1.0220000743866,49,30.41428565979,0.179008707404137,0.239897802472115,0.685714304447174,-12.5693883895874,0.122282348573208,0.15146093070507,0.46938756108284,-11.2224493026733,0.0950438529253006,0.11652334779501,0.277550905942917,2012-01-17 12:06:13
1.01600003242493,39,30.3435897827148,0.340828359127045,0.386831223964691,0.756410241127014,-12.2435903549194,0.135437279939651,0.159799382090569,0.34358936548233,-11.2461538314819,0.106508985161781,0.125771835446358,0.25384595990181,2012-01-17 12:06:14
1.0019998550415,47,30.644681930542,0.282933592796326,0.336950361728668,0.84468001127243,-12.4872341156006,0.130647301673889,0.160606622695923,0.312765955924988,-11.1872339248657,0.12793105840683,0.168367654085159,0.41276615858078,2012-01-17 12:06:15
1.02500009536743,48,30.2979164123535,0.107031233608723,0.145042359828949,0.397917509078979,-12.6833333969116,0.115277655422688,0.149071201682091,0.316666543483734,-11.2624998092651,0.126562654972076,0.150865629315376,0.362499594688416,2012-01-17 12:06:16
1.00300002098083,31,30.4193553924561,0.168366327881813,0.234753742814064,0.519355416297913,-12.4677419662476,0.0630591362714767,0.0778214484453201,0.167741924524307,-11.3870973587036,0.0949013084173203,0.126343041658401,0.287096709012985,2012-01-17 12:06:17
1.01900005340576,49,30.432653427124,0.279633581638336,0.32412388920784,0.667347013950348,-12.5469388961792,0.162432298064232,0.191771551966667,0.44693860411644,-11.3755102157593,0.103457011282444,0.12862004339695,0.324489384889603,2012-01-17 12:06:18
1.13099980354309,41,30.0731716156006,0.18489009141922,0.219783008098602,0.426828891038895,-12.5146341323853,0.118857808411121,0.14408828318119,0.314634561538696,-11.2536582946777,0.116121552884579,0.144993901252747,0.353658080101013,2012-01-17 12:06:19
1.01600003242493,49,30.4612255096436,0.216909572482109,0.259368360042572,0.63877534866333,-12.5918369293213,0.100791312754154,0.129104718565941,0.291836678981781,-11.3530616760254,0.143940165638924,0.170356288552284,0.353061407804489,2012-01-17 12:06:20
1.02400016784668,30,30.3766670227051,0.184888646006584,0.215535506606102,0.423334062099457,-12.6233339309692,0.106444299221039,0.128279134631157,0.276667088270187,-11.3900003433228,0.117333389818668,0.139880910515785,0.309999614953995,2012-01-17 12:06:21
1.01199984550476,53,31.3716983795166,0.410537570714951,0.522106766700745,1.27169835567474,-12.4415092468262,0.110857866704464,0.130938529968262,0.258490175008774,-11.3433961868286,0.0824494659900665,0.0961710512638092,0.243396118283272,2012-01-17 12:06:22
1.02300000190735,20,30.1100006103516,0.230999946594238,0.260576069355011,0.489999771118164,-12.6099996566772,0.0899997726082802,0.122065424919128,0.309999853372574,-11.4400005340576,0.0999998599290848,0.115758292376995,0.259999603033066,2012-01-17 12:06:23
1.01300001144409,52,30.3884620666504,0.299112200737,0.364086657762527,0.711538434028625,-12.5307693481445,0.1088757365942,0.132343396544456,0.330769598484039,-11.4442310333252,0.117307588458061,0.136457160115242,0.255768835544586,2012-01-17 12:06:24
1.01999998092651,34,30.279411315918,0.137197107076645,0.158632606267929,0.279412001371384,-12.6029415130615,0.0916953459382057,0.117536641657352,0.302941054105759,-11.5323534011841,0.0911764800548553,0.107704818248749,0.267646968364716,2012-01-17 12:06:25
1.01300001144409,51,30.5313720703125,0.319261848926544,0.386786758899689,0.831372141838074,-12.6745100021362,0.0819683074951172,0.102599769830704,0.274509340524673,-11.5372552871704,0.0918877720832825,0.115403391420841,0.337255299091339,2012-01-17 12:06:26
1.00800013542175,48,30.3145847320557,0.143228814005852,0.171985313296318,0.385416954755783,-12.7833337783813,0.118750177323818,0.146249517798424,0.316666930913925,-11.5625,0.123437590897083,0.160240769386292,0.362500369548798,2012-01-17 12:06:27
1.00699996948242,36,30.7000007629395,0.394444465637207,0.437162607908249,0.899999141693115,-12.5166664123535,0.209259241819382,0.240947186946869,0.416666507720947,-11.5527782440186,0.147530779242516,0.170759841799736,0.352778106927872,2012-01-17 12:06:29
1.01300001144409,49,30.0959186553955,0.220824867486954,0.284969985485077,0.604081928730011,-12.2448978424072,0.219075456261635,0.248309552669525,0.455101609230042,-11.6265306472778,0.124448098242283,0.154887080192566,0.373469203710556,2012-01-17 12:06:30
1.00599980354309,35,30.1800003051758,0.116571709513664,0.145012497901917,0.319999545812607,-12.625714302063,0.139265134930611,0.166206061840057,0.3742855489254,-11.582857131958,0.089142881333828,0.110804036259651,0.282857090234756,2012-01-17 12:06:31
1.02500009536743,49,30.4734706878662,0.286130726337433,0.331216305494308,0.726531028747559,-12.7081632614136,0.103207103908062,0.135280132293701,0.408163219690323,-11.6612243652344,0.112119860947132,0.133731916546822,0.261224031448364,2012-01-17 12:06:32
1.00500011444092,30,30.3199996948242,0.138666316866875,0.170097887516022,0.480000615119934,-12.5233335494995,0.11466658115387,0.135851070284843,0.276666671037674,-11.5166673660278,0.104444406926632,0.121335051953793,0.216666728258133,2012-01-17 12:06:33
1.00699996948242,49,30.3408164978027,0.369845777750015,0.433739453554153,0.959184348583221,-12.3367347717285,0.12836329638958,0.157394483685493,0.436734348535538,-11.5285720825195,0.13702617585659,0.165369033813477,0.371428936719894,2012-01-17 12:06:34
1,31,30.0838718414307,0.171280100941658,0.21864227950573,0.58387154340744,-12.5548391342163,0.143392235040665,0.166246339678764,0.345161586999893,-11.6129035949707,0.0924035310745239,0.11567997187376,0.212902814149857,2012-01-17 12:06:35
1.00899982452393,48,30.3895835876465,0.247482389211655,0.297377049922943,0.710416734218597,-12.6875,0.114062383770943,0.137878224253654,0.312499821186066,-11.6520833969116,0.125260308384895,0.15273828804493,0.347916454076767,2012-01-17 12:06:36
1.01900005340576,36,30.3138885498047,0.140740424394608,0.185820654034615,0.486111700534821,-12.5805559158325,0.132715970277786,0.156025990843773,0.319444894790649,-11.5388889312744,0.120987564325333,0.139995440840721,0.26111114025116,2012-01-17 12:06:37
1.01699995994568,47,30.4829788208008,0.237935587763786,0.285328447818756,0.617021262645721,-12.5276594161987,0.102942518889904,0.128331497311592,0.32765993475914,-11.6999998092651,0.110638417303562,0.142917975783348,0.299999862909317,2012-01-17 12:06:38
1.00999999046326,44,30.0227279663086,0.131405115127563,0.163573205471039,0.377272039651871,-12.3909091949463,0.222727343440056,0.253895342350006,0.509091436862946,-11.6931819915771,0.104751989245415,0.135508731007576,0.293181389570236,2012-01-17 12:06:39
1.01300001144409,24,29.9791679382324,0.251041680574417,0.282812148332596,0.479167222976685,-12.6166667938232,0.183333322405815,0.215380862355232,0.416667073965073,-11.6291666030884,0.086458183825016,0.105984076857567,0.229166269302368,2012-01-17 12:06:40
1.01999998092651,47,30.180850982666,0.122499071061611,0.143865123391151,0.319148540496826,-12.5702133178711,0.098868265748024,0.125333324074745,0.270212769508362,-11.6489362716675,0.0841103047132492,0.0964747071266174,0.151063963770866,2012-01-17 12:06:41
1.01200008392334,36,30.2000007629395,0.166666820645332,0.205480575561523,0.600000858306885,-12.4916667938232,0.0828702077269554,0.106392808258533,0.291667103767395,-11.7111110687256,0.108024783432484,0.128620460629463,0.288888692855835,2012-01-17 12:06:42
1.00699996948242,46,31.1000003814697,0.278260946273804,0.341989010572433,0.799999356269836,-12.3760871887207,0.157467037439346,0.184373006224632,0.376087218523026,-11.732608795166,0.0919661149382591,0.112393699586391,0.267391175031662,2012-01-17 12:06:43
1.00800013542175,27,30.448148727417,0.416460782289505,0.481794685125351,0.751852333545685,-12.3074073791504,0.172290861606598,0.203535303473473,0.392592221498489,-11.777777671814,0.0962963104248047,0.122726202011108,0.22222201526165,2012-01-17 12:06:44
1.00999999046326,48,30.1041679382324,0.259201407432556,0.305476576089859,0.604166984558105,-12.3145837783813,0.208593770861626,0.238912045955658,0.514583349227905,-11.747917175293,0.097916841506958,0.117242015898228,0.2520831823349,2012-01-17 12:06:45
1.00899982452393,35,30.2057151794434,0.172571390867233,0.224171906709671,0.694285035133362,-12.5457143783569,0.0870203897356987,0.0995498523116112,0.154285326600075,-11.91428565979,0.10122437030077,0.122224293649197,0.285713940858841,2012-01-17 12:06:46
1.01300001144409,44,30.3181819915771,0.286776721477509,0.338628709316254,0.681817889213562,-12.6636362075806,0.0946279317140579,0.116951555013657,0.263635903596878,-11.9681816101074,0.11652883887291,0.139435112476349,0.331818133592606,2012-01-17 12:06:47
1.29000020027161,47,30.0340423583984,0.1014034897089,0.124245129525661,0.265958219766617,-12.7680854797363,0.093526653945446,0.113186798989773,0.268085241317749,-12.0914897918701,0.0793119221925735,0.102790303528309,0.208510667085648,2012-01-17 12:06:48
1.01199984550476,44,30.1886367797852,0.250723391771317,0.313496530056,0.711362838745117,-12.3340911865234,0.173657119274139,0.210996761918068,0.365908801555634,-12.0977277755737,0.10268596559763,0.128785625100136,0.397727519273758,2012-01-17 12:06:49
1.00999999046326,47,29.9702129364014,0.112539492547512,0.158335462212563,0.629787385463715,-12.7191486358643,0.100226432085037,0.124862976372242,0.319148540496826,-12.138298034668,0.120597489178181,0.148113265633583,0.361701995134354,2012-01-17 12:06:50
1.01100015640259,35,30.1000003814697,0.314285814762115,0.368781864643097,0.700000762939453,-12.668571472168,0.0759181901812553,0.0949328243732452,0.231429040431976,-12.3114290237427,0.12800008058548,0.156335607171059,0.311428785324097,2012-01-17 12:06:51
1.0389997959137,45,29.9733333587646,0.157333448529243,0.204830646514893,0.626666784286499,-12.7711114883423,0.108247071504593,0.131016999483109,0.328889161348343,-12.2711114883423,0.0911606848239899,0.112787500023842,0.271111249923706,2012-01-17 12:06:52
1.01100015640259,43,30.1116275787354,0.306003332138062,0.344531565904617,0.611628174781799,-12.5697679519653,0.143537119030952,0.186191841959953,0.430232346057892,-12.3697671890259,0.135100170969963,0.15926419198513,0.330232203006744,2012-01-17 12:06:53
1.06399989128113,45,29.7711124420166,0.177481651306152,0.231538161635399,0.628888010978699,-12.3933334350586,0.141037106513977,0.166533291339874,0.306666284799576,-12.4555559158325,0.0809874683618546,0.0978786647319794,0.255556017160416,2012-01-17 12:06:54
1.01100015640259,49,30.1346950531006,0.228488236665726,0.271466910839081,0.665306925773621,-12.7612247467041,0.109621055424213,0.141156062483788,0.361224085092545,-12.5571432113647,0.116618059575558,0.139970749616623,0.257142812013626,2012-01-17 12:06:55
1.28499984741211,42,29.8547630310059,0.159523457288742,0.200240790843964,0.454762697219849,-12.8714284896851,0.107483103871346,0.129625365138054,0.271428436040878,-12.5238094329834,0.114058881998062,0.137683987617493,0.323809862136841,2012-01-17 12:06:56
1.01800012588501,45,30.5177783966064,0.42706161737442,0.490028917789459,0.91777777671814,-12.5977783203125,0.193777784705162,0.240821644663811,0.402222007513046,-12.1222219467163,0.46024689078331,0.52106249332428,1.02222204208374,2012-01-17 12:06:57
1.00099992752075,42,30.2428569793701,0.144217729568481,0.181452855467796,0.442856520414352,-11.9166669845581,0.380952328443527,0.423093259334564,0.783332943916321,-11.5047616958618,0.153061151504517,0.18765763938427,0.404761672019958,2012-01-17 12:06:58
1,29,30.0689659118652,0.172175973653793,0.216720595955849,0.431034207344055,-11.6482763290405,0.133174642920494,0.156735330820084,0.348275810480118,-11.937931060791,0.160760939121246,0.193718254566193,0.437931180000305,2012-01-17 12:06:59
1.01900005340576,48,30.4645843505859,0.369965493679047,0.424504607915878,0.735417127609253,-10.9895839691162,0.23498260974884,0.280059248209,0.610416889190674,-11.8666667938232,0.183333426713943,0.225770339369774,0.533333718776703,2012-01-17 12:07:00
1.00699996948242,41,30.5170726776123,0.249970436096191,0.319223612546921,0.682927131652832,-10.7780485153198,0.114098928868771,0.135272547602654,0.321951478719711,-12.2463417053223,0.196430787444115,0.227497115731239,0.453658133745193,2012-01-17 12:07:01
1.01999998092651,44,30.4363632202148,0.498347193002701,0.655081987380981,2.16363835334778,-10.875,0.114772826433182,0.144796133041382,0.375000268220901,-12.4636363983154,0.243388339877129,0.288484126329422,0.663636326789856,2012-01-17 12:07:03
1.02900004386902,39,30.8589744567871,0.176331087946892,0.203454658389091,0.441026300191879,-10.7846155166626,0.261932969093323,0.28151461482048,0.415384203195572,-12.1794872283936,0.135963127017021,0.162005871534348,0.379487246274948,2012-01-17 12:07:04
1.01999998092651,50,29.9939994812012,0.338000029325485,0.378634363412857,0.706000447273254,-10.9739999771118,0.127039879560471,0.15467381477356,0.325999975204468,-13.0080003738403,0.256320059299469,0.310380488634109,0.808000326156616,2012-01-17 12:07:05
1.01099991798401,38,29.7763156890869,0.181301817297935,0.207026705145836,0.476314783096313,-11.2605266571045,0.105678789317608,0.132862254977226,0.339473873376846,-13.5710525512695,0.11315792798996,0.141249850392342,0.328947782516479,2012-01-17 12:07:06
1.00200009346008,48,29.5479164123535,0.166753739118576,0.192559227347374,0.447916746139526,-11.3270835876465,0.0940974056720734,0.122030794620514,0.372916251420975,-13.7979164123535,0.119357749819756,0.157439991831779,0.302083522081375,2012-01-17 12:07:07
1.01600003242493,29,29.3241386413574,0.0780019760131836,0.113426566123962,0.375862061977386,-11.4344825744629,0.141498118638992,0.168718993663788,0.334482610225677,-13.9827585220337,0.159334078431129,0.196642458438873,0.482758820056915,2012-01-17 12:07:08
1.25300002098083,47,29.1042556762695,0.379719436168671,0.453336358070374,0.995744705200195,-10.8957452774048,0.200452715158463,0.228740677237511,0.495744228363037,-14.202127456665,0.100588597357273,0.142155632376671,0.302127182483673,2012-01-17 12:07:09
1.0019998550415,47,29.2425537109375,0.268356800079346,0.325344204902649,0.657445967197418,-11.2382984161377,0.172657400369644,0.209917098283768,0.438297897577286,-14.4191493988037,0.177003130316734,0.21990168094635,0.419149160385132,2012-01-17 12:07:10
1.01100015640259,34,29.1205883026123,0.128892943263054,0.162298664450645,0.379411369562149,-11.4411764144897,0.117646865546703,0.162910312414169,0.44117671251297,-14.6235294342041,0.129065737128258,0.147645950317383,0.276470988988876,2012-01-17 12:07:11
1.00999999046326,47,29.1127662658691,0.256224423646927,0.34984290599823,0.887233555316925,-11.4212770462036,0.129922941327095,0.159702062606812,0.378723353147507,-14.5765962600708,0.157084703445435,0.189301937818527,0.423403978347778,2012-01-17 12:07:12
1.00999999046326,32,28.9312496185303,0.192187324166298,0.25548654794693,0.631249129772186,-11.421875,0.0925780236721039,0.119201458990574,0.27812448143959,-14.8062505722046,0.0714845433831215,0.10588189214468,0.306250184774399,2012-01-17 12:07:13
1.00999999046326,49,28.8489799499512,0.294793605804443,0.369844079017639,0.851020753383636,-11.2979593276978,0.218658924102783,0.255941480398178,0.502040803432465,-14.8469390869141,0.0990422368049622,0.117979787290096,0.346938967704773,2012-01-17 12:07:14
1.01099991798401,41,29.1121959686279,0.215467259287834,0.258697777986526,0.587805330753326,-11.5048780441284,0.113027974963188,0.137842610478401,0.295121848583221,-14.9780492782593,0.13682322204113,0.166032895445824,0.421951621770859,2012-01-17 12:07:15
1.01999998092651,46,28.991304397583,0.247448071837425,0.291044652462006,0.60869562625885,-11.5065221786499,0.107655964791775,0.135778188705444,0.306522130966187,-14.8521738052368,0.132514283061028,0.151426777243614,0.252173721790314,2012-01-17 12:07:16
1.01500010490417,35,29.0400009155273,0.200000137090683,0.240475714206696,0.560000002384186,-11.5314283370972,0.156244844198227,0.176912218332291,0.3314288854599,-14.8971433639526,0.0894695445895195,0.123023204505444,0.302856653928757,2012-01-17 12:07:17
1.24599981307983,45,28.9844455718994,0.347160428762436,0.415775328874588,0.815556228160858,-11.6555557250977,0.118518404662609,0.137526616454124,0.255555152893066,-14.9311113357544,0.086518332362175,0.107128530740738,0.33111098408699,2012-01-17 12:07:18
1.01300001144409,44,29.0886363983154,0.301239579916,0.345237463712692,0.811362862586975,-11.5159091949463,0.137913197278976,0.165066346526146,0.315909445285797,-14.9863634109497,0.127892404794693,0.153135195374489,0.31363633275032,2012-01-17 12:07:19
1,46,28.8369560241699,0.17060461640358,0.199301660060883,0.463044196367264,-11.7130432128906,0.0816636309027672,0.107559315860271,0.286956459283829,-14.9891309738159,0.10018889605999,0.128922343254089,0.310869514942169,2012-01-17 12:07:20
1.13300013542175,41,28.8878059387207,0.13503822684288,0.16848686337471,0.412195801734924,-11.6926832199097,0.107198029756546,0.136846482753754,0.307316958904266,-14.8219518661499,0.108625963330269,0.135272532701492,0.321951419115067,2012-01-17 12:07:21
1.00099992752075,49,29.1122455596924,0.258309155702591,0.326160550117493,0.887754917144775,-11.3571434020996,0.118950590491295,0.137023866176605,0.257142663002014,-14.8163270950317,0.124781459569931,0.150301694869995,0.383673071861267,2012-01-17 12:07:22
1.17199993133545,37,29.1756763458252,0.306062817573547,0.373012006282806,0.724323332309723,-11.5702705383301,0.187874346971512,0.22039869427681,0.470270097255707,-14.5648651123047,0.147699028253555,0.172761648893356,0.33513543009758,2012-01-17 12:07:23
1.00500011444092,51,29.8196086883545,0.509496331214905,0.611978471279144,1.1196072101593,-11.5274515151978,0.158862009644508,0.194107785820961,0.372549444437027,-14.3921575546265,0.127489551901817,0.165497690439224,0.407843053340912,2012-01-17 12:07:24
1.02600002288818,34,29.0264701843262,0.116609290242195,0.144117876887321,0.373528867959976,-11.6852941513062,0.11903103441,0.149769097566605,0.385294079780579,-14.5823526382446,0.136332154273987,0.174002274870872,0.417646914720535,2012-01-17 12:07:26
1.00799989700317,43,29.2488384246826,0.324283421039581,0.366232991218567,0.648837327957153,-11.4930238723755,0.12006476521492,0.148473292589188,0.306976765394211,-14.6744184494019,0.116927951574326,0.144822299480438,0.325581222772598,2012-01-17 12:07:27
1.0090000629425,33,29.0060615539551,0.0993574038147926,0.136934876441956,0.3939388692379,-11.6969699859619,0.100826352834702,0.126694247126579,0.296969294548035,-14.7181816101074,0.100826591253281,0.126621797680855,0.281818062067032,2012-01-17 12:07:28
1.08299994468689,17,29.2941188812256,0.299654066562653,0.35225436091423,0.694117844104767,-11.5529413223267,0.108650483191013,0.128875777125359,0.252941191196442,-14.7941179275513,0.0671282038092613,0.0872495993971825,0.194117486476898,2012-01-17 12:07:29
1.00999999046326,50,29.1720008850098,0.395999997854233,0.437282472848892,0.827999591827393,-11.5180006027222,0.15399993956089,0.190462484955788,0.417999804019928,-14.8500003814697,0.138000100851059,0.171172454953194,0.350000262260437,2012-01-17 12:07:30
1.01300001144409,34,28.9264717102051,0.167647019028664,0.206239119172096,0.473528742790222,-11.6676473617554,0.110726557672024,0.132222205400467,0.267646640539169,-14.8088235855103,0.12750880420208,0.159719794988632,0.308823823928833,2012-01-17 12:07:31
1.00399994850159,47,29.0234050750732,0.298234522342682,0.346540808677673,0.623405039310455,-11.7127656936646,0.131733894348145,0.164532914757729,0.38723424077034,-14.957447052002,0.120687946677208,0.15262895822525,0.442553550004959,2012-01-17 12:07:32
1.14600014686584,39,29.1205139160156,0.156476199626923,0.192393198609352,0.420512408018112,-11.7564105987549,0.0959896966814995,0.112762406468391,0.256410419940948,-14.8615388870239,0.117159828543663,0.140722274780273,0.261538326740265,2012-01-17 12:07:33
1.02699995040894,49,28.9102039337158,0.241899102926254,0.293636411428452,0.689795851707458,-11.4734697341919,0.217242732644081,0.270883232355118,0.673469364643097,-14.7877550125122,0.0803000777959824,0.0982141345739365,0.212244734168053,2012-01-17 12:07:34
1.00800013542175,46,28.9586963653564,0.215973377227783,0.255866765975952,0.641304194927216,-11.8000001907349,0.0956523418426514,0.125108763575554,0.300000220537186,-14.8586959838867,0.0789226517081261,0.0945840403437614,0.25869557261467,2012-01-17 12:07:35
1.00699996948242,34,29,0.182352840900421,0.235146716237068,0.499999612569809,-11.8382358551025,0.0626299306750298,0.0728202611207962,0.161764428019524,-15.0264711380005,0.103287167847157,0.126743778586388,0.273529380559921,2012-01-17 12:07:36
1.00499987602234,43,29.0418605804443,0.246728047728539,0.287921577692032,0.54186087846756,-11.7418603897095,0.124607942998409,0.149778962135315,0.341860115528107,-15.0023260116577,0.096160002052784,0.119082301855087,0.202325627207756,2012-01-17 12:07:37
1.00800013542175,46,28.8804359436035,0.262192696332932,0.30830505490303,0.719565212726593,-11.7282609939575,0.0754254534840584,0.0900798365473747,0.228260979056358,-15.043478012085,0.101323261857033,0.126236736774445,0.356522142887115,2012-01-17 12:07:38
1.13800001144409,28,28.6535720825195,0.138775840401649,0.167933374643326,0.35357078909874,-11.4464282989502,0.139285638928413,0.165792763233185,0.35357141494751,-14.9035720825195,0.125510111451149,0.154647395014763,0.303571254014969,2012-01-17 12:07:39
1.01899981498718,40,28.9575004577637,0.306749939918518,0.370734035968781,0.757499575614929,-11.7300004959106,0.159000068902969,0.193907186388969,0.430000066757202,-15.0275001525879,0.111624978482723,0.137817725539207,0.327500313520432,2012-01-17 12:07:40
1.03700017929077,48,28.814582824707,0.143749594688416,0.169545292854309,0.385417193174362,-11.8000001907349,0.0750002190470695,0.0957429111003876,0.19999985396862,-15.0375003814697,0.107291601598263,0.125208005309105,0.262500017881393,2012-01-17 12:07:41
1.00599980354309,37,29.0432434082031,0.2220598757267,0.268670797348022,0.656756937503815,-11.7405405044556,0.0924763977527618,0.110182866454124,0.259459316730499,-15.0297298431396,0.123447768390179,0.155728191137314,0.370270639657974,2012-01-17 12:07:42
1.01100015640259,43,28.8697681427002,0.16765783727169,0.210795640945435,0.530231714248657,-11.7511625289917,0.177826002240181,0.22963285446167,0.651162564754486,-15.0651168823242,0.084045447409153,0.103167690336704,0.265116304159164,2012-01-17 12:07:43
1.01399993896484,28,28.6285705566406,0.216326609253883,0.306893616914749,0.771428167819977,-11.3000001907349,0.150000125169754,0.181265488266945,0.300000220537186,-15.0142860412598,0.0775510519742966,0.109264642000198,0.285714328289032,2012-01-17 12:07:44
1.01699995994568,48,29.6104164123535,0.457552224397659,0.575630009174347,1.11041712760925,-11.5500001907349,0.13958328962326,0.165831178426743,0.350000411272049,-14.9395837783813,0.10954849421978,0.133447200059891,0.339583218097687,2012-01-17 12:07:45
1.02800011634827,32,28.9000015258789,0.162499815225601,0.220793843269348,0.599999368190765,-11.7687501907349,0.108203232288361,0.130952075123787,0.268750131130219,-14.9906253814697,0.13437482714653,0.154837235808372,0.309374958276749,2012-01-17 12:07:46
1.01699995994568,51,29.0235290527344,0.210842058062553,0.255594730377197,0.576470553874969,-11.927451133728,0.0985773503780365,0.120584271848202,0.327450841665268,-15.0784311294556,0.12172232568264,0.14046648144722,0.278431355953217,2012-01-17 12:07:47
1.01799988746643,45,29.0111122131348,0.243950739502907,0.290763169527054,0.611111760139465,-11.8600006103516,0.11200013011694,0.140475451946259,0.360000252723694,-15.1555557250977,0.0839504152536392,0.104467943310738,0.255555033683777,2012-01-17 12:07:48
1.0310001373291,47,28.7914905548096,0.128926992416382,0.162205144762993,0.408511012792587,-11.8957452774048,0.0986872836947441,0.121965236961842,0.304254919290543,-15.0063829421997,0.0810321345925331,0.105999186635017,0.206382989883423,2012-01-17 12:07:49
1.0789999961853,33,28.7575759887695,0.133700668811798,0.165200158953667,0.357576549053192,-11.8848485946655,0.104132384061813,0.130549535155296,0.284848362207413,-15.1090908050537,0.0848483443260193,0.111092694103718,0.290909498929977,2012-01-17 12:07:50
1.02699995040894,55,28.990909576416,0.261487454175949,0.320381879806519,0.709091126918793,-11.912727355957,0.11160322278738,0.132190719246864,0.312727093696594,-15.0727272033691,0.137190103530884,0.172104150056839,0.37272772192955,2012-01-17 12:07:51
1.20799994468689,40,28.9150009155273,0.143749937415123,0.176847323775291,0.385000646114349,-12.0375003814697,0.10125008225441,0.129783466458321,0.262500017881393,-14.8575000762939,0.107500076293945,0.132074773311615,0.342499583959579,2012-01-17 12:07:53
1.02100014686584,52,28.9730777740479,0.29585787653923,0.355784744024277,0.72692334651947,-11.673077583313,0.187721893191338,0.234615474939346,0.573076784610748,-15.0749998092651,0.13461534678936,0.161572739481926,0.325000315904617,2012-01-17 12:07:54
1.16100001335144,38,28.7868423461914,0.172437652945518,0.205414921045303,0.41315832734108,-11.8815793991089,0.0854571387171745,0.104768574237823,0.281578809022903,-15.1289472579956,0.113157771527767,0.131605222821236,0.271053105592728,2012-01-17 12:07:55
1.01599979400635,51,28.9745101928711,0.211303412914276,0.263344407081604,0.625490248203278,-11.8705883026123,0.113033533096313,0.134738847613335,0.329411387443542,-15.0705881118774,0.109573259949684,0.134738802909851,0.329412221908569,2012-01-17 12:07:56
1.40000009536743,43,28.8558139801025,0.173390731215477,0.201508596539497,0.35581436753273,-11.8069772720337,0.0878314152359962,0.114922426640987,0.306976974010468,-14.9790697097778,0.113682925701141,0.139029994606972,0.279070109128952,2012-01-17 12:07:57
1.17899990081787,50,29.0100002288818,0.188800022006035,0.238537043333054,0.589999973773956,-11.8460006713867,0.174640029668808,0.209007129073143,0.445999622344971,-15.0279998779297,0.0776000469923019,0.0959999263286591,0.227999985218048,2012-01-17 12:07:58
1.00200009346008,50,28.9560012817383,0.245760038495064,0.275070875883102,0.456000417470932,-11.8319997787476,0.122560076415539,0.151578366756439,0.431999623775482,-15.0659999847412,0.0953599885106087,0.112445421516895,0.234000012278557,2012-01-17 12:07:59
1.20900011062622,40,28.9025001525879,0.212999954819679,0.243400394916534,0.497499048709869,-11.8699998855591,0.15500009059906,0.190000027418137,0.430000007152557,-14.9700002670288,0.182499960064888,0.233666449785233,0.569999575614929,2012-01-17 12:08:00
