"diffSecs","N.samples","x.mean","x.absolute.deviation","x.standard.deviation","x.max.deviation","x.PSD.1","x.PSD.3","x.PSD.6","x.PSD.10","y.mean","y.absolute.deviation","y.standard.deviation","y.max.deviation","y.PSD.1","y.PSD.3","y.PSD.6","y.PSD.10","z.mean","z.absolute.deviation","z.standard.deviation","z.max.deviation","z.PSD.1","z.PSD.3","z.PSD.6","z.PSD.10","time"
0,48,1.11244177818298,0.0666801109910011,0.0854901969432831,0.259263336658478,0.0531524084508419,0.650385439395905,0.326979786157608,0.10396171361208,1.58745145797729,0.05158706381917,0.0774152204394341,0.342006891965866,0.277853727340698,0.313837200403214,0.134117752313614,0.0283217839896679,9.41867446899414,0.209182932972908,0.391452491283417,1.97542679309845,8.43913269042969,7.4774112701416,0.332631796598434,0.295264363288879,2011-12-18 17:52:02
1.00958001613617,34,1.09892165660858,0.0507638230919838,0.0587889701128006,0.146522909402847,0.0243999324738979,0.0301791932433844,0.0932620912790298,0.0544591806828976,1.65559327602386,0.0270107015967369,0.0332534648478031,0.066915936768055,0.000405536411562935,0.019961005076766,0.0495400168001652,0.0117928171530366,9.44928359985352,0.0431627593934536,0.0507448986172676,0.123159773647785,0.00301581039093435,0.0276941116899252,0.0959277898073196,0.0251259952783585,2011-12-18 17:52:03
1.00595498085022,43,0.860932648181915,0.0982680320739746,0.109704032540321,0.207992151379585,1.68226301670074,2.73006248474121,0.8584343791008,0.110738895833492,1.48718988895416,0.0359064675867558,0.0461372882127762,0.160327360033989,0.0944738760590553,0.141857400536537,0.11337960511446,0.0520592443645,9.54323863983154,0.0630403682589531,0.0742219313979149,0.138661235570908,0.00094688351964578,0.104799382388592,0.348671674728394,0.135553613305092,2011-12-18 17:52:04
1.01852667331696,51,0.743767082691193,0.0372132360935211,0.0452271699905396,0.0996047854423523,0.059451088309288,0.0658334270119667,0.395411759614944,0.0750780254602432,1.42965567111969,0.0302004311233759,0.038758173584938,0.0903750360012054,0.155972257256508,0.158544167876244,0.0293213650584221,0.0346188433468342,9.60878562927246,0.0481169745326042,0.0611563101410866,0.148830071091652,0.00836691167205572,0.0429735407233238,0.10607136040926,0.401561170816422,2011-12-18 17:52:05
1.00007832050323,33,0.717965662479401,0.0368672385811806,0.0452793762087822,0.0903400480747223,0.000867546070367098,0.0139989219605923,0.0153965065255761,0.0154819739982486,1.32924675941467,0.0206939093768597,0.0257871970534325,0.0632974728941917,0.00446850666776299,0.0111073786392808,0.0119208646938205,0.00223462888970971,9.57901668548584,0.0355524197220802,0.0426271669566631,0.0959861353039742,0.00183515367098153,0.0112217664718628,0.0291681904345751,0.00982534419745207,2011-12-18 17:52:06
1.04330337047577,36,0.874426245689392,0.118406213819981,0.17448765039444,0.586764574050903,1.52149164676666,2.44625210762024,2.1279730796814,0.928863763809204,1.17134988307953,0.0582345575094223,0.0739101842045784,0.172161161899567,0.262734055519104,0.392001748085022,0.22368711233139,0.108266718685627,9.64620208740234,0.0981421694159508,0.117433361709118,0.229094639420509,0.349282205104828,0.775195956230164,0.676312565803528,0.270469307899475,2011-12-18 17:52:07
1.01145505905151,49,0.996075451374054,0.0801114588975906,0.103138849139214,0.249369114637375,1.72711038589478,2.65185856819153,0.407634943723679,0.231845200061798,1.08633661270142,0.113162450492382,0.134597182273865,0.276787757873535,1.0435471534729,2.40140223503113,3.06610894203186,0.454287618398666,9.62512683868408,0.108383655548096,0.132137462496758,0.357842206954956,0.0232264455407858,0.640708029270172,0.662750840187073,0.864807069301605,2011-12-18 17:52:08
1.00358664989471,30,1.03067886829376,0.143503963947296,0.171234875917435,0.459931820631027,0.13358311355114,0.287030577659607,0.361138641834259,0.14734835922718,0.745632290840149,0.155925735831261,0.183001711964607,0.323946326971054,0.247155889868736,0.660437643527985,1.50266134738922,0.547579109668732,9.65758895874023,0.265564024448395,0.329999148845673,0.659006476402283,1.22145557403564,2.04529094696045,1.13583624362946,0.675646185874939,2011-12-18 17:52:09
1.01534831523895,44,1.34016788005829,0.212555080652237,0.267873048782349,0.604669094085693,3.8256950378418,6.89343452453613,5.92199373245239,2.74229097366333,0.35794273018837,0.168273195624352,0.206305474042892,0.505042493343353,2.51803255081177,3.13518500328064,0.34424352645874,1.15529680252075,9.64194297790527,0.23066908121109,0.320515304803848,1.00228452682495,2.35258507728577,3.31071591377258,0.908806443214417,1.65768539905548,2011-12-18 17:52:10
1.0124716758728,49,1.51802933216095,0.322904676198959,0.45977196097374,1.62590253353119,0.0197272319346666,4.01932859420776,26.000955581665,9.63024997711182,0.468117415904999,0.941716134548187,1.62263488769531,6.27365398406982,55.730152130127,135.631256103516,48.9094009399414,118.828460693359,9.65774917602539,0.529575347900391,0.623561680316925,1.54144513607025,3.15819692611694,34.2628784179688,29.1255302429199,20.3841304779053,2011-12-18 17:52:11
1.01691329479218,44,0.834456741809845,0.201927840709686,0.247612997889519,0.510837316513062,0.287507295608521,4.52847719192505,2.03456377983093,0.202922210097313,0.52621591091156,0.202738299965858,0.247878760099411,0.748648524284363,0.0155064640566707,4.4592809677124,3.4513258934021,0.206461161375046,9.69654750823975,0.178870141506195,0.252404361963272,0.792109847068787,1.30982434749603,1.26595211029053,0.67772650718689,0.894690454006195,2011-12-18 17:52:12
1.01290333271027,41,0.721625924110413,0.102430194616318,0.122771464288235,0.250906735658646,1.19200813770294,1.35519897937775,1.09141778945923,0.785465955734253,0.861071705818176,0.131319254636765,0.147366106510162,0.253059417009354,2.34356188774109,3.36743259429932,0.863451421260834,0.0405557528138161,9.69016551971436,0.0908560380339622,0.111059509217739,0.273390501737595,0.220035314559937,0.556107580661774,0.306666254997253,0.117577411234379,2011-12-18 17:52:13
1.00286829471588,38,0.47175145149231,0.0440348498523235,0.0588308423757553,0.155874118208885,0.00171995081473142,0.00956731103360653,0.11273780465126,0.0827016085386276,0.971116423606873,0.0441299192607403,0.0515241883695126,0.1179378926754,0.0402628593146801,0.148053362965584,0.0743508189916611,0.0787176862359047,9.62548446655273,0.0934755355119705,0.108007661998272,0.308651715517044,0.471245437860489,0.78890722990036,0.272693008184433,0.290266305208206,2011-12-18 17:52:14
1.01334667205811,38,0.43278294801712,0.247393786907196,0.311856418848038,0.697562456130981,5.675856590271,13.0524482727051,10.3395843505859,3.65296030044556,0.619883477687836,0.369854658842087,0.394800812005997,0.600270211696625,14.1173267364502,22.3227577209473,7.23577547073364,0.670398235321045,9.71271228790283,0.166984811425209,0.204492256045341,0.456783294677734,0.891437709331512,2.05441212654114,2.86321234703064,0.708092272281647,2011-12-18 17:52:15
1.00332164764404,49,-0.348836541175842,0.121568143367767,0.142484247684479,0.278789043426514,3.01871180534363,5.28505325317383,1.60161876678467,0.423476070165634,-0.243565157055855,0.191297069191933,0.209378495812416,0.390664905309677,5.47476005554199,7.50040245056152,1.7164580821991,0.529568314552307,9.70738220214844,0.159185647964478,0.189937397837639,0.481726408004761,0.386473447084427,3.54301857948303,3.55414080619812,0.774918735027313,2011-12-18 17:52:16
1.00221002101898,37,-0.821638226509094,0.250445634126663,0.279503554105759,0.502259492874146,5.11251544952393,9.22152709960938,5.03985071182251,0.712477684020996,-0.108933329582214,0.181261837482452,0.207201480865479,0.569845855236053,1.46314060688019,2.21552467346191,1.00460147857666,0.258351624011993,9.77378463745117,0.178411036729813,0.282179117202759,1.1410174369812,0.00410351296886802,0.687595129013062,0.938688635826111,1.03221547603607,2011-12-18 17:52:17
1.01622831821442,44,-1.344402551651,0.0547065213322639,0.0678400322794914,0.197024554014206,0.0658195167779922,0.521433174610138,0.349499493837357,0.0662160143256187,0.198361784219742,0.0650804936885834,0.0846409946680069,0.233130812644958,0.00163360603619367,0.153777062892914,0.0777099952101707,0.116672225296497,9.67760276794434,0.125126093626022,0.157517418265343,0.315373063087463,0.0461388677358627,0.183584541082382,0.423204988241196,0.744631052017212,2011-12-18 17:52:18
1.01688504219055,48,-1.06912910938263,0.179975852370262,0.201608449220657,0.343028426170349,7.99818325042725,11.0139255523682,1.12395656108856,0.5284304022789,0.291339218616486,0.0700426325201988,0.0849035009741783,0.20879989862442,0.97898530960083,1.34154236316681,0.270288288593292,0.301634520292282,9.64524841308594,0.0806835070252419,0.104954071342945,0.308501154184341,0.741088509559631,0.817177712917328,0.309328854084015,0.349859327077866,2011-12-18 17:52:19
1.00054502487183,44,-0.595531105995178,0.301169514656067,0.382369965314865,0.919150531291962,19.9535121917725,37.7517242431641,17.5694541931152,7.0226526260376,0.671755492687225,0.170056223869324,0.202196300029755,0.48542919754982,6.43285703659058,8.7980432510376,2.84409952163696,1.62947940826416,9.64060497283936,0.0693151280283928,0.098119854927063,0.343900859355927,0.0614502392709255,0.660698592662811,1.70404863357544,0.415150701999664,2011-12-18 17:52:20
1.01173663139343,39,2.67595815658569,1.21077632904053,1.39550578594208,2.33272528648376,202.492462158203,286.252166748047,87.9504547119141,15.6321439743042,1.54894769191742,0.464942216873169,0.543280780315399,1.01058781147003,24.9671249389648,47.1199836730957,32.0692939758301,6.41556215286255,9.13879203796387,0.357746124267578,0.453949213027954,0.999272108078003,15.8719310760498,24.165678024292,14.573522567749,12.0583810806274,2011-12-18 17:52:21
1.03770995140076,41,7.23252391815186,1.21374940872192,1.3543643951416,2.28997230529785,202.938262939453,261.646667480469,41.8199157714844,7.56351804733276,3.27972626686096,0.560069978237152,0.660589993000031,2.43755030632019,47.4989356994629,65.2803802490234,11.3323936462402,8.00206756591797,5.56706762313843,1.70999729633331,2.05965423583984,4.20394325256348,531.485229492188,768.250732421875,267.7314453125,59.6811599731445,2011-12-18 17:52:22
1.00866997241974,48,6.13058614730835,0.980520248413086,1.10015463829041,1.83527386188507,277.376739501953,332.056671142578,54.7399940490723,16.471134185791,7.02789449691772,0.63614684343338,0.760496258735657,1.39887773990631,127.347366333008,147.540191650391,26.73095703125,5.41259670257568,-1.28712272644043,0.990880250930786,1.13765859603882,2.29720759391785,294.369781494141,349.927917480469,46.9564361572266,11.3150901794434,2011-12-18 17:52:23
1.00379836559296,30,2.94166803359985,0.472397238016129,0.563556730747223,0.960724830627441,9.00563144683838,15.1663341522217,9.86586856842041,3.56352019309998,8.35886192321777,0.27622053027153,0.331589311361313,0.827354431152344,0.0245440527796745,0.353092223405838,2.33336615562439,0.661572754383087,-3.84322595596313,0.222545564174652,0.266557514667511,0.4697385430336,1.82383596897125,2.90336608886719,1.89994406700134,0.868281483650208,2011-12-18 17:52:24
1.01362669467926,51,2.03286075592041,0.197648674249649,0.217723861336708,0.414763599634171,8.44552993774414,9.51063919067383,5.10872173309326,0.744664072990417,8.80925559997559,0.266148179769516,0.323408454656601,0.752227604389191,6.17480993270874,14.6448783874512,8.08510398864746,3.30304908752441,-4.13321447372437,0.148966059088707,0.195095285773277,0.485140770673752,0.0349693857133389,2.10956716537476,5.20149612426758,3.36898374557495,2011-12-18 17:52:25
1.00859665870667,36,2.88424468040466,0.671816051006317,0.751074433326721,1.43068099021912,34.0073547363281,48.1184844970703,11.1084671020508,6.3890323638916,7.32120895385742,0.878966391086578,0.99133825302124,2.19233107566833,50.0293235778809,74.9063339233398,23.0239868164062,4.04950571060181,-5.43070459365845,0.877695143222809,0.971867978572845,1.28685033321381,61.0365371704102,86.7034606933594,21.3478832244873,5.46357107162476,2011-12-18 17:52:26
1.01778495311737,43,3.31738424301147,0.296745300292969,0.342722982168198,0.738235592842102,16.1405429840088,24.5460395812988,7.10097217559814,2.58107924461365,6.58391094207764,0.186575666069984,0.261879324913025,0.859336316585541,4.49139738082886,9.73619937896729,3.86860656738281,1.53939461708069,-6.25344944000244,0.229196593165398,0.274070292711258,0.536173105239868,8.63465785980225,9.98243713378906,1.40283703804016,0.711296379566193,2011-12-18 17:52:27
1.00194334983826,49,1.46939635276794,0.691374897956848,0.78039163351059,1.27646565437317,132.025787353516,136.312118530273,24.7638301849365,2.94214630126953,7.96440029144287,0.241821095347404,0.326364189386368,0.753711521625519,16.308614730835,22.2427215576172,11.4879713058472,1.02484786510468,-5.25076055526733,0.347893059253693,0.418680191040039,0.996075212955475,23.3228054046631,48.0979957580566,7.44347476959229,3.73808240890503,2011-12-18 17:52:28
1.00724005699158,42,0.809749066829681,0.325754225254059,0.407576948404312,0.917622208595276,10.5318002700806,24.6466236114502,9.61547088623047,0.475333482027054,9.20937824249268,0.297045975923538,0.383731305599213,0.999344050884247,7.04119300842285,7.91670083999634,0.994779348373413,7.89193534851074,-3.13182353973389,0.617185175418854,0.721879363059998,1.34000861644745,41.888126373291,51.5187568664551,7.92904853820801,4.30706787109375,2011-12-18 17:52:29
1.00707828998566,40,0.720298409461975,0.318323850631714,0.376656740903854,0.916431427001953,5.64477252960205,10.3080987930298,8.28048229217529,4.05169296264648,9.19152736663818,0.358592480421066,0.445037126541138,1.25255465507507,0.00185680587310344,2.93769907951355,16.331470489502,4.25223255157471,-2.00251793861389,0.362944096326828,0.424737751483917,0.747266709804535,0.00516482209786773,9.69288539886475,16.5291156768799,6.24169397354126,2011-12-18 17:52:30
1.01046168804169,48,-1.11325907707214,0.517488062381744,0.595725357532501,1.29958534240723,62.2791481018066,71.2277603149414,11.3059825897217,11.0620574951172,9.31836032867432,0.576327979564667,0.677913010120392,1.62586116790771,0.175834506750107,27.8245544433594,49.9988403320312,32.1016540527344,-1.3471884727478,0.514031887054443,0.644964694976807,1.77868115901947,56.8763008117676,112.199882507324,40.2195510864258,14.2421026229858,2011-12-18 17:52:31
1.01870834827423,43,-0.792286098003387,0.60600745677948,0.678105175495148,1.47304999828339,45.577579498291,60.288330078125,8.21641159057617,4.47472667694092,9.40890979766846,0.414690256118774,0.512362360954285,1.19093751907349,5.44685125350952,7.68112087249756,5.58246850967407,4.22173023223877,-1.07325804233551,0.514782845973969,0.680428862571716,1.58320379257202,5.418785572052,9.63619899749756,17.957447052002,21.1090221405029,2011-12-18 17:52:32
1.00595164299011,41,-0.29539543390274,0.264201998710632,0.411070913076401,1.70516109466553,4.72696352005005,14.2630233764648,12.9346580505371,6.92559909820557,9.29335498809814,0.168480738997459,0.221429452300072,0.732150495052338,0.386335253715515,0.277213543653488,3.6561758518219,1.34955656528473,-0.333426088094711,0.472154319286346,0.584735989570618,1.56906402111053,18.525634765625,33.0949897766113,18.2440032958984,7.23975515365601,2011-12-18 17:52:33
1.00502169132233,42,-0.396001845598221,0.221305623650551,0.372885823249817,1.85952758789062,0.727307558059692,0.814328014850616,0.94852203130722,2.77420854568481,9.34340190887451,0.179521709680557,0.23897822201252,0.929296910762787,0.0127612883225083,0.508801281452179,0.607177972793579,2.76005959510803,0.0238161534070969,0.390464752912521,0.503789067268372,1.85765957832336,21.0590667724609,24.6320190429688,9.58595085144043,3.79261589050293,2011-12-18 17:52:34
1.01684665679932,45,-0.684504151344299,0.112100906670094,0.155821189284325,0.507984459400177,0.00101828901097178,0.131573051214218,0.399591237306595,2.10031604766846,9.52988433837891,0.113563321530819,0.150594219565392,0.390086978673935,0.0654237121343613,1.75403392314911,0.727630734443665,0.374165713787079,0.675569236278534,0.143540292978287,0.178580656647682,0.520842015743256,0.274618119001389,2.51961302757263,2.88900852203369,0.484172940254211,2011-12-18 17:52:35
1.25327670574188,41,-0.504683673381805,0.0617334730923176,0.0815349072217941,0.191588446497917,0.289367377758026,0.322674006223679,0.111295610666275,0.216402605175972,9.44045543670654,0.06627207249403,0.0808852538466454,0.202590689063072,0.115546070039272,0.277784377336502,0.116543784737587,0.0568118132650852,0.155232086777687,0.200310006737709,0.22891192138195,0.413553565740585,5.59324359893799,7.2755012512207,1.50674068927765,0.243670538067818,2011-12-18 17:52:36
1.01127171516418,47,-0.0625956356525421,0.297617822885513,0.352067559957504,0.896160900592804,23.1550903320312,30.8178882598877,5.24003505706787,2.20197701454163,9.55459785461426,0.0566467344760895,0.0718622878193855,0.163791641592979,0.0967096611857414,0.0728762969374657,0.145045310258865,0.290066033601761,-0.079705111682415,0.11483857780695,0.152349203824997,0.422937870025635,0.00318161421455443,1.40099966526031,1.58762073516846,0.442774087190628,2011-12-18 17:52:37
1.01218998432159,40,0.272134512662888,0.19086192548275,0.251543432474136,0.752660393714905,0.492820680141449,1.41317772865295,1.71884000301361,0.512518525123596,9.50264358520508,0.118660293519497,0.158005610108376,0.304006516933441,0.341569274663925,0.297923892736435,0.297510921955109,0.149528354406357,-0.083846852183342,0.163648471236229,0.247206851840019,0.651651859283447,0.129838585853577,0.469484776258469,0.635972082614899,0.168269068002701,2011-12-18 17:52:38
1.01268994808197,36,0.497415065765381,0.213809177279472,0.235287055373192,0.502863168716431,1.14042127132416,1.54432332515717,2.24492454528809,1.38036179542542,9.4922924041748,0.0735497772693634,0.103833764791489,0.314357995986938,0.0355677679181099,0.0662289261817932,0.115797132253647,0.408210694789886,-0.149006590247154,0.0947370752692223,0.114570029079914,0.276493042707443,0.154454216361046,0.389529258012772,0.685726225376129,0.383495539426804,2011-12-18 17:52:39
1.03549838066101,44,0.687134146690369,0.0764776840806007,0.0911687090992928,0.205271035432816,0.0455764979124069,0.666865408420563,0.619234204292297,0.0553568452596664,9.55167675018311,0.0450213588774204,0.0635198429226875,0.196132659912109,0.0916027277708054,0.169992655515671,0.234095007181168,0.0962423607707024,0.162032604217529,0.0427419990301132,0.051701545715332,0.112999349832535,0.157588437199593,0.206668317317963,0.0428324528038502,0.107202060520649,2011-12-18 17:52:40
1.01551830768585,49,0.623622894287109,0.053391307592392,0.0639520511031151,0.133290380239487,0.413898319005966,0.605320632457733,0.304094582796097,0.448258489370346,9.50944805145264,0.0384995080530643,0.047392800450325,0.144097462296486,0.0118159875273705,0.0494768582284451,0.134567454457283,0.218368947505951,0.462113350629807,0.0870876237750053,0.108979731798172,0.197333812713623,2.11289477348328,2.29294943809509,0.236600652337074,0.0733805820345879,2011-12-18 17:52:41
1.02018165588379,45,0.597551882266998,0.0389650911092758,0.0466615222394466,0.0987202748656273,0.0876345187425613,0.278767138719559,0.103709846735001,0.0999783799052238,9.56606006622314,0.0135694742202759,0.0162262823432684,0.0346501022577286,0.000288921582978219,0.00361759727820754,0.029566453769803,0.0170607659965754,0.418852895498276,0.0873929858207703,0.106379367411137,0.222719922661781,1.7628082036972,2.64050531387329,0.933242440223694,0.552070021629333,2011-12-18 17:52:42
1.01631164550781,49,0.54236775636673,0.0521414801478386,0.0590797103941441,0.110875174403191,0.429921954870224,0.541101098060608,0.143266320228577,0.104988537728786,9.55667972564697,0.0601468048989773,0.0703304260969162,0.142096117138863,0.0526424832642078,0.250726312398911,0.373772710561752,0.423206657171249,0.312611967325211,0.0420039966702461,0.0511541552841663,0.109073959290981,0.00701701268553734,0.168977171182632,0.285053580999374,0.0730476826429367,2011-12-18 17:52:43
1.01812171936035,36,1.0697420835495,0.588716804981232,0.669452488422394,1.07791411876678,30.759090423584,53.2051391601562,23.4136371612549,5.54691314697266,9.51054382324219,0.0961443856358528,0.116924025118351,0.331519603729248,0.624469339847565,1.0458163022995,0.380891293287277,0.34593191742897,0.518662810325623,0.254912346601486,0.275079756975174,0.442388892173767,5.19766330718994,8.62285232543945,3.5685088634491,0.35260272026062,2011-12-18 17:52:44
