"diffSecs","level","azimuth.mean","azimuth.absolute.deviation","azimuth.standard.deviation","azimuth.max.deviation","pitch.mean","pitch.absolute.deviation","pitch.standard.deviation","pitch.max.deviation","roll.mean","roll.absolute.deviation","roll.standard.deviation","roll.max.deviation","time"
2.71600008010864,1,-58,0,0,0,125.099998474121,0,0,0,18.3000011444092,0,0,0,2012-02-15 10:53:35
1.01599979400635,40,-56.9675025939941,0.376000136137009,0.442937821149826,0.932500720024109,124.805000305176,0.102248758077621,0.13955169916153,0.305002391338348,18.4575004577637,0.126125112175941,0.149812400341034,0.342500865459442,2012-02-15 10:53:36
1.16000008583069,39,-56.2512817382812,0.447074085474014,0.529088079929352,1.25128281116486,124.879486083984,0.186061382293701,0.220930129289627,0.42051362991333,18.6589756011963,0.0770548656582832,0.0925925076007843,0.258975356817245,2012-02-15 10:53:37
1.00500011444092,39,-56.0102577209473,0.222353905439377,0.27155277132988,0.610255599021912,124.956413269043,0.112950764596462,0.137364029884338,0.256406933069229,18.5589752197266,0.122025355696678,0.144502967596054,0.25897353887558,2012-02-15 10:53:38
1.0149998664856,40,-56.2024993896484,0.172874867916107,0.198100358247757,0.39750137925148,124.825004577637,0.132498666644096,0.160856172442436,0.325001895427704,18.7100009918213,0.147499904036522,0.181383579969406,0.390000104904175,2012-02-15 10:53:39
1.01200008392334,39,-55.8974380493164,0.202630206942558,0.274083405733109,0.702565729618073,125.169227600098,0.292702347040176,0.491023361682892,1.93076717853546,18.2410259246826,0.828007876873016,1.45702862739563,5.24102592468262,2012-02-15 10:53:40
1.12100005149841,42,-56.0880966186523,0.43435350060463,0.550844371318817,1.38809525966644,130.197616577148,0.907822847366333,1.19413042068481,2.89761829376221,9.49047660827637,0.851927518844604,1.13699901103973,3.10952401161194,2012-02-15 10:53:42
1.01099991798401,39,-55.2128219604492,0.150952875614166,0.197652086615562,0.512820243835449,130.064102172852,0.145298361778259,0.173185050487518,0.364107966423035,9.61025619506836,0.144378617405891,0.166093662381172,0.310256361961365,2012-02-15 10:53:43
1.00799989700317,41,-55.4878044128418,0.486972093582153,0.556204557418823,1.0121945142746,131.49755859375,0.592861235141754,0.671179831027985,1.00243580341339,8.41219520568848,0.578346252441406,0.685812771320343,1.1121951341629,2012-02-15 10:53:44
1,40,-55.3875007629395,0.2850002348423,0.344374567270279,0.787498474121094,130.902496337891,1.027498960495,1.17100048065186,1.8024959564209,8.96749973297119,1.07249999046326,1.15637099742889,1.6674998998642,2012-02-15 10:53:45
1.00699996948242,29,-55.6310348510742,0.267062544822693,0.415313065052032,1.43103444576263,129.662078857422,0.185731545090675,0.207471013069153,0.362070530653,9.98620700836182,0.180737122893333,0.216116383671761,0.486207067966461,2012-02-15 10:53:46
1.01500010490417,40,-54.4775009155273,0.431999891996384,0.643229186534882,1.67750155925751,128.587509155273,0.781875491142273,1.01788771152496,2.98750400543213,11.7425003051758,1.66512501239777,2.5431170463562,7.65749931335449,2012-02-15 10:53:47
1.0090000629425,39,-53.461540222168,0.730177402496338,1.00169479846954,2.76153826713562,126.620513916016,1.2261677980423,1.58974015712738,2.97949147224426,17.7820510864258,1.55831694602966,1.87204420566559,3.11794805526733,2012-02-15 10:53:48
1.00799989700317,36,-51.1611137390137,0.62345689535141,0.687296688556671,1.43889009952545,130.597229003906,0.342130094766617,0.412638247013092,0.997219920158386,13.9777784347534,0.302469074726105,0.422368407249451,1.12222242355347,2012-02-15 10:53:49
1.00200009346008,38,-51.7526321411133,1.23684239387512,1.71766948699951,4.24736785888672,126.121055603027,3.97340774536133,4.54834651947021,8.82105255126953,22.8184204101562,9.93573379516602,12.1422681808472,26.0815811157227,2012-02-15 10:53:50
1.06500005722046,29,-54.4551734924316,1.48394787311554,1.64580702781677,2.65517354011536,117.648277282715,0.291082859039307,0.356825828552246,0.75172346830368,47.3034477233887,2.72651600837708,3.20091390609741,7.60344839096069,2012-02-15 10:53:51
1.0149998664856,11,-49.7454566955566,2.04132199287415,2.30862498283386,3.84545350074768,135.609100341797,10.3884305953979,10.9042491912842,14.8090906143188,11.9636363983154,11.0446281433105,11.4948425292969,16.3363647460938,2012-02-15 10:53:52
1.12000012397766,40,-46.0825004577637,2.69812512397766,3.20646905899048,6.41749906539917,143.842498779297,2.67175078392029,2.95811605453491,4.25750255584717,3.95000004768372,0.647500038146973,0.771362483501434,1.34999990463257,2012-02-15 10:53:53
1.00799989700317,40,-38.0349998474121,4.91800022125244,5.2831597328186,7.4350004196167,165.464996337891,5.67300033569336,6.58621835708618,12.4650030136108,4.34500026702881,3.85900020599365,4.07461357116699,6.55500030517578,2012-02-15 10:53:54
1.01800012588501,40,-28.3525009155273,1.91062498092651,2.11127758026123,3.44750070571899,177.987503051758,3.14437484741211,3.70797729492188,7.58749389648438,17.7825012207031,2.6886248588562,3.1035373210907,7.08250045776367,2012-02-15 10:53:55
1.06199979782104,37,-21.8432426452637,2.6745069026947,2.96078324317932,4.25675678253174,167.85676574707,1.73557341098785,1.98515284061432,3.85676002502441,26.3135147094727,4.15909433364868,4.4663405418396,6.01351261138916,2012-02-15 10:53:56
1.01300001144409,41,17.963415145874,32.3740615844727,33.111629486084,36.636589050293,84.7463455200195,74.9889373779297,76.6730194091797,84.1463394165039,23.3487815856934,8.39892959594727,8.79742527008057,12.0487804412842,2012-02-15 10:53:57
1.06400012969971,37,53.1540565490723,1.81227159500122,1.8937441110611,2.64594435691833,13.7783784866333,6.47509145736694,6.69312429428101,9.2783784866333,33.6000022888184,5.82702732086182,6.80659484863281,10.3999996185303,2012-02-15 10:53:58
1.00600004196167,40,34.2875022888184,16.1825008392334,16.6383476257324,20.9125003814697,44.3474998474121,11.8827505111694,12.9171981811523,22.2474994659424,25.8024997711182,4.55737495422363,4.91540908813477,7.90250062942505,2012-02-15 10:53:59
1.02600002288818,35,4.7828574180603,3.06791830062866,4.02204513549805,10.5171432495117,54.5114288330078,0.152163609862328,0.202514842152596,0.488570719957352,25.2142868041992,2.09795928001404,2.43910336494446,5.38571453094482,2012-02-15 10:54:00
1.00899982452393,35,6.72285747528076,3.04065322875977,3.26497316360474,5.9228572845459,53.3828582763672,0.320490181446075,0.37453681230545,0.682857096195221,29.977144241333,1.04457139968872,1.29418158531189,3.17714214324951,2012-02-15 10:54:01
1.01300001144409,41,8.05609798431396,0.662581861019135,0.872632443904877,2.3439028263092,53.134147644043,1.68185579776764,2.32091331481934,6.63414669036865,8.11707305908203,7.090660572052,8.92078685760498,17.9170742034912,2012-02-15 10:54:02
1.01200008392334,39,9.31282043457031,2.9496386051178,3.52195906639099,7.01282072067261,17.7000007629395,13.148717880249,15.0103044509888,28.2000007629395,-33.9025650024414,9.78619289398193,11.3735294342041,23.202564239502,2012-02-15 10:54:03
1.01300001144409,39,17.6179485321045,0.808152437210083,0.955381870269775,2.01794862747192,2.31282067298889,0.500986218452454,0.601357221603394,1.21282052993774,-36.3743591308594,1.34924387931824,1.56920993328094,2.72564291954041,2012-02-15 10:54:04
1.01999998092651,38,21.6421051025391,0.748476624488831,0.906883656978607,2.14210557937622,-0.75,0.921052634716034,1.00308740139008,1.75,-31.8447380065918,0.789889216423035,0.973517179489136,2.35526347160339,2012-02-15 10:54:05
1.09699988365173,37,20.5108108520508,0.376187026500702,0.445265710353851,0.889188528060913,2.05135130882263,0.220014631748199,0.315904200077057,0.951351344585419,-32.2405395507812,0.270708441734314,0.346768528223038,1.04054021835327,2012-02-15 10:54:06
1.00100016593933,39,20.1230773925781,0.186193630099297,0.225845143198967,0.576923489570618,2.2615385055542,0.115187339484692,0.131296053528786,0.261538505554199,-32.8307685852051,0.180276274681091,0.223209351301193,0.530770599842072,2012-02-15 10:54:07
1.00699996948242,38,20.2815799713135,0.271052718162537,0.312759697437286,0.718420743942261,2.60000014305115,0.178947389125824,0.211510881781578,0.400000005960464,-32.455265045166,0.2944595515728,0.32823058962822,0.644738435745239,2012-02-15 10:54:08
1.0090000629425,38,20.3815784454346,0.146675512194633,0.174499541521072,0.318421423435211,3.10000014305115,0.0947368741035461,0.127733275294304,0.300000041723251,-32.0921058654785,0.115236058831215,0.142129793763161,0.307895570993423,2012-02-15 10:54:09
1.0019998550415,40,20.2100009918213,0.108999878168106,0.14282850921154,0.389999955892563,3.21749997138977,0.135124981403351,0.164145514369011,0.417500108480453,-32.2875022888184,0.118124566972256,0.141752183437347,0.312501609325409,2012-02-15 10:54:10
1.01399993896484,43,19.9511623382568,0.133802026510239,0.160481810569763,0.448836535215378,3.28139543533325,0.0960518792271614,0.122485503554344,0.31860476732254,-32.3883743286133,0.115847088396549,0.143396586179733,0.288370609283447,2012-02-15 10:54:11
1.00800013542175,39,20.1410255432129,0.142800942063332,0.182177722454071,0.458974450826645,3.39487195014954,0.0783695429563522,0.103648155927658,0.205128312110901,-32.3615379333496,0.0990144014358521,0.116828806698322,0.261536538600922,2012-02-15 10:54:12
1.01399993896484,38,20.3236846923828,0.210387572646141,0.254883021116257,0.676315426826477,3.46842122077942,0.110526323318481,0.131999358534813,0.331578850746155,-32.0894737243652,0.14681476354599,0.169813439249992,0.310527503490448,2012-02-15 10:54:13
1.04500007629395,35,20.5400009155273,0.21828581392765,0.270660549402237,0.560000121593475,3.38571429252625,0.0710204467177391,0.093021847307682,0.21428582072258,-31.668571472168,0.222367256879807,0.279562175273895,0.768572092056274,2012-02-15 10:54:14
1.00999999046326,40,20.75,0.209999859333038,0.252982050180435,0.649999976158142,3.22500014305115,0.106249958276749,0.133697390556335,0.324999958276749,-31.4799995422363,0.167000025510788,0.214709118008614,0.51999968290329,2012-02-15 10:54:15
1.00799989700317,35,20.2714290618896,0.219591811299324,0.245614603161812,0.471427649259567,2.97428584098816,0.112163260579109,0.138032838702202,0.32571417093277,-31.9057140350342,0.149714484810829,0.188138112425804,0.405714809894562,2012-02-15 10:54:16
1.01900005340576,41,21.309757232666,0.645568192005157,0.741062223911285,1.69024348258972,2.60243916511536,0.333491951227188,0.405744016170502,1.00243902206421,-30.6414642333984,0.655562162399292,0.781485617160797,1.44146323204041,2012-02-15 10:54:17
1.00500011444092,39,21.4102573394775,0.9725182056427,1.06139612197876,1.71025621891022,2.12051296234131,0.31847470998764,0.351684242486954,0.620512843132019,-30.6512832641602,1.27587115764618,1.33606231212616,1.94871985912323,2012-02-15 10:54:18
1.05399990081787,36,18.9527778625488,0.452469110488892,0.501932859420776,0.752777457237244,2.59166669845581,0.0824074447154999,0.10374915599823,0.208333224058151,-33.7138900756836,0.484567821025848,0.540140151977539,1.0138885974884,2012-02-15 10:54:19
1.01500010490417,40,19.6750011444092,0.958749949932098,1.01630461215973,1.5250004529953,2.64000010490417,0.432000041007996,0.503388524055481,0.960000097751617,-32.9500007629395,1.04250001907349,1.12871623039246,1.95000076293945,2012-02-15 10:54:20
1.00599980354309,38,20.2184219360352,0.710803270339966,0.835670351982117,1.41842019557953,1.41315793991089,0.650277018547058,0.821478486061096,1.98684215545654,-32.5184211730957,0.850415587425232,0.979488432407379,1.51842153072357,2012-02-15 10:54:21
1.01700019836426,32,19.25,0.274999916553497,0.325960040092468,0.649999856948853,1.21875,0.109765626490116,0.1379254758358,0.281249970197678,-33.3718757629395,0.23789082467556,0.271839201450348,0.528125643730164,2012-02-15 10:54:22
1.01199984550476,40,19.2600002288818,0.275999933481216,0.340440839529037,0.860000967979431,1.39499998092651,0.549000024795532,0.634014964103699,1.3050000667572,-33.4275016784668,0.225250080227852,0.27201783657074,0.772499740123749,2012-02-15 10:54:23
1.00800013542175,36,17.786111831665,0.406635850667953,0.488849461078644,1.18611109256744,4.27500009536743,0.770833313465118,0.875714004039764,1.47500014305115,-33.9527778625488,0.432870417833328,0.510166525840759,0.852776288986206,2012-02-15 10:54:24
1.0460000038147,38,18.684211730957,0.191135883331299,0.244439527392387,0.515789747238159,4.03684234619141,0.436288148164749,0.487971723079681,0.86315792798996,-33.4526329040527,0.212464869022369,0.282597362995148,0.752631425857544,2012-02-15 10:54:25
1.0019998550415,37,18.8081092834473,0.294813603162766,0.358961284160614,0.808108448982239,3.61621618270874,0.191380545496941,0.221192717552185,0.483783662319183,-33.4189186096191,0.107962228357792,0.126998797059059,0.281081318855286,2012-02-15 10:54:26
1,35,18.9514293670654,0.12146931886673,0.144165337085724,0.348572224378586,3.00571441650391,0.178285747766495,0.213732644915581,0.494285672903061,-33.391429901123,0.11363310366869,0.148076221346855,0.308571398258209,2012-02-15 10:54:27
1.00399994850159,38,18.8210525512695,0.139057755470276,0.174955382943153,0.421053379774094,2.82105255126953,0.0991690009832382,0.121737189590931,0.278947472572327,-33.476318359375,0.120637029409409,0.156330034136772,0.376314371824265,2012-02-15 10:54:28
1.00999999046326,40,18.6725006103516,0.11250014603138,0.146607488393784,0.427500009536743,2.87750005722046,0.0847500413656235,0.0987104550004005,0.222500130534172,-33.5925025939941,0.12400009483099,0.150644108653069,0.307500451803207,2012-02-15 10:54:29
1.03600001335144,35,18.6542854309082,0.118204325437546,0.142112463712692,0.354285061359406,2.84571433067322,0.112979613244534,0.127263188362122,0.25428581237793,-33.6485710144043,0.107101589441299,0.133889779448509,0.351427555084229,2012-02-15 10:54:31
1.00300002098083,36,18.7611122131348,0.133333265781403,0.160342901945114,0.361111909151077,2.74166679382324,0.116203688085079,0.151611715555191,0.358333438634872,-33.6777801513672,0.119135446846485,0.149278059601784,0.277777552604675,2012-02-15 10:54:32
1.00999999046326,40,18.6550006866455,0.095000222325325,0.118216015398502,0.344999551773071,2.64750003814697,0.105124980211258,0.126466393470764,0.252500027418137,-33.7374992370605,0.0912493243813515,0.108828485012054,0.262499332427979,2012-02-15 10:54:33
1.01200008392334,37,18.5594596862793,0.138933748006821,0.186662793159485,0.640540957450867,2.67027020454407,0.114828303456306,0.137280240654945,0.329729706048965,-33.6621627807617,0.087508425116539,0.102274566888809,0.237838432192802,2012-02-15 10:54:34
1.07800006866455,36,18.6083335876465,0.0935187265276909,0.127747684717178,0.308332651853561,2.5722222328186,0.101543255150318,0.126075640320778,0.327777832746506,-33.75,0.0972216352820396,0.1118029281497,0.249999150633812,2012-02-15 10:54:35
1.00999999046326,39,18.5461540222168,0.127021923661232,0.148231014609337,0.253846883773804,2.54871797561646,0.116765312850475,0.142993271350861,0.4512819647789,-33.7435913085938,0.12741556763649,0.14986264705658,0.256409764289856,2012-02-15 10:54:36
1.00099992752075,38,18.5315799713135,0.11024958640337,0.133978322148323,0.368420511484146,2.51052641868591,0.108033262193203,0.139150559902191,0.410526245832443,-33.7842102050781,0.133240357041359,0.156484454870224,0.284211099147797,2012-02-15 10:54:37
1.13599991798401,40,18.6424999237061,0.213125258684158,0.25385794043541,0.55750048160553,2.81750011444092,0.131000027060509,0.165661573410034,0.417499929666519,-33.7600021362305,0.105999305844307,0.128062143921852,0.340001583099365,2012-02-15 10:54:38
1,37,18.4891891479492,0.132359564304352,0.172084033489227,0.48918941617012,3.47567582130432,0.226296573877335,0.259318649768829,0.5756756067276,-33.6459465026855,0.0879468023777008,0.108040139079094,0.254054516553879,2012-02-15 10:54:39
1.00200009346008,39,18.1923084259033,0.111637264490128,0.142117038369179,0.307691872119904,3.77179479598999,0.214858636260033,0.283701449632645,0.671794712543488,-33.7000007629395,0.133333131670952,0.175411716103554,0.40000131726265,2012-02-15 10:54:40
1.02999997138977,38,18.1947383880615,0.213573470711708,0.31451490521431,0.894736349582672,3.38157892227173,0.388227164745331,0.431554883718491,0.91842120885849,-33.836841583252,0.18144066631794,0.216941580176353,0.463156133890152,2012-02-15 10:54:41
1.06900000572205,37,17.035135269165,0.164499953389168,0.198938205838203,0.464864730834961,4.58648681640625,0.16596058011055,0.191948994994164,0.386486321687698,-34.6189193725586,0.131920784711838,0.164132162928581,0.418918699026108,2012-02-15 10:54:42
1.01300001144409,41,17.036584854126,0.156811565160751,0.202130183577538,0.463414251804352,4.40975618362427,0.0864960923790932,0.120577603578568,0.309756278991699,-34.6292686462402,0.117191918194294,0.134787827730179,0.27073261141777,2012-02-15 10:54:43
1.0090000629425,42,17.1095237731934,0.294557988643646,0.357777327299118,0.790475606918335,4.39285707473755,0.108503326773643,0.131643131375313,0.292857319116592,-34.761905670166,0.112017676234245,0.139646396040916,0.33809706568718,2012-02-15 10:54:44
1.01900005340576,38,16.9078960418701,0.120913974940777,0.157916396856308,0.492104470729828,4.29473686218262,0.0911357328295708,0.116861060261726,0.205263018608093,-34.7131576538086,0.0889189094305038,0.10802249610424,0.213158458471298,2012-02-15 10:54:45
1.10899996757507,38,16.9052639007568,0.0706370994448662,0.0971901714801788,0.205262541770935,4.37631607055664,0.0865650177001953,0.103705480694771,0.223683997988701,-34.8210525512695,0.0897510945796967,0.107990905642509,0.221050664782524,2012-02-15 10:54:46
1.01799988746643,41,16.6585369110107,0.369660943746567,0.44665452837944,1.15853679180145,5.16585397720337,0.595954835414886,0.694441258907318,1.5341465473175,-34.7146339416504,0.111956633627415,0.145770981907845,0.385367423295975,2012-02-15 10:54:47
1.01300001144409,40,14.1050004959106,0.476999968290329,0.590741038322449,1.1949999332428,8.11000061035156,0.396000057458878,0.495378702878952,1.31000006198883,-35.8199996948242,0.225000292062759,0.264764338731766,0.620000004768372,2012-02-15 10:54:48
1.1159999370575,40,13.147500038147,0.190624952316284,0.246969133615494,0.747499585151672,8.8125,0.22562500834465,0.280345767736435,0.5875004529953,-36.1474990844727,0.157749682664871,0.1897202283144,0.352499306201935,2012-02-15 10:54:49
1.00699996948242,40,12.5550003051758,0.445999950170517,0.535700380802155,1.64499962329865,9.01000022888184,0.339500039815903,0.410365730524063,0.909999787807465,-36.8175010681152,0.0960003659129143,0.115946993231773,0.21749821305275,2012-02-15 10:54:50
1.01900005340576,40,12.1625003814697,0.156249895691872,0.241544470191002,1.03749966621399,9.3125,0.133125096559525,0.195176243782043,0.712499797344208,-36.6025009155273,0.102999687194824,0.125473961234093,0.297500610351562,2012-02-15 10:54:51
1.10599994659424,41,12.8878049850464,0.585722804069519,0.655258357524872,1.31219470500946,8.55121994018555,0.830339133739471,0.933161973953247,1.9512197971344,-36.4780502319336,0.189886823296547,0.224707990884781,0.478049874305725,2012-02-15 10:54:52
1.01100015640259,40,16.2325000762939,0.850874960422516,0.955873250961304,1.83249962329865,4.65000009536743,0.885000050067902,1.00895988941193,1.94999980926514,-35.0849990844727,0.552750110626221,0.628311276435852,1.31500053405762,2012-02-15 10:54:53
1.01399993896484,38,17.3552627563477,0.120221138000488,0.146354377269745,0.455263793468475,3.54736852645874,0.175623267889023,0.220927268266678,0.552631437778473,-34.4105262756348,0.102770313620567,0.12521505355835,0.28947389125824,2012-02-15 10:54:54
1.00800013542175,39,17.4051284790039,0.0991451591253281,0.125980451703072,0.294872134923935,3.5230770111084,0.0978304222226143,0.127020195126534,0.32307693362236,-34.3230781555176,0.0915193259716034,0.114268161356449,0.323077470064163,2012-02-15 10:54:55
1.05799984931946,37,17.402702331543,0.11176023632288,0.134538948535919,0.29729750752449,3.39189195632935,0.122717343270779,0.153126657009125,0.308108121156693,-34.4000015258789,0.0864868834614754,0.116247728466988,0.300000160932541,2012-02-15 10:54:56
1.0090000629425,41,17.3390254974365,0.123735420405865,0.152823716402054,0.360975861549377,3.42682933807373,0.113027974963188,0.137972071766853,0.326829165220261,-34.5,0.0829276591539383,0.112619176506996,0.200001507997513,2012-02-15 10:54:57
1.00300002098083,38,16.9657897949219,0.12908573448658,0.161043003201485,0.434209823608398,3.77368426322937,0.118559516966343,0.149884521961212,0.426316022872925,-34.6605262756348,0.106786340475082,0.126780793070793,0.260525554418564,2012-02-15 10:54:58
1.00999999046326,38,16.7394733428955,0.12465363740921,0.144257426261902,0.260525912046432,3.9657895565033,0.10096950083971,0.119816340506077,0.265789449214935,-34.7763175964355,0.0865648090839386,0.108662314713001,0.276316195726395,2012-02-15 10:54:59
1.11500000953674,40,16.7450008392334,0.0972499698400497,0.111691392958164,0.254999458789825,3.70749998092651,0.138999983668327,0.16490526497364,0.307499974966049,-34.8650016784668,0.113250374794006,0.125598728656769,0.235002040863037,2012-02-15 10:55:01
1.0019998550415,41,17.2317066192627,0.290541410446167,0.359158217906952,0.768292427062988,3.30243897438049,0.125163614749908,0.156933754682541,0.30243906378746,-34.7902450561523,0.109934143722057,0.139344841241837,0.309757798910141,2012-02-15 10:55:02
1.01500010490417,40,16.9925003051758,0.0940000936388969,0.129204347729683,0.407499492168427,3.3600001335144,0.103000029921532,0.126095205545425,0.340000033378601,-34.8624992370605,0.0881255194544792,0.104133352637291,0.262498199939728,2012-02-15 10:55:03
1.01600003242493,40,17.0500011444092,0.145000219345093,0.180277660489082,0.449999749660492,3.55750012397766,0.148250013589859,0.175908342003822,0.457499861717224,-34.6725006103516,0.109374567866325,0.13961985707283,0.37250155210495,2012-02-15 10:55:04
1.07500004768372,35,17.3428573608398,0.124897487461567,0.141997113823891,0.257142961025238,3.26857137680054,0.104489751160145,0.123684883117676,0.231428533792496,-34.4742851257324,0.117877811193466,0.135947689414024,0.274285882711411,2012-02-15 10:55:05
1.0019998550415,38,16.9842109680176,0.308864206075668,0.359477818012238,0.715789794921875,3.86578965187073,0.318421065807343,0.365827351808548,0.765789389610291,-34.6289482116699,0.189888775348663,0.224672630429268,0.471054285764694,2012-02-15 10:55:06
1.00999999046326,40,16.5275001525879,0.143000140786171,0.185724899172783,0.472499758005142,4.15500020980835,0.0795001611113548,0.0947365835309029,0.255000025033951,-35.0275001525879,0.108875423669815,0.126466453075409,0.272498041391373,2012-02-15 10:55:07
1.10800004005432,39,16.615385055542,0.136883974075317,0.167237982153893,0.484615474939346,4.11538457870483,0.0930967628955841,0.11444066464901,0.284615457057953,-34.9410247802734,0.094543069601059,0.114842444658279,0.258974313735962,2012-02-15 10:55:08
1.0090000629425,40,16.5450000762939,0.0917502716183662,0.113908089697361,0.2550008893013,4.13500022888184,0.095000147819519,0.110792696475983,0.264999985694885,-34.9900016784668,0.0689997896552086,0.0943400710821152,0.290000140666962,2012-02-15 10:55:09
1.01399993896484,38,16.4421062469482,0.114958435297012,0.142591699957848,0.357895612716675,4.02368402481079,0.0970913916826248,0.126562267541885,0.323684185743332,-34.9263153076172,0.079224206507206,0.0991657823324203,0.226315855979919,2012-02-15 10:55:10
1,38,16.4815788269043,0.120360136032104,0.153649032115936,0.418420433998108,4.14473676681519,0.14182835817337,0.164951995015144,0.355263084173203,-34.9605255126953,0.10789480060339,0.138677343726158,0.439474493265152,2012-02-15 10:55:11
1.04999995231628,37,16.5945949554443,0.103725552558899,0.137439876794815,0.305404752492905,4.14594602584839,0.100803643465042,0.117622010409832,0.254054069519043,-35.094596862793,0.103725805878639,0.133448854088783,0.305406093597412,2012-02-15 10:55:12
1.00500011444092,40,16.5174999237061,0.0786252394318581,0.111551754176617,0.317499399185181,4.11250019073486,0.0968751162290573,0.118717178702354,0.28750005364418,-35.0650024414062,0.103500515222549,0.12951834499836,0.365000158548355,2012-02-15 10:55:13
1.00799989700317,38,16.6447372436523,0.258864492177963,0.314305901527405,0.655263960361481,4.11052656173706,0.112188495695591,0.133356496691704,0.310526460409164,-35.0552635192871,0.115512818098068,0.135136067867279,0.25526487827301,2012-02-15 10:55:14
1.00699996948242,39,16.4384613037109,0.137672543525696,0.162694200873375,0.361539155244827,4.08974361419678,0.0654832348227501,0.0899996981024742,0.210256591439247,-35.033332824707,0.085470624268055,0.0995718538761139,0.166666373610497,2012-02-15 10:55:15
1.10700011253357,37,16.3621616363525,0.0774281546473503,0.091093048453331,0.162161648273468,4.02432441711426,0.074799120426178,0.0912537574768066,0.175675928592682,-35.0189208984375,0.088386282324791,0.108647614717484,0.218920633196831,2012-02-15 10:55:16
1.00699996948242,39,16.5666675567627,0.116239547729492,0.143818661570549,0.333332598209381,3.83589744567871,0.0731098428368568,0.0861935392022133,0.164102554321289,-35.0256423950195,0.0994090214371681,0.119224384427071,0.225642770528793,2012-02-15 10:55:17
1.00099992752075,40,16.5925006866455,0.134375229477882,0.170861914753914,0.407499641180038,3.85750007629395,0.0902500227093697,0.113770589232445,0.257499903440475,-34.9400024414062,0.0920000150799751,0.109087571501732,0.260000139474869,2012-02-15 10:55:18
1.12100005149841,37,16.5054054260254,0.202483609318733,0.259881317615509,0.694595158100128,4.02702713012695,0.176625266671181,0.228566214442253,0.472972959280014,-34.9594612121582,0.0794738829135895,0.0943242236971855,0.240540474653244,2012-02-15 10:55:19
1.01399993896484,38,16.3078956604004,0.168697744607925,0.243203982710838,0.892105579376221,4.21052646636963,0.097506932914257,0.127298846840858,0.289473533630371,-35.0289497375488,0.111772999167442,0.137473031878471,0.271051198244095,2012-02-15 10:55:20
1.00999999046326,38,16.3157901763916,0.122714184224606,0.161450996994972,0.415789276361465,4.23947381973267,0.117313027381897,0.140561819076538,0.339473694562912,-35.1421051025391,0.130193486809731,0.153265178203583,0.34210667014122,2012-02-15 10:55:21
1.0770001411438,36,16.0666675567627,0.0796298459172249,0.0971827656030655,0.233334138989449,4.38888883590698,0.0962962284684181,0.126442238688469,0.311111271381378,-35.1805572509766,0.162808477878571,0.18976517021656,0.419445872306824,2012-02-15 10:55:22
1.0149998664856,42,16.0261917114258,0.123922996222973,0.14809837937355,0.373808711767197,4.33333349227905,0.0936507284641266,0.114780612289906,0.266666442155838,-35.3333320617676,0.120635494589806,0.152232348918915,0.366666972637177,2012-02-15 10:55:23
1.01100015640259,35,16.0914287567139,0.10742874443531,0.133890151977539,0.308570593595505,4.31428575515747,0.0702040269970894,0.0898978486657143,0.214285969734192,-35.2342872619629,0.117060728371143,0.141305655241013,0.334284633398056,2012-02-15 10:55:24
1.01699995994568,39,16.0205135345459,0.148323655128479,0.192393288016319,0.579487264156342,4.32307720184326,0.113214939832687,0.136741429567337,0.376923233270645,-35.302562713623,0.0858649984002113,0.118726588785648,0.297437816858292,2012-02-15 10:55:25
1.0239999294281,40,16.0100002288818,0.114500172436237,0.162480905652046,0.590000033378601,4.34750032424927,0.104624934494495,0.130360037088394,0.352500140666962,-35.2975006103516,0.103249423205853,0.131315156817436,0.30250158905983,2012-02-15 10:55:26
1.02699995040894,35,16.060001373291,0.140571653842926,0.165960595011711,0.360000610351562,4.3457145690918,0.0927346050739288,0.107816822826862,0.254285484552383,-35.3171424865723,0.118694342672825,0.150210797786713,0.317143470048904,2012-02-15 10:55:27
1.01200008392334,39,15.9512825012207,0.132281437516212,0.15831147134304,0.348718702793121,4.33589744567871,0.0852070301771164,0.104971669614315,0.264102309942245,-35.3076934814453,0.126627445220947,0.159139409661293,0.407691478729248,2012-02-15 10:55:28
1.00099992752075,37,15.8837842941284,0.0904311090707779,0.119714863598347,0.316216677427292,4.48378372192383,0.115704827010632,0.134593456983566,0.283783555030823,-35.2621612548828,0.0875085964798927,0.102274723351002,0.237837195396423,2012-02-15 10:55:29
1.01800012588501,40,16.060001373291,0.125000163912773,0.156205132603645,0.539999961853027,4.34999990463257,0.0949999243021011,0.111803315579891,0.250000238418579,-35.310001373291,0.098500557243824,0.13379094004631,0.39000016450882,2012-02-15 10:55:30
1.08200001716614,36,16.1555557250977,0.139506369829178,0.189215511083603,0.544444739818573,4.38611125946045,0.0836419090628624,0.110937297344208,0.313889056444168,-35.3305549621582,0.104012914001942,0.132956802845001,0.33055591583252,2012-02-15 10:55:31
1.00999999046326,38,15.9710531234741,0.103462539613247,0.127543479204178,0.271053075790405,4.29473686218262,0.091135710477829,0.12128122150898,0.294736981391907,-35.2078971862793,0.068697415292263,0.0928535461425781,0.207895383238792,2012-02-15 10:55:32
1.00099992752075,40,15.960000038147,0.101999886333942,0.130000054836273,0.35999995470047,4.27500009536743,0.0887499824166298,0.10897246748209,0.224999845027924,-35.2275009155273,0.107999570667744,0.135991469025612,0.327499210834503,2012-02-15 10:55:33
1.00999999046326,38,16.0157890319824,0.15789483487606,0.19402439892292,0.515789806842804,4.19473695755005,0.111634470522404,0.144999802112579,0.305263042449951,-35.2368431091309,0.103877574205399,0.126534596085548,0.263157278299332,2012-02-15 10:55:34
1.04900002479553,35,16.3485717773438,0.189877301454544,0.220870226621628,0.451429218053818,4.34285736083984,0.164897903800011,0.210150554776192,0.457142949104309,-34.7685737609863,0.10269320756197,0.121352396905422,0.231427878141403,2012-02-15 10:55:35
1.00200009346008,38,15.4947366714478,0.331025004386902,0.367743879556656,0.805264115333557,4.66578960418701,0.0905818566679955,0.113035514950752,0.26578950881958,-35.5289497375488,0.374792277812958,0.395971745252609,0.628946602344513,2012-02-15 10:55:36
1.00599980354309,37,15.343243598938,0.221329584717751,0.317541778087616,1.05675613880157,4.66486501693726,0.136888340115547,0.168002963066101,0.43513497710228,-35.6972999572754,0.170342773199081,0.209872975945473,0.502702653408051,2012-02-15 10:55:37
1.0090000629425,40,15.0125007629395,0.131249949336052,0.164601743221283,0.387500286102295,5.00750017166138,0.114750020205975,0.147288009524345,0.407500177621841,-35.8875007629395,0.156874656677246,0.181916460394859,0.312499701976776,2012-02-15 10:55:38
1.07100009918213,37,14.9783782958984,0.0886777192354202,0.118857398629189,0.378378212451935,5.05135154724121,0.106647193431854,0.128655478358269,0.251351237297058,-35.8297309875488,0.0872176215052605,0.11357806622982,0.270272225141525,2012-02-15 10:55:40
1.0090000629425,39,14.894871711731,0.0980934798717499,0.127999857068062,0.305127769708633,4.97179508209229,0.142406269907951,0.178237408399582,0.371795058250427,-35.9564094543457,0.0806047096848488,0.095528207719326,0.243589743971825,2012-02-15 10:55:41
1.00299978256226,38,15.0026321411133,0.103601090610027,0.142324328422546,0.302631884813309,5.05263137817383,0.0944598242640495,0.111772447824478,0.252631425857544,-35.9315795898438,0.0806091725826263,0.0976172164082527,0.231578826904297,2012-02-15 10:55:42
1.00200009346008,36,14.966667175293,0.129629552364349,0.166666701436043,0.433333694934845,4.98055553436279,0.0871913284063339,0.107547007501125,0.219444662332535,-35.9583358764648,0.0828701630234718,0.101036541163921,0.241666793823242,2012-02-15 10:55:43
1.02500009536743,34,15.1352939605713,0.322145283222198,0.37953719496727,0.764706194400787,5.06470584869385,0.125605583190918,0.143244713544846,0.264705806970596,-35.9941177368164,0.113149181008339,0.132712572813034,0.294117987155914,2012-02-15 10:55:44
1.0019998550415,37,14.9567565917969,0.0822496563196182,0.0973723083734512,0.256757259368896,5.04054069519043,0.0978816524147987,0.121831655502319,0.259459614753723,-36.0081100463867,0.0803513452410698,0.0996711999177933,0.208109989762306,2012-02-15 10:55:45
1.01900005340576,42,14.9499998092651,0.152380883693695,0.191796034574509,0.549999892711639,4.98571443557739,0.108843460679054,0.137271702289581,0.314285844564438,-35.9714279174805,0.125170230865479,0.14846183359623,0.328569769859314,2012-02-15 10:55:46
1.01300001144409,41,14.963415145874,0.0862579867243767,0.109891436994076,0.336585283279419,5.10243892669678,0.139440909028053,0.168910175561905,0.302438944578171,-36.0097579956055,0.108983397483826,0.135799527168274,0.309756219387054,2012-02-15 10:55:47
1.03800010681152,36,14.7638893127441,0.128549501299858,0.178189650177956,0.536111176013947,5.09166669845581,0.0787037163972855,0.103749230504036,0.29166653752327,-36.0611114501953,0.0978400111198425,0.116136431694031,0.261112630367279,2012-02-15 10:55:48
1.00699996948242,40,14.5699996948242,0.120500013232231,0.150332912802696,0.429999828338623,4.55250024795532,0.429875016212463,0.463134706020355,0.652499973773956,-36.4625015258789,0.136250078678131,0.163840815424919,0.362498581409454,2012-02-15 10:55:49
1.00399994850159,36,16.3472232818604,0.908024728298187,1.02780413627625,1.74722218513489,4.31666660308838,0.210185170173645,0.255495190620422,0.48333340883255,-35.0666694641113,0.94259250164032,1.05961179733276,1.66666615009308,2012-02-15 10:55:50
1.00699996948242,41,16.3731708526611,0.183580830693245,0.238924711942673,0.726829290390015,3.61951231956482,0.163355126976967,0.205081209540367,0.58048802614212,-35.0048789978027,0.166210830211639,0.224098354578018,0.604877471923828,2012-02-15 10:55:51
1.03099989891052,37,16.0432434082031,0.0977357104420662,0.122011438012123,0.356756061315536,3.69729733467102,0.106208883225918,0.132515132427216,0.297297239303589,-35.2054061889648,0.119648821651936,0.1432174295187,0.305404752492905,2012-02-15 10:55:52
1.00400018692017,41,16.1560974121094,0.106246523559093,0.128876686096191,0.343901962041855,3.60487818717957,0.103747755289078,0.132428020238876,0.395121902227402,-35.119514465332,0.0861385092139244,0.115228965878487,0.280488073825836,2012-02-15 10:55:53
1.01600003242493,40,15.9050006866455,0.190750166773796,0.217887833714485,0.395000845193863,3.95749998092651,0.395500034093857,0.453810304403305,0.84250009059906,-35.1425018310547,0.11249952018261,0.132074490189552,0.257500737905502,2012-02-15 10:55:54
1.01799988746643,41,15.5512199401855,0.113622814416885,0.143343165516853,0.448780298233032,4.67804908752441,0.0793576836585999,0.0950282067060471,0.221951201558113,-35.3512191772461,0.103510215878487,0.123212970793247,0.351220011711121,2012-02-15 10:55:55
1.01099991798401,31,15.987096786499,0.186680465936661,0.243286520242691,0.512902975082397,4.57096767425537,0.281581699848175,0.353045344352722,0.62903243303299,-35.0709686279297,0.130489468574524,0.159016251564026,0.329032897949219,2012-02-15 10:55:56
1.01400017738342,40,16.4099998474121,0.141999900341034,0.168522849678993,0.3900006711483,3.50500011444092,0.21050001680851,0.237644702196121,0.494999974966049,-34.8300018310547,0.127500385046005,0.160000041127205,0.469998747110367,2012-02-15 10:55:57
1.00699996948242,39,16.3076934814453,0.30453634262085,0.38322839140892,0.80769270658493,3.67179489135742,0.440762668848038,0.528155386447906,1.02820539474487,-34.8307685852051,0.15581887960434,0.181382060050964,0.369230717420578,2012-02-15 10:55:58
1.00699996948242,38,15.4815788269043,0.137118950486183,0.16991513967514,0.381578832864761,4.94736862182617,0.184210494160652,0.230259388685226,0.647368311882019,-35.2578964233398,0.109140820801258,0.133044168353081,0.257895320653915,2012-02-15 10:55:59
1.01300001144409,37,16.464864730835,0.256099224090576,0.320654898881912,0.664865136146545,3.59189200401306,0.401607036590576,0.46752855181694,0.908108055591583,-34.8297309875488,0.116435907781124,0.143064871430397,0.370270282030106,2012-02-15 10:56:00
1.0019998550415,34,15.8676471710205,0.45397937297821,0.484901875257492,0.732353091239929,4.16176462173462,0.697058796882629,0.729631125926971,1.03823554515839,-34.9911766052246,0.198097050189972,0.225398495793343,0.408824354410172,2012-02-15 10:56:01
1.06500005722046,35,15.6142864227295,0.277551054954529,0.353062450885773,0.885713994503021,4.90000009536743,0.319999992847443,0.420883446931839,1.29999995231628,-35.2514305114746,0.118530094623566,0.151885852217674,0.351427674293518,2012-02-15 10:56:02
1.01100015640259,41,16.4853668212891,0.219274312257767,0.287598133087158,0.685365915298462,3.55121946334839,0.303747773170471,0.354154407978058,0.648780703544617,-34.8878059387207,0.163712576031685,0.187662541866302,0.412193387746811,2012-02-15 10:56:03
1.02300000190735,38,15.581579208374,0.143767282366753,0.176001191139221,0.418420821428299,4.7315788269043,0.205263137817383,0.236315175890923,0.531578719615936,-35.086841583252,0.0759007707238197,0.100449040532112,0.213155850768089,2012-02-15 10:56:04
1.00599980354309,41,16.3170738220215,0.253301471471786,0.315380156040192,0.782926738262177,3.51951217651367,0.424866169691086,0.468635588884354,0.780487895011902,-34.7975616455078,0.0859008803963661,0.111503697931767,0.302440822124481,2012-02-15 10:56:05
1.14000010490417,40,15.7875003814697,0.336875081062317,0.398865669965744,0.787500202655792,4.35500001907349,0.474999994039536,0.54173332452774,1.0550000667572,-35.0875015258789,0.150625199079514,0.184644713997841,0.487498193979263,2012-02-15 10:56:06
1.00499987602234,40,16.0200004577637,0.569000005722046,0.703988552093506,1.47999978065491,4.18249988555908,0.60512501001358,0.686617612838745,1.08249986171722,-34.9874992370605,0.228125289082527,0.256112933158875,0.487500965595245,2012-02-15 10:56:07
1.007000207901,38,16.1657905578613,0.371191054582596,0.416297137737274,0.765789091587067,3.84210538864136,0.693074822425842,0.751710891723633,1.25789451599121,-34.8894729614258,0.23628805577755,0.271243840456009,0.510526955127716,2012-02-15 10:56:08
1.05599999427795,37,15.4540538787842,0.103725224733353,0.124324299395084,0.254054456949234,4.92432451248169,0.0937910154461861,0.114856839179993,0.275675863027573,-35.1405410766602,0.111906111240387,0.134484678506851,0.359458714723587,2012-02-15 10:56:09
1.0019998550415,35,15.6199998855591,0.0811426416039467,0.103647604584694,0.219999581575394,4.56285715103149,0.0845714136958122,0.10443240404129,0.262856960296631,-35.0742874145508,0.115102402865887,0.142112225294113,0.374285787343979,2012-02-15 10:56:10
1.00699996948242,39,15.8256416320801,0.121367692947388,0.14973147213459,0.374359607696533,4.57435894012451,0.0675870925188065,0.0868773311376572,0.174358874559402,-34.9923095703125,0.106903620064259,0.128870651125908,0.207692265510559,2012-02-15 10:56:11
1.00699996948242,40,15.7700004577637,0.157000124454498,0.195192322134972,0.530001044273376,4.46750020980835,0.0907499343156815,0.108137592673302,0.232500225305557,-35,0.0900003984570503,0.122474566102028,0.300000101327896,2012-02-15 10:56:12
1.04100012779236,37,15.9513511657715,0.309715181589127,0.351538479328156,0.7486492395401,4.44054079055786,0.142293617129326,0.168393775820732,0.359459489583969,-35.0432434082031,0.0892627984285355,0.107905380427837,0.256755203008652,2012-02-15 10:56:13
1.01099991798401,38,15.855263710022,0.104986257851124,0.127108290791512,0.255263030529022,4.44210529327393,0.0916896909475327,0.113859459757805,0.257894933223724,-34.9631576538086,0.075623095035553,0.0871211066842079,0.163159623742104,2012-02-15 10:56:14
1.01200008392334,39,15.7948722839355,0.118343383073807,0.155165433883667,0.405128806829453,4.52564096450806,0.0763970762491226,0.0925921350717545,0.225640848278999,-34.9743614196777,0.122419260442257,0.154783368110657,0.325639575719833,2012-02-15 10:56:15
1.1340000629425,37,15.7837839126587,0.109423093497753,0.134593605995178,0.316216468811035,4.45945930480957,0.081519328057766,0.0998903661966324,0.240540742874146,-34.9567565917969,0.110007293522358,0.134647995233536,0.343241602182388,2012-02-15 10:56:16
1.00799989700317,41,15.7390241622925,0.101487308740616,0.118688113987446,0.260975420475006,4.3926830291748,0.0775728151202202,0.097255565226078,0.292683124542236,-34.9975624084473,0.0765020623803139,0.099970705807209,0.202438816428185,2012-02-15 10:56:17
1.00999999046326,40,15.6875,0.0787499397993088,0.105326920747757,0.21250057220459,4.5,0.0999999865889549,0.130384027957916,0.300000131130219,-35.057502746582,0.106000669300556,0.133954554796219,0.35750025510788,2012-02-15 10:56:18
1.11500000953674,40,15.7975006103516,0.262250036001205,0.318188190460205,0.702499747276306,4.49250030517578,0.103624954819679,0.131124928593636,0.307500123977661,-35.0750007629395,0.101250551640987,0.127965047955513,0.325000375509262,2012-02-15 10:56:19
1.00799989700317,40,15.7449998855591,0.144000202417374,0.188348263502121,0.555000960826874,4.4375,0.0956249237060547,0.111102350056171,0.26250022649765,-35.0050010681152,0.0820004642009735,0.109430462121964,0.294998347759247,2012-02-15 10:56:20
1.00200009346008,39,15.7128210067749,0.0908613726496696,0.126449540257454,0.287179440259933,4.35897445678711,0.106640286743641,0.127536654472351,0.258974552154541,-35.033332824707,0.0820519253611565,0.0942811220884323,0.166666179895401,2012-02-15 10:56:21
1.00600004196167,40,15.6550006866455,0.133749976754189,0.158034831285477,0.344999730587006,4.40500020980835,0.111749909818172,0.141332849860191,0.305000156164169,-35.0074996948242,0.0858753174543381,0.112666629254818,0.207501500844955,2012-02-15 10:56:22
1.0220000743866,34,15.7235298156738,0.101038157939911,0.135166242718697,0.476471185684204,4.3735294342041,0.0723182708024979,0.0884799659252167,0.226470366120338,-35.1117668151855,0.102075584232807,0.127797156572342,0.311766356229782,2012-02-15 10:56:23
1.00499987602234,35,15.6942853927612,0.09322439879179,0.128603234887123,0.405714571475983,4.38571453094482,0.0906121581792831,0.109916374087334,0.214285507798195,-35.0457153320312,0.095347598195076,0.117941826581955,0.354286193847656,2012-02-15 10:56:25
1.01900005340576,41,15.9097566604614,0.251873940229416,0.307471960783005,0.690244019031525,4.42682933807373,0.166686475276947,0.203654915094376,0.373170793056488,-35.058536529541,0.118501082062721,0.136105194687843,0.258538216352463,2012-02-15 10:56:26
1.01600003242493,42,15.6452379226685,0.09024927765131,0.109549663960934,0.254762351512909,4.28571462631226,0.109523758292198,0.13552613556385,0.314285457134247,-35.045238494873,0.102381482720375,0.121894635260105,0.25476011633873,2012-02-15 10:56:27
1.01099991798401,36,15.5888891220093,0.118518531322479,0.150513499975204,0.31111142039299,4.39444446563721,0.0904320329427719,0.117720030248165,0.294444620609283,-35.1111106872559,0.103085920214653,0.126442089676857,0.311112523078918,2012-02-15 10:56:28
1.01999998092651,38,15.6315793991089,0.143767222762108,0.171840265393257,0.368420869112015,4.25,0.105263166129589,0.129269227385521,0.250000149011612,-35.1210517883301,0.0969525948166847,0.110400766134262,0.221051767468452,2012-02-15 10:56:29
1.01699995994568,39,15.6538467407227,0.0859958827495575,0.105844922363758,0.253845721483231,4.28717947006226,0.0933596193790436,0.118060141801834,0.287179619073868,-35.0692329406738,0.0966474711894989,0.120157659053802,0.330769866704941,2012-02-15 10:56:30
1.00400018692017,38,15.6763162612915,0.143213286995888,0.170809626579285,0.476316183805466,4.36315774917603,0.136011064052582,0.170789271593094,0.36315792798996,-35.0236854553223,0.115651451051235,0.134622946381569,0.276314079761505,2012-02-15 10:56:31
1.04499983787537,38,15.9526319503784,0.313573390245438,0.371155321598053,0.647368609905243,4.37105274200439,0.091412678360939,0.114496327936649,0.3289475440979,-34.9894752502441,0.07811638712883,0.109519608318806,0.310525000095367,2012-02-15 10:56:32
1.00600004196167,41,15.6902437210083,0.095776230096817,0.122583769261837,0.290243446826935,4.32682943344116,0.105532377958298,0.124986603856087,0.226829469203949,-35.0219535827637,0.072814404964447,0.0897483229637146,0.178048580884933,2012-02-15 10:56:33
1.01500010490417,40,15.664999961853,0.0867498517036438,0.101365655660629,0.235000446438789,4.3125,0.103749968111515,0.130743071436882,0.31250011920929,-35.0224990844727,0.0731258168816566,0.0935085415840149,0.222501665353775,2012-02-15 10:56:34
1.0019998550415,39,15.7461538314819,0.101380810141563,0.119499377906322,0.25384595990181,4.2615385055542,0.113215014338493,0.135145500302315,0.338461339473724,-34.9923095703125,0.0863904803991318,0.1071417927742,0.207692071795464,2012-02-15 10:56:35
1.02800011634827,36,15.7722225189209,0.123765528202057,0.142616674304008,0.327777922153473,4.31666660308838,0.0814814269542694,0.104083254933357,0.283333092927933,-34.9249992370605,0.113888636231422,0.144096732139587,0.324998438358307,2012-02-15 10:56:36
1.01300001144409,40,15.7825002670288,0.124250136315823,0.156345039606094,0.417500585317612,4.19500017166138,0.096250131726265,0.120312169194221,0.304999887943268,-34.935001373291,0.101500011980534,0.121552750468254,0.334998309612274,2012-02-15 10:56:37
1.01799988746643,38,15.9473686218262,0.267590075731277,0.323416739702225,0.652631759643555,4.28684234619141,0.100831031799316,0.137976095080376,0.413158029317856,-34.8815803527832,0.107479780912399,0.13544362783432,0.381579637527466,2012-02-15 10:56:38
1.00999999046326,37,15.7297296524048,0.12344790995121,0.157454252243042,0.429729700088501,4.17027044296265,0.122425250709057,0.150431618094444,0.329729646444321,-34.9351348876953,0.0974432379007339,0.123499169945717,0.335133731365204,2012-02-15 10:56:39
1.01399993896484,32,15.7937498092651,0.101953275501728,0.132139936089516,0.293750166893005,4.11250019073486,0.10859389603138,0.143069133162498,0.31250011920929,-34.8500022888184,0.112500309944153,0.127475455403328,0.250001788139343,2012-02-15 10:56:40
1.01200008392334,42,15.7904767990112,0.121768824756145,0.154009267687798,0.409524321556091,4.15238094329834,0.10476204007864,0.11596006155014,0.152381047606468,-34.9642868041992,0.0928571820259094,0.108719035983086,0.235714137554169,2012-02-15 10:56:41
1.01699995994568,39,15.720513343811,0.0980934128165245,0.122326739132404,0.279487043619156,4.20512819290161,0.128862634301186,0.160046055912971,0.394871592521667,-34.966667175293,0.104273587465286,0.122649244964123,0.266666889190674,2012-02-15 10:56:42
1.00699996948242,38,15.7289476394653,0.115512549877167,0.143100798130035,0.371052831411362,4.17105293273926,0.112465500831604,0.133589968085289,0.271052658557892,-35.0263175964355,0.104155652225018,0.127081170678139,0.273682534694672,2012-02-15 10:56:43
1.00300002098083,34,15.894118309021,0.205536484718323,0.263395488262177,0.505881786346436,4.16176462173462,0.185294196009636,0.219645068049431,0.461764723062515,-34.8500022888184,0.079412430524826,0.0947133451700211,0.249998316168785,2012-02-15 10:56:44
1.00800013542175,38,15.7289476394653,0.125207901000977,0.153739243745804,0.371052801609039,4.03684234619141,0.113019414246082,0.142202734947205,0.36315792798996,-34.8789482116699,0.0864273384213448,0.107991352677345,0.321053057909012,2012-02-15 10:56:45
1,37,15.6972970962524,0.143170163035393,0.170034199953079,0.402702897787094,4.10270261764526,0.0739227160811424,0.0999635681509972,0.302702814340591,-34.902702331543,0.100803509354591,0.130459979176521,0.297297298908234,2012-02-15 10:56:46
1.00499987602234,40,15.6725006103516,0.12387490272522,0.149979159235954,0.327499836683273,4.0149998664856,0.0710000023245811,0.0909670367836952,0.185000255703926,-34.7299995422363,0.100499622523785,0.130766734480858,0.370001405477524,2012-02-15 10:56:47
1.16900014877319,39,15.7435903549194,0.119395241141319,0.14463908970356,0.356410473585129,4.01025629043579,0.0987508073449135,0.117221854627132,0.210256472229958,-34.769229888916,0.128993839025497,0.157144144177437,0.36923012137413,2012-02-15 10:56:48
1.02600002288818,40,15.7200002670288,0.145000129938126,0.179164856672287,0.480000495910645,4,0.130000025033951,0.168819472193718,0.400000065565109,-34.9425010681152,0.0874999985098839,0.102195143699646,0.24249991774559,2012-02-15 10:56:49
1.01300001144409,41,15.7195119857788,0.112552158534527,0.141799479722977,0.380488038063049,4.12439012527466,0.0895896852016449,0.107704497873783,0.224390253424644,-34.824390411377,0.118858277797699,0.149438753724098,0.324390888214111,2012-02-15 10:56:50
1.04299998283386,36,15.7694444656372,0.113425992429256,0.135029733181,0.269444644451141,3.97499990463257,0.143055528402328,0.170579060912132,0.374999850988388,-34.8361129760742,0.0901240855455399,0.110937476158142,0.26389068365097,2012-02-15 10:56:51
1.00699996948242,39,16.3564109802246,0.218408778309822,0.251961439847946,0.456410020589828,2.98205137252808,0.315450370311737,0.365058332681656,0.717948734760284,-34.4435920715332,0.13635778427124,0.161396235227585,0.356408923864365,2012-02-15 10:56:52
1.01899981498718,40,17.9050006866455,0.905000030994415,0.941262483596802,1.3050000667572,2.81000018119812,0.219999998807907,0.235372051596642,0.389999985694885,-33.3199996948242,0.584999918937683,0.631347715854645,0.979998469352722,2012-02-15 10:56:53
1.09300017356873,37,18.0810813903809,0.726515591144562,0.768233299255371,1.21891963481903,2.02972984313965,0.380715847015381,0.435495883226395,0.870270311832428,-33.0054054260254,0.816070258617401,0.90731143951416,1.30540537834167,2012-02-15 10:56:54
1.00499987602234,40,16.0499992370605,0.290000140666962,0.372155964374542,0.84999942779541,3.83249998092651,0.832500040531158,0.938985526561737,2.03250002861023,-34.6275024414062,0.149374604225159,0.176050260663033,0.372499376535416,2012-02-15 10:56:55
1,40,15.0425004959106,0.586750030517578,0.677822768688202,1.15750050544739,5.84250020980835,0.277499973773956,0.305685728788376,0.557500004768372,-35.1399993896484,0.235000044107437,0.26814204454422,0.640000700950623,2012-02-15 10:56:56
1,39,16.7435894012451,0.402761220932007,0.49240118265152,1.05641114711761,3.5,0.661538481712341,0.831433773040771,1.80000019073486,-33.9128227233887,0.363182187080383,0.43215599656105,0.787179291248322,2012-02-15 10:56:57
1.05299997329712,38,15.2263164520264,0.698892116546631,0.860747754573822,1.67368352413177,5.11578941345215,0.919390559196472,1.07275497913361,2.11578965187073,-34.7078971862793,0.360526233911514,0.457327306270599,1.20789539813995,2012-02-15 10:56:58
1.01700019836426,38,14.3052635192871,0.66952908039093,0.763974130153656,1.59473729133606,5.86578941345215,0.816759049892426,0.939562201499939,1.9657895565033,-35.2236862182617,0.321190923452377,0.383497834205627,0.823683381080627,2012-02-15 10:56:59
1.00099992752075,39,16.3897438049316,0.268507361412048,0.343283444643021,0.789743661880493,3.14358973503113,0.421301752328873,0.477060884237289,0.856410205364227,-34.2461547851562,0.13175493478775,0.156640931963921,0.346153050661087,2012-02-15 10:57:00
1.00999999046326,39,14.8794870376587,0.381065040826797,0.454142928123474,0.920512855052948,5.54871797561646,0.560946762561798,0.69499009847641,1.44871819019318,-35.1384620666504,0.250098437070847,0.331751734018326,0.938461601734161,2012-02-15 10:57:01
1.08100008964539,38,15.7868423461914,0.35803347826004,0.452578276395798,1.08684253692627,3.94473695755005,0.526731312274933,0.698380589485168,1.75526344776154,-34.5499992370605,0.221053048968315,0.277915418148041,0.650000095367432,2012-02-15 10:57:02
1.01799988746643,40,16.1900005340576,0.0970002338290215,0.122065708041191,0.309999316930771,3.50250005722046,0.0586250424385071,0.0821203589439392,0.202500104904175,-34.3325004577637,0.0891255438327789,0.10580050945282,0.23249825835228,2012-02-15 10:57:03
1.00099992752075,37,16.1567573547363,0.131629079580307,0.15860977768898,0.356756985187531,3.44324326515198,0.0891161486506462,0.102773830294609,0.243243217468262,-34.4108123779297,0.143754452466965,0.185681581497192,0.389187693595886,2012-02-15 10:57:04
1.01300001144409,39,16.1051292419434,0.0988826230168343,0.1299879103899,0.305128514766693,3.45384621620178,0.0859960541129112,0.100883699953556,0.246153846383095,-34.3743591308594,0.103222087025642,0.117053732275963,0.225643053650856,2012-02-15 10:57:05
1.01699995994568,34,16.0794124603271,0.0960209518671036,0.118270620703697,0.279412031173706,3.47058820724487,0.101730100810528,0.122545123100281,0.229411765933037,-34.3735313415527,0.0899659618735313,0.109299570322037,0.273527592420578,2012-02-15 10:57:06
1.01100015640259,42,16.2738094329834,0.272335708141327,0.355942517518997,0.926190733909607,3.52142858505249,0.0911565199494362,0.120585344731808,0.378571450710297,-34.3690490722656,0.140816777944565,0.16255147755146,0.330952703952789,2012-02-15 10:57:07
1.01099991798401,40,16.0950012207031,0.081750214099884,0.111691817641258,0.29500025510788,3.45250010490417,0.0874999910593033,0.104851104319096,0.252499997615814,-34.4874992370605,0.126250311732292,0.161536067724228,0.412500858306885,2012-02-15 10:57:08
1.00200009346008,40,16.1100006103516,0.104000136256218,0.142828613519669,0.389999628067017,3.4375,0.101250015199184,0.117659509181976,0.262500017881393,-34.375,0.138750240206718,0.171391263604164,0.324999898672104,2012-02-15 10:57:09
1.05499982833862,35,16.0285720825195,0.137142941355705,0.195040553808212,0.571428716182709,3.50857138633728,0.0955102518200874,0.12040750682354,0.308571457862854,-34.391429901123,0.096980057656765,0.125063449144363,0.308571517467499,2012-02-15 10:57:10
1.01800012588501,39,15.9948720932007,0.083234578371048,0.108483105897903,0.294872343540192,3.54358983039856,0.125443801283836,0.149862974882126,0.356410324573517,-34.3974380493164,0.0958584547042847,0.131045684218407,0.30256399512291,2012-02-15 10:57:11
1.0149998664856,39,15.9000005722046,0.123077027499676,0.143223062157631,0.29999977350235,3.46410250663757,0.109007216989994,0.142301917076111,0.364102452993393,-34.528205871582,0.112294569611549,0.141328126192093,0.371795743703842,2012-02-15 10:57:12
1.125,41,16.1463413238525,0.307554960250854,0.35756453871727,0.753657937049866,3.60000014305115,0.112195141613483,0.137928918004036,0.300000101327896,-34.3804893493652,0.12433122843504,0.146869242191315,0.319512248039246,2012-02-15 10:57:14
1.00500011444092,39,15.9076929092407,0.136489197611809,0.159139901399612,0.392308682203293,3.48717951774597,0.100328728556633,0.122326776385307,0.31282040476799,-34.6076927185059,0.101380363106728,0.122755870223045,0.292308330535889,2012-02-15 10:57:15
1.01999998092651,40,16.0349998474121,0.143250271677971,0.179652735590935,0.435000002384186,3.52250003814697,0.0947500392794609,0.11065150052309,0.222500115633011,-34.5300025939941,0.0810005962848663,0.0979796722531319,0.269998162984848,2012-02-15 10:57:16
1.00999999046326,38,15.9473686218262,0.131578847765923,0.177314519882202,0.547368168830872,3.4657895565033,0.0923822671175003,0.117599509656429,0.265789479017258,-34.5815811157227,0.127562448382378,0.150184333324432,0.381579041481018,2012-02-15 10:57:17
1.01999998092651,36,15.9833335876465,0.129629611968994,0.160727605223656,0.416665971279144,3.46111106872559,0.146604970097542,0.168782889842987,0.361110985279083,-34.630558013916,0.095061220228672,0.110099233686924,0.230554789304733,2012-02-15 10:57:18
1.00800013542175,38,15.9500007629395,0.128947332501411,0.161815464496613,0.449999332427979,3.44210529327393,0.104432143270969,0.12275692075491,0.25789475440979,-34.5447387695312,0.112050175666809,0.133174568414688,0.355263859033585,2012-02-15 10:57:19
1,39,16.1076927185059,0.185404524207115,0.25858074426651,0.692308366298676,3.47948718070984,0.100065745413303,0.126449525356293,0.320512712001801,-34.5051307678223,0.103485055267811,0.121842354536057,0.294869840145111,2012-02-15 10:57:20
1.01199984550476,40,15.8400001525879,0.134000062942505,0.156205013394356,0.260000169277191,3.39249992370605,0.0940000414848328,0.123262956738472,0.307500004768372,-34.5325012207031,0.0941258296370506,0.114864632487297,0.232501700520515,2012-02-15 10:57:21
1.01699995994568,37,15.878378868103,0.121840924024582,0.150916501879692,0.321622133255005,3.49189186096191,0.0911614373326302,0.11241427063942,0.208108097314835,-34.4540557861328,0.12242541462183,0.144437104463577,0.354052573442459,2012-02-15 10:57:22
1.0090000629425,39,15.9307699203491,0.101380586624146,0.115811198949814,0.269231259822845,3.39487171173096,0.073504313826561,0.0932290405035019,0.205128327012062,-34.5794868469238,0.0846817120909691,0.104217402637005,0.220511123538017,2012-02-15 10:57:23
1.00999999046326,35,15.9428577423096,0.135510221123695,0.166108101606369,0.357143700122833,3.29714298248291,0.0951836481690407,0.127583503723145,0.302857249975204,-34.5,0.142857700586319,0.195667490363121,0.500000894069672,2012-02-15 10:57:24
1.01999998092651,40,16.6025009155273,0.393124759197235,0.478793859481812,1.59750032424927,2.89000010490417,0.272500038146973,0.317647635936737,0.590000092983246,-34.0375022888184,0.273125022649765,0.302231132984161,0.537500977516174,2012-02-15 10:57:25
1.05400013923645,37,17.659460067749,0.479327887296677,0.546961724758148,1.04054093360901,2.76756763458252,0.152373969554901,0.172507807612419,0.332432508468628,-33.4054069519043,0.126515701413155,0.165946930646896,0.394593209028244,2012-02-15 10:57:26
1.02199983596802,41,18.0073165893555,0.571564435958862,0.629126369953156,1.29268360137939,2.31951212882996,0.388935178518295,0.538389444351196,1.61951220035553,-33.2731704711914,0.179059788584709,0.210717990994453,0.473171889781952,2012-02-15 10:57:27
1.007000207901,38,18.4026317596436,0.129916712641716,0.176942810416222,0.497367650270462,-0.00263157929293811,0.302077561616898,0.373804658651352,0.802631616592407,-32.8684234619141,0.113573521375656,0.133977875113487,0.268419474363327,2012-02-15 10:57:28
1.00299978256226,39,18.3410263061523,0.212228655815125,0.235031887888908,0.441026300191879,-0.648717939853668,0.139776453375816,0.164662510156631,0.351282030344009,-32.9871788024902,0.118343316018581,0.143544301390648,0.287179887294769,2012-02-15 10:57:29
1.00400018692017,39,18.8743591308594,0.166074633598328,0.197052523493767,0.425641775131226,-1.9487179517746,0.324523359537125,0.408167779445648,0.948717951774597,-32.787181854248,0.143326431512833,0.188352540135384,0.487180769443512,2012-02-15 10:57:30
1.00499987602234,35,19.7114295959473,0.217469334602356,0.279562264680862,0.788571059703827,-3.87714290618896,0.534693956375122,0.585093796253204,1.07714295387268,-31.9942855834961,0.291265279054642,0.32508710026741,0.605715870857239,2012-02-15 10:57:31
1.01699995994568,42,20.5714282989502,0.212925255298615,0.272803515195847,0.628571927547455,-4.37619066238403,0.153514698147774,0.186202049255371,0.423809617757797,-31.3999996185303,0.104761801660061,0.132736518979073,0.300000339746475,2012-02-15 10:57:32
1.01700019836426,39,20.2230777740479,0.168836385011673,0.220095038414001,0.523076713085175,-3.16923069953918,0.480867832899094,0.559374094009399,1.06923067569733,-31.4846153259277,0.0966468006372452,0.138745933771133,0.41538405418396,2012-02-15 10:57:33
1.04599976539612,36,18.6388893127441,0.377469331026077,0.485499709844589,1.06111168861389,-0.519444465637207,0.610493838787079,0.681835532188416,1.48055553436279,-32.8194465637207,0.341820895671844,0.402643471956253,0.819445192813873,2012-02-15 10:57:34
1.02000021934509,36,18.7888889312744,0.195061564445496,0.219567462801933,0.41111171245575,-0.425000011920929,0.193055555224419,0.238484799861908,0.625,-32.755558013916,0.136419296264648,0.165738061070442,0.344446063041687,2012-02-15 10:57:35
1.01199984550476,39,18.8410263061523,0.249309629201889,0.278013169765472,0.54102498292923,-0.523076951503754,0.122287973761559,0.150999307632446,0.32307693362236,-32.6743583679199,0.120052300393581,0.148008674383163,0.325640469789505,2012-02-15 10:57:36
1.01999998092651,39,17.5179481506348,0.441683113574982,0.526172339916229,1.01794898509979,0.774358987808228,0.658251166343689,0.724911332130432,1.12564098834991,-34.1589736938477,0.501511812210083,0.581208825111389,1.05897271633148,2012-02-15 10:57:37
1.03200006484985,36,15.402777671814,0.497222244739532,0.552512586116791,1.19722235202789,1.96944451332092,0.26003086566925,0.289462566375732,0.530555486679077,-35.8027801513672,0.385802447795868,0.424582034349442,0.802778542041779,2012-02-15 10:57:38
1.00600004196167,38,14.668420791626,0.435734033584595,0.576333820819855,2.03157949447632,2.51578950881958,0.272853195667267,0.349831789731979,0.884210586547852,-36.8315811157227,0.149307906627655,0.19071252644062,0.53158038854599,2012-02-15 10:57:39
1.00799989700317,40,16.4050006866455,0.515249967575073,0.617231726646423,1.50499963760376,1.00750005245209,0.883625030517578,0.98625236749649,1.7924998998642,-37.3424987792969,0.14100044965744,0.180121436715126,0.457498639822006,2012-02-15 10:57:40
1.08599996566772,39,15.5333337783813,0.555555701255798,0.672665476799011,1.33333373069763,-0.279487192630768,0.526627242565155,0.628869354724884,1.22051286697388,-37.1025657653809,0.151479110121727,0.177572041749954,0.402564108371735,2012-02-15 10:57:41
1.01100015640259,40,15.0825004577637,0.505999982357025,0.609871864318848,1.28250002861023,0.879999995231628,0.47800001502037,0.568418860435486,1.22000014781952,-37.432502746582,0.300999999046326,0.338664710521698,0.632501780986786,2012-02-15 10:57:42
1.00399994850159,36,13.2555561065674,0.987037003040314,1.12037789821625,1.94444406032562,3.75277781486511,0.88811731338501,1.0095340013504,1.75277781486511,-38.5111122131348,0.470370471477509,0.530082762241364,0.911109507083893,2012-02-15 10:57:43
1.01999998092651,32,10.9718751907349,0.308593720197678,0.398618251085281,1.12812519073486,4.50937509536743,0.363867193460464,0.411065220832825,0.809375047683716,-39.7437515258789,0.191796660423279,0.239710211753845,0.543749451637268,2012-02-15 10:57:44
1.01800012588501,42,14.4261903762817,0.897392272949219,1.04927623271942,2.52619004249573,0.209523811936378,0.944671213626862,1.07300412654877,2.29047608375549,-38.8952407836914,0.380498826503754,0.474568545818329,1.10476088523865,2012-02-15 10:57:45
1.09099984169006,40,11.1325006484985,2.06087517738342,2.27248644828796,3.46750020980835,2.76999998092651,1.75699996948242,1.87552666664124,2.87000012397766,-40.2425003051758,0.593249976634979,0.672639429569244,1.142498254776,2012-02-15 10:57:46
1.01999998092651,40,10.585000038147,1.66225004196167,1.77109432220459,2.48499989509583,2.24750018119812,1.83462500572205,2.00997352600098,3.24750018119812,-40.4799995422363,0.478999853134155,0.52640289068222,0.920000731945038,2012-02-15 10:57:47
1.00800013542175,38,12.4421052932739,1.02576172351837,1.2394038438797,2.54210472106934,0.381578981876373,1.48684215545654,1.64778244495392,2.71842122077942,-40.1210517883301,0.385318219661713,0.432348161935806,0.678946256637573,2012-02-15 10:57:48
1.00399994850159,37,8.47297286987305,0.515266597270966,0.625860989093781,1.32702708244324,4.49189186096191,0.501972258090973,0.582343101501465,1.19189202785492,-41.1675682067871,0.150328323245049,0.187521696090698,0.367569178342819,2012-02-15 10:57:49
1.06699991226196,38,12.0657892227173,0.881717443466187,1.149662733078,2.76578950881958,-0.360526323318481,1.1487535238266,1.50132215023041,3.66052627563477,-40.1894760131836,0.219390451908112,0.293606996536255,0.710526943206787,2012-02-15 10:57:50
1.01100015640259,39,10.2102565765381,2.46337938308716,2.60589027404785,4.28974342346191,2.39743590354919,2.10558843612671,2.26052951812744,3.39743590354919,-40.9564094543457,0.461669743061066,0.496032804250717,0.956410944461823,2012-02-15 10:57:51
1.00099992752075,40,8.6225004196167,1.21750009059906,1.38157296180725,2.27750039100647,3.30750012397766,1.23250007629395,1.42344439029694,2.5074999332428,-41.3300018310547,0.246000289916992,0.303479790687561,0.570001125335693,2012-02-15 10:57:52
1.1010000705719,38,11.4263162612915,0.78808867931366,0.940795958042145,1.92631602287292,0.205263167619705,0.684764564037323,0.853767931461334,1.89473700523376,-41.1552658081055,0.248199373483658,0.297089010477066,0.644735217094421,2012-02-15 10:57:53
1.01600003242493,39,6.93589735031128,0.396581172943115,0.567263841629028,2.56410241127014,3.1538462638855,0.106508858501911,0.129785135388374,0.253846138715744,-42.3538475036621,0.174753680825233,0.208592772483826,0.553848087787628,2012-02-15 10:57:54
1.01899981498718,39,6.74358987808228,0.28731095790863,0.342535674571991,0.756410181522369,2.94615387916565,0.109270215034485,0.133678078651428,0.346153736114502,-42.6153869628906,0.11045328527689,0.129175588488579,0.284616231918335,2012-02-15 10:57:55
1,39,6.50769233703613,0.118737667798996,0.167001605033875,0.492307633161545,2.56923079490662,0.113609492778778,0.136163264513016,0.330769270658493,-42.6333351135254,0.0752130076289177,0.0915204286575317,0.233333006501198,2012-02-15 10:57:56
1.02300000190735,34,8.16176509857178,0.671280205249786,0.783286690711975,1.6617648601532,1.62647068500519,0.436678230762482,0.501356303691864,0.973529517650604,-42.0941200256348,0.248443081974983,0.295994013547897,0.594118475914001,2012-02-15 10:57:58
1.03600001335144,41,10.9560976028442,0.483997583389282,0.545065939426422,1.55609726905823,3.81615095079724e-09,0.409756124019623,0.536928951740265,1.30000007152557,-41.0146331787109,0.301368206739426,0.352386027574539,0.614633321762085,2012-02-15 10:57:59
1.00200009346008,35,10.1542863845825,0.713469386100769,0.827851891517639,1.34571409225464,2.00857138633728,0.266449004411697,0.325463563203812,0.708571374416351,-40.9114303588867,0.291755199432373,0.386760741472244,0.888570189476013,2012-02-15 10:58:00
1.0149998664856,39,9.4538459777832,0.519526600837708,0.575947880744934,1.04615366458893,-0.117948718369007,1.03287315368652,1.16594231128693,1.98205137252808,-41.6512832641602,0.103747189044952,0.125823989510536,0.351283550262451,2012-02-15 10:58:01
1.07800006866455,38,11.081579208374,0.599307477474213,0.721422374248505,1.58157908916473,-1.92368423938751,0.80817174911499,0.919792413711548,1.82368421554565,-41.542106628418,0.212742626667023,0.253015011548996,0.457893967628479,2012-02-15 10:58:02
1.02500009536743,40,7.43499994277954,0.311749994754791,0.379835486412048,0.865000128746033,0.837500035762787,0.453125029802322,0.638234913349152,2.93750023841858,-42.3424987792969,0.0917506963014603,0.115947350859642,0.257501780986786,2012-02-15 10:58:03
1.0019998550415,39,10.5923080444336,0.50848126411438,0.716252624988556,2.39230799674988,-3.41794872283936,0.459960550069809,0.548598110675812,1.21794867515564,-41.7102584838867,0.128073483705521,0.167630195617676,0.489743053913116,2012-02-15 10:58:04
1.00200009346008,36,8.15000057220459,1.32500004768372,1.63579750061035,3.84999990463257,-0.116666667163372,1.0120370388031,1.24710774421692,2.68333339691162,-42.4222221374512,0.25061759352684,0.30560627579689,0.722222208976746,2012-02-15 10:58:05
1.01200008392334,35,9.38857173919678,1.16979598999023,1.25533640384674,1.78857171535492,-2.10285711288452,1.59738779067993,1.70167744159698,2.50285720825195,-42.165714263916,0.368652909994125,0.404928684234619,0.565713047981262,2012-02-15 10:58:06
1.00699996948242,39,9.95641040802002,0.806837618350983,1.04508495330811,2.45641040802002,-2.18461537361145,1.26193296909332,1.44160497188568,2.58461546897888,-42.0076942443848,0.312031745910645,0.37442934513092,0.792306363582611,2012-02-15 10:58:07
1.01300001144409,40,8.65250015258789,0.905874967575073,1.02151536941528,1.7475004196167,-0.967500030994415,1.43449997901917,1.63972365856171,2.83249998092651,-42.2750015258789,0.191250115633011,0.23425455391407,0.475001633167267,2012-02-15 10:58:08
1.10699987411499,38,10.163158416748,0.646537363529205,0.735355615615845,1.96315824985504,-3.00789475440979,1.39529085159302,1.47708487510681,2.40789484977722,-41.9210548400879,0.228808626532555,0.285765528678894,0.678949177265167,2012-02-15 10:58:09
1.00699996948242,38,7.91578960418701,0.319113612174988,0.392378956079483,0.884210586547852,-0.502631604671478,0.519113600254059,0.639690220355988,1.39736843109131,-42.5526313781738,0.162881419062614,0.206138774752617,0.547369718551636,2012-02-15 10:58:10
1.40100002288818,35,9.68571472167969,0.282448917627335,0.323501229286194,0.785713911056519,-3.24857139587402,0.555755078792572,0.63442724943161,1.24857151508331,-42.060001373291,0.144000262022018,0.175986915826797,0.43999907374382,2012-02-15 10:58:11
1.00999999046326,40,8.06750011444092,0.556000053882599,0.640854001045227,1.33250045776367,-1.03999996185303,0.694999992847443,0.808640837669373,1.66000008583069,-42.5774993896484,0.125875219702721,0.154089912772179,0.377500355243683,2012-02-15 10:58:12
1.02999997138977,39,8.96923065185547,0.744378745555878,0.852794528007507,1.63076937198639,-2.30769228935242,1.0071005821228,1.11525201797485,1.80769228935242,-42.3282051086426,0.215779453516006,0.260127127170563,0.571795523166656,2012-02-15 10:58:13
1.00800013542175,32,10.5718755722046,0.289648503065109,0.324263095855713,0.571875214576721,-3.59375,0.168750017881393,0.204538360238075,0.406249940395355,-41.8968772888184,0.0919925272464752,0.123704336583614,0.296873569488525,2012-02-15 10:58:14
1.01699995994568,39,10.0743589401245,0.108349770307541,0.133431866765022,0.325641393661499,-3.75897431373596,0.13859298825264,0.170546516776085,0.358974307775497,-41.9538459777832,0.103747621178627,0.125772163271904,0.346152663230896,2012-02-15 10:58:15
1.00699996948242,40,9.90250015258789,0.108249895274639,0.144026905298233,0.302499920129776,-3.71500015258789,0.0837499499320984,0.108512625098228,0.314999938011169,-41.9750022888184,0.0887500047683716,0.106654100120068,0.224999904632568,2012-02-15 10:58:16
1.00500011444092,40,9.91499996185303,0.0974999070167542,0.129518315196037,0.284999489784241,-3.80250000953674,0.0981250181794167,0.121423825621605,0.202499896287918,-42.0250015258789,0.100000686943531,0.125996470451355,0.27499857544899,2012-02-15 10:58:17
1.15100002288818,33,9.83636379241943,0.0986226946115494,0.122643113136292,0.363636016845703,-3.89393949508667,0.0925620049238205,0.115310877561569,0.206060498952866,-42.009090423584,0.113499343395233,0.137870982289314,0.2909075319767,2012-02-15 10:58:18
1.01899981498718,41,9.8634147644043,0.319452732801437,0.391218274831772,0.836584985256195,-4.11707305908203,0.156692489981651,0.204703763127327,0.482926726341248,-42.131706237793,0.110528938472271,0.12579271197319,0.231706380844116,2012-02-15 10:58:19
1.00400018692017,39,9.89230823516846,0.0769231915473938,0.104720920324326,0.307691842317581,-4.91025638580322,0.124917760491371,0.166093662381172,0.41025647521019,-42.1589736938477,0.100591205060482,0.119223579764366,0.258973628282547,2012-02-15 10:58:20
1.04199981689453,37,9.87567615509033,0.14243982732296,0.177680864930153,0.375675857067108,-4.62972974777222,0.102410659193993,0.120505474507809,0.229729726910591,-42.2324333190918,0.105186052620411,0.131630092859268,0.332431793212891,2012-02-15 10:58:22
1.01600003242493,40,9.94750022888184,0.142499953508377,0.167313352227211,0.352500021457672,-4.66750001907349,0.104000128805637,0.125274777412415,0.267500042915344,-42.1150016784668,0.0932498723268509,0.129518583416939,0.2850002348423,2012-02-15 10:58:23
1.00399994850159,36,10.2055559158325,0.408333331346512,0.523314476013184,1.39444446563721,-4.77500009536743,0.131944477558136,0.163935974240303,0.375,-42.1944465637207,0.0901227965950966,0.117719672620296,0.30555459856987,2012-02-15 10:58:24
1.10900020599365,39,10.1769237518311,0.339250534772873,0.391225337982178,0.923077046871185,-5,0.153846189379692,0.185361757874489,0.400000244379044,-42.2102584838867,0.0992759764194489,0.119388595223427,0.289742887020111,2012-02-15 10:58:25
1.02799987792969,38,10.1105270385742,0.236010923981667,0.299815118312836,0.789474010467529,-5.00526332855225,0.0963988974690437,0.121281251311302,0.205263033509254,-42.2736854553223,0.0886421501636505,0.113980926573277,0.273684561252594,2012-02-15 10:58:26
1,39,9.84102630615234,0.0758713334798813,0.0897803604602814,0.241025552153587,-5.25128221511841,0.101249195635319,0.123769447207451,0.251282185316086,-42.3410263061523,0.124129466712475,0.154783725738525,0.341026306152344,2012-02-15 10:58:27
1.07500004768372,39,9.7615385055542,0.0844182893633842,0.110047593712807,0.338461816310883,-5.33846187591553,0.1143983528018,0.131296008825302,0.261538237333298,-42.3923072814941,0.0721899941563606,0.0997039675712585,0.292306065559387,2012-02-15 10:58:28
1.01199984550476,41,9.71951198577881,0.0958953872323036,0.131073445081711,0.480487495660782,-4.85121965408325,0.215942859649658,0.248038113117218,0.451219499111176,-42.3268280029297,0.0801909938454628,0.0988332107663155,0.226827383041382,2012-02-15 10:58:29
1.01500010490417,38,9.40263175964355,0.212742298841476,0.261057376861572,0.602631568908691,-4.61315822601318,0.186842188239098,0.234151408076286,0.713157892227173,-42.4315795898438,0.0980610102415085,0.117216549813747,0.268421173095703,2012-02-15 10:58:30
1.00799989700317,40,8.71000003814697,0.115500099956989,0.131909161806107,0.210000202059746,-4.03000020980835,0.151000067591667,0.183303087949753,0.370000034570694,-42.6700019836426,0.124999426305294,0.146969109773636,0.269999504089355,2012-02-15 10:58:31
1.01700019836426,34,11.0088233947754,1.72058820724487,1.75522208213806,2.39117693901062,-3.42941188812256,0.547058820724487,0.58637946844101,0.970588266849518,-41.1911773681641,1.02058804035187,1.08935129642487,1.79117572307587,2012-02-15 10:58:32
1.00300002098083,40,14.7075004577637,0.227125093340874,0.31967756152153,1.00750029087067,-2.1324999332428,0.216124981641769,0.269617766141891,0.632499992847443,-38.5574989318848,0.221125200390816,0.283626228570938,0.842500805854797,2012-02-15 10:58:33
1.0019998550415,37,13.5162162780762,0.248210445046425,0.312369823455811,0.716216146945953,-0.408108115196228,0.567275404930115,0.647814810276031,1.09189188480377,-39.097297668457,0.278889834880829,0.326725363731384,0.597298204898834,2012-02-15 10:58:34
1.00399994850159,38,11.913158416748,0.887534618377686,1.05685007572174,1.98684251308441,3.23157906532288,1.00914132595062,1.31170952320099,2.83157896995544,-39.0394744873047,0.300554186105728,0.360948652029037,0.739475071430206,2012-02-15 10:58:35
1.05700016021729,38,10.5473690032959,0.176177307963371,0.220927312970161,0.552631795406342,4.75789499282837,0.195013865828514,0.25918048620224,0.842105090618134,-39.5947380065918,0.106371514499187,0.133667409420013,0.394736856222153,2012-02-15 10:58:36
1.01899981498718,39,10.4256410598755,0.326495707035065,0.38278192281723,0.774358630180359,5.13589763641357,0.13320192694664,0.165618032217026,0.364102512598038,-39.6692314147949,0.0998018383979797,0.126396775245667,0.330768197774887,2012-02-15 10:58:37
1.0090000629425,40,10.3400001525879,0.220000028610229,0.264386028051376,0.56000030040741,5.10249996185303,0.108000129461288,0.131315529346466,0.302499890327454,-39.6475028991699,0.092499352991581,0.116162218153477,0.252500355243683,2012-02-15 10:58:38
1.10599994659424,41,10.0439023971558,0.125163555145264,0.149875938892365,0.356097966432571,4.93170738220215,0.0994645208120346,0.119835220277309,0.33170747756958,-39.7243919372559,0.122426755726337,0.152667969465256,0.375611186027527,2012-02-15 10:58:39
1,41,9.94390296936035,0.127305120229721,0.148239746689796,0.356097489595413,5.06341457366943,0.0782867223024368,0.0956520885229111,0.236585542559624,-39.8048782348633,0.0988699793815613,0.120873004198074,0.204876318573952,2012-02-15 10:58:40
1.00200009346008,37,9.82432460784912,0.168298080563545,0.214860543608665,0.524324417114258,5.31081104278564,0.0891160890460014,0.110975451767445,0.210811048746109,-39.8135147094727,0.0986126288771629,0.125552162528038,0.286488205194473,2012-02-15 10:58:41
1.00200009346008,42,9.86428642272949,0.0959185212850571,0.132416158914566,0.535714566707611,5.28333330154419,0.0825396627187729,0.104463845491409,0.216666504740715,-39.7523803710938,0.118820436298847,0.141821458935738,0.352380126714706,2012-02-15 10:58:42
1.03699994087219,34,9.54117679595947,0.165743947029114,0.195715382695198,0.358823895454407,5.80000019073486,0.176470622420311,0.207222566008568,0.400000214576721,-39.8176460266113,0.0865056738257408,0.109733700752258,0.217645198106766,2012-02-15 10:58:43
1.01699995994568,40,9.45499992370605,0.222749918699265,0.273815602064133,0.544999837875366,6.44999980926514,0.109999939799309,0.139642372727394,0.350000143051147,-39.6175003051758,0.0727495551109314,0.0891276150941849,0.182498171925545,2012-02-15 10:58:44
1.0090000629425,38,9.32105255126953,0.126592889428139,0.15586419403553,0.378947049379349,6.5,0.0789473280310631,0.0999999567866325,0.200000256299973,-39.6368408203125,0.121051885187626,0.142202153801918,0.336843490600586,2012-02-15 10:58:45
1.09800004959106,37,9.37027072906494,0.367421537637711,0.478095859289169,1.52973020076752,6.51081085205078,0.134112492203712,0.176732778549194,0.389189213514328,-39.6216239929199,0.119502671062946,0.159619480371475,0.421621799468994,2012-02-15 10:58:46
1.0149998664856,39,9.49743556976318,0.679289937019348,0.752257168292999,1.70256376266479,6.80000019073486,0.13846156001091,0.178311169147491,0.400000214576721,-39.7153854370117,0.114003285765648,0.13688537478447,0.384617060422897,2012-02-15 10:58:47
1.01600003242493,38,8.86578941345215,0.135872736573219,0.164278939366341,0.434210538864136,6.65000009536743,0.0763159543275833,0.0881089046597481,0.150000125169754,-39.771053314209,0.114680923521519,0.133589565753937,0.328948676586151,2012-02-15 10:58:48
1.0090000629425,39,8.70512866973877,0.10887586325407,0.137652009725571,0.305127769708633,6.68717956542969,0.106771990656853,0.122326865792274,0.212820515036583,-39.8333320617676,0.111111380159855,0.128767877817154,0.266668558120728,2012-02-15 10:58:49
1.06799983978271,38,9.05526351928711,0.26869797706604,0.313467264175415,0.544736981391907,6.85526323318481,0.18102490901947,0.22325037419796,0.455263137817383,-39.7131576538086,0.0916893035173416,0.12176538258791,0.38684344291687,2012-02-15 10:58:50
1.01100015640259,40,8.82000064849854,0.119000129401684,0.153623014688492,0.320000201463699,6.6875,0.0943751409649849,0.126861199736595,0.412499815225601,-39.7350006103516,0.109999373555183,0.127573147416115,0.26499930024147,2012-02-15 10:58:51
1.01399993896484,39,8.94102573394775,0.107823714613914,0.125510156154633,0.258973866701126,6.75897455215454,0.16817881166935,0.207201033830643,0.558974146842957,-39.8461532592773,0.0777127221226692,0.0901458859443665,0.153845950961113,2012-02-15 10:58:52
1.25099992752075,40,9.02500057220459,0.113749921321869,0.133697271347046,0.275000005960464,6.24499988555908,0.175000011920929,0.198683172464371,0.354999840259552,-39.8474998474121,0.102750405669212,0.120389983057976,0.252501577138901,2012-02-15 10:58:54
1.02100014686584,40,9.05249977111816,0.147500067949295,0.206140145659447,0.652499675750732,6.01999998092651,0.102000027894974,0.126885801553726,0.280000120401382,-39.8650016784668,0.125250115990639,0.145859241485596,0.264998346567154,2012-02-15 10:58:55
1.10999989509583,41,9.24146366119385,0.237120807170868,0.292987644672394,0.658537030220032,6.21951246261597,0.1750148832798,0.200267523527145,0.380487650632858,-39.8317070007324,0.0828084871172905,0.102264642715454,0.231705546379089,2012-02-15 10:58:56
1.00699996948242,38,9.22368431091309,0.208864361047745,0.272835254669189,0.576315879821777,6.1394739151001,0.112049989402294,0.130866572260857,0.260526329278946,-39.9684219360352,0.119113720953465,0.141617506742477,0.268421173095703,2012-02-15 10:58:57
1.00200009346008,39,8.9538459777832,0.119132056832314,0.139313608407974,0.253846555948257,6.07435894012451,0.0930966585874557,0.11028628051281,0.225641146302223,-39.8564109802246,0.0905989930033684,0.112762756645679,0.343590557575226,2012-02-15 10:58:58
1.00699996948242,40,8.95750045776367,0.123249895870686,0.149812370538712,0.342499911785126,6.14249992370605,0.0838751494884491,0.104612469673157,0.257500022649765,-39.8400001525879,0.119000472128391,0.147986546158791,0.360000222921371,2012-02-15 10:58:59
1,34,9.03235340118408,0.118512094020844,0.144955486059189,0.367647409439087,6.09999990463257,0.094117783010006,0.118817783892155,0.200000107288361,-39.7911758422852,0.100172504782677,0.126880064606667,0.291177064180374,2012-02-15 10:59:00
1.09500002861023,38,8.98421096801758,0.112188205122948,0.175508767366409,0.615789592266083,6.10526323318481,0.121883772313595,0.148585259914398,0.305263072252274,-39.7789497375488,0.121329329907894,0.154166504740715,0.378946393728256,2012-02-15 10:59:01
1.01900005340576,37,8.90000057220459,0.113513626158237,0.155962556600571,0.400000244379044,6.11351346969604,0.0986122488975525,0.125552177429199,0.28648653626442,-39.8675689697266,0.0781598389148712,0.0987873896956444,0.267565846443176,2012-02-15 10:59:02
1.01799988746643,38,8.92894744873047,0.0966757461428642,0.123347796499729,0.271052211523056,6.10526323318481,0.0853187069296837,0.107476815581322,0.305263042449951,-39.8526306152344,0.115512676537037,0.137145102024078,0.252629935741425,2012-02-15 10:59:03
1.01699995994568,41,9.00243949890137,0.0769780278205872,0.119934514164925,0.397561281919479,6.07804870605469,0.0630576983094215,0.0781250149011612,0.178048685193062,-39.8439025878906,0.0904229506850243,0.108310416340828,0.256099611520767,2012-02-15 10:59:04
1.08700013160706,36,8.96666717529297,0.124073997139931,0.154560312628746,0.366666465997696,6.15000009536743,0.108333468437195,0.130170896649361,0.25,-39.8194465637207,0.107099153101444,0.137071311473846,0.319444864988327,2012-02-15 10:59:05
1.01399993896484,40,9.00750064849854,0.135874912142754,0.175196215510368,0.492499738931656,6.08249998092651,0.101874999701977,0.13395431637764,0.317500054836273,-39.8650016784668,0.131750345230103,0.154191508889198,0.335000038146973,2012-02-15 10:59:06
1.03099989891052,38,9.22894763946533,0.310249298810959,0.350869506597519,0.671052932739258,6.17631578445435,0.106371320784092,0.122333139181137,0.276315808296204,-39.8078956604004,0.108726166188717,0.140265718102455,0.40789383649826,2012-02-15 10:59:07
1.08100008964539,40,9.34000015258789,0.204000145196915,0.244744837284088,0.560000419616699,6.17750024795532,0.102000132203102,0.125474169850349,0.277500033378601,-39.7550010681152,0.124499060213566,0.143090173602104,0.25500077009201,2012-02-15 10:59:08
1.00600004196167,38,9.01578998565674,0.124376706779003,0.153084561228752,0.384210914373398,6.30789470672607,0.135456994175911,0.175291568040848,0.5078946352005,-39.6552658081055,0.107339948415756,0.129161387681961,0.255262464284897,2012-02-15 10:59:09
1.00099992752075,39,9.14615440368652,0.103352934122086,0.127794206142426,0.35384601354599,5.96410274505615,0.161341205239296,0.186034440994263,0.364102780818939,-39.8717956542969,0.115319117903709,0.133874580264091,0.271793156862259,2012-02-15 10:59:10
1.0090000629425,39,9.10000038146973,0.112820468842983,0.135873153805733,0.30000039935112,5.79487180709839,0.0937540680170059,0.117557853460312,0.294871956110001,-39.8897438049316,0.124392591416836,0.151564806699753,0.310256272554398,2012-02-15 10:59:11
1.00999999046326,35,9.00857162475586,0.0788571909070015,0.0967217311263084,0.208571508526802,5.72857141494751,0.128163278102875,0.152261897921562,0.328571438789368,-39.891429901123,0.0907760709524155,0.115564502775669,0.308571726083755,2012-02-15 10:59:12
1.02099990844727,37,8.94864845275879,0.117311738431454,0.142604306340218,0.251350909471512,5.81351375579834,0.0971511676907539,0.123380668461323,0.286486268043518,-39.9486503601074,0.087801419198513,0.100328795611858,0.151352852582932,2012-02-15 10:59:13
1.00699996948242,38,9.09473705291748,0.320221602916718,0.380406528711319,0.705263197422028,5.83947372436523,0.144736781716347,0.175528436899185,0.439473658800125,-39.9973678588867,0.108310244977474,0.132758066058159,0.302629768848419,2012-02-15 10:59:14
1.00300002098083,38,8.95263195037842,0.104709029197693,0.12924237549305,0.252631902694702,5.72631597518921,0.0908587351441383,0.116267003118992,0.326315850019455,-39.9289474487305,0.11094219237566,0.127544060349464,0.271052807569504,2012-02-15 10:59:15
1.007000207901,40,8.83250045776367,0.110500060021877,0.14385324716568,0.367499679327011,5.74000024795532,0.107000008225441,0.124096781015396,0.240000128746033,-39.9150009155273,0.0852500945329666,0.110793113708496,0.215000152587891,2012-02-15 10:59:16
1.02999997138977,32,9.08125019073486,0.212499916553497,0.262723118066788,0.818750381469727,5.71562528610229,0.0757812708616257,0.0939061939716339,0.215625151991844,-39.9750022888184,0.0734372437000275,0.0901389941573143,0.224999904632568,2012-02-15 10:59:17
1.0149998664856,40,10.4175004959106,0.741625070571899,0.850848913192749,1.48250031471252,4.17500019073486,0.79625004529953,0.989633798599243,2.27500009536743,-39.5725021362305,0.203000068664551,0.257863640785217,0.672499179840088,2012-02-15 10:59:18
1.03200006484985,38,13.189474105835,0.281717419624329,0.371900826692581,1.08947348594666,0.90263158082962,0.330193907022476,0.416430234909058,0.997368395328522,-38.75,0.157894268631935,0.199670702219009,0.449999958276749,2012-02-15 10:59:19
1.1159999370575,41,13.3024396896362,0.281261146068573,0.329439878463745,0.697560787200928,0.956097602844238,0.134919688105583,0.163869053125381,0.343902498483658,-38.7780494689941,0.129208266735077,0.158517554402351,0.378047943115234,2012-02-15 10:59:20
1.01500010490417,36,13.0722227096558,0.157098725438118,0.196654051542282,0.527777910232544,0.583333313465118,0.0759259313344955,0.0927960723638535,0.216666668653488,-38.8777770996094,0.0938277095556259,0.12044170498848,0.322222381830215,2012-02-15 10:59:21
1.01699995994568,41,12.7341461181641,0.151933431625366,0.189491927623749,0.465853273868561,0.673170745372772,0.106841161847115,0.124986618757248,0.273170739412308,-38.9853668212891,0.0951813831925392,0.120083503425121,0.314632594585419,2012-02-15 10:59:22
1.00799989700317,40,12.8625001907349,0.174375131726265,0.210579678416252,0.537500500679016,0.572499990463257,0.0830000042915344,0.102439008653164,0.227500006556511,-38.9650001525879,0.109749659895897,0.147563487291336,0.435000985860825,2012-02-15 10:59:23
1.13800001144409,37,12.90540599823,0.0989041328430176,0.131407976150513,0.305405229330063,0.472972989082336,0.116727538406849,0.136853933334351,0.327027022838593,-38.9405403137207,0.103287130594254,0.124030627310276,0.259459525346756,2012-02-15 10:59:24
1.02700018882751,34,13.2764711380005,0.272664457559586,0.334364145994186,0.623529851436615,0.338235288858414,0.0920415222644806,0.111182697117329,0.261764734983444,-38.8441162109375,0.0871977508068085,0.100560829043388,0.155882224440575,2012-02-15 10:59:26
1.00599980354309,39,13.0538463592529,0.13017749786377,0.170739129185677,0.546154022216797,0.387179493904114,0.106771856546402,0.128461286425591,0.287179499864578,-38.8769226074219,0.130177929997444,0.156010523438454,0.323077261447906,2012-02-15 10:59:27
1.01300001144409,36,12.8333339691162,0.125926062464714,0.156347244977951,0.366666227579117,0.419444441795349,0.072685182094574,0.0843914300203323,0.180555567145348,-38.908332824707,0.0935185179114342,0.116369038820267,0.208333224058151,2012-02-15 10:59:28
1.07299995422363,40,12.7300004959106,0.136500179767609,0.169115453958511,0.430000007152557,0.582499980926514,0.12100000679493,0.148134231567383,0.317500025033951,-39.1175003051758,0.11424957960844,0.137636065483093,0.282500565052032,2012-02-15 10:59:29
1.00100016593933,37,12.5540542602539,0.0908692851662636,0.110513709485531,0.245945930480957,0.824324309825897,0.1100073158741,0.142194017767906,0.32432433962822,-39.0513534545898,0.0876559913158417,0.105578973889351,0.251353293657303,2012-02-15 10:59:30
1.01300001144409,38,13.2157897949219,0.209418341517448,0.278649300336838,0.784210383892059,0.518421053886414,0.243351802229881,0.279901534318924,0.518421053886414,-38.7684211730957,0.180609107017517,0.204044863581657,0.368420541286469,2012-02-15 10:59:31
1.02300000190735,41,13.5317077636719,0.248185589909554,0.311126232147217,0.668292284011841,0.509756088256836,0.129446759819984,0.162007048726082,0.390243917703629,-38.5878067016602,0.144795030355453,0.171357750892639,0.387804627418518,2012-02-15 10:59:32
1.04299998283386,38,11.7394742965698,0.510941803455353,0.631847500801086,1.5605263710022,2.21315789222717,0.682271480560303,0.815046370029449,1.81315791606903,-39.0815811157227,0.235733807086945,0.295452028512955,0.518422186374664,2012-02-15 10:59:33
1.01300001144409,39,9.96153831481934,1.13885605335236,1.28554391860962,2.06153845787048,3.55641031265259,0.626166999340057,0.721037328243256,1.44358968734741,-39.7282066345215,0.52636444568634,0.604661047458649,1.12820374965668,2012-02-15 10:59:34
1.01199984550476,38,5.95789480209351,0.749861478805542,0.894612967967987,1.84210538864136,5.98421049118042,0.275900304317474,0.34222674369812,0.984210669994354,-40.9526329040527,0.21551239490509,0.247871562838554,0.452632308006287,2012-02-15 10:59:35
1.00100016593933,38,4.67631578445435,0.23822720348835,0.282315850257874,0.576315939426422,5.98947381973267,0.160664796829224,0.191654145717621,0.389473885297775,-41.5157890319824,0.119113892316818,0.14239738881588,0.28420889377594,2012-02-15 10:59:36
1.0460000038147,35,4.26285743713379,0.0989387780427933,0.131117671728134,0.437142997980118,6.01999998092651,0.0914285480976105,0.114142745733261,0.319999754428864,-41.7657165527344,0.120979458093643,0.143313527107239,0.365713596343994,2012-02-15 10:59:37
1.00999999046326,40,4.2649998664856,0.28275004029274,0.33804589509964,0.73499995470047,6.07999992370605,0.125000029802322,0.150333002209663,0.320000022649765,-41.8575019836426,0.126750320196152,0.153113499283791,0.357500642538071,2012-02-15 10:59:38
1,38,4.0973687171936,0.103185631334782,0.134725600481033,0.402631521224976,5.98421049118042,0.104155071079731,0.132836073637009,0.284210324287415,-41.9894752502441,0.067035898566246,0.0851920992136002,0.189475417137146,2012-02-15 10:59:39
1.12199997901917,38,5.39736843109131,0.382271438837051,0.564515113830566,1.40263164043427,5.47105264663696,0.355263143777847,0.438242822885513,1.1710524559021,-41.4368438720703,0.144598096609116,0.18837383389473,0.463158667087555,2012-02-15 10:59:40
1.01199984550476,36,10.6638889312744,1.08209872245789,1.19795024394989,2.06388878822327,0.841666698455811,1.12175929546356,1.21846330165863,2.25833344459534,-40.0638885498047,0.454320728778839,0.503406286239624,0.836111605167389,2012-02-15 10:59:41
1,38,12.0973682403564,0.0876731425523758,0.118069589138031,0.302631944417953,-0.0289473701268435,0.126038789749146,0.152017831802368,0.371052622795105,-39.4842109680176,0.0936287567019463,0.120364487171173,0.284210503101349,2012-02-15 10:59:42
1.11600017547607,39,12.115385055542,0.247337266802788,0.288709342479706,0.515384435653687,0.525641024112701,0.330309003591537,0.379417896270752,0.674359023571014,-39.3435897827148,0.104668349027634,0.125667050480843,0.256411731243134,2012-02-15 10:59:43
1.00099992752075,36,12.0749998092651,0.323611170053482,0.348309457302094,0.674999594688416,1.67500007152557,0.287499994039536,0.35541445016861,0.824999988079071,-38.9861106872559,0.268518388271332,0.329269081354141,0.786110758781433,2012-02-15 10:59:44
1.00999999046326,38,11.8763160705566,0.440997183322906,0.485274791717529,0.823683798313141,3.84210538864136,0.367590069770813,0.492379635572433,1.14210522174835,-38.3763160705566,0.172022417187691,0.213287875056267,0.476315140724182,2012-02-15 10:59:45
1.01099991798401,40,11.4625005722046,0.219374895095825,0.297226756811142,0.962500154972076,5.34250020980835,0.763125002384186,0.872320890426636,1.75749981403351,-38.0125007629395,0.298749893903732,0.333307206630707,0.712501347064972,2012-02-15 10:59:46
1.007000207901,34,11.4264707565308,0.366435945034027,0.489482820034027,1.42647075653076,6.59411764144897,0.346712797880173,0.432462990283966,1.10588252544403,-37.5558815002441,0.158477798104286,0.191266879439354,0.455880880355835,2012-02-15 10:59:47
1.00699996948242,39,11.4205131530762,0.149243772029877,0.200229927897453,0.520512461662292,6.1538462638855,0.090335451066494,0.108240462839603,0.253846198320389,-37.730770111084,0.118342861533165,0.143498077988625,0.369232177734375,2012-02-15 10:59:48
1.01199984550476,41,11.4243907928467,0.156573370099068,0.209273383021355,0.524389922618866,6.1365852355957,0.109339810907841,0.132068231701851,0.263414651155472,-37.8975601196289,0.076502799987793,0.109294861555099,0.30243906378746,2012-02-15 10:59:49
1.00500011444092,36,11.597222328186,0.297067821025848,0.390502482652664,0.997222006320953,6.375,0.195833340287209,0.262863546609879,0.925000131130219,-37.6916656494141,0.12083288282156,0.146011590957642,0.308332562446594,2012-02-15 10:59:50
1.04399991035461,36,11.3194446563721,0.197376638650894,0.268555283546448,1.01944446563721,6.48055553436279,0.138425871729851,0.224622413516045,1.01944434642792,-37.663890838623,0.11234488338232,0.135713189840317,0.363890320062637,2012-02-15 10:59:51
1.02600002288818,39,11.3000001907349,0.164102718234062,0.255202382802963,1.10000038146973,6.56153869628906,0.13609467446804,0.179193884134293,0.53846138715744,-37.7333335876465,0.112820282578468,0.143818616867065,0.433334648609161,2012-02-15 10:59:52
1.00500011444092,39,11.4307699203491,0.168047234416008,0.233319237828255,0.630769312381744,6.46153831481934,0.0970413684844971,0.152946069836617,0.73846173286438,-37.6512832641602,0.137146398425102,0.158311307430267,0.351283431053162,2012-02-15 10:59:53
1.01399993896484,38,11.3973684310913,0.398337930440903,0.492836475372314,1.59736835956573,6.60526323318481,0.291135728359222,0.360516667366028,0.994736671447754,-37.5578956604004,0.124100029468536,0.14259184896946,0.342105954885483,2012-02-15 10:59:54
1.02099990844727,34,10.2323532104492,0.97750860452652,1.13545024394989,2.13235282897949,7.50588226318359,0.634602129459381,0.747915267944336,1.4058825969696,-38.0882377624512,0.322837501764297,0.370027631521225,0.711763024330139,2012-02-15 10:59:55
1.00600004196167,39,4.81794881820679,1.16055226325989,1.28659200668335,2.08205127716064,9.83589744567871,0.43313604593277,0.479041278362274,0.935897052288055,-39.797435760498,0.259697407484055,0.322241485118866,0.997437417507172,2012-02-15 10:59:56
1.01399993896484,39,2.79487180709839,0.143984213471413,0.166331022977829,0.305128276348114,10.7230768203735,0.101380802690983,0.13860397040844,0.376923352479935,-40.1820526123047,0.119526110589504,0.142992988228798,0.382052481174469,2012-02-15 10:59:57
1.02999997138977,41,2.35121965408325,0.240452095866203,0.2820845246315,0.648780465126038,10.8975610733032,0.0861393213272095,0.115795910358429,0.302438586950302,-40.2609748840332,0.13265885412693,0.160605743527412,0.33902582526207,2012-02-15 10:59:58
