"diffSecs","level","azimuth.mean","azimuth.absolute.deviation","azimuth.standard.deviation","azimuth.max.deviation","pitch.mean","pitch.absolute.deviation","pitch.standard.deviation","pitch.max.deviation","roll.mean","roll.absolute.deviation","roll.standard.deviation","roll.max.deviation","time"
1.00099992752075,22,15.1863641738892,0.479752004146576,0.551275730133057,0.98636394739151,-24.7954559326172,0.477685838937759,0.512992203235626,0.795455038547516,19.9545459747314,0.276859551668167,0.328533083200455,0.645454466342926,2012-01-13 14:41:47
1.02300000190735,35,10.7971429824829,1.63102042675018,1.91855382919312,3.50285720825195,-27.1771430969238,1.07363271713257,1.21891891956329,2.12285804748535,19.8371429443359,0.593305945396423,0.758225560188293,2.03714203834534,2012-01-13 14:41:48
1.03500008583069,26,1.2384614944458,3.80473375320435,4.47695636749268,7.7615385055542,-33.7423095703125,1.52810633182526,1.836629986763,4.44230699539185,6.50769233703613,6.08284044265747,7.44693660736084,16.8076934814453,2012-01-13 14:41:49
1.00799989700317,52,-3.7961540222168,3.44615387916565,4.22337627410889,8.30384635925293,-33.8692321777344,1.45355045795441,1.70852398872375,3.46923184394836,-13.2115383148193,5.34911251068115,6.21823167800903,11.3115386962891,2012-01-13 14:41:50
1.00100016593933,33,-6.65757608413696,3.87401294708252,4.33540964126587,7.25757598876953,-31.6272735595703,0.493664145469666,0.618048369884491,1.47272896766663,-24.6272735595703,0.752066195011139,0.900260150432587,2.12727308273315,2012-01-13 14:41:51
1.00300002098083,39,2.61025643348694,0.666403710842133,0.759822845458984,1.61025643348694,-29.6179485321045,0.336357623338699,0.444263458251953,1.38205075263977,-23.6589756011963,0.384220898151398,0.457819700241089,0.94102555513382,2012-01-13 14:41:52
1.01599979400635,49,2.60408163070679,1.03256976604462,1.13945198059082,1.79591846466064,-29.4775505065918,0.367596864700317,0.415645688772202,0.777550637722015,-23.6061229705811,0.375593543052673,0.470088213682175,1.09387791156769,2012-01-13 14:41:53
1.0090000629425,32,2.57187509536743,0.9833984375,1.03779649734497,1.47187507152557,-29.9187507629395,0.268359273672104,0.340438544750214,0.681250095367432,-21.9937496185303,0.90234386920929,1.07585370540619,2.79374957084656,2012-01-13 14:41:54
1.00099992752075,33,1.03030300140381,1.57116627693176,1.87301170825958,3.93030309677124,-31.8090915679932,0.730578422546387,0.808051764965057,1.19090867042542,-13.6606063842773,3.55335187911987,3.81002998352051,5.23939323425293,2012-01-13 14:41:55
1.07800006866455,42,4.29761934280396,1.90272116661072,2.20804691314697,3.40238118171692,-30.4595241546631,0.981519162654877,1.1122819185257,1.95952427387238,-15.6714286804199,3.07483005523682,3.55610060691833,6.47142887115479,2012-01-13 14:41:56
1.00800013542175,49,1.95714282989502,1.85830903053284,2.36392974853516,5.14285707473755,-32.4714279174805,0.493294686079025,0.539084851741791,0.928572177886963,-3.05306124687195,3.16193270683289,3.46864104270935,5.84693908691406,2012-01-13 14:41:57
1.01599979400635,44,5.13863658905029,1.08584713935852,1.21378743648529,1.93863642215729,-32.018180847168,0.221487984061241,0.268220543861389,0.581819832324982,2.29999995231628,4.05454540252686,4.42004728317261,7.80000019073486,2012-01-13 14:41:58
1.00400018692017,42,4.83809518814087,1.82743763923645,1.97000753879547,3.46190476417542,-33.216667175293,0.559523165225983,0.688308954238892,1.28333270549774,12.3333339691162,1.62222218513489,1.88384938240051,4.23333311080933,2012-01-13 14:41:59
