"diffSecs","latitude","longitude","altitude","time"
1.87299990653992,42.389931678772,-71.0418033599854,50,2011-12-21 16:48:41
1.10899996757507,42.389931678772,-71.0418033599854,50,2011-12-21 16:48:42
0.778000116348267,42.389931678772,-71.0418033599854,50,2011-12-21 16:48:43
0.912999868392944,42.389931678772,-71.0418033599854,50,2011-12-21 16:48:44
1.37700009346008,42.389931678772,-71.0418033599854,50,2011-12-21 16:48:46
0.869999885559082,42.37384997,-70.99424229,3.70000004768372,2011-12-21 16:48:46
0.910000085830688,42.37384845,-70.99424518,3.5,2011-12-21 16:48:47
1.10500001907349,42.37384736,-70.99424849,3.09999990463257,2011-12-21 16:48:48
0.79200005531311,42.37384737,-70.99424848,3.09999990463257,2011-12-21 16:48:49
0.803999900817871,42.3738479,-70.9942491,3.09999990463257,2011-12-21 16:48:50
1.07999992370605,42.37384999,-70.99424938,2.90000009536743,2011-12-21 16:48:51
0.981000185012817,42.37384782,-70.99425025,2.70000004768372,2011-12-21 16:48:52
0.921999931335449,42.37384782,-70.99425025,2.70000004768372,2011-12-21 16:48:53
1.49899983406067,42.37384872,-70.99425111,2.20000004768372,2011-12-21 16:48:55
1.71800017356873,42.37385215,-70.99424879,2,2011-12-21 16:48:56
1.62299990653992,42.37384686,-70.99425365,1.29999995231628,2011-12-21 16:48:58
2.78600001335144,42.37384598,-70.99425557,0.5,2011-12-21 16:49:01
1.26099991798401,42.37384547,-70.99425645,0.600000023841858,2011-12-21 16:49:02
0.361999988555908,42.37384529,-70.99425654,0.600000023841858,2011-12-21 16:49:02
0.965000152587891,42.37384515,-70.99425682,0.600000023841858,2011-12-21 16:49:03
0.993000030517578,42.37384514,-70.99425682,0.600000023841858,2011-12-21 16:49:04
1.00699996948242,42.37384495,-70.99425704,0.600000023841858,2011-12-21 16:49:05
1.0699999332428,42.37384362,-70.99425856,0.5,2011-12-21 16:49:06
0.920000076293945,42.37384318,-70.99425907,0.5,2011-12-21 16:49:07
1.00600004196167,42.37384318,-70.99425907,0.5,2011-12-21 16:49:08
0.995999813079834,42.37384278,-70.99425955,0.5,2011-12-21 16:49:09
1.13000011444092,42.3738429,-70.99425939,0.5,2011-12-21 16:49:10
0.894999980926514,42.3738429,-70.99425939,0.5,2011-12-21 16:49:11
0.974999904632568,42.3738427,-70.99425966,0.5,2011-12-21 16:49:12
1.00500011444092,42.3738426,-70.99425979,0.5,2011-12-21 16:49:13
1.09400010108948,42.3738426,-70.99425979,0.5,2011-12-21 16:49:14
0.934999942779541,42.37384272,-70.99425966,0.5,2011-12-21 16:49:15
1.75799989700317,42.37384306,-70.99425924,0.5,2011-12-21 16:49:17
0.440999984741211,42.37384306,-70.99425924,0.5,2011-12-21 16:49:17
0.824000120162964,42.37384297,-70.99425941,0.5,2011-12-21 16:49:18
0.950999975204468,42.37384297,-70.99425941,0.5,2011-12-21 16:49:19
1.36299991607666,42.37384288,-70.99425952,0.5,2011-12-21 16:49:21
0.640000104904175,42.3738429,-70.9942595,0.5,2011-12-21 16:49:21
0.998999834060669,42.37384289,-70.99425952,0.5,2011-12-21 16:49:22
1,42.37384289,-70.99425952,0.5,2011-12-21 16:49:23
0.999000072479248,42.37384288,-70.99425952,0.5,2011-12-21 16:49:24
1.03999996185303,42.37384288,-70.99425952,0.5,2011-12-21 16:49:25
1.05599999427795,42.37384288,-70.99425952,0.5,2011-12-21 16:49:26
0.909000158309937,42.37384287,-70.99425953,0.5,2011-12-21 16:49:27
1.01399993896484,42.37384284,-70.99425956,0.5,2011-12-21 16:49:28
1.16299986839294,42.37384282,-70.99425958,0.5,2011-12-21 16:49:29
0.924000024795532,42.37384281,-70.99425959,0.5,2011-12-21 16:49:30
1.02900004386902,42.37384281,-70.99425959,0.5,2011-12-21 16:49:31
0.966000080108643,42.37384282,-70.99425959,0.5,2011-12-21 16:49:32
0.996999979019165,42.37384282,-70.99425959,0.5,2011-12-21 16:49:33
1.11400008201599,42.37384282,-70.99425959,0.5,2011-12-21 16:49:34
0.950999975204468,42.37384282,-70.99425959,0.5,2011-12-21 16:49:35
0.988999843597412,42.37384283,-70.99425959,0.5,2011-12-21 16:49:36
0.950999975204468,42.37384282,-70.99425958,0.5,2011-12-21 16:49:37
1.36900019645691,42.3738416,-70.99426097,0.5,2011-12-21 16:49:39
0.622999906539917,42.3738416,-70.99426097,0.5,2011-12-21 16:49:39
1.05800008773804,42.37384244,-70.99426007,0.5,2011-12-21 16:49:40
0.960000038146973,42.37384247,-70.99426001,0.5,2011-12-21 16:49:41
1.62099981307983,42.37384247,-70.99426001,0.5,2011-12-21 16:49:43
0.41100001335144,42.37384248,-70.99426001,0.5,2011-12-21 16:49:43
0.914000034332275,42.3738425,-70.99425998,0.5,2011-12-21 16:49:44
0.960999965667725,42.37384258,-70.99425991,0.5,2011-12-21 16:49:45
1.0090000629425,42.37384288,-70.99425958,0.5,2011-12-21 16:49:46
0.950000047683716,42.37384303,-70.99425941,0.5,2011-12-21 16:49:47
1.09500002861023,42.37384303,-70.99425941,0.5,2011-12-21 16:49:48
0.922999858856201,42.37384117,-70.99426139,0.5,2011-12-21 16:49:49
1.11899995803833,42.37384117,-70.9942614,0.600000023841858,2011-12-21 16:49:50
0.850000143051147,42.37384115,-70.9942614,0.5,2011-12-21 16:49:51
1.16199994087219,42.37384117,-70.99426138,0.5,2011-12-21 16:49:52
0.858000040054321,42.37384115,-70.99426139,0.5,2011-12-21 16:49:53
1.08999991416931,42.37384113,-70.9942614,0.5,2011-12-21 16:49:54
1.26100015640259,42.37384112,-70.99426141,0.5,2011-12-21 16:49:56
0.353999853134155,42.37384112,-70.99426143,0.5,2011-12-21 16:49:56
0.995000123977661,42.37384124,-70.99426128,0.5,2011-12-21 16:49:57
0.991999864578247,42.37384124,-70.99426128,0.5,2011-12-21 16:49:58
0.995000123977661,42.37384122,-70.99426129,0.5,2011-12-21 16:49:59
1.10599994659424,42.37384122,-70.99426129,0.5,2011-12-21 16:50:00
0.898000001907349,42.37384123,-70.9942613,0.5,2011-12-21 16:50:01
1.05699992179871,42.37384116,-70.99426139,0.5,2011-12-21 16:50:02
0.950999975204468,42.37384108,-70.9942615,0.5,2011-12-21 16:50:03
0.996999979019165,42.37384109,-70.9942615,0.5,2011-12-21 16:50:04
1.00100016593933,42.37384109,-70.9942615,0.5,2011-12-21 16:50:05
1.11299991607666,42.37384099,-70.9942616,0.5,2011-12-21 16:50:06
0.88100004196167,42.37384096,-70.99426163,0.5,2011-12-21 16:50:07
1.00799989700317,42.37384097,-70.9942616,0.600000023841858,2011-12-21 16:50:08
1.05599999427795,42.37384097,-70.9942616,0.600000023841858,2011-12-21 16:50:09
0.936000108718872,42.37384091,-70.99426174,0.5,2011-12-21 16:50:10
1.00099992752075,42.37384089,-70.99426181,0.5,2011-12-21 16:50:11
1.00500011444092,42.37384089,-70.99426181,0.5,2011-12-21 16:50:12
1.05999994277954,42.3738409,-70.99426186,0.5,2011-12-21 16:50:13
1.25699996948242,42.37384093,-70.99426186,0.5,2011-12-21 16:50:14
0.802000045776367,42.37384093,-70.99426181,0.5,2011-12-21 16:50:15
0.865000009536743,42.37384094,-70.99426177,0.5,2011-12-21 16:50:16
0.993000030517578,42.37384102,-70.99426171,0.5,2011-12-21 16:50:17
1.01600003242493,42.37384102,-70.99426171,0.5,2011-12-21 16:50:18
0.994999885559082,42.37384094,-70.99426177,0.5,2011-12-21 16:50:19
0.990999937057495,42.37384094,-70.99426177,0.5,2011-12-21 16:50:20
1.00400018692017,42.3738409,-70.99426185,0.5,2011-12-21 16:50:21
1.00599980354309,42.3738409,-70.99426185,0.5,2011-12-21 16:50:22
1.00500011444092,42.37384093,-70.99426188,0.5,2011-12-21 16:50:23
0.993000030517578,42.37384094,-70.99426185,0.5,2011-12-21 16:50:24
0.976000070571899,42.3738409,-70.9942619,0.5,2011-12-21 16:50:25
0.991999864578247,42.37384085,-70.99426187,0.600000023841858,2011-12-21 16:50:26
1.00800013542175,42.37384079,-70.99426191,0.600000023841858,2011-12-21 16:50:27
1.00799989700317,42.37384079,-70.99426191,0.600000023841858,2011-12-21 16:50:28
0.996999979019165,42.37384092,-70.9942618,0.5,2011-12-21 16:50:29
1.00099992752075,42.37384113,-70.99426188,0.5,2011-12-21 16:50:30
1.00200009346008,42.37384113,-70.99426188,0.5,2011-12-21 16:50:31
0.993000030517578,42.3738412,-70.99426183,0.5,2011-12-21 16:50:32
1,42.37384123,-70.99426179,0.5,2011-12-21 16:50:33
1,42.37384125,-70.99426176,0.400000005960464,2011-12-21 16:50:34
1,42.37384133,-70.99426174,0.5,2011-12-21 16:50:35
1.00099992752075,42.37384143,-70.9942617,0.400000005960464,2011-12-21 16:50:36
0.999000072479248,42.37384139,-70.99426179,0.5,2011-12-21 16:50:37
1.00499987602234,42.37384139,-70.99426179,0.5,2011-12-21 16:50:38
0.996999979019165,42.37384139,-70.99426182,0.5,2011-12-21 16:50:39
1,42.37384142,-70.99426182,0.400000005960464,2011-12-21 16:50:40
0.986000061035156,42.37384147,-70.99426183,0.400000005960464,2011-12-21 16:50:41
1.00999999046326,42.37384372,-70.99425735,0.400000005960464,2011-12-21 16:50:42
1.00699996948242,42.37384691,-70.99425458,-2.40000009536743,2011-12-21 16:50:43
1,42.37385014,-70.99426498,-5.09999990463257,2011-12-21 16:50:44
1.00800013542175,42.37385723,-70.99425748,-5.30000019073486,2011-12-21 16:50:45
0.98799991607666,42.3738439,-70.994263,-6.40000009536743,2011-12-21 16:50:46
0.999000072479248,42.37384548,-70.99427817,-5.19999980926514,2011-12-21 16:50:47
1,42.37384787,-70.99428006,-5.59999990463257,2011-12-21 16:50:48
1.00399994850159,42.37385769,-70.99425444,-7.19999980926514,2011-12-21 16:50:49
0.996999979019165,42.37386218,-70.99425006,-7.30000019073486,2011-12-21 16:50:50
1.91300010681152,42.37386518,-70.9942655,-8,2011-12-21 16:50:52
0.429999828338623,42.37387753,-70.99426816,-8.30000019073486,2011-12-21 16:50:52
1.00200009346008,42.37386367,-70.9942638,-9.10000038146973,2011-12-21 16:50:53
0.999000072479248,42.37385761,-70.99425832,-8.89999961853027,2011-12-21 16:50:54
1.01199984550476,42.37385768,-70.99425681,-9,2011-12-21 16:50:55
0.986999988555908,42.37383719,-70.99425433,-9.69999980926514,2011-12-21 16:50:56
1.00300002098083,42.37383364,-70.99424689,-9.89999961853027,2011-12-21 16:50:57
0.993000030517578,42.37383727,-70.99423688,-9.89999961853027,2011-12-21 16:50:58
1.00600004196167,42.37383727,-70.99423688,-9.89999961853027,2011-12-21 16:50:59
1.00399994850159,42.37383278,-70.99423414,-10,2011-12-21 16:51:00
0.99399995803833,42.37383333,-70.99423066,-10,2011-12-21 16:51:01
1.00300002098083,42.37382293,-70.99423246,-11,2011-12-21 16:51:02
1.49699997901917,42.37382569,-70.99423491,-10.6999998092651,2011-12-21 16:51:04
0.50600004196167,42.37382256,-70.9942456,-11.6000003814697,2011-12-21 16:51:04
0.999000072479248,42.37381903,-70.99425602,-11.6999998092651,2011-12-21 16:51:05
1.76099991798401,42.37382595,-70.99424773,-12,2011-12-21 16:51:07
0.252000093460083,42.37382572,-70.99425148,-11.5,2011-12-21 16:51:07
0.983000040054321,42.37382539,-70.99424858,-11.8999996185303,2011-12-21 16:51:08
0.991999864578247,42.37382539,-70.99424858,-11.8999996185303,2011-12-21 16:51:09
1.00300002098083,42.37382584,-70.99424784,-12,2011-12-21 16:51:10
1.00500011444092,42.37382771,-70.9942461,-12.1000003814697,2011-12-21 16:51:11
1.0019998550415,42.37382771,-70.9942461,-12.1000003814697,2011-12-21 16:51:12
1.00100016593933,42.37382788,-70.99424554,-12.1999998092651,2011-12-21 16:51:13
0.996999979019165,42.37382788,-70.99424554,-12.1999998092651,2011-12-21 16:51:14
1,42.37382798,-70.99424544,-12.1999998092651,2011-12-21 16:51:15
1.00600004196167,42.37382798,-70.99424544,-12.1999998092651,2011-12-21 16:51:16
1.0019998550415,42.37382803,-70.9942454,-12.1999998092651,2011-12-21 16:51:17
1,42.37382803,-70.9942454,-12.1999998092651,2011-12-21 16:51:18
1.00099992752075,42.37382802,-70.99424543,-12.1999998092651,2011-12-21 16:51:19
0.995000123977661,42.37382802,-70.99424543,-12.1999998092651,2011-12-21 16:51:20
1.29900002479553,42.37382804,-70.99424538,-12.1999998092651,2011-12-21 16:51:22
0.698999881744385,42.37382807,-70.99424535,-12.1999998092651,2011-12-21 16:51:22
0.999000072479248,42.37382807,-70.99424535,-12.1999998092651,2011-12-21 16:51:23
0.999000072479248,42.37382827,-70.99424556,-12.1999998092651,2011-12-21 16:51:24
1.52300000190735,42.37382822,-70.99424558,-12.1999998092651,2011-12-21 16:51:26
0.477999925613403,42.37382822,-70.99424558,-12.1999998092651,2011-12-21 16:51:26
1.00500011444092,42.37382828,-70.99424555,-12.1999998092651,2011-12-21 16:51:27
0.937999963760376,42.37382828,-70.99424555,-12.1999998092651,2011-12-21 16:51:28
0.974999904632568,42.37382831,-70.99424552,-12.1999998092651,2011-12-21 16:51:29
1.00200009346008,42.37382831,-70.99424552,-12.1999998092651,2011-12-21 16:51:30
1.00699996948242,42.37382831,-70.99424552,-12.1999998092651,2011-12-21 16:51:31
0.999000072479248,42.37382831,-70.99424551,-12.1999998092651,2011-12-21 16:51:32
1,42.37382832,-70.99424551,-12.1999998092651,2011-12-21 16:51:33
1.00099992752075,42.37382832,-70.99424551,-12.1999998092651,2011-12-21 16:51:34
0.99399995803833,42.37382832,-70.99424554,-12.1999998092651,2011-12-21 16:51:35
1.00500011444092,42.37382832,-70.99424554,-12.1999998092651,2011-12-21 16:51:36
0.998999834060669,42.37382835,-70.99424555,-12.1999998092651,2011-12-21 16:51:37
1.00100016593933,42.37382835,-70.99424555,-12.1999998092651,2011-12-21 16:51:38
1,42.37382849,-70.99424541,-12.1999998092651,2011-12-21 16:51:39
0.435999870300293,42.3738285,-70.99424538,-12.1999998092651,2011-12-21 16:51:40
0.99399995803833,42.3738285,-70.99424538,-12.1999998092651,2011-12-21 16:51:41
1.09899997711182,42.37382851,-70.99424537,-12.1999998092651,2011-12-21 16:51:42
0.896000146865845,42.3738285,-70.99424538,-12.1999998092651,2011-12-21 16:51:43
1.00099992752075,42.37382855,-70.99424533,-12.1999998092651,2011-12-21 16:51:44
1.20000004768372,42.37382855,-70.99424533,-12.1999998092651,2011-12-21 16:51:45
0.895999908447266,42.37382853,-70.99424542,-12.1999998092651,2011-12-21 16:51:46
1.00300002098083,42.37382879,-70.99424517,-12.1999998092651,2011-12-21 16:51:47
1,42.3738288,-70.99424518,-12.1999998092651,2011-12-21 16:51:48
1,42.3738288,-70.99424518,-12.1999998092651,2011-12-21 16:51:49
1.74500012397766,42.37382883,-70.99424517,-12.1999998092651,2011-12-21 16:51:50
0.260999917984009,42.37382884,-70.99424517,-12.1999998092651,2011-12-21 16:51:51
1.01399993896484,42.37382893,-70.99424516,-12.1999998092651,2011-12-21 16:51:52
0.990999937057495,42.37382893,-70.99424518,-12.1999998092651,2011-12-21 16:51:53
0.998000144958496,42.37382893,-70.99424518,-12.1999998092651,2011-12-21 16:51:54
1.03500008583069,42.37382893,-70.99424518,-12.1999998092651,2011-12-21 16:51:55
1.00699996948242,42.37382894,-70.99424517,-12.1999998092651,2011-12-21 16:51:56
0.947999954223633,42.37382907,-70.99424501,-12.1999998092651,2011-12-21 16:51:57
1.03399991989136,42.37382902,-70.99424512,-12.1999998092651,2011-12-21 16:51:58
0.96399998664856,42.37382902,-70.99424512,-12.1999998092651,2011-12-21 16:51:59
1,42.37382902,-70.99424518,-12.1999998092651,2011-12-21 16:52:00
1.00200009346008,42.37382958,-70.99424454,-12.1999998092651,2011-12-21 16:52:01
0.997999906539917,42.3738296,-70.99424448,-12.3000001907349,2011-12-21 16:52:02
1.00500011444092,42.37382965,-70.9942444,-12.3000001907349,2011-12-21 16:52:03
1.00600004196167,42.37382968,-70.99424444,-12.3000001907349,2011-12-21 16:52:04
0.99399995803833,42.3738298,-70.99424451,-12.3000001907349,2011-12-21 16:52:05
1.00099992752075,42.3738298,-70.99424451,-12.3000001907349,2011-12-21 16:52:06
0.999000072479248,42.37382961,-70.99424477,-12.1999998092651,2011-12-21 16:52:07
1.00099992752075,42.37382971,-70.99424476,-12.1999998092651,2011-12-21 16:52:08
1.01099991798401,42.37382979,-70.99424473,-12.1999998092651,2011-12-21 16:52:09
0.989000082015991,42.37382983,-70.99424478,-12.1999998092651,2011-12-21 16:52:10
1.94799995422363,42.37382986,-70.99424493,-12.1999998092651,2011-12-21 16:52:12
0.0420000553131104,42.37382986,-70.99424493,-12.1999998092651,2011-12-21 16:52:12
1.01099991798401,42.37382986,-70.99424496,-12.1999998092651,2011-12-21 16:52:13
1.00300002098083,42.37382986,-70.99424496,-12.1999998092651,2011-12-21 16:52:14
0.996000051498413,42.37382903,-70.9942455,-12.1999998092651,2011-12-21 16:52:15
1.00099992752075,42.37382908,-70.99424549,-12.1999998092651,2011-12-21 16:52:16
0.998000144958496,42.37382908,-70.99424551,-12.1999998092651,2011-12-21 16:52:17
1.00300002098083,42.37382908,-70.99424551,-12.1999998092651,2011-12-21 16:52:18
0.997999906539917,42.37382894,-70.99424569,-12.1999998092651,2011-12-21 16:52:19
1.00099992752075,42.37382893,-70.9942457,-12.1999998092651,2011-12-21 16:52:20
1.1010000705719,42.37382888,-70.99424569,-12.1999998092651,2011-12-21 16:52:21
0.898000001907349,42.3738288,-70.99424576,-12.1999998092651,2011-12-21 16:52:22
1.00699996948242,42.37382884,-70.9942458,-12.1000003814697,2011-12-21 16:52:23
0.993000030517578,42.37382882,-70.99424578,-12.1000003814697,2011-12-21 16:52:24
0.999000072479248,42.37382889,-70.99424573,-12.1000003814697,2011-12-21 16:52:25
1.0019998550415,42.37382895,-70.99424565,-12.1999998092651,2011-12-21 16:52:26
0.999000072479248,42.37382895,-70.99424566,-12.1999998092651,2011-12-21 16:52:27
1,42.37382898,-70.99424563,-12.1999998092651,2011-12-21 16:52:28
1.59899997711182,42.37382904,-70.99424558,-12.1999998092651,2011-12-21 16:52:29
1.00099992752075,42.37382905,-70.99424557,-12.1999998092651,2011-12-21 16:52:30
1.00100016593933,42.3738291,-70.99424548,-12.1999998092651,2011-12-21 16:52:31
0.998999834060669,42.37382909,-70.99424554,-12.1999998092651,2011-12-21 16:52:32
1.00100016593933,42.37382918,-70.99424549,-12.1000003814697,2011-12-21 16:52:33
1,42.37382926,-70.99424541,-12.1000003814697,2011-12-21 16:52:34
1.00099992752075,42.37382926,-70.99424541,-12.1000003814697,2011-12-21 16:52:35
0.999000072479248,42.37382929,-70.99424551,-12.1000003814697,2011-12-21 16:52:36
0.998999834060669,42.37382928,-70.99424559,-12.1000003814697,2011-12-21 16:52:37
1.00100016593933,42.37382932,-70.99424561,-12.1000003814697,2011-12-21 16:52:38
1,42.37382927,-70.99424574,-12.1000003814697,2011-12-21 16:52:39
1,42.3738293,-70.99424577,-12.1000003814697,2011-12-21 16:52:40
0.997999906539917,42.37382936,-70.99424587,-12.1000003814697,2011-12-21 16:52:41
1.00500011444092,42.3738293,-70.99424599,-12.1000003814697,2011-12-21 16:52:42
0.993000030517578,42.37382933,-70.99424598,-12.1000003814697,2011-12-21 16:52:43
1.00399994850159,42.37382937,-70.99424595,-12.1000003814697,2011-12-21 16:52:44
1,42.37382941,-70.994246,-12,2011-12-21 16:52:45
0.993000030517578,42.37382941,-70.994246,-12,2011-12-21 16:52:46
1,42.37382939,-70.99424598,-12.1000003814697,2011-12-21 16:52:47
1.04499983787537,42.37382939,-70.99424598,-12.1000003814697,2011-12-21 16:52:48
0.966000080108643,42.37382939,-70.99424599,-12.1000003814697,2011-12-21 16:52:49
1.98699998855591,42.37382938,-70.99424602,-12.1000003814697,2011-12-21 16:52:51
0.0480000972747803,42.37382938,-70.99424602,-12.1000003814697,2011-12-21 16:52:51
0.967000007629395,42.37382942,-70.99424603,-12.1000003814697,2011-12-21 16:52:52
0.99399995803833,42.37382936,-70.99424615,-12,2011-12-21 16:52:53
1,42.37382936,-70.99424615,-12,2011-12-21 16:52:54
0.998999834060669,42.37382941,-70.99424603,-12.1000003814697,2011-12-21 16:52:55
1.00400018692017,42.37382938,-70.99424611,-12,2011-12-21 16:52:56
0.997999906539917,42.37382947,-70.99424607,-12,2011-12-21 16:52:57
0.990999937057495,42.3738295,-70.99424605,-12,2011-12-21 16:52:58
1.00500011444092,42.37382944,-70.99424616,-12,2011-12-21 16:52:59
0.996999979019165,42.37382942,-70.99424616,-12,2011-12-21 16:53:00
1.00300002098083,42.37382944,-70.99424621,-12,2011-12-21 16:53:01
0.988999843597412,42.37382941,-70.99424619,-12,2011-12-21 16:53:02
1.36200022697449,42.37382941,-70.99424611,-12,2011-12-21 16:53:04
0.649999856948853,42.37382944,-70.99424614,-12,2011-12-21 16:53:04
1.00399994850159,42.37382941,-70.99424639,-11.8999996185303,2011-12-21 16:53:05
0.986999988555908,42.37382936,-70.99424649,-11.8999996185303,2011-12-21 16:53:06
1.00100016593933,42.37382933,-70.9942465,-11.8999996185303,2011-12-21 16:53:07
1.01300001144409,42.37382929,-70.99424661,-11.8999996185303,2011-12-21 16:53:08
0.998999834060669,42.37382929,-70.99424647,-11.8999996185303,2011-12-21 16:53:09
1.43600010871887,42.37382926,-70.99424653,-11.8999996185303,2011-12-21 16:53:11
0.556999921798706,42.37382932,-70.99424647,-11.8999996185303,2011-12-21 16:53:11
0.999000072479248,42.37382927,-70.99424664,-11.8999996185303,2011-12-21 16:53:12
1.00099992752075,42.37382927,-70.9942465,-11.8999996185303,2011-12-21 16:53:13
1.00999999046326,42.37382923,-70.99424656,-11.8999996185303,2011-12-21 16:53:14
0.985000133514404,42.37382918,-70.99424681,-11.8999996185303,2011-12-21 16:53:15
1.00300002098083,42.37382932,-70.99424666,-11.8999996185303,2011-12-21 16:53:16
1.00399994850159,42.37382932,-70.99424666,-11.8999996185303,2011-12-21 16:53:17
1.02699995040894,42.37382934,-70.99424672,-11.8999996185303,2011-12-21 16:53:18
0.964999914169312,42.37382934,-70.99424672,-11.8999996185303,2011-12-21 16:53:19
1.01300001144409,42.37382934,-70.99424671,-11.8999996185303,2011-12-21 16:53:20
1.44099998474121,42.37382935,-70.99424669,-11.8999996185303,2011-12-21 16:53:22
0.555000066757202,42.37382934,-70.99424671,-11.8999996185303,2011-12-21 16:53:22
0.98799991607666,42.37382934,-70.99424671,-11.8999996185303,2011-12-21 16:53:23
1.00200009346008,42.37382934,-70.99424671,-11.8999996185303,2011-12-21 16:53:24
1.02500009536743,42.37382935,-70.9942467,-11.8999996185303,2011-12-21 16:53:25
0.980000019073486,42.37382943,-70.99424663,-11.8999996185303,2011-12-21 16:53:26
1.01399993896484,42.37382948,-70.99424664,-11.8999996185303,2011-12-21 16:53:27
0.98199987411499,42.37382948,-70.99424664,-11.8999996185303,2011-12-21 16:53:28
1.09500002861023,42.37382943,-70.99424675,-11.8999996185303,2011-12-21 16:53:29
0.943000078201294,42.37382944,-70.99424673,-11.8999996185303,2011-12-21 16:53:30
0.980000019073486,42.37382944,-70.99424673,-11.8999996185303,2011-12-21 16:53:31
1.25499987602234,42.37382947,-70.99424671,-11.8999996185303,2011-12-21 16:53:33
0.745000123977661,42.37382947,-70.99424671,-11.8999996185303,2011-12-21 16:53:33
0.980000019073486,42.3738296,-70.99424657,-11.8999996185303,2011-12-21 16:53:34
0.348999977111816,42.3738296,-70.99424657,-11.8999996185303,2011-12-21 16:53:35
0.990000009536743,42.37382958,-70.99424664,-11.8999996185303,2011-12-21 16:53:36
1.00600004196167,42.37382958,-70.99424664,-11.8999996185303,2011-12-21 16:53:37
0.99399995803833,42.37382968,-70.99424653,-12,2011-12-21 16:53:38
0.99399995803833,42.37382968,-70.99424653,-12,2011-12-21 16:53:39
1.00600004196167,42.37382963,-70.99424655,-11.8999996185303,2011-12-21 16:53:40
1.00300002098083,42.37382966,-70.99424658,-11.8999996185303,2011-12-21 16:53:41
0.998999834060669,42.37382972,-70.99424653,-11.8999996185303,2011-12-21 16:53:42
1.00100016593933,42.37382979,-70.99424641,-12,2011-12-21 16:53:43
1.23099994659424,42.37382979,-70.99424641,-12,2011-12-21 16:53:44
0.75600004196167,42.37382978,-70.99424645,-11.8999996185303,2011-12-21 16:53:45
1.00699996948242,42.3738298,-70.99424645,-11.8999996185303,2011-12-21 16:53:46
1.00399994850159,42.3738298,-70.99424645,-11.8999996185303,2011-12-21 16:53:47
1.00399994850159,42.37382978,-70.9942465,-11.8999996185303,2011-12-21 16:53:48
0.996999979019165,42.37382978,-70.9942465,-11.8999996185303,2011-12-21 16:53:49
1.09600019454956,42.37382977,-70.99424647,-11.8999996185303,2011-12-21 16:53:50
0.911999940872192,42.37382973,-70.99424646,-11.8999996185303,2011-12-21 16:53:51
0.99399995803833,42.37382973,-70.99424646,-11.8999996185303,2011-12-21 16:53:52
0.996000051498413,42.37382973,-70.99424646,-11.8999996185303,2011-12-21 16:53:53
1.00499987602234,42.37382972,-70.99424648,-11.8999996185303,2011-12-21 16:53:54
1,42.37382972,-70.99424648,-11.8999996185303,2011-12-21 16:53:55
1.00100016593933,42.3738297,-70.9942465,-11.8999996185303,2011-12-21 16:53:56
0.997999906539917,42.3738297,-70.99424651,-11.8999996185303,2011-12-21 16:53:57
1.00099992752075,42.37382955,-70.99424669,-12,2011-12-21 16:53:58
0.998000144958496,42.37382955,-70.99424668,-12,2011-12-21 16:53:59
1.00099992752075,42.37382955,-70.99424668,-12,2011-12-21 16:54:00
0.997999906539917,42.37382937,-70.994247,-11.8999996185303,2011-12-21 16:54:01
1.00600004196167,42.37382945,-70.99424688,-11.8999996185303,2011-12-21 16:54:02
0.996999979019165,42.37382945,-70.99424688,-11.8999996185303,2011-12-21 16:54:03
0.996000051498413,42.37382945,-70.99424688,-11.8999996185303,2011-12-21 16:54:04
1.00399994850159,42.37382947,-70.99424686,-11.8999996185303,2011-12-21 16:54:05
1.00200009346008,42.37382947,-70.99424686,-11.8999996185303,2011-12-21 16:54:06
1,42.37382948,-70.99424685,-11.8999996185303,2011-12-21 16:54:07
0.997999906539917,42.37382948,-70.99424685,-11.8999996185303,2011-12-21 16:54:08
1,42.3738295,-70.99424685,-11.8999996185303,2011-12-21 16:54:09
0.996000051498413,42.37382946,-70.99424704,-11.8999996185303,2011-12-21 16:54:10
1,42.37382946,-70.99424704,-11.8999996185303,2011-12-21 16:54:11
1.00500011444092,42.37382943,-70.99424715,-11.8999996185303,2011-12-21 16:54:12
0.99399995803833,42.37382943,-70.99424711,-11.8999996185303,2011-12-21 16:54:13
1,42.37382948,-70.99424709,-11.8999996185303,2011-12-21 16:54:14
1.00499987602234,42.37382948,-70.99424709,-11.8999996185303,2011-12-21 16:54:15
0.995000123977661,42.37382951,-70.99424708,-11.8999996185303,2011-12-21 16:54:16
1.00099992752075,42.3738295,-70.99424708,-11.8999996185303,2011-12-21 16:54:17
1.0090000629425,42.3738295,-70.99424708,-11.8999996185303,2011-12-21 16:54:18
0.994999885559082,42.3738295,-70.99424708,-11.8999996185303,2011-12-21 16:54:19
1.00500011444092,42.3738295,-70.99424708,-11.8999996185303,2011-12-21 16:54:20
0.996999979019165,42.37382951,-70.99424707,-11.8999996185303,2011-12-21 16:54:21
1.00300002098083,42.37382952,-70.99424706,-11.8999996185303,2011-12-21 16:54:22
0.996000051498413,42.37382952,-70.99424709,-12,2011-12-21 16:54:23
0.99399995803833,42.37382957,-70.99424703,-12,2011-12-21 16:54:24
1.00399994850159,42.37382959,-70.99424708,-12,2011-12-21 16:54:25
1.00099992752075,42.37382959,-70.99424708,-12,2011-12-21 16:54:26
0.996000051498413,42.37382954,-70.99424727,-11.8999996185303,2011-12-21 16:54:27
1.00399994850159,42.37382955,-70.99424726,-11.8999996185303,2011-12-21 16:54:28
0.995000123977661,42.37382955,-70.99424726,-11.8999996185303,2011-12-21 16:54:29
1.00399994850159,42.37382954,-70.99424749,-11.8999996185303,2011-12-21 16:54:30
1.00699996948242,42.37382956,-70.99424749,-11.8999996185303,2011-12-21 16:54:31
0.990000009536743,42.37382961,-70.99424746,-11.8999996185303,2011-12-21 16:54:32
0.999000072479248,42.37382959,-70.99424743,-11.8999996185303,2011-12-21 16:54:33
1.00600004196167,42.37382959,-70.99424743,-11.8999996185303,2011-12-21 16:54:34
0.998999834060669,42.37382958,-70.99424747,-11.8999996185303,2011-12-21 16:54:35
1.00800013542175,42.37382958,-70.99424748,-11.8999996185303,2011-12-21 16:54:36
0.991999864578247,42.37382958,-70.99424748,-11.8999996185303,2011-12-21 16:54:37
0.992000102996826,42.37382958,-70.99424747,-11.8999996185303,2011-12-21 16:54:38
1.00099992752075,42.3738296,-70.9942475,-11.8999996185303,2011-12-21 16:54:39
0.999000072479248,42.3738296,-70.9942475,-11.8999996185303,2011-12-21 16:54:40
1,42.3738296,-70.99424747,-11.8999996185303,2011-12-21 16:54:41
1.00099992752075,42.3738296,-70.99424747,-11.8999996185303,2011-12-21 16:54:42
0.996999979019165,42.37382964,-70.99424743,-11.8999996185303,2011-12-21 16:54:43
1.00200009346008,42.37382964,-70.99424743,-11.8999996185303,2011-12-21 16:54:44
1.22000002861023,42.37382964,-70.99424743,-11.8999996185303,2011-12-21 16:54:45
0.79200005531311,42.37382963,-70.99424744,-11.8999996185303,2011-12-21 16:54:46
1.0239999294281,42.37382965,-70.99424743,-11.8999996185303,2011-12-21 16:54:47
0.967999935150146,42.37382966,-70.99424741,-11.8999996185303,2011-12-21 16:54:48
1.00500011444092,42.37382967,-70.9942474,-11.8999996185303,2011-12-21 16:54:49
1,42.37382968,-70.99424739,-11.8999996185303,2011-12-21 16:54:50
0.998999834060669,42.37382969,-70.99424738,-11.8999996185303,2011-12-21 16:54:51
0.995000123977661,42.37382969,-70.99424739,-11.8999996185303,2011-12-21 16:54:52
0.996000051498413,42.37382971,-70.99424736,-11.8999996185303,2011-12-21 16:54:53
1.01399993896484,42.37382971,-70.99424736,-11.8999996185303,2011-12-21 16:54:54
1.03999996185303,42.37382971,-70.99424736,-11.8999996185303,2011-12-21 16:54:55
0.947000026702881,42.3738297,-70.99424737,-11.8999996185303,2011-12-21 16:54:56
1.00600004196167,42.37382972,-70.99424736,-11.8999996185303,2011-12-21 16:54:57
1.01099991798401,42.37382973,-70.99424735,-11.8999996185303,2011-12-21 16:54:58
1.68300008773804,42.37382974,-70.99424734,-11.8999996185303,2011-12-21 16:54:59
1.0019998550415,42.37382975,-70.99424733,-11.8999996185303,2011-12-21 16:55:00
0.998000144958496,42.37382976,-70.9942473,-11.8999996185303,2011-12-21 16:55:01
1.09800004959106,42.37382968,-70.9942474,-11.8999996185303,2011-12-21 16:55:02
0.902999877929688,42.37382968,-70.9942474,-11.8999996185303,2011-12-21 16:55:03
0.99399995803833,42.37382971,-70.99424734,-11.8999996185303,2011-12-21 16:55:04
1.00100016593933,42.37382995,-70.99424712,-11.8999996185303,2011-12-21 16:55:05
0.998999834060669,42.37382995,-70.99424712,-11.8999996185303,2011-12-21 16:55:06
1.00100016593933,42.37383001,-70.99424703,-11.8999996185303,2011-12-21 16:55:07
1,42.37383003,-70.99424699,-11.8999996185303,2011-12-21 16:55:08
1,42.37383004,-70.99424697,-11.8999996185303,2011-12-21 16:55:09
0.998999834060669,42.37383004,-70.99424697,-11.8999996185303,2011-12-21 16:55:10
1.00100016593933,42.37383004,-70.99424697,-11.8999996185303,2011-12-21 16:55:11
1.00499987602234,42.37383004,-70.99424697,-11.8999996185303,2011-12-21 16:55:12
0.996999979019165,42.37383004,-70.99424696,-11.8999996185303,2011-12-21 16:55:13
1.00099992752075,42.37383004,-70.99424695,-11.8999996185303,2011-12-21 16:55:14
1.2039999961853,42.37383005,-70.99424692,-11.8999996185303,2011-12-21 16:55:16
0.800000190734863,42.37383008,-70.99424688,-11.8999996185303,2011-12-21 16:55:16
1.0149998664856,42.37383009,-70.99424688,-11.8999996185303,2011-12-21 16:55:17
0.990999937057495,42.37383009,-70.99424687,-11.8999996185303,2011-12-21 16:55:18
0.991000175476074,42.37383011,-70.99424684,-11.8999996185303,2011-12-21 16:55:19
1,42.37383011,-70.99424684,-12,2011-12-21 16:55:20
1.00300002098083,42.37383013,-70.99424682,-12,2011-12-21 16:55:21
0.997999906539917,42.37383013,-70.99424681,-12,2011-12-21 16:55:22
1.00099992752075,42.37383014,-70.9942468,-12,2011-12-21 16:55:23
1,42.37383016,-70.99424679,-12,2011-12-21 16:55:24
0.999000072479248,42.37383017,-70.99424678,-12,2011-12-21 16:55:25
1,42.37383018,-70.99424676,-12,2011-12-21 16:55:26
1,42.37383018,-70.99424676,-12,2011-12-21 16:55:27
1.00099992752075,42.37383018,-70.99424676,-12,2011-12-21 16:55:28
1,42.37383019,-70.99424675,-12,2011-12-21 16:55:29
1,42.37383019,-70.99424675,-12,2011-12-21 16:55:30
1,42.3738302,-70.99424674,-12,2011-12-21 16:55:31
0.999000072479248,42.3738302,-70.99424673,-12,2011-12-21 16:55:32
0.999000072479248,42.3738302,-70.99424674,-12,2011-12-21 16:55:33
1,42.3738302,-70.99424674,-12,2011-12-21 16:55:34
1.03199982643127,42.3738302,-70.99424674,-12,2011-12-21 16:55:35
0.966000080108643,42.3738302,-70.99424674,-12,2011-12-21 16:55:36
1.00300002098083,42.3738302,-70.99424673,-12,2011-12-21 16:55:37
1.00099992752075,42.37383021,-70.99424672,-12,2011-12-21 16:55:38
0.996999979019165,42.37383021,-70.99424672,-12,2011-12-21 16:55:39
1.00100016593933,42.37383022,-70.99424671,-12,2011-12-21 16:55:40
1,42.37383022,-70.99424671,-12,2011-12-21 16:55:41
1,42.37383024,-70.99424669,-12,2011-12-21 16:55:42
1.00300002098083,42.3738303,-70.99424664,-12,2011-12-21 16:55:43
1.0019998550415,42.37383032,-70.99424661,-12,2011-12-21 16:55:44
0.995000123977661,42.37383033,-70.99424659,-12,2011-12-21 16:55:45
1.0019998550415,42.37383034,-70.99424658,-12,2011-12-21 16:55:46
0.999000072479248,42.37383035,-70.99424657,-12,2011-12-21 16:55:47
0.187999963760376,42.37383036,-70.99424656,-12,2011-12-21 16:55:47
1.00200009346008,42.37383039,-70.99424651,-12,2011-12-21 16:55:48
0.997999906539917,42.37383049,-70.99424641,-12,2011-12-21 16:55:49
1.00100016593933,42.37383067,-70.99424623,-12,2011-12-21 16:55:50
0.990999937057495,42.37383077,-70.99424608,-12,2011-12-21 16:55:51
1.0019998550415,42.37383078,-70.99424607,-12,2011-12-21 16:55:52
1.20099997520447,42.37383078,-70.99424607,-12,2011-12-21 16:55:54
0.802000045776367,42.37383078,-70.99424607,-12,2011-12-21 16:55:54
1.00200009346008,42.37383078,-70.99424607,-12,2011-12-21 16:55:55
0.999000072479248,42.37383078,-70.99424607,-12,2011-12-21 16:55:56
1.00399994850159,42.3738308,-70.99424605,-12,2011-12-21 16:55:57
1.0019998550415,42.37383081,-70.99424603,-12,2011-12-21 16:55:58
1.007000207901,42.37383081,-70.99424603,-12,2011-12-21 16:56:00
0.998999834060669,42.37383082,-70.99424601,-12,2011-12-21 16:56:00
0.992000102996826,42.37383087,-70.99424596,-12,2011-12-21 16:56:01
1,42.37383089,-70.99424593,-12,2011-12-21 16:56:02
1.00099992752075,42.3738309,-70.99424593,-12,2011-12-21 16:56:03
0.998000144958496,42.37383091,-70.99424592,-12,2011-12-21 16:56:04
1,42.37383092,-70.9942459,-12,2011-12-21 16:56:05
1.00099992752075,42.37383093,-70.99424589,-12,2011-12-21 16:56:06
0.999000072479248,42.37383093,-70.99424589,-12,2011-12-21 16:56:07
0.998999834060669,42.37383095,-70.99424587,-12,2011-12-21 16:56:08
1,42.37383096,-70.99424586,-12,2011-12-21 16:56:09
0.999000072479248,42.37383096,-70.99424586,-12,2011-12-21 16:56:10
1.00300002098083,42.37383097,-70.99424584,-12,2011-12-21 16:56:11
0.996999979019165,42.37383098,-70.99424585,-12,2011-12-21 16:56:12
1.01300001144409,42.37383098,-70.99424583,-12,2011-12-21 16:56:14
0.991999864578247,42.373831,-70.99424581,-12,2011-12-21 16:56:14
0.996000051498413,42.373831,-70.99424582,-12,2011-12-21 16:56:15
0.998000144958496,42.373831,-70.99424582,-12,2011-12-21 16:56:16
1.00499987602234,42.373831,-70.99424582,-12,2011-12-21 16:56:17
0.998000144958496,42.373831,-70.99424582,-12,2011-12-21 16:56:18
1.00399994850159,42.373831,-70.99424582,-12,2011-12-21 16:56:19
0.998999834060669,42.373831,-70.99424582,-12,2011-12-21 16:56:20
0.999000072479248,42.373831,-70.99424581,-12,2011-12-21 16:56:21
0.998000144958496,42.373831,-70.99424581,-12,2011-12-21 16:56:22
1,42.373831,-70.99424581,-12,2011-12-21 16:56:23
1.0019998550415,42.37383101,-70.99424581,-12,2011-12-21 16:56:24
0.998000144958496,42.37383101,-70.99424581,-12,2011-12-21 16:56:25
1.00099992752075,42.37383102,-70.99424579,-12,2011-12-21 16:56:26
1,42.37383102,-70.99424579,-12,2011-12-21 16:56:27
0.999000072479248,42.37383102,-70.99424579,-12,2011-12-21 16:56:28
1,42.37383105,-70.99424576,-12,2011-12-21 16:56:29
1,42.37383105,-70.99424575,-12,2011-12-21 16:56:30
0.990999937057495,42.37383105,-70.99424575,-12,2011-12-21 16:56:31
1.07799983024597,42.37383105,-70.99424576,-12,2011-12-21 16:56:33
0.92900013923645,42.37383105,-70.99424575,-12,2011-12-21 16:56:33
1,42.37383105,-70.99424575,-12,2011-12-21 16:56:34
1.00099992752075,42.37383106,-70.99424573,-12,2011-12-21 16:56:35
1,42.37383106,-70.99424573,-12,2011-12-21 16:56:36
1,42.37383106,-70.99424573,-12,2011-12-21 16:56:37
1.00600004196167,42.37383107,-70.99424572,-12,2011-12-21 16:56:38
1,42.37383109,-70.9942457,-12,2011-12-21 16:56:39
0.995000123977661,42.3738311,-70.99424569,-12,2011-12-21 16:56:40
0.998999834060669,42.37383115,-70.99424563,-12,2011-12-21 16:56:41
0.999000072479248,42.37383116,-70.99424562,-12,2011-12-21 16:56:42
1.00099992752075,42.37383116,-70.99424561,-12,2011-12-21 16:56:43
1.01900005340576,42.37383118,-70.99424558,-12,2011-12-21 16:56:45
1.08800005912781,42.37383122,-70.99424554,-12,2011-12-21 16:56:46
0.894000053405762,42.37383124,-70.9942455,-12,2011-12-21 16:56:46
0.997999906539917,42.37383125,-70.9942455,-12,2011-12-21 16:56:47
1.00099992752075,42.37383127,-70.99424546,-12,2011-12-21 16:56:48
1.08100008964539,42.37383128,-70.99424545,-12,2011-12-21 16:56:50
0.918999910354614,42.37383131,-70.99424542,-12,2011-12-21 16:56:50
0.999000072479248,42.37383131,-70.99424539,-12,2011-12-21 16:56:51
0.99399995803833,42.37383133,-70.99424536,-12,2011-12-21 16:56:52
1.00200009346008,42.37383135,-70.99424533,-12,2011-12-21 16:56:53
1.00399994850159,42.37383136,-70.99424532,-12,2011-12-21 16:56:54
1.00200009346008,42.37383136,-70.99424531,-12,2011-12-21 16:56:55
0.997999906539917,42.37383136,-70.99424531,-12,2011-12-21 16:56:56
1.00099992752075,42.37383137,-70.9942453,-12,2011-12-21 16:56:57
1,42.37383137,-70.99424529,-12,2011-12-21 16:56:58
0.999000072479248,42.37383138,-70.99424528,-12,2011-12-21 16:56:59
1,42.37383138,-70.99424527,-12,2011-12-21 16:57:00
1.00099992752075,42.37383139,-70.99424526,-12,2011-12-21 16:57:01
1,42.37383142,-70.99424524,-12,2011-12-21 16:57:02
1,42.37383142,-70.99424523,-12,2011-12-21 16:57:03
1.00100016593933,42.37383143,-70.99424522,-12,2011-12-21 16:57:04
1.00099992752075,42.37383143,-70.99424521,-12,2011-12-21 16:57:05
1,42.37383146,-70.99424518,-12,2011-12-21 16:57:06
0.997999906539917,42.37383148,-70.99424516,-12,2011-12-21 16:57:07
1,42.37383152,-70.99424512,-12,2011-12-21 16:57:08
1.00800013542175,42.37383153,-70.99424512,-12,2011-12-21 16:57:09
0.993000030517578,42.37383153,-70.99424512,-12,2011-12-21 16:57:10
0.998999834060669,42.37383153,-70.99424512,-12,2011-12-21 16:57:11
0.998000144958496,42.37383153,-70.99424512,-12,2011-12-21 16:57:12
1,42.37383153,-70.99424512,-12,2011-12-21 16:57:13
1.01699995994568,42.37383153,-70.99424512,-12,2011-12-21 16:57:15
0.98199987411499,42.37383153,-70.99424512,-12,2011-12-21 16:57:15
1.00200009346008,42.37383154,-70.99424511,-12,2011-12-21 16:57:16
1,42.37383154,-70.99424511,-12,2011-12-21 16:57:17
1.00200009346008,42.37383154,-70.99424511,-12,2011-12-21 16:57:18
0.958999872207642,42.37383154,-70.99424511,-12,2011-12-21 16:57:19
0.989000082015991,42.37383154,-70.99424511,-12,2011-12-21 16:57:20
1,42.37383154,-70.99424511,-12,2011-12-21 16:57:21
1.0019998550415,42.37383155,-70.9942451,-12,2011-12-21 16:57:22
0.998000144958496,42.37383155,-70.9942451,-12,2011-12-21 16:57:23
1.25799989700317,42.37383155,-70.9942451,-12,2011-12-21 16:57:25
0.756999969482422,42.37383155,-70.9942451,-12,2011-12-21 16:57:25
0.983999967575073,42.37383156,-70.99424509,-12,2011-12-21 16:57:26
1.00200009346008,42.37383156,-70.99424509,-12,2011-12-21 16:57:27
0.999000072479248,42.37383156,-70.99424509,-12,2011-12-21 16:57:28
1.00099992752075,42.37383156,-70.99424509,-12,2011-12-21 16:57:29
1.00300002098083,42.37383156,-70.99424509,-12,2011-12-21 16:57:30
1,42.37383156,-70.99424508,-12,2011-12-21 16:57:31
0.996999979019165,42.37383158,-70.99424507,-12,2011-12-21 16:57:32
0.999000072479248,42.37383159,-70.99424506,-12,2011-12-21 16:57:33
1,42.3738316,-70.99424506,-12,2011-12-21 16:57:34
1,42.37383162,-70.99424504,-12,2011-12-21 16:57:35
1.00099992752075,42.37383161,-70.99424504,-12,2011-12-21 16:57:36
0.999000072479248,42.37383162,-70.99424504,-12,2011-12-21 16:57:37
1.00099992752075,42.37383162,-70.99424504,-12,2011-12-21 16:57:38
1.00600004196167,42.37383163,-70.99424503,-12,2011-12-21 16:57:39
0.99399995803833,42.37383164,-70.99424502,-12.1000003814697,2011-12-21 16:57:40
0.999000072479248,42.37383164,-70.99424502,-12.1000003814697,2011-12-21 16:57:41
1,42.37383164,-70.99424502,-12.1000003814697,2011-12-21 16:57:42
1.0019998550415,42.37383165,-70.994245,-12.1000003814697,2011-12-21 16:57:43
0.999000072479248,42.37383166,-70.99424499,-12.1000003814697,2011-12-21 16:57:44
1,42.37383167,-70.99424498,-12.1000003814697,2011-12-21 16:57:45
0.999000072479248,42.37383167,-70.99424497,-12.1000003814697,2011-12-21 16:57:46
1,42.37383168,-70.99424496,-12.1000003814697,2011-12-21 16:57:47
1,42.37383168,-70.99424495,-12.1000003814697,2011-12-21 16:57:48
1.00099992752075,42.37383168,-70.99424495,-12.1000003814697,2011-12-21 16:57:49
1,42.37383169,-70.99424493,-12.1000003814697,2011-12-21 16:57:50
0.997999906539917,42.37383169,-70.99424493,-12.1000003814697,2011-12-21 16:57:51
1.00100016593933,42.37383169,-70.99424492,-12.1000003814697,2011-12-21 16:57:52
1,42.37383169,-70.99424492,-12.1000003814697,2011-12-21 16:57:53
1,42.37383169,-70.99424491,-12.1000003814697,2011-12-21 16:57:54
1,42.37383169,-70.99424491,-12.1000003814697,2011-12-21 16:57:55
1,42.3738317,-70.99424491,-12.1000003814697,2011-12-21 16:57:56
1.00099992752075,42.3738317,-70.99424491,-12.1000003814697,2011-12-21 16:57:57
0.983999967575073,42.3738317,-70.99424491,-12.1000003814697,2011-12-21 16:57:58
1.01099991798401,42.3738317,-70.99424491,-12.1000003814697,2011-12-21 16:57:59
1.00300002098083,42.3738317,-70.99424491,-12.1000003814697,2011-12-21 16:58:00
1.00200009346008,42.3738317,-70.99424491,-12.1000003814697,2011-12-21 16:58:01
0.997999906539917,42.3738317,-70.99424491,-12.1000003814697,2011-12-21 16:58:02
1,42.3738317,-70.9942449,-12.1000003814697,2011-12-21 16:58:03
1.00100016593933,42.37383171,-70.9942449,-12.1000003814697,2011-12-21 16:58:04
1.01099991798401,42.37383176,-70.99424484,-12.1000003814697,2011-12-21 16:58:05
0.999000072479248,42.37383187,-70.99424474,-12.1000003814697,2011-12-21 16:58:06
0.986999988555908,42.37383189,-70.99424472,-12.1000003814697,2011-12-21 16:58:07
1.00399994850159,42.37383189,-70.99424472,-12.1000003814697,2011-12-21 16:58:08
0.996000051498413,42.37383189,-70.99424472,-12.1000003814697,2011-12-21 16:58:09
1.00499987602234,42.3738319,-70.99424471,-12.1000003814697,2011-12-21 16:58:10
0.999000072479248,42.3738319,-70.9942447,-12.1000003814697,2011-12-21 16:58:11
0.997999906539917,42.3738319,-70.9942447,-12.1000003814697,2011-12-21 16:58:12
1.00100016593933,42.3738319,-70.9942447,-12.1000003814697,2011-12-21 16:58:13
1,42.37383191,-70.9942447,-12.1000003814697,2011-12-21 16:58:14
1,42.37383191,-70.9942447,-12.1000003814697,2011-12-21 16:58:15
1.00099992752075,42.37383191,-70.9942447,-12.1000003814697,2011-12-21 16:58:16
0.999000072479248,42.37383191,-70.9942447,-12.1000003814697,2011-12-21 16:58:17
1,42.37383192,-70.99424469,-12.1000003814697,2011-12-21 16:58:18
1,42.37383194,-70.99424467,-12.1000003814697,2011-12-21 16:58:19
1,42.37383195,-70.99424466,-12.1000003814697,2011-12-21 16:58:20
1,42.37383196,-70.99424465,-12.1000003814697,2011-12-21 16:58:21
1.00099992752075,42.37383197,-70.99424463,-12.1000003814697,2011-12-21 16:58:22
1,42.37383196,-70.99424464,-12.1000003814697,2011-12-21 16:58:23
1.07699990272522,42.37383199,-70.99424458,-12.1000003814697,2011-12-21 16:58:25
0.916000127792358,42.3738321,-70.99424444,-12.1000003814697,2011-12-21 16:58:25
1.00099992752075,42.37383217,-70.99424434,-12.1000003814697,2011-12-21 16:58:26
1.00399994850159,42.37383217,-70.99424434,-12.1000003814697,2011-12-21 16:58:27
0.996999979019165,42.37383221,-70.99424429,-12.1000003814697,2011-12-21 16:58:28
1.00100016593933,42.37383219,-70.99424432,-12.1000003814697,2011-12-21 16:58:29
0.998999834060669,42.37383218,-70.99424432,-12.1000003814697,2011-12-21 16:58:30
1.00400018692017,42.37383219,-70.99424431,-12.1000003814697,2011-12-21 16:58:31
0.998999834060669,42.37383221,-70.99424429,-12.1000003814697,2011-12-21 16:58:32
1,42.37383222,-70.99424428,-12.1000003814697,2011-12-21 16:58:33
1,42.37383222,-70.99424427,-12.1000003814697,2011-12-21 16:58:34
1,42.37383225,-70.99424425,-12.1000003814697,2011-12-21 16:58:35
1.00400018692017,42.37383226,-70.99424424,-12.1000003814697,2011-12-21 16:58:36
0.996999979019165,42.37383226,-70.99424424,-12.1000003814697,2011-12-21 16:58:37
1,42.37383227,-70.99424424,-12.1000003814697,2011-12-21 16:58:38
1.00300002098083,42.37383228,-70.99424423,-12.1000003814697,2011-12-21 16:58:39
0.996999979019165,42.37383228,-70.99424422,-12.1000003814697,2011-12-21 16:58:40
1,42.37383229,-70.99424421,-12.1000003814697,2011-12-21 16:58:41
1.00099992752075,42.37383229,-70.99424421,-12.1000003814697,2011-12-21 16:58:42
1.00099992752075,42.37383229,-70.99424421,-12.1000003814697,2011-12-21 16:58:43
1.00500011444092,42.3738323,-70.9942442,-12.1000003814697,2011-12-21 16:58:44
0.993000030517578,42.37383231,-70.99424418,-12.1000003814697,2011-12-21 16:58:45
1.00099992752075,42.37383232,-70.99424417,-12.1000003814697,2011-12-21 16:58:46
1,42.37383234,-70.99424416,-12.1000003814697,2011-12-21 16:58:47
1,42.37383236,-70.99424414,-12.1000003814697,2011-12-21 16:58:48
1.05800008773804,42.37383237,-70.99424412,-12.1000003814697,2011-12-21 16:58:49
0.940999984741211,42.37383241,-70.99424404,-12.1000003814697,2011-12-21 16:58:50
1.00099992752075,42.37383243,-70.99424402,-12.1000003814697,2011-12-21 16:58:51
1,42.37383243,-70.99424401,-12.1000003814697,2011-12-21 16:58:52
1,42.37383243,-70.99424402,-12.1000003814697,2011-12-21 16:58:53
1.00099992752075,42.37383245,-70.994244,-12.1000003814697,2011-12-21 16:58:54
1.17300009727478,42.37383245,-70.994244,-12.1000003814697,2011-12-21 16:58:56
0.828000068664551,42.37383245,-70.994244,-12.1000003814697,2011-12-21 16:58:56
0.995999813079834,42.37383245,-70.994244,-12.1000003814697,2011-12-21 16:58:57
0.990000009536743,42.37383245,-70.994244,-12.1000003814697,2011-12-21 16:58:58
1.00600004196167,42.37383246,-70.994244,-12.1000003814697,2011-12-21 16:58:59
1.00399994850159,42.37383246,-70.994244,-12.1000003814697,2011-12-21 16:59:00
1.00100016593933,42.37383246,-70.994244,-12.1000003814697,2011-12-21 16:59:01
1.53099989891052,42.37383246,-70.99424399,-12.1000003814697,2011-12-21 16:59:03
1.00099992752075,42.37383246,-70.994244,-12.1000003814697,2011-12-21 16:59:04
0.999000072479248,42.37383246,-70.994244,-12.1000003814697,2011-12-21 16:59:05
1,42.37383246,-70.99424399,-12.1000003814697,2011-12-21 16:59:06
1,42.37383246,-70.99424399,-12.1000003814697,2011-12-21 16:59:07
1.00500011444092,42.37383246,-70.99424399,-12.1000003814697,2011-12-21 16:59:08
1.0019998550415,42.37383246,-70.99424399,-12.1000003814697,2011-12-21 16:59:09
0.993000030517578,42.37383246,-70.99424399,-12.1000003814697,2011-12-21 16:59:10
1,42.37383246,-70.99424399,-12.1000003814697,2011-12-21 16:59:11
1.00099992752075,42.37383246,-70.99424399,-12.1000003814697,2011-12-21 16:59:12
0.999000072479248,42.37383246,-70.99424399,-12.1000003814697,2011-12-21 16:59:13
1.00099992752075,42.37383246,-70.99424399,-12.1000003814697,2011-12-21 16:59:14
1.007000207901,42.37383246,-70.99424399,-12.1000003814697,2011-12-21 16:59:15
0.99399995803833,42.37383246,-70.99424399,-12.1000003814697,2011-12-21 16:59:16
0.998999834060669,42.37383246,-70.99424399,-12.1000003814697,2011-12-21 16:59:17
1.00100016593933,42.37383247,-70.994244,-12.1000003814697,2011-12-21 16:59:18
0.998999834060669,42.37383247,-70.994244,-12.1000003814697,2011-12-21 16:59:19
1.00100016593933,42.37383247,-70.994244,-12.1000003814697,2011-12-21 16:59:20
0.998999834060669,42.37383247,-70.99424399,-12.1000003814697,2011-12-21 16:59:21
1.05200004577637,42.37383247,-70.99424401,-12.1000003814697,2011-12-21 16:59:22
0.947000026702881,42.37383247,-70.99424401,-12.1000003814697,2011-12-21 16:59:23
0.996000051498413,42.37383247,-70.99424401,-12.1000003814697,2011-12-21 16:59:24
1.00399994850159,42.37383247,-70.99424401,-12.1000003814697,2011-12-21 16:59:25
0.999000072479248,42.37383247,-70.99424401,-12.1000003814697,2011-12-21 16:59:26
1.00099992752075,42.37383247,-70.99424401,-12.1000003814697,2011-12-21 16:59:27
0.999000072479248,42.37383247,-70.99424401,-12.1000003814697,2011-12-21 16:59:28
1,42.37383247,-70.99424401,-12.1000003814697,2011-12-21 16:59:29
1.00099992752075,42.37383247,-70.99424401,-12.1000003814697,2011-12-21 16:59:30
1.00099992752075,42.37383247,-70.99424401,-12.1000003814697,2011-12-21 16:59:31
1,42.37383247,-70.99424401,-12.1000003814697,2011-12-21 16:59:32
1.01600003242493,42.37383247,-70.99424401,-12.1000003814697,2011-12-21 16:59:33
1,42.37383247,-70.99424401,-12.1000003814697,2011-12-21 16:59:34
1.19799995422363,42.37383247,-70.99424401,-12.1000003814697,2011-12-21 16:59:35
0.783000230789185,42.37383248,-70.99424401,-12.1000003814697,2011-12-21 16:59:36
1.00299978256226,42.37383248,-70.99424401,-12.1000003814697,2011-12-21 16:59:37
0.999000072479248,42.37383248,-70.99424401,-12.1000003814697,2011-12-21 16:59:38
0.999000072479248,42.37383248,-70.99424401,-12.1000003814697,2011-12-21 16:59:39
1,42.37383247,-70.99424402,-12.1000003814697,2011-12-21 16:59:40
1.00099992752075,42.37383247,-70.99424402,-12.1000003814697,2011-12-21 16:59:41
0.999000072479248,42.37383247,-70.99424402,-12.1000003814697,2011-12-21 16:59:42
1.00099992752075,42.37383248,-70.99424403,-12.1000003814697,2011-12-21 16:59:43
1.00099992752075,42.37383248,-70.99424403,-12.1000003814697,2011-12-21 16:59:44
1,42.37383248,-70.99424404,-12.1000003814697,2011-12-21 16:59:45
1,42.37383248,-70.99424404,-12.1000003814697,2011-12-21 16:59:46
1.00200009346008,42.37383247,-70.99424407,-12.1000003814697,2011-12-21 16:59:47
0.996999979019165,42.37383248,-70.99424407,-12.1000003814697,2011-12-21 16:59:48
1.00999999046326,42.37383248,-70.99424406,-12.1000003814697,2011-12-21 16:59:49
1.06100010871887,42.37383249,-70.99424406,-12.1000003814697,2011-12-21 16:59:50
0.928999900817871,42.37383249,-70.99424407,-12.1000003814697,2011-12-21 16:59:51
1.00099992752075,42.37383249,-70.99424407,-12.1000003814697,2011-12-21 16:59:52
1,42.37383249,-70.99424407,-12.1000003814697,2011-12-21 16:59:53
1.00100016593933,42.37383249,-70.99424407,-12.1000003814697,2011-12-21 16:59:54
0.996999979019165,42.37383249,-70.99424407,-12.1000003814697,2011-12-21 16:59:55
1,42.37383248,-70.99424408,-12.1000003814697,2011-12-21 16:59:56
1,42.37383248,-70.99424408,-12.1000003814697,2011-12-21 16:59:57
