"diffSecs","N.samples","x.mean","x.absolute.deviation","x.standard.deviation","x.max.deviation","x.PSD.1","x.PSD.3","x.PSD.6","x.PSD.10","y.mean","y.absolute.deviation","y.standard.deviation","y.max.deviation","y.PSD.1","y.PSD.3","y.PSD.6","y.PSD.10","z.mean","z.absolute.deviation","z.standard.deviation","z.max.deviation","z.PSD.1","z.PSD.3","z.PSD.6","z.PSD.10","time"
0,51,0.0596090480685234,0.980355799198151,1.14110803604126,2.16650056838989,62.3708839416504,34.8687286376953,137.181335449219,164.403411865234,-9.8752965927124,0.589937210083008,0.779030084609985,2.06920313835144,1.02744102478027,36.9974136352539,93.3171463012695,65.7266540527344,0.00192287028767169,0.706357777118683,0.859025478363037,1.67885994911194,18.0428371429443,30.95139503479,4.25441837310791,27.8429145812988,2011-12-29 07:46:58
1.01397502422333,46,-0.85317850112915,0.943143844604492,1.27683246135712,3.67749357223511,1.48923325538635,12.30002784729,37.8747901916504,84.6642074584961,-9.97421550750732,0.942013084888458,1.20209586620331,3.10785484313965,12.2676935195923,36.378604888916,77.2067108154297,20.7286338806152,-0.027074882760644,1.25962615013123,1.60987460613251,3.42017555236816,98.1094589233398,65.4582595825195,93.8315887451172,23.0189266204834,2011-12-29 07:46:59
1.00996172428131,38,0.354329735040665,1.89197707176208,2.42716813087463,5.45378732681274,5.40974187850952,61.3396759033203,256.084991455078,89.4243927001953,-9.63142013549805,1.45274233818054,1.91482436656952,4.12988996505737,23.4478244781494,50.2989883422852,35.5185928344727,54.81982421875,0.107098937034607,1.29667818546295,1.7800030708313,4.47105836868286,37.2582397460938,110.090843200684,222.383361816406,78.166877746582,2011-12-29 07:47:00
1.00519168376923,49,-0.582995295524597,1.59521234035492,2.21147847175598,6.18359279632568,1.02104461193085,181.993850708008,451.204833984375,410.681243896484,-9.99958038330078,1.50400757789612,1.92826545238495,4.86089611053467,35.6782836914062,58.0937690734863,469.219757080078,160.857040405273,-0.699074029922485,1.35892152786255,1.86309909820557,4.18463754653931,0.0525626428425312,436.350311279297,958.154968261719,59.7136497497559,2011-12-29 07:47:01
1.02994501590729,49,-1.22543096542358,1.67667984962463,2.25725436210632,5.6490306854248,15.7444114685059,328.9521484375,676.325561523438,371.258666992188,-10.0358047485352,1.60927081108093,2.08649158477783,4.86049604415894,0.261654913425446,34.5143737792969,452.371246337891,516.576965332031,-1.00107884407043,1.80840170383453,2.50137948989868,8.06026554107666,99.0541152954102,836.262878417969,1428.0771484375,250.47705078125,2011-12-29 07:47:02
1.00992333889008,33,-1.28080785274506,1.4866304397583,1.84147691726685,4.44835567474365,7.86705541610718,17.7935123443604,70.6944198608398,107.316482543945,-9.95939540863037,1.0438814163208,1.23246169090271,2.32001566886902,6.51113891601562,31.0807476043701,47.372673034668,30.7723045349121,-0.0353633761405945,0.4974105656147,0.672270774841309,2.13190627098083,0.0196732599288225,0.0783921480178833,1.03154230117798,12.0362300872803,2011-12-29 07:47:03
1.0011533498764,48,-0.562247931957245,0.352222174406052,0.397639870643616,0.869522988796234,6.66029787063599,45.9600410461426,27.1018657684326,3.21950793266296,-9.85425281524658,0.14404371380806,0.191323846578598,0.586968600749969,0.643903732299805,2.00922346115112,1.82712376117706,0.807139039039612,0.312791258096695,0.270508587360382,0.368213474750519,1.18558311462402,1.02835929393768,1.17568874359131,2.41159701347351,0.284097790718079,2011-12-29 07:47:04
1.00290834903717,45,-1.23127937316895,1.24532341957092,1.63217222690582,3.33970904350281,0.00689829746261239,53.8389854431152,476.442016601562,279.821960449219,-9.29169178009033,0.709449410438538,0.797027587890625,1.68194973468781,0.765876233577728,60.5400199890137,67.2271575927734,35.7921562194824,-1.26375031471252,1.25867986679077,1.7175430059433,5.3531231880188,105.853736877441,362.439147949219,494.404632568359,218.610702514648,2011-12-29 07:47:05
1.01330828666687,47,-0.916191458702087,1.47430038452148,1.92239475250244,4.6231050491333,1.65301465988159,188.016235351562,454.211090087891,421.141448974609,-9.94790744781494,1.77701449394226,2.35107898712158,6.45861721038818,27.3205738067627,59.1476249694824,674.729919433594,595.41015625,-0.488663285970688,1.49633765220642,2.02630591392517,4.50292158126831,10.8294353485107,488.177856445312,1227.98205566406,149.639923095703,2011-12-29 07:47:06
