"diffSecs","latitude","longitude","altitude","time"
0.911999940872192,42.85491023,-71.4911411,28.2000007629395,2012-01-18 13:40:00
1.01600003242493,42.85491023,-71.4911411,28.2000007629395,2012-01-18 13:40:01
0.971000194549561,42.8549099,-71.49114099,28.2000007629395,2012-01-18 13:40:02
1.35799980163574,42.85490976,-71.49114061,28.2000007629395,2012-01-18 13:40:04
1.57100009918213,42.85490972,-71.49114056,28.2000007629395,2012-01-18 13:40:05
0.958999872207642,42.85490901,-71.49114018,28.2000007629395,2012-01-18 13:40:06
1.14900016784668,42.85490911,-71.49114002,28.2000007629395,2012-01-18 13:40:07
1.41400003433228,42.85490873,-71.49114008,28.2000007629395,2012-01-18 13:40:09
0.472999811172485,42.85490869,-71.49114057,28.1000003814697,2012-01-18 13:40:09
0.51200008392334,42.85490884,-71.49114052,28.2000007629395,2012-01-18 13:40:10
0.88100004196167,42.85490894,-71.49114091,28.1000003814697,2012-01-18 13:40:11
0.88100004196167,42.85490894,-71.49114091,28.1000003814697,2012-01-18 13:40:12
1.01399993896484,42.85490867,-71.49114065,28.1000003814697,2012-01-18 13:40:13
1.01099991798401,42.85490866,-71.49114059,28.2000007629395,2012-01-18 13:40:14
0.985000133514404,42.85490891,-71.49114105,28.2000007629395,2012-01-18 13:40:15
1.02600002288818,42.85490898,-71.4911415,28.1000003814697,2012-01-18 13:40:16
0.960999965667725,42.85490898,-71.4911415,28.1000003814697,2012-01-18 13:40:17
0.996000051498413,42.85490893,-71.49114131,28.1000003814697,2012-01-18 13:40:18
1.16599988937378,42.85490897,-71.49114147,28.1000003814697,2012-01-18 13:40:19
1.04399991035461,42.85490743,-71.49113732,28.2000007629395,2012-01-18 13:40:20
0.940000057220459,42.85490744,-71.49113716,28.2000007629395,2012-01-18 13:40:21
1.63700008392334,42.85490744,-71.49113716,28.2000007629395,2012-01-18 13:40:22
0.378999948501587,42.85490745,-71.49113711,28.2000007629395,2012-01-18 13:40:23
1.22000002861023,42.85490733,-71.49113669,28.2000007629395,2012-01-18 13:40:24
1.06200003623962,42.85490766,-71.491137,28.2000007629395,2012-01-18 13:40:25
0.652999877929688,42.85490766,-71.491137,28.2000007629395,2012-01-18 13:40:26
0.942000150680542,42.85490765,-71.49113703,28.2000007629395,2012-01-18 13:40:27
1.02699995040894,42.85490765,-71.49113703,28.2000007629395,2012-01-18 13:40:28
0.993000030517578,42.85490756,-71.49113726,28.2000007629395,2012-01-18 13:40:29
1.04099988937378,42.85490753,-71.49113731,28.2000007629395,2012-01-18 13:40:30
1.01500010490417,42.85490759,-71.4911381,28.2000007629395,2012-01-18 13:40:31
1.01799988746643,42.8549068,-71.49113673,28.2999992370605,2012-01-18 13:40:32
0.901999950408936,42.85490692,-71.49113723,28.2000007629395,2012-01-18 13:40:33
1.00300002098083,42.85490692,-71.49113723,28.2000007629395,2012-01-18 13:40:34
1.01200008392334,42.85490703,-71.49113775,28.2000007629395,2012-01-18 13:40:35
0.98799991607666,42.85490695,-71.49113771,28.2000007629395,2012-01-18 13:40:36
1,42.85490695,-71.49113771,28.2000007629395,2012-01-18 13:40:37
0.999000072479248,42.85490692,-71.49113804,28.2000007629395,2012-01-18 13:40:38
1.00099992752075,42.85490692,-71.49113789,28.2000007629395,2012-01-18 13:40:39
1.01500010490417,42.85490692,-71.49113789,28.2000007629395,2012-01-18 13:40:40
0.983999967575073,42.85490655,-71.49113753,28.2000007629395,2012-01-18 13:40:41
1.00500011444092,42.85490655,-71.49113753,28.2000007629395,2012-01-18 13:40:42
1.01799988746643,42.85490644,-71.49113773,28.2000007629395,2012-01-18 13:40:43
0.976999998092651,42.85490656,-71.49113812,28.2000007629395,2012-01-18 13:40:44
1.19900012016296,42.85490656,-71.49113812,28.2000007629395,2012-01-18 13:40:45
0.891999959945679,42.85490654,-71.49113811,28.2000007629395,2012-01-18 13:40:46
0.974999904632568,42.85490641,-71.49113791,28.2000007629395,2012-01-18 13:40:47
1.02900004386902,42.85490631,-71.49113774,28.2000007629395,2012-01-18 13:40:48
0.953999996185303,42.85490626,-71.49113786,28.2000007629395,2012-01-18 13:40:49
1.09599995613098,42.85490628,-71.49113791,28.2000007629395,2012-01-18 13:40:50
0.875,42.85490482,-71.491135,28.2000007629395,2012-01-18 13:40:51
1.03500008583069,42.85490483,-71.49113508,28.2000007629395,2012-01-18 13:40:52
1.10699987411499,42.85490483,-71.49113508,28.2000007629395,2012-01-18 13:40:53
0.900000095367432,42.85490481,-71.49113518,28.2000007629395,2012-01-18 13:40:54
0.980999946594238,42.85490486,-71.49113527,28.2000007629395,2012-01-18 13:40:55
1.03500008583069,42.85490483,-71.49113529,28.2000007629395,2012-01-18 13:40:56
1.02600002288818,42.85490465,-71.49113531,28.2000007629395,2012-01-18 13:40:57
0.972999811172485,42.85490465,-71.49113531,28.2000007629395,2012-01-18 13:40:58
1.12800002098083,42.85490635,-71.49113873,28.1000003814697,2012-01-18 13:40:59
0.89900016784668,42.85490607,-71.4911384,28.1000003814697,2012-01-18 13:41:00
0.954999923706055,42.85490604,-71.4911385,28.1000003814697,2012-01-18 13:41:01
1.21600008010864,42.85490556,-71.49113749,28.1000003814697,2012-01-18 13:41:02
0.789999961853027,42.85490559,-71.49113759,28.1000003814697,2012-01-18 13:41:03
0.957000017166138,42.85490561,-71.49113768,28.1000003814697,2012-01-18 13:41:04
1.16999983787537,42.85490543,-71.49113772,28.1000003814697,2012-01-18 13:41:05
0.857000112533569,42.85490543,-71.49113772,28.1000003814697,2012-01-18 13:41:06
1.00999999046326,42.85490544,-71.49113824,28.1000003814697,2012-01-18 13:41:07
1.04299998283386,42.8549055,-71.49113849,28.1000003814697,2012-01-18 13:41:08
0.949000120162964,42.85490558,-71.49113863,28.1000003814697,2012-01-18 13:41:09
1.28599977493286,42.85490558,-71.49113863,28.1000003814697,2012-01-18 13:41:10
0.912000179290771,42.85490557,-71.49113875,28,2012-01-18 13:41:11
0.805999994277954,42.85490553,-71.49113876,28,2012-01-18 13:41:12
1.01699995994568,42.85490545,-71.4911387,28,2012-01-18 13:41:13
1.14599990844727,42.85490538,-71.4911387,28,2012-01-18 13:41:14
0.940999984741211,42.85490542,-71.49113881,28,2012-01-18 13:41:15
0.857000112533569,42.85490542,-71.49113881,28,2012-01-18 13:41:16
1.03699994087219,42.85490621,-71.49114048,28,2012-01-18 13:41:17
0.959000110626221,42.85490618,-71.49114051,28,2012-01-18 13:41:18
1.07799983024597,42.85490518,-71.49113856,28,2012-01-18 13:41:19
0.982000112533569,42.85490436,-71.49113703,28,2012-01-18 13:41:20
1.13100004196167,42.85490436,-71.49113703,28,2012-01-18 13:41:21
0.871999979019165,42.85490434,-71.49113689,28.1000003814697,2012-01-18 13:41:22
0.927999973297119,42.85490457,-71.49113737,28,2012-01-18 13:41:23
0.997999906539917,42.85490455,-71.49113732,28,2012-01-18 13:41:24
0.998000144958496,42.85490455,-71.49113732,28,2012-01-18 13:41:25
1.0019998550415,42.85490477,-71.49113778,28,2012-01-18 13:41:26
0.998000144958496,42.85490476,-71.49113774,28,2012-01-18 13:41:27
1.00499987602234,42.85490469,-71.4911378,28,2012-01-18 13:41:28
1.00100016593933,42.85490467,-71.49113774,28,2012-01-18 13:41:29
1.00899982452393,42.85490467,-71.49113773,28,2012-01-18 13:41:30
0.992000102996826,42.85490469,-71.49113781,28,2012-01-18 13:41:31
0.999000072479248,42.85490467,-71.49113789,28,2012-01-18 13:41:32
1.0019998550415,42.85490474,-71.49113911,28,2012-01-18 13:41:33
1.00200009346008,42.85490472,-71.49113908,28,2012-01-18 13:41:34
1.00099992752075,42.85490465,-71.49113888,28,2012-01-18 13:41:35
0.983000040054321,42.85490466,-71.49113893,28,2012-01-18 13:41:36
1.00699996948242,42.85490468,-71.49113903,28,2012-01-18 13:41:37
1.00699996948242,42.85490466,-71.49113907,28,2012-01-18 13:41:38
1.00200009346008,42.85490464,-71.49113906,28,2012-01-18 13:41:39
1.03499984741211,42.85490467,-71.49113875,28,2012-01-18 13:41:40
0.955000162124634,42.85490468,-71.49113882,28,2012-01-18 13:41:41
1.0149998664856,42.85490471,-71.49113891,28,2012-01-18 13:41:42
0.989000082015991,42.85490471,-71.49113892,28,2012-01-18 13:41:43
1.01200008392334,42.85490475,-71.49113896,28,2012-01-18 13:41:44
0.98799991607666,42.85490478,-71.49113903,28,2012-01-18 13:41:45
0.999000072479248,42.85490482,-71.49113914,28,2012-01-18 13:41:46
0.997999906539917,42.85490484,-71.49113915,28,2012-01-18 13:41:47
0.992000102996826,42.85490486,-71.49113922,28,2012-01-18 13:41:48
1.01699995994568,42.85490484,-71.49113918,28,2012-01-18 13:41:49
1.02199983596802,42.85490483,-71.49113923,28,2012-01-18 13:41:50
0.983000040054321,42.85490484,-71.49113935,28,2012-01-18 13:41:51
0.998000144958496,42.85490481,-71.49113933,28,2012-01-18 13:41:52
0.983000040054321,42.85490482,-71.49113929,28,2012-01-18 13:41:53
1.00999999046326,42.85490483,-71.49113931,28,2012-01-18 13:41:54
1.01599979400635,42.85490479,-71.49113938,28,2012-01-18 13:41:55
0.989000082015991,42.85490476,-71.49113939,28,2012-01-18 13:41:56
1.0239999294281,42.85490473,-71.49113936,28,2012-01-18 13:41:57
1.00999999046326,42.85490473,-71.49113936,28,2012-01-18 13:41:58
0.993000030517578,42.8549047,-71.49113939,28,2012-01-18 13:41:59
