"diffSecs","N.samples","x.mean","x.absolute.deviation","x.standard.deviation","x.max.deviation","x.PSD.1","x.PSD.3","x.PSD.6","x.PSD.10","y.mean","y.absolute.deviation","y.standard.deviation","y.max.deviation","y.PSD.1","y.PSD.3","y.PSD.6","y.PSD.10","z.mean","z.absolute.deviation","z.standard.deviation","z.max.deviation","z.PSD.1","z.PSD.3","z.PSD.6","z.PSD.10","time"
1.15199995040894,25,-3.33818364143372,0.0244773644953966,0.0281503535807133,0.0627626776695251,0.00363854435272515,0.00680637359619141,0.0081560080870986,0.00514148315414786,1.50316333770752,0.0248225945979357,0.0292915273457766,0.0560939870774746,0.000114101625513285,0.00203516730107367,0.0115939332172275,0.00677284086123109,9.17313957214355,0.0269880499690771,0.0325842723250389,0.0843378454446793,0.000115368959086481,0.000527584343217313,0.00695302477106452,0.0130293909460306,2012-01-17 11:06:01
5.86399984359741,15,-3.29438066482544,0.00993742607533932,0.0131407715380192,0.030073706060648,7.81439439379028e-07,1.76600553913886e-06,5.61164415557869e-06,1.78228565346217e-05,1.52068448066711,0.0279816370457411,0.0332977138459682,0.0594936683773994,7.72098064771853e-05,0.000163002521730959,0.000985080259852111,0.00249008601531386,9.19471454620361,0.0188290067017078,0.0223055183887482,0.0451110191643238,8.40680295368657e-05,0.000199120928300545,0.000438547023804858,0.000183208816451952,2012-01-17 11:06:07
0.413000106811523,99,-3.32435512542725,0.0252885576337576,0.0327035337686539,0.107774123549461,0.117591060698032,0.281033247709274,0.419678241014481,0.102075830101967,1.49447405338287,0.0336313843727112,0.0404655076563358,0.111736364662647,0.112037070095539,0.584410071372986,0.37581729888916,0.166450217366219,9.18179798126221,0.0285567138344049,0.0350424014031887,0.110646866261959,0.0472115874290466,0.0905560702085495,0.0743007808923721,0.234254881739616,2012-01-17 11:06:07
0.178999900817871,99,-3.32197785377502,0.0439012870192528,0.055375661700964,0.139769554138184,0.292588621377945,1.55583047866821,0.686504781246185,0.139131605625153,1.50071454048157,0.0357746072113514,0.0436224602162838,0.117976948618889,0.0112310936674476,0.45512655377388,0.370624721050262,0.135058000683784,9.18328380584717,0.0315563566982746,0.0405938252806664,0.0925193727016449,0.113423854112625,0.259793937206268,0.17540930211544,0.0949000045657158,2012-01-17 11:06:07
1.0090000629425,77,-3.29885506629944,0.0248995441943407,0.0303254034370184,0.0746323615312576,0.144112661480904,0.363870412111282,0.108549349009991,0.0550457760691643,1.51812028884888,0.0313832685351372,0.0412454754114151,0.139203518629074,0.0285609792917967,0.154419898986816,0.240174725651741,0.533121585845947,9.20704364776611,0.0463227145373821,0.0577196702361107,0.128887623548508,0.028712160885334,2.02237296104431,0.170091509819031,0.11015385389328,2012-01-17 11:06:08
1.01200008392334,45,-3.33164572715759,0.0251049809157848,0.0315171331167221,0.0712615326046944,0.000474611500976607,0.00654192687943578,0.0341722927987576,0.0511888861656189,1.50935232639313,0.0307226609438658,0.0344598032534122,0.0579681731760502,0.0013136746129021,0.0737144500017166,0.0736382454633713,0.0470473580062389,9.19449710845947,0.0451545305550098,0.0554553866386414,0.121820770204067,0.0195135567337275,0.292094737291336,0.273507684469223,0.129543602466583,2012-01-17 11:06:09
1,23,-3.33767199516296,0.0359638519585133,0.0414659939706326,0.0720576494932175,0.00511400727555156,0.00971865747123957,0.0145229185000062,0.0150187583640218,1.52088344097137,0.024692727252841,0.0289056524634361,0.0498860031366348,0.000524137925822288,0.00109902897384018,0.00234087416902184,0.00369959115050733,9.16068935394287,0.0347034782171249,0.0403102673590183,0.0673680528998375,0.00348285073414445,0.00686383433640003,0.0110856257379055,0.00211499584838748,2012-01-17 11:06:10
1.00499987602234,48,-3.30913138389587,0.0172637645155191,0.0210810620337725,0.0545493997633457,0.00389843340963125,0.0264970883727074,0.0443632155656815,0.0246765483170748,1.4834600687027,0.0420272722840309,0.0479899719357491,0.105217203497887,0.138304725289345,0.1065369322896,0.261930376291275,0.113669835031033,9.20844459533691,0.0175706539303064,0.0266321394592524,0.10787358134985,0.00273475097492337,0.00948888901621103,0.0178480036556721,0.0411269068717957,2012-01-17 11:06:11
1.00600004196167,40,-3.29969263076782,0.0206062383949757,0.0250969566404819,0.0634981393814087,0.00254485523328185,0.00741417892277241,0.0175599604845047,0.0012947719078511,1.46339738368988,0.0303270556032658,0.0382011085748672,0.10566657781601,0.0821754038333893,0.153308346867561,0.124718882143497,0.0304594840854406,9.19790172576904,0.0273240357637405,0.0367187932133675,0.0889957919716835,0.0257669743150473,0.0474562495946884,0.0308081079274416,0.0699033886194229,2012-01-17 11:06:12
1.00999999046326,51,-3.30945587158203,0.017803531140089,0.0210376679897308,0.0444183014333248,0.000853694451507181,0.00784044340252876,0.0123921018093824,0.0238324925303459,1.48811101913452,0.0193720106035471,0.0232913848012686,0.0613396018743515,0.000367647444363683,0.00194500898942351,0.0247222725301981,0.0807463303208351,9.22882652282715,0.035162303596735,0.049315020442009,0.156137228012085,0.00204243720509112,0.0730103477835655,0.131974011659622,0.115086756646633,2012-01-17 11:06:13
1.02300000190735,39,-3.32596302032471,0.0258802492171526,0.0299217775464058,0.0671377331018448,0.0308558158576488,0.0262459777295589,0.0146433599293232,0.0268162041902542,1.49061071872711,0.0286656022071838,0.0338257364928722,0.0686464980244637,1.48979580671948e-07,0.00716305058449507,0.0428460240364075,0.055802121758461,9.19008827209473,0.0297103673219681,0.0397997349500656,0.116423018276691,0.0240348614752293,0.0426970459520817,0.021716196089983,0.0771768912672997,2012-01-17 11:06:14
1.01699995994568,49,-3.2980363368988,0.0185513719916344,0.0227803643792868,0.0520353838801384,5.49424839846324e-07,0.0101168677210808,0.0457058101892471,0.0278856083750725,1.47960329055786,0.0283947549760342,0.0329525656998158,0.0600406900048256,0.0672591254115105,0.119501955807209,0.134385973215103,0.0717864856123924,9.21164608001709,0.031964898109436,0.0370335653424263,0.0914624482393265,0.046624019742012,0.0396476686000824,0.0877734869718552,0.143119901418686,2012-01-17 11:06:15
1.00100016593933,47,-3.28397583961487,0.0236088410019875,0.0285815820097923,0.0673946589231491,0.0320794172585011,0.12765508890152,0.0355828665196896,0.0296170171350241,1.47350132465363,0.0262457635253668,0.0368860028684139,0.100570291280746,0.0282956473529339,0.0527693033218384,0.0781798735260963,0.0941662564873695,9.21032238006592,0.0292027853429317,0.0339497849345207,0.080331414937973,0.0284945107996464,0.084399126470089,0.223632216453552,0.106082737445831,2012-01-17 11:06:16
1.02499985694885,19,-3.2991635799408,0.0177660565823317,0.0238766949623823,0.0629691183567047,6.36378463241272e-05,0.000116781506221741,0.000172915068105794,0.000883798638824373,1.49267530441284,0.0312943607568741,0.0410647168755531,0.105808593332767,2.61555833276361e-05,0.000128154875710607,0.00149056583177298,0.00353140779770911,9.22547721862793,0.0331418253481388,0.0394638627767563,0.0856796056032181,0.000100836245110258,0.000463906675577164,0.00418597413226962,0.00761105166748166,2012-01-17 11:06:17
1.0220000743866,57,-3.35335803031921,0.0389730297029018,0.0439496897161007,0.0789694041013718,0.322905957698822,0.186931788921356,0.189930021762848,0.086241140961647,1.48906230926514,0.0443517714738846,0.0532966554164886,0.106324709951878,0.0810896679759026,0.149402320384979,0.191382467746735,0.215141817927361,9.17403507232666,0.0281433463096619,0.034762978553772,0.0734639763832092,0.0108499582856894,0.0173404682427645,0.193601131439209,0.104163587093353,2012-01-17 11:06:18
1.00099992752075,27,-3.29394459724426,0.0171919632703066,0.0193083137273788,0.0305096041411161,0.00414588209241629,0.00746916607022285,0.00718930829316378,0.000756509834900498,1.46663892269135,0.0291374512016773,0.0340061709284782,0.0740946829319,0.000177455644006841,0.00408944208174944,0.0175158604979515,0.00271293101832271,9.19318962097168,0.0506882257759571,0.0599397271871567,0.123128220438957,0.0163660198450089,0.0293437615036964,0.0333068035542965,0.0129699297249317,2012-01-17 11:06:19
1.00399994850159,48,-3.31056141853333,0.0232226997613907,0.0274347960948944,0.0547538958489895,0.0307334624230862,0.105800703167915,0.0938207805156708,0.00887912511825562,1.45996499061584,0.0324845165014267,0.0393095090985298,0.0894856527447701,0.0731445550918579,0.199771016836166,0.124795094132423,0.133901357650757,9.20721817016602,0.0281945466995239,0.0355635099112988,0.0992926359176636,0.00504093058407307,0.121976673603058,0.140354931354523,0.166821345686913,2012-01-17 11:06:20
1.01400017738342,35,-3.29783630371094,0.038265984505415,0.0430709831416607,0.0910617411136627,0.055256325751543,0.0761770829558372,0.0171924438327551,0.0271117519587278,1.49117112159729,0.0314933583140373,0.0377955287694931,0.0680861249566078,0.0374853163957596,0.0559955276548862,0.0560511872172356,0.0509413294494152,9.19471454620361,0.0522277764976025,0.0614533163607121,0.133370667695999,0.0739809349179268,0.141101539134979,0.137666121125221,0.0162376090884209,2012-01-17 11:06:21
1.00699996948242,48,-3.30259370803833,0.0284920912235975,0.0348584689199924,0.0708938613533974,0.0586227364838123,0.27905860543251,0.204993203282356,0.0139472540467978,1.49817001819611,0.0271726045757532,0.0328461453318596,0.0663991346955299,0.00570582458749413,0.0071959956549108,0.0318693108856678,0.0799526497721672,9.20394897460938,0.0297949314117432,0.0360855124890804,0.0837655067443848,0.120841681957245,0.182572871446609,0.0876534879207611,0.0465019829571247,2012-01-17 11:06:22
1.0090000629425,33,-3.27155780792236,0.032148577272892,0.0363692343235016,0.0647833347320557,0.000109621527371928,0.0140688791871071,0.0595445334911346,0.0477415360510349,1.4802098274231,0.0397669076919556,0.0458029396831989,0.0974721387028694,0.00432909606024623,0.0240815710276365,0.0613784454762936,0.0041194879449904,9.23310947418213,0.0268896538764238,0.0361428819596767,0.102821260690689,0.0194931887090206,0.0456445813179016,0.039403147995472,0.030837420374155,2012-01-17 11:06:23
1.00399994850159,42,-3.28452730178833,0.0325554683804512,0.0423908159136772,0.108573541045189,0.00155956449452788,0.00340032111853361,0.0107372682541609,0.0466476678848267,1.44391238689423,0.0329556725919247,0.0391570329666138,0.0905948132276535,0.0772037208080292,0.145485147833824,0.0267921332269907,0.0192612074315548,9.17972469329834,0.0246503036469221,0.0306695420295,0.0595405213534832,0.011871088296175,0.0168397389352322,0.0722320154309273,0.0490838028490543,2012-01-17 11:06:24
1.00999999046326,49,-3.28462719917297,0.030706599354744,0.0374034643173218,0.0790535733103752,0.0123421018943191,0.087736003100872,0.0243711322546005,0.0676680281758308,1.46759521961212,0.0357875265181065,0.0438365750014782,0.104470789432526,0.0565927810966969,0.0837962403893471,0.223277732729912,0.311737209558487,9.18262672424316,0.0292527880519629,0.0348664447665215,0.082055889070034,0.00307785044424236,0.0468721129000187,0.161722302436829,0.0949211418628693,2012-01-17 11:06:25
1.00300002098083,37,-3.27807140350342,0.0314902253448963,0.0352220684289932,0.0758027508854866,0.00192225095815957,0.012706320732832,0.101004838943481,0.0175820421427488,1.4267350435257,0.0452295020222664,0.0511158220469952,0.0832240357995033,0.0284255594015121,0.0296616014093161,0.0582829378545284,0.176144927740097,9.22302150726318,0.0295848809182644,0.0446568801999092,0.112644530832767,0.00870778411626816,0.00799666624516249,0.012006314471364,0.012582273222506,2012-01-17 11:06:26
1.01799988746643,49,-3.29143190383911,0.0200871359556913,0.0248797386884689,0.082055576145649,0.00480943778529763,0.00445107650011778,0.0108456648886204,0.0470600388944149,1.46439301967621,0.0343498289585114,0.0400871485471725,0.0718487203121185,0.114091694355011,0.0670174211263657,0.0916965007781982,0.128074556589127,9.21464824676514,0.0280519928783178,0.0331347249448299,0.0820559114217758,0.0276416372507811,0.0389916710555553,0.129646256566048,0.0411500334739685,2012-01-17 11:06:27
1.01399993896484,36,-3.31274080276489,0.0394990108907223,0.0469070188701153,0.0961596518754959,0.117263078689575,0.178963124752045,0.144247785210609,0.0285006072372198,1.46963548660278,0.0307063180953264,0.0358202233910561,0.0700085535645485,9.82871206360869e-05,0.0197424460202456,0.067090317606926,0.0256916228681803,9.18774127960205,0.0246379338204861,0.0299402959644794,0.0697366893291473,0.0248852353543043,0.0347082242369652,0.00776281580328941,0.018726896494627,2012-01-17 11:06:28
1.01100015640259,45,-3.32576179504395,0.0276619773358107,0.0338830016553402,0.0771455243229866,0.035395048558712,0.0320137813687325,0.077546663582325,0.0735844150185585,1.45835781097412,0.0289792511612177,0.0353052876889706,0.0910928472876549,0.0123279262334108,0.00718869175761938,0.00744742946699262,0.0260202214121819,9.19624042510986,0.0279432274401188,0.0353378616273403,0.0808507725596428,0.0355313904583454,0.0803956761956215,0.0422165617346764,0.0687209367752075,2012-01-17 11:06:29
1.00999999046326,40,-3.32617044448853,0.0218442790210247,0.0282430704683065,0.0767369121313095,0.00593849271535873,0.0404240526258945,0.091615229845047,0.0879102796316147,1.42294490337372,0.0310380645096302,0.0393978431820869,0.0872792229056358,0.0252652950584888,0.0339031033217907,0.0203288849443197,0.0719589293003082,9.24080657958984,0.0270663648843765,0.0348239988088608,0.0951244086027145,0.00106939882971346,0.0259353220462799,0.0980965867638588,0.016772361472249,2012-01-17 11:06:30
1.01600003242493,44,-3.26316261291504,0.0338775292038918,0.0400605127215385,0.0956147685647011,0.0120225939899683,0.163276270031929,0.172368869185448,0.00407288130372763,1.42597603797913,0.0257728658616543,0.0315229222178459,0.0940547063946724,0.0161265172064304,0.0150255234912038,0.0114579452201724,0.00429208623245358,9.19596290588379,0.0313248857855797,0.0381743870675564,0.0855855718255043,0.0014675835845992,0.0557916611433029,0.212017551064491,0.0608298368752003,2012-01-17 11:06:31
1.01099991798401,38,-3.28780841827393,0.0225743632763624,0.0268740206956863,0.0614206418395042,0.00561852008104324,0.0189386438578367,0.0191324949264526,0.0382563248276711,1.45473909378052,0.023986890912056,0.0302073862403631,0.0720014423131943,0.0015325197018683,0.00867280550301075,0.0308500248938799,0.0420963503420353,9.21515369415283,0.0394170247018337,0.0557982176542282,0.140390068292618,0.00126308167818934,0.0615436919033527,0.100601576268673,0.0860458835959435,2012-01-17 11:06:32
1.00099992752075,48,-3.29299116134644,0.0265597347170115,0.0314577370882034,0.0608829520642757,0.0884014889597893,0.0563346147537231,0.0652197375893593,0.0452890992164612,1.44280338287354,0.0269682854413986,0.0361221730709076,0.106647282838821,0.0389246121048927,0.0272517744451761,0.0702959522604942,0.00605621747672558,9.19659423828125,0.0392269305884838,0.0474536828696728,0.119723200798035,0.153891518712044,0.106427356600761,0.242537841200829,0.175160735845566,2012-01-17 11:06:33
1.01500010490417,33,-3.27482676506042,0.0178843718022108,0.0208994634449482,0.0484389327466488,0.00259995879605412,0.00347959669306874,0.000735109846573323,0.00319731631316245,1.40680849552155,0.0259889718145132,0.0301625113934278,0.0641889572143555,0.00232260953634977,0.00644322298467159,0.00427086837589741,0.0177616104483604,9.23221778869629,0.0272857993841171,0.0364566445350647,0.103712745010853,0.0229663029313087,0.0327167809009552,0.0155776524916291,0.00801453460007906,2012-01-17 11:06:34
1.01900005340576,50,-3.28346252441406,0.0211981348693371,0.0262913852930069,0.0606050975620747,0.0478472970426083,0.118872135877609,0.0548583082854748,0.079090341925621,1.44608855247498,0.0357746444642544,0.0438219979405403,0.112384222447872,0.0135915502905846,0.356742560863495,0.26200994849205,0.0292430482804775,9.21236705780029,0.0484844706952572,0.0555097721517086,0.113757401704788,0.200678467750549,0.788411676883698,0.160906881093979,0.173109605908394,2012-01-17 11:06:35
1.0149998664856,47,-3.25622510910034,0.0250649079680443,0.0306768529117107,0.0788704231381416,0.0233320686966181,0.0151085592806339,0.0563221536576748,0.0122358603402972,1.44595921039581,0.0278439577668905,0.032857246696949,0.0642648935317993,0.000997174647636712,0.05823889747262,0.0366813503205776,0.0478441826999187,9.19488143920898,0.020048663020134,0.0246566161513329,0.0625961795449257,0.00994725245982409,0.0315704829990864,0.0221545267850161,0.0204887483268976,2012-01-17 11:06:36
1.01399993896484,35,-3.25608777999878,0.0126805938780308,0.0171443372964859,0.0585598349571228,0.000321015890222043,0.000821458350401372,0.0014124404406175,0.00190184824168682,1.42476606369019,0.0259376000612974,0.0316751003265381,0.061641737818718,0.00697365822270513,0.00546473683789372,0.0351527221500874,0.0722264647483826,9.20312023162842,0.0301328580826521,0.0380422323942184,0.0935837626457214,0.0333720631897449,0.0483039282262325,0.0134010892361403,0.0259185209870338,2012-01-17 11:06:37
1.01700019836426,49,-3.2353937625885,0.0149570554494858,0.0181407015770674,0.0400270745158195,9.1647008957807e-05,0.00961215794086456,0.0295874178409576,0.0162476785480976,1.46299207210541,0.028443768620491,0.0341827981173992,0.0766519457101822,0.0331642553210258,0.179066956043243,0.232278302311897,0.120635852217674,9.19343376159668,0.0411465987563133,0.0490176267921925,0.0928632393479347,0.156500369310379,0.415396183729172,0.234026953577995,0.0836467072367668,2012-01-17 11:06:38
1.00699996948242,37,-3.24202537536621,0.0272924192249775,0.0313828885555267,0.053009033203125,0.0467695482075214,0.0742131024599075,0.0186321530491114,0.0189950708299875,1.48212933540344,0.046031791716814,0.0551534667611122,0.109198331832886,0.0592602454125881,0.121656537055969,0.114154070615768,0.0096442699432373,9.21082973480225,0.0390263833105564,0.0468600168824196,0.105488002300262,0.0208673868328333,0.0561528168618679,0.114049457013607,0.0127863734960556,2012-01-17 11:06:39
1.01900005340576,48,-3.25437760353088,0.0464368797838688,0.0519686862826347,0.0994966104626656,0.482626855373383,0.680328011512756,0.0892359688878059,0.0306255780160427,1.54577314853668,0.0345786437392235,0.0415398180484772,0.0821306556463242,0.0483418665826321,0.0682109445333481,0.0643758699297905,0.137259051203728,9.2096700668335,0.0252831391990185,0.029666144400835,0.060066182166338,0.0282718669623137,0.0808975771069527,0.0126900346949697,0.1187649294734,2012-01-17 11:06:40
1.01099991798401,35,-3.23255181312561,0.0170515328645706,0.0197647828608751,0.035584069788456,0.00374092534184456,0.00570095516741276,0.0059405523352325,0.0170716773718596,1.53992426395416,0.0406675674021244,0.0462050139904022,0.078733392059803,0.0854836404323578,0.139208078384399,0.0519707128405571,0.035493690520525,9.23029899597168,0.0145058957859874,0.0190571993589401,0.0512755513191223,0.00336295505985618,0.00388106773607433,0.000854780897498131,0.00267207273282111,2012-01-17 11:06:41
1.00300002098083,45,-3.22638773918152,0.0300736743956804,0.0341593809425831,0.0588397979736328,0.0107734482735395,0.115222342312336,0.187023550271988,0.0153090031817555,1.50586557388306,0.0200975742191076,0.0255354419350624,0.0544813871383667,0.0787762179970741,0.138933837413788,0.0628727898001671,0.0359183251857758,9.23394203186035,0.045503094792366,0.0540466867387295,0.0941443517804146,0.27202907204628,0.421846449375153,0.0761181861162186,0.188887923955917,2012-01-17 11:06:42
1.00099992752075,38,-3.25219464302063,0.0203195903450251,0.0239602196961641,0.0454202257096767,7.36383253752138e-06,0.00344795337878168,0.0134606761857867,0.0277023985981941,1.49732053279877,0.0307782180607319,0.0350784957408905,0.0717433169484138,0.0214941650629044,0.0425740443170071,0.0782205685973167,0.0197819601744413,9.19760513305664,0.0353150814771652,0.0436133295297623,0.0872278437018394,0.0803868547081947,0.0960783958435059,0.0447296053171158,0.0497793182730675,2012-01-17 11:06:43
1.04999995231628,48,-3.23149538040161,0.0249507408589125,0.0298250280320644,0.063947431743145,0.0397203452885151,0.124256029725075,0.0667769908905029,0.0145093211904168,1.46548128128052,0.0246953777968884,0.0348967313766479,0.102356858551502,0.0362016744911671,0.0688870698213577,0.0575218535959721,0.139822751283646,9.23153114318848,0.0443344712257385,0.0507005006074905,0.0917335152626038,0.167271122336388,0.294332951307297,0.15707740187645,0.0844892859458923,2012-01-17 11:06:45
1.00100016593933,35,-3.26113128662109,0.0340070948004723,0.0436899103224277,0.123003520071507,0.0278600547462702,0.0868159756064415,0.173513278365135,0.0527903325855732,1.47856259346008,0.0407476425170898,0.0497887581586838,0.125244989991188,0.103773899376392,0.187282621860504,0.169055268168449,0.07509845495224,9.20340061187744,0.0256498213857412,0.0313966199755669,0.0832168012857437,0.00310046481899917,0.013508066534996,0.0600716955959797,0.0379371680319309,2012-01-17 11:06:46
1.01099991798401,49,-3.25660824775696,0.0195642858743668,0.0245735459029675,0.0596403740346432,0.0126707535237074,0.01380580291152,0.0577722229063511,0.0676042586565018,1.46039032936096,0.0281006786972284,0.0349865630269051,0.0694470927119255,0.00345111032947898,0.043025579303503,0.315510332584381,0.117515847086906,9.22445487976074,0.0463990941643715,0.0555349662899971,0.123884417116642,0.0159697942435741,0.210956037044525,0.619751513004303,0.0619951114058495,2012-01-17 11:06:47
1.00699996948242,45,-3.2686653137207,0.0324854776263237,0.0401858724653721,0.101117387413979,0.115042880177498,0.15248504281044,0.249294146895409,0.0421978197991848,1.440269947052,0.0347518548369408,0.0414310730993748,0.0967589765787125,0.00495227053761482,0.147822961211205,0.325816035270691,0.071448877453804,9.19667625427246,0.0305971074849367,0.0357852838933468,0.080414853990078,0.0228829216212034,0.0317784212529659,0.119245626032352,0.0148204006254673,2012-01-17 11:06:48
1.00999999046326,35,-3.1997697353363,0.026097659021616,0.0295198112726212,0.0616419240832329,0.0023435945622623,0.00604744488373399,0.0327973961830139,0.0220851581543684,1.43989634513855,0.0273305401206017,0.0358205139636993,0.0767720192670822,0.00607007881626487,0.0495851151645184,0.0811599493026733,0.0323817394673824,9.22609615325928,0.0557021535933018,0.0640198886394501,0.129448041319847,0.104859381914139,0.21779765188694,0.186739817261696,0.0296491794288158,2012-01-17 11:06:49
1,46,-3.20933270454407,0.0222827456891537,0.0273146573454142,0.0562815442681313,0.029828067868948,0.0974287837743759,0.0559907592833042,0.0121435532346368,1.45074462890625,0.0386704467236996,0.0475791469216347,0.108512669801712,0.154040560126305,0.257422089576721,0.32218411564827,0.139227241277695,9.24148845672607,0.0224311053752899,0.0274616237729788,0.0552156679332256,0.0126404240727425,0.0367378741502762,0.0471262820065022,0.0201938915997744,2012-01-17 11:06:50
1.03600001335144,35,-3.20985651016235,0.0315733551979065,0.03514564037323,0.055757712572813,0.00877252966165543,0.0435383543372154,0.0487594865262508,0.00627352064475417,1.47744178771973,0.0199014861136675,0.0258868858218193,0.0554776638746262,0.0111463759094477,0.0274008978158236,0.0562735199928284,0.0169671159237623,9.26756477355957,0.0226873736828566,0.0279825702309608,0.0689275488257408,0.00136765302158892,0.00360438949428499,0.00961104407906532,0.0055890497751534,2012-01-17 11:06:51
1.0220000743866,40,-3.24477529525757,0.0336490646004677,0.0392993278801441,0.0698724389076233,0.0487739108502865,0.150183394551277,0.0649098977446556,0.0342796221375465,1.45530688762665,0.0226533375680447,0.0288255270570517,0.0725691914558411,0.0163508336991072,0.0250510107725859,0.0106961186975241,0.0138218412175775,9.25085830688477,0.0313201136887074,0.0400389097630978,0.0914476662874222,0.0332528427243233,0.0490647628903389,0.0544992201030254,0.214099034667015,2012-01-17 11:06:52
1.01199984550476,49,-3.22878932952881,0.0251680426299572,0.030599121004343,0.0612414218485355,0.00468733673915267,0.0579958520829678,0.116420239210129,0.0284018479287624,1.44678103923798,0.0235833302140236,0.0274601951241493,0.0732496902346611,0.000883845787029713,0.0540336929261684,0.0716681480407715,0.020753338932991,9.25567626953125,0.0382300838828087,0.0506158918142319,0.155105739831924,0.148658707737923,0.090390220284462,0.202699914574623,0.192519515752792,2012-01-17 11:06:53
1.01100015640259,48,-3.2069787979126,0.0267979875206947,0.03058778680861,0.06844212859869,0.115751199424267,0.186596378684044,0.112004965543747,0.02819406054914,1.41256618499756,0.0266277845948935,0.0339687801897526,0.0878512933850288,0.0022444783244282,0.0145932557061315,0.108857415616512,0.103161238133907,9.23010063171387,0.0248572565615177,0.0307493098080158,0.076410211622715,6.15722285601805e-07,0.00991240236908197,0.0869226455688477,0.0950106307864189,2012-01-17 11:06:54
1.01699995994568,37,-3.21154522895813,0.0229370631277561,0.0266497898846865,0.0538039579987526,0.00826936680823565,0.0146765513345599,0.0352004952728748,0.0146542182192206,1.40579652786255,0.0341262854635715,0.0424849279224873,0.114234231412411,0.0032480382360518,0.024148328229785,0.14116407930851,0.0601079203188419,9.23123836517334,0.034011859446764,0.0394287072122097,0.0850794240832329,0.0412348844110966,0.063196562230587,0.0532882735133171,0.0620349273085594,2012-01-17 11:06:55
1.00399994850159,47,-3.23348188400269,0.0160084795206785,0.019995778799057,0.0615525059401989,0.00194104702677578,0.00146705273073167,0.00686939107254148,0.0151566313579679,1.43594396114349,0.0308006033301353,0.0372874774038792,0.0826263055205345,6.76623167237267e-05,0.179530799388885,0.187194287776947,0.0125992316752672,9.24495887756348,0.0211315620690584,0.0255647748708725,0.0615522898733616,0.0188966430723667,0.0415307581424713,0.059806115925312,0.0441576242446899,2012-01-17 11:06:56
1.32500004768372,29,-3.24566292762756,0.0214323420077562,0.027555376291275,0.0683082863688469,0.00072825700044632,0.00217094109393656,0.006570880766958,0.00141433894168586,1.43887221813202,0.0219920873641968,0.0313195697963238,0.0855546295642853,0.0092881303280592,0.0195395592600107,0.0275649651885033,0.0164598319679499,9.22027969360352,0.0307845529168844,0.0352534428238869,0.0666178986430168,9.31656395550817e-05,0.00408311327919364,0.022213377058506,0.0280087608844042,2012-01-17 11:06:57
1.01200008392334,51,-3.18446922302246,0.0545567907392979,0.06560068577528,0.130178526043892,0.660604000091553,1.43495762348175,0.276833087205887,0.0604975000023842,1.46388280391693,0.027116259559989,0.0343069694936275,0.0953744277358055,0.114459209144115,0.169119954109192,0.148701250553131,0.11021413654089,9.24017143249512,0.0451536998152733,0.0574976354837418,0.169020965695381,0.37749582529068,0.51687079668045,0.0961687341332436,0.00868281256407499,2012-01-17 11:06:58
1.00799989700317,34,-3.11678409576416,0.0126909716054797,0.0163873806595802,0.031150683760643,0.00988785456866026,0.0171672981232405,0.0102984765544534,0.0101195331662893,1.55175805091858,0.0240585245192051,0.0277433898299932,0.0565324425697327,0.000540276931133121,0.00051865546265617,0.0223623309284449,0.00784575380384922,9.25372791290283,0.026908989995718,0.0363069735467434,0.104124210774899,0.0167164318263531,0.026754904538393,0.00849736109375954,0.0095252888277173,2012-01-17 11:06:59
1.00500011444092,49,-3.176353931427,0.0247596371918917,0.0290672518312931,0.0696471333503723,0.0473819188773632,0.14186218380928,0.0264891963452101,0.0276534855365753,1.53824305534363,0.0399699434638023,0.0473015047609806,0.0896607637405396,0.0248279720544815,0.223425179719925,0.352191269397736,0.0381258316338062,9.26027965545654,0.0339087024331093,0.0453527383506298,0.124684393405914,0.027097275480628,0.177032262086868,0.297711849212646,0.422902077436447,2012-01-17 11:07:00
1.01099991798401,46,-3.13599610328674,0.0231170523911715,0.0264971945434809,0.0511651821434498,0.0271476320922375,0.106110736727715,0.0585923083126545,0.00580622814595699,1.508305311203,0.0357692427933216,0.04123355448246,0.0803719162940979,0.00459465151652694,0.09111388027668,0.187333971261978,0.0650473013520241,9.23509311676025,0.0432217419147491,0.054358147084713,0.124715432524681,0.276760637760162,0.582430958747864,0.203470543026924,0.174065947532654,2012-01-17 11:07:01
1.01799988746643,31,-3.15900659561157,0.0236135572195053,0.0274837296456099,0.057574525475502,0.00477770110592246,0.0109091904014349,0.0181705020368099,0.0062775881960988,1.51307117938995,0.0634115636348724,0.0726296007633209,0.124639302492142,0.0187941268086433,0.0595670267939568,0.152415290474892,0.0418412834405899,9.26253890991211,0.0368387885391712,0.0463917143642902,0.112935282289982,0.048943180590868,0.0836477503180504,0.0900816842913628,0.0596872828900814,2012-01-17 11:07:02
1.01699995994568,44,-3.18626976013184,0.0100092496722937,0.0126864397898316,0.0303114112466574,0.000418842537328601,0.00347816594876349,0.0189587939530611,0.00512945652008057,1.49439966678619,0.0272418316453695,0.0325394794344902,0.0746641978621483,0.000194871943676844,0.0292780809104443,0.0342134200036526,0.0388946980237961,9.24165344238281,0.0397940166294575,0.052445761859417,0.143310740590096,0.0294096209108829,0.216908127069473,0.613060653209686,0.124887995421886,2012-01-17 11:07:03
1.0090000629425,48,-3.20125818252563,0.0221926141530275,0.026624770835042,0.0545493960380554,0.0732130333781242,0.168442949652672,0.0338117815554142,0.0326758734881878,1.5228910446167,0.0161911658942699,0.0207024589180946,0.0657862797379494,0.00563893467187881,0.014424997381866,0.0279037747532129,0.0154937030747533,9.2166166305542,0.0417467057704926,0.051166407763958,0.116045713424683,0.342232704162598,0.444208115339279,0.214598089456558,0.100846409797668,2012-01-17 11:07:04
1.26200008392334,42,-3.15867519378662,0.0261511001735926,0.0312181450426579,0.0695805549621582,0.0135806016623974,0.0150555372238159,0.0428847223520279,0.0200880896300077,1.53077137470245,0.029975863173604,0.0344935953617096,0.0695805102586746,0.020536694675684,0.0307175740599632,0.04996557533741,0.0734203457832336,9.23179340362549,0.0294867474585772,0.0360608473420143,0.101802982389927,0.0778758749365807,0.171602115035057,0.0809959694743156,0.00106814841274172,2012-01-17 11:07:05
1.1029999256134,53,-3.17217373847961,0.0252620074898005,0.0283587295562029,0.044407457113266,0.100504837930202,0.196664914488792,0.0924621149897575,0.00742532266303897,1.51614511013031,0.0276429429650307,0.033935934305191,0.0843741372227669,0.0010984888067469,0.0233121272176504,0.114068433642387,0.211093500256538,9.25044631958008,0.0384657010436058,0.0464832000434399,0.0910359174013138,0.0616226457059383,0.313972026109695,0.276437163352966,0.103399008512497,2012-01-17 11:07:06
1.01600003242493,46,-3.15347743034363,0.024192251265049,0.0303057506680489,0.0643828436732292,0.000773825624492019,0.131248325109482,0.208675920963287,0.0555863529443741,1.48933160305023,0.0173887368291616,0.0233691539615393,0.0673674717545509,0.00984475016593933,0.013524828478694,0.0306495130062103,0.0211296901106834,9.22400665283203,0.0342494025826454,0.0432606376707554,0.102117203176022,0.209159880876541,0.410362094640732,0.145998403429985,0.0905625075101852,2012-01-17 11:07:07
1.01300001144409,40,-3.15994763374329,0.0270541198551655,0.0321897156536579,0.0610464438796043,0.035146176815033,0.081708125770092,0.100320257246494,0.0080271428450942,1.45996499061584,0.0364071801304817,0.0430369786918163,0.0894856452941895,0.00394983775913715,0.0470254234969616,0.17419795691967,0.0307456292212009,9.2471809387207,0.0334653444588184,0.0434686578810215,0.0985568314790726,0.0681108683347702,0.144936472177505,0.0766289085149765,0.106211684644222,2012-01-17 11:07:08
1.06200003623962,48,-3.16264462471008,0.0226779114454985,0.0270054452121258,0.0539366491138935,0.00126450078096241,0.0401035100221634,0.0264426860958338,0.0099289258942008,1.46834146976471,0.0260233599692583,0.0338968001306057,0.100722402334213,0.00912474282085896,0.0444399565458298,0.0765755474567413,0.0685904696583748,9.25359535217285,0.0381200313568115,0.0455042757093906,0.11379861831665,0.00178753328509629,0.0314589254558086,0.0790318176150322,0.270338267087936,2012-01-17 11:07:10
1.01699995994568,39,-3.15874695777893,0.0283432435244322,0.0342456176877022,0.0676407143473625,0.024774519726634,0.0464803464710712,0.01588493026793,0.0290043316781521,1.47300910949707,0.0360673144459724,0.0446468144655228,0.125474825501442,0.103411287069321,0.159896701574326,0.205392479896545,0.0472495816648006,9.22428607940674,0.0374859869480133,0.047350849956274,0.111645065248013,0.00788452103734016,0.0247335229068995,0.113586977124214,0.0721118003129959,2012-01-17 11:07:11
1.05900001525879,44,-3.16019296646118,0.0238479971885681,0.0334607362747192,0.0907115414738655,0.0118332616984844,0.0990571230649948,0.0982311144471169,0.156345084309578,1.47857534885406,0.0383756048977375,0.0466045029461384,0.139521852135658,0.00254935584962368,0.0264525096863508,0.0695952177047729,0.0764579400420189,9.27085018157959,0.0322970524430275,0.039120014756918,0.0945002809166908,0.0124330874532461,0.0118340775370598,0.0876341015100479,0.0377804525196552,2012-01-17 11:07:12
1.00099992752075,34,-3.17418169975281,0.0304888319224119,0.0391342341899872,0.0816258490085602,0.00157008599489927,0.00782309472560883,0.029621409252286,0.0155104529112577,1.45974862575531,0.043468214571476,0.0557865798473358,0.128928616642952,0.0202347356826067,0.0471899099647999,0.0927511155605316,0.0338834039866924,9.21594333648682,0.0226336885243654,0.0261697843670845,0.0513409711420536,0.000152422915562056,0.00166712410282344,0.0213569682091475,0.0157161857932806,2012-01-17 11:07:13
1.0090000629425,45,-3.18018770217896,0.0158455818891525,0.0176182761788368,0.0322529263794422,0.0250675845891237,0.047503799200058,0.0131255658343434,0.00492719141766429,1.46968996524811,0.0334152355790138,0.0418927371501923,0.0967589169740677,0.00325499591417611,0.0954966768622398,0.353978097438812,0.148986712098122,9.22936534881592,0.0391105934977531,0.0494717471301556,0.126179054379463,0.162874758243561,0.42747500538826,0.363801598548889,0.0661196485161781,2012-01-17 11:07:14
1.00699996948242,47,-3.1831967830658,0.0286607816815376,0.0331579446792603,0.0726108402013779,0.0782631635665894,0.198983401060104,0.138273432850838,0.0192270055413246,1.45305335521698,0.0332067683339119,0.0410276167094707,0.0997357666492462,0.042760755866766,0.113392300903797,0.062131330370903,0.045330923050642,9.24996566772461,0.0358261056244373,0.0468006245791912,0.110168926417828,0.125136584043503,0.197592541575432,0.130117863416672,0.180299177765846,2012-01-17 11:07:15
1.00200009346008,46,-3.16562914848328,0.0344159640371799,0.0427275896072388,0.0961478054523468,0.0049144602380693,0.0333875007927418,0.117452710866928,0.02470538392663,1.39574205875397,0.0270655956119299,0.0325926691293716,0.0948686227202415,0.00701339915394783,0.0122998654842377,0.0947017669677734,0.0473113246262074,9.23146915435791,0.0254899393767118,0.0313612706959248,0.075042225420475,0.055052425712347,0.118728563189507,0.095230869948864,0.0172250624746084,2012-01-17 11:07:16
1.00600004196167,29,-3.18005990982056,0.0165115240961313,0.0194258000701666,0.0365212522447109,0.000176466288394295,0.00283803814090788,0.0100286602973938,0.00841663125902414,1.43447613716125,0.0204995162785053,0.0254812315106392,0.0615451633930206,0.00085835182107985,0.002331527415663,0.00749959144741297,0.00308138341642916,9.26559352874756,0.0291283819824457,0.0341725461184978,0.0703372284770012,5.42795987712452e-07,0.00166417588479817,0.0203349776566029,0.0135757103562355,2012-01-17 11:07:17
1.01999998092651,50,-3.21422743797302,0.0497393198311329,0.0586618110537529,0.115326277911663,0.413420557975769,0.866876184940338,0.458793848752975,0.0248052291572094,1.45354163646698,0.0394697971642017,0.0497455298900604,0.139450550079346,0.179842606186867,0.218934699892998,0.130639389157295,0.0261611193418503,9.2608118057251,0.0352333746850491,0.04263861104846,0.101401440799236,0.0462728179991245,0.0878542363643646,0.343280285596848,0.0619010664522648,2012-01-17 11:07:18
1.29900002479553,41,-3.22375679016113,0.0181664805859327,0.0227189101278782,0.056208748370409,0.0237767770886421,0.0493371039628983,0.0474286824464798,0.0235238056629896,1.41431021690369,0.0339878350496292,0.0408386141061783,0.0806058943271637,0.0159350652247667,0.00921661779284477,0.0979668945074081,0.0970308855175972,9.21538066864014,0.0319229699671268,0.0388811901211739,0.105003356933594,0.0440735667943954,0.0429623909294605,0.0109709156677127,0.00688221119344234,2012-01-17 11:07:19
1,23,-3.20634818077087,0.0210221577435732,0.025618027895689,0.0486067906022072,0.00039424462011084,0.000603317574132234,0.000909973285160959,0.0036247530952096,1.4351818561554,0.0467901453375816,0.0585270114243031,0.143688768148422,0.00425191409885883,0.0109216552227736,0.0305146407335997,0.00608527800068259,9.28220748901367,0.0253229886293411,0.0325723960995674,0.0737629383802414,0.00115367246326059,0.00190670345909894,0.000690606248099357,0.00293570850044489,2012-01-17 11:07:20
1,49,-3.21638107299805,0.0502626337110996,0.0560201220214367,0.0978664308786392,0.554956018924713,0.785016059875488,0.136575773358345,0.060992419719696,1.40435230731964,0.0375846736133099,0.0446540452539921,0.0902611911296844,0.101474739611149,0.1168108060956,0.105394884943962,0.121607832610607,9.2214527130127,0.0340885929763317,0.0421401150524616,0.0816559493541718,0.0145333539694548,0.0590100698173046,0.286676943302155,0.0277000088244677,2012-01-17 11:07:21
1.00899982452393,30,-3.20383238792419,0.0235359407961369,0.0304006021469831,0.0853179320693016,0.00029040826484561,0.000896620389539748,0.0061184074729681,0.00531986448913813,1.42686748504639,0.0284393075853586,0.0382123999297619,0.0931631997227669,0.00277939299121499,0.00971429515630007,0.0271032750606537,0.00774150108918548,9.259765625,0.0279817078262568,0.0340358018875122,0.0905487686395645,1.1730794540199e-05,0.00102288275957108,0.0205171164125204,0.0263017676770687,2012-01-17 11:07:22
1.01900005340576,50,-3.20540142059326,0.0627939254045486,0.0753520950675011,0.16808594763279,0.204727351665497,1.76993191242218,1.22894334793091,0.132989495992661,1.40097796916962,0.0294984020292759,0.0367460325360298,0.0896327421069145,0.0253809709101915,0.0870098993182182,0.245222866535187,0.0968918949365616,9.2396297454834,0.036716241389513,0.0485085621476173,0.139058843255043,0.158061444759369,0.301421493291855,0.368551075458527,0.158984333276749,2012-01-17 11:07:23
1.00600004196167,35,-3.23675489425659,0.0280349906533957,0.0329815782606602,0.0680862665176392,0.0228937659412622,0.0497925989329815,0.0247308779507875,0.0193316228687763,1.41187739372253,0.0227033887058496,0.0272865314036608,0.0493134409189224,0.00131312699522823,0.00215767812915146,0.0225831214338541,0.0279708541929722,9.25635719299316,0.0226393789052963,0.029723983258009,0.0697672441601753,0.0232330318540335,0.0531618967652321,0.0368816517293453,0.0241192150861025,2012-01-17 11:07:24
1.15499997138977,43,-3.23277354240417,0.0177781693637371,0.0212427750229836,0.0426474511623383,0.0238695107400417,0.0449275635182858,0.00717755453661084,0.0178896579891443,1.41603457927704,0.036436814814806,0.043299276381731,0.103996112942696,0.0239139571785927,0.217498272657394,0.307336300611496,0.0995746180415154,9.24767112731934,0.0305603239685297,0.0369362272322178,0.0882598087191582,0.00230101146735251,0.0646161511540413,0.17471219599247,0.0526970066130161,2012-01-17 11:07:25
1.0090000629425,50,-3.19422197341919,0.0208371449261904,0.0261703226715326,0.0659008026123047,0.0290177054703236,0.11993233859539,0.171171635389328,0.0180157944560051,1.38156080245972,0.0329974181950092,0.0390122383832932,0.0772763788700104,0.000227415453991853,0.144678860902786,0.217353448271751,0.0613044984638691,9.27316856384277,0.0280077680945396,0.0344211831688881,0.0745313465595245,0.0709465518593788,0.0578082390129566,0.0545185096561909,0.0447259061038494,2012-01-17 11:07:26
1.00799989700317,47,-3.20677447319031,0.0321323983371258,0.0381690561771393,0.0784532800316811,0.0272562988102436,0.178882122039795,0.248034849762917,0.143280610442162,1.38252890110016,0.0310936011373997,0.0352418310940266,0.0782444998621941,0.171167492866516,0.312643796205521,0.0574490837752819,0.00663206772878766,9.24579334259033,0.0343877263367176,0.0426571033895016,0.0999443382024765,0.0347470045089722,0.0480292551219463,0.0422129929065704,0.0888888910412788,2012-01-17 11:07:27
1.00699996948242,31,-3.27826809883118,0.0329610034823418,0.0434440188109875,0.105026036500931,0.00900658406317234,0.0168436262756586,0.0161600802093744,0.00424148887395859,1.37482905387878,0.0273892115801573,0.0354389362037182,0.0999645888805389,0.00209580943919718,0.00191251758951694,0.00736459298059344,0.00546251703053713,9.25431442260742,0.0230828337371349,0.0264065880328417,0.0458697341382504,0.00230676005594432,0.00251037953421474,0.00123296875972301,0.00470184674486518,2012-01-17 11:07:28
1.01800012588501,47,-3.23431658744812,0.0137443840503693,0.0185007322579622,0.0569619387388229,0.0193744599819183,0.0165101829916239,0.0107729379087687,0.0335597507655621,1.40881907939911,0.0294243823736906,0.0351131185889244,0.0817915797233582,0.000594475131947547,0.0198216326534748,0.1749237626791,0.0917153283953667,9.24120235443115,0.0384720228612423,0.0496874302625656,0.143761292099953,0.271023064851761,0.472793489694595,0.270843237638474,0.107715934514999,2012-01-17 11:07:29
1.01399993896484,35,-3.19164419174194,0.0390984863042831,0.0434375666081905,0.0731296613812447,0.0539331063628197,0.10840018838644,0.117619842290878,0.0116545278578997,1.38049614429474,0.0398029871284962,0.0491779334843159,0.100307986140251,0.0315018594264984,0.055822741240263,0.0359739437699318,0.0634572952985764,9.28493595123291,0.0190528873354197,0.024786876514554,0.0666851028800011,0.00276305782608688,0.00370053225196898,0.00605678325518966,0.00703722471371293,2012-01-17 11:07:30
1.01999998092651,49,-3.22238492965698,0.0266629457473755,0.0336763374507427,0.072649359703064,0.0475260093808174,0.0833007469773293,0.0644227787852287,0.0764231011271477,1.39094316959381,0.0387282967567444,0.0464366599917412,0.109474293887615,0.0585165210068226,0.239045023918152,0.473698616027832,0.0603578835725784,9.26528263092041,0.0178978201001883,0.0237731840461493,0.0568384453654289,0.00357564305886626,0.00652012415230274,0.0138906389474869,0.0152312759310007,2012-01-17 11:07:31
1.01699995994568,42,-3.21541357040405,0.0512458235025406,0.0584573596715927,0.13846056163311,0.303883969783783,0.432007282972336,0.0807618275284767,0.0650985017418861,1.41916227340698,0.015810726210475,0.0209986828267574,0.0560379400849342,0.00417775847017765,0.00334714422933757,0.0152281643822789,0.019481198862195,9.22712326049805,0.0372033044695854,0.0459382571280003,0.0971330478787422,0.0269504021853209,0.0505543053150177,0.0789272114634514,0.0756867304444313,2012-01-17 11:07:32
1.00699996948242,47,-3.23452520370483,0.0241059511899948,0.0304331630468369,0.0801225006580353,0.0135340327396989,0.0327856801450253,0.0464086122810841,0.0459691099822521,1.36228966712952,0.0395906455814838,0.0488798543810844,0.116845168173313,0.00503029208630323,0.0755892097949982,0.372303605079651,0.244048744440079,9.24787998199463,0.0357283800840378,0.0451210923492908,0.107664436101913,0.000769703416153789,0.00588015001267195,0.0650009587407112,0.182946294546127,2012-01-17 11:07:33
1.00600004196167,38,-3.22638773918152,0.0237423982471228,0.029160724952817,0.0588400177657604,0.0305689908564091,0.0499066486954689,0.0120888510718942,0.00553852133452892,1.39409267902374,0.0341467000544071,0.0415772795677185,0.106324784457684,0.00281249918043613,0.0307428129017353,0.0440851263701916,0.0635193288326263,9.21541213989258,0.0232673175632954,0.0265162978321314,0.0518722273409367,0.0173238087445498,0.0249446425586939,0.00677009439095855,0.0166388638317585,2012-01-17 11:07:34
1.00300002098083,47,-3.21678972244263,0.0281280521303415,0.0366087593138218,0.088468573987484,0.0273574888706207,0.173579961061478,0.0917219296097755,0.014737943187356,1.39254426956177,0.0208651963621378,0.0244434773921967,0.049033273011446,0.0145511841401458,0.0214630886912346,0.033169087022543,0.0427838526666164,9.25267887115479,0.0299394130706787,0.0365183986723423,0.0832521542906761,0.0118552688509226,0.0289653912186623,0.0337400585412979,0.12621833384037,2012-01-17 11:07:35
1.00399994850159,36,-3.25362849235535,0.0224584434181452,0.0262643489986658,0.0512126088142395,0.0173315182328224,0.0202686712145805,0.0060690208338201,0.0159792602062225,1.41951251029968,0.0187960788607597,0.025148643180728,0.0809049308300018,0.000180119634023868,9.54340139287524e-05,0.00666380440816283,0.0263053327798843,9.23268890380859,0.0358821786940098,0.0468312092125416,0.113048948347569,0.00829596258699894,0.0203497875481844,0.0851673185825348,0.0439299196004868,2012-01-17 11:07:36
1.01300001144409,46,-3.23555469512939,0.0276402495801449,0.0316388122737408,0.0680068731307983,0.00604738900437951,0.106379054486752,0.122000269591808,0.00680011231452227,1.37719476222992,0.0520178899168968,0.0553484857082367,0.0938027128577232,0.474022537469864,0.692879557609558,0.0663476064801216,0.0314617492258549,9.26387310028076,0.0334056243300438,0.0385393090546131,0.0720574781298637,0.00567984394729137,0.182756140828133,0.0854345262050629,0.00786605291068554,2012-01-17 11:07:37
1.00999999046326,46,-3.21380972862244,0.0345549769699574,0.0428274385631084,0.114908367395401,0.202724233269691,0.477597802877426,0.3786501288414,0.0543307550251484,1.36291110515594,0.0253879334777594,0.0322337187826633,0.0786664262413979,0.00197941064834595,0.0138960769400001,0.0221630223095417,0.0192456878721714,9.2576904296875,0.0369001179933548,0.0463365204632282,0.10765989869833,0.0332848243415356,0.152748361229897,0.17981818318367,0.211727440357208,2012-01-17 11:07:38
1.1800000667572,13,-3.23468565940857,0.0317990221083164,0.0350105874240398,0.0671377182006836,5.59467443963513e-05,9.6912328444887e-05,0.000569916097447276,0.00141396629624069,1.36463308334351,0.016711937263608,0.0202977024018764,0.0377178639173508,2.71160279226024e-05,6.03909975325223e-05,0.00020726009097416,0.000350134476320818,9.252197265625,0.0283175352960825,0.0364130921661854,0.0731733739376068,5.19211425853427e-05,9.02710453374311e-05,0.000415185844758525,0.0009302903781645,2012-01-17 11:07:39
1.01900005340576,59,-3.25331449508667,0.0175849068909883,0.0239256378263235,0.0759598687291145,0.00623360183089972,0.0148603096604347,0.0475656650960445,0.027444951236248,1.37542414665222,0.0269661676138639,0.0328785367310047,0.0759599953889847,0.0315008871257305,0.168193623423576,0.203240185976028,0.047510601580143,9.26030349731445,0.0335528068244457,0.0435603484511375,0.130312725901604,0.091566689312458,0.504201948642731,0.126078560948372,0.185574054718018,2012-01-17 11:07:40
1.02300000190735,41,-3.2151460647583,0.0186331868171692,0.0241731908172369,0.0574046820402145,0.00223688851110637,0.0214380230754614,0.0440626442432404,0.0480700358748436,1.36312437057495,0.0215268135070801,0.0267910342663527,0.0588398687541485,0.000844518071971834,0.00876667164266109,0.0140265598893166,0.0378804132342339,9.23308086395264,0.0412803031504154,0.0483893007040024,0.0930437445640564,0.00423945672810078,0.0406518578529358,0.265196233987808,0.111972093582153,2012-01-17 11:07:42
1.01699995994568,46,-3.18097877502441,0.0252117980271578,0.031169967725873,0.0820774585008621,0.0686895847320557,0.107452288269997,0.0523072779178619,0.0155780576169491,1.39638161659241,0.0410989597439766,0.0451012551784515,0.0746157914400101,0.219767808914185,0.254751831293106,0.0942058861255646,0.0786995887756348,9.22187519073486,0.0299485549330711,0.036370575428009,0.0846358612179756,0.0315351560711861,0.0225044917315245,0.0319463536143303,0.0299238096922636,2012-01-17 11:07:43
1.0220000743866,31,-3.15457773208618,0.0403491221368313,0.0545946918427944,0.14393624663353,0.0674572139978409,0.115401729941368,0.126815989613533,0.0947263091802597,1.53047001361847,0.0581051595509052,0.0666487067937851,0.137925773859024,0.106926143169403,0.175795465707779,0.0846176445484161,0.018740126863122,9.28057098388672,0.0350426658987999,0.041721373796463,0.0847799554467201,0.0234502591192722,0.0388739518821239,0.0561206005513668,0.0270904619246721,2012-01-17 11:07:44
1.01999998092651,50,-2.980633020401,0.0420980118215084,0.0500585176050663,0.118268147110939,0.383819848299026,0.446583300828934,0.0457779914140701,0.00607295846566558,1.62672710418701,0.03629245236516,0.0448814742267132,0.109049968421459,0.059437058866024,0.132929533720016,0.509244680404663,0.128566831350327,9.29062461853027,0.0327541939914227,0.0421521998941898,0.121407032012939,0.180594965815544,0.292293012142181,0.22594091296196,0.0308584626764059,2012-01-17 11:07:45
1.02900004386902,48,-2.9097146987915,0.0298285279422998,0.0378731153905392,0.0952062830328941,0.010900167748332,0.107064135372639,0.206580683588982,0.109259180724621,1.60665607452393,0.0254019405692816,0.0299820955842733,0.0702809765934944,0.00275123794563115,0.0583657659590244,0.0657991543412209,0.0426394380629063,9.2918004989624,0.0300328340381384,0.037503220140934,0.112777210772038,0.00992100313305855,0.0311776697635651,0.167399182915688,0.0611480586230755,2012-01-17 11:07:46
1.0019998550415,44,-2.93553137779236,0.0228146109730005,0.0285866726189852,0.0751101300120354,0.0194183792918921,0.0776978358626366,0.0693268552422523,0.016449561342597,1.58644843101501,0.0291160307824612,0.0338335037231445,0.0708753764629364,0.0201212931424379,0.0786201655864716,0.102038063108921,0.00626032985746861,9.26505565643311,0.0343232601881027,0.0397724099457264,0.0762251913547516,0.0242534801363945,0.136184468865395,0.232525005936623,0.0253270547837019,2012-01-17 11:07:47
1.00999999046326,43,-2.9809935092926,0.0185631662607193,0.0233114548027515,0.0586118102073669,0.00345207541249692,0.00783546362072229,0.0167917311191559,0.0289905108511448,1.56997621059418,0.0236547831445932,0.0287520494312048,0.0695587396621704,0.015030269511044,0.0474632084369659,0.0811059400439262,0.0547780506312847,9.33045768737793,0.0296797826886177,0.0356607846915722,0.0729795917868614,0.000848896743264049,0.078733779489994,0.0734452679753304,0.0266922600567341,2012-01-17 11:07:48
1.36300015449524,47,-2.9808042049408,0.0279505457729101,0.0326792523264885,0.0690638870000839,0.0142536275088787,0.0943654328584671,0.18145315349102,0.0297718103975058,1.50730288028717,0.0548533014953136,0.062610924243927,0.114758662879467,0.339918255805969,0.531333208084106,0.148665100336075,0.128825113177299,9.29670429229736,0.0275420323014259,0.0387013889849186,0.0882596969604492,6.53661991236731e-05,0.0812163129448891,0.401560068130493,0.162739008665085,2012-01-17 11:07:49
1.0149998664856,44,-3.1220805644989,0.0897592231631279,0.101291805505753,0.189892396330833,1.56071031093597,2.08987426757812,0.425575196743011,0.0762073397636414,1.45405864715576,0.0352958329021931,0.0439743101596832,0.124811954796314,0.110814183950424,0.219843834638596,0.133527189493179,0.0434714071452618,9.2877893447876,0.0359037034213543,0.0485323369503021,0.147991895675659,0.109541431069374,0.146399423480034,0.0720716565847397,0.427027016878128,2012-01-17 11:07:50
1.01099991798401,48,-3.19083857536316,0.033352792263031,0.0401666089892387,0.0821307674050331,0.135822370648384,0.164838388562202,0.300375372171402,0.0545119419693947,1.45649182796478,0.0293943993747234,0.0349015220999718,0.0639475286006927,0.0204552095383406,0.0652552619576454,0.0622080862522125,0.0704463869333267,9.24869251251221,0.0390650182962418,0.0460949540138245,0.0794753059744835,0.0226771477609873,0.13632245361805,0.145596757531166,0.15042145550251,2012-01-17 11:07:51
1.00400018692017,32,-3.11667585372925,0.0917074829339981,0.100889317691326,0.174680963158607,0.252497166395187,0.416885644197464,0.237300783395767,0.0265641994774342,1.49520766735077,0.0548559576272964,0.0630313083529472,0.11308292299509,0.0709589868783951,0.183231756091118,0.245500028133392,0.0313234478235245,9.25901031494141,0.0477883033454418,0.055912472307682,0.0965341925621033,0.000258596788626164,0.00310208322480321,0.0696935430169106,0.0904267877340317,2012-01-17 11:07:52
1.02900004386902,49,-3.04686617851257,0.023722168058157,0.0284502115100622,0.0618418268859386,0.0326410382986069,0.0156225012615323,0.0644252300262451,0.0395481139421463,1.54344654083252,0.0245390776544809,0.030681524425745,0.0822557732462883,0.0470475554466248,0.0583939217031002,0.0351516157388687,0.109065055847168,9.29330158233643,0.0376500003039837,0.0475725717842579,0.12408484518528,0.0510847829282284,0.187557384371758,0.290297865867615,0.100218184292316,2012-01-17 11:07:53
1.00599980354309,36,-3.05041289329529,0.0262418352067471,0.0330904051661491,0.0691914707422256,0.0232319310307503,0.0418861545622349,0.0140011645853519,0.0396987274289131,1.51621699333191,0.025485172867775,0.0296260453760624,0.0550261959433556,0.0251761823892593,0.0337351374328136,0.0090418690815568,0.0141968103125691,9.25584316253662,0.0315084233880043,0.0399353168904781,0.0997008457779884,0.000559687614440918,0.0084688700735569,0.0870930403470993,0.0295328348875046,2012-01-17 11:07:54
1.01300001144409,43,-3.03185129165649,0.0198784749954939,0.0238278023898602,0.0506298094987869,0.00155347876716405,0.00378610193729401,0.0160196889191866,0.0169721767306328,1.53827559947968,0.0217241831123829,0.0290436260402203,0.0770848244428635,0.000113743328256533,0.00387317221611738,0.0671365410089493,0.0980702340602875,9.26979351043701,0.0275370683521032,0.0343699716031551,0.0955576598644257,0.070826843380928,0.0849561542272568,0.0129514811560512,0.0132668912410736,2012-01-17 11:07:55
1.02600002288818,31,-3.02044820785522,0.0107556618750095,0.0147362882271409,0.0392265319824219,0.000870333635248244,0.00163540791254491,0.00116628454998136,0.00158596679102629,1.49155986309052,0.0193275958299637,0.0236772187054157,0.0597888864576817,0.00786394346505404,0.0185258686542511,0.0236879959702492,0.00505575584247708,9.32137870788574,0.0245114807039499,0.03129718080163,0.0737079158425331,0.002092310693115,0.00314909080043435,0.007658074144274,0.0186235662549734,2012-01-17 11:07:56
1.01600003242493,47,-3.04736423492432,0.0281191822141409,0.0366075821220875,0.100570403039455,0.0175129156559706,0.0141019420698285,0.168944105505943,0.16051609814167,1.45660042762756,0.0384896546602249,0.0508503690361977,0.141883447766304,0.277963608503342,0.443526685237885,0.152069389820099,0.165935948491096,9.28293323516846,0.0285009630024433,0.0362814702093601,0.0941028818488121,0.0345422178506851,0.0909951478242874,0.126744791865349,0.081592820584774,2012-01-17 11:07:57
1.00500011444092,48,-3.20146250724792,0.0668589025735855,0.0750854685902596,0.113185152411461,0.0229491926729679,0.986380398273468,0.498627007007599,0.19419963657856,1.50000882148743,0.0275131165981293,0.0382416509091854,0.107464544475079,0.000277832266874611,0.00308556319214404,0.0319007374346256,0.0449212491512299,9.23316478729248,0.0306714754551649,0.037288561463356,0.0831523165106773,0.0208396203815937,0.0595266558229923,0.0494819357991219,0.0882774814963341,2012-01-17 11:07:58
1.02499985694885,16,-3.09522390365601,0.0245165824890137,0.0295981261879206,0.0551623106002808,0.00011691331746988,0.000232793288887478,0.00101991766132414,0.00212799455039203,1.51451444625854,0.018617320805788,0.0224615056067705,0.0533236563205719,4.33922614320181e-05,0.000131995358970016,0.000489534577354789,0.000301501830108464,9.22621917724609,0.0199964419007301,0.0252935327589512,0.0508720278739929,0.000495077285449952,0.0009785161819309,0.00218291208148003,0.00147227477282286,2012-01-17 11:07:59
