"diffSecs","N.samples","x.mean","x.absolute.deviation","x.standard.deviation","x.max.deviation","x.PSD.1","x.PSD.3","x.PSD.6","x.PSD.10","y.mean","y.absolute.deviation","y.standard.deviation","y.max.deviation","y.PSD.1","y.PSD.3","y.PSD.6","y.PSD.10","z.mean","z.absolute.deviation","z.standard.deviation","z.max.deviation","z.PSD.1","z.PSD.3","z.PSD.6","z.PSD.10","time"
6.05599975585938,25,-6.35706281661987,0.0183266364037991,0.0240660440176725,0.051386758685112,0.000139245807076804,0.000332303810864687,0.00173283915501088,0.0023294857237488,6.0299129486084,0.0460364706814289,0.0508678108453751,0.0894366800785065,0.00163740990683436,0.00768265500664711,0.0335986912250519,0.0131509397178888,3.87323427200317,0.0475112497806549,0.0552301518619061,0.107480868697166,1.46465970374265e-06,0.0026395374443382,0.0219167955219746,0.0128107042983174,2012-01-18 16:00:06
0.444000005722046,99,-6.34599208831787,0.0227610822767019,0.0288325604051352,0.0795431584119797,0.0620384775102139,0.142982572317123,0.147567763924599,0.0952050983905792,6.0446605682373,0.0298612006008625,0.0360981412231922,0.0822176486253738,0.00514948973432183,0.582111716270447,0.398460000753403,0.0688950568437576,3.89710307121277,0.0315961688756943,0.0379123091697693,0.0942033603787422,0.0177601389586926,0.152205109596252,0.153242349624634,0.242069289088249,2012-01-18 16:00:06
0.38700008392334,99,-6.34311962127686,0.0263851676136255,0.0327886007726192,0.0704294666647911,0.174144014716148,0.180001839995384,0.11201723664999,0.161275684833527,6.06050968170166,0.023377439007163,0.0304741505533457,0.0980663374066353,0.00147664011456072,0.0664763376116753,0.0760620906949043,0.104552887380123,3.88888144493103,0.0366070494055748,0.0456840731203556,0.113321304321289,0.00862602889537811,0.208887249231339,0.26447457075119,0.158899739384651,2012-01-18 16:00:06
1.01699995994568,90,-6.33771085739136,0.0172306224703789,0.0219185650348663,0.0660313367843628,0.00397377321496606,0.0345557890832424,0.0288874320685863,0.0794283002614975,6.04797887802124,0.0336574055254459,0.044462326914072,0.124762579798698,0.332059055566788,1.06278657913208,0.424602687358856,0.194057106971741,3.88986206054688,0.0390498116612434,0.0477785132825375,0.111250840127468,0.00215868698433042,0.31716251373291,0.388616472482681,0.199815779924393,2012-01-18 16:00:07
1,39,-6.35923528671265,0.0249904729425907,0.0324753113090992,0.0641202926635742,0.00996085628867149,0.0128298085182905,0.0239195544272661,0.0497739166021347,6.04491949081421,0.0161316208541393,0.0228337366133928,0.0744298323988914,0.00743715045973659,0.00788233336061239,0.00639711041003466,0.00294817588292062,3.88041591644287,0.0326114483177662,0.0371043719351292,0.0814705342054367,0.0811241045594215,0.11448922008276,0.0276080369949341,0.0363914556801319,2012-01-18 16:00:08
1.00099992752075,49,-6.3368968963623,0.0153736639767885,0.0182310026139021,0.0410277508199215,0.012367638759315,0.0275075025856495,0.0163525622338057,0.0219919495284557,6.06371164321899,0.0291544329375029,0.0364455729722977,0.101268954575062,0.00304417754523456,0.0309790000319481,0.210313886404037,0.0716441124677658,3.9006450176239,0.0386710949242115,0.047612939029932,0.0956649258732796,0.171717315912247,0.549649715423584,0.193367928266525,0.0391815342009068,2012-01-18 16:00:09
1.01200008392334,36,-6.33536815643311,0.0335816740989685,0.0416372381150723,0.0879873037338257,0.109794318675995,0.175956398248672,0.0693252831697464,0.0182325765490532,6.07031631469727,0.0179788265377283,0.0233444552868605,0.0588397979736328,0.000234102422837168,0.00250575668178499,0.00339419301599264,0.0122536858543754,3.87825751304626,0.0348529443144798,0.0480139851570129,0.122855357825756,0.0107520073652267,0.0499524474143982,0.0794824734330177,0.0152928335592151,2012-01-18 16:00:10
1.19600009918213,38,-6.34645080566406,0.0365643687546253,0.0425400100648403,0.0800019279122353,0.0272381193935871,0.0703535452485085,0.0704545527696609,0.00943335331976414,6.06721925735474,0.0317833349108696,0.0409998372197151,0.104776561260223,5.12088263349142e-06,0.0222341977059841,0.154310509562492,0.0704198032617569,3.87207818031311,0.0275183841586113,0.0351088680326939,0.0701948925852776,0.0160809438675642,0.0480825081467628,0.0845849141478539,0.0281314663589001,2012-01-18 16:00:12
1.36699986457825,45,-6.32485342025757,0.0218603406101465,0.026391489431262,0.0494690351188183,4.89481806198455e-07,0.0169314686208963,0.0878206491470337,0.0264083910733461,6.06639385223389,0.0339963287115097,0.0403226353228092,0.0921823531389236,0.0211657751351595,0.179784178733826,0.200825363397598,0.0453431494534016,3.91350698471069,0.0365242697298527,0.0448396801948547,0.107219189405441,0.0469371527433395,0.0432796142995358,0.210726097226143,0.153458818793297,2012-01-18 16:00:13
1.01399993896484,48,-6.33386993408203,0.0228821542114019,0.0280694589018822,0.0674210712313652,0.0069867791607976,0.021550552919507,0.0149408606812358,0.0122435204684734,6.03783178329468,0.0214010085910559,0.0273120906203985,0.065582275390625,0.0618324540555477,0.149061888456345,0.0679793506860733,0.0624393224716187,3.92286419868469,0.0222947783768177,0.0270416811108589,0.0586357228457928,0.00272555649280548,0.0797333568334579,0.122391596436501,0.0242773480713367,2012-01-18 16:00:14
1.03400015830994,30,-6.32986545562744,0.0228385720402002,0.0270034149289131,0.0536100529134274,0.0172412488609552,0.0294814612716436,0.0173349548131227,0.00548895308747888,6.00886106491089,0.0286355391144753,0.0358923971652985,0.0660316646099091,0.0152754792943597,0.0200759433209896,0.00962124764919281,0.00783417094498873,3.95142602920532,0.0339091680943966,0.0422887206077576,0.0889134630560875,0.0265717301517725,0.0374346040189266,0.00910683535039425,0.00739586539566517,2012-01-18 16:00:15
1.00999999046326,46,-6.34383678436279,0.0243219453841448,0.028862364590168,0.0773875936865807,0.0110220313072205,0.0521372556686401,0.0325223170220852,0.0385184213519096,6.02107000350952,0.0390134900808334,0.0511407628655434,0.117892928421497,0.234850823879242,0.398323029279709,0.0664751529693604,0.0562194772064686,3.87746405601501,0.0255825407803059,0.0295247957110405,0.064809076488018,0.0192860625684261,0.0756253972649574,0.100222706794739,0.0564275160431862,2012-01-18 16:00:16
1.01399993896484,49,-6.33889865875244,0.0286969896405935,0.0344198457896709,0.0746505185961723,0.092588908970356,0.161842465400696,0.169615507125854,0.021608229726553,6.05110311508179,0.0400516353547573,0.0501203201711178,0.118080288171768,0.00507043628022075,0.248348191380501,0.468411654233932,0.022704066708684,3.90764975547791,0.0289257075637579,0.0375967398285866,0.102669671177864,0.000169898310559802,0.0890034735202789,0.41466760635376,0.0646859183907509,2012-01-18 16:00:17
1.00499987602234,36,-6.30540323257446,0.028557388111949,0.0333752110600471,0.059112336486578,0.0352927483618259,0.0830482989549637,0.0485093742609024,0.0227003823965788,6.02482414245605,0.0353372730314732,0.0415517427027225,0.0819947198033333,0.0175196081399918,0.0725789070129395,0.106165669858456,0.0402931980788708,3.8910608291626,0.0334152318537235,0.0450057089328766,0.110052213072777,0.0157119669020176,0.0209134332835674,0.00725203985348344,0.0166376046836376,2012-01-18 16:00:18
1.02400016784668,41,-6.34035778045654,0.0367063507437706,0.0409295372664928,0.0731909945607185,0.0251037683337927,0.0986793413758278,0.164036110043526,0.00409177271649241,6.03419923782349,0.021993525326252,0.0286885034292936,0.0619496256113052,0.00676110619679093,0.0671657547354698,0.123932175338268,0.0186892375349998,3.85927557945251,0.0375931523740292,0.0465093478560448,0.113135226070881,0.094445563852787,0.223652854561806,0.116141952574253,0.110216654837132,2012-01-18 16:00:19
1.00300002098083,46,-6.36622142791748,0.0216153766959906,0.0258897971361876,0.066940926015377,0.00929206795990467,0.0678384080529213,0.0364309661090374,0.0146344611421227,6.04601287841797,0.0221530143171549,0.0271076187491417,0.0737633779644966,7.09304222255014e-05,0.0813385844230652,0.0477000698447227,0.0478636734187603,3.87000250816345,0.0342120490968227,0.0411695949733257,0.0918839424848557,0.166721224784851,0.221545308828354,0.0373509153723717,0.0192511603236198,2012-01-18 16:00:20
1.00499987602234,40,-6.34759950637817,0.0219545997679234,0.0276494454592466,0.0561429746448994,0.0241330005228519,0.0482152365148067,0.0319983586668968,0.0206567738205194,6.07546472549438,0.0360393896698952,0.0436361059546471,0.113021910190582,0.082278735935688,0.121685415506363,0.0526945330202579,0.0293064620345831,3.85401344299316,0.0544269308447838,0.0629843547940254,0.127486571669579,0.22620752453804,0.340029448270798,0.116246476769447,0.0691390186548233,2012-01-18 16:00:21
1.01300001144409,34,-6.3356728553772,0.0225654356181622,0.0281363800168037,0.0496100261807442,0.00218897312879562,0.0109433643519878,0.0208415426313877,0.00509440852329135,6.06714344024658,0.0225824024528265,0.0268797930330038,0.0620125308632851,0.00769659131765366,0.0107692386955023,0.00223195529542863,0.0266098193824291,3.83295774459839,0.0249238647520542,0.032796286046505,0.0798953771591187,0.0173261072486639,0.0379020534455776,0.0616101138293743,0.0450555421411991,2012-01-18 16:00:22
1.02300000190735,46,-6.37155103683472,0.0317000783979893,0.038833525031805,0.0854882597923279,0.00784743577241898,0.00752022629603744,0.0225119981914759,0.0551318749785423,6.04899740219116,0.0438425876200199,0.0577389523386955,0.158611714839935,0.0242001879960299,0.0855514630675316,0.237984463572502,0.367082864046097,3.84058260917664,0.0420444346964359,0.0530615597963333,0.143475443124771,0.11603195220232,0.325151711702347,0.56392914056778,0.197534501552582,2012-01-18 16:00:23
1.0090000629425,33,-6.34044504165649,0.0557061024010181,0.067472942173481,0.141750529408455,0.064358301460743,0.167864412069321,0.334207952022552,0.0688512250781059,6.00999069213867,0.0824515521526337,0.100303113460541,0.233873635530472,2.12362592719728e-05,0.0132710644975305,0.327920883893967,0.238047063350677,3.83261704444885,0.0546254888176918,0.0719608515501022,0.148882895708084,0.0398560389876366,0.167678013443947,0.418126434087753,0.153583288192749,2012-01-18 16:00:24
1.20199990272522,43,-6.36770868301392,0.0684927105903625,0.0810257643461227,0.160099372267723,0.16405414044857,0.338892549276352,0.195552468299866,0.480353683233261,6.0666675567627,0.0376035943627357,0.0491481572389603,0.163064241409302,0.0443061552941799,0.115723438560963,0.143634989857674,0.15583847463131,3.84968018531799,0.0696065351366997,0.0877210423350334,0.210273012518883,0.0160823743790388,0.0902711600065231,0.665119171142578,0.77814108133316,2012-01-18 16:00:25
1.00300002098083,47,-6.32570648193359,0.0734366998076439,0.0875021740794182,0.167130395770073,0.0740246027708054,0.138240098953247,0.128999471664429,0.793519079685211,6.08158349990845,0.0251713935285807,0.0346851795911789,0.106412403285503,0.0533296018838882,0.0810375288128853,0.0646400973200798,0.0642725378274918,3.87508726119995,0.0774409994482994,0.0887563899159431,0.168173506855965,0.0212931651622057,0.0688751563429832,0.338830351829529,0.976223230361938,2012-01-18 16:00:26
1.01100015640259,41,-6.34992551803589,0.0209200400859118,0.0252701062709093,0.0538168884813786,0.000103651924291626,0.0252738054841757,0.0277129951864481,0.00593341700732708,6.00119113922119,0.0229737777262926,0.0288932453840971,0.0691250339150429,0.0523086600005627,0.115432806313038,0.0522537976503372,0.0158262252807617,3.91381001472473,0.0529360398650169,0.0657245069742203,0.157863080501556,0.271885603666306,0.458249390125275,0.154712930321693,0.126899272203445,2012-01-18 16:00:27
1.23299980163574,41,-6.34083652496338,0.0278039462864399,0.0328461267054081,0.0727126076817513,0.0208301693201065,0.0202974360436201,0.0740240216255188,0.00798289198428392,6.01458597183228,0.0200800560414791,0.0258499477058649,0.0557304695248604,0.00990870781242847,0.0338977575302124,0.023963887244463,0.0182049702852964,3.98915362358093,0.0310125630348921,0.0374217964708805,0.0664938539266586,0.00518699735403061,0.0361754894256592,0.107232041656971,0.0180541835725307,2012-01-18 16:00:29
1.00100016593933,45,-6.34947872161865,0.016881937161088,0.0210430435836315,0.0438029617071152,0.00257393508218229,0.0436379760503769,0.0818784758448601,0.0170994699001312,6.00581026077271,0.0382291153073311,0.0468485280871391,0.102207183837891,0.0093597499653697,0.145779117941856,0.303524553775787,0.0253281500190496,4.00460004806519,0.0464036278426647,0.0567377544939518,0.153419673442841,0.00192177598364651,0.168766260147095,0.0986270383000374,0.135467305779457,2012-01-18 16:00:30
1.00699996948242,35,-6.32136678695679,0.028355211019516,0.0386763736605644,0.101989023387432,0.015312971547246,0.0264080371707678,0.011950253508985,0.002983626909554,5.9971866607666,0.0291559249162674,0.0357328727841377,0.0927430540323257,0.000662417092826217,0.00240872334688902,0.0524722151458263,0.0301173869520426,3.96244692802429,0.0280029736459255,0.0359320789575577,0.0778926536440849,0.0194513853639364,0.0319346114993095,0.0154032902792096,0.00519668264314532,2012-01-18 16:00:31
1,46,-6.36728715896606,0.0320059582591057,0.038994699716568,0.0854882597923279,0.00120672851335257,0.00644481182098389,0.0829512402415276,0.131980389356613,5.99889802932739,0.0549099668860435,0.0674999356269836,0.159677788615227,0.0715925171971321,0.340348124504089,0.223568513989449,0.0236214436590672,3.9226598739624,0.0289935395121574,0.0368636250495911,0.0882599428296089,0.0259911026805639,0.0720944553613663,0.104389660060406,0.120083555579185,2012-01-18 16:00:32
1.0090000629425,13,-6.38865518569946,0.0192651022225618,0.0239025056362152,0.0535593032836914,0.00010446483065607,0.000255725521128625,0.000655161100439727,0.000377150980057195,5.98809099197388,0.0427084155380726,0.0471942350268364,0.0648748725652695,0.000125216174637899,0.000263551046373323,0.00096262595616281,0.00198606448248029,3.91587066650391,0.0465379878878593,0.0473264716565609,0.0558223724365234,0.00033500834251754,0.000795497500803322,0.00222908169962466,0.00193083810154349,2012-01-18 16:00:33
1.01099991798401,35,-6.30231332778931,0.036889124661684,0.0437277071177959,0.0916221514344215,0.0178968943655491,0.0445708036422729,0.0545077323913574,0.0275776851922274,6.07479906082153,0.0664609968662262,0.0835858210921288,0.191649675369263,0.321676135063171,0.555671393871307,0.531289041042328,0.167893603444099,3.84224534034729,0.126421719789505,0.161033928394318,0.400111198425293,1.11365818977356,2.11069107055664,1.92636263370514,0.755097806453705,2012-01-18 16:00:34
1.02600002288818,48,-6.38760232925415,0.0453216284513474,0.0564587861299515,0.124013043940067,0.0415169596672058,0.0708322525024414,0.177003979682922,0.157316192984581,6.12118816375732,0.039328683167696,0.0504690892994404,0.125647485256195,0.0178794916719198,0.0136415911838412,0.0434115678071976,0.0890895947813988,3.66870856285095,0.0799684524536133,0.0941948816180229,0.167734578251839,0.808749377727509,2.19696569442749,1.08554947376251,0.151572048664093,2012-01-18 16:00:35
1.0149998664856,33,-6.33034133911133,0.0257367826998234,0.0321301855146885,0.0930144265294075,0.00322439381852746,0.00744806230068207,0.00409422116354108,0.0304743368178606,6.13064193725586,0.0320223942399025,0.0366231985390186,0.067160576581955,0.0414035357534885,0.0754461511969566,0.0526512265205383,0.0152395013719797,3.75743269920349,0.0439092665910721,0.051842525601387,0.0995524227619171,0.000753790140151978,0.00656761834397912,0.0805827677249908,0.0814693197607994,2012-01-18 16:00:36
1.04200005531311,40,-6.28581714630127,0.0218690205365419,0.0276061221957207,0.0684015527367592,0.00717376125976443,0.00837506912648678,0.00581256439909339,0.00989596359431744,6.15465354919434,0.0197113323956728,0.0230820719152689,0.0549171455204487,0.00380011973902583,0.00339470710605383,0.00623976299539208,0.0213911421597004,3.78659272193909,0.0389813967049122,0.0474983602762222,0.106647342443466,0.000312700169160962,0.00483033340424299,0.0579097494482994,0.112614348530769,2012-01-18 16:00:37
1.01999998092651,48,-6.30179405212402,0.019162205979228,0.0238321162760258,0.0549583733081818,0.00807488430291414,0.0456968210637569,0.061072763055563,0.00706637417897582,6.1048436164856,0.0336932763457298,0.038033090531826,0.0737540498375893,0.0925834849476814,0.197498515248299,0.321673333644867,0.0395975708961487,3.81437826156616,0.0405035056173801,0.0489906705915928,0.10828173160553,0.00440555717796087,0.308576256036758,0.128003403544426,0.0984562262892723,2012-01-18 16:00:38
1.00600004196167,28,-6.31057929992676,0.0185626018792391,0.0243761781603098,0.0539369061589241,9.20954553293996e-05,0.00092297256924212,0.00271332333795726,0.00197058566845953,6.11024332046509,0.015610558912158,0.0190678182989359,0.048332691192627,0.00344587909057736,0.0066389380954206,0.00798484589904547,0.00195486773736775,3.82284212112427,0.0246667396277189,0.0322123505175114,0.0865085870027542,0.00751983048394322,0.0118257952854037,0.0172888413071632,0.0153934424743056,2012-01-18 16:00:39
1.01300001144409,47,-6.31110095977783,0.0167632047086954,0.0200067106634378,0.0446519255638123,0.000942362181376666,0.00715890992432833,0.0353436470031738,0.0170980710536242,6.117262840271,0.0237419065088034,0.0275846794247627,0.0567532815039158,0.03676687926054,0.0651979520916939,0.12303451448679,0.00858291145414114,3.81436944007874,0.0317062586545944,0.0401524044573307,0.0984838083386421,0.00595378549769521,0.0140696540474892,0.00821500271558762,0.114898450672626,2012-01-18 16:00:40
1.01900005340576,32,-6.30077266693115,0.0217585898935795,0.027190363034606,0.0539368540048599,0.0154450675472617,0.0265792533755302,0.0176711622625589,0.014449680224061,6.13620471954346,0.0291134417057037,0.032638780772686,0.0517912805080414,0.00134038762189448,0.0190817695111036,0.0486410409212112,0.0118394438177347,3.81570601463318,0.0393606722354889,0.0492997132241726,0.108792416751385,2.42208756162654e-07,0.0236147120594978,0.0616985037922859,0.00868775974959135,2012-01-18 16:00:41
1.01900005340576,41,-6.28558397293091,0.0178516693413258,0.0223995633423328,0.0485551059246063,6.68903521727771e-05,0.00208967970684171,0.00347392773255706,0.0181965567171574,6.11887121200562,0.0269638653844595,0.034379631280899,0.0975879579782486,0.0389429181814194,0.0755846053361893,0.0471002459526062,0.00827308930456638,3.86047148704529,0.0294141415506601,0.0354319475591183,0.0719951167702675,0.0117005473002791,0.0408189482986927,0.0360614657402039,0.0383031703531742,2012-01-18 16:00:42
1.01699995994568,46,-6.27135229110718,0.0202530082315207,0.0236486531794071,0.0539366789162159,0.00449847802519798,0.0263914074748755,0.0537371784448624,0.083284892141819,6.12318706512451,0.0275475550442934,0.0375089161098003,0.101903706789017,0.0821013003587723,0.0963804423809052,0.0561478324234486,0.0235873721539974,3.83525276184082,0.0316260457038879,0.0387346036732197,0.0776004418730736,0.0181061290204525,0.0700869932770729,0.200591430068016,0.0312287155538797,2012-01-18 16:00:43
1,28,-6.30287408828735,0.0251171123236418,0.0304365325719118,0.075651541352272,0.000835255486890674,0.00304502807557583,0.00916639622300863,0.00589962350204587,6.15647459030151,0.030970947816968,0.0355865508317947,0.0567383766174316,2.42793030338362e-05,0.00390538014471531,0.0199472010135651,0.0266088228672743,3.83580088615417,0.0274186637252569,0.0321761816740036,0.0602408573031425,0.000821522204205394,0.00145239371340722,0.00303459819406271,0.0032938770018518,2012-01-18 16:00:44
1.00600004196167,39,-6.29888677597046,0.0262285340577364,0.0320403426885605,0.0754357874393463,0.010136216878891,0.0423479378223419,0.0427557751536369,0.0552459247410297,6.08138036727905,0.0180142875760794,0.0221163555979729,0.0477759055793285,0.000923230370972306,0.000858381041325629,0.0057654376141727,0.0172549914568663,3.86029958724976,0.0357965491712093,0.0449938587844372,0.0945461615920067,0.0669765174388885,0.195592775940895,0.265331029891968,0.0347064211964607,2012-01-18 16:00:45
1.0239999294281,46,-6.30034637451172,0.0251006484031677,0.031126294285059,0.0641696229577065,0.0469967201352119,0.0761985182762146,0.159583911299706,0.0384339950978756,6.11998891830444,0.0212168078869581,0.0255727469921112,0.0496727265417576,0.0141749177128077,0.010190200060606,0.0303262062370777,0.037423849105835,3.89068174362183,0.0315518081188202,0.0396208614110947,0.105314917862415,0.000517687702085823,0.0821115374565125,0.181204482913017,0.120049305260181,2012-01-18 16:00:46
1.00699996948242,34,-6.30942535400391,0.0155074270442128,0.0191780142486095,0.0429765470325947,0.000629096524789929,0.000850199314299971,0.0011476119980216,0.00428002746775746,6.13204050064087,0.0253818742930889,0.0309683438390493,0.055955495685339,0.00712222186848521,0.022835461422801,0.04251679033041,0.017501151189208,3.8493983745575,0.0293521452695131,0.0373982936143875,0.092874675989151,0.00983257964253426,0.0103513989597559,0.00419245241209865,0.0184346977621317,2012-01-18 16:00:47
1.00499987602234,40,-6.28974008560181,0.0273974854499102,0.0330157577991486,0.074775792658329,0.0240431521087885,0.0338463298976421,0.0213151276111603,0.0343214645981789,6.08257436752319,0.0345683954656124,0.0388415977358818,0.0907118171453476,0.0192386824637651,0.0111749283969402,0.119942151010036,0.0693032592535019,3.87166547775269,0.0223591513931751,0.0256851930171251,0.0568786859512329,0.000836824823636562,0.0163643918931484,0.0243185292929411,0.00763957435265183,2012-01-18 16:00:48
1.01400017738342,45,-6.28017854690552,0.0177829321473837,0.0218210238963366,0.0451107434928417,0.048089861869812,0.0607733391225338,0.0426130145788193,0.0327999852597713,6.11041450500488,0.0158649533987045,0.0202377289533615,0.0481614656746387,4.78862318686879e-07,0.00313487811945379,0.0181300472468138,0.0215968172997236,3.87384462356567,0.0255408603698015,0.0322603471577168,0.0786711871623993,0.000219450259464793,0.0183321963995695,0.0573629625141621,0.0194472949951887,2012-01-18 16:00:49
1.00600004196167,35,-6.33621644973755,0.0408757738769054,0.0456839427351952,0.0675257965922356,0.0989482775330544,0.150346666574478,0.0555629469454288,0.0133540667593479,6.09553337097168,0.0465114712715149,0.0572917573153973,0.121882453560829,0.00177975546102971,0.0326608270406723,0.153620317578316,0.0366758778691292,3.80890274047852,0.0834966152906418,0.100178793072701,0.17063570022583,0.017088707536459,0.280644565820694,0.728027164936066,0.124351724982262,2012-01-18 16:00:50
1.01799988746643,42,-6.41284847259521,0.0974326878786087,0.127097755670547,0.265480101108551,0.13115406036377,1.62816393375397,3.1062376499176,1.2988338470459,6.14059734344482,0.140717595815659,0.244959875941277,0.658679783344269,0.0120924059301615,2.37508940696716,9.66816520690918,8.53853797912598,3.61982131004333,0.137660011649132,0.194105193018913,0.481693416833878,2.74402236938477,4.42808103561401,3.69279742240906,3.86914014816284,2012-01-18 16:00:51
1.00500011444092,39,-6.43089914321899,0.0700198635458946,0.0911993384361267,0.218009397387505,0.0232829172164202,0.144489586353302,0.108453392982483,0.0971448868513107,6.39594745635986,0.0506386272609234,0.0681301578879356,0.223541423678398,0.0417952165007591,0.0931900441646576,0.114399567246437,0.0389215536415577,3.10946226119995,0.115087904036045,0.147816896438599,0.283638417720795,0.0353645756840706,0.358819305896759,0.24967260658741,0.241559132933617,2012-01-18 16:00:52
1.00599980354309,41,-6.39226150512695,0.0350495241582394,0.0442242212593555,0.106198661029339,0.0036236047744751,0.0540032982826233,0.134365633130074,0.0235280077904463,6.19301891326904,0.0501007847487926,0.0594790950417519,0.161690294742584,0.359565645456314,0.490728437900543,0.107427150011063,0.0158899966627359,3.51986980438232,0.0649070590734482,0.0863221734762192,0.273868709802628,0.673624396324158,0.841392338275909,0.154956996440887,0.0325396358966827,2012-01-18 16:00:53
1.00300002098083,35,-6.49956703186035,0.0489451661705971,0.0618046186864376,0.14934141933918,0.18525892496109,0.295169323682785,0.145542368292809,0.0791190564632416,6.10029649734497,0.0758273676037788,0.0950484201312065,0.215186029672623,0.286790043115616,0.668740630149841,0.862459719181061,0.226143315434456,3.49901270866394,0.209357991814613,0.23424556851387,0.429531246423721,3.25902128219604,5.75440740585327,3.48153591156006,0.562144756317139,2012-01-18 16:00:54
1.32100009918213,42,-6.43106079101562,0.0249835643917322,0.0305302664637566,0.0763516426086426,0.00627898657694459,0.0427244827151299,0.0499185882508755,0.036709938198328,6.15437316894531,0.0212143491953611,0.0261343382298946,0.0826559066772461,0.0220435094088316,0.0563186295330524,0.0449802428483963,0.0111170513555408,3.46478271484375,0.0495558008551598,0.0673836842179298,0.189361870288849,0.274067670106888,0.38930732011795,0.126203820109367,0.13229064643383,2012-01-18 16:00:55
1.00600004196167,46,-6.41525459289551,0.024173628538847,0.0278354864567518,0.0507386662065983,0.0566556341946125,0.130479484796524,0.065766729414463,0.0148334894329309,6.17690992355347,0.0243590082973242,0.0293920785188675,0.0699255540966988,2.84985344478628e-05,0.0167576018720865,0.0447701588273048,0.0272619966417551,3.52847528457642,0.0455851517617702,0.0598481334745884,0.119598463177681,5.89198280067649e-05,0.252114742994308,0.153799816966057,0.168403849005699,2012-01-18 16:00:56
1.26899981498718,30,-6.39655065536499,0.0367857702076435,0.0434846729040146,0.0856445953249931,0.00621293624863029,0.030411958694458,0.0723898634314537,0.0301562752574682,6.16642141342163,0.0376574695110321,0.0458156280219555,0.086298368871212,0.00431202678009868,0.0118728401139379,0.0372589975595474,0.0104096913710237,3.55000710487366,0.0346502140164375,0.0409068092703819,0.0882598459720612,0.0347693748772144,0.0535664670169353,0.0220697689801455,0.00578159978613257,2012-01-18 16:00:57
1.1100001335144,39,-6.40851974487305,0.0217667277902365,0.0274578351527452,0.0638688430190086,0.0341315343976021,0.06212467700243,0.0400230810046196,0.00969128310680389,6.14726066589355,0.0242167748510838,0.0303310062736273,0.0671377182006836,0.0447937175631523,0.0676682740449905,0.0129953026771545,0.00695538613945246,3.60507535934448,0.0275050066411495,0.0327602885663509,0.0724182277917862,0.000454290391644463,0.0341865792870522,0.0635471940040588,0.00567308161407709,2012-01-18 16:00:59
1.01399993896484,48,-6.40946292877197,0.0281940698623657,0.0328213050961494,0.062925897538662,0.0097902026027441,0.0210921000689268,0.16112907230854,0.0482342764735222,6.12731742858887,0.0190003514289856,0.023908905684948,0.0606785416603088,0.0272078644484282,0.0301078408956528,0.0300535373389721,0.0180635694414377,3.62294411659241,0.0202772673219442,0.0284439325332642,0.0925503298640251,0.00865633320063353,0.00907863769680262,0.0382848791778088,0.00687020411714911,2012-01-18 16:01:00
1.02500009536743,31,-6.40342617034912,0.00865351129323244,0.0123252039775252,0.029736241325736,2.25860404157174e-07,0.000314591365167871,0.000559352163691074,0.00040588658885099,6.12820720672607,0.0100821573287249,0.0122926831245422,0.0284708701074123,0.000355035939719528,0.000900641083717346,0.00170654198154807,0.000975682341959327,3.66136002540588,0.0231644976884127,0.0306641012430191,0.0819328650832176,0.000182926014531404,0.00635060993954539,0.022456968203187,0.0182722099125385,2012-01-18 16:01:01
1.01699995994568,38,-6.40219402313232,0.0201022401452065,0.0240766331553459,0.0474847480654716,0.000164798766491003,0.00973733980208635,0.0370522700250149,0.0112839806824923,6.13870477676392,0.0219494719058275,0.0269494038075209,0.0492912344634533,0.000775993568822742,0.00894500222057104,0.050502747297287,0.0476188696920872,3.60316967964172,0.0329513996839523,0.0393959991633892,0.0825823768973351,0.0273536741733551,0.0449167154729366,0.0369396731257439,0.0561576299369335,2012-01-18 16:01:02
1.00600004196167,49,-6.39013290405273,0.0209611169993877,0.0254353079944849,0.0528357364237309,0.0345497168600559,0.0468586310744286,0.00780953466892242,0.0147266965359449,6.13656091690063,0.026074780151248,0.0332429595291615,0.0808546915650368,0.0448262952268124,0.162319734692574,0.187751814723015,0.0549386292695999,3.64647269248962,0.0285172890871763,0.0351271070539951,0.0800543427467346,0.166446343064308,0.21663224697113,0.0304363444447517,0.0332741923630238,2012-01-18 16:01:03
1.01399993896484,35,-6.3709602355957,0.0215825978666544,0.0248027071356773,0.0425888076424599,0.000189872502232902,0.00462645478546619,0.0187694672495127,0.0303322114050388,6.12075042724609,0.0184925086796284,0.0242651235312223,0.057438850402832,0.018455384299159,0.0318373702466488,0.0305007304996252,0.00705514568835497,3.64947462081909,0.0306607820093632,0.0364031419157982,0.070047415792942,0.0421193540096283,0.0774185210466385,0.0438013933598995,0.0081100957468152,2012-01-18 16:01:04
1.00999999046326,41,-6.37671422958374,0.0240936316549778,0.0312208961695433,0.0858678370714188,0.00312795769423246,0.0377098768949509,0.0410052388906479,0.073258213698864,6.13537502288818,0.032330971211195,0.0370591953396797,0.0820408537983894,0.0170039944350719,0.0635333955287933,0.0905497372150421,0.0780287533998489,3.66649103164673,0.0300441719591618,0.0346003249287605,0.0674505606293678,0.00961360987275839,0.0123928431421518,0.0523374117910862,0.0795954614877701,2012-01-18 16:01:05
1,40,-6.39197444915771,0.0157886799424887,0.0211696103215218,0.0666851028800011,0.0132223609834909,0.0205116737633944,0.0136203430593014,0.00658030714839697,6.13160800933838,0.0218197591602802,0.0275416281074286,0.0809047222137451,0.00281397346407175,0.00878191366791725,0.054524652659893,0.0274434648454189,3.66670632362366,0.0310870781540871,0.0366800241172314,0.0774724632501602,0.0325169563293457,0.0463801920413971,0.0334728695452213,0.0390898212790489,2012-01-18 16:01:06
1.00399994850159,40,-6.37334156036377,0.0155925462022424,0.0221247728914022,0.050013829022646,0.0183320976793766,0.0460333824157715,0.0304088778793812,0.0216981675475836,6.14852428436279,0.0173945147544146,0.0249527748674154,0.0688915997743607,0.000290064635919407,0.0104277990758419,0.0182123705744743,0.0255107171833515,3.63557028770447,0.0300205685198307,0.035493228584528,0.0811501145362854,0.000128857209347188,0.00558296451345086,0.0555215030908585,0.0166085921227932,2012-01-18 16:01:07
1.43300008773804,42,-6.37735795974731,0.0187682490795851,0.0220831390470266,0.0459977798163891,0.000222472823224962,0.00149016210343689,0.0253098700195551,0.0270090363919735,6.12822198867798,0.0225930586457253,0.0294828377664089,0.0695803984999657,0.0747548937797546,0.102791182696819,0.037332434207201,0.00664852047339082,3.63733315467834,0.0298424251377583,0.0363677516579628,0.0990005135536194,0.0872025713324547,0.160399243235588,0.119173184037209,0.0321982279419899,2012-01-18 16:01:08
1.08800005912781,42,-6.38109350204468,0.0311655234545469,0.0384297110140324,0.0814884528517723,0.0274667236953974,0.0887299850583076,0.0532695613801479,0.0938177034258842,6.12331867218018,0.0244276337325573,0.0315282382071018,0.0824224129319191,0.000299647013889626,0.0344800688326359,0.118449822068214,0.00986256450414658,3.66605257987976,0.03953792527318,0.0457435287535191,0.0866253301501274,0.00385559722781181,0.190013483166695,0.232548758387566,0.0433430410921574,2012-01-18 16:01:09
1.01399993896484,46,-6.37602806091309,0.0148675227537751,0.0197518114000559,0.0571342967450619,0.00216028839349747,0.00420701969414949,0.0177259687334299,0.0441292896866798,6.11892318725586,0.0277885496616364,0.0340299867093563,0.0690728053450584,0.0533290840685368,0.10351849347353,0.10632336139679,0.0170974265784025,3.64849996566772,0.0388373024761677,0.0496247671544552,0.118106245994568,0.0259940009564161,0.19682215154171,0.553045630455017,0.0473453961312771,2012-01-18 16:01:10
1,42,-6.37502288818359,0.0242497362196445,0.0320564024150372,0.0875592231750488,0.00712874531745911,0.00566747272387147,0.0375190414488316,0.012723789550364,6.14293193817139,0.0122860874980688,0.0160226728767157,0.0450638122856617,6.52726084808819e-05,0.00106246955692768,0.00838545057922602,0.033946331590414,3.66792058944702,0.0343455448746681,0.0398915819823742,0.0786866396665573,0.141057506203651,0.213540405035019,0.0489654615521431,0.0348599590361118,2012-01-18 16:01:11
1.01699995994568,38,-6.39987134933472,0.0226557664573193,0.0273273326456547,0.0647753924131393,0.0397683158516884,0.0624263659119606,0.0515565350651741,0.00970446318387985,6.13431739807129,0.0337934941053391,0.0393384285271168,0.0836144462227821,0.0704797431826591,0.149771764874458,0.0765508487820625,0.00739397620782256,3.65555763244629,0.0195996947586536,0.023210484534502,0.0513560138642788,0.000206712968065403,0.000503688468597829,0.000366231688531116,0.0216308515518904,2012-01-18 16:01:12
1.00200009346008,47,-6.39122343063354,0.0165855959057808,0.021188173443079,0.0463206917047501,0.00793133769184351,0.0222738459706306,0.0947751924395561,0.022045161575079,6.11934947967529,0.0312977656722069,0.0391220673918724,0.0882596969604492,0.102673627436161,0.182608619332314,0.100087396800518,0.0622786730527878,3.65954947471619,0.0256952606141567,0.0317494049668312,0.0767840668559074,0.00131357833743095,0.0141277788206935,0.0784182772040367,0.160935774445534,2012-01-18 16:01:13
1.21799993515015,27,-6.39248275756836,0.0169766396284103,0.0217985697090626,0.0475803315639496,0.00292251212522388,0.00415687402710319,0.00111497018951923,0.00255358684808016,6.13678359985352,0.0242946222424507,0.0296410284936428,0.0708256810903549,0.00354383676312864,0.00957450084388256,0.024659575894475,0.017156571149826,3.66805005073547,0.0120531460270286,0.0178009290248156,0.0592030063271523,0.00198660232126713,0.00339742377400398,0.00237645674496889,0.00101882230956107,2012-01-18 16:01:14
1.01399993896484,41,-6.36451578140259,0.0267888512462378,0.0332735404372215,0.0686464309692383,0.0192119888961315,0.0508951470255852,0.0868209525942802,0.0230855159461498,6.1291561126709,0.0267888512462378,0.0314618460834026,0.0784530639648438,0.054930754005909,0.0789671242237091,0.0161931999027729,0.00643246155232191,3.68203806877136,0.0299391858279705,0.0435398444533348,0.152361765503883,0.0764711126685143,0.160503134131432,0.226127952337265,0.0573618933558464,2012-01-18 16:01:15
1.01500010490417,48,-6.37963438034058,0.0252146236598492,0.032398909330368,0.093571625649929,0.038251381367445,0.15003128349781,0.0525784716010094,0.0328049436211586,6.11812353134155,0.0246187355369329,0.0314364023506641,0.096840500831604,0.00178047746885568,0.0246739331632853,0.0392263680696487,0.0142310122027993,3.66911721229553,0.0305606499314308,0.0423217602074146,0.135862916707993,0.00675156060606241,0.0439774170517921,0.0522572584450245,0.118785202503204,2012-01-18 16:01:16
1,32,-6.3758544921875,0.0239802822470665,0.0289159938693047,0.0603720843791962,1.21927205327665e-05,0.010884209536016,0.0331418365240097,0.00901763886213303,6.13620471954346,0.0302435029298067,0.0352079272270203,0.0658883154392242,0.0167016908526421,0.0281167719513178,0.0223835129290819,0.00502881081774831,3.69741344451904,0.0272939503192902,0.033747985959053,0.0879533439874649,0.0113854873925447,0.01828408613801,0.0149161666631699,0.0246946066617966,2012-01-18 16:01:17
1.12899994850159,41,-6.41785430908203,0.0295540764927864,0.0349277332425117,0.0729517787694931,0.0825350806117058,0.117396980524063,0.020173093304038,0.0207107234746218,6.1430287361145,0.0252137221395969,0.0291375480592251,0.0547736324369907,0.0185854807496071,0.0669135451316833,0.0792360827326775,0.0546243190765381,3.67677617073059,0.0263338647782803,0.0355496071279049,0.107155486941338,0.0718669518828392,0.141954272985458,0.160700961947441,0.0647156834602356,2012-01-18 16:01:19
1.01600003242493,48,-6.40333366394043,0.0176383182406425,0.0231685675680637,0.0592484064400196,0.000640602607745677,0.0336278602480888,0.0578110553324223,0.050004631280899,6.12241411209106,0.0336847640573978,0.0407376922667027,0.0851951241493225,0.0302042681723833,0.0408570989966393,0.190840616822243,0.110806286334991,3.67197751998901,0.0259978473186493,0.033609926700592,0.0741628408432007,0.00752223655581474,0.0105523355305195,0.0727797821164131,0.0699098482728004,2012-01-18 16:01:20
1.00600004196167,33,-6.36302995681763,0.0197753589600325,0.0237922221422195,0.0603256523609161,0.0033838814124465,0.00464489916339517,0.00414357986301184,0.00731761148199439,6.16957139968872,0.0197933688759804,0.02696568146348,0.0772643834352493,0.00710524991154671,0.00984685961157084,0.00238163629546762,0.00532810715958476,3.64629077911377,0.0355524457991123,0.0445459298789501,0.0962835550308228,3.16199548251461e-05,0.0249194540083408,0.0447733290493488,0.0341833382844925,2012-01-18 16:01:21
1.21799993515015,45,-6.37192535400391,0.0167269688099623,0.020586721599102,0.0416237078607082,0.0018512075766921,0.034183993935585,0.0549434646964073,0.04221585765481,6.20630168914795,0.0305095240473747,0.0406499095261097,0.116372041404247,0.115806236863136,0.130047917366028,0.0475683994591236,0.00766010209918022,3.57572245597839,0.0414349362254143,0.0484099090099335,0.0943617522716522,0.0107888961210847,0.0150458663702011,0.247094467282295,0.0780535414814949,2012-01-18 16:01:22
1.02500009536743,48,-6.33959054946899,0.0196813680231571,0.02393420599401,0.0543450899422169,0.00156446802429855,0.021604310721159,0.00948588363826275,0.0133183393627405,6.18983459472656,0.0364173389971256,0.0470163151621819,0.0900984406471252,0.232474476099014,0.441672652959824,0.418383836746216,0.0943830460309982,3.58412623405457,0.0390393100678921,0.0494802482426167,0.132185429334641,0.176793053746223,0.163077637553215,0.176622435450554,0.0865359529852867,2012-01-18 16:01:23
1.01199984550476,35,-6.3653564453125,0.0265459548681974,0.0329338908195496,0.0776124969124794,0.00797022506594658,0.00820843316614628,0.0365415215492249,0.0377950444817543,6.12159109115601,0.018508518114686,0.0236855447292328,0.0565982833504677,0.00617698254063725,0.00889764167368412,0.00216431100852787,0.00260987877845764,3.68337774276733,0.0381058566272259,0.0461285151541233,0.10198912769556,0.00179625034797937,0.0245971754193306,0.141141459345818,0.0811905637383461,2012-01-18 16:01:24
1.27800011634827,42,-6.38179397583008,0.0304872877895832,0.0376058667898178,0.0807879790663719,0.0451377965509892,0.133516803383827,0.0490040816366673,0.0603671744465828,6.12004995346069,0.0273184776306152,0.0310402903705835,0.0581393241882324,0.00180966139305383,0.00690656388178468,0.0334740206599236,0.0306217819452286,3.73236417770386,0.028641639277339,0.0389959029853344,0.123517081141472,0.0253682862967253,0.0909769162535667,0.0687901079654694,0.0626874342560768,2012-01-18 16:01:25
1.03499984741211,41,-6.36714696884155,0.0230085421353579,0.0279919356107712,0.0660153850913048,0.00415833527222276,0.0203634183853865,0.0102529600262642,0.00380729790776968,6.13704919815063,0.0331593714654446,0.0391798354685307,0.0803665518760681,0.0264190528541803,0.115161910653114,0.0737434923648834,0.0215899683535099,3.7215039730072,0.036239679902792,0.0460544414818287,0.132270127534866,0.102891780436039,0.189559563994408,0.127242460846901,0.045486643910408,2012-01-18 16:01:26
1.00300002098083,48,-6.37207508087158,0.0211370401084423,0.0276098940521479,0.0708937868475914,0.01256154011935,0.0283859707415104,0.0103006837889552,0.0178500302135944,6.11076879501343,0.0208901707082987,0.0267537962645292,0.0600656270980835,0.00554613070562482,0.0452696196734905,0.0958678722381592,0.0280036814510822,3.72611832618713,0.0453557372093201,0.0551835708320141,0.14669106900692,0.00310245831497014,0.158106595277786,0.610993444919586,0.122732147574425,2012-01-18 16:01:27
1.2260000705719,32,-6.35961246490479,0.0217584669589996,0.0271902047097683,0.0539364814758301,0.0105371903628111,0.0142233949154615,0.0206691417843103,0.0329641178250313,6.13620471954346,0.0247464254498482,0.0319877415895462,0.0714045464992523,0.0362547896802425,0.0621433071792126,0.0497272051870823,0.0306097622960806,3.71273636817932,0.032178096473217,0.0374117344617844,0.082437090575695,0.00241630896925926,0.00984953250735998,0.0421633310616016,0.0251574870198965,2012-01-18 16:01:28
1.0220000743866,45,-6.3520941734314,0.0230419561266899,0.0273024681955576,0.0614548996090889,0.0482847765088081,0.0968803614377975,0.0245784372091293,0.00587532203644514,6.13373231887817,0.0223445948213339,0.0286917351186275,0.0934899002313614,0.029207419604063,0.0391480661928654,0.0137113956734538,0.0459714196622372,3.73023176193237,0.0183347873389721,0.0229557361453772,0.0527381151914597,0.00196155742742121,0.00284143770113587,0.00539489230141044,0.0267793945968151,2012-01-18 16:01:29
1,44,-6.36652183532715,0.0222472790628672,0.0270656887441874,0.0666405260562897,0.00174585345666856,0.00681817159056664,0.0865867286920547,0.0753335580229759,6.13071632385254,0.0280015841126442,0.035784937441349,0.0996264740824699,0.0542534217238426,0.0335422232747078,0.138938769698143,0.0721592903137207,3.6959924697876,0.0270696673542261,0.0334013253450394,0.077338807284832,0.0707241967320442,0.125559657812119,0.17538845539093,0.0252072140574455,2012-01-18 16:01:30
1.01399993896484,39,-6.33962202072144,0.0295553207397461,0.0366154797375202,0.0837335810065269,0.077902615070343,0.159243956208229,0.0558291897177696,0.0539690516889095,6.12638998031616,0.0220117326825857,0.0270120911300182,0.0658804550766945,0.0227401200681925,0.070241205394268,0.0563120096921921,0.0100686298683286,3.67950534820557,0.0413930006325245,0.0490171425044537,0.105861477553844,0.0656083151698112,0.163842469453812,0.179689884185791,0.0409728325903416,2012-01-18 16:01:31
1.07299995422363,37,-6.35444402694702,0.0209743026643991,0.0276891849935055,0.0689114779233932,0.0197820961475372,0.0199920441955328,0.00814103707671165,0.00365155236795545,6.15486526489258,0.0255445241928101,0.0307885017246008,0.0551291815936565,0.00240348861552775,0.00642228266224265,0.0397475697100163,0.0723447725176811,3.70055246353149,0.0392409488558769,0.0499114990234375,0.124040752649307,0.0743430703878403,0.112121924757957,0.0705798119306564,0.0382944494485855,2012-01-18 16:01:33
1.02300000190735,49,-6.36951923370361,0.034725546836853,0.0442630015313625,0.103070169687271,0.0838344916701317,0.436346143484116,0.372391551733017,0.015670221298933,6.12695455551147,0.0215492695569992,0.0246873274445534,0.0468316748738289,0.0490001887083054,0.0570941008627415,0.0203043855726719,0.0481583513319492,3.70791435241699,0.0291218087077141,0.0377084724605083,0.108873799443245,0.0623989067971706,0.0670405775308609,0.080626055598259,0.0603772960603237,2012-01-18 16:01:34
1.00200009346008,32,-6.38872575759888,0.0171807613223791,0.0236409492790699,0.0640495717525482,8.78848804859444e-05,0.00121315848082304,0.00892559625208378,0.0149072343483567,6.11536550521851,0.0211263988167048,0.0295075550675392,0.072630375623703,0.0130511522293091,0.0248072482645512,0.0290976893156767,0.0236069187521935,3.68270349502563,0.0322164297103882,0.0379797890782356,0.0732434317469597,0.00806270632892847,0.0123202102258801,0.0198336932808161,0.0130985714495182,2012-01-18 16:01:35
1.02999997138977,46,-6.34660816192627,0.0267133545130491,0.0314334593713284,0.0703523978590965,0.00058586650993675,0.0275503825396299,0.0690461918711662,0.0509166605770588,6.14365291595459,0.0236916393041611,0.0296844225376844,0.0733365565538406,0.00802991725504398,0.0109127964824438,0.0389563366770744,0.0295476522296667,3.71437525749207,0.0197245292365551,0.025799285620451,0.0709915310144424,0.00747834844514728,0.0452446192502975,0.0849247127771378,0.0155603345483541,2012-01-18 16:01:36
1.00300002098083,25,-6.36843824386597,0.0174165796488523,0.0230403710156679,0.0627624541521072,4.89272315462586e-05,9.062670142157e-05,0.00124585756566375,0.00347043829970062,6.14131641387939,0.0305025521665812,0.0345638953149319,0.0710000246763229,0.00897117611020803,0.0158099196851254,0.0139790559187531,0.000810278754215688,3.679847240448,0.0173539072275162,0.0243837125599384,0.0710001066327095,0.00186135445255786,0.00288802268914878,0.00137557194102556,0.00316877360455692,2012-01-18 16:01:37
1.00899982452393,43,-6.38481330871582,0.0233789291232824,0.0272816903889179,0.0693306177854538,0.00385329243727028,0.064607210457325,0.0501694343984127,0.0490041337907314,6.11250782012939,0.0223287865519524,0.0265453867614269,0.0618045926094055,7.81609196565114e-05,0.0135424425825477,0.0390353612601757,0.0118190217763186,3.69528245925903,0.0317695774137974,0.0410244986414909,0.106048613786697,0.000489433645270765,0.0759658738970757,0.285120755434036,0.174395054578781,2012-01-18 16:01:38
1.00500011444092,42,-6.38506317138672,0.0269293263554573,0.0354753062129021,0.0873257294297218,0.0143510652706027,0.0390780568122864,0.0308749247342348,0.0461707524955273,6.11444616317749,0.026384511962533,0.0313965454697609,0.0637431144714355,0.0232432074844837,0.0343643538653851,0.046920545399189,0.0159239638596773,3.68333101272583,0.031721543520689,0.0442237369716167,0.133323863148689,0.0234492607414722,0.0919013842940331,0.187113270163536,0.104727275669575,2012-01-18 16:01:39
1.01300001144409,28,-6.36486625671387,0.0137092722579837,0.0184365715831518,0.0493834018707275,8.44548703753389e-05,0.00153181073255837,0.00504838721826673,0.00139403401408345,6.11199474334717,0.0327471494674683,0.0373999886214733,0.0661947727203369,0.0132132302969694,0.0239143930375576,0.0245327185839415,0.00332404486835003,3.67469167709351,0.0240163002163172,0.0315447337925434,0.075651228427887,1.17024100632079e-07,0.00198551546782255,0.0149317905306816,0.00628668628633022,2012-01-18 16:01:40
1.01300001144409,41,-6.35710096359253,0.0187148600816727,0.0221708938479424,0.0416183918714523,0.00552197080105543,0.0231759529560804,0.0360473021864891,0.00687755178660154,6.13178730010986,0.0171747338026762,0.0207775570452213,0.0516642145812511,2.76589580607833e-05,0.00657437928020954,0.0135474083945155,0.0192806459963322,3.72030806541443,0.0161596648395061,0.0205199178308249,0.0552520230412483,0.000801494345068932,0.00318280654028058,0.00550877116620541,0.012111458927393,2012-01-18 16:01:41
1.00499987602234,43,-6.39621639251709,0.0174917653203011,0.0218605939298868,0.0415071435272694,0.0151209468021989,0.0625246688723564,0.0470662377774715,0.0232724323868752,6.14261150360107,0.019814807921648,0.0260768849402666,0.082102045416832,2.39777473325375e-05,0.0128357093781233,0.0295888800173998,0.0204409398138523,3.67019557952881,0.0292661841958761,0.0372432619333267,0.10057507455349,0.0433293282985687,0.13163985311985,0.0415411926805973,0.0692405253648758,2012-01-18 16:01:42
1.01200008392334,34,-6.38960933685303,0.0267561599612236,0.0317496210336685,0.0741266086697578,0.0257852338254452,0.0517975948750973,0.0355562455952168,0.0198348704725504,6.12396430969238,0.0265355948358774,0.0318425036966801,0.0634546875953674,0.00381656619720161,0.00902812834829092,0.0186457820236683,0.0135450940579176,3.71931624412537,0.0278251003473997,0.0331545136868954,0.0810491293668747,0.0322738215327263,0.0501507557928562,0.0263990499079227,0.00693241693079472,2012-01-18 16:01:43
1.01300001144409,44,-6.35404062271118,0.0456292405724525,0.0529508218169212,0.108541630208492,0.0119050489738584,0.208312273025513,0.214050531387329,0.0793271735310555,6.15010643005371,0.0267453622072935,0.0328319817781448,0.0699836984276772,0.0780802369117737,0.0998378545045853,0.0724153816699982,0.0398300923407078,3.71382284164429,0.0258133821189404,0.0318170264363289,0.0657491981983185,0.0414901189506054,0.0840106979012489,0.0298625696450472,0.0459050796926022,2012-01-18 16:01:44
1.00799989700317,45,-6.3614649772644,0.0196810644119978,0.0228187534958124,0.0459822118282318,0.00134786672424525,0.0186228286474943,0.0311874821782112,0.00802995171397924,6.11934947967529,0.0252793207764626,0.0289438758045435,0.0588397979736328,0.0695991069078445,0.0700071975588799,0.0565782710909843,0.0319184958934784,3.70582389831543,0.0342385806143284,0.041204672306776,0.079542800784111,0.0136983469128609,0.026124007999897,0.213996544480324,0.0922329127788544,2012-01-18 16:01:45
1.0090000629425,29,-6.36789751052856,0.0113808251917362,0.0144025888293982,0.042608130723238,0.000138524133944884,0.000779336667619646,0.00309812696650624,0.00498257437720895,6.12509822845459,0.0318103395402431,0.040843203663826,0.111930876970291,0.002180669689551,0.008208142593503,0.0233490113168955,0.0290720369666815,3.7373480796814,0.018773702904582,0.0244786720722914,0.0500478744506836,0.00231964350678027,0.00351669336669147,0.00414653774350882,0.0131189161911607,2012-01-18 16:01:46
1.00200009346008,37,-6.38730955123901,0.0127937523648143,0.0158051662147045,0.0360460020601749,0.00166879815515131,0.00670303357765079,0.00712837418541312,0.011908651329577,6.11934947967529,0.0212035309523344,0.0261951573193073,0.0588397979736328,0.0207000356167555,0.0240638516843319,0.00802972260862589,0.0313108488917351,3.70850396156311,0.0251291058957577,0.03220484405756,0.086669497191906,0.00524257868528366,0.00387478363700211,0.0187090877443552,0.0799067914485931,2012-01-18 16:01:47
1.01900005340576,46,-6.3677134513855,0.0264908857643604,0.0308798495680094,0.0654486194252968,0.00293356855399907,0.0514375828206539,0.0557225458323956,0.0920340642333031,6.10250759124756,0.0288452189415693,0.038994699716568,0.105101525783539,0.00307514797896147,0.0797336399555206,0.0677279755473137,0.19074609875679,3.73484134674072,0.0310420133173466,0.037087969481945,0.0769609585404396,0.168922185897827,0.262463241815567,0.0738353952765465,0.0478863008320332,2012-01-18 16:01:48
1.01099991798401,35,-6.38468933105469,0.0185405407100916,0.0219837203621864,0.0495935454964638,0.00142579071689397,0.00574626540765166,0.010452838614583,0.00490477867424488,6.11234474182129,0.0177720207720995,0.0223098434507847,0.0616416931152344,0.00700768316164613,0.00532991206273437,0.010403192602098,0.013014973141253,3.72316455841064,0.0307248216122389,0.0371354781091213,0.0818153768777847,0.0234199538826942,0.0400989726185799,0.0823780074715614,0.0408814214169979,2012-01-18 16:01:49
1.00799989700317,36,-6.35797786712646,0.0279670637100935,0.0330140478909016,0.0653775557875633,0.0497666820883751,0.0866902321577072,0.0508965626358986,0.0107100233435631,6.11499118804932,0.0335362628102303,0.0402645878493786,0.0937078297138214,0.00985267851501703,0.0367581844329834,0.0279616359621286,0.0497419014573097,3.69792413711548,0.0221558213233948,0.0266945417970419,0.0596571490168571,1.14017830128432e-05,0.0083275530487299,0.00898376293480396,0.0210609547793865,2012-01-18 16:01:50
1.01300001144409,45,-6.3723611831665,0.0281559322029352,0.033882986754179,0.0764917358756065,0.0377677343785763,0.0862573608756065,0.215680420398712,0.0820499062538147,6.11934947967529,0.0252793207764626,0.0329492501914501,0.0882596969604492,0.0319245755672455,0.029146920889616,0.0268720351159573,0.00901123601943254,3.69405603408813,0.0344419740140438,0.042158342897892,0.124435432255268,0.00203640619292855,0.0827402994036674,0.128301098942757,0.100206725299358,2012-01-18 16:01:51
1.02400016784668,37,-6.36584091186523,0.0511177554726601,0.0565955378115177,0.0895853415131569,0.158390983939171,0.289497405290604,0.152953252196312,0.00884351041167974,6.12226486206055,0.0207594037055969,0.0263795480132103,0.0715619176626205,0.00357718695886433,0.0085889482870698,0.00631066877394915,0.00969922449439764,3.7013475894928,0.0358598604798317,0.0398537889122963,0.0840191096067429,0.0404012575745583,0.0934255048632622,0.137376114726067,0.0188670307397842,2012-01-18 16:01:52
1.03399991989136,39,-6.38086032867432,0.0187750924378633,0.0230075269937515,0.0621086768805981,0.000469219783553854,0.00194609153550118,0.0111332489177585,0.0268057323992252,6.16360521316528,0.0230175405740738,0.0267297271639109,0.0636173859238625,0.0082252649590373,0.00540305860340595,0.0397847220301628,0.0453650578856468,3.72677826881409,0.0350099168717861,0.0442199148237705,0.107621565461159,0.00058378983521834,0.00437045004218817,0.0767758637666702,0.0650101378560066,2012-01-18 16:01:53
1.00300002098083,46,-6.37794637680054,0.0191961601376534,0.0241392087191343,0.0624639876186848,0.000549475313164294,0.0415250435471535,0.0901232734322548,0.0544036999344826,6.12809038162231,0.035315003246069,0.0469966419041157,0.116613656282425,0.218557685613632,0.356389701366425,0.254013538360596,0.11737772077322,3.70904541015625,0.0301244165748358,0.0395405068993568,0.115547798573971,0.0449702851474285,0.0491144396364689,0.0379796363413334,0.0560610182583332,2012-01-18 16:01:54
1.00300002098083,34,-6.34259510040283,0.020631255581975,0.0260610859841108,0.0709538757801056,0.00410805735737085,0.0064633646979928,0.00601164111867547,0.00436610169708729,6.13463640213013,0.027791116386652,0.0299148336052895,0.0447067096829414,0.0164749026298523,0.0229141004383564,0.0111716696992517,0.0355128459632397,3.6887423992157,0.031031833961606,0.0388740487396717,0.0868176817893982,0.0104990303516388,0.0233245026320219,0.0375448763370514,0.00402195751667023,2012-01-18 16:01:55
1.03099989891052,45,-6.37105369567871,0.0191774163395166,0.0235722120851278,0.0523020438849926,6.50442302685406e-07,0.0159206781536341,0.029116852208972,0.0123867932707071,6.13286066055298,0.0260154232382774,0.0319139510393143,0.0821577906608582,0.00319514749571681,0.00640285341069102,0.0494111590087414,0.0138364993035793,3.70625996589661,0.0208337418735027,0.0241455771028996,0.048379547894001,0.00113789248280227,0.0483551546931267,0.0770416706800461,0.00730142882093787,2012-01-18 16:01:56
1,21,-6.3841290473938,0.0130755109712481,0.015131963416934,0.0294198989868164,9.45218635024503e-05,0.000249193544732407,0.00113641878124326,0.000870991090778261,6.09740114212036,0.0374475494027138,0.0443657971918583,0.0957314148545265,0.00222303485497832,0.00455353129655123,0.0119790062308311,0.003657495835796,3.69150304794312,0.0178788769990206,0.0213080160319805,0.044830460101366,0.000998493749648333,0.00183315901085734,0.00225010118447244,0.000447119760792702,2012-01-18 16:01:57
1.01800012588501,40,-6.33754730224609,0.030400563031435,0.0345848947763443,0.0563881397247314,0.0140294190496206,0.0073034530505538,0.101506404578686,0.106457151472569,6.109787940979,0.0325335040688515,0.038639098405838,0.0885048657655716,0.0161586329340935,0.0605209805071354,0.144156157970428,0.0231530331075191,3.71892666816711,0.04459572955966,0.0516358725726604,0.110079623758793,0.0545038618147373,0.17072132229805,0.190519362688065,0.0392100140452385,2012-01-18 16:01:58
1.00499987602234,45,-6.35253000259399,0.0195164103060961,0.0269470456987619,0.0664671808481216,0.0476634316146374,0.0969781652092934,0.0270172674208879,0.0367767103016376,6.12501573562622,0.0226061046123505,0.02777498960495,0.0645058527588844,7.35506764613092e-05,0.00368115212768316,0.0404874235391617,0.0567866861820221,3.7282702922821,0.0292407479137182,0.0399974919855595,0.148843109607697,0.00775925256311893,0.0614783503115177,0.0366938188672066,0.0547216646373272,2012-01-18 16:01:59
1.02500009536743,36,-6.38521862030029,0.0230032131075859,0.0293087083846331,0.0795426890254021,0.00151360093150288,0.00556369684636593,0.0284560769796371,0.0416548736393452,6.13051795959473,0.0412847138941288,0.0548038221895695,0.135930836200714,0.0320705212652683,0.178088784217834,0.269584745168686,0.0898027792572975,3.74450588226318,0.0424046404659748,0.0460842624306679,0.0800875350832939,0.034577053040266,0.0656086876988411,0.113116353750229,0.027217285707593,2012-01-18 16:02:00
