"diffSecs","latitude","longitude","altitude","time"
0.852999925613403,42.85489539,-71.49117493,16.7999992370605,2012-01-18 15:04:00
0.944999933242798,42.8548954,-71.49117493,16.7999992370605,2012-01-18 15:04:01
0.919000148773193,42.85489539,-71.49117493,16.7999992370605,2012-01-18 15:04:02
1.07299995422363,42.85489537,-71.49117489,16.7999992370605,2012-01-18 15:04:03
1.07800006866455,42.85489537,-71.49117483,16.7999992370605,2012-01-18 15:04:04
0.936999797821045,42.85489537,-71.49117483,16.7999992370605,2012-01-18 15:04:05
1.43800020217896,42.85489535,-71.49117483,16.7999992370605,2012-01-18 15:04:07
0.635999917984009,42.85489532,-71.49117477,16.7999992370605,2012-01-18 15:04:07
0.704999923706055,42.85489529,-71.49117474,16.7999992370605,2012-01-18 15:04:08
1.1710000038147,42.85489528,-71.49117474,16.7999992370605,2012-01-18 15:04:09
1.03999996185303,42.85489536,-71.49117501,16.7000007629395,2012-01-18 15:04:10
0.903000116348267,42.85489529,-71.49117484,16.7999992370605,2012-01-18 15:04:11
0.891000032424927,42.85489529,-71.49117484,16.7999992370605,2012-01-18 15:04:12
1.21799993515015,42.85489519,-71.49117468,16.7999992370605,2012-01-18 15:04:13
0.947999954223633,42.85489518,-71.49117464,16.7999992370605,2012-01-18 15:04:14
0.831000089645386,42.85489519,-71.4911747,16.7999992370605,2012-01-18 15:04:15
1.2590000629425,42.85489518,-71.49117465,16.7999992370605,2012-01-18 15:04:16
0.74399995803833,42.85489518,-71.49117465,16.7999992370605,2012-01-18 15:04:17
1.16899991035461,42.85489534,-71.49117502,16.7000007629395,2012-01-18 15:04:18
0.825999975204468,42.85489533,-71.49117499,16.7000007629395,2012-01-18 15:04:19
1.01100015640259,42.85489531,-71.49117499,16.7000007629395,2012-01-18 15:04:20
1.00899982452393,42.8548953,-71.49117496,16.7000007629395,2012-01-18 15:04:21
0.982000112533569,42.85489528,-71.49117494,16.7000007629395,2012-01-18 15:04:22
1.01099991798401,42.85489526,-71.49117495,16.7000007629395,2012-01-18 15:04:23
1.11800003051758,42.85489525,-71.49117497,16.7000007629395,2012-01-18 15:04:24
0.872999906539917,42.85489525,-71.49117497,16.7000007629395,2012-01-18 15:04:25
1.05599999427795,42.85489534,-71.49117517,16.7000007629395,2012-01-18 15:04:26
1.16000008583069,42.85489534,-71.49117517,16.7000007629395,2012-01-18 15:04:27
0.779999971389771,42.85489536,-71.49117521,16.7000007629395,2012-01-18 15:04:28
1.05599999427795,42.85489535,-71.49117519,16.7000007629395,2012-01-18 15:04:29
1.17200016975403,42.85489535,-71.49117519,16.7000007629395,2012-01-18 15:04:30
1.10199999809265,42.85489534,-71.49117516,16.7000007629395,2012-01-18 15:04:31
0.664999961853027,42.85489533,-71.49117511,16.7000007629395,2012-01-18 15:04:32
1.00399994850159,42.85489531,-71.49117509,16.7000007629395,2012-01-18 15:04:33
1.00999999046326,42.85489531,-71.49117509,16.7000007629395,2012-01-18 15:04:34
1.19899988174438,42.85489529,-71.49117508,16.7000007629395,2012-01-18 15:04:35
0.815000057220459,42.85489527,-71.49117504,16.7000007629395,2012-01-18 15:04:36
1.80599999427795,42.85489528,-71.49117508,16.7000007629395,2012-01-18 15:04:38
0.325000047683716,42.85489528,-71.49117508,16.7000007629395,2012-01-18 15:04:38
1.03600001335144,42.85489526,-71.49117505,16.7000007629395,2012-01-18 15:04:39
1.00500011444092,42.8548953,-71.49117513,16.7000007629395,2012-01-18 15:04:40
1.21999979019165,42.8548953,-71.49117513,16.7000007629395,2012-01-18 15:04:41
0.811000108718872,42.85489534,-71.49117523,16.7000007629395,2012-01-18 15:04:42
0.91100001335144,42.85489533,-71.49117522,16.7000007629395,2012-01-18 15:04:43
1.15799999237061,42.85489532,-71.49117522,16.7000007629395,2012-01-18 15:04:44
0.74399995803833,42.85489529,-71.49117516,16.7000007629395,2012-01-18 15:04:45
1.01300001144409,42.85489531,-71.49117522,16.7000007629395,2012-01-18 15:04:46
1.07800006866455,42.85489532,-71.49117525,16.7000007629395,2012-01-18 15:04:47
0.914000034332275,42.85489533,-71.49117526,16.7000007629395,2012-01-18 15:04:48
1,42.85489533,-71.49117526,16.7000007629395,2012-01-18 15:04:49
0.995999813079834,42.85489532,-71.49117526,16.7000007629395,2012-01-18 15:04:50
1.02600002288818,42.85489532,-71.49117527,16.7000007629395,2012-01-18 15:04:51
1.04299998283386,42.85489532,-71.49117527,16.7000007629395,2012-01-18 15:04:52
1.03600001335144,42.85489532,-71.49117529,16.7000007629395,2012-01-18 15:04:53
0.900000095367432,42.85489532,-71.4911753,16.7000007629395,2012-01-18 15:04:54
1.00099992752075,42.85489533,-71.49117531,16.7000007629395,2012-01-18 15:04:55
0.998000144958496,42.85489533,-71.49117532,16.7000007629395,2012-01-18 15:04:56
0.992999792098999,42.85489534,-71.49117534,16.7000007629395,2012-01-18 15:04:57
1.06500005722046,42.85489536,-71.49117537,16.7000007629395,2012-01-18 15:04:58
1.07100009918213,42.85489536,-71.49117538,16.6000003814697,2012-01-18 15:04:59
0.869999885559082,42.85489536,-71.49117536,16.7000007629395,2012-01-18 15:05:00
1,42.85489534,-71.49117532,16.7000007629395,2012-01-18 15:05:01
1,42.85489534,-71.49117532,16.7000007629395,2012-01-18 15:05:02
1.01600003242493,42.85489536,-71.49117535,16.7000007629395,2012-01-18 15:05:03
1.04299998283386,42.85489537,-71.49117536,16.7000007629395,2012-01-18 15:05:04
1.02999997138977,42.85489535,-71.49117531,16.7000007629395,2012-01-18 15:05:05
0.91100001335144,42.85489535,-71.49117531,16.7000007629395,2012-01-18 15:05:06
0.993000030517578,42.85489536,-71.49117532,16.7000007629395,2012-01-18 15:05:07
1,42.85489537,-71.49117533,16.7000007629395,2012-01-18 15:05:08
1.01399993896484,42.85489536,-71.49117533,16.7000007629395,2012-01-18 15:05:09
1.04200005531311,42.85489536,-71.49117532,16.7000007629395,2012-01-18 15:05:10
1.03900003433228,42.85489538,-71.49117533,16.7000007629395,2012-01-18 15:05:11
0.907000064849854,42.85489538,-71.49117533,16.7000007629395,2012-01-18 15:05:12
0.996999979019165,42.85489538,-71.49117532,16.7000007629395,2012-01-18 15:05:13
1.0019998550415,42.85489539,-71.49117536,16.7000007629395,2012-01-18 15:05:14
1.00100016593933,42.85489539,-71.49117536,16.7000007629395,2012-01-18 15:05:15
1.01199984550476,42.85489541,-71.49117539,16.7000007629395,2012-01-18 15:05:16
1.08700013160706,42.85489541,-71.49117536,16.7000007629395,2012-01-18 15:05:17
0.902999877929688,42.85489541,-71.49117536,16.7000007629395,2012-01-18 15:05:18
1.00100016593933,42.85489538,-71.49117529,16.7000007629395,2012-01-18 15:05:19
0.997999906539917,42.85489539,-71.4911753,16.7000007629395,2012-01-18 15:05:20
1.00500011444092,42.85489538,-71.49117531,16.7000007629395,2012-01-18 15:05:21
1.00399994850159,42.85489539,-71.49117531,16.7000007629395,2012-01-18 15:05:22
1.01999998092651,42.85489539,-71.49117531,16.7000007629395,2012-01-18 15:05:23
0.96399998664856,42.8548954,-71.49117537,16.7000007629395,2012-01-18 15:05:24
1.00600004196167,42.85489543,-71.49117544,16.7000007629395,2012-01-18 15:05:25
1.01099991798401,42.85489545,-71.49117547,16.7000007629395,2012-01-18 15:05:26
1.02500009536743,42.85489552,-71.49117565,16.6000003814697,2012-01-18 15:05:27
1.07099986076355,42.85489549,-71.49117559,16.7000007629395,2012-01-18 15:05:28
0.894999980926514,42.85489548,-71.49117558,16.7000007629395,2012-01-18 15:05:29
1.00200009346008,42.85489551,-71.49117562,16.7000007629395,2012-01-18 15:05:30
0.996999979019165,42.8548955,-71.49117562,16.7000007629395,2012-01-18 15:05:31
1.00500011444092,42.85489551,-71.49117563,16.7000007629395,2012-01-18 15:05:32
1.00999999046326,42.85489549,-71.49117556,16.7000007629395,2012-01-18 15:05:33
1.01099991798401,42.85489549,-71.49117556,16.7000007629395,2012-01-18 15:05:34
1.03200006484985,42.8548955,-71.49117557,16.7000007629395,2012-01-18 15:05:35
0.94599986076355,42.8548955,-71.49117558,16.7000007629395,2012-01-18 15:05:36
0.993000030517578,42.85489547,-71.49117555,16.7000007629395,2012-01-18 15:05:37
1.00399994850159,42.85489544,-71.49117547,16.7000007629395,2012-01-18 15:05:38
0.532999992370605,42.85489542,-71.49117542,16.7000007629395,2012-01-18 15:05:39
0.983000040054321,42.85489542,-71.49117543,16.7000007629395,2012-01-18 15:05:40
0.999000072479248,42.85489539,-71.49117536,16.7000007629395,2012-01-18 15:05:41
1.06599998474121,42.85489537,-71.49117535,16.7000007629395,2012-01-18 15:05:42
0.938999891281128,42.85489536,-71.49117537,16.7000007629395,2012-01-18 15:05:43
0.996000051498413,42.85489537,-71.49117541,16.7000007629395,2012-01-18 15:05:44
1.00200009346008,42.8548954,-71.49117548,16.7000007629395,2012-01-18 15:05:45
1.02799987792969,42.8548954,-71.49117548,16.7000007629395,2012-01-18 15:05:46
0.989000082015991,42.85489539,-71.49117549,16.7000007629395,2012-01-18 15:05:47
0.995000123977661,42.85489539,-71.49117548,16.7000007629395,2012-01-18 15:05:48
1.07299995422363,42.8548954,-71.4911755,16.7000007629395,2012-01-18 15:05:49
0.917999982833862,42.85489539,-71.49117549,16.7000007629395,2012-01-18 15:05:50
1.0090000629425,42.85489539,-71.4911755,16.7000007629395,2012-01-18 15:05:51
0.996999979019165,42.85489539,-71.49117551,16.7000007629395,2012-01-18 15:05:52
1.00099992752075,42.8548954,-71.49117552,16.7000007629395,2012-01-18 15:05:53
0.99399995803833,42.8548954,-71.49117553,16.7000007629395,2012-01-18 15:05:54
1.00999999046326,42.85489538,-71.49117546,16.7000007629395,2012-01-18 15:05:55
0.990999937057495,42.85489538,-71.49117546,16.7000007629395,2012-01-18 15:05:56
1.08200001716614,42.85489539,-71.49117548,16.7000007629395,2012-01-18 15:05:57
0.91700005531311,42.85489537,-71.4911755,16.7000007629395,2012-01-18 15:05:58
1.00099992752075,42.85489537,-71.4911755,16.7000007629395,2012-01-18 15:05:59
