"diffSecs","N.samples","x.mean","x.absolute.deviation","x.standard.deviation","x.max.deviation","x.PSD.1","x.PSD.3","x.PSD.6","x.PSD.10","y.mean","y.absolute.deviation","y.standard.deviation","y.max.deviation","y.PSD.1","y.PSD.3","y.PSD.6","y.PSD.10","z.mean","z.absolute.deviation","z.standard.deviation","z.max.deviation","z.PSD.1","z.PSD.3","z.PSD.6","z.PSD.10","time"
2.17700004577637,26,-4.76301431655884,0.0512962527573109,0.0641779974102974,0.163695797324181,0.00218960968777537,0.00683511886745691,0.0136934127658606,0.0089434590190649,2.07108902931213,0.0987338125705719,0.11830735206604,0.223666951060295,0.0893411040306091,0.147514283657074,0.0802934765815735,0.125806495547295,8.49444484710693,0.156529203057289,0.17752306163311,0.394151479005814,0.00584550527855754,0.0368348956108093,0.135913789272308,0.337025135755539,2012-01-25 18:22:02
1.07099986076355,75,-4.6763334274292,0.133450612425804,0.171544030308723,0.420247763395309,3.29186367988586,5.51892328262329,2.04180240631104,2.50935220718384,2.0180778503418,0.0922504961490631,0.113940641283989,0.404164642095566,3.5405855178833,4.59558582305908,0.533767282962799,0.522436618804932,8.32074642181396,0.102940924465656,0.136490762233734,0.30910512804985,0.118764944374561,3.56411790847778,6.45271825790405,1.31557857990265,2012-01-25 18:22:03
1.01100015640259,49,-4.80325698852539,0.059125754982233,0.0830700322985649,0.256974220275879,0.00413399469107389,0.272707283496857,0.244721710681915,0.782988309860229,2.03518009185791,0.0523293912410736,0.0723927244544029,0.19092945754528,0.00193351588677615,0.0525360144674778,1.09175765514374,1.07025337219238,8.36347103118896,0.0838853344321251,0.107615202665329,0.292598843574524,0.00233282498084009,0.149023398756981,1.6393049955368,0.518428206443787,2012-01-25 18:22:04
1.0019998550415,39,-4.77608966827393,0.0922766625881195,0.118982039391994,0.265031069517136,0.43842414021492,0.953671097755432,0.453440517187119,0.368835121393204,2.04430937767029,0.103907957673073,0.117172591388226,0.19160683453083,0.139141842722893,0.667382538318634,1.38077127933502,0.311788976192474,8.47420215606689,0.0964674651622772,0.122387915849686,0.292942583560944,0.00236215861514211,0.559431314468384,0.786965131759644,0.118074707686901,2012-01-25 18:22:05
1.10800004005432,38,-4.74770879745483,0.0778147876262665,0.0990211293101311,0.226843401789665,0.176333948969841,0.169418677687645,0.154966920614243,0.0762735158205032,2.02326679229736,0.0499297305941582,0.0622713230550289,0.130583330988884,0.0181099139153957,0.0253161694854498,0.0652860030531883,0.0341972932219505,8.34003925323486,0.0901205688714981,0.119317762553692,0.328006982803345,0.0599029585719109,0.149488717317581,0.574983537197113,0.293359845876694,2012-01-25 18:22:06
1.00600004196167,42,-5.083580493927,0.337651163339615,0.396440505981445,0.702343046665192,19.2041969299316,33.3801765441895,15.3109741210938,2.09253263473511,1.78060746192932,0.219215303659439,0.259804755449295,0.53516286611557,8.23653316497803,14.042839050293,6.63710594177246,1.05020070075989,8.34429168701172,0.177965059876442,0.208702981472015,0.371484905481339,2.68603587150574,6.63797235488892,6.43761730194092,0.620218217372894,2012-01-25 18:22:07
1.18599987030029,36,-5.86410427093506,0.111959218978882,0.136443793773651,0.402344852685928,0.589207768440247,1.32918679714203,0.605338454246521,0.206606537103653,0.938714325428009,0.219862669706345,0.258206725120544,0.526835024356842,4.90158653259277,7.58351850509644,3.09478569030762,0.722858548164368,8.02075004577637,0.113926701247692,0.136606141924858,0.295289218425751,0.696287572383881,1.28669393062592,0.486530363559723,0.582198441028595,2012-01-25 18:22:08
1.00300002098083,49,-6.80701589584351,0.21477422118187,0.241903409361839,0.452306598424911,11.4765653610229,12.6631011962891,2.10924887657166,1.64599990844727,0.197133675217628,0.159332528710365,0.197063863277435,0.430491924285889,7.10193204879761,8.72220802307129,2.52850842475891,0.989687383174896,7.62296915054321,0.114289745688438,0.133383229374886,0.277788549661636,2.7145688533783,4.56637144088745,1.2116287946701,0.709200441837311,2012-01-25 18:22:09
1.00400018692017,37,-7.23810243606567,0.302308410406113,0.333810776472092,0.559774160385132,6.00155115127563,8.00586605072021,1.30191111564636,1.67938947677612,0.0991266742348671,0.130029439926147,0.151371791958809,0.314872980117798,0.859494209289551,1.2800281047821,0.321270138025284,0.229504644870758,7.10611057281494,0.11631878465414,0.126726791262627,0.231648772954941,0.485270619392395,0.841630756855011,0.533467650413513,0.162936925888062,2012-01-25 18:22:10
1.01099991798401,40,-7.62123775482178,0.172474429011345,0.195008710026741,0.341761976480484,0.00960394646972418,1.18788599967957,1.77060270309448,0.304270774126053,0.106402151286602,0.117949478328228,0.136934503912926,0.276057183742523,0.232077464461327,1.90053820610046,1.88806545734406,0.187878131866455,6.89382982254028,0.155631557106972,0.194143027067184,0.421930968761444,0.179107785224915,0.107168182730675,0.96976625919342,0.353570222854614,2012-01-25 18:22:11
1.00099992752075,46,-7.43280076980591,0.103739194571972,0.126074939966202,0.285032570362091,0.582569718360901,3.04947328567505,2.0372588634491,0.0813526585698128,0.152429446578026,0.0491722822189331,0.061402965337038,0.152429446578026,0.00590898841619492,0.036490473896265,0.376897603273392,0.342210501432419,6.78087186813354,0.204604893922806,0.261951178312302,0.652568757534027,4.25881052017212,12.1828489303589,11.1816158294678,0.563751101493835,2012-01-25 18:22:12
1.00300002098083,15,-7.31314563751221,0.221499517560005,0.280030161142349,0.517137467861176,0.047446746379137,0.0976443737745285,0.201363727450371,0.0938929617404938,0.364807367324829,0.11428015679121,0.146080687642097,0.311851441860199,0.0101480605080724,0.0207759831100702,0.0457369983196259,0.0404122620820999,6.96729755401611,0.162921115756035,0.224823117256165,0.43672302365303,0.00928440783172846,0.0191290006041527,0.0504175871610641,0.0828404352068901,2012-01-25 18:22:13
1.01500010490417,45,-6.45190382003784,0.112933821976185,0.16186511516571,0.479654252529144,2.85307812690735,5.63432359695435,4.77553462982178,1.69545269012451,0.912454307079315,0.16692128777504,0.190033823251724,0.332990258932114,6.29363298416138,8.58335113525391,1.74703645706177,0.726978480815887,7.5478515625,0.160829037427902,0.199096173048019,0.369383722543716,5.59121751785278,7.13361692428589,1.64563322067261,0.100074924528599,2012-01-25 18:22:14
1,46,-5.53457450866699,0.204067200422287,0.25241282582283,0.447481483221054,6.39463758468628,5.22735643386841,5.88132429122925,1.34337997436523,1.48293602466583,0.0946554839611053,0.12140341848135,0.276718109846115,0.82739382982254,0.908493518829346,0.187793552875519,0.216960817575455,8.0830249786377,0.162885099649429,0.190237045288086,0.325964480638504,2.26172375679016,2.97365307807922,3.48587107658386,0.617254197597504,2012-01-25 18:22:15
1.00600004196167,26,-4.91313171386719,0.340215265750885,0.356687515974045,0.529558956623077,1.60847997665405,2.78628373146057,2.18179035186768,0.304509401321411,1.88476264476776,0.105087824165821,0.124224759638309,0.227438807487488,0.103253901004791,0.178897440433502,0.167388990521431,0.0209391042590141,8.15988731384277,0.291878342628479,0.32286325097084,0.530313551425934,0.665371298789978,1.22533190250397,1.40425205230713,0.16840897500515,2012-01-25 18:22:16
1.0149998664856,43,-4.02277898788452,0.244588181376457,0.294750601053238,0.649291515350342,11.4613494873047,13.3475580215454,4.77248001098633,1.77522897720337,2.37343740463257,0.23338657617569,0.319515883922577,0.872563719749451,10.6404151916504,18.4962501525879,13.6103782653809,6.60047340393066,8.73019886016846,0.217804253101349,0.29997992515564,0.654765069484711,5.3815393447876,16.9378032684326,16.6008834838867,3.58777523040771,2012-01-25 18:22:17
1.00399994850159,39,-2.98725628852844,0.296559274196625,0.349279820919037,0.653273642063141,11.4239673614502,18.4046249389648,6.78460168838501,1.54471623897552,2.78886032104492,0.0859967768192291,0.107417650520802,0.261007785797119,0.434001952409744,0.741513431072235,0.403083920478821,1.00281131267548,9.10534858703613,0.0969446673989296,0.119898393750191,0.249943628907204,0.151619121432304,0.459517449140549,0.217435270547867,0.593861281871796,2012-01-25 18:22:18
1.12700009346008,39,-1.80266344547272,0.431466817855835,0.493549942970276,0.753351867198944,23.2004261016846,34.1687316894531,11.590482711792,0.817858219146729,3.40693068504333,0.193218737840652,0.21107491850853,0.337449312210083,4.43735027313232,6.30502986907959,1.37691378593445,0.53309154510498,9.43676280975342,0.190123826265335,0.216555640101433,0.379693567752838,0.45627024769783,1.74564039707184,3.80350470542908,0.748594045639038,2012-01-25 18:22:19
1.03299999237061,49,-1.29287672042847,0.296641975641251,0.335786104202271,0.609613358974457,24.9147682189941,43.9003448486328,11.8001747131348,1.99089169502258,3.61044812202454,0.0960977897047997,0.138606920838356,0.429891258478165,2.48282694816589,3.3375518321991,1.05339121818542,0.244410082697868,9.32372188568115,0.119624011218548,0.151866272091866,0.311411380767822,1.44939482212067,2.77116727828979,3.48797273635864,0.700712859630585,2012-01-25 18:22:20
1,26,-1.73879444599152,0.117911905050278,0.146968171000481,0.326636910438538,0.0389791429042816,0.0701461434364319,0.140060469508171,0.156308308243752,3.47079968452454,0.0656871423125267,0.0820899233222008,0.185571894049644,0.0120917744934559,0.0185005012899637,0.0161562338471413,0.0499837212264538,9.28312587738037,0.152032166719437,0.186010032892227,0.427720755338669,0.147380888462067,0.336742162704468,0.587319910526276,0.0845127925276756,2012-01-25 18:22:21
1.10700011253357,39,-2.22057747840881,0.298519313335419,0.349887728691101,0.790064036846161,10.3854284286499,15.3552532196045,6.27447128295898,5.06938457489014,3.22563338279724,0.100348934531212,0.112918749451637,0.216500759124756,1.05978977680206,1.45038735866547,0.31101581454277,0.0254663825035095,9.21196460723877,0.070677749812603,0.0956863909959793,0.307526528835297,0.416122198104858,0.763473272323608,0.66395366191864,0.236439242959023,2012-01-25 18:22:22
1.00799989700317,48,-3.91550922393799,0.201317250728607,0.238343477249146,0.542021751403809,2.36597013473511,6.31666564941406,2.91181373596191,2.12700629234314,2.41264009475708,0.0974365696310997,0.119797274470329,0.323415219783783,1.7197939157486,3.1399257183075,1.36407852172852,0.0827791914343834,8.66723918914795,0.160047769546509,0.18757663667202,0.364684611558914,3.39404010772705,9.79715824127197,2.7352933883667,1.48824822902679,2012-01-25 18:22:23
1.00999999046326,44,-4.61447429656982,0.0808441415429115,0.106043316423893,0.279044061899185,1.05339860916138,2.404940366745,1.81113588809967,0.507595241069794,2.12135672569275,0.106677703559399,0.128319904208183,0.297319799661636,0.97336882352829,2.61334729194641,1.6425918340683,0.170233204960823,8.41432857513428,0.163359627127647,0.202638849616051,0.490555554628372,1.73192799091339,2.921706199646,0.794470608234406,0.97383314371109,2012-01-25 18:22:24
1.00099992752075,34,-4.73488140106201,0.11374356597662,0.138226762413979,0.263048946857452,0.0604404658079147,0.425515979528427,0.626151204109192,0.112618938088417,2.02391958236694,0.0921452045440674,0.117728218436241,0.268529176712036,0.315628856420517,0.715005397796631,0.574398875236511,0.400059372186661,8.40458679199219,0.113370105624199,0.124987572431564,0.206227719783783,0.641365587711334,1.01405763626099,0.386911362409592,0.285649865865707,2012-01-25 18:22:25
1.01300001144409,48,-4.91354036331177,0.105455555021763,0.138570755720139,0.352630794048309,0.0290800780057907,0.43453574180603,2.25362181663513,1.1503187417984,1.80319774150848,0.122583128511906,0.149110332131386,0.371426820755005,1.51503074169159,4.44116449356079,2.47066688537598,1.98086678981781,8.25862979888916,0.0879447758197784,0.115826174616814,0.312382191419601,0.0155847631394863,0.511988401412964,0.489033848047256,0.255092293024063,2012-01-25 18:22:26
1.01399993896484,34,-4.54653596878052,0.161453410983086,0.173985973000526,0.329676598310471,0.404186099767685,0.81581699848175,1.30407881736755,0.191673770546913,1.07411658763885,0.140720337629318,0.165951818227768,0.299391269683838,1.27195954322815,2.05274987220764,1.41847455501556,0.254000067710876,8.6826343536377,0.106516011059284,0.130902335047722,0.368902921676636,0.517018795013428,0.868805110454559,0.46568563580513,0.0463160499930382,2012-01-25 18:22:27
1.02000021934509,42,-4.5325403213501,0.0854579284787178,0.110540971159935,0.223684996366501,0.252976566553116,0.476565450429916,0.426085412502289,0.326811373233795,0.223451524972916,0.200102359056473,0.232742935419083,0.541467189788818,6.63038778305054,9.2409839630127,3.36669540405273,0.425900101661682,8.74076080322266,0.0995230749249458,0.126159250736237,0.340196996927261,0.435915648937225,0.981353521347046,1.20222878456116,1.25685119628906,2012-01-25 18:22:28
1.00299978256226,28,-4.59721708297729,0.110625058412552,0.136700347065926,0.306107819080353,0.208137467503548,0.414844334125519,0.601816594600677,0.413836300373077,-0.349887251853943,0.12546007335186,0.15972788631916,0.349887251853943,0.208559393882751,0.298269182443619,0.0897326543927193,0.0700751915574074,9.12929058074951,0.123433783650398,0.142640948295593,0.332725435495377,0.0379082262516022,0.0472792536020279,0.117559857666492,0.342282623052597,2012-01-25 18:22:29
1.07300019264221,48,-5.56609106063843,0.507323920726776,0.555566549301147,0.809865832328796,70.4593734741211,93.2630233764648,10.9048519134521,1.06839716434479,-0.940621137619019,0.201478987932205,0.229601234197617,0.430675327777863,5.55383110046387,6.80339097976685,1.85877847671509,1.00884199142456,8.69216442108154,0.252197742462158,0.288050174713135,0.533031821250916,11.923189163208,16.3187370300293,3.41219139099121,0.79053395986557,2012-01-25 18:22:31
1.00099992752075,29,-6.73547744750977,0.135543927550316,0.16243240237236,0.400381773710251,0.266144603490829,0.461602389812469,0.385777801275253,0.105595022439957,-0.451105892658234,0.301639020442963,0.375003516674042,0.774725377559662,2.51665019989014,3.78635859489441,1.85166835784912,1.58537042140961,7.53556489944458,0.23465995490551,0.282286316156387,0.514003753662109,1.94028270244598,3.23526334762573,2.32012414932251,1.17637622356415,2012-01-25 18:22:32
1.01500010490417,42,-7.44067859649658,0.72943902015686,0.943850576877594,1.80699241161346,23.2200164794922,85.3333892822266,196.187652587891,32.9719543457031,0.0431959591805935,0.290597051382065,0.409851044416428,1.00424766540527,5.53364038467407,16.5765209197998,31.8704471588135,6.99443960189819,6.58960151672363,0.783731460571289,0.876660704612732,1.79414999485016,67.0376358032227,143.874252319336,97.8082809448242,9.00719451904297,2012-01-25 18:22:33
1.21799993515015,45,-6.56958341598511,1.8069806098938,1.98919308185577,3.03112626075745,33.7412948608398,389.356079101562,498.3173828125,62.687686920166,0.614985883235931,1.10890209674835,1.28423869609833,2.2877824306488,54.9567489624023,203.468719482422,163.784118652344,16.4317436218262,7.25103664398193,1.66442811489105,1.92205262184143,3.11263036727905,113.095893859863,430.975738525391,360.467407226562,24.1563186645508,2012-01-25 18:22:34
1.01699995994568,39,-7.44450426101685,0.685382306575775,0.88648509979248,2.42098546028137,26.9024906158447,23.6540679931641,5.74747943878174,1.81708133220673,0.167970314621925,0.329931557178497,0.374264985322952,0.746562659740448,9.72454833984375,10.7696094512939,1.49678981304169,0.752371311187744,7.01728630065918,0.29204598069191,0.328799724578857,0.700546979904175,5.65361881256104,6.03349447250366,1.70695900917053,1.83444738388062,2012-01-25 18:22:35
1.01500010490417,49,-5.84176111221313,0.235196217894554,0.314638525247574,0.816954076290131,14.7563171386719,13.6427545547485,1.16122925281525,0.188336625695229,1.10474908351898,0.128405436873436,0.172419905662537,0.447703570127487,3.43414068222046,3.59613299369812,0.547608911991119,0.135099679231644,7.92077112197876,0.180661365389824,0.216020971536636,0.487330347299576,3.48756718635559,2.13114023208618,4.05786752700806,0.939756155014038,2012-01-25 18:22:36
1.00499987602234,40,-5.35614681243896,0.191621914505959,0.231620579957962,0.41359531879425,3.23672485351562,7.81245517730713,6.58792686462402,0.450663059949875,1.3692535161972,0.0966567993164062,0.11844727396965,0.261102020740509,0.95608252286911,1.40161597728729,0.58194363117218,0.0430960059165955,8.19149494171143,0.125083833932877,0.145740196108818,0.326561629772186,0.0460877493023872,0.381836861371994,1.22455322742462,0.25352731347084,2012-01-25 18:22:37
1.01099991798401,33,-5.21327447891235,0.401235103607178,0.434205412864685,0.66298907995224,4.68127918243408,8.63665390014648,7.3738226890564,1.13807094097137,1.48050689697266,0.132250189781189,0.140989497303963,0.205642506480217,0.671549618244171,1.08209383487701,0.47152253985405,0.0118456371128559,8.26611423492432,0.114329777657986,0.131600171327591,0.244275152683258,0.104426339268684,0.310254395008087,0.55106520652771,0.101609222590923,2012-01-25 18:22:38
1.00600004196167,45,-5.17878293991089,0.111597277224064,0.138730451464653,0.304878085851669,0.0875630080699921,0.410855919122696,1.2758651971817,1.71566009521484,1.62594246864319,0.0819400101900101,0.0950924903154373,0.227514341473579,1.04318869113922,2.27614498138428,1.17405092716217,0.126755759119987,8.30971908569336,0.142978519201279,0.16120807826519,0.268266648054123,0.3740593791008,0.67164009809494,2.52282094955444,0.876835405826569,2012-01-25 18:22:39
1.11899995803833,45,-4.73399686813354,0.413099706172943,0.530020594596863,1.15979969501495,4.20214653015137,21.4263515472412,36.4489974975586,1.06133556365967,1.36007332801819,0.323440253734589,0.383170127868652,0.781481027603149,10.1710205078125,22.8305835723877,30.7588596343994,3.09551239013672,8.32562732696533,0.3092120885849,0.3985276222229,0.803927302360535,6.07496976852417,9.73196220397949,9.11751079559326,0.535624027252197,2012-01-25 18:22:40
1.01500010490417,44,-3.34540486335754,0.390726089477539,0.5013507604599,1.31275391578674,5.43554306030273,2.75092935562134,10.3861675262451,0.529643058776855,1.26728653907776,0.134172797203064,0.163360595703125,0.394494771957397,3.87538784707431e-05,0.110562205314636,0.752936363220215,0.575501561164856,9.31832313537598,0.235308855772018,0.276027679443359,0.600211203098297,2.39886903762817,1.87391149997711,1.02999806404114,3.7356288433075,2012-01-25 18:22:41
1.07100009918213,33,-2.67335224151611,0.275828927755356,0.31822943687439,0.584535777568817,0.145524457097054,0.0811718106269836,2.25242257118225,1.52936041355133,1.31260526180267,0.0635225996375084,0.0784948393702507,0.217232167720795,0.0202391985803843,0.0921597853302956,0.281213402748108,0.174810320138931,9.64736557006836,0.174520522356033,0.211930766701698,0.375030100345612,0.0593466646969318,0.246661379933357,1.15789306163788,0.294176161289215,2012-01-25 18:22:42
1.01399993896484,44,-3.24020624160767,0.34262490272522,0.403436541557312,0.888393402099609,5.58446264266968,11.4467124938965,4.35887908935547,0.42400261759758,1.83116888999939,0.176519677042961,0.188476592302322,0.271911680698395,5.25128078460693,7.32315826416016,0.82240903377533,0.222479447722435,9.20576953887939,0.114357158541679,0.13152639567852,0.277260690927505,0.277155548334122,1.18776500225067,0.721330225467682,0.227535575628281,2012-01-25 18:22:43
1.01099991798401,49,-3.19476628303528,0.802029550075531,0.987140536308289,1.84144866466522,47.9601593017578,327.750549316406,168.675338745117,15.1783018112183,2.06720185279846,0.324415892362595,0.412136405706406,0.949243664741516,14.2641572952271,47.7338371276855,15.5633020401001,2.2075412273407,9.43879985809326,0.567838132381439,0.716536641120911,1.8584600687027,44.427116394043,146.899688720703,150.143096923828,20.2195472717285,2012-01-25 18:22:44
1.0090000629425,34,-4.85111904144287,0.620431780815125,0.778813660144806,1.95815706253052,4.7936224937439,11.1080684661865,5.56060218811035,5.89214277267456,1.73837292194366,0.336564898490906,0.365109831094742,0.698867976665497,3.78356409072876,5.68435049057007,1.40898418426514,1.20184242725372,8.19605159759521,0.573502421379089,0.666852474212646,1.3117835521698,7.19053649902344,12.2425565719604,3.97696661949158,4.15247535705566,2012-01-25 18:22:45
1.01900005340576,42,-3.62822699546814,0.694626569747925,0.832307517528534,1.67670357227325,0.00947853829711676,2.75826215744019,43.2226943969727,14.9143753051758,2.27467584609985,0.366070449352264,0.448402225971222,0.999811351299286,15.1271381378174,30.3700428009033,24.641580581665,1.67477536201477,8.87501811981201,0.375454515218735,0.491791963577271,1.05911827087402,5.3063178062439,5.62796449661255,11.3451900482178,3.01567578315735,2012-01-25 18:22:46
1.12199997901917,42,-4.58764410018921,0.151858538389206,0.172481283545494,0.331558287143707,0.0435999818146229,1.50175929069519,2.31625413894653,0.688357591629028,2.88268804550171,0.121504604816437,0.144428506493568,0.283925771713257,1.42190408706665,1.73768663406372,0.200477808713913,0.0746449157595634,8.24529075622559,0.101301990449429,0.128105238080025,0.301905035972595,0.0293601676821709,0.700404763221741,0.613670527935028,0.0280227977782488,2012-01-25 18:22:47
1.01099991798401,43,-4.53660202026367,0.109522581100464,0.131708264350891,0.258849829435349,0.00958254560828209,1.58664000034332,1.91262626647949,0.109268680214882,2.96525716781616,0.023347144946456,0.0310850702226162,0.0748042836785316,0.00921244081109762,0.0557005442678928,0.120416335761547,0.0564047805964947,8.21090316772461,0.0446894131600857,0.0585474148392677,0.144362777471542,0.0416802316904068,0.178467780351639,0.172097340226173,0.0380049012601376,2012-01-25 18:22:48
1.01099991798401,35,-4.37824869155884,0.095392681658268,0.107358478009701,0.162229895591736,0.0788293182849884,0.0564902871847153,0.21684293448925,0.0729496628046036,1.93471193313599,0.367929488420486,0.442052453756332,0.928829967975616,8.34747982025146,10.5256862640381,1.7099632024765,0.555709481239319,8.6234073638916,0.127622619271278,0.157796084880829,0.307368546724319,0.430147528648376,0.436906307935715,0.119218319654465,0.0837062522768974,2012-01-25 18:22:49
1.01600003242493,40,-4.31026792526245,0.0914715901017189,0.101179473102093,0.181177824735641,0.654163956642151,1.02963221073151,0.191077694296837,0.108377538621426,1.42711269855499,0.164690420031548,0.178389221429825,0.338574528694153,2.86121392250061,5.67865228652954,3.37056612968445,0.154224559664726,8.78896522521973,0.0936289131641388,0.10560916364193,0.208146646618843,0.761363565921783,1.4893217086792,0.481662034988403,0.192234873771667,2012-01-25 18:22:50
1.01600003242493,37,-4.37933158874512,0.137550950050354,0.193350672721863,0.46515303850174,1.05510210990906,1.94898557662964,2.06204152107239,1.61444365978241,1.78931605815887,0.688027083873749,0.793736636638641,1.91759765148163,30.1728267669678,58.2699165344238,48.7137832641602,11.0814619064331,8.63700771331787,0.299514770507812,0.357463359832764,0.860334753990173,5.85213613510132,11.3758544921875,9.96961688995361,3.00125694274902,2012-01-25 18:22:51
1.01800012588501,50,-4.57519435882568,0.0790416598320007,0.110205329954624,0.338721722364426,0.0153805408626795,0.299189299345016,0.0382296964526176,0.364159911870956,2.62739753723145,0.091099850833416,0.112667098641396,0.273801624774933,0.415315538644791,1.12299275398254,0.863630294799805,0.565875589847565,8.30466365814209,0.0649748519062996,0.0889405384659767,0.233791068196297,0.147279649972916,0.616762399673462,0.870530068874359,0.404377073049545,2012-01-25 18:22:52
1.01899981498718,25,-4.66874980926514,0.176676660776138,0.184613630175591,0.283608466386795,0.3403639793396,0.610593378543854,0.59846830368042,0.109925284981728,2.61209917068481,0.0405445881187916,0.0511361919343472,0.111403539776802,0.0134088899940252,0.0289822779595852,0.0555056221783161,0.0222334992140532,8.20424365997314,0.100106216967106,0.119978219270706,0.239281997084618,0.109422907233238,0.175662085413933,0.0827954038977623,0.0658564046025276,2012-01-25 18:22:53
1.00999999046326,42,-4.94278478622437,0.0885044708848,0.117572531104088,0.313579350709915,0.000465717865154147,0.334899812936783,0.829546511173248,0.715512454509735,2.50186324119568,0.100990697741508,0.144954696297646,0.462079912424088,0.714959561824799,0.903291821479797,0.686019420623779,0.590912163257599,8.11196708679199,0.0561271980404854,0.0735807940363884,0.223684996366501,0.00270800618454814,0.174304932355881,0.188947513699532,0.174524262547493,2012-01-25 18:22:54
1.00600004196167,49,-4.92634057998657,0.0532443039119244,0.0631687939167023,0.133890703320503,0.0141399083659053,0.107309922575951,0.112131908535957,0.227348133921623,2.38541746139526,0.100843891501427,0.166619196534157,0.698673784732819,0.529329776763916,0.976871430873871,0.339201211929321,0.29634353518486,8.1573314666748,0.0375356748700142,0.0508093163371086,0.139094159007072,0.0848318934440613,0.058731634169817,0.0664282888174057,0.205949291586876,2012-01-25 18:22:55
1.00500011444092,30,-5.01479387283325,0.0426479764282703,0.0581539198756218,0.163117453455925,0.00392261799424887,0.0105178765952587,0.0142720015719533,0.0467875301837921,2.35000014305115,0.0604742914438248,0.0705116838216782,0.114084027707577,0.130347222089767,0.233089461922646,0.166715398430824,0.0537687167525291,8.06073951721191,0.0467452853918076,0.0514257475733757,0.0885871723294258,0.00855400785803795,0.0378300026059151,0.0760834962129593,0.0107388831675053,2012-01-25 18:22:56
1.00999999046326,44,-5.0415096282959,0.0366330407559872,0.0432452298700809,0.0971748158335686,0.000359134137397632,0.038833349943161,0.0230443272739649,0.234623804688454,2.32907938957214,0.0463587231934071,0.0556518249213696,0.132389858365059,0.222993478178978,0.347495347261429,0.539284229278564,0.0670031830668449,8.06173515319824,0.0515458844602108,0.0602132268249989,0.107204869389534,0.228862136602402,0.715907275676727,0.543728649616241,0.00831024907529354,2012-01-25 18:22:57
1.37899994850159,47,-5.07963562011719,0.0490376129746437,0.0561889708042145,0.11747095733881,0.0393747575581074,0.0513505972921848,0.480085670948029,0.254018902778625,2.35359597206116,0.0329670086503029,0.0409617573022842,0.10787320882082,0.190636664628983,0.27567782998085,0.0856418013572693,0.0679394453763962,8.10196208953857,0.032026257365942,0.037809569388628,0.0865908861160278,0.16773422062397,0.21451210975647,0.0875083282589912,0.0584868118166924,2012-01-25 18:22:59
1.00699996948242,43,-5.08987903594971,0.0371792837977409,0.0476915240287781,0.127714291214943,0.267798781394958,0.326014906167984,0.0562200136482716,0.00702594220638275,2.33329844474792,0.0189449992030859,0.0276076644659042,0.0889438837766647,0.000264471716945991,0.0221438147127628,0.0793470293283463,0.0187740195542574,8.10166168212891,0.04081791639328,0.0556192174553871,0.126118168234825,0.282646268606186,0.369978755712509,0.0726323500275612,0.0361896343529224,2012-01-25 18:23:00
1.01500010490417,45,-5.12604475021362,0.0287952702492476,0.0357265658676624,0.0714798495173454,0.161592468619347,0.186358466744423,0.131892129778862,0.0468083769083023,2.3285346031189,0.036272507160902,0.0436885170638561,0.0839012712240219,0.0355327539145947,0.110073029994965,0.206385374069214,0.144136160612106,8.06978321075439,0.0332218818366528,0.0379093699157238,0.0795432850718498,0.140055537223816,0.198227629065514,0.0337116084992886,0.0241380780935287,2012-01-25 18:23:01
1.01399993896484,31,-5.23263835906982,0.134905204176903,0.15771047770977,0.280280262231827,0.314482897520065,0.418328315019608,0.0956180468201637,0.113056518137455,2.29285788536072,0.0196745675057173,0.0254534166306257,0.0705446526408195,0.000158258713781834,0.000502972572576255,0.00175385409966111,0.00103021482937038,7.9898886680603,0.0253889616578817,0.0336930528283119,0.0907902121543884,0.00245598028413951,0.00615173252299428,0.0167261101305485,0.0139234336093068,2012-01-25 18:23:02
1.05399990081787,36,-5.28496694564819,0.0244711805135012,0.0313006788492203,0.0694636479020119,0.0130758732557297,0.0302615370601416,0.0258048959076405,0.00491957692429423,2.29530096054077,0.0289962682873011,0.0340454615652561,0.0681017637252808,0.0124252662062645,0.0345207266509533,0.067451074719429,0.020247146487236,8.01965999603271,0.0207633078098297,0.0267678555101156,0.0566601604223251,0.00346316816285253,0.0117970453575253,0.00543999578803778,0.00987830851227045,2012-01-25 18:23:03
1.01800012588501,44,-5.17835664749146,0.0268265511840582,0.0337748341262341,0.0780074819922447,0.034958902746439,0.0344327464699745,0.0183185413479805,0.00850412156432867,2.32841062545776,0.0291970800608397,0.0338680036365986,0.0826879218220711,7.32293628971092e-05,0.00738626392558217,0.0135106137022376,0.0779183283448219,8.0184965133667,0.0293286554515362,0.035845872014761,0.0719904154539108,0.0871368274092674,0.297252088785172,0.208347469568253,0.0126277515664697,2012-01-25 18:23:04
1.0090000629425,36,-5.20433473587036,0.031205715611577,0.0381787903606892,0.0814495906233788,0.0326597616076469,0.0711478292942047,0.0975683555006981,0.0499753728508949,2.32499313354492,0.029147557914257,0.0338432379066944,0.0792704522609711,0.0466909967362881,0.0740742757916451,0.0242414195090532,0.0462636984884739,8.02456378936768,0.0393779203295708,0.0510412789881229,0.12040388584137,0.0106047056615353,0.0465440303087234,0.173318952322006,0.0775368586182594,2012-01-25 18:23:05
1.01300001144409,38,-5.14178133010864,0.0316204018890858,0.0408762469887733,0.12438977509737,0.036893367767334,0.0383672639727592,0.020089128986001,0.0138968694955111,2.29217529296875,0.0287680272012949,0.0381594523787498,0.0908405408263206,0.0151508934795856,0.0965792909264565,0.141610249876976,0.0548710487782955,8.02390384674072,0.0289037227630615,0.0365657769143581,0.0861959606409073,0.0185688212513924,0.0388619303703308,0.0288050081580877,0.0312313865870237,2012-01-25 18:23:06
1.01799988746643,41,-5.24392652511597,0.0467988252639771,0.0556024461984634,0.139923915266991,0.261485636234283,0.43294295668602,0.160347416996956,0.042134840041399,2.29690861701965,0.0309076402336359,0.0363406613469124,0.0707992240786552,0.00422752555459738,0.0436709672212601,0.0851138606667519,0.066724106669426,7.97926425933838,0.025750357657671,0.0320241153240204,0.0751047283411026,0.00108789443038404,0.0125693846493959,0.0138656860217452,0.0474506020545959,2012-01-25 18:23:07
1.23099994659424,46,-5.27874898910522,0.0430917181074619,0.0499482825398445,0.114908158779144,0.0659455433487892,0.469272404909134,0.163381934165955,0.0460114553570747,2.30115175247192,0.0294014774262905,0.0371584072709084,0.0916708335280418,0.0579178482294083,0.25470831990242,0.182780474424362,0.0276808850467205,8.00073337554932,0.0243495628237724,0.0327150672674179,0.0897527784109116,0.00253473874181509,0.0461385026574135,0.109435901045799,0.0498687997460365,2012-01-25 18:23:08
1.01100015640259,50,-5.18909072875977,0.031459778547287,0.0389318503439426,0.0966935232281685,0.098273940384388,0.452015280723572,0.156192407011986,0.0524150617420673,2.30966210365295,0.029027733951807,0.0368103832006454,0.0929669812321663,0.0137682063505054,0.00766141340136528,0.0442508161067963,0.180203184485435,8.02144718170166,0.0369513630867004,0.048120953142643,0.136900752782822,0.104790531098843,0.0809350833296776,0.192763596773148,0.0388102643191814,2012-01-25 18:23:09
1.04199981689453,28,-5.23710107803345,0.0431042015552521,0.0509893372654915,0.0984169915318489,0.0360367931425571,0.0587056241929531,0.0467175506055355,0.0246121603995562,2.30876564979553,0.0284193307161331,0.0341154001653194,0.0840569585561752,3.54683434125036e-05,0.00117557914927602,0.00922240316867828,0.0183766148984432,8.0246410369873,0.0178119502961636,0.0219057630747557,0.0420280359685421,0.00141960266046226,0.00263083470053971,0.00194077240303159,0.00195341138169169,2012-01-25 18:23:10
1.00500011444092,49,-5.02000427246094,0.115613035857677,0.127713203430176,0.236360251903534,1.27571964263916,1.99292266368866,0.522681355476379,0.266049057245255,2.36620450019836,0.0404845662415028,0.0483276844024658,0.105071298778057,0.0115548931062222,0.162654742598534,0.24290007352829,0.0333392769098282,8.04965877532959,0.0596079379320145,0.0651811435818672,0.116079032421112,0.63304191827774,0.931762278079987,0.180072158575058,0.0599367134273052,2012-01-25 18:23:11
1.00099992752075,42,-5.13051223754883,0.0800876766443253,0.100303903222084,0.197767272591591,0.581051051616669,0.684416115283966,0.751679003238678,0.187949880957603,2.36994028091431,0.045608676970005,0.0552127473056316,0.124217592179775,0.0402344651520252,0.110578030347824,0.0320068411529064,0.142466977238655,8.02487468719482,0.046865176409483,0.0572017356753349,0.124451488256454,0.0178535021841526,0.0427171885967255,0.465562611818314,0.191030651330948,2012-01-25 18:23:12
1.02800011634827,26,-5.19526147842407,0.0464220717549324,0.0521272271871567,0.0958035737276077,0.0180547200143337,0.030196126550436,0.0204556602984667,0.000399081152863801,2.37509512901306,0.0857646465301514,0.103784494102001,0.207825437188148,0.0234007518738508,0.0378939025104046,0.0178574789315462,0.0367029197514057,7.8988790512085,0.0833855271339417,0.0917622223496437,0.162186473608017,0.0499326288700104,0.0924647971987724,0.112910598516464,0.0277490727603436,2012-01-25 18:23:13
1.00099992752075,45,-5.32893323898315,0.0809810906648636,0.107732385396957,0.268702238798141,0.162385419011116,1.29169845581055,1.19873452186584,1.3225976228714,2.30826735496521,0.0609416849911213,0.0699965208768845,0.133588492870331,0.00787795893847942,0.290716528892517,0.787631332874298,0.173247575759888,7.93357944488525,0.0640702322125435,0.0891873389482498,0.196133449673653,0.490791469812393,1.25635027885437,1.65949058532715,0.820317327976227,2012-01-25 18:23:14
1.01300001144409,33,-4.81981992721558,0.10145241767168,0.138542309403419,0.367898166179657,0.077963761985302,0.17664261162281,0.197393506765366,0.164565443992615,2.40381789207458,0.0851170644164085,0.101304464042187,0.256161719560623,0.304069489240646,0.392709374427795,0.0980110764503479,0.0637923404574394,8.24650096893311,0.0399829670786858,0.056894026696682,0.11678808182478,0.0261961910873652,0.0451753735542297,0.0210452862083912,0.0181090906262398,2012-01-25 18:23:15
1.00799989700317,48,-4.71842861175537,0.052336111664772,0.0654181241989136,0.148530080914497,0.635902225971222,0.589938879013062,0.184773787856102,0.281090557575226,2.46289920806885,0.0174851231276989,0.0229977425187826,0.0672163292765617,0.0114867398515344,0.0141521766781807,0.0304088983684778,0.0351932421326637,8.22920989990234,0.0239036679267883,0.030225383117795,0.0798831954598427,0.0290918461978436,0.073638916015625,0.0674367472529411,0.120190799236298,2012-01-25 18:23:16
1.007000207901,29,-4.53642082214355,0.0700808092951775,0.0861692130565643,0.160964384675026,0.176306828856468,0.28653609752655,0.169621333479881,0.0606954395771027,2.57272386550903,0.0260500609874725,0.0318840928375721,0.0818347483873367,0.000940498430281878,0.00218911585398018,0.00309958192519844,0.0122240036725998,8.2971019744873,0.0539423115551472,0.0641737803816795,0.108549281954765,0.0576961897313595,0.103102013468742,0.0901632532477379,0.0183140505105257,2012-01-25 18:23:17
1.01899981498718,44,-3.93893003463745,0.407178610563278,0.467934012413025,0.738842010498047,19.6151504516602,20.7813968658447,3.26513814926147,2.26685619354248,2.97720980644226,0.218177706003189,0.268186002969742,0.513957560062408,8.32786273956299,7.94933652877808,4.67458295822144,1.46156823635101,8.55674743652344,0.125743895769119,0.148275598883629,0.289741724729538,1.76196241378784,1.63340306282043,0.133165627717972,0.0471594370901585,2012-01-25 18:23:18
1.00699996948242,35,-3.30372023582458,0.42841848731041,0.547422289848328,1.29335713386536,12.5895767211914,27.401985168457,21.4785957336426,6.80754566192627,3.49228811264038,0.458855181932449,0.625348329544067,1.29559850692749,11.1293821334839,31.800666809082,36.534008026123,11.3242301940918,8.6220064163208,0.324011713266373,0.432400912046432,0.959090232849121,6.50272274017334,16.282434463501,16.8727970123291,5.96400165557861,2012-01-25 18:23:19
1.00800013542175,40,-0.48910665512085,0.840123414993286,1.00302231311798,2.20527052879333,83.6412734985352,117.601371765137,36.8914680480957,12.9687175750732,0.726182401180267,0.89421933889389,1.0790411233902,2.30505299568176,29.4887351989746,75.2952117919922,107.634651184082,50.4902648925781,9.57006454467773,0.444792777299881,0.904522359371185,4.98300409317017,0.408140301704407,0.284024804830551,14.9708080291748,29.8251323699951,2012-01-25 18:23:20
1.18499994277954,44,-2.9794385433197,1.1370040178299,1.80595064163208,6.00345277786255,0.672042965888977,132.324493408203,596.897338867188,467.587921142578,-7.64539813995361,2.44604992866516,3.02448630332947,7.21167659759521,941.789611816406,1636.97314453125,800.732421875,232.249328613281,5.14046764373779,2.84028124809265,3.49039936065674,6.21919918060303,1874.88659667969,2333.42578125,856.314758300781,458.021545410156,2012-01-25 18:23:21
1.01200008392334,49,-1.25024783611298,1.26056087017059,1.46699345111847,2.98602485656738,169.484252929688,269.743469238281,145.198944091797,17.2054862976074,-9.82406139373779,0.666018903255463,0.927763700485229,2.69902968406677,10.4186096191406,44.2751960754395,58.3614616394043,26.5844497680664,1.49761557579041,1.28715848922729,1.48197996616364,2.44886064529419,513.253723144531,754.356567382812,167.574295043945,28.0138111114502,2012-01-25 18:23:22
1.00600004196167,32,-1.76795506477356,0.693418264389038,0.775536596775055,1.52707934379578,13.7429208755493,18.6170978546143,4.74239730834961,15.0570678710938,-9.58845138549805,0.450646162033081,0.599695861339569,1.77745485305786,4.03454160690308,7.69227170944214,5.58507919311523,4.17382907867432,1.71340560913086,1.69158959388733,1.88386487960815,3.71396207809448,114.554176330566,220.910278320312,214.634353637695,47.5083198547363,2012-01-25 18:23:23
1.01199984550476,39,-2.10088610649109,0.40387150645256,0.512865245342255,1.23337483406067,1.03348350524902,3.64547991752625,19.3151397705078,8.19166851043701,-10.3756866455078,1.35107398033142,1.60268521308899,3.37373900413513,23.188117980957,237.820907592773,309.594207763672,95.0524749755859,-0.23435378074646,0.830928206443787,1.1574250459671,3.75695276260376,12.5952167510986,42.0291366577148,97.8645248413086,43.7979316711426,2012-01-25 18:23:24
1.01300001144409,43,-2.4395751953125,1.23625314235687,1.51480770111084,3.07176208496094,21.8217639923096,42.8590469360352,150.154449462891,93.6920394897461,-10.2372303009033,1.74842643737793,2.06388425827026,3.34315514564514,202.615951538086,410.470886230469,322.831176757812,72.1080856323242,-0.190203383564949,1.40134847164154,1.8154411315918,4.93662166595459,46.3458671569824,53.7597999572754,134.847030639648,77.1556015014648,2012-01-25 18:23:25
1.1340000629425,42,-2.4740777015686,1.13056659698486,1.41645169258118,3.17034983634949,19.7190265655518,71.9210815429688,69.0953750610352,97.2051315307617,-9.3237886428833,1.44017648696899,1.65345871448517,3.0522027015686,201.387145996094,168.846557617188,198.590713500977,127.689544677734,-0.172083348035812,1.40708744525909,1.86885416507721,4.77140188217163,19.4307765960693,17.8962001800537,129.112426757812,47.7343902587891,2012-01-25 18:23:27
1.01099991798401,45,-2.58459711074829,0.953061044216156,1.47277402877808,5.70311164855957,5.21926212310791,2.81440114974976,19.9174118041992,96.0902862548828,-10.0121536254883,1.80445265769958,2.11389470100403,3.67792987823486,277.18798828125,227.336212158203,377.721374511719,74.6831970214844,0.346937477588654,1.17780530452728,1.64128971099854,4.43870735168457,8.21480274200439,49.6519508361816,125.186332702637,65.3285293579102,2012-01-25 18:23:28
1.00399994850159,43,-1.96976816654205,0.916510701179504,1.24580371379852,3.47018575668335,12.5485248565674,15.011082649231,52.5922431945801,87.9796447753906,-9.12064075469971,1.08736598491669,1.30877351760864,2.42178678512573,68.0516204833984,142.102554321289,88.1491317749023,9.4713830947876,0.483718693256378,1.6572972536087,2.33623790740967,7.10662794113159,41.2939491271973,187.260284423828,320.073638916016,150.03645324707,2012-01-25 18:23:29
1,42,-1.92350435256958,0.905213832855225,1.22649896144867,3.23479318618774,7.73377227783203,46.5436401367188,151.813842773438,95.2918243408203,-9.47065544128418,1.24590039253235,1.46742856502533,3.27798962593079,0.0564848221838474,100.443885803223,75.0822677612305,23.3704242706299,-0.287428230047226,1.50245213508606,1.84265446662903,3.82155823707581,100.236038208008,409.732025146484,558.615417480469,97.7227783203125,2012-01-25 18:23:30
1.13600015640259,33,-2.08822202682495,0.691724538803101,0.858699142932892,1.89327788352966,7.56012058258057,19.6531887054443,23.123908996582,2.1508960723877,-10.1097640991211,1.23996043205261,1.45393073558807,2.36429381370544,19.2217235565186,85.9525756835938,153.1435546875,21.4260692596436,-0.0823164284229279,0.517131924629211,0.735793650150299,2.24185967445374,0.464584738016129,1.66643941402435,5.63782691955566,3.87061238288879,2012-01-25 18:23:31
1.01999998092651,46,-2.54844975471497,0.683480858802795,0.86747133731842,1.66840958595276,42.3585891723633,50.0870170593262,37.5964393615723,25.9348373413086,-10.0166397094727,0.973453640937805,1.21199405193329,2.61261916160583,12.6089868545532,277.13232421875,288.752105712891,32.1344833374023,0.371586740016937,0.703400015830994,0.870052576065063,2.09755706787109,0.317115098237991,47.5935096740723,115.574195861816,22.1409549713135,2012-01-25 18:23:32
1.08500003814697,39,-1.78481030464172,0.706581711769104,0.889420032501221,2.13784956932068,14.0444946289062,16.4273853302002,9.04235649108887,5.02945804595947,-9.92156410217285,1.51386046409607,1.98975431919098,4.8766713142395,20.0098819732666,26.9205055236816,61.1605911254883,5.93292808532715,0.329402834177017,0.860251426696777,1.10486030578613,2.86932516098022,18.2539176940918,40.137508392334,21.5392951965332,2.49745154380798,2012-01-25 18:23:33
1.00399994850159,44,-0.918259024620056,0.223769918084145,0.301798760890961,0.974424362182617,6.72236919403076,6.58816480636597,2.40359950065613,6.32578706741333,-9.9352502822876,0.392640829086304,0.513164043426514,1.53852999210358,2.97652554512024,8.48858737945557,24.8683338165283,7.86230230331421,0.74374520778656,0.255763083696365,0.337549686431885,1.13601124286652,0.00782608147710562,7.97864389419556,11.4514713287354,3.0462634563446,2012-01-25 18:23:34
1.00799989700317,48,-1.50634229183197,0.794704675674438,0.94450169801712,1.88675844669342,19.850227355957,183.199264526367,195.677795410156,22.9539108276367,-9.95681381225586,0.819978952407837,0.945022165775299,2.04652571678162,99.7255477905273,190.760543823242,50.6429328918457,28.7566432952881,1.13797998428345,1.013387799263,1.25998270511627,2.5011043548584,333.984985351562,424.789459228516,100.456504821777,27.9259452819824,2012-01-25 18:23:35
1.00200009346008,42,-1.8873131275177,0.860372304916382,1.05190992355347,1.92653965950012,61.0924491882324,91.438232421875,63.370002746582,57.1391220092773,-9.89467620849609,0.650707840919495,0.811231136322021,2.56957530975342,1.03528332710266,26.5566673278809,76.5093231201172,30.5926208496094,-0.602408468723297,0.810149371623993,1.20964360237122,4.13280248641968,0.000192992883967236,7.83157348632812,18.9716167449951,18.8744487762451,2012-01-25 18:23:36
1.00399994850159,37,0.841781616210938,0.726451396942139,0.872523784637451,2.96319842338562,38.6648864746094,50.0823135375977,7.99079179763794,1.22037327289581,-10.1663150787354,0.705161869525909,1.0228716135025,3.31782817840576,13.8917360305786,14.3425168991089,2.6405041217804,0.747155606746674,0.519752442836761,0.910693228244781,0.971726715564728,1.57887053489685,58.6562194824219,74.0094604492188,11.083535194397,2.816819190979,2012-01-25 18:23:37
1.12400007247925,34,0.385055214166641,0.10251172631979,0.121518433094025,0.237955465912819,0.121598608791828,0.578271508216858,0.62783682346344,0.214052930474281,-9.91221523284912,0.0806247740983963,0.092088371515274,0.16902020573616,0.0717422515153885,0.196527555584908,0.256799817085266,0.0208151359111071,1.33024322986603,0.0571093112230301,0.0741867572069168,0.261318415403366,0.00115404382813722,0.0136417364701629,0.0656011253595352,0.101308405399323,2012-01-25 18:23:38
1.0090000629425,48,-1.47242760658264,0.625020682811737,0.762168705463409,1.56068742275238,77.9379348754883,55.5121879577637,14.4386968612671,30.996561050415,-9.90696334838867,0.264038860797882,0.395259022712708,0.884846091270447,0.418519258499146,17.5154647827148,57.0730972290039,12.1671752929688,-0.0122583042830229,0.97024542093277,1.04939651489258,1.56170892715454,217.364227294922,277.215881347656,20.6719245910645,5.67779684066772,2012-01-25 18:23:39
1.01099991798401,43,-1.75607442855835,0.508397102355957,0.645548284053802,1.70567297935486,0.625260531902313,7.31922769546509,36.9685821533203,4.79326295852661,-10.127760887146,0.97650682926178,1.06812226772308,1.81172144412994,5.3521032333374,6.09509611129761,97.0920257568359,6.16003513336182,-0.260218322277069,1.0151287317276,1.45288634300232,4.2907509803772,4.57734060287476,17.3089218139648,52.4395751953125,58.0590476989746,2012-01-25 18:23:40
1.00200009346008,32,-2.09218740463257,0.591406106948853,0.745372354984283,1.80105257034302,7.86712026596069,10.7601432800293,2.98254013061523,0.829140901565552,-10.3628702163696,0.665415704250336,0.755550682544708,1.64046919345856,5.4127345085144,17.5878849029541,21.3666610717773,1.15135824680328,-0.192761957645416,0.634252727031708,0.816424250602722,1.76856803894043,2.8164541721344,14.8613195419312,35.271656036377,5.45763397216797,2012-01-25 18:23:41
1.00399994850159,46,-2.04852390289307,1.07923197746277,1.48808157444,4.00217914581299,14.7280464172363,80.0407257080078,277.391204833984,224.799041748047,-10.5815887451172,1.08793568611145,1.28547394275665,2.70642232894897,90.9155120849609,293.254699707031,289.447082519531,29.0976409912109,-0.48734787106514,0.632185935974121,0.843339323997498,3.3999228477478,12.9303960800171,47.0122375488281,58.104175567627,17.7128086090088,2012-01-25 18:23:42
1.0019998550415,28,-2.61592388153076,1.26733434200287,1.48034393787384,2.87580013275146,1.28115320205688,11.3012361526489,57.3997840881348,40.9450607299805,-8.72511672973633,0.59220153093338,0.798164188861847,2.77808427810669,4.89825057983398,10.4031000137329,12.3509311676025,1.03570175170898,0.981015205383301,1.6521703004837,2.07492589950562,5.1586480140686,0.350326985120773,11.776463508606,60.6790466308594,29.1248512268066,2012-01-25 18:23:43
1.01900005340576,47,-2.61086392402649,1.91595029830933,2.45168018341064,7.54882478713989,38.3315734863281,332.197662353516,939.846923828125,567.061584472656,-10.7071924209595,1.93257141113281,2.44936895370483,6.84671115875244,0.312838584184647,348.748016357422,1334.70959472656,441.080383300781,0.987967789173126,1.23870992660522,1.74802422523499,4.83718204498291,43.2790679931641,227.742218017578,524.078125,328.741394042969,2012-01-25 18:23:44
1.02300000190735,48,-2.17687201499939,1.71307361125946,2.16246771812439,6.41334438323975,0.0795384794473648,177.60676574707,797.479431152344,503.216888427734,-10.3429508209229,1.79459142684937,2.1839907169342,4.89658260345459,63.0954170227051,344.425445556641,656.133239746094,226.27165222168,0.391857385635376,0.954599022865295,1.34379577636719,4.64794301986694,160.700576782227,327.808563232422,57.7829513549805,15.9921722412109,2012-01-25 18:23:45
1.01699995994568,26,-1.64261388778687,0.755866408348083,0.992468476295471,3.03515815734863,1.63959264755249,5.50111865997314,14.2837371826172,2.57861089706421,-10.2241868972778,0.5597043633461,0.71654736995697,1.90663933753967,4.2833514213562,6.86090183258057,3.4766993522644,1.71368813514709,0.0531822182238102,0.51992654800415,0.621616005897522,1.47514641284943,1.38248217105865,2.36131477355957,2.34273242950439,0.564585268497467,2012-01-25 18:23:46
1.01600003242493,45,-0.584912180900574,0.204675674438477,0.22623085975647,0.418199121952057,0.0249087549746037,4.46822834014893,4.69512891769409,2.86301898956299,-10.4351472854614,0.376468896865845,0.46607369184494,1.18573319911957,25.2797794342041,53.8849868774414,39.021183013916,4.8129358291626,0.69866931438446,0.197605207562447,0.238911807537079,0.703681588172913,8.9487943649292,10.85924243927,1.13555502891541,0.488420307636261,2012-01-25 18:23:47
1.00699996948242,44,-3.22304463386536,1.55444514751434,1.72462236881256,2.8374650478363,452.026794433594,495.263244628906,65.4330978393555,37.1068382263184,-8.96929550170898,1.23949766159058,1.48684966564178,2.79110622406006,172.049453735352,308.820709228516,229.322082519531,101.873954772949,2.19758105278015,0.544309556484222,0.748763144016266,1.73666858673096,67.1749038696289,87.4857788085938,39.0998382568359,16.8227653503418,2012-01-25 18:23:48
1.02999997138977,32,-3.0569167137146,0.837549209594727,1.1677668094635,3.27817916870117,30.1389350891113,47.94140625,31.2851810455322,6.54949283599854,-9.76589107513428,0.505253255367279,0.593510568141937,1.1391042470932,2.27273392677307,6.28150463104248,11.750319480896,5.26943826675415,0.832032918930054,1.00387918949127,1.19813597202301,2.93372058868408,29.7331523895264,38.1233100891113,6.49413108825684,5.80939817428589,2012-01-25 18:23:49
1.01400017738342,40,-2.06331920623779,0.809146702289581,1.12658047676086,3.39898490905762,49.0008125305176,85.2913513183594,67.2280349731445,80.1781463623047,-9.91550350189209,1.39631986618042,1.53740751743317,2.48010158538818,44.7094535827637,127.996109008789,113.568618774414,13.5322170257568,1.14443600177765,0.721818447113037,0.898425579071045,1.97407853603363,17.8794727325439,33.0525436401367,32.2026786804199,32.3126831054688,2012-01-25 18:23:50
1.00699996948242,27,-1.47063422203064,0.595313429832458,0.702231824398041,1.44194078445435,0.0564883649349213,1.81219565868378,9.66014385223389,6.64492797851562,-10.0885000228882,0.426488310098648,0.488677740097046,1.21856677532196,1.9065535068512,3.68247246742249,4.61399173736572,1.30886220932007,-0.259331405162811,0.626495599746704,0.71468448638916,1.48516261577606,0.573488771915436,2.62954378128052,6.72142505645752,5.75438165664673,2012-01-25 18:23:51
1.01900005340576,49,-1.63650965690613,0.328296095132828,0.439088344573975,1.03089904785156,6.88044404983521,6.42697477340698,2.69032597541809,2.95880007743835,-9.86749076843262,0.267332226037979,0.336735278367996,0.68846732378006,7.39982128143311,11.4756622314453,2.32822012901306,1.21156239509583,0.447103172540665,0.825041055679321,0.953576564788818,1.68093979358673,149.278137207031,320.756225585938,49.7480125427246,12.933198928833,2012-01-25 18:23:52
1.0019998550415,32,-1.8831832408905,0.239381864666939,0.316686898469925,0.775031805038452,0.419853806495667,0.691578149795532,0.559757351875305,1.34654867649078,-10.2234325408936,0.327297002077103,0.385012537240982,0.710982441902161,0.214165359735489,2.28264427185059,3.66771721839905,3.24511480331421,-0.34905543923378,0.507321715354919,0.649393796920776,1.47682011127472,9.22001552581787,13.2078256607056,7.18839073181152,14.5494585037231,2012-01-25 18:23:53
1.00500011444092,48,-2.38281154632568,0.854234099388123,1.11994826793671,3.70670938491821,85.2769622802734,121.620185852051,53.7529754638672,106.073593139648,-9.4793529510498,0.65709662437439,0.867508947849274,2.13172078132629,38.2964324951172,91.8360748291016,32.3108787536621,26.6680011749268,0.58962482213974,1.05033302307129,1.19179821014404,2.74708771705627,156.817077636719,308.228851318359,65.60986328125,84.8385391235352,2012-01-25 18:23:54
1.14299988746643,36,-1.85454642772675,1.12031888961792,1.23440229892731,2.166179895401,74.6054382324219,143.5400390625,89.4300308227539,9.87823009490967,-9.71866226196289,0.947204291820526,1.09986007213593,2.13757705688477,40.8767280578613,63.1894340515137,19.2000942230225,2.82674646377563,0.802238464355469,1.16835331916809,1.31310641765594,2.45956230163574,100.59130859375,154.575134277344,50.7015113830566,18.6886386871338,2012-01-25 18:23:55
1.00600004196167,44,-2.33242249488831,1.05155038833618,1.190758228302,2.49244904518127,1.10771214962006,20.5973529815674,170.376815795898,21.3246593475342,-10.0611772537231,0.975700914859772,1.2104560136795,2.20694208145142,8.69189834594727,195.297546386719,314.651184082031,13.5093841552734,0.246949270367622,0.95550000667572,1.14047133922577,2.5087194442749,138.905151367188,221.039581298828,136.477523803711,36.4343643188477,2012-01-25 18:23:56
1.00600004196167,33,-1.77411210536957,0.767566204071045,1.03566920757294,2.40173768997192,0.053493682295084,0.586649656295776,7.19784212112427,8.29403209686279,-9.84498500823975,0.776967644691467,1.10433125495911,3.7274181842804,12.7409601211548,21.3295593261719,10.327618598938,5.59449577331543,-0.925688326358795,1.30879604816437,1.69437336921692,3.97763681411743,15.4824695587158,48.8965454101562,34.1554183959961,16.2058792114258,2012-01-25 18:23:57
1.0090000629425,39,-2.76547527313232,1.40461397171021,1.71536529064178,4.04033946990967,9.98617744445801,16.423791885376,85.8788375854492,99.3871078491211,-10.0140981674194,1.22333598136902,1.58895421028137,4.17612361907959,63.7179412841797,114.537490844727,119.978210449219,150.108093261719,0.85619592666626,1.38159644603729,1.71040177345276,3.86080265045166,15.3651876449585,66.4874496459961,49.1535301208496,91.4395446777344,2012-01-25 18:23:58
1.00300002098083,48,-3.76371049880981,0.483879864215851,0.636529386043549,1.82199370861053,22.494026184082,38.5073471069336,47.6772994995117,50.9240760803223,-8.78430652618408,1.30918765068054,1.65428602695465,3.54755544662476,222.798980712891,316.692077636719,51.5513038635254,14.1178827285767,2.73135614395142,1.62036156654358,1.94575321674347,3.98619890213013,461.365081787109,871.003295898438,123.781097412109,10.2611503601074,2012-01-25 18:23:59
