"diffSecs","N.samples","x.mean","x.absolute.deviation","x.standard.deviation","x.max.deviation","x.PSD.1","x.PSD.3","x.PSD.6","x.PSD.10","y.mean","y.absolute.deviation","y.standard.deviation","y.max.deviation","y.PSD.1","y.PSD.3","y.PSD.6","y.PSD.10","z.mean","z.absolute.deviation","z.standard.deviation","z.max.deviation","z.PSD.1","z.PSD.3","z.PSD.6","z.PSD.10","time"
1.04900002479553,38,-3.26458215713501,0.891997635364532,1.36371791362762,5.35546255111694,8.97112464904785,18.993350982666,63.6260681152344,85.2724914550781,-6.49845409393311,1.53522968292236,2.17522287368774,7.36814880371094,64.6850280761719,139.48176574707,126.925819396973,13.4725008010864,-5.00164937973022,2.78580832481384,3.31055903434753,9.40483570098877,409.300933837891,925.044250488281,809.588745117188,182.672760009766,2012-01-20 07:49:31
1.00099992752075,39,-1.10312235355377,0.655672192573547,0.764624834060669,1.57384157180786,5.64591693878174,23.5856323242188,37.4168663024902,33.268497467041,-6.84277820587158,1.68155992031097,2.02950620651245,4.03807640075684,17.8145732879639,158.26921081543,457.705230712891,110.630851745605,-3.67372179031372,1.049640417099,1.1887434720993,2.21253108978271,41.6861457824707,86.2747344970703,78.7660140991211,14.475869178772,2012-01-20 07:49:32
1,36,-1.721067070961,1.2086695432663,1.61533522605896,4.49634885787964,103.698593139648,147.816665649414,36.2229804992676,8.78310012817383,-9.73555183410645,1.56620371341705,2.14968824386597,6.86710596084595,4.38733386993408,116.179222106934,240.454727172852,232.83088684082,-2.57751441001892,1.16562926769257,1.61932265758514,4.84611940383911,29.9101219177246,96.3553161621094,80.0537948608398,49.5617065429688,2012-01-20 07:49:33
1.01900005340576,39,-1.67241096496582,0.768284261226654,0.926648497581482,1.96585607528687,13.2881898880005,22.510103225708,23.62477684021,14.34898853302,-8.53530597686768,1.69843947887421,2.26668977737427,4.54399919509888,40.2873916625977,89.0962219238281,135.822494506836,9.46180534362793,-3.73557925224304,0.954552590847015,1.19589054584503,2.75642275810242,74.9385452270508,75.2045211791992,17.8062877655029,6.97192192077637,2012-01-20 07:49:34
1.0090000629425,39,-1.82202517986298,1.25648903846741,1.51001858711243,3.07149314880371,97.4268646240234,195.248291015625,179.664520263672,37.702579498291,-8.69699001312256,1.49006927013397,1.83830785751343,3.91134452819824,64.52001953125,163.853713989258,162.261978149414,15.314642906189,-2.8135027885437,1.23229801654816,1.87337982654572,5.81433773040771,28.7981491088867,84.9469299316406,173.125228881836,168.567962646484,2012-01-20 07:49:35
1.00499987602234,39,-1.54618179798126,0.875054895877838,1.09631407260895,2.5824179649353,1.15268623828888,3.6360981464386,85.0446014404297,74.3989105224609,-8.69497776031494,2.29462718963623,2.83092069625854,6.48571586608887,281.036560058594,946.539306640625,1039.82299804688,149.610488891602,-3.90807557106018,0.857324302196503,1.18873143196106,3.28019881248474,57.2115859985352,72.0174865722656,83.8074493408203,86.8250427246094,2012-01-20 07:49:36
1.10800004005432,38,-1.07227969169617,0.637201368808746,0.778278768062592,2.20314121246338,27.6300621032715,47.4132118225098,39.6634368896484,18.6852569580078,-8.25719928741455,1.72751879692078,2.17987155914307,5.97224998474121,39.0113182067871,123.051742553711,289.537933349609,42.8479652404785,-4.10717964172363,1.22205519676208,1.37770402431488,2.39101600646973,20.0725383758545,40.844066619873,20.6387844085693,42.9348487854004,2012-01-20 07:49:37
1.0090000629425,39,-1.28140223026276,0.912940382957458,1.55107843875885,6.44623804092407,54.598014831543,128.864822387695,130.351165771484,178.568176269531,-7.62303590774536,1.64818775653839,2.29018592834473,7.26345872879028,110.591728210449,278.205841064453,307.012512207031,68.7075576782227,-4.3946361541748,0.790283143520355,1.00000011920929,2.12930035591125,7.16907835006714,35.9546852111816,34.1038513183594,13.3184108734131,2012-01-20 07:49:38
1.00999999046326,40,-1.98290455341339,0.810323476791382,0.976629078388214,2.10646843910217,26.9055099487305,48.8056678771973,13.0338096618652,23.1534996032715,-8.9902458190918,1.29717457294464,1.61287748813629,3.80743193626404,0.0105555234476924,47.7714385986328,150.950958251953,15.9600563049316,-3.55000710487366,1.65193021297455,1.86981332302094,3.29503464698792,52.7603187561035,213.448822021484,216.645034790039,31.8284187316895,2012-01-20 07:49:39
1.0019998550415,38,-2.9259946346283,0.817999541759491,1.15832448005676,3.57581400871277,6.68487501144409,41.3033256530762,101.80020904541,20.4032611846924,-9.13747501373291,1.31599271297455,1.63280820846558,3.33193826675415,96.3175888061523,266.263031005859,329.711395263672,90.0545883178711,-1.43460965156555,1.12227737903595,1.47504508495331,4.54744672775269,105.295379638672,161.934066772461,31.1113109588623,86.1708526611328,2012-01-20 07:49:40
1.08700013160706,38,-2.51979279518127,0.78455913066864,1.04155504703522,2.37269306182861,46.6210708618164,78.3361358642578,78.6397247314453,24.3039169311523,-9.71193790435791,0.524682819843292,0.618863582611084,1.6833883523941,1.8948450088501,8.73314666748047,27.23410987854,13.0168523788452,-1.08569931983948,1.14038300514221,1.89600849151611,6.61252069473267,46.7219276428223,44.3195953369141,10.5461463928223,7.74552917480469,2012-01-20 07:49:41
1.01099991798401,40,-2.40728735923767,0.446631610393524,0.540211915969849,1.22117304801941,3.96440029144287,11.7773923873901,20.5444145202637,2.84223008155823,-9.05472469329834,0.597629487514496,0.696349442005157,1.94833648204803,23.9884929656982,28.5552234649658,9.35297775268555,10.924901008606,-1.67644679546356,1.30146503448486,1.45116865634918,2.33349227905273,189.515075683594,358.118988037109,135.671096801758,9.46334743499756,2012-01-20 07:49:42
1.01399993896484,40,-2.60979461669922,0.196378171443939,0.250887274742126,0.736724555492401,0.843064963817596,2.19846606254578,1.29175567626953,0.544352769851685,-9.43154525756836,0.090956524014473,0.120301246643066,0.28684401512146,0.16375957429409,0.314042210578918,0.131387710571289,0.155897557735443,-0.101008489727974,0.182109490036964,0.235729098320007,0.620760917663574,4.11765432357788,6.53720617294312,2.1493935585022,0.789972186088562,2012-01-20 07:49:43
1.00200009346008,40,-2.50192141532898,0.0480525381863117,0.0675231143832207,0.177745431661606,0.257951229810715,0.303730726242065,0.0537405014038086,0.0179529190063477,-9.50215339660645,0.0313812270760536,0.0380410142242908,0.0887500271201134,0.0599538199603558,0.111685767769814,0.0526025779545307,0.00714816292747855,-0.42707958817482,0.0605805777013302,0.077153779566288,0.162300050258636,0.208636626601219,0.470774859189987,0.65461140871048,0.291029900312424,2012-01-20 07:49:44
1.01099991798401,40,-2.62720155715942,0.0338819622993469,0.0393978394567966,0.0794337689876556,0.00108529231511056,0.0900797843933105,0.107522182166576,0.0543031431734562,-9.4501781463623,0.0207655448466539,0.02447241358459,0.0524654872715473,0.00214851065538824,0.00493548018857837,0.0148944463580847,0.0199259892106056,-0.470719188451767,0.035794273018837,0.0428024046123028,0.107873171567917,0.0726785585284233,0.204097792506218,0.147221460938454,0.025663236156106,2012-01-20 07:49:45
1.0550000667572,37,-2.54522323608398,0.0402294769883156,0.0466478578746319,0.0927656218409538,0.0923537537455559,0.120740234851837,0.0838509052991867,0.0214454736560583,-9.50078868865967,0.0387824028730392,0.0469943508505821,0.106017656624317,0.0340322591364384,0.0359577871859074,0.0284057501703501,0.0342418029904366,-0.476020067930222,0.0284385718405247,0.0370171591639519,0.0837541073560715,0.025544174015522,0.0497073493897915,0.0543441064655781,0.0357246473431587,2012-01-20 07:49:46
1.01300001144409,40,-2.58625864982605,0.0355981960892677,0.0542914569377899,0.149796649813652,0.147910311818123,0.166411116719246,0.128949820995331,0.129643946886063,-9.45875930786133,0.0335877165198326,0.0413735024631023,0.0934081822633743,0.109516680240631,0.160932347178459,0.0557217374444008,0.0102230738848448,-0.477583855390549,0.0560450069606304,0.075999952852726,0.159848377108574,0.0224769897758961,0.312403470277786,0.67049503326416,0.344156980514526,2012-01-20 07:49:47
1.01399993896484,39,-3.07576775550842,0.260350108146667,0.306606769561768,0.594685256481171,4.2843337059021,4.15217351913452,1.42134726047516,0.385321587324142,-9.34297180175781,0.0789173617959023,0.0922608152031898,0.232594102621078,0.0238317251205444,0.0580118335783482,0.0793210491538048,0.415870875120163,-0.346250176429749,0.162515714764595,0.195694401860237,0.473736613988876,0.842380702495575,0.891869604587555,3.66614270210266,2.25870394706726,2012-01-20 07:49:48
1,39,-3.26309990882874,0.057382769882679,0.0667974576354027,0.124972023069859,0.21904644370079,0.469969183206558,0.287799477577209,0.0439964383840561,-9.29117202758789,0.0388655215501785,0.0458251461386681,0.112148553133011,0.00308288587257266,0.0301443412899971,0.0614255890250206,0.0717696473002434,-0.15388897061348,0.0954359173774719,0.118372477591038,0.291182070970535,0.882282078266144,1.55467534065247,1.04417455196381,0.47954273223877,2012-01-20 07:49:49
1.03699994087219,37,-3.00083470344543,0.107608072459698,0.115089148283005,0.18632635474205,0.347865283489227,1.04925215244293,0.860892117023468,0.0764191597700119,-9.36110973358154,0.0349571742117405,0.0406287685036659,0.0938256233930588,0.000661619938910007,0.027543755248189,0.106683477759361,0.0508859232068062,0.118739977478981,0.0335388854146004,0.0436060763895512,0.146039560437202,0.0127869453281164,0.0231382586061954,0.0216071829199791,0.0599663257598877,2012-01-20 07:49:50
1.01800012588501,40,-2.97558259963989,0.0296651180833578,0.0395858138799667,0.133125230669975,0.00150813057553023,0.0116673456504941,0.0435442104935646,0.029826270416379,-9.39158344268799,0.0298121646046638,0.0404568202793598,0.124299071729183,0.000381990044843405,0.0181006733328104,0.0238875970244408,0.00859996769577265,0.0769822001457214,0.0236830599606037,0.0291366446763277,0.0573689006268978,0.0212309285998344,0.0181652773171663,0.0372666828334332,0.00833579804748297,2012-01-20 07:49:51
1.01900005340576,40,-2.89958119392395,0.0556527376174927,0.0616099499166012,0.120867058634758,0.0178859457373619,0.137509644031525,0.102021910250187,0.0071259536780417,-9.39599609375,0.0267843659967184,0.0363763645291328,0.0894855260848999,0.0464544221758842,0.0542926676571369,0.0219358038157225,0.0127854542806745,0.0833565220236778,0.0612915605306625,0.0733534768223763,0.181423023343086,0.000239113622228615,0.208527654409409,0.298505872488022,0.112067490816116,2012-01-20 07:49:52
1.01699995994568,39,-2.78257393836975,0.0498649515211582,0.0711241811513901,0.23284512758255,0.135551393032074,0.190564841032028,0.0841997340321541,0.23603755235672,-9.45260429382324,0.0331658907234669,0.0465723015367985,0.1382986754179,0.00997536443173885,0.0866168513894081,0.14215624332428,0.0997423157095909,0.15388897061348,0.0742365345358849,0.117073781788349,0.424703389406204,0.27425742149353,0.701940953731537,0.642983376979828,0.801809430122375,2012-01-20 07:49:53
1.12100005149841,41,-3.38520765304565,0.814622819423676,0.838782072067261,1.20813131332397,71.8706588745117,102.384452819824,14.0639677047729,4.33665800094604,-9.13405704498291,0.4016934633255,0.420306861400604,0.553238809108734,20.8131675720215,32.8971633911133,7.49028635025024,1.56952679157257,-0.175084576010704,0.292927712202072,0.361998587846756,0.687900602817535,11.8278818130493,22.6565685272217,11.0952482223511,2.57310152053833,2012-01-20 07:49:54
1.01699995994568,41,-3.61889290809631,0.609715759754181,0.690667390823364,1.33394360542297,22.5001163482666,30.676685333252,12.7796258926392,20.6969127655029,-8.56718444824219,0.491755962371826,0.588968276977539,1.43775022029877,2.88798761367798,7.05489778518677,12.1096792221069,12.5816440582275,-2.10819053649902,1.02059161663055,1.17453241348267,2.2847101688385,14.0468559265137,107.857307434082,165.919677734375,34.542179107666,2012-01-20 07:49:55
1.00399994850159,39,-2.29123568534851,0.46962308883667,0.613400638103485,1.60200428962708,5.24437761306763,17.5302124023438,24.3069458007812,15.4440355300903,-10.1571750640869,0.641255617141724,0.7806396484375,1.94900858402252,1.44732403755188,16.4827423095703,28.3982887268066,18.4842548370361,0.0751843228936195,0.608179926872253,0.749266266822815,1.49714851379395,33.1208610534668,78.247428894043,56.6854553222656,13.2387552261353,2012-01-20 07:49:56
1.00099992752075,38,-2.23178696632385,0.582884430885315,0.775191128253937,2.22043204307556,26.3061218261719,41.3449440002441,17.4109649658203,6.8892502784729,-9.71813201904297,1.00671648979187,1.69637358188629,5.28604221343994,0.147956147789955,0.491469889879227,4.04443550109863,6.39653205871582,-0.922599315643311,0.993079483509064,1.19498121738434,2.65682792663574,54.1323356628418,63.6649360656738,8.24867248535156,2.47805047035217,2012-01-20 07:49:57
1.06100010871887,37,-1.65785384178162,0.983415722846985,1.30976605415344,3.12885141372681,3.34645915031433,17.1710071563721,97.9981231689453,44.3384437561035,-8.99852848052979,1.27671265602112,1.66200792789459,5.52511930465698,9.54898452758789,14.5075626373291,16.240873336792,63.1552200317383,-2.1990749835968,0.930908203125,1.16349351406097,2.659987449646,14.9002437591553,48.9741744995117,56.6428604125977,18.0313701629639,2012-01-20 07:49:58
1.01900005340576,38,-2.13630127906799,0.486121863126755,0.605528593063354,1.32234930992126,8.74455070495605,11.4007997512817,6.98357820510864,2.77196216583252,-9.35941505432129,1.15001308917999,1.32326769828796,2.269207239151,1.29094421863556,6.47855186462402,50.4482231140137,8.35333442687988,-1.67925977706909,1.02093744277954,1.20848262310028,2.63566589355469,40.724723815918,111.904022216797,113.261596679688,8.37552642822266,2012-01-20 07:49:59
1,39,-1.4667227268219,1.01846027374268,1.16678690910339,2.42777442932129,61.1843566894531,77.4876251220703,27.6938781738281,41.7499542236328,-9.02890682220459,0.891070485115051,1.18601775169373,2.92539858818054,5.99270868301392,10.6522417068481,11.9910774230957,52.9782524108887,-2.9253990650177,1.31115102767944,1.58184254169464,3.31163001060486,42.9654159545898,137.635192871094,173.763320922852,40.6374702453613,2012-01-20 07:50:00
1.0019998550415,39,-1.35256338119507,0.805847406387329,0.986759841442108,2.72700309753418,1.15104365348816,11.041615486145,42.3166999816895,3.89780306816101,-9.07869434356689,1.02708697319031,1.28567636013031,2.78735136985779,12.3917350769043,74.9655609130859,91.0754089355469,22.1910209655762,-2.55249500274658,0.83888441324234,1.08181750774384,2.2821831703186,41.9626884460449,67.3121948242188,31.9399089813232,14.4817886352539,2012-01-20 07:50:01
1.00600004196167,41,-1.88670372962952,0.206272169947624,0.271889597177505,0.613991975784302,1.27864420413971,2.15042400360107,2.53160667419434,0.856551587581635,-9.11970615386963,0.145343899726868,0.164395973086357,0.333904534578323,2.40079927444458,3.44917154312134,0.652681112289429,0.248100891709328,-3.05106401443481,0.319121569395065,0.45351830124855,1.74677956104279,12.1363830566406,11.8898315429688,1.82652366161346,0.370016813278198,2012-01-20 07:50:02
1.02699995040894,35,-1.81759250164032,0.249481186270714,0.31559345126152,0.810589671134949,0.758227944374084,1.09989583492279,1.63902497291565,1.9149169921875,-8.77330875396729,0.424383759498596,0.649002909660339,1.87671256065369,0.0620411187410355,0.0748562291264534,0.110148020088673,1.79506361484528,-3.86550116539001,0.312836110591888,0.444827884435654,1.40066981315613,0.151618003845215,0.300317406654358,0.37552472949028,0.56914609670639,2012-01-20 07:50:03
1.01700019836426,39,-2.30079078674316,0.316404670476913,0.382027864456177,0.709850668907166,3.59251761436462,7.66999769210815,7.44466733932495,1.03804969787598,-8.95372295379639,0.0762093365192413,0.0920074284076691,0.18657748401165,0.0101151475682855,0.016799308359623,0.224728390574455,0.131642311811447,-3.10543918609619,0.172831729054451,0.209922388195992,0.523021340370178,3.34424233436584,4.18882036209106,0.725757241249084,0.233602479100227,2012-01-20 07:50:04
1.01599979400635,39,-2.46197199821472,0.135823041200638,0.164306104183197,0.323116540908813,0.000787539989687502,0.576073348522186,0.642196536064148,0.731221377849579,-9.16318225860596,0.170833081007004,0.203871160745621,0.454877257347107,0.326203852891922,0.429985165596008,0.452449411153793,3.17856955528259,-2.35862493515015,0.330756813287735,0.406254261732101,0.858207523822784,1.31083750724792,9.04617786407471,15.8054580688477,1.92293417453766,2012-01-20 07:50:05
1.01800012588501,39,-2.63421702384949,0.398958504199982,0.431456089019775,0.778496980667114,15.9701251983643,24.8942184448242,5.18762540817261,4.88110637664795,-9.03921699523926,0.391943603754044,0.502211630344391,1.20873212814331,5.2375111579895,9.77942562103271,10.0737552642822,4.06017017364502,-2.14665055274963,1.02208375930786,1.1035943031311,2.65659618377686,88.275260925293,133.5830078125,28.1149311065674,23.322566986084,2012-01-20 07:50:06
1.08099985122681,37,-4.23329210281372,0.63264000415802,0.692925155162811,1.09516441822052,21.0002613067627,29.1948184967041,6.12293386459351,0.797483861446381,-8.98262596130371,0.247236415743828,0.292475968599319,0.559243977069855,2.12451863288879,3.49938011169434,1.63823390007019,1.99513018131256,0.452696144580841,0.369973599910736,0.4474758207798,1.01167523860931,7.17158460617065,9.11929798126221,1.37547254562378,0.204484805464745,2012-01-20 07:50:07
1.01100015640259,40,-4.53287887573242,0.152787581086159,0.201996594667435,0.50234580039978,1.72178375720978,2.63581228256226,1.74144661426544,1.36195194721222,-8.89536666870117,0.171407848596573,0.203772902488708,0.432228267192841,0.415508687496185,0.453700333833694,0.775932431221008,0.809715747833252,0.494500309228897,0.157776743173599,0.198495507240295,0.456744700670242,1.41301584243774,1.28507912158966,0.58250367641449,0.284354418516159,2012-01-20 07:50:08
1.00399994850159,39,-4.20302963256836,0.0537979006767273,0.0731411054730415,0.190349698066711,0.00827484484761953,0.12129545211792,0.148434266448021,0.146770283579826,-8.94894504547119,0.0831339955329895,0.104749791324139,0.308532655239105,0.00710977567359805,0.106739833950996,0.144590064883232,0.208692386746407,0.124720469117165,0.337204337120056,0.396548420190811,0.738264739513397,10.360990524292,12.792778968811,1.42612624168396,0.784606873989105,2012-01-20 07:50:09
1.01099991798401,39,-3.53014254570007,0.324090093374252,0.358628273010254,0.686716914176941,11.9280767440796,15.726788520813,2.57362651824951,0.448280781507492,-8.97886753082275,0.0753325298428535,0.102774240076542,0.268803238868713,0.239818260073662,0.262607514858246,0.405466467142105,0.221108436584473,-1.54039835929871,0.658921778202057,0.786385476589203,1.54039835929871,52.9743232727051,64.3811721801758,9.52368640899658,2.3830931186676,2012-01-20 07:50:10
1.09700012207031,39,-2.78684878349304,0.242980539798737,0.326149791479111,0.962811887264252,3.79565405845642,6.59775829315186,4.18489837646484,3.38599753379822,-9.05229187011719,0.210833311080933,0.307649701833725,1.08778357505798,3.18184185028076,6.88387537002563,7.21875667572021,5.29964017868042,-2.52558946609497,0.32739120721817,0.381809830665588,0.770199179649353,8.74207973480225,20.2572002410889,15.8363513946533,2.14470314979553,2012-01-20 07:50:12
1.00099992752075,37,-3.59108901023865,0.592825949192047,0.679378092288971,1.51817524433136,29.9833106994629,53.7536430358887,39.2188262939453,7.3982572555542,-8.75442314147949,0.666608572006226,0.797129333019257,1.65440857410431,10.5477361679077,16.1915893554688,6.27634429931641,22.804271697998,-1.66819059848785,0.495361149311066,0.691166341304779,2.36234211921692,1.41292726993561,8.6886682510376,16.8878135681152,8.48544120788574,2012-01-20 07:50:13
1.01999998092651,40,-4.31639671325684,0.208195194602013,0.247727587819099,0.547701179981232,1.83379125595093,3.81210446357727,4.20114994049072,1.72486436367035,-8.81691360473633,0.315528929233551,0.419389873743057,1.08927345275879,1.98151838779449,1.52918326854706,4.7865948677063,3.7788507938385,-1.28859376907349,0.357060134410858,0.432276427745819,1.09442210197449,7.59138902139966e-06,8.24549293518066,9.08956336975098,2.52962875366211,2012-01-20 07:50:14
1.09100008010864,39,-4.48641633987427,0.184940114617348,0.219068124890327,0.505168259143829,0.449364602565765,0.707537770271301,0.32574263215065,0.692218005657196,-8.83579158782959,0.236365377902985,0.282561749219894,0.627625703811646,1.54079961776733,1.96249103546143,1.6946108341217,2.1317663192749,-1.02743518352509,0.203444451093674,0.260828912258148,0.703815698623657,0.707173764705658,1.63371860980988,2.18871736526489,0.725122213363647,2012-01-20 07:50:15
1.00399994850159,40,-4.1393871307373,0.144991308450699,0.174517035484314,0.35205864906311,2.07797145843506,2.33191704750061,0.326807677745819,0.258045047521591,-8.95249080657959,0.116650000214577,0.153071656823158,0.401092290878296,0.932974219322205,0.947266161441803,0.180082142353058,0.113814197480679,-1.16159760951996,0.250608921051025,0.271521598100662,0.504552125930786,6.61496925354004,8.81112194061279,1.16604971885681,0.252566665410995,2012-01-20 07:50:16
1.00500011444092,40,-3.57771110534668,0.395943492650986,0.458752572536469,1.06720864772797,1.06091570854187,18.1187171936035,29.2035140991211,3.8352472782135,-8.89683818817139,0.13551552593708,0.161102131009102,0.365052759647369,1.73511862754822,3.57200479507446,2.68994688987732,0.43075630068779,-2.12510108947754,0.385156154632568,0.45522928237915,1.09148013591766,2.56239414215088,8.50459861755371,14.3666114807129,6.40015649795532,2012-01-20 07:50:17
1,39,-3.77379989624023,0.393981009721756,0.468844592571259,1.36136424541473,3.80892872810364,3.53403306007385,8.82066535949707,1.49956202507019,-8.9001636505127,0.13922718167305,0.170967221260071,0.298473745584488,0.726621627807617,2.5113000869751,3.36631870269775,0.696502923965454,-2.15947461128235,0.713673949241638,0.899573624134064,2.6065571308136,35.6052207946777,82.0136032104492,50.5641746520996,5.4816255569458,2012-01-20 07:50:18
1.00699996948242,40,-3.07193303108215,0.40440171957016,0.447008728981018,0.94389009475708,14.0250368118286,29.1950836181641,19.8648300170898,1.90953087806702,-9.29376220703125,0.200987428426743,0.308926731348038,1.09148049354553,2.47038006782532,5.00415563583374,5.59950256347656,7.24641180038452,-1.86596024036407,0.725226283073425,0.827439486980438,1.86056673526764,66.4052124023438,116.115333557129,51.3424873352051,9.36539840698242,2012-01-20 07:50:19
1.02099990844727,35,-2.66740870475769,0.418043464422226,0.482537269592285,1.09834480285645,9.04011249542236,13.8578205108643,5.20470142364502,0.197908326983452,-9.23394107818604,0.117904104292393,0.170891582965851,0.515829563140869,0.246046587824821,0.526541769504547,0.797500908374786,0.467070072889328,-1.96020913124084,0.419628530740738,0.525521278381348,1.29335701465607,3.41030526161194,9.65393161773682,8.28697776794434,1.67067050933838,2012-01-20 07:50:20
1.01900005340576,40,-2.39184188842773,0.307242333889008,0.405483305454254,0.911037802696228,11.1341285705566,26.4084491729736,16.2278671264648,6.96847200393677,-8.83922386169434,0.781540989875793,0.909475088119507,1.65094935894012,45.5334358215332,114.976005554199,98.8412322998047,8.56761741638184,-2.43302989006042,0.515437543392181,0.597919404506683,1.1091320514679,21.4570865631104,50.0462913513184,24.3864250183105,1.95784270763397,2012-01-20 07:50:21
1.00300002098083,36,-2.38928127288818,0.696347832679749,1.00120496749878,2.96787357330322,27.0482196807861,37.3004722595215,44.3060150146484,22.0252456665039,-9.78730869293213,0.66508162021637,1.13473689556122,4.37349319458008,6.39234733581543,7.21801805496216,1.29765510559082,1.45405399799347,-1.53610277175903,1.2038722038269,1.5462304353714,4.24982070922852,42.8908843994141,65.4037704467773,19.9084930419922,7.25169658660889,2012-01-20 07:50:22
1.00699996948242,39,-2.32317018508911,0.21501125395298,0.288527309894562,0.844377756118774,1.73302233219147,2.84632539749146,2.74484324455261,0.866483747959137,-9.13175106048584,0.378623127937317,0.452660411596298,0.972618222236633,6.10229158401489,7.75018930435181,1.12225878238678,2.04400563240051,-1.75161850452423,0.270524263381958,0.378702104091644,1.14360630512238,1.7546763420105,2.95702838897705,1.71386563777924,1.71054768562317,2012-01-20 07:50:23
1.11999988555908,40,-1.73700284957886,0.113389387726784,0.133478328585625,0.332200318574905,1.81999850273132,2.73902654647827,0.928888440132141,0.0546122752130032,-9.32931137084961,0.0572952516376972,0.0643582493066788,0.114492438733578,0.407851725816727,0.690897464752197,0.218759521842003,0.036660298705101,-2.18761849403381,0.232209220528603,0.254258930683136,0.481261402368546,6.98364162445068,10.4857978820801,2.60191130638123,0.3256995677948,2012-01-20 07:50:24
1.01800012588501,41,-1.70300841331482,0.191862657666206,0.296428322792053,0.827107131481171,5.55556058883667,11.8668413162231,11.6818342208862,6.17587900161743,-9.18643856048584,0.077916756272316,0.0874667093157768,0.149491921067238,0.523052036762238,0.677282869815826,0.0827466174960136,0.119459874927998,-2.67147493362427,0.1258704662323,0.155358627438545,0.319553166627884,0.172208428382874,1.24689388275146,2.75193786621094,1.33331954479218,2012-01-20 07:50:25
1.00699996948242,39,-2.70060038566589,0.351994901895523,0.466481029987335,1.29824960231781,3.03994083404541,6.35639715194702,3.06619262695312,6.45536375045776,-9.11314392089844,0.358687341213226,0.516775965690613,1.42472994327545,0.51945972442627,1.29127442836761,1.92665147781372,3.70919966697693,-2.51628565788269,0.550371646881104,0.692928731441498,1.89670670032501,8.9455623626709,20.9571285247803,14.2888412475586,6.26837491989136,2012-01-20 07:50:26
1.1340000629425,40,-3.00843501091003,0.10889059305191,0.155327662825584,0.488126009702682,0.744943022727966,0.952585637569427,0.169606432318687,0.418123185634613,-8.89487648010254,0.126260548830032,0.153709456324577,0.37240794301033,0.778002798557281,0.838300943374634,0.406414747238159,0.32561668753624,-2.82137322425842,0.33847650885582,0.368064343929291,0.781589865684509,13.8015975952148,17.7020874023438,2.55609583854675,0.97040843963623,2012-01-20 07:50:27
1.21300005912781,45,-2.35555720329285,0.479959219694138,0.537786841392517,1.02185297012329,0.0251736119389534,0.102821424603462,16.8115558624268,28.2917633056641,-8.86194229125977,1.00202167034149,1.28850734233856,3.59250235557556,39.2036399841309,38.9351119995117,69.4505615234375,53.5071029663086,-3.25035953521729,1.0226035118103,1.15895915031433,2.43749713897705,136.510665893555,269.217926025391,50.1410293579102,33.9091873168945,2012-01-20 07:50:28
1.00699996948242,35,-1.94816100597382,0.513019859790802,0.62872326374054,1.44802188873291,2.58654308319092,7.04589748382568,14.1806287765503,13.8428230285645,-8.8554048538208,1.01596891880035,1.30115747451782,2.4222424030304,26.055248260498,59.3504371643066,87.2504730224609,25.444450378418,-3.22610759735107,0.756224811077118,0.976341903209686,2.48136234283447,20.7334232330322,27.8636379241943,7.99468946456909,26.6956577301025,2012-01-20 07:50:29
1.00300002098083,40,-1.93436169624329,0.350587725639343,0.397028535604477,0.644787132740021,13.3921251296997,21.6367855072021,6.81597185134888,1.48274660110474,-9.11233901977539,0.144746273756027,0.197357550263405,0.551133990287781,0.912812948226929,0.761854469776154,0.435624063014984,1.28321087360382,-2.47029495239258,0.295866638422012,0.474051862955093,1.32487833499908,2.54623293876648,3.27892851829529,2.36284422874451,0.432876765727997,2012-01-20 07:50:30
1.05099987983704,37,-2.25155377388,0.057736761868,0.0692857503890991,0.143124118447304,0.0535687692463398,0.138827979564667,0.0599101670086384,0.109119288623333,-9.21162509918213,0.0331093594431877,0.0405339375138283,0.0850796028971672,0.0362215861678123,0.0571402348577976,0.0247817747294903,0.0213157087564468,-2.38434100151062,0.038854081183672,0.0488559938967228,0.109198428690434,0.0541348457336426,0.0705039352178574,0.0322095230221748,0.0106485597789288,2012-01-20 07:50:31
1.00200009346008,38,-2.32004690170288,0.103907026350498,0.122394703328609,0.249295279383659,0.941872417926788,1.76571393013,1.3157525062561,0.442459583282471,-9.19192790985107,0.0422694310545921,0.0535769499838352,0.153809949755669,0.0794910416007042,0.136220499873161,0.0368587747216225,0.245543256402016,-2.41553258895874,0.0833157896995544,0.127548068761826,0.414976209402084,0.331312030553818,1.09694766998291,2.0584511756897,1.05321300029755,2012-01-20 07:50:32
1.01199984550476,40,-2.50094079971313,0.465999722480774,0.612737059593201,1.58892238140106,0.000706861552316695,15.1531000137329,43.011417388916,25.005428314209,-8.81961059570312,0.913783609867096,1.04642403125763,2.13441777229309,2.31024694442749,23.3639831542969,109.145645141602,64.1837615966797,-2.90963292121887,0.878430664539337,1.04328465461731,2.12117838859558,78.1410369873047,142.956390380859,95.0200347900391,23.8592300415039,2012-01-20 07:50:33
1.01500010490417,40,-2.65637636184692,0.509884476661682,0.60031670331955,1.04073083400726,8.71144771575928,28.5685958862305,26.6591396331787,3.61675524711609,-9.60070991516113,0.928199350833893,1.33252847194672,3.91285347938538,10.4991455078125,140.788696289062,187.723388671875,107.842674255371,-0.542552888393402,0.556269943714142,0.696991324424744,1.62471675872803,21.9103260040283,64.9904479980469,35.7877578735352,11.2866020202637,2012-01-20 07:50:34
1.00999999046326,36,-2.37239193916321,0.332109451293945,0.423218578100204,1.06810760498047,0.799958229064941,2.05378460884094,3.91030335426331,1.57747042179108,-8.93195152282715,0.999128043651581,1.45745611190796,3.89133310317993,25.1793880462646,38.1645240783691,52.3451156616211,45.4470252990723,-1.77309679985046,1.36439549922943,1.95520043373108,6.16048288345337,64.42724609375,91.5938491821289,23.6530704498291,3.63489651679993,2012-01-20 07:50:35
1.09699988365173,38,-2.33991813659668,0.38074791431427,0.469715625047684,1.09447371959686,1.12448883056641,0.955319464206696,5.94532155990601,4.39423036575317,-9.22547626495361,1.13577842712402,1.4482170343399,3.12109518051147,72.8411712646484,68.5574035644531,44.4864692687988,13.3694639205933,-1.46248114109039,1.40907430648804,1.62338781356812,3.50949025154114,124.62915802002,179.484161376953,34.5382385253906,13.6923236846924,2012-01-20 07:50:36
1.01900005340576,39,-3.21130061149597,0.521744728088379,0.655239164829254,1.66260409355164,0.150949865579605,14.8053503036499,22.6435966491699,4.1483359336853,-9.29720687866211,0.685923874378204,0.893629610538483,1.9608268737793,1.54039943218231,7.63756227493286,5.74683380126953,7.21094655990601,-0.96934962272644,0.591145634651184,0.72909414768219,1.76670575141907,5.73941802978516,38.7645149230957,32.2105102539062,5.56881332397461,2012-01-20 07:50:37
1.00300002098083,40,-3.40732049942017,0.508744478225708,0.577960193157196,1.03509187698364,38.5094528198242,54.1177749633789,12.9275236129761,5.06931591033936,-9.21481800079346,0.200374484062195,0.21837754547596,0.32705169916153,5.11402130126953,7.12198305130005,1.33702993392944,0.380004376173019,0.0399620980024338,0.118072062730789,0.164073005318642,0.489596962928772,0.647628784179688,2.21023488044739,1.08836090564728,0.611293911933899,2012-01-20 07:50:38
1.01800012588501,40,-4.36101722717285,0.101744011044502,0.11914574354887,0.252030789852142,0.115574240684509,0.610024213790894,0.443702340126038,0.267450153827667,-8.85221767425537,0.0489473566412926,0.0624624602496624,0.15371897816658,0.033443994820118,0.0796180069446564,0.238861739635468,0.0906100794672966,-0.745060205459595,0.184242427349091,0.248763293027878,0.568540513515472,1.11595666408539,1.03104066848755,0.170463874936104,0.141950964927673,2012-01-20 07:50:39
1.03999996185303,36,-4.02726411819458,0.118406213819981,0.146972551941872,0.268048286437988,1.29069328308105,1.6063038110733,0.521405756473541,0.483403265476227,-8.94393730163574,0.0503800623118877,0.0616547986865044,0.127758637070656,0.0903080627322197,0.0729407072067261,0.0906350463628769,0.0858706533908844,-1.08417963981628,0.145767986774445,0.160898223519325,0.220104828476906,1.81170439720154,2.88519549369812,1.18197274208069,0.128720119595528,2012-01-20 07:50:40
1.00600004196167,39,-3.68126535415649,0.0844107121229172,0.117083512246609,0.36888113617897,0.0424594767391682,0.753498554229736,1.15664541721344,0.634351491928101,-9.08246612548828,0.0845655351877213,0.1384297311306,0.580101132392883,0.316189676523209,0.656725645065308,0.805310726165771,1.00607991218567,-1.51600742340088,0.173605412244797,0.217405423521996,0.474742472171783,4.42979717254639,6.41920137405396,3.03752112388611,1.76696956157684,2012-01-20 07:50:41
1.01300001144409,40,-2.65637636184692,0.371610730886459,0.63063770532608,2.37443494796753,0.282147973775864,1.48132824897766,2.16375160217285,0.561863780021667,-9.19471454620361,0.411290943622589,0.554126918315887,1.60436797142029,11.6567077636719,12.0228891372681,1.15051007270813,0.959854483604431,-0.284147679805756,0.665050208568573,0.775570511817932,1.75563561916351,42.3077659606934,51.1524124145508,6.44271230697632,2.42067742347717,2012-01-20 07:50:42
1.01399993896484,39,-2.67746686935425,0.0852746441960335,0.100733026862144,0.244914799928665,0.000536277366336435,0.161761119961739,0.419347167015076,0.204083383083344,-9.42745971679688,0.024474672973156,0.030878484249115,0.0719153061509132,0.0074121979996562,0.027137141674757,0.0340269021689892,0.00597215164452791,0.248435124754906,0.0471054464578629,0.0575403459370136,0.1340242177248,0.00861028116196394,0.0179705638438463,0.0837340131402016,0.060020487755537,2012-01-20 07:50:44
1.07500004768372,38,-2.66534423828125,0.0638111382722855,0.0700392127037048,0.105808675289154,0.351780593395233,0.567782402038574,0.221078336238861,0.0789704769849777,-9.46315860748291,0.0395117662847042,0.0460789203643799,0.097808264195919,0.0189834497869015,0.0289781894534826,0.17417199909687,0.10228531062603,0.267876386642456,0.0356136225163937,0.0428115837275982,0.0913566872477531,0.0884270817041397,0.148591220378876,0.0494974814355373,0.00901259947568178,2012-01-20 07:50:45
1.01099991798401,41,-2.67219233512878,0.034571185708046,0.0426154844462872,0.0930436849594116,0.0675109103322029,0.154985278844833,0.126793071627617,0.0773215740919113,-9.47011470794678,0.0173847507685423,0.0210483837872744,0.0423359535634518,0.00106310867704451,0.00296340836212039,0.00319366413168609,0.0074842469766736,0.223878636956215,0.0348862372338772,0.0425483286380768,0.106198839843273,0.000270968477707356,0.0046964124776423,0.0437847226858139,0.0498742572963238,2012-01-20 07:50:46
1.00999999046326,39,-2.28092622756958,0.269570022821426,0.304048478603363,0.613795697689056,9.54117774963379,15.1094160079956,5.38349199295044,2.10891842842102,-9.59316635131836,0.0565186999738216,0.0617620907723904,0.110136032104492,0.258509606122971,0.40516185760498,0.123107463121414,0.0191749688237906,0.236365407705307,0.0767639502882957,0.090829037129879,0.216752111911774,0.0133446622639894,0.37989017367363,0.649786651134491,0.0764601528644562,2012-01-20 07:50:47
1.01399993896484,38,-2.41759729385376,0.701759517192841,0.767606258392334,1.31873643398285,53.5965003967285,90.2629318237305,37.117546081543,3.75983691215515,-9.49696636199951,0.134141728281975,0.157238602638245,0.317942291498184,1.63151156902313,3.19790482521057,2.02337980270386,0.177241176366806,0.205165430903435,0.13271576166153,0.175085619091988,0.499364942312241,1.58565187454224,3.22801756858826,3.62393379211426,1.3523770570755,2012-01-20 07:50:48
1.06200003623962,38,-4.08808279037476,0.113496370613575,0.133236214518547,0.312522441148758,0.861565887928009,1.30955564975739,0.320411294698715,0.643997192382812,-8.91553497314453,0.118413127958775,0.162720784544945,0.567495286464691,1.29689300060272,1.42793989181519,0.136904433369637,0.244376048445702,-1.11047410964966,0.17191518843174,0.239690110087395,0.777047991752625,2.13787460327148,2.29725694656372,0.194638013839722,0.227588653564453,2012-01-20 07:50:49
1.01699995994568,41,-4.52612781524658,0.116373009979725,0.131803303956985,0.259517341852188,0.569632112979889,0.628849506378174,0.403346091508865,1.21275043487549,-8.67147064208984,0.0420268960297108,0.0591890625655651,0.149492144584656,0.151774197816849,0.343897730112076,0.185266494750977,0.0150735704228282,-1.36097168922424,0.0759796723723412,0.0973345413804054,0.243013575673103,0.175986856222153,0.411596596240997,0.871360540390015,0.237489923834801,2012-01-20 07:50:50
1.00399994850159,39,-3.98099684715271,0.403317034244537,0.458759188652039,0.843874633312225,5.39521217346191,5.73939323425293,6.45364332199097,6.54067230224609,-9.04399394989014,0.475283980369568,0.676884591579437,2.29249262809753,5.38977670669556,6.33484220504761,7.04823684692383,12.2165784835815,-1.12172985076904,0.839116513729095,0.904800772666931,1.52606558799744,58.1083564758301,112.030906677246,46.7586326599121,5.3717885017395,2012-01-20 07:50:51
1.00999999046326,41,-3.40051555633545,0.209842473268509,0.277710139751434,0.679050862789154,6.31986522674561,7.73444652557373,1.86927878856659,0.353185623884201,-9.264892578125,0.0362747199833393,0.0583106242120266,0.223161578178406,0.09294044226408,0.108404733240604,0.0342103689908981,0.0286841094493866,0.469523251056671,0.136231333017349,0.18029560148716,0.449909955263138,1.34075236320496,1.3508175611496,0.0946946814656258,0.0815905183553696,2012-01-20 07:50:52
1.07400012016296,38,-3.27309846878052,0.125286072492599,0.145446285605431,0.257295459508896,0.216523930430412,0.725929081439972,1.61237192153931,0.68133020401001,-9.31425285339355,0.0265403892844915,0.0344268679618835,0.0763885080814362,0.00280467490665615,0.0115749659016728,0.0158502217382193,0.0092927310615778,0.464267432689667,0.0461944825947285,0.0558510832488537,0.130841359496117,0.0196422711014748,0.0851962864398956,0.274890184402466,0.127430662512779,2012-01-20 07:50:53
1.01099991798401,40,-3.2160906791687,0.109442196786404,0.150124222040176,0.480035394430161,0.295506179332733,0.645480275154114,0.807893991470337,0.10745146125555,-9.31803417205811,0.0429040193557739,0.0559875220060349,0.125770062208176,0.138343721628189,0.252894401550293,0.144565314054489,0.0623912326991558,0.207165479660034,0.0756337866187096,0.08894332498312,0.167938873171806,0.000849598436616361,0.285319566726685,0.632704973220825,0.0501250326633453,2012-01-20 07:50:54
1,39,-3.19118428230286,0.0625536516308784,0.0723274797201157,0.141316279768944,0.0168178733438253,0.0506126433610916,0.403415709733963,0.224737897515297,-9.34850311279297,0.0317216515541077,0.0373556651175022,0.091025672852993,0.0394993312656879,0.0718496814370155,0.0338834784924984,0.0219635274261236,0.0942947119474411,0.0399229303002357,0.0532806552946568,0.160678192973137,0.0175677239894867,0.056380532681942,0.276628345251083,0.0968859642744064,2012-01-20 07:50:55
1.11500000953674,41,-3.31560444831848,0.135881304740906,0.172701984643936,0.422642648220062,0.921430170536041,2.87895011901855,1.79443371295929,0.602969706058502,-9.27900409698486,0.0699825212359428,0.089519165456295,0.207853570580482,0.338839441537857,1.07301986217499,0.807112753391266,0.121654838323593,0.108351521193981,0.107692301273346,0.157666236162186,0.579070687294006,1.80110001564026,2.45185136795044,0.944668591022491,0.96502548456192,2012-01-20 07:50:56
1.01699995994568,55,-3.49277210235596,0.405849397182465,0.496230095624924,1.39414894580841,0.153548434376717,81.954963684082,20.9136199951172,13.0922966003418,-9.04083919525146,0.175936132669449,0.207072332501411,0.391374081373215,12.4698877334595,14.3267364501953,1.33706748485565,0.57913339138031,-1.34244120121002,0.671786308288574,0.746828019618988,1.47206723690033,163.636276245117,220.980697631836,30.4623737335205,28.5323886871338,2012-01-20 07:50:57
1.09700012207031,38,-2.70586109161377,0.223393306136131,0.307897090911865,0.79356449842453,1.5814346075058,1.37985682487488,0.755147457122803,0.275681763887405,-9.35502815246582,0.168859019875526,0.22456268966198,0.636915802955627,0.48227795958519,0.629495084285736,0.332638412714005,0.775905728340149,-0.897824585437775,0.652590453624725,0.784501969814301,1.88726401329041,39.9568328857422,49.1614875793457,10.575831413269,1.65537667274475,2012-01-20 07:50:58
1.0090000629425,39,-3.299560546875,0.102051079273224,0.120840184390545,0.201413482427597,1.29232788085938,1.80652916431427,0.701649308204651,0.178161129355431,-9.24364757537842,0.0260479096323252,0.0342400595545769,0.102089613676071,7.15515966476232e-07,0.00647056009620428,0.0883659198880196,0.0488025918602943,-0.558476150035858,0.0861128270626068,0.119239956140518,0.42118301987648,0.0454742908477783,0.29657381772995,0.231053799390793,0.015399806201458,2012-01-20 07:50:59
1.00999999046326,39,-3.58018159866333,0.0751649737358093,0.0854746475815773,0.167467519640923,0.472508639097214,0.669397473335266,0.207883507013321,0.237573266029358,-9.18279552459717,0.0316060036420822,0.0363976135849953,0.0942951589822769,0.0931889712810516,0.134356826543808,0.0279748290777206,0.00768661499023438,-0.633660435676575,0.0342362336814404,0.0418198183178902,0.104101367294788,0.0346501879394054,0.0372240170836449,0.0148549117147923,0.0125787584111094,2012-01-20 07:51:00
1.00799989700317,40,-3.49974822998047,0.0454170405864716,0.0582727827131748,0.145873919129372,0.0488931201398373,0.0565409474074841,0.21705462038517,0.125196546316147,-9.19471454620361,0.0226536635309458,0.0283209979534149,0.072569727897644,0.0277587492018938,0.0495898053050041,0.0190704483538866,0.0156913306564093,-0.618064105510712,0.0272869989275932,0.0372450985014439,0.0885050296783447,0.0365033634006977,0.0536534935235977,0.0240350626409054,0.0609027072787285,2012-01-20 07:51:01
1.01999998092651,32,-3.48503828048706,0.0229076817631721,0.0274924803525209,0.0551623106002808,0.000820554851088673,0.00431060371920466,0.0113738169893622,0.00205235881730914,-9.20231533050537,0.0222186222672462,0.0286700986325741,0.0821310877799988,0.0158026069402695,0.0252029839903116,0.0117113962769508,0.00190204218961298,-0.592076480388641,0.0516381449997425,0.0667712464928627,0.150777250528336,0.0250815041363239,0.116566486656666,0.293247431516647,0.178552776575089,2012-01-20 07:51:02
1.03200006484985,37,-3.50468468666077,0.0404443554580212,0.0505908988416195,0.111583836376667,0.0266671814024448,0.0599041432142258,0.135135218501091,0.0515290535986423,-9.17716884613037,0.0300290398299694,0.0361105985939503,0.0901157557964325,0.00849934946745634,0.0426400117576122,0.0789778754115105,0.0157171580940485,-0.601386189460754,0.0455017052590847,0.06032545119524,0.169893577694893,0.0465641655027866,0.0565200634300709,0.017605809494853,0.0886665731668472,2012-01-20 07:51:03
1.00600004196167,40,-3.53014874458313,0.0472803041338921,0.058818943798542,0.147344827651978,0.150156229734421,0.350647568702698,0.346414864063263,0.102656632661819,-9.13930702209473,0.0318960957229137,0.0417185910046101,0.126995921134949,0.0508250668644905,0.0761106759309769,0.0197382345795631,0.00739074917510152,-0.529804229736328,0.0728143751621246,0.0953690335154533,0.323864609003067,0.109187208116055,0.170565217733383,0.129135146737099,0.341719478368759,2012-01-20 07:51:04
1.0239999294281,40,-3.35338377952576,0.157494783401489,0.191981911659241,0.401582330465317,0.216166436672211,0.825161516666412,1.64396035671234,0.494681686162949,-9.29474258422852,0.110815212130547,0.127979710698128,0.23339855670929,0.0510466024279594,0.561080157756805,0.707257807254791,1.26064312458038,-0.725692093372345,0.155435398221016,0.196157515048981,0.451105892658234,1.78473401069641,3.15834856033325,1.98036324977875,0.618723630905151,2012-01-20 07:51:05
1.00200009346008,40,-3.22393608093262,0.158132240176201,0.189153358340263,0.44865420460701,3.14519071578979,5.52282905578613,1.61292588710785,1.11920726299286,-9.24276733398438,0.0870341360569,0.11584734916687,0.328522950410843,0.626019597053528,0.642955601215363,0.0702440962195396,0.0678158104419708,-0.158377394080162,0.262818217277527,0.315093845129013,0.626154541969299,9.12806510925293,11.9684438705444,2.44751119613647,0.173369228839874,2012-01-20 07:51:06
1.01099991798401,39,-3.02497434616089,0.604840099811554,0.795546412467957,1.97641718387604,22.6420383453369,60.3799629211426,40.5859756469727,14.3331880569458,-8.82824802398682,0.88143789768219,1.01333141326904,1.89494633674622,22.8715705871582,63.5928382873535,83.795166015625,20.2301807403564,-2.46574378013611,1.11901545524597,1.42959189414978,2.9266562461853,160.578109741211,211.709335327148,86.9626007080078,19.3182544708252,2012-01-20 07:51:07
1.07599997520447,34,-2.74528503417969,0.68697452545166,0.890542507171631,2.47185277938843,3.17731404304504,12.8375902175903,25.6203365325928,7.49929094314575,-10.0979652404785,0.951957583427429,1.16441082954407,3.4254047870636,15.8983669281006,35.6100044250488,33.7294158935547,8.519287109375,-0.328522771596909,0.921825051307678,1.31127309799194,4.9376482963562,8.25105667114258,41.3086814880371,86.7949142456055,44.2511901855469,2012-01-20 07:51:08
1.00399994850159,39,-3.22789645195007,0.758574366569519,0.840441584587097,1.80291485786438,1.91991364955902,12.5690097808838,25.8620948791504,16.2225646972656,-9.92709541320801,0.824570953845978,1.12703514099121,3.98854041099548,1.36748325824738,20.4536266326904,26.6311569213867,14.0511121749878,-0.925093948841095,2.22803735733032,3.09828805923462,8.23104763031006,742.721496582031,884.195617675781,383.199249267578,328.428619384766,2012-01-20 07:51:09
1.00800013542175,39,-3.15598106384277,0.614898204803467,0.868797242641449,2.87510871887207,31.8196277618408,63.5626220703125,21.456335067749,6.64489603042603,-8.8554048538208,0.86600261926651,1.05334460735321,2.56934213638306,53.7978439331055,71.2042465209961,12.5583658218384,4.69978332519531,-0.495110094547272,0.495451807975769,0.727080106735229,2.21127390861511,3.62116074562073,4.24017381668091,3.01910638809204,2.00132274627686,2012-01-20 07:51:10
1.0019998550415,39,-2.61259198188782,0.555903553962708,0.693519175052643,1.29850101470947,17.8060264587402,41.9952774047852,37.8818664550781,26.2563629150391,-9.3907470703125,0.382130414247513,0.562633991241455,1.71038043498993,0.267739474773407,0.598033726215363,4.95088958740234,2.21676588058472,-1.78405594825745,0.688206315040588,0.832197070121765,1.79537129402161,19.9580631256104,16.1307506561279,32.0898475646973,23.0384464263916,2012-01-20 07:51:11
1.13000011444092,40,-2.01992464065552,0.231755644083023,0.290535867214203,0.725446879863739,0.0711733922362328,0.670080840587616,2.90516519546509,6.30870819091797,-8.78160953521729,0.520745277404785,0.637111485004425,1.35846590995789,6.96340894699097,9.87024974822998,5.47757816314697,18.5498466491699,-3.68264222145081,0.623457729816437,0.856949090957642,2.35825419425964,22.3824272155762,25.0829887390137,4.16091728210449,17.6061916351318,2012-01-20 07:51:12
1.00200009346008,39,-2.27262830734253,0.297758549451828,0.472547680139542,1.40964305400848,3.18565559387207,9.31098461151123,15.9943809509277,7.94147539138794,-9.00552177429199,0.300311595201492,0.379953652620316,0.997260868549347,5.30334663391113,7.03132009506226,3.49236392974854,5.94772815704346,-2.92841649055481,0.874165177345276,1.02557599544525,2.32040429115295,99.1064682006836,164.617233276367,69.4276351928711,36.591724395752,2012-01-20 07:51:13
1.01599979400635,39,-2.75189685821533,0.451492756605148,0.664524435997009,2.22233772277832,0.638436615467072,9.01249217987061,35.0705947875977,17.4043865203857,-9.41262340545654,0.287919640541077,0.368827372789383,0.894164860248566,1.1147392988205,4.37257623672485,7.78493118286133,0.840103507041931,-0.221278250217438,0.783474564552307,0.912835419178009,2.37874102592468,13.3389320373535,15.1342878341675,21.1079330444336,61.1301193237305,2012-01-20 07:51:14
1.10300016403198,40,-3.26880145072937,1.00281572341919,1.15433967113495,2.67402815818787,90.8876495361328,180.259811401367,79.9168319702148,11.874566078186,-8.94807720184326,0.951784312725067,1.07070004940033,1.78039705753326,98.0044174194336,129.299743652344,33.6347618103027,19.6172008514404,-2.02924108505249,0.921016037464142,1.12099361419678,2.78435301780701,77.8552169799805,156.880645751953,45.1048316955566,38.9732437133789,2012-01-20 07:51:15
1.01600003242493,40,-3.16828346252441,0.567596614360809,0.644209504127502,1.1677268743515,19.491189956665,32.6967277526855,8.78840255737305,13.2116899490356,-9.03780841827393,1.02744269371033,1.36770737171173,3.14401197433472,21.1699485778809,88.1108703613281,42.8600997924805,33.6660652160645,-0.663664996623993,0.765666425228119,0.950049757957458,2.30774974822998,23.8331241607666,48.6465148925781,17.5417213439941,28.1536865234375,2012-01-20 07:51:16
1.01899981498718,40,-2.83338618278503,0.747965455055237,0.818501055240631,1.51095974445343,53.3032264709473,79.5364074707031,21.1167583465576,6.54247713088989,-9.29474258422852,0.682640850543976,0.979404449462891,2.87138700485229,28.7621593475342,60.366096496582,25.4736957550049,20.5633678436279,-0.682052493095398,0.726231455802917,0.896949231624603,2.08342289924622,9.20893573760986,14.4000120162964,16.1148071289062,44.2316780090332,2012-01-20 07:51:18
1.00999999046326,39,-2.82330942153931,0.584698140621185,0.696736991405487,1.55045664310455,16.9999332427979,30.8484287261963,10.6188526153564,15.6394662857056,-9.73247146606445,0.665794849395752,0.842602014541626,2.3100950717926,1.88298010826111,11.2047843933105,14.1951551437378,5.77286195755005,-0.198396071791649,0.865770518779755,1.04320001602173,2.13558673858643,8.21018028259277,5.62673997879028,30.1090698242188,39.6137847900391,2012-01-20 07:51:19
1.00600004196167,39,-2.63698291778564,0.561358153820038,0.705623865127563,1.81523609161377,12.8428630828857,20.68874168396,5.40504169464111,3.37939143180847,-9.42972278594971,0.768013477325439,0.980460703372955,2.37874126434326,24.4469242095947,70.5479431152344,38.082592010498,30.7097606658936,-0.308029383420944,0.753248691558838,0.869060695171356,1.95730662345886,1.29989051818848,16.1983642578125,42.3127136230469,1.63337230682373,2012-01-20 07:51:20
1.02100014686584,36,-3.15256547927856,0.562459766864777,0.702595055103302,1.87824583053589,11.3641662597656,24.3050098419189,16.5413360595703,1.8936368227005,-9.71321392059326,0.939758539199829,1.36261367797852,4.07493591308594,0.265680968761444,11.6572608947754,32.5460662841797,22.8771476745605,-1.51839625835419,0.797425925731659,0.929184019565582,2.12967729568481,30.6013622283936,59.4967231750488,32.5852012634277,9.13745880126953,2012-01-20 07:51:21
1.0389997959137,40,-3.61669254302979,0.513181984424591,0.610195875167847,1.21798574924469,2.00862812995911,18.2510013580322,29.153829574585,7.1861629486084,-8.78283500671387,0.700979232788086,0.864034235477448,1.85934066772461,3.76076078414917,20.8595924377441,23.095760345459,5.01410341262817,-2.02703452110291,1.21538710594177,1.47298717498779,3.39015889167786,68.4372406005859,65.7557220458984,53.6557388305664,63.7522354125977,2012-01-20 07:51:22
1.00999999046326,40,-3.27591133117676,0.303491294384003,0.34702205657959,0.774235248565674,0.0991925150156021,2.9165415763855,15.9756183624268,4.00473642349243,-8.90149593353271,0.271791368722916,0.305239081382751,0.601147711277008,10.3089609146118,15.675630569458,4.66065454483032,1.2100887298584,-2.59802675247192,0.671583890914917,0.773083090782166,1.69581496715546,52.6804885864258,97.0824508666992,42.6891899108887,9.66846179962158,2012-01-20 07:51:23
1.01900005340576,39,-3.38882613182068,0.771250128746033,0.897437393665314,1.96560454368591,20.2458248138428,84.4785461425781,94.1326599121094,8.21862030029297,-8.72037506103516,0.865963935852051,0.959964334964752,1.90022695064545,45.8098297119141,88.7059783935547,27.8760871887207,11.5243949890137,-1.92537224292755,1.06900858879089,1.17881274223328,1.94498550891876,97.5768966674805,214.543350219727,114.959136962891,5.79342031478882,2012-01-20 07:51:24
1.08000016212463,39,-2.59222435951233,0.510113418102264,0.647898972034454,1.92537224292755,0.24570107460022,1.1657702922821,26.4764022827148,19.143762588501,-9.46769142150879,0.274792373180389,0.425714999437332,1.54391884803772,1.11042892932892,1.11259984970093,1.40341746807098,6.06560611724854,-0.868014216423035,0.72807765007019,0.789685130119324,1.58364832401276,31.7827243804932,42.7061500549316,26.2324123382568,26.6925144195557,2012-01-20 07:51:25
1.03099989891052,40,-2.83559274673462,0.101572379469872,0.121984429657459,0.236830502748489,0.361421823501587,0.739068388938904,0.629656255245209,0.377806276082993,-9.42835807800293,0.0396065376698971,0.0562018267810345,0.182158201932907,0.0231701694428921,0.046726506203413,0.0916931703686714,0.174107611179352,-0.851462364196777,0.0972206741571426,0.131805300712585,0.423402070999146,0.278885930776596,0.271877974271774,0.103224031627178,0.0223508216440678,2012-01-20 07:51:26
1.02900004386902,41,-2.97285008430481,0.290629178285599,0.350823670625687,0.792903482913971,9.97032737731934,21.7996044158936,18.1742496490479,2.79754853248596,-9.35626125335693,0.13712976872921,0.185454294085503,0.608729600906372,1.69826531410217,4.56543731689453,5.29412460327148,1.84474098682404,-1.01439034938812,0.354497879743576,0.508476614952087,1.44707882404327,13.9722089767456,40.9145622253418,39.2693290710449,17.0865097045898,2012-01-20 07:51:27
1.0149998664856,41,-2.64683866500854,0.421855121850967,0.497530847787857,0.95028829574585,14.503116607666,13.4277639389038,7.05902433395386,5.64275789260864,-9.45839405059814,0.470380812883377,0.681572496891022,2.09383964538574,4.91905164718628,3.20360779762268,8.69437789916992,3.80900359153748,-0.754155278205872,0.787098824977875,0.904861807823181,1.67789375782013,50.2655868530273,54.1466636657715,3.06966614723206,4.18316030502319,2012-01-20 07:51:28
1.06700015068054,38,-3.09915947914124,0.252568751573563,0.410269260406494,1.49086880683899,1.45572674274445,1.36158621311188,1.04789924621582,1.06722211837769,-9.26651000976562,0.0960563570261002,0.16916024684906,0.618593215942383,0.0643190145492554,0.152732193470001,0.129079088568687,0.104307018220425,-0.538591504096985,0.139018088579178,0.170204177498817,0.450331687927246,0.0811009183526039,0.901450455188751,1.14944589138031,0.664924561977386,2012-01-20 07:51:29
