"diffSecs","level","azimuth.mean","azimuth.absolute.deviation","azimuth.standard.deviation","azimuth.max.deviation","pitch.mean","pitch.absolute.deviation","pitch.standard.deviation","pitch.max.deviation","roll.mean","roll.absolute.deviation","roll.standard.deviation","roll.max.deviation","time"
7.34100008010864,32,25.46875,0.587500035762787,0.623216211795807,0.968750417232513,31.9156265258789,0.627148568630219,0.691967189311981,1.21562492847443,10.3312501907349,0.268750101327896,0.331132084131241,0.668749690055847,2012-01-17 13:40:07
0.319999933242798,99,26.1989898681641,0.568962454795837,0.644400238990784,1.49898958206177,32.1949501037598,0.61428427696228,0.692874848842621,1.40505230426788,9.70808124542236,0.30643817782402,0.386561334133148,1.19191956520081,2012-01-17 13:40:07
0.273000001907349,99,25.2171726226807,0.356861472129822,0.439935743808746,0.982828676700592,31.6727275848389,0.13884311914444,0.167463645339012,0.372726589441299,12.0525255203247,0.444770932197571,0.585056900978088,1.54747498035431,2012-01-17 13:40:07
1.00500011444092,73,24.3780822753906,0.572640120983124,0.725890338420868,1.5780816078186,31.5931510925293,0.201839059591293,0.260835707187653,0.806850433349609,14.2191781997681,0.162432059645653,0.196306705474854,0.519178509712219,2012-01-17 13:40:08
1.00999999046326,50,21.7940006256104,0.521519839763641,0.586654841899872,1.10599911212921,32.2999992370605,0.128000304102898,0.156204909086227,0.300001293420792,14.1420001983643,0.165359944105148,0.196051001548767,0.35799977183342,2012-01-17 13:40:09
1.00499987602234,46,21.5217399597168,0.188847094774246,0.213575303554535,0.3782599568367,32.4500007629395,0.0847825035452843,0.101617678999901,0.249999836087227,13.6456527709961,0.0800565257668495,0.0971473306417465,0.254348248243332,2012-01-17 13:40:10
1.00699996948242,33,22.6363639831543,0.651790618896484,0.723551034927368,1.36363577842712,32.2787895202637,0.145270600914955,0.171901226043701,0.321213573217392,13.5757579803467,0.0931129679083824,0.112896502017975,0.224242448806763,2012-01-17 13:40:11
1.007000207901,47,23.4765968322754,0.300769478082657,0.367401838302612,1.02340388298035,31.6531925201416,0.359800904989243,0.419143587350845,0.846808075904846,13.6042556762695,0.0823901072144508,0.105098620057106,0.295745134353638,2012-01-17 13:40:12
1.01299977302551,34,23.8441181182861,0.203632995486259,0.245178431272507,0.544116795063019,31.5558834075928,0.174740493297577,0.218539461493492,0.455882519483566,13.5441179275513,0.125259533524513,0.153759106993675,0.344118058681488,2012-01-17 13:40:13
1.01300001144409,42,23.7261905670166,0.208390012383461,0.261004865169525,0.773809254169464,31.4690475463867,0.205668836832047,0.239531233906746,0.469048053026199,13.4452381134033,0.09024927765131,0.111701913177967,0.345238029956818,2012-01-17 13:40:14
1.03700017929077,37,23.6891899108887,0.298758059740067,0.330260753631592,0.510811150074005,31.4189186096191,0.0829802006483078,0.100908674299717,0.218918368220329,13.3243246078491,0.124908775091171,0.147786214947701,0.275675863027573,2012-01-17 13:40:16
1.07200002670288,42,23.4190483093262,0.371201813220978,0.439825832843781,0.98095178604126,31.4476203918457,0.149433225393295,0.180261895060539,0.352381706237793,13.5190477371216,0.164852559566498,0.195470213890076,0.419047474861145,2012-01-17 13:40:17
1,45,23.6688899993896,0.218765556812286,0.27229255437851,0.531111478805542,31.182222366333,0.265481531620026,0.301322162151337,0.617778480052948,13.5733337402344,0.159407362341881,0.192526996135712,0.426666438579559,2012-01-17 13:40:18
1.00899982452393,41,22.8292694091797,0.393813192844391,0.441860795021057,0.770731866359711,31.8609771728516,0.18715064227581,0.210549131035805,0.360976278781891,14.2463417053223,0.183700278401375,0.235918089747429,0.646341264247894,2012-01-17 13:40:19
1.00999999046326,41,23.2146339416504,0.391314655542374,0.439823031425476,0.785365581512451,32.0292701721191,0.154194161295891,0.19784677028656,0.470731377601624,13.9292688369751,0.221653744578362,0.271620184183121,0.670731842517853,2012-01-17 13:40:20
1.01600003242493,45,22.7355556488037,0.197926014661789,0.238658919930458,0.56444525718689,32.1199989318848,0.117333061993122,0.137598380446434,0.319999366998672,13.539999961853,0.13066665828228,0.166533246636391,0.540000200271606,2012-01-17 13:40:21
1.4760000705719,38,22.6473693847656,0.129086062312126,0.163412407040596,0.447368115186691,32.2236862182617,0.0998609960079193,0.120162427425385,0.223684817552567,13.5500001907349,0.11052630841732,0.142810061573982,0.449999779462814,2012-01-17 13:40:22
1.00600004196167,54,22.0944442749023,0.192592740058899,0.259926438331604,0.605555891990662,32.6314811706543,0.123456366360188,0.157320126891136,0.368517428636551,13.0351858139038,0.151508912444115,0.190668761730194,0.464814573526382,2012-01-17 13:40:23
1.01399993896484,35,22.7828578948975,0.538612365722656,0.649169147014618,1.2828574180603,32.331428527832,0.331591695547104,0.38005343079567,0.668570756912231,12.3714284896851,0.364081591367722,0.406779229640961,0.671428978443146,2012-01-17 13:40:24
1.00499987602234,48,24.4291667938232,0.272048532962799,0.33662423491478,0.629165768623352,31.9479179382324,0.116753771901131,0.145759165287018,0.347916752099991,11.28125,0.144531339406967,0.176371186971664,0.31875017285347,2012-01-17 13:40:25
1.01000022888184,49,24.4122447967529,0.171678364276886,0.199624761939049,0.412245333194733,31.91428565979,0.094460740685463,0.119522877037525,0.314285695552826,11.2020406723022,0.100624844431877,0.128555297851562,0.397959411144257,2012-01-17 13:40:26
1.01299977302551,20,25.1650009155273,0.344499975442886,0.429272532463074,0.935000061988831,32.2050018310547,0.175999760627747,0.213248923420906,0.395001798868179,10.9949998855591,0.275000035762787,0.299123853445053,0.495000123977661,2012-01-17 13:40:27
1,41,24.8146343231201,0.333491891622543,0.378418356180191,0.685365438461304,32.1268310546875,0.100654013454914,0.118988342583179,0.226830318570137,10.7707319259644,0.180011957883835,0.231899797916412,0.470731765031815,2012-01-17 13:40:28
1.007000207901,46,24.9630432128906,0.14338356256485,0.168572798371315,0.363043576478958,31.8565216064453,0.191493153572083,0.241059347987175,0.55652117729187,11.1956520080566,0.247447982430458,0.304999321699142,0.704348146915436,2012-01-17 13:40:29
1.01599979400635,36,24.7027778625488,0.224382683634758,0.287214607000351,0.702778220176697,31.3916664123535,0.136573597788811,0.181620612740517,0.508332490921021,12.1722221374512,0.273765474557877,0.298711270093918,0.472222685813904,2012-01-17 13:40:30
1.01900005340576,50,23.4460010528564,0.507519960403442,0.57173764705658,1.05399966239929,31.6119995117188,0.106880255043507,0.140911504626274,0.387999564409256,12.9720001220703,0.236000001430511,0.260030806064606,0.47200009226799,2012-01-17 13:40:31
1.00699996948242,48,21.65625,0.306770861148834,0.333482980728149,0.543750405311584,31.3020839691162,0.306423664093018,0.336953103542328,0.602083027362823,14.0708332061768,0.339930504560471,0.387275874614716,0.729166626930237,2012-01-17 13:40:32
1.05700016021729,20,21.935001373291,1.33900010585785,1.49541807174683,2.36500072479248,31.9950008392334,0.326000481843948,0.395569771528244,0.795000195503235,10.7799997329712,2.55200004577637,3.27316379547119,6.88000011444092,2012-01-17 13:40:33
1.0149998664856,54,23.6055564880371,3.72654318809509,4.50713062286377,10.2055549621582,30.9851856231689,1.46406030654907,1.74816381931305,3.3148136138916,-3.18148159980774,7.33100128173828,7.90405607223511,13.3814811706543,2012-01-17 13:40:34
1.00500011444092,34,9.69411754608154,0.898269891738892,1.17321610450745,3.30588221549988,34.7558822631836,0.485986083745956,0.51859039068222,0.844119668006897,-12.2264709472656,0.380968868732452,0.416786581277847,0.726470649242401,2012-01-17 13:40:35
1.03299999237061,48,11.7270832061768,0.997135400772095,1.21616530418396,2.42708325386047,34.5416679382324,0.251388818025589,0.281981855630875,0.541667282581329,-7.55833339691162,2.8184027671814,3.19432020187378,5.55833339691162,2012-01-17 13:40:36
1.02799987792969,44,15.0931816101074,0.534400820732117,0.589066207408905,1.00681841373444,34.9340896606445,0.26435974240303,0.327485948801041,0.66591078042984,3.24545454978943,1.65123963356018,2.16872978210449,5.14545440673828,2012-01-17 13:40:37
1.00500011444092,23,17.2086963653564,0.853307843208313,0.926851749420166,1.29130399227142,33.3869590759277,0.616635024547577,0.717061579227448,1.21304452419281,7.88695669174194,1.20945191383362,1.34368228912354,2.38695669174194,2012-01-17 13:40:38
1.01099991798401,40,17.2024993896484,0.882374942302704,1.0311371088028,2.00250053405762,33.2224998474121,0.271499812602997,0.360199570655823,0.777499198913574,8.33500003814697,0.639750003814697,0.779599249362946,1.7350001335144,2012-01-17 13:40:39
1.02900004386902,46,16.2891311645508,0.84659743309021,0.887896537780762,1.28913080692291,31.7217407226562,1.32608723640442,1.44069957733154,2.07825946807861,2.05869579315186,2.21852564811707,2.49569869041443,4.34130430221558,2012-01-17 13:40:40
1.04200005531311,33,16.9424247741699,0.229935944080353,0.295450866222382,0.642423331737518,28.2303028106689,0.612488567829132,0.723411440849304,1.46969711780548,-2.67272734642029,0.230303004384041,0.306764870882034,0.87272721529007,2012-01-17 13:40:41
1.00600004196167,47,16.8872337341309,0.271525353193283,0.339346677064896,0.71276593208313,26.7276592254639,0.182163938879967,0.211078390479088,0.472340852022171,-2.96808505058289,0.165866911411285,0.191418439149857,0.368084996938705,2012-01-17 13:40:42
1.06299996376038,48,16.8374996185303,0.203645557165146,0.275094717741013,1.03750014305115,25.8812503814697,0.19036428630352,0.243803396821022,0.71875,-2.60833334922791,0.209027767181396,0.256444722414017,0.608333349227905,2012-01-17 13:40:44
1.00699996948242,37,16.840539932251,0.624251186847687,0.758184015750885,1.34054088592529,27.0486488342285,0.323447734117508,0.394982993602753,0.848648309707642,-1.93783783912659,0.157779410481453,0.182106822729111,0.362162053585052,2012-01-17 13:40:45
1.0019998550415,46,16.473913192749,0.77410215139389,0.95790421962738,1.77391362190247,26.3652172088623,0.883742928504944,0.992628812789917,1.8347829580307,-2.19130444526672,0.390359163284302,0.46477022767067,0.891304314136505,2012-01-17 13:40:46
1.00500011444092,36,18.661111831665,0.89567893743515,1.00699710845947,1.86111032962799,30.5166664123535,2.5527777671814,2.77823877334595,3.68333387374878,-3.60277771949768,2.72561740875244,3.0306293964386,5.39722204208374,2012-01-17 13:40:47
1.03099989891052,46,27.3086967468262,13.8062381744385,15.4168157577515,30.3913040161133,42.6782608032227,6.79376173019409,7.80985736846924,15.0217390060425,19.1108703613281,29.4272212982178,37.3850479125977,103.68913269043,2012-01-17 13:40:48
1.63800001144409,42,77.240478515625,9.93650817871094,11.8847856521606,30.2404766082764,16.0714282989502,6.89591884613037,8.60797786712646,24.4285717010498,109.369049072266,46.4573707580566,52.1414642333984,96.1690521240234,2012-01-17 13:40:49
1.01700019836426,50,13.1339998245239,3.95536017417908,4.48859071731567,7.96600008010864,24.1180000305176,2.8634397983551,3.43887710571289,11.5179996490479,11.206000328064,3.41848015785217,3.8144154548645,5.49400043487549,2012-01-17 13:40:50
1.09599995613098,44,7.997727394104,2.5067150592804,2.75693249702454,4.002272605896,20.754545211792,2.11280989646912,2.3913152217865,4.14545392990112,4.71818208694458,1.88884305953979,2.17833065986633,4.98181772232056,2012-01-17 13:40:51
1.28099989891052,48,6.87916660308838,2.00416684150696,2.28828167915344,4.67916679382324,22.8937511444092,1.99140632152557,2.36866760253906,4.39375019073486,6.53541660308838,2.35946178436279,2.61856269836426,4.56458377838135,2012-01-17 13:40:53
1.01900005340576,47,7.8361701965332,0.726301550865173,1.09397304058075,4.3361701965332,19.4957447052002,2.65912175178528,3.03454995155334,5.00425481796265,6.32127666473389,0.988320529460907,1.22854971885681,3.72127652168274,2012-01-17 13:40:54
1.00200009346008,47,6.7042555809021,3.65432333946228,4.18477296829224,8.80425548553467,17.4680862426758,1.93626093864441,2.07775545120239,2.93191409111023,-1.92553198337555,3.65685844421387,3.98408913612366,7.22553205490112,2012-01-17 13:40:55
1.00099992752075,34,-3.46764707565308,3.20276808738708,3.81989526748657,8.66764736175537,17.9794120788574,0.455709367990494,0.558242857456207,1.62058818340302,4.47941160202026,2.66418695449829,3.39755797386169,8.67941188812256,2012-01-17 13:40:56
1.07599997520447,47,8.60000038146973,2.93617033958435,3.29990339279175,5.30000019073486,19.1638298034668,2.0338613986969,2.34678816795349,4.23616933822632,10.5255317687988,1.81883203983307,2.20294451713562,4.97446775436401,2012-01-17 13:40:57
1.01200008392334,36,-0.047222126275301,8.03148174285889,9.0287036895752,17.2472229003906,15.0333337783813,1.99259269237518,2.59615111351013,6.96666622161865,17.6472225189209,0.609567940235138,0.915146052837372,2.44722270965576,2012-01-17 13:40:58
1.00599980354309,36,-13.972222328186,4.62376546859741,4.81321144104004,6.47222232818604,17.5666675567627,2.49814820289612,2.69629383087158,3.83333253860474,16.8583335876465,1.52777791023254,2.00781464576721,3.74166679382324,2012-01-17 13:40:59
1.00300002098083,41,-5.15121936798096,3.34324812889099,4.20221328735352,10.9487810134888,15.8219509124756,1.48958969116211,1.8822033405304,4.97804975509644,25.2780494689941,0.997977375984192,1.33023238182068,4.17804861068726,2012-01-17 13:41:00
1.10300016403198,38,-3.12894749641418,0.231301933526993,0.275210827589035,0.571052610874176,15.8921051025391,0.156094387173653,0.189711317420006,0.407895624637604,25.5026321411133,0.145845115184784,0.185652330517769,0.497368216514587,2012-01-17 13:41:01
1.01399993896484,46,-3.23913049697876,0.19735349714756,0.244485512375832,0.539130449295044,15.5391302108765,0.23913049697876,0.28012290596962,0.560869753360748,25.7717399597168,0.103969760239124,0.126255348324776,0.271739661693573,2012-01-17 13:41:02
1.00499987602234,44,-3.36136364936829,0.199173554778099,0.237616866827011,0.461363613605499,15.2090911865234,0.102066241204739,0.127597063779831,0.290908962488174,25.9181823730469,0.0785124003887177,0.100617714226246,0.218181177973747,2012-01-17 13:41:03
1.18500018119812,26,-2.26923084259033,0.953846156597137,1.00986266136169,1.66923081874847,15.1500005722046,0.20769228041172,0.230801284313202,0.45000034570694,26.6269226074219,0.52692323923111,0.55577939748764,0.873076677322388,2012-01-17 13:41:04
1.01600003242493,50,1.03400003910065,3.03656005859375,3.41260075569153,4.96600008010864,14.3959999084473,0.635040044784546,0.703693151473999,1.20400023460388,26.8540000915527,0.427519857883453,0.481750875711441,0.753999888896942,2012-01-17 13:41:05
1.02099990844727,33,5.10606050491333,0.985491275787354,1.28910100460052,3.50606060028076,14.151515007019,0.274380087852478,0.356005758047104,0.848484694957733,26.5030307769775,0.137741103768349,0.1961520165205,0.49696946144104,2012-01-17 13:41:06
1.01699995994568,49,2.59591841697693,0.616076648235321,0.693102836608887,1.3040816783905,14.3979597091675,0.267471939325333,0.341957032680511,0.70204097032547,27.1367359161377,0.181841030716896,0.221030861139297,0.463265389204025,2012-01-17 13:41:07
1.17300009727478,46,2.57173919677734,0.413232535123825,0.584459245204926,1.47173917293549,15.0239133834839,0.23015122115612,0.312900006771088,0.976086854934692,26.9760875701904,0.216445907950401,0.252968907356262,0.523912489414215,2012-01-17 13:41:08
1.00799989700317,42,4.18571424484253,0.489115685224533,0.630030751228333,1.38571441173553,16.0190486907959,0.302494376897812,0.400141656398773,0.980952143669128,25.6333332061768,0.590476095676422,0.649053037166595,1.26666581630707,2012-01-17 13:41:09
1,48,5.46875,0.998437464237213,1.27690315246582,3.13125038146973,17.3374996185303,0.49374994635582,0.546818435192108,0.962500751018524,24.1937503814697,0.402604192495346,0.470552176237106,0.793750703334808,2012-01-17 13:41:10
1.01200008392334,27,6.53703689575195,0.668038368225098,0.768427014350891,1.46296286582947,18.8703708648682,0.482578933238983,0.516264915466309,0.870370626449585,22.1518516540527,0.757475972175598,0.791796088218689,1.14814877510071,2012-01-17 13:41:11
1.00499987602234,41,7.04878044128418,0.518143951892853,0.667401969432831,1.54878056049347,20.5073165893555,0.457346946001053,0.567575216293335,1.20731604099274,19.7487812042236,0.364425837993622,0.477862000465393,1.35121953487396,2012-01-17 13:41:12
1.01500010490417,47,5.64468097686768,0.836668193340302,0.899600028991699,1.45531892776489,21.2787246704102,0.261566400527954,0.301722943782806,0.621275842189789,19.8936176300049,0.576731443405151,0.616235613822937,1.10638248920441,2012-01-17 13:41:13
1.01300001144409,45,3.40666675567627,0.824000000953674,0.893532335758209,1.6066666841507,20.5511112213135,0.551802396774292,0.625254392623901,1.25111031532288,21.2644443511963,0.359209835529327,0.421191602945328,0.835555553436279,2012-01-17 13:41:14
1.00699996948242,28,1.22142863273621,0.508673489093781,0.582701325416565,0.978571474552155,17.3214282989502,1.0377551317215,1.21430671215057,2.07857084274292,24.2178573608398,1.06862246990204,1.256711602211,2.01785659790039,2012-01-17 13:41:15
1.02300000190735,48,-0.28125,1.03880214691162,1.09004139900208,1.51875007152557,14.0375003814697,0.826562464237213,0.979077994823456,1.76249992847443,26.8541679382324,0.874652683734894,0.973173022270203,1.74583339691162,2012-01-17 13:41:16
1.0149998664856,33,-3.8575758934021,0.582185506820679,0.736095488071442,1.95757591724396,10.0484848022461,1.73204779624939,1.80808305740356,2.84848475456238,29.1818180084229,0.214875936508179,0.258731573820114,0.581818103790283,2012-01-17 13:41:17
1.00800013542175,45,-3.33111119270325,0.608493864536285,0.751833975315094,1.63111114501953,5.52666664123535,1.00622224807739,1.19970369338989,2.62666654586792,28.2755565643311,0.411654382944107,0.470534294843674,0.924444854259491,2012-01-17 13:41:18
1.59699988365173,47,-2.54680848121643,0.425984621047974,0.577172517776489,1.45319139957428,1.80851066112518,0.444182902574539,0.530286848545074,1.19148933887482,26.2361698150635,0.291444092988968,0.375542521476746,1.06383061408997,2012-01-17 13:41:20
1.00200009346008,46,-5.07826089859009,0.556899845600128,0.717760145664215,2.17826080322266,-2.43260884284973,0.879111528396606,0.979586064815521,1.63260877132416,23.2130432128906,0.924952685832977,1.20517146587372,3.01304316520691,2012-01-17 13:41:21
1.09800004959106,31,-6.10645151138306,0.220395445823669,0.257701307535172,0.493548184633255,-3.9709677696228,0.152549430727959,0.193763345479965,0.429032325744629,19.2000007629395,0.690322637557983,0.77000218629837,1.30000102519989,2012-01-17 13:41:22
1.59599995613098,52,-5.98076915740967,0.369230777025223,0.436788320541382,1.11923062801361,-5.4596152305603,0.486612409353256,0.54675954580307,0.959615468978882,15.4173078536987,1.02115392684937,1.23330724239349,2.682692527771,2012-01-17 13:41:24
1.01399993896484,53,-4.24905681610107,0.602847993373871,0.692445158958435,1.34905660152435,-5.96037769317627,0.287077248096466,0.334968119859695,0.860377550125122,10.1075477600098,1.15806341171265,1.40253806114197,3.09245252609253,2012-01-17 13:41:25
1.25600004196167,44,-2.65227270126343,0.615909099578857,0.741156578063965,1.55227279663086,-4.95227289199829,0.591012418270111,0.654872834682465,1.34772729873657,6.35681819915771,0.822417378425598,0.901614129543304,1.35681819915771,2012-01-17 13:41:26
1.01800012588501,50,0.166000008583069,0.807600021362305,0.966356039047241,2.66599988937378,-4.05399990081787,0.219840064644814,0.251563161611557,0.453999936580658,4.44799995422363,0.328159987926483,0.377486437559128,0.752000272274017,2012-01-17 13:41:27
1,46,1.3891304731369,0.349999994039536,0.460259050130844,1.21086966991425,-3.7869565486908,0.120226807892323,0.143872946500778,0.286956578493118,3.66739130020142,0.139792039990425,0.160236716270447,0.367391377687454,2012-01-17 13:41:28
1.00299978256226,29,2.16551733016968,0.364328175783157,0.405374109745026,0.834482729434967,-3.5724139213562,0.343162924051285,0.436993300914764,0.927586197853088,4.37931060791016,0.235196188092232,0.253770649433136,0.420689791440964,2012-01-17 13:41:29
1.00500011444092,47,-0.84680849313736,1.04327750205994,1.25695526599884,2.353191614151,-4.94893646240234,0.324309647083282,0.396727234125137,0.851063907146454,4.57021284103394,0.675147175788879,0.772648096084595,1.42978715896606,2012-01-17 13:41:30
1.02900004386902,32,-0.106250002980232,1.044921875,1.21138799190521,1.89374995231628,-4.43125009536743,0.302734345197678,0.402676612138748,1.03125,3.24375009536743,0.388281285762787,0.451343506574631,0.856249868869781,2012-01-17 13:41:31
1.00499987602234,51,0.174509808421135,1.07689356803894,1.2253600358963,2.12549018859863,-2.75490188598633,0.396385997533798,0.513471007347107,1.44509828090668,2.29607844352722,0.745328724384308,0.875586271286011,1.49607849121094,2012-01-17 13:41:32
1.18799996376038,27,1.05185186862946,0.371742129325867,0.477935671806335,1.05185186862946,-1.94074082374573,0.304252415895462,0.364396274089813,0.740740716457367,1.01111114025116,0.303703725337982,0.383293092250824,0.98888885974884,2012-01-17 13:41:33
1.00600004196167,51,1.5274510383606,0.355632454156876,0.444609731435776,0.872549116611481,-0.564705908298492,0.224221453070641,0.274985581636429,0.735294163227081,0.176470592617989,0.2788927257061,0.336992591619492,0.923529446125031,2012-01-17 13:41:34
1,35,3.4228572845459,0.654367327690125,0.820134401321411,1.62285709381104,-0.0314285717904568,0.144163265824318,0.1832584887743,0.368571430444717,-0.439999997615814,0.230857148766518,0.27897772192955,0.639999985694885,2012-01-17 13:41:35
1.00100016593933,47,3.9957447052002,0.187686786055565,0.214334711432457,0.404255330562592,0.451063841581345,0.141240388154984,0.180863574147224,0.451063841581345,-1.05319154262543,0.173200562596321,0.203010410070419,0.453191488981247,2012-01-17 13:41:36
1.01399993896484,31,4.29032278060913,0.365452647209167,0.441664636135101,1.10967743396759,0.548387110233307,0.0917794033885002,0.110339559614658,0.251612901687622,-1.14193546772003,0.18522372841835,0.222557261586189,0.541935503482819,2012-01-17 13:41:37
1.03699994087219,48,4.57083320617676,0.360069423913956,0.436824887990952,1.12916684150696,0.714583337306976,0.24496528506279,0.279873192310333,0.585416734218597,-1.23958337306976,0.219618052244186,0.262789189815521,0.539583384990692,2012-01-17 13:41:38
1.01500010490417,23,4.38260889053345,0.35425329208374,0.440999031066895,1.01739132404327,0.973913073539734,0.0967863798141479,0.118752181529999,0.226086989045143,-1.40434789657593,0.126654058694839,0.151738494634628,0.304347813129425,2012-01-17 13:41:39
1.00399994850159,44,5.03636360168457,0.297520637512207,0.353611826896667,0.663636565208435,0.797727286815643,0.116322323679924,0.143793791532516,0.302272737026215,-1.30227279663086,0.175206586718559,0.236920237541199,0.602272748947144,2012-01-17 13:41:40
1.00300002098083,45,4.95111131668091,0.209975272417068,0.241865172982216,0.448888897895813,1.09333336353302,0.123259268701077,0.155492052435875,0.40666663646698,-1.03777778148651,0.230814829468727,0.285415023565292,0.662222266197205,2012-01-17 13:41:41
1.01900005340576,32,5.61562490463257,0.452148497104645,0.576687395572662,1.11562514305115,1.24687504768372,0.190234377980232,0.21935185790062,0.453125029802322,-1.69062507152557,0.180468752980232,0.240259453654289,0.690625011920929,2012-01-17 13:41:42
1.01899981498718,49,5.21632671356201,0.584006667137146,0.673506498336792,1.38367331027985,1.59591841697693,0.392419844865799,0.458906948566437,0.895918428897858,-0.6367347240448,0.411911696195602,0.487263858318329,0.963265299797058,2012-01-17 13:41:43
1.00999999046326,39,5.28717947006226,0.393293887376785,0.45807820558548,0.787179589271545,0.858974397182465,0.138593032956123,0.161273702979088,0.358974367380142,-0.569230794906616,0.215779095888138,0.252326458692551,0.469230771064758,2012-01-17 13:41:44
1.03800010681152,47,5.2021279335022,0.279130846261978,0.337380021810532,0.802127659320831,0.804255306720734,0.191942065954208,0.223089963197708,0.404255330562592,0.0553191490471363,0.135898604989052,0.166066527366638,0.344680845737457,2012-01-17 13:41:45
1.0149998664856,34,3.55588245391846,0.17941178381443,0.217189505696297,0.455882251262665,-0.0176470596343279,0.284083038568497,0.33472603559494,0.717647075653076,-0.75882351398468,0.215224921703339,0.257953077554703,0.558823525905609,2012-01-17 13:41:46
1.01400017738342,47,3.65744686126709,0.386238098144531,0.499252498149872,1.25744676589966,-1.13191485404968,0.786962449550629,0.969998121261597,2.06808519363403,-0.176595747470856,0.538976907730103,0.737509548664093,1.6765958070755,2012-01-17 13:41:47
1.01699995994568,35,2.59714293479919,0.277551025152206,0.327314376831055,0.602857112884521,-5.94571447372437,1.30726528167725,1.4740309715271,2.74571418762207,4.4314284324646,2.00587749481201,2.14632868766785,3.26857161521912,2012-01-17 13:41:48
1.00799989700317,48,4.75,0.677083313465118,0.887646675109863,2.64999985694885,-9.23750019073486,0.313020914793015,0.416145503520966,1.23750019073486,11.4562501907349,2.45442700386047,2.6909499168396,4.64375019073486,2012-01-17 13:41:49
1.55299997329712,45,3.40888905525208,1.71051859855652,2.04154872894287,3.80888891220093,-5.70222234725952,0.634074032306671,0.859324991703033,2.29777765274048,19.6066665649414,1.58607411384583,1.84901177883148,3.40666627883911,2012-01-17 13:41:51
1.00300002098083,44,-1.327272772789,0.612809896469116,0.767630279064178,1.672727227211,-2.34090924263,0.212809935212135,0.257891952991486,0.559090971946716,23.3295459747314,0.155474841594696,0.18899193406105,0.42954608798027,2012-01-17 13:41:52
1,43,-1.27674424648285,0.843807458877563,0.991319835186005,1.72325575351715,-2.89302325248718,0.189507856965065,0.220354214310646,0.493023216724396,22.8581390380859,0.167657896876335,0.203724101185799,0.458140224218369,2012-01-17 13:41:53
1.01200008392334,36,-2.0888888835907,0.429012358188629,0.472450941801071,0.811111152172089,-2.34722232818604,0.183487683534622,0.224209874868393,0.447222292423248,23.1333332061768,0.255555689334869,0.283823072910309,0.566666901111603,2012-01-17 13:41:54
1.00200009346008,45,-0.448888897895813,0.438716053962708,0.499609738588333,1.05111110210419,-2.82666659355164,0.188444495201111,0.240739643573761,0.526666760444641,22.7644443511963,0.154469132423401,0.203476071357727,0.535556197166443,2012-01-17 13:41:55
1.00999999046326,49,-0.969387769699097,0.537026226520538,0.61252373456955,1.13061237335205,-2.90204095840454,0.242898792028427,0.304047405719757,0.702040791511536,23.1510200500488,0.119283899664879,0.148629888892174,0.35101979970932,2012-01-17 13:41:56
1.00499987602234,38,-0.984210550785065,0.377285331487656,0.425828188657761,0.815789520740509,-3.04999995231628,0.468421041965485,0.519488632678986,0.850000023841858,22.4236850738525,0.363296359777451,0.492808312177658,1.32368433475494,2012-01-17 13:41:57
1.01699995994568,39,-0.546153843402863,0.617751479148865,0.790924847126007,1.74615395069122,-3.92820525169373,0.687442481517792,0.822737395763397,1.77179515361786,19.3743591308594,1.27889549732208,1.45931470394135,2.47435975074768,2012-01-17 13:41:58
1.01699995994568,41,-1.83170735836029,0.403212368488312,0.469789266586304,1.03170728683472,-3.06829261779785,0.258893519639969,0.322671055793762,0.831707358360291,21.6000003814697,0.243902489542961,0.29383909702301,0.500000059604645,2012-01-17 13:41:59
1.02900004386902,32,-1.98125004768372,0.452343761920929,0.528226733207703,1.08124995231628,-3.32187509536743,0.521093726158142,0.656093716621399,1.67812490463257,21.0531253814697,0.262304842472076,0.32498499751091,0.846874177455902,2012-01-17 13:42:00
