"diffSecs","level","azimuth.mean","azimuth.absolute.deviation","azimuth.standard.deviation","azimuth.max.deviation","pitch.mean","pitch.absolute.deviation","pitch.standard.deviation","pitch.max.deviation","roll.mean","roll.absolute.deviation","roll.standard.deviation","roll.max.deviation","time"
3.96000003814697,18,19.7111110687256,0.223457053303719,0.262231945991516,0.488889366388321,-27.0388889312744,0.119135998189449,0.14196603000164,0.338888496160507,-30.3666667938232,0.0703696981072426,0.0816491469740868,0.166666239500046,2012-01-17 17:50:03
0.848000049591064,99,20.3838386535645,0.183225929737091,0.22905470430851,0.683837950229645,-26.754545211792,0.134618863463402,0.155876502394676,0.345454543828964,-30.5646476745605,0.118784099817276,0.14093017578125,0.364646077156067,2012-01-17 17:50:04
0.694999933242798,99,20.4212131500244,0.180287703871727,0.215684354305267,0.621211469173431,-26.6090908050537,0.20753002166748,0.251496911048889,0.609091401100159,-30.6919193267822,0.0760741233825684,0.10118193924427,0.291920244693756,2012-01-17 17:50:05
1.02300000190735,50,19.8959999084473,0.527359962463379,0.59898579120636,1.2039999961853,-26.5620002746582,0.281039893627167,0.303242295980453,0.562000513076782,-30.496000289917,0.161120057106018,0.203921630978584,0.596000730991364,2012-01-17 17:50:06
1.0090000629425,30,20.1266670227051,0.530222177505493,0.563875436782837,0.873332977294922,-26.7600002288818,0.117333099246025,0.135646373033524,0.260000348091125,-30.5633335113525,0.101555868983269,0.125122502446175,0.263332486152649,2012-01-17 17:50:07
1.02900004386902,46,19.6586952209473,0.294707119464874,0.413140833377838,1.14130532741547,-26.9065227508545,0.13081282377243,0.168628886342049,0.393478900194168,-30.3717403411865,0.136294484138489,0.167673259973526,0.371739476919174,2012-01-17 17:50:08
1.0460000038147,41,19.5341472625732,0.122903347015381,0.152395382523537,0.334145903587341,-26.8707313537598,0.176323339343071,0.196610078215599,0.42926898598671,-30.3609752655029,0.110171988606453,0.132292896509171,0.360975950956345,2012-01-17 17:50:09
1.00099992752075,48,19.6354179382324,0.369965314865112,0.42792597413063,0.835415840148926,-26.4479160308838,0.124739594757557,0.159412369132042,0.452082723379135,-30.3687496185303,0.101561993360519,0.134095907211304,0.331250548362732,2012-01-17 17:50:10
1.01900005340576,49,20.1755104064941,0.241232991218567,0.304745256900787,0.675510704517365,-26.759183883667,0.114368960261345,0.139851674437523,0.359184503555298,-30.4224491119385,0.0932110771536827,0.114758267998695,0.322448760271072,2012-01-17 17:50:11
1.00799989700317,42,19.5261917114258,0.138208895921707,0.160445302724838,0.326190084218979,-27.097620010376,0.0747168362140656,0.101155839860439,0.202381730079651,-30.295238494873,0.133560031652451,0.166121438145638,0.304761737585068,2012-01-17 17:50:12
1.00699996948242,28,19.625,0.169643133878708,0.195713177323341,0.374999850988388,-26.9500007629395,0.146428406238556,0.170083895325661,0.350000113248825,-30.33571434021,0.0999994277954102,0.117151200771332,0.264285773038864,2012-01-17 17:50:13
1.00399994850159,37,19.8189182281494,0.264718681573868,0.315233021974564,0.781081199645996,-26.7891902923584,0.140686616301537,0.199707448482513,0.589188814163208,-30.3972969055176,0.138202652335167,0.165196657180786,0.402703404426575,2012-01-17 17:50:14
1.01900005340576,57,19.9105262756348,0.231025069952011,0.277637004852295,0.510527014732361,-26.8228073120117,0.178700760006905,0.225573256611824,0.522806167602539,-30.3298244476318,0.108586721122265,0.12836991250515,0.270175457000732,2012-01-17 17:50:15
1.10599994659424,40,19.7200012207031,0.120000042021275,0.151986867189407,0.279999494552612,-27.0125007629395,0.0918752551078796,0.12080480158329,0.287500947713852,-30.3999996185303,0.0749999508261681,0.104880601167679,0.299999713897705,2012-01-17 17:50:16
1.01700019836426,51,19.9352951049805,0.355017185211182,0.402844458818436,0.66470593214035,-26.8588237762451,0.115109086036682,0.140274658799171,0.358823776245117,-30.4745101928711,0.119184918701649,0.143954128026962,0.325491040945053,2012-01-17 17:50:17
1.01600003242493,47,19.6361713409424,0.159167274832726,0.207749485969543,0.563830137252808,-26.9425525665283,0.12430963665247,0.152628928422928,0.442553460597992,-30.3702125549316,0.107831090688705,0.130326449871063,0.270212650299072,2012-01-17 17:50:18
1.03599977493286,26,19.6807689666748,0.297632902860641,0.346431314945221,0.619231581687927,-26.9500007629395,0.153846204280853,0.196605756878853,0.449999451637268,-30.3961544036865,0.0520705282688141,0.0758576467633247,0.19615313410759,2012-01-17 17:50:19
1.00600004196167,48,19.9187507629395,0.322916626930237,0.382783710956573,0.818750083446503,-26.8916664123535,0.0899300277233124,0.115168653428555,0.29166653752327,-30.4229164123535,0.112933978438377,0.141773730516434,0.377084106206894,2012-01-17 17:50:20
1.01900005340576,44,19.8045463562012,0.142355054616928,0.191826820373535,0.495455175638199,-26.8886375427246,0.117974735796452,0.141767650842667,0.288636326789856,-30.3772735595703,0.101652398705482,0.129445478320122,0.277272582054138,2012-01-17 17:50:21
1.13599991798401,44,19.875,0.195454403758049,0.228756576776505,0.475000590085983,-26.8454551696777,0.10495813190937,0.121457725763321,0.254545569419861,-30.3909091949463,0.088429182767868,0.10184209048748,0.190908655524254,2012-01-17 17:50:23
1.01400017738342,49,19.8204078674316,0.160432770848274,0.206011235713959,0.520407378673553,-26.8326530456543,0.0986249968409538,0.114975668489933,0.232653021812439,-30.481632232666,0.100041605532169,0.124003693461418,0.318368196487427,2012-01-17 17:50:24
1.00999999046326,47,19.7148933410645,0.184970706701279,0.227828711271286,0.485106766223907,-26.840425491333,0.100859552621841,0.119679324328899,0.259574472904205,-30.527660369873,0.117609910666943,0.146885544061661,0.372339695692062,2012-01-17 17:50:25
1.26999998092651,44,19.7681827545166,0.309090882539749,0.366043090820312,0.731817781925201,-26.9181823730469,0.108677595853806,0.131896317005157,0.281818598508835,-30.4068183898926,0.0983468517661095,0.115596376359463,0.306818127632141,2012-01-17 17:50:26
1.03499984741211,33,19.721212387085,0.144719913601875,0.188707903027534,0.478788197040558,-26.9363632202148,0.0881542414426804,0.109594658017159,0.263636976480484,-30.4787883758545,0.093663826584816,0.114831991493702,0.22121262550354,2012-01-17 17:50:27
1.00800013542175,47,19.7872352600098,0.353462964296341,0.410819947719574,0.712765574455261,-26.8425540924072,0.102398723363876,0.119830518960953,0.257446736097336,-30.4936180114746,0.126754328608513,0.15764807164669,0.393616884946823,2012-01-17 17:50:28
1,45,19.5244445800781,0.187160655856133,0.223264262080193,0.675555884838104,-26.9311103820801,0.0951111018657684,0.120779246091843,0.368889838457108,-30.4577789306641,0.098370335996151,0.116407006978989,0.257777243852615,2012-01-17 17:50:29
1.02999997138977,39,19.6871795654297,0.199079647660255,0.256384581327438,0.612821161746979,-26.7102565765381,0.119789719581604,0.149863064289093,0.310257285833359,-30.5076923370361,0.0666668862104416,0.0858880802989006,0.207691237330437,2012-01-17 17:50:30
1.01699995994568,49,19.7632656097412,0.375843524932861,0.432219713926315,0.836734592914581,-26.8775520324707,0.089628778398037,0.114758193492889,0.322449505329132,-30.4714279174805,0.122449047863483,0.155182629823685,0.47142881155014,2012-01-17 17:50:31
1.00500011444092,49,19.6959190368652,0.132028564810753,0.178381934762001,0.495918184518814,-26.8918361663818,0.0922943651676178,0.124271906912327,0.308163791894913,-30.5408172607422,0.0930448397994041,0.108643762767315,0.240815415978432,2012-01-17 17:50:32
1.00999999046326,37,19.6378383636475,0.290869265794754,0.325784921646118,0.562162339687347,-26.8594608306885,0.0989037305116653,0.126190200448036,0.340540856122971,-30.535135269165,0.112052939832211,0.14372718334198,0.335134595632553,2012-01-17 17:50:33
1.00499987602234,48,19.7749996185303,0.341666698455811,0.369966268539429,0.574999630451202,-26.7625007629395,0.144791558384895,0.166614457964897,0.337500095367432,-30.5375003814697,0.159896016120911,0.183286011219025,0.362499207258224,2012-01-17 17:50:34
1.02600002288818,48,19.4208335876465,0.159201264381409,0.189250931143761,0.4791659116745,-26.7041664123535,0.162847176194191,0.196805983781815,0.404165893793106,-30.5270843505859,0.0963545069098473,0.120311722159386,0.327082723379135,2012-01-17 17:50:35
1.01500010490417,37,19.6918926239014,0.241636425256729,0.287936270236969,0.691892266273499,-26.8405418395996,0.094667062163353,0.112608633935452,0.259459376335144,-30.5486488342285,0.120234049856663,0.149994164705276,0.351350724697113,2012-01-17 17:50:36
1.01300001144409,49,19.6469383239746,0.259392082691193,0.348818421363831,1.05306160449982,-26.740816116333,0.096376545727253,0.11591400206089,0.259183079004288,-30.5918369293213,0.0926282927393913,0.130676209926605,0.391836374998093,2012-01-17 17:50:37
1.00499987602234,46,19.7434787750244,0.226086899638176,0.261809885501862,0.543477773666382,-26.758695602417,0.0891304463148117,0.111464619636536,0.341304063796997,-30.508695602417,0.131569251418114,0.154393896460533,0.30869522690773,2012-01-17 17:50:38
1.01399993896484,40,19.6200008392334,0.136000141501427,0.177764028310776,0.580000579357147,-26.8575000762939,0.0896243900060654,0.106975071132183,0.257499992847443,-30.5100002288818,0.0965002030134201,0.115758463740349,0.209999084472656,2012-01-17 17:50:39
1.01500010490417,49,19.6346950531006,0.2625572681427,0.296614140272141,0.565306603908539,-26.6693878173828,0.204498156905174,0.243447959423065,0.569387853145599,-30.5510196685791,0.0907958447933197,0.109026625752449,0.248980537056923,2012-01-17 17:50:40
1.00699996948242,45,19.6266670227051,0.123259365558624,0.171787962317467,0.57333368062973,-26.8733329772949,0.167407110333443,0.191369235515594,0.426667451858521,-30.6177787780762,0.155160740017891,0.181706711649895,0.317777156829834,2012-01-17 17:50:41
1.11299991607666,41,19.7804889678955,0.19654968380928,0.229760840535164,0.519513070583344,-26.9390239715576,0.112076163291931,0.134124055504799,0.260976135730743,-30.426830291748,0.11921476572752,0.160827606916428,0.473170220851898,2012-01-17 17:50:42
1.02000021934509,49,19.8551025390625,0.244564607739449,0.292114913463593,0.655101597309113,-26.8469390869141,0.0884625315666199,0.105175912380219,0.253061145544052,-30.5244903564453,0.129029825329781,0.153238132596016,0.324489384889603,2012-01-17 17:50:43
1.00799989700317,46,19.7043476104736,0.186956569552422,0.229324638843536,0.595652878284454,-26.9065227508545,0.132608503103256,0.156597003340721,0.4065220952034,-30.4804344177246,0.0951797217130661,0.113481692969799,0.219565853476524,2012-01-17 17:50:44
1.01399993896484,48,19.627082824707,0.169444561004639,0.211876198649406,0.472916841506958,-26.6895847320557,0.129253774881363,0.166132166981697,0.410416573286057,-30.4958343505859,0.0970486253499985,0.124093972146511,0.304167538881302,2012-01-17 17:50:45
1.00500011444092,22,19.5454540252686,0.158677786588669,0.190041273832321,0.35454472899437,-26.9681816101074,0.0677686333656311,0.0819443017244339,0.168180719017982,-30.495454788208,0.0876034200191498,0.110689170658588,0.204546064138412,2012-01-17 17:50:46
1,52,19.7615394592285,0.298816591501236,0.366980314254761,0.838461458683014,-26.8346157073975,0.0988159999251366,0.122292876243591,0.334615767002106,-30.4403858184814,0.120414152741432,0.143123835325241,0.359616219997406,2012-01-17 17:50:47
1.02300000190735,46,19.7695655822754,0.170510277152061,0.215557247400284,0.4695645570755,-26.9086952209473,0.102268420159817,0.134852543473244,0.408695846796036,-30.5326080322266,0.0775050222873688,0.0885989665985107,0.167391940951347,2012-01-17 17:50:48
1.03299999237061,35,19.6599998474121,0.133714407682419,0.172709450125694,0.459999889135361,-26.891429901123,0.135509788990021,0.16101698577404,0.3085717856884,-30.4828567504883,0.0739592537283897,0.0940690562129021,0.217143520712852,2012-01-17 17:50:49
1.01399993896484,47,19.6723403930664,0.251426100730896,0.289314746856689,0.727658927440643,-26.7808513641357,0.168311387300491,0.202787190675735,0.48085018992424,-30.4702129364014,0.0780444219708443,0.0943395644426346,0.229787901043892,2012-01-17 17:50:50
1.0090000629425,48,19.7083339691162,0.256597131490707,0.339013934135437,0.791666150093079,-26.8666667938232,0.115277267992496,0.141911312937737,0.333333730697632,-30.5708332061768,0.117361351847649,0.144277557730675,0.32916596531868,2012-01-17 17:50:51
1.00999999046326,32,19.703125,0.135156244039536,0.164856731891632,0.303125739097595,-26.7906265258789,0.0691405534744263,0.0878894254565239,0.190625190734863,-30.453125,0.136913955211639,0.158082857728004,0.353124976158142,2012-01-17 17:50:52
1.01199984550476,47,19.7680854797363,0.408600956201553,0.477629780769348,0.931915163993835,-26.7617034912109,0.0695337802171707,0.0813533216714859,0.161702498793602,-30.5574474334717,0.12856525182724,0.156755402684212,0.357446312904358,2012-01-17 17:50:53
1.01300001144409,46,19.6217403411865,0.190359354019165,0.234903410077095,0.521739184856415,-26.8934783935547,0.155765280127525,0.193819895386696,0.393478602170944,-30.5782604217529,0.120227210223675,0.142818331718445,0.378260493278503,2012-01-17 17:50:54
1.03299999237061,41,19.5414638519287,0.242831811308861,0.301197379827499,0.758537292480469,-26.5902442932129,0.189530238509178,0.225025653839111,0.50975626707077,-30.5634155273438,0.172278463840485,0.204529196023941,0.363414257764816,2012-01-17 17:50:55
1.29299998283386,45,19.8088893890381,0.270123302936554,0.311856240034103,0.608888447284698,-26.817777633667,0.110221728682518,0.132142543792725,0.31777822971344,-30.5022220611572,0.131456926465034,0.163963288068771,0.302221894264221,2012-01-17 17:50:57
1.01400017738342,53,19.8490562438965,0.291491538286209,0.344565749168396,0.650943040847778,-26.8320751190186,0.0966886430978775,0.11618684977293,0.267924457788467,-30.6339626312256,0.142755657434464,0.172597765922546,0.433961898088455,2012-01-17 17:50:58
1.05200004577637,35,19.562858581543,0.233306258916855,0.301506489515305,0.737143516540527,-26.8400001525879,0.111999481916428,0.133523389697075,0.259999960660934,-30.5,0.0685716569423676,0.0894429385662079,0.200000703334808,2012-01-17 17:50:59
1.01899981498718,50,19.8080005645752,0.233919739723206,0.306489706039429,0.691999495029449,-26.6079998016357,0.226720079779625,0.273378819227219,0.608000576496124,-30.5359992980957,0.129760324954987,0.16463315486908,0.435999870300293,2012-01-17 17:51:00
1.01500010490417,47,19.5,0.212766066193581,0.255992114543915,0.599999785423279,-26.7468090057373,0.0883657932281494,0.106892339885235,0.246809124946594,-30.6106395721436,0.143685385584831,0.162735134363174,0.310637563467026,2012-01-17 17:51:01
1.03699994087219,36,19.6361122131348,0.17700631916523,0.22626531124115,0.536111116409302,-26.7277774810791,0.0950617641210556,0.1169308796525,0.272221624851227,-30.6138896942139,0.115432433784008,0.137745589017868,0.313888192176819,2012-01-17 17:51:02
1.00300002098083,50,19.7720012664795,0.303360134363174,0.358351856470108,0.627999246120453,-26.6359996795654,0.0974403321743011,0.116207048296928,0.335999399423599,-30.7679996490479,0.154559805989265,0.184867367148399,0.46799910068512,2012-01-17 17:51:03
1.01099991798401,44,19.6545467376709,0.150413393974304,0.183964639902115,0.354544669389725,-26.5750007629395,0.111363887786865,0.144796252250671,0.374999523162842,-30.7840919494629,0.146797448396683,0.17702479660511,0.384091556072235,2012-01-17 17:51:04
1.00400018692017,37,19.7783794403076,0.240759819746017,0.28770786523819,0.621620953083038,-26.4594593048096,0.125931367278099,0.158471554517746,0.359459400177002,-30.6729736328125,0.102410785853863,0.124441973865032,0.272973865270615,2012-01-17 17:51:05
1.01599979400635,48,19.8333339691162,0.163888573646545,0.199304327368736,0.433333963155746,-26.5687503814697,0.0976565331220627,0.117537938058376,0.268749207258224,-30.7770843505859,0.118402734398842,0.146115660667419,0.377084165811539,2012-01-17 17:51:06
1.00200009346008,50,19.5380001068115,0.140080213546753,0.178762465715408,0.562000095844269,-26.6000003814697,0.0840002745389938,0.116619288921356,0.299999326467514,-30.7880001068115,0.100479833781719,0.121061682701111,0.31199985742569,2012-01-17 17:51:07
1.01900005340576,47,19.8021278381348,0.270438969135284,0.319899797439575,0.6978719830513,-26.5,0.123404383659363,0.162428319454193,0.399999260902405,-30.7446823120117,0.0938886255025864,0.114498816430569,0.25531855225563,2012-01-17 17:51:08
1.01099991798401,31,19.5516128540039,0.153174042701721,0.18293496966362,0.451613038778305,-26.5225811004639,0.1115508005023,0.131271198391914,0.277420282363892,-30.7870979309082,0.0795004591345787,0.100777134299278,0.212902560830116,2012-01-17 17:51:09
1.01600003242493,48,19.720832824707,0.26163187623024,0.302736282348633,0.579167425632477,-26.3125,0.118749529123306,0.143795043230057,0.312500387430191,-30.8895835876465,0.104252956807613,0.127866148948669,0.289583295583725,2012-01-17 17:51:10
1.01900005340576,46,19.6782608032227,0.143478482961655,0.189866274595261,0.521739542484283,-26.4608707427979,0.0964082181453705,0.111273601651192,0.239130929112434,-30.8478260040283,0.115122362971306,0.137901917099953,0.347826510667801,2012-01-17 17:51:11
1.04999995231628,34,19.5764713287354,0.161937817931175,0.20300504565239,0.523529529571533,-26.4500007629395,0.10882344096899,0.126607149839401,0.250000447034836,-30.8529415130615,0.108996003866196,0.128875583410263,0.252941250801086,2012-01-17 17:51:12
1.01300001144409,49,19.7081642150879,0.266472220420837,0.304950058460236,0.50816285610199,-26.4448986053467,0.108871318399906,0.135618299245834,0.355102956295013,-30.8489799499512,0.119283139705658,0.143031716346741,0.351020693778992,2012-01-17 17:51:13
1.00099992752075,48,19.6145839691162,0.264062315225601,0.322095483541489,0.885416209697723,-26.5208339691162,0.115972355008125,0.149942100048065,0.379165917634964,-30.8541679382324,0.100346654653549,0.118950501084328,0.254166752099991,2012-01-17 17:51:14
1,35,19.7057151794434,0.207183718681335,0.258504390716553,0.49428603053093,-26.4914283752441,0.12408173084259,0.149993285536766,0.291428089141846,-30.8542861938477,0.078693225979805,0.0966369286179543,0.254285752773285,2012-01-17 17:51:15
1.00200009346008,49,19.7306118011475,0.266389131546021,0.306530475616455,0.669387102127075,-26.4857139587402,0.110787183046341,0.134011879563332,0.285713821649551,-30.7081642150879,0.132111668586731,0.161418184638023,0.391836702823639,2012-01-17 17:51:16
1,45,19.6222229003906,0.145679101347923,0.190774813294411,0.477777749300003,-26.6111106872559,0.11111144721508,0.135355368256569,0.311110377311707,-30.7355556488037,0.0941235572099686,0.113833352923393,0.264443814754486,2012-01-17 17:51:17
1.01699995994568,35,19.5542850494385,0.218938961625099,0.265483826398849,0.645714819431305,-26.5657138824463,0.0848982855677605,0.104041203856468,0.234286606311798,-30.811429977417,0.0848975032567978,0.111538104712963,0.288571178913116,2012-01-17 17:51:18
1,48,19.6708335876465,0.235590428113937,0.298578858375549,0.729165971279144,-26.5625,0.0776044651865959,0.0927028357982635,0.237500905990601,-30.810417175293,0.152082964777946,0.182847276329994,0.389583855867386,2012-01-17 17:51:19
1.01800012588501,48,19.5687503814697,0.141927286982536,0.172187373042107,0.368749767541885,-26.4416675567627,0.122916720807552,0.156569138169289,0.35833415389061,-30.6708335876465,0.0710071846842766,0.0911922007799149,0.27083432674408,2012-01-17 17:51:20
1.38199996948242,46,19.7260875701904,0.353308141231537,0.424486726522446,0.973913371562958,-26.5630435943604,0.120510645210743,0.146493583917618,0.363043129444122,-30.741304397583,0.0996219590306282,0.122609436511993,0.258695065975189,2012-01-17 17:51:21
1.00300002098083,52,19.7230777740479,0.200296059250832,0.258409142494202,0.576923727989197,-26.5903854370117,0.0863908603787422,0.111389584839344,0.209616184234619,-30.7884616851807,0.116272024810314,0.143652498722076,0.411538779735565,2012-01-17 17:51:22
1,46,19.732608795166,0.346975386142731,0.419136881828308,0.967391610145569,-26.4934787750244,0.090831845998764,0.111125089228153,0.206522315740585,-30.8347835540771,0.094328336417675,0.121971555054188,0.334783017635345,2012-01-17 17:51:23
1.11299991607666,36,19.5083332061768,0.154629737138748,0.199129983782768,0.491666436195374,-26.5777778625488,0.096296451985836,0.131468564271927,0.377777457237244,-30.7833347320557,0.103703729808331,0.136422425508499,0.316666454076767,2012-01-17 17:51:24
1.01399993896484,52,19.6403846740723,0.28431960940361,0.33239209651947,0.659616231918335,-26.3711547851562,0.179511576890945,0.251408725976944,0.771153628826141,-30.7557697296143,0.0980770066380501,0.124674089252949,0.344230473041534,2012-01-17 17:51:25
1.01500010490417,47,19.6042556762695,0.111815668642521,0.142854899168015,0.404255032539368,-26.5021286010742,0.096152275800705,0.121145904064178,0.302127152681351,-30.8957443237305,0.086101733148098,0.107103578746319,0.204255372285843,2012-01-17 17:51:26
1.09200000762939,40,19.6324996948242,0.144125208258629,0.178027480840683,0.532499969005585,-26.4400005340576,0.0730000883340836,0.0860231891274452,0.160000368952751,-30.7150001525879,0.10225011408329,0.133323058485985,0.315000951290131,2012-01-17 17:51:28
1.01399993896484,49,19.759183883667,0.252394676208496,0.299603909254074,0.640815675258636,-26.3877544403076,0.10937062650919,0.136475294828415,0.387755364179611,-30.7857151031494,0.110203936696053,0.135525971651077,0.38571509718895,2012-01-17 17:51:29
1.00099992752075,44,19.5818176269531,0.179752215743065,0.211351424455643,0.481818199157715,-26.504545211792,0.123760566115379,0.149171382188797,0.304545015096664,-30.7477283477783,0.100103355944157,0.119636960327625,0.252272129058838,2012-01-17 17:51:30
1.17499995231628,40,19.4549999237061,0.101249970495701,0.126392126083374,0.254999399185181,-26.5575008392334,0.0817502588033676,0.0997186079621315,0.257499128580093,-30.8299999237061,0.101499438285828,0.12288174033165,0.330000340938568,2012-01-17 17:51:31
1.01700019836426,51,19.8078441619873,0.316032320261002,0.371981084346771,0.79215681552887,-26.4588241577148,0.148788914084435,0.182763546705246,0.458823829889297,-30.7823524475098,0.182698890566826,0.219362586736679,0.517647862434387,2012-01-17 17:51:32
1.00999999046326,41,19.6634159088135,0.117311395704746,0.146097585558891,0.33658492565155,-26.521951675415,0.0961334630846977,0.125935032963753,0.378048211336136,-30.7487812042236,0.111005365848541,0.132742017507553,0.251218974590302,2012-01-17 17:51:33
1.08299994468689,42,19.83571434021,0.270748198032379,0.324273228645325,0.764285802841187,-26.4166660308838,0.121428534388542,0.154174596071243,0.416666835546494,-30.7333335876465,0.117460422217846,0.145841911435127,0.333334237337112,2012-01-17 17:51:34
1.01300001144409,49,19.8346939086914,0.228321298956871,0.275940626859665,0.634693443775177,-26.2795925140381,0.208662986755371,0.249063149094582,0.579591333866119,-30.8183670043945,0.10187366604805,0.125638425350189,0.318367719650269,2012-01-17 17:51:35
1.00399994850159,48,19.7229175567627,0.170312389731407,0.213345900177956,0.477083712816238,-26.4770832061768,0.0921007394790649,0.11768527328968,0.377083092927933,-30.8062496185303,0.091145284473896,0.114393457770348,0.206250071525574,2012-01-17 17:51:36
1,47,19.5553188323975,0.146854043006897,0.174805283546448,0.455319225788116,-26.5382976531982,0.077048733830452,0.0912171602249146,0.161702737212181,-30.8361701965332,0.111995853483677,0.139032185077667,0.363830238580704,2012-01-17 17:51:37
1.01900005340576,30,19.6666679382324,0.251111268997192,0.32180055975914,0.666667222976685,-26.4600009918213,0.102666720747948,0.128062471747398,0.259999394416809,-30.7833347320557,0.142222225666046,0.173365294933319,0.416666865348816,2012-01-17 17:51:38
1.00399994850159,47,19.6765956878662,0.253961235284805,0.315697729587555,0.723403513431549,-26.3531913757324,0.113625556230545,0.138150230050087,0.353191822767258,-30.7659587860107,0.111362516880035,0.140328675508499,0.36595830321312,2012-01-17 17:51:39
1.01999998092651,47,19.442554473877,0.151108875870705,0.172274589538574,0.342553287744522,-26.3446807861328,0.17184217274189,0.201914742588997,0.444681495428085,-30.7148933410645,0.0834767371416092,0.105141699314117,0.285105764865875,2012-01-17 17:51:40
1.01500010490417,36,19.5694446563721,0.157870575785637,0.195532768964767,0.4694444835186,-26.4388885498047,0.0753087252378464,0.0921284183859825,0.261111855506897,-30.8444442749023,0.155555188655853,0.18475866317749,0.355555951595306,2012-01-17 17:51:41
1,48,19.7875003814697,0.314062476158142,0.375624418258667,0.812499940395355,-26.345832824707,0.0810757428407669,0.0978053733706474,0.254166632890701,-30.8708343505859,0.113888472318649,0.139878183603287,0.370833486318588,2012-01-17 17:51:42
1.00799989700317,44,19.6795463562012,0.155062317848206,0.198379546403885,0.620455324649811,-26.3250007629395,0.0954539626836777,0.115058921277523,0.224999994039536,-30.8272724151611,0.110743321478367,0.140394732356071,0.32727324962616,2012-01-17 17:51:43
1.01900005340576,42,20.0523815155029,0.309297025203705,0.343814730644226,0.652381718158722,-26.2523803710938,0.138321831822395,0.1577188372612,0.347619116306305,-30.8380947113037,0.130385026335716,0.155765771865845,0.361905157566071,2012-01-17 17:51:44
1.00600004196167,49,19.6061229705811,0.20699705183506,0.241937711834908,0.40612205862999,-26.1020412445068,0.223157063126564,0.269155710935593,0.597959756851196,-30.7571430206299,0.0967929512262344,0.117802880704403,0.257143408060074,2012-01-17 17:51:45
1.00600004196167,44,19.5886363983154,0.18564048409462,0.226851731538773,0.511363506317139,-26.4045448303223,0.11363610625267,0.131346806883812,0.304545402526855,-30.6863632202148,0.114876195788383,0.148616224527359,0.413636326789856,2012-01-17 17:51:46
1.00899982452393,36,19.7472229003906,0.164506286382675,0.204784646630287,0.447221487760544,-26.3222217559814,0.124690890312195,0.145508632063866,0.322222590446472,-30.8277778625488,0.154011979699135,0.185009092092514,0.372222751379013,2012-01-17 17:51:47
1.02100014686584,48,19.75,0.345833331346512,0.418330013751984,0.95000034570694,-26.1083335876465,0.114236384630203,0.145535632967949,0.308332592248917,-30.8625011444092,0.133853733539581,0.15629144012928,0.3375004529953,2012-01-17 17:51:48
1.02099990844727,48,19.6666679382324,0.138889148831367,0.175989419221878,0.466666489839554,-26.3229179382324,0.0818570405244827,0.098402626812458,0.222916767001152,-30.845832824707,0.0874993801116943,0.105983763933182,0.254166692495346,2012-01-17 17:51:49
1.04900002479553,45,19.5822219848633,0.181333616375923,0.218366727232933,0.582222640514374,-26.5977783203125,0.180148288607597,0.222599655389786,0.50222235918045,-30.6200008392334,0.12977796792984,0.165462389588356,0.379999577999115,2012-01-17 17:51:50
1.0090000629425,28,19.6321430206299,0.15841868519783,0.23153780400753,0.832142353057861,-27.0214290618896,0.131632924079895,0.154358640313148,0.278572231531143,-30.3642864227295,0.116836234927177,0.141961231827736,0.335714668035507,2012-01-17 17:51:51
1.00099992752075,47,19.7489356994629,0.371118187904358,0.431164771318436,0.851063907146454,-26.6063842773438,0.134178757667542,0.156292855739594,0.306382268667221,-30.5936164855957,0.0889998897910118,0.113745681941509,0.206383764743805,2012-01-17 17:51:52
1.0090000629425,44,19.8090915679932,0.121487237513065,0.15640577673912,0.390909284353256,-26.611364364624,0.0791324153542519,0.104915514588356,0.288635641336441,-30.6386375427246,0.0977276042103767,0.117194652557373,0.261362761259079,2012-01-17 17:51:53
1,41,19.7853660583496,0.2023795992136,0.242508351802826,0.514634788036346,-26.6024398803711,0.0908986181020737,0.109294839203358,0.202439799904823,-30.6585369110107,0.105889573693275,0.132473066449165,0.341462999582291,2012-01-17 17:51:54
1.00799989700317,46,19.706521987915,0.113138094544411,0.15094231069088,0.393478095531464,-26.465217590332,0.144801571965218,0.172219976782799,0.434781908988953,-30.6543483734131,0.15000019967556,0.174089670181274,0.354346990585327,2012-01-17 17:51:55
1.00699996948242,46,19.5978260040283,0.189697727560997,0.216181516647339,0.40217325091362,-26.6760883331299,0.103024899959564,0.121914006769657,0.276087939739227,-30.5673923492432,0.0978264212608337,0.118054017424583,0.332608103752136,2012-01-17 17:51:56
1.00800013542175,33,19.6363639831543,0.125069111585617,0.177214562892914,0.563636600971222,-26.6242427825928,0.106887347996235,0.130338490009308,0.324241757392883,-30.6878795623779,0.0995411947369576,0.114832423627377,0.212120175361633,2012-01-17 17:51:57
1.01600003242493,48,19.7291660308838,0.290104240179062,0.371908694505692,0.970833837985992,-26.6645832061768,0.102344036102295,0.124982856214046,0.335416167974472,-30.5187492370605,0.114323176443577,0.137925639748573,0.38124942779541,2012-01-17 17:51:58
1.0149998664856,47,19.6829795837402,0.145133629441261,0.186021119356155,0.482978463172913,-26.6042556762695,0.0738798677921295,0.100968986749649,0.204256102442741,-30.6212768554688,0.110457547008991,0.13516953587532,0.278722643852234,2012-01-17 17:51:59
