"diffSecs","level","azimuth.mean","azimuth.absolute.deviation","azimuth.standard.deviation","azimuth.max.deviation","pitch.mean","pitch.absolute.deviation","pitch.standard.deviation","pitch.max.deviation","roll.mean","roll.absolute.deviation","roll.standard.deviation","roll.max.deviation","time"
0,88,-21.1045455932617,2.86694240570068,3.27746844291687,5.10454559326172,20.4636363983154,7.30144643783569,8.83935165405273,24.0636367797852,14.4818181991577,3.24524784088135,4.20569276809692,17.2818183898926,2011-12-21 12:10:07
1.00458812713623,89,-20.8314609527588,2.34121966362,2.84883570671082,4.83146047592163,17.8831462860107,6.68026781082153,8.09254455566406,16.9168529510498,17.9235954284668,2.3103141784668,2.61980438232422,4.87640380859375,2011-12-21 12:10:08
1.00001740455627,96,-34.1166648864746,7.07361078262329,7.54915332794189,10.9166660308838,-10.6750001907349,9.75312519073486,11.2262058258057,22.6749992370605,19.841667175293,3.70329856872559,3.97931289672852,6.15833330154419,2011-12-21 12:10:09
0.99998152256012,99,-31.7696971893311,2.63067030906677,3.38079714775085,9.03030204772949,-6.84040403366089,8.60973358154297,9.39193630218506,14.759596824646,23.4747467041016,2.37200284004211,3.05882883071899,7.07474803924561,2011-12-21 12:10:10
1.01011908054352,99,-28.4929294586182,1.78667509555817,2.09420847892761,3.90707230567932,3.75757575035095,5.66440153121948,6.01971673965454,9.75757598876953,25.4101009368896,3.27501273155212,3.77352547645569,8.2101001739502,2011-12-21 12:10:11
0.989875733852386,99,-24.7555561065674,0.349270462989807,0.485387057065964,1.15555500984192,11.7818183898926,1.38328742980957,1.72189486026764,4.21818161010742,27.5434341430664,0.397591978311539,0.49567037820816,1.25656473636627,2011-12-21 12:10:12
1.00001358985901,95,-24.3494739532471,2.56035470962524,3.14973282814026,5.65052604675293,10.2652635574341,6.99115800857544,7.52273416519165,13.0652627944946,26.3452625274658,3.56121897697449,4.6952109336853,11.5452632904053,2011-12-21 12:10:13
0.989975869655609,99,-31.7777786254883,4.56206512451172,5.6383171081543,13.4222230911255,-18.7272720336914,13.9842052459717,15.2898321151733,24.0727272033691,16.1454544067383,6.70045900344849,9.00557899475098,27.745454788208,2011-12-21 12:10:13
1.00001323223114,97,-44.0618553161621,2.02350974082947,2.33544850349426,4.06185579299927,-30.5649490356445,10.9324264526367,11.6788301467896,16.5649490356445,-27.146390914917,19.2679347991943,20.9404163360596,35.5463905334473,2011-12-21 12:10:14
1.0000171661377,99,-43.9474754333496,1.27407431602478,1.50918698310852,2.74747395515442,-33.9111099243164,6.86868667602539,8.12837505340576,19.1111106872559,-29.5636367797852,8.33645534515381,9.14654541015625,16.8363647460938,2011-12-21 12:10:15
1.00998878479004,98,-42.3714294433594,0.578426241874695,0.700437545776367,2.02857303619385,-37.4367332458496,2.64889621734619,3.28202843666077,7.83673429489136,-29.0816326141357,2.62515616416931,3.59055852890015,8.51836585998535,2011-12-21 12:10:17
0.99000757932663,99,-43.6808090209961,0.458402574062347,0.517897367477417,1.1191908121109,-27.9717178344727,0.502397358417511,0.610354900360107,1.22828352451324,-38.8080787658691,0.751759588718414,0.886221408843994,1.60807979106903,2011-12-21 12:10:17
1.00999212265015,97,-44.725772857666,0.248527154326439,0.29472228884697,0.474227160215378,-30.1773204803467,0.467722237110138,0.610476315021515,1.42268073558807,-34.0494842529297,1.15923047065735,1.40368592739105,3.15051627159119,2011-12-21 12:10:19
1.00999474525452,98,-41.326530456543,1.28696370124817,1.51034200191498,3.07347083091736,-32.7632675170898,1.46155774593353,1.54189050197601,2.43673515319824,-25.2326526641846,6.72053289413452,7.41530084609985,14.0326528549194,2011-12-21 12:10:20
1.00001549720764,96,-38.6083335876465,0.242012903094292,0.270672351121902,0.608333826065063,-33.7458343505859,0.428472518920898,0.500399112701416,1.05416595935822,-9.34583377838135,0.62005227804184,0.774854481220245,2.25416707992554,2011-12-21 12:10:21
0.989973723888397,99,-38.8969688415527,0.693479895591736,0.787971794605255,1.90302908420563,-32.7757568359375,0.214018359780312,0.299861997365952,0.775757670402527,-8.81616115570068,2.9839403629303,3.52717328071594,7.58383798599243,2011-12-21 12:10:22
1.00001299381256,96,-40.6833343505859,0.206596240401268,0.2374626994133,0.516667246818542,-33.1458320617676,0.252170622348785,0.334762692451477,0.854166746139526,-15.1208333969116,0.975954830646515,1.10547089576721,2.07916760444641,2011-12-21 12:10:23
0.990004301071167,99,-33.975757598877,3.82711982727051,4.18243312835693,6.42424392700195,-37.6404037475586,3.27876758575439,3.43599247932434,4.4404034614563,-13.9838380813599,2.32972145080566,3.25106692314148,7.98383855819702,2011-12-21 12:10:23
1.00999474525452,97,-35.4721641540527,1.12343502044678,1.29142642021179,3.07216358184814,-38.5319595336914,1.16713750362396,1.28139293193817,2.1319568157196,-19.9257736206055,0.994451999664307,1.34863650798798,3.92577314376831,2011-12-21 12:10:25
0.990003526210785,99,-37.1797981262207,0.20071442425251,0.291972994804382,0.779796421527863,-35.6727256774902,0.255647838115692,0.361204087734222,1.127272605896,-20.2989902496338,2.51631474494934,2.77497816085815,4.90101099014282,2011-12-21 12:10:25
0.990002989768982,99,-37.6444435119629,0.136476278305054,0.204110503196716,0.444442629814148,-35.3212127685547,0.168961390852928,0.183826237916946,0.278786271810532,-27.1555557250977,0.919416427612305,1.01685011386871,1.95555484294891,2011-12-21 12:10:26
1.00999581813812,96,-37.3916664123535,0.199651628732681,0.199825167655945,0.208332136273384,-35.1875,0.153385743498802,0.241199091076851,0.412498384714127,-27.1916675567627,0.520139157772064,0.697565257549286,1.9916660785675,2011-12-21 12:10:27
0.990003347396851,99,-37.3333320617676,0.177776753902435,0.188560724258423,0.266665130853653,-35.9313125610352,0.349025845527649,0.43313467502594,0.731312870979309,-27.4707069396973,0.593817055225372,0.674687087535858,1.47070693969727,2011-12-21 12:10:28
1.01000607013702,95,-37.208423614502,0.0247311629354954,0.0816448703408241,0.408422499895096,-36.2989463806152,0.375756561756134,0.434195071458817,0.901053309440613,-27.8568420410156,0.390647858381271,0.460354775190353,1.05684304237366,2011-12-21 12:10:29
0.989992916584015,99,-37.3575744628906,0.190999820828438,0.1954475492239,0.242422848939896,-35.858585357666,0.224630996584892,0.249853476881981,0.541416227817535,-26.9494953155518,0.497500717639923,0.586958467960358,1.34949469566345,2011-12-21 12:10:30
1.00001728534698,96,-37.4375,0.192967653274536,0.196451798081398,0.237498641014099,-35.5208320617676,0.207203984260559,0.255732297897339,0.479167252779007,-27.095832824707,0.491059392690659,0.640949368476868,1.89583277702332,2011-12-21 12:10:31
0.989971220493317,99,-37.2484855651855,0.0852153077721596,0.130548700690269,0.351513147354126,-35.3373718261719,0.220303058624268,0.248869776725769,0.662626504898071,-26.7717170715332,0.510396957397461,0.64385849237442,1.57171666622162,2011-12-21 12:10:32
1.00001454353333,95,-37.4021034240723,0.199976697564125,0.199987769126892,0.202104106545448,-35.4568405151367,0.243323132395744,0.271700650453568,0.543158173561096,-26.9347362518311,0.414050430059433,0.5046666264534,1.0652631521225,2011-12-21 12:10:33
0.989978194236755,99,-37.3454551696777,0.205692246556282,0.223503202199936,0.545455098152161,-35.3414154052734,0.182837441563606,0.191225722432137,0.258584380149841,-26.8606052398682,0.310744315385818,0.415317684412003,1.13939416408539,2011-12-21 12:10:34
1.00001430511475,96,-37.1708335876465,0.100434347987175,0.175544872879982,0.429164737462997,-35.0416679382324,0.22152841091156,0.241379514336586,0.558331906795502,-26.4874992370605,0.601302087306976,0.744318842887878,1.68750071525574,2011-12-21 12:10:35
0.990001976490021,99,-37.2121200561523,0.0626871511340141,0.14444063603878,0.412122488021851,-35.0626258850098,0.212223872542381,0.235525086522102,0.537372231483459,-27.0101013183594,0.626385509967804,0.859115898609161,2.58989953994751,2011-12-21 12:10:36
1.00999319553375,97,-37.3072166442871,0.15695521235466,0.177174657583237,0.292781829833984,-34.7628860473633,0.134678930044174,0.207746222615242,0.437114357948303,-26.7958755493164,0.474949568510056,0.625228762626648,2.00412321090698,2011-12-21 12:10:37
0.990005552768707,99,-37.3737373352051,0.221119374036789,0.248869776725769,0.626262605190277,-34.589900970459,0.237689062952995,0.262656629085541,0.589899063110352,-26.6383838653564,0.488032013177872,0.562589287757874,1.03838348388672,2011-12-21 12:10:38
1.00999820232391,97,-37.7113380432129,0.220215231180191,0.255204290151596,0.511338710784912,-34.7092781066895,0.303793609142303,0.365547686815262,0.709278643131256,-27.3237113952637,0.730959713459015,0.890473425388336,1.87628948688507,2011-12-21 12:10:39
0.990002393722534,99,-37.2969703674316,0.214262917637825,0.254833251237869,0.496970236301422,-34.7555541992188,0.272950708866119,0.363545715808868,0.84444272518158,-26.3595962524414,0.537904143333435,0.678667664527893,1.95959615707397,2011-12-21 12:10:40
1.00999283790588,97,-37.1134033203125,0.200319349765778,0.245213657617569,0.486596375703812,-35.1134033203125,0.266298353672028,0.336025148630142,0.713400602340698,-25.2412376403809,0.7509406208992,0.870093286037445,1.64123666286469,2011-12-21 12:10:41
0.990005254745483,99,-37.3575744628906,0.386163949966431,0.532781839370728,1.75757658481598,-34.509090423584,0.478971481323242,0.565166294574738,0.909092724323273,-24.0202026367188,3.41548824310303,4.23906755447388,10.0202016830444,2011-12-21 12:10:42
1.00001919269562,96,-37.095832824707,0.725868105888367,0.854877829551697,1.89583253860474,-32.408332824707,0.832811951637268,0.955648005008698,2.00833344459534,-11.6374998092651,2.38645839691162,2.72034192085266,4.4375,2011-12-21 12:10:43
0.989974796772003,99,-42.0040397644043,6.55059671401978,7.79691600799561,19.5959587097168,-34.6464653015137,3.23085403442383,3.99664807319641,10.9535341262817,-18.7474746704102,5.56881952285767,7.08155012130737,13.6525268554688,2011-12-21 12:10:44
1.00002217292786,96,-41.8708343505859,11.1382808685303,12.6475944519043,22.1291656494141,-31.5458335876465,9.59652805328369,11.4233121871948,25.5458335876465,-16.0249996185303,17.0942707061768,20.7812271118164,35.625,2011-12-21 12:10:45
0.989993095397949,99,-22.6707077026367,3.10866236686707,3.6077709197998,6.92929315567017,4.65050506591797,9.22273254394531,9.77658843994141,12.5494956970215,25.3656558990479,3.48209381103516,4.10882663726807,8.96565723419189,2011-12-21 12:10:46
0.990148961544037,99,-22.5535354614258,0.509417533874512,0.644998490810394,1.75353610515594,15.1434345245361,1.05899393558502,1.21673190593719,2.34343409538269,26.7999992370605,0.654545664787292,0.785731375217438,1.59999978542328,2011-12-21 12:10:47
1.00985145568848,95,-22.1431579589844,1.58111906051636,1.86167168617249,3.45684242248535,5.79368448257446,5.08294725418091,6.08178997039795,11.4063167572021,25.8063163757324,0.99359542131424,1.34225344657898,3.80631566047668,2011-12-21 12:10:48
0.990006685256958,99,-28.9858589172363,1.22469162940979,1.50668621063232,3.38585805892944,-7.67676782608032,1.48148143291473,1.8314220905304,4.87676763534546,23.6565647125244,1.60285687446594,1.78071367740631,3.14343357086182,2011-12-21 12:10:49
1.0099949836731,96,-32.1708335876465,1.49461793899536,1.62557137012482,3.82916712760925,-11.3541669845581,2.04522562026978,2.40857481956482,4.64583349227905,19.9874992370605,2.42343735694885,3.12007117271423,9.58750057220459,2011-12-21 12:10:50
1.03002262115479,99,-37.8060607910156,2.7842059135437,3.43687152862549,7.40606117248535,-17.8141422271729,5.0290379524231,6.16259479522705,13.8141412734985,-25.8545455932617,17.683012008667,19.3450298309326,35.4545440673828,2011-12-21 12:10:51
0.989969074726105,99,-29.1959590911865,0.998347222805023,1.21737563610077,2.00404119491577,-4.63838386535645,6.84966850280762,7.89136743545532,13.4383840560913,-25.070707321167,8.33000755310059,9.1020393371582,16.5292911529541,2011-12-21 12:10:52
0.990002691745758,99,-31.4868679046631,1.25138247013092,1.59498238563538,2.9131326675415,-7.61212110519409,4.11827373504639,4.69220876693726,10.8121213912964,-22.6707077026367,3.13690447807312,3.73931479454041,6.52929353713989,2011-12-21 12:10:53
1.00999307632446,96,-34.0708351135254,0.394445031881332,0.535396695137024,1.52916514873505,-2.45000004768372,2.78541660308838,3.32878851890564,6.04999971389771,-14.4333333969116,5.50347232818604,5.85681009292603,9.16666698455811,2011-12-21 12:10:54
1.00001621246338,99,-38.7878799438477,0.94643360376358,1.19993841648102,2.78787851333618,-0.864646434783936,3.81634521484375,4.42059707641602,8.73535346984863,-11.0868682861328,4.51023387908936,4.81077575683594,7.88686847686768,2011-12-21 12:10:55
1.00999283790588,96,-38.7000007629395,1.70624995231628,2.01411700248718,3.90000128746033,5.78333330154419,7.95381927490234,9.30338954925537,15.7833337783813,-22.1124992370605,4.83984375,5.5999116897583,9.48750019073486,2011-12-21 12:10:56
0.990005552768707,99,-38.5575752258301,1.58628714084625,1.83771324157715,3.35757493972778,11.6606063842773,5.12959909439087,6.02925205230713,10.7393932342529,-21.8989906311035,2.97479844093323,3.94070935249329,9.30101108551025,2011-12-21 12:10:57
1.00999689102173,97,-35.9628868103027,1.23966443538666,1.5066397190094,3.16288757324219,9.26185607910156,5.58758640289307,6.27174043655396,9.26185607910156,-19.913402557373,3.86591577529907,4.35922145843506,7.68659830093384,2011-12-21 12:10:58
0.990003764629364,99,-37.3979797363281,1.51331460475922,1.74065899848938,3.39797973632812,9.30909061431885,6.05032157897949,7.14904928207397,12.5090913772583,-17.7696971893311,4.1263542175293,4.65369319915771,7.7696967124939,2011-12-21 12:10:59
1.00996792316437,97,-40.7381439208984,1.03441369533539,1.21887576580048,2.33814311027527,14.3546390533447,7.17083644866943,8.43945121765137,17.1546382904053,-15.2701034545898,2.39804434776306,2.92702174186707,6.07010316848755,2011-12-21 12:11:00
0.99003130197525,99,-38.6909103393555,1.56620764732361,1.82712960243225,3.89090991020203,9.45454502105713,3.04352617263794,3.82377648353577,8.54545497894287,-14.5737371444702,5.39708185195923,6.62951135635376,14.1737375259399,2011-12-21 12:11:01
1.00999557971954,97,-31.5257740020752,1.56803059577942,1.84185457229614,3.67422771453857,5.67010307312012,5.52628326416016,6.09397459030151,10.3298969268799,-27.6123714447021,2.64861297607422,2.93739700317383,5.21237134933472,2011-12-21 12:11:02
0.990007400512695,99,-28.8525238037109,0.101459316909313,0.176580369472504,0.747475743293762,19.5676765441895,0.659850895404816,0.94567883014679,3.56767678260803,-27.5272731781006,0.936639130115509,1.23695766925812,3.27272653579712,2011-12-21 12:11:03
1.00996434688568,97,-28.8164939880371,0.0316294133663177,0.0795355662703514,0.383506625890732,20.8494853973389,0.532426834106445,0.701709866523743,1.95051467418671,-25.9587631225586,0.587097406387329,0.718496859073639,1.55876314640045,2011-12-21 12:11:04
1.00001382827759,99,-28.3595962524414,0.356044948101044,0.407980382442474,0.759595215320587,31.8545455932617,3.566575050354,4.12627172470093,9.05454635620117,-19.2606067657471,3.4480562210083,3.86410093307495,6.33939456939697,2011-12-21 12:11:05
1.0000137090683,97,-28.5855655670166,0.274120271205902,0.330257207155228,0.985566079616547,37.2371139526367,1.17334449291229,1.33727836608887,2.36288547515869,-13.3402061462402,3.25671148300171,3.5643322467804,5.45979309082031,2011-12-21 12:11:06
0.989976108074188,99,-31.5515155792236,1.44450604915619,1.62532782554626,2.75151634216309,32.3636360168457,3.83397626876831,4.28597593307495,6.83636426925659,4.14141416549683,6.82371187210083,7.49611377716064,12.5414142608643,2011-12-21 12:11:07
1.00001680850983,99,-34.2868690490723,0.245526537299156,0.306379050016403,1.08686864376068,33.3131332397461,1.66383051872253,1.86843264102936,3.71313142776489,1.95151519775391,2.14018988609314,2.54781985282898,6.04848480224609,2011-12-21 12:11:08
1.00001561641693,96,-36.5083351135254,1.24861097335815,1.42884469032288,2.90833497047424,27.6333332061768,4.3347225189209,4.81756067276001,7.5666675567627,8.25833320617676,3.91631937026978,4.62384366989136,9.05833339691162,2011-12-21 12:11:09
1.00999331474304,98,-36.0163269042969,0.220908477902412,0.32283690571785,0.816325664520264,32.5346946716309,0.643481552600861,0.731660127639771,1.33469331264496,4.04489803314209,1.12069976329803,1.52463591098785,4.75510215759277,2011-12-21 12:11:10
0.990005016326904,99,-36.0202026367188,0.069054439663887,0.143534436821938,0.420203626155853,33.2606048583984,0.233118236064911,0.286327093839645,0.460606515407562,3.16363644599915,0.19247017800808,0.273198246955872,0.763636291027069,2011-12-21 12:11:11
1.00996673107147,96,-36.2541656494141,0.248872041702271,0.283547908067703,0.945833563804626,32.5999984741211,0.620832800865173,0.789514243602753,2.20000004768372,2.93333339691162,0.852777779102325,1.11902737617493,2.93333339691162,2011-12-21 12:11:12
0.990034401416779,99,-36.391918182373,0.182104185223579,0.266543984413147,0.408079355955124,32.7030296325684,0.34184205532074,0.418137699365616,1.5030300617218,3.58787870407104,0.590633571147919,0.782546043395996,2.78787875175476,2011-12-21 12:11:13
0.989979386329651,99,-36.0808067321777,0.130599349737167,0.170369520783424,0.719190895557404,32.8202018737793,0.276216894388199,0.328442573547363,0.420201003551483,3.89898991584778,0.261932492256165,0.347427815198898,0.901010274887085,2011-12-21 12:11:14
1.00001311302185,96,-36.0625,0.140625536441803,0.194321140646935,0.462501764297485,32.5708351135254,0.489930152893066,0.623818397521973,1.77083456516266,3.92916679382324,0.661632001399994,0.964356124401093,3.12916660308838,2011-12-21 12:11:15
0.990004241466522,99,-36.1818199157715,0.198347866535187,0.199172601103783,0.218182653188705,32.4000015258789,0.226262792944908,0.345826148986816,0.800000250339508,4.44444465637207,0.453423142433167,0.544990420341492,1.24444437026978,2011-12-21 12:11:16
1.00996661186218,95,-36.269474029541,0.175867706537247,0.187546461820602,0.269474714994431,32.336841583252,0.466703593730927,0.620534837245941,1.93684244155884,3.84000015258789,0.646736860275269,0.863578855991364,2.64000010490417,2011-12-21 12:11:17
0.990029752254486,99,-36.165657043457,0.194103389978409,0.197030007839203,0.234344333410263,32.8484840393066,0.213039875030518,0.274271637201309,0.448483437299728,4.17373752593994,0.241526424884796,0.279460519552231,0.973737359046936,2011-12-21 12:11:18
1.00997126102448,97,-36.1319580078125,0.226507306098938,0.261458396911621,0.668040037155151,32.9195861816406,0.375810831785202,0.517456114292145,1.7195873260498,4.12371110916138,0.780274212360382,1.05339634418488,2.92371129989624,2011-12-21 12:11:19
1.00001513957977,99,-35.8545455932617,0.185124680399895,0.19241900742054,0.25454643368721,32.4363632202148,0.396693825721741,0.539632201194763,1.23636364936829,6.50909090042114,1.06372809410095,1.23493671417236,2.29090929031372,2011-12-21 12:11:20
1.00001740455627,95,-38.6736831665039,1.15279746055603,1.35648202896118,3.07368540763855,22.6694736480713,3.55758452415466,4.25084686279297,8.93052673339844,10.5305261611938,0.914703667163849,1.18295562267303,3.0694739818573,2011-12-21 12:11:21
0.990003764629364,99,-36.8242416381836,0.983899891376495,1.07694816589355,1.97575664520264,32.4000015258789,2.81212139129639,3.16495966911316,7.19999933242798,3.40606069564819,2.89170503616333,3.40094518661499,6.59393930435181,2011-12-21 12:11:22
1.00996661186218,94,-36.2893600463867,1.02978730201721,1.16019678115845,1.88936007022858,28.1319141387939,6.14305114746094,6.31900548934937,7.8680853843689,4.71063852310181,3.77075600624084,4.25091886520386,6.88936185836792,2011-12-21 12:11:23
0.990033328533173,99,-36.0080795288086,1.27040088176727,1.35375833511353,1.99191951751709,29.8181819915771,2.85913705825806,3.13997936248779,5.41818237304688,-0.634343445301056,2.2084276676178,2.6986026763916,5.03434371948242,2011-12-21 12:11:24
1.00999557971954,97,-34.5896911621094,0.220723778009415,0.237461894750595,0.610309720039368,32.5855674743652,0.47911536693573,0.608020305633545,1.78556799888611,-4.41649484634399,0.502157509326935,0.686644375324249,1.98350524902344,2011-12-21 12:11:25
0.990005016326904,99,-36.1979789733887,1.15375971794128,1.30932748317719,2.19797945022583,27.6767673492432,3.45687198638916,3.88841414451599,5.52323293685913,1.00606060028076,1.92568111419678,2.41099405288696,5.00606060028076,2011-12-21 12:11:26
1.00996601581573,97,-33.7319602966309,1.1641618013382,1.28653156757355,2.66804218292236,31.5752582550049,1.08474862575531,1.34432995319366,3.57525777816772,-8.4123706817627,4.40786504745483,5.07963895797729,8.4123706817627,2011-12-21 12:11:27
0.990005016326904,99,-32.4323234558105,0.197040647268295,0.299098968505859,0.767676651477814,32.2020225524902,0.393266260623932,0.4701127409935,1.00202023983002,-15.6565656661987,0.434486091136932,0.620224952697754,1.65656566619873,2011-12-21 12:11:28
0.990006923675537,99,-35.2727279663086,1.98494017124176,2.17412781715393,3.27272748947144,24.840404510498,5.66578912734985,6.73240184783936,16.0404033660889,-13.604040145874,2.31462097167969,2.62112307548523,5.19595861434937,2011-12-21 12:11:29
1.00001883506775,96,-41.1375007629395,2.79062485694885,3.13492584228516,4.86250019073486,2.64166665077209,3.75659728050232,4.3808217048645,7.84166669845581,-17.841667175293,2.4267361164093,2.96337604522705,6.15833330154419,2011-12-21 12:11:30
1.00999128818512,97,-36.0783500671387,2.19662022590637,2.62054634094238,5.92164945602417,-2.55670094490051,6.10071229934692,7.09489297866821,12.5567007064819,-18.9731960296631,2.89663100242615,3.37994432449341,6.97319602966309,2011-12-21 12:11:31
0.990005612373352,99,-31.0262622833252,1.74602591991425,2.01100921630859,3.77373647689819,1.86262631416321,2.967533826828,3.38035273551941,7.06262588500977,-26.5777778625488,4.42469120025635,5.63028526306152,13.0222206115723,2011-12-21 12:11:32
1.00999712944031,96,-31.970832824707,1.91961789131165,2.20472550392151,3.6291651725769,4.53333330154419,6.20277786254883,6.817542552948,10.6666660308838,-27.0750007629395,5.29531240463257,6.76863145828247,12.9250001907349,2011-12-21 12:11:33
0.990004360675812,99,-36.1818161010742,1.35316801071167,1.58811008930206,4.21818351745605,8.64646434783936,6.39289855957031,7.42906284332275,15.7535352706909,-22.6868686676025,2.22091627120972,3.24465823173523,14.2868690490723,2011-12-21 12:11:34
0.990005433559418,99,-29.8505039215088,8.00146865844727,8.87818050384521,16.650505065918,20.1535358428955,9.73394584655762,10.7883520126343,15.3535346984863,-20.165657043457,11.3608818054199,13.0394287109375,22.9656562805176,2011-12-21 12:11:35
1.00999474525452,96,4.44583320617676,21.1955738067627,22.9037017822266,32.7541656494141,11.9583330154419,14.3755207061768,14.8161487579346,21.6416645050049,-26.4583339691162,6.41163206100464,7.14469051361084,11.2583332061768,2011-12-21 12:11:36
0.990009844303131,99,33.834342956543,14.9507188796997,16.7738132476807,30.165657043457,-23.208080291748,3.79463315010071,5.01922941207886,17.208080291748,-31.0828285217285,4.3393120765686,4.8286190032959,8.28282928466797,2011-12-21 12:11:37
1.00999128818512,94,77.0340423583984,6.13897705078125,6.8158540725708,12.6340408325195,-25.9063835144043,1.05676770210266,1.22585690021515,2.09361720085144,-27.6127662658691,3.64680862426758,4.01208877563477,6.38723421096802,2011-12-21 12:11:38
0.990005016326904,99,38.9050521850586,16.0380363464355,18.2878952026367,42.2949447631836,-25.7575759887695,3.05576968193054,3.2900550365448,5.44242477416992,-32.7111129760742,2.83187437057495,3.46039319038391,7.51111030578613,2011-12-21 12:11:39
1.01202917098999,85,30.1882362365723,8.28456783294678,9.15756797790527,17.0117645263672,-23.7082347869873,1.62325263023376,2.04088878631592,9.30823612213135,-33.722354888916,3.73580622673035,4.13422966003418,7.32235336303711,2011-12-21 12:11:40
1.00805628299713,96,52.3541679382324,0.627517521381378,0.879146933555603,3.95416498184204,-6.85416650772095,1.3184027671814,1.85078346729279,6.74583387374878,-37.9500007629395,0.347917377948761,0.413320600986481,0.749999523162842,2011-12-21 12:11:41
1.00999581813812,95,52.854736328125,0.316011190414429,0.369855552911758,0.854737281799316,-6.95157909393311,0.295711755752563,0.372435182332993,1.04842102527618,-38.4884223937988,0.800442934036255,0.914314448833466,1.68842172622681,2011-12-21 12:11:42
0.99000072479248,99,53.4787864685059,0.208385914564133,0.237525507807732,0.521212697029114,-6.64646482467651,0.207244202494621,0.225322738289833,0.646464765071869,-39.018180847168,0.258586257696152,0.291413724422455,0.618179976940155,2011-12-21 12:11:43
1.00999104976654,92,53.9304351806641,0.193951591849327,0.247483536601067,0.469567000865936,-6.09130430221558,0.241587966680527,0.283477008342743,0.491304457187653,-38.1869583129883,0.600283920764923,0.701430022716522,1.38695740699768,2011-12-21 12:11:44
