"diffSecs","N.samples","x.mean","x.absolute.deviation","x.standard.deviation","x.max.deviation","x.PSD.1","x.PSD.3","x.PSD.6","x.PSD.10","y.mean","y.absolute.deviation","y.standard.deviation","y.max.deviation","y.PSD.1","y.PSD.3","y.PSD.6","y.PSD.10","z.mean","z.absolute.deviation","z.standard.deviation","z.max.deviation","z.PSD.1","z.PSD.3","z.PSD.6","z.PSD.10","time"
0,43,-2.0609929561615,0.0664030611515045,0.0843051075935364,0.207536026835442,0.000350098096532747,0.520541727542877,0.338394105434418,0.0619475394487381,8.55299472808838,0.0797049850225449,0.0938939824700356,0.174923703074455,0.46591055393219,1.28931868076324,1.25915670394897,0.104163005948067,3.59288287162781,0.0894956365227699,0.121587455272675,0.37630170583725,0.298528879880905,1.38946294784546,1.38633406162262,1.87843561172485,2011-12-24 14:00:11
1.01628005504608,41,-1.91277503967285,0.0722226873040199,0.0815594792366028,0.1466214209795,0.429833441972733,0.546306014060974,0.1453488022089,0.0680820792913437,8.72959232330322,0.0636586844921112,0.0725150629878044,0.148774608969688,0.185518145561218,0.26683583855629,0.134961932897568,0.134216353297234,3.42754364013672,0.0879156365990639,0.0989266932010651,0.171736031770706,0.322404623031616,0.705183625221252,0.5091153383255,0.128317430615425,2011-12-24 14:00:12
1.16538500785828,48,-1.78664898872375,0.0438490062952042,0.0551362931728363,0.129325166344643,0.130726963281631,0.313994705677032,0.112977333366871,0.00874439999461174,8.6609058380127,0.0858766138553619,0.0963422432541847,0.168347656726837,1.73470568656921,2.25491571426392,0.1645867228508,0.148020625114441,3.57452392578125,0.147304058074951,0.169856160879135,0.308909565210342,4.29757976531982,6.21911859512329,1.12069034576416,1.0064879655838,2011-12-24 14:00:13
1.018221616745,45,-1.89137589931488,0.0329503454267979,0.0411723703145981,0.145792216062546,0.00357337016612291,0.0781931206583977,0.123820036649704,0.0708556175231934,8.52699089050293,0.0486893281340599,0.0550346300005913,0.112667314708233,0.128834098577499,0.100910551846027,0.131662577390671,0.0716921016573906,3.80781316757202,0.0504715666174889,0.0682757645845413,0.193299815058708,0.0329490825533867,0.121799021959305,0.24435967206955,0.207287967205048,2011-12-24 14:00:14
