"diffSecs","N.samples","x.mean","x.absolute.deviation","x.standard.deviation","x.max.deviation","x.PSD.1","x.PSD.3","x.PSD.6","x.PSD.10","y.mean","y.absolute.deviation","y.standard.deviation","y.max.deviation","y.PSD.1","y.PSD.3","y.PSD.6","y.PSD.10","z.mean","z.absolute.deviation","z.standard.deviation","z.max.deviation","z.PSD.1","z.PSD.3","z.PSD.6","z.PSD.10","time"
1.02300000190735,40,-4.60324144363403,1.29251646995544,1.48752820491791,3.24992370605469,67.6964721679688,179.560440063477,169.759399414062,123.987167358398,8.68354320526123,1.44336724281311,1.91202390193939,6.50646686553955,109.079391479492,187.323455810547,122.865913391113,39.0119476318359,0.663665056228638,2.25104284286499,2.98887658119202,6.81880903244019,14.4374294281006,39.8912811279297,263.08447265625,88.2063140869141,2012-01-13 14:17:53
1.0220000743866,46,-5.32458448410034,1.43551552295685,1.78420329093933,4.50167894363403,22.4479160308838,28.6188316345215,242.227172851562,91.5921325683594,8.85817623138428,2.31988430023193,3.10923027992249,6.82265663146973,114.236351013184,140.030014038086,109.686309814453,326.64697265625,0.22981670498848,1.89359176158905,2.54583501815796,6.48773813247681,37.7433929443359,119.764434814453,626.261352539062,85.0690002441406,2012-01-13 14:17:54
1.0149998664856,33,-4.81328201293945,0.852719306945801,1.03334832191467,2.22789239883423,9.73947334289551,22.4095554351807,12.1124753952026,16.2812232971191,8.6280689239502,1.68528497219086,2.24341154098511,6.02930641174316,42.6340789794922,71.6950912475586,106.68123626709,51.9278335571289,-0.230604857206345,0.772537052631378,1.06799912452698,2.91732978820801,2.77209496498108,5.41409969329834,8.92613124847412,1.72379016876221,2012-01-13 14:17:55
1.12000012397766,70,-5.02870988845825,0.966795563697815,1.26830613613129,2.89086031913757,77.6073379516602,203.648132324219,565.136596679688,131.749267578125,8.19233512878418,2.10080862045288,2.54435992240906,6.55462455749512,1.80120503902435,2128.12475585938,921.140075683594,80.9214553833008,-1.51750898361206,1.49768757820129,1.78328597545624,3.54748558998108,18.4513397216797,1143.42517089844,661.72509765625,141.570114135742,2012-01-13 14:17:56
1.00799989700317,49,-4.39758205413818,1.00147914886475,1.25081062316895,3.34827041625977,8.11513042449951,19.3678894042969,166.20979309082,78.7121429443359,7.1490478515625,1.72557008266449,2.03926730155945,4.1776328086853,66.8456115722656,473.50244140625,357.253784179688,25.276683807373,-2.86134028434753,2.00933790206909,2.73139643669128,7.51409578323364,151.53385925293,1322.88745117188,409.274047851562,297.914245605469,2012-01-13 14:17:57
