"diffSecs","latitude","longitude","altitude","time"
1.85799980163574,33.7594467401505,-118.122290968895,50,2012-02-10 07:40:53
0.824000120162964,33.7594467401505,-118.122290968895,50,2012-02-10 07:40:54
0.996999979019165,33.7594467401505,-118.122290968895,50,2012-02-10 07:40:55
1.74499988555908,33.7594467401505,-118.122290968895,50,2012-02-10 07:40:57
0.140000104904175,33.7594467401505,-118.122290968895,50,2012-02-10 07:40:57
1.16799998283386,33.7594467401505,-118.122290968895,50,2012-02-10 07:40:58
0.985000133514404,33.7594467401505,-118.122290968895,50,2012-02-10 07:40:59
0.973999977111816,33.7594467401505,-118.122290968895,50,2012-02-10 07:41:00
1.05599999427795,33.7594467401505,-118.122290968895,50,2012-02-10 07:41:01
0.953999996185303,33.7594467401505,-118.122290968895,50,2012-02-10 07:41:02
1.06299996376038,33.7594467401505,-118.122290968895,50,2012-02-10 07:41:03
0.909999847412109,33.7594467401505,-118.122290968895,50,2012-02-10 07:41:04
1.07000017166138,33.7594467401505,-118.122290968895,50,2012-02-10 07:41:05
0.997999906539917,33.7594467401505,-118.122290968895,50,2012-02-10 07:41:06
0.831000089645386,33.7594467401505,-118.122290968895,50,2012-02-10 07:41:07
1.17899990081787,33.7594467401505,-118.122290968895,50,2012-02-10 07:41:08
1.00699996948242,33.7594467401505,-118.122290968895,50,2012-02-10 07:41:09
0.970000028610229,33.7594467401505,-118.122290968895,50,2012-02-10 07:41:10
1.08400011062622,33.7594467401505,-118.122290968895,50,2012-02-10 07:41:11
0.881999969482422,33.7594467401505,-118.122290968895,50,2012-02-10 07:41:12
0.881999969482422,33.7594467401505,-118.122290968895,50,2012-02-10 07:41:13
1.50099992752075,33.7594467401505,-118.122290968895,50,2012-02-10 07:41:15
1.30900001525879,33.7594467401505,-118.122290968895,50,2012-02-10 07:41:16
0.578999996185303,33.7594467401505,-118.122290968895,50,2012-02-10 07:41:16
1.14499998092651,33.7594467401505,-118.122290968895,50,2012-02-10 07:41:18
0.853000164031982,33.7594467401505,-118.122290968895,50,2012-02-10 07:41:18
1.37199997901917,33.7594467401505,-118.122290968895,50,2012-02-10 07:41:20
0.681999921798706,33.7594467401505,-118.122290968895,50,2012-02-10 07:41:21
3.11100006103516,33.7594467401505,-118.122290968895,50,2012-02-10 07:41:24
1.32299995422363,33.7594467401505,-118.122290968895,50,2012-02-10 07:41:25
0.598999977111816,33.7594467401505,-118.122290968895,50,2012-02-10 07:41:26
1.1470000743866,33.7594467401505,-118.122290968895,50,2012-02-10 07:41:27
0.803999900817871,33.7594467401505,-118.122290968895,50,2012-02-10 07:41:28
1.1800000667572,33.7594467401505,-118.122290968895,50,2012-02-10 07:41:29
0.921000003814697,33.7594467401505,-118.122290968895,50,2012-02-10 07:41:30
1.0239999294281,33.7594467401505,-118.122290968895,50,2012-02-10 07:41:31
1.01600003242493,33.7594467401505,-118.122290968895,50,2012-02-10 07:41:32
0.964999914169312,33.7594467401505,-118.122290968895,50,2012-02-10 07:41:33
1.04400014877319,33.7594467401505,-118.122290968895,50,2012-02-10 07:41:34
0.947999954223633,33.7594467401505,-118.122290968895,50,2012-02-10 07:41:35
1.09999990463257,33.7594467401505,-118.122290968895,50,2012-02-10 07:41:36
0.891000032424927,33.7594467401505,-118.122290968895,50,2012-02-10 07:41:37
1.37000012397766,33.7594467401505,-118.122290968895,50,2012-02-10 07:41:38
0.609999895095825,33.7594467401505,-118.122290968895,50,2012-02-10 07:41:39
1.14000010490417,33.7594467401505,-118.122290968895,50,2012-02-10 07:41:40
0.754999876022339,33.7594467401505,-118.122290968895,50,2012-02-10 07:41:40
1.16799998283386,33.7594467401505,-118.122290968895,50,2012-02-10 07:41:42
1.15200018882751,33.7594467401505,-118.122290968895,50,2012-02-10 07:41:43
0.899999856948853,33.7594467401505,-118.122290968895,50,2012-02-10 07:41:44
1.08599996566772,33.7594467401505,-118.122290968895,50,2012-02-10 07:41:45
0.775000095367432,33.7594467401505,-118.122290968895,50,2012-02-10 07:41:46
1.24600005149841,33.7594467401505,-118.122290968895,50,2012-02-10 07:41:47
0.823999881744385,33.7594467401505,-118.122290968895,50,2012-02-10 07:41:48
1.11100006103516,33.7594467401505,-118.122290968895,50,2012-02-10 07:41:49
0.793999910354614,33.7594467401505,-118.122290968895,50,2012-02-10 07:41:50
1.46399998664856,33.7594467401505,-118.122290968895,50,2012-02-10 07:41:51
2.61600017547607,33.7594467401505,-118.122290968895,50,2012-02-10 07:41:54
1.19599986076355,33.7594467401505,-118.122290968895,50,2012-02-10 07:41:55
1.15300011634827,33.7594467401505,-118.122290968895,50,2012-02-10 07:41:56
0.698999881744385,33.7594467401505,-118.122290968895,50,2012-02-10 07:41:57
1.11100006103516,33.7594467401505,-118.122290968895,50,2012-02-10 07:41:58
0.917999982833862,33.7594467401505,-118.122290968895,50,2012-02-10 07:41:59
1.26300001144409,33.7594467401505,-118.122290968895,50,2012-02-10 07:42:00
0.700000047683716,33.7594467401505,-118.122290968895,50,2012-02-10 07:42:01
1.27199983596802,33.7594467401505,-118.122290968895,50,2012-02-10 07:42:02
0.698000192642212,33.7594467401505,-118.122290968895,50,2012-02-10 07:42:03
1.05999994277954,33.7594467401505,-118.122290968895,50,2012-02-10 07:42:04
1.21499991416931,33.7594467401505,-118.122290968895,50,2012-02-10 07:42:05
0.828000068664551,33.7594467401505,-118.122290968895,50,2012-02-10 07:42:06
1.02799987792969,33.7594467401505,-118.122290968895,50,2012-02-10 07:42:07
0.872000217437744,33.7594467401505,-118.122290968895,50,2012-02-10 07:42:08
1.20299983024597,33.7594467401505,-118.122290968895,50,2012-02-10 07:42:09
0.979000091552734,33.7594467401505,-118.122290968895,50,2012-02-10 07:42:10
0.901999950408936,33.7594467401505,-118.122290968895,50,2012-02-10 07:42:11
1.11199998855591,33.7594467401505,-118.122290968895,50,2012-02-10 07:42:12
1.00600004196167,33.7594467401505,-118.122290968895,50,2012-02-10 07:42:13
0.980999946594238,33.7594467401505,-118.122290968895,50,2012-02-10 07:42:14
1.07100009918213,33.7594467401505,-118.122290968895,50,2012-02-10 07:42:15
0.941999912261963,33.7594467401505,-118.122290968895,50,2012-02-10 07:42:16
0.998000144958496,33.7594467401505,-118.122290968895,50,2012-02-10 07:42:17
1.0939998626709,33.7594467401505,-118.122290968895,50,2012-02-10 07:42:18
0.796999931335449,33.7594467401505,-118.122290968895,50,2012-02-10 07:42:19
1.12900018692017,33.7594467401505,-118.122290968895,50,2012-02-10 07:42:20
0.829999923706055,33.7594467401505,-118.122290968895,50,2012-02-10 07:42:21
3.23499989509583,33.7594467401505,-118.122290968895,50,2012-02-10 07:42:24
0.841000080108643,33.7594467401505,-118.122290968895,50,2012-02-10 07:42:25
1.00300002098083,33.7594467401505,-118.122290968895,50,2012-02-10 07:42:26
1.1949999332428,33.7594467401505,-118.122290968895,50,2012-02-10 07:42:27
0.952000141143799,33.7594467401505,-118.122290968895,50,2012-02-10 07:42:28
0.851999998092651,33.7594467401505,-118.122290968895,50,2012-02-10 07:42:29
1.21399998664856,33.7594467401505,-118.122290968895,50,2012-02-10 07:42:30
0.787999868392944,33.7594467401505,-118.122290968895,50,2012-02-10 07:42:31
1.37400007247925,33.7594467401505,-118.122290968895,50,2012-02-10 07:42:32
0.627000093460083,33.7594467401505,-118.122290968895,50,2012-02-10 07:42:33
1,33.7594467401505,-118.122290968895,50,2012-02-10 07:42:34
1.15699982643127,33.7594467401505,-118.122290968895,50,2012-02-10 07:42:35
0.845999956130981,33.7594467401505,-118.122290968895,50,2012-02-10 07:42:36
0.999000072479248,33.7594467401505,-118.122290968895,50,2012-02-10 07:42:37
1.00300002098083,33.7594467401505,-118.122290968895,50,2012-02-10 07:42:38
1.17600011825562,33.7594467401505,-118.122290968895,50,2012-02-10 07:42:39
0.82099986076355,33.7594467401505,-118.122290968895,50,2012-02-10 07:42:40
1.00399994850159,33.7594467401505,-118.122290968895,50,2012-02-10 07:42:41
1.17700004577637,33.7594467401505,-118.122290968895,50,2012-02-10 07:42:42
0.822000026702881,33.7594467401505,-118.122290968895,50,2012-02-10 07:42:43
1.19400000572205,33.7594467401505,-118.122290968895,50,2012-02-10 07:42:44
0.809000015258789,33.7594467401505,-118.122290968895,50,2012-02-10 07:42:45
1.00200009346008,33.7594467401505,-118.122290968895,50,2012-02-10 07:42:46
1.20099997520447,33.7594467401505,-118.122290968895,50,2012-02-10 07:42:47
0.819000005722046,33.7594467401505,-118.122290968895,50,2012-02-10 07:42:48
1.18999981880188,33.7594467401505,-118.122290968895,50,2012-02-10 07:42:49
0.813000202178955,33.7594467401505,-118.122290968895,50,2012-02-10 07:42:50
1.17599987983704,33.7594467401505,-118.122290968895,50,2012-02-10 07:42:51
2.85599994659424,33.7594467401505,-118.122290968895,50,2012-02-10 07:42:54
0.970000028610229,33.7594467401505,-118.122290968895,50,2012-02-10 07:42:55
0.96399998664856,33.7594467401505,-118.122290968895,50,2012-02-10 07:42:56
1.20900011062622,33.7594467401505,-118.122290968895,50,2012-02-10 07:42:57
0.794999837875366,33.7594467401505,-118.122290968895,50,2012-02-10 07:42:58
1.00400018692017,33.7594467401505,-118.122290968895,50,2012-02-10 07:42:59
0.996999979019165,33.7594467401505,-118.122290968895,50,2012-02-10 07:43:00
1.1729998588562,33.7594467401505,-118.122290968895,50,2012-02-10 07:43:01
0.828000068664551,33.7594467401505,-118.122290968895,50,2012-02-10 07:43:02
1.07999992370605,33.7594467401505,-118.122290968895,50,2012-02-10 07:43:03
0.922000169754028,33.7594467401505,-118.122290968895,50,2012-02-10 07:43:04
1.10199999809265,33.7594467401505,-118.122290968895,50,2012-02-10 07:43:05
1.1399998664856,33.7594467401505,-118.122290968895,50,2012-02-10 07:43:06
0.759000062942505,33.7594467401505,-118.122290968895,50,2012-02-10 07:43:07
1.00300002098083,33.7594467401505,-118.122290968895,50,2012-02-10 07:43:08
1.45199990272522,33.7655568122864,-118.138126730919,50,2012-02-10 07:43:09
0.552000045776367,33.7655568122864,-118.138126730919,50,2012-02-10 07:43:10
1.10400009155273,33.7655568122864,-118.138126730919,50,2012-02-10 07:43:11
0.894999980926514,33.7655568122864,-118.138126730919,50,2012-02-10 07:43:12
1.21000003814697,33.7655568122864,-118.138126730919,50,2012-02-10 07:43:13
0.789999961853027,33.7655568122864,-118.138126730919,50,2012-02-10 07:43:14
1.17499995231628,33.7655568122864,-118.138126730919,50,2012-02-10 07:43:15
0.828999996185303,33.7655568122864,-118.138126730919,50,2012-02-10 07:43:16
0.999000072479248,33.7655568122864,-118.138126730919,50,2012-02-10 07:43:17
1.14499998092651,33.7655568122864,-118.138126730919,50,2012-02-10 07:43:18
0.855999946594238,33.7594467401505,-118.122290968895,50,2012-02-10 07:43:19
1.27999997138977,33.7594467401505,-118.122290968895,50,2012-02-10 07:43:20
0.723999977111816,33.7594467401505,-118.122290968895,50,2012-02-10 07:43:21
3.11400008201599,33.7594467401505,-118.122290968895,50,2012-02-10 07:43:24
1.11400008201599,33.7594467401505,-118.122290968895,50,2012-02-10 07:43:25
0.854999780654907,33.7594467401505,-118.122290968895,50,2012-02-10 07:43:26
1.14900016784668,33.7594467401505,-118.122290968895,50,2012-02-10 07:43:27
0.852999925613403,33.7594467401505,-118.122290968895,50,2012-02-10 07:43:28
1.15400004386902,33.7594467401505,-118.122290968895,50,2012-02-10 07:43:29
0.851000070571899,33.7594467401505,-118.122290968895,50,2012-02-10 07:43:30
1.15599989891052,33.7594467401505,-118.122290968895,50,2012-02-10 07:43:31
0.844000101089478,33.7594467401505,-118.122290968895,50,2012-02-10 07:43:32
1.13099980354309,33.7594467401505,-118.122290968895,50,2012-02-10 07:43:33
0.869000196456909,33.7594467401505,-118.122290968895,50,2012-02-10 07:43:34
1.00099992752075,33.7594467401505,-118.122290968895,50,2012-02-10 07:43:35
1.1729998588562,33.7594467401505,-118.122290968895,50,2012-02-10 07:43:36
0.827000141143799,33.7594467401505,-118.122290968895,50,2012-02-10 07:43:37
1.14800000190735,33.7594467401505,-118.122290968895,50,2012-02-10 07:43:38
0.85699987411499,33.7594467401505,-118.122290968895,50,2012-02-10 07:43:39
1.12200021743774,33.7594467401505,-118.122290968895,50,2012-02-10 07:43:40
1.03199982643127,33.7594467401505,-118.122290968895,50,2012-02-10 07:43:41
0.845999956130981,33.7594467401505,-118.122290968895,50,2012-02-10 07:43:42
1.16400003433228,33.7594467401505,-118.122290968895,50,2012-02-10 07:43:43
0.842000007629395,33.7594467401505,-118.122290968895,50,2012-02-10 07:43:44
1.15700006484985,33.7594467401505,-118.122290968895,50,2012-02-10 07:43:45
0.963000059127808,33.7594467401505,-118.122290968895,50,2012-02-10 07:43:46
0.884999990463257,33.7594467401505,-118.122290968895,50,2012-02-10 07:43:47
1.16199994087219,33.7594467401505,-118.122290968895,50,2012-02-10 07:43:48
0.875,33.7594467401505,-118.122290968895,50,2012-02-10 07:43:49
1.23399996757507,33.7594467401505,-118.122290968895,50,2012-02-10 07:43:50
0.730000019073486,33.7594467401505,-118.122290968895,50,2012-02-10 07:43:51
3.05699992179871,33.7594467401505,-118.122290968895,50,2012-02-10 07:43:54
0.999000072479248,33.7594467401505,-118.122290968895,50,2012-02-10 07:43:55
1.04999995231628,33.7594467401505,-118.122290968895,50,2012-02-10 07:43:56
0.953999996185303,33.7594467401505,-118.122290968895,50,2012-02-10 07:43:57
1.10800004005432,33.7594467401505,-118.122290968895,50,2012-02-10 07:43:58
0.890000104904175,33.7594467401505,-118.122290968895,50,2012-02-10 07:43:59
1.00399994850159,33.7594467401505,-118.122290968895,50,2012-02-10 07:44:00
1.0460000038147,33.7594467401505,-118.122290968895,50,2012-02-10 07:44:01
0.953000068664551,33.7594467401505,-118.122290968895,50,2012-02-10 07:44:02
1.00699996948242,33.7594467401505,-118.122290968895,50,2012-02-10 07:44:03
0.996999979019165,33.7594467401505,-118.122290968895,50,2012-02-10 07:44:04
0.999000072479248,33.7594467401505,-118.122290968895,50,2012-02-10 07:44:05
1.03299999237061,33.7594467401505,-118.122290968895,50,2012-02-10 07:44:06
0.968999862670898,33.7594467401505,-118.122290968895,50,2012-02-10 07:44:07
1.00399994850159,33.7594467401505,-118.122290968895,50,2012-02-10 07:44:08
1.0220000743866,33.7594467401505,-118.122290968895,50,2012-02-10 07:44:09
0.976999998092651,33.7594467401505,-118.122290968895,50,2012-02-10 07:44:10
1.00500011444092,33.7594467401505,-118.122290968895,50,2012-02-10 07:44:11
1,33.7594467401505,-118.122290968895,50,2012-02-10 07:44:12
1.01899981498718,33.7594467401505,-118.122290968895,50,2012-02-10 07:44:13
0.982000112533569,33.7594467401505,-118.122290968895,50,2012-02-10 07:44:14
1.09800004959106,33.7594467401505,-118.122290968895,50,2012-02-10 07:44:15
0.899999856948853,33.7594467401505,-118.122290968895,50,2012-02-10 07:44:16
1.00100016593933,33.7594467401505,-118.122290968895,50,2012-02-10 07:44:17
1.0719997882843,33.7594467401505,-118.122290968895,50,2012-02-10 07:44:18
0.92900013923645,33.7594467401505,-118.122290968895,50,2012-02-10 07:44:19
1.36400008201599,33.7594467401505,-118.122290968895,50,2012-02-10 07:44:20
0.637999773025513,33.7594467401505,-118.122290968895,50,2012-02-10 07:44:21
3.06900000572205,33.7594467401505,-118.122290968895,50,2012-02-10 07:44:24
0.930000066757202,33.7594467401505,-118.122290968895,50,2012-02-10 07:44:25
0.990000009536743,33.7594467401505,-118.122290968895,50,2012-02-10 07:44:26
1.11199998855591,33.7594467401505,-118.122290968895,50,2012-02-10 07:44:27
0.891000032424927,33.7594467401505,-118.122290968895,50,2012-02-10 07:44:28
1.00600004196167,33.7594467401505,-118.122290968895,50,2012-02-10 07:44:29
0.994999885559082,33.7594467401505,-118.122290968895,50,2012-02-10 07:44:30
1.27100014686584,33.7594467401505,-118.122290968895,50,2012-02-10 07:44:31
1,33.7594467401505,-118.122290968895,50,2012-02-10 07:44:32
1.00099992752075,33.7594467401505,-118.122290968895,50,2012-02-10 07:44:33
1.09200000762939,33.7594467401505,-118.122290968895,50,2012-02-10 07:44:34
0.907999992370605,33.7594467401505,-118.122290968895,50,2012-02-10 07:44:35
1.11400008201599,33.7594467401505,-118.122290968895,50,2012-02-10 07:44:36
0.924999952316284,33.7594467401505,-118.122290968895,50,2012-02-10 07:44:37
0.964999914169312,33.7594467401505,-118.122290968895,50,2012-02-10 07:44:38
1.10199999809265,33.7594467401505,-118.122290968895,50,2012-02-10 07:44:39
0.898000001907349,33.7594467401505,-118.122290968895,50,2012-02-10 07:44:40
1.14499998092651,33.7594467401505,-118.122290968895,50,2012-02-10 07:44:41
0.858999967575073,33.7594467401505,-118.122290968895,50,2012-02-10 07:44:42
1.1100001335144,33.7594467401505,-118.122290968895,50,2012-02-10 07:44:43
0.888999938964844,33.7594467401505,-118.122290968895,50,2012-02-10 07:44:44
1.14199995994568,33.7594467401505,-118.122290968895,50,2012-02-10 07:44:45
0.972000122070312,33.7766665220261,-118.137568831444,50,2012-02-10 07:44:46
0.888999938964844,33.7766665220261,-118.137568831444,50,2012-02-10 07:44:47
1,33.7766665220261,-118.137568831444,50,2012-02-10 07:44:48
1.00300002098083,33.7766665220261,-118.137568831444,50,2012-02-10 07:44:49
1.00099992752075,33.7766665220261,-118.137568831444,50,2012-02-10 07:44:50
1.16100001335144,33.7766665220261,-118.137568831444,50,2012-02-10 07:44:51
2.94400000572205,33.771248459816,-118.141667246819,50,2012-02-10 07:44:54
0.995000123977661,33.771248459816,-118.141667246819,50,2012-02-10 07:44:55
1.00399994850159,33.771248459816,-118.141667246819,50,2012-02-10 07:44:56
1.05999994277954,33.771248459816,-118.141667246819,50,2012-02-10 07:44:57
0.940000057220459,33.771248459816,-118.141667246819,50,2012-02-10 07:44:58
1.0460000038147,33.771248459816,-118.141667246819,50,2012-02-10 07:44:59
0.956000089645386,33.771248459816,-118.141667246819,50,2012-02-10 07:45:00
1.02300000190735,33.771248459816,-118.141667246819,50,2012-02-10 07:45:01
0.983999967575073,33.771248459816,-118.141667246819,50,2012-02-10 07:45:02
1.07599997520447,33.771248459816,-118.141667246819,50,2012-02-10 07:45:03
0.917999982833862,33.771248459816,-118.141667246819,50,2012-02-10 07:45:04
1.09099984169006,33.771248459816,-118.141667246819,50,2012-02-10 07:45:05
0.91100001335144,33.771248459816,-118.141667246819,50,2012-02-10 07:45:06
1.05100011825562,33.771248459816,-118.141667246819,50,2012-02-10 07:45:07
1.09699988365173,33.771248459816,-118.141667246819,50,2012-02-10 07:45:08
0.853000164031982,33.771248459816,-118.141667246819,50,2012-02-10 07:45:09
1.09800004959106,33.771248459816,-118.141667246819,50,2012-02-10 07:45:10
0.907999992370605,33.771248459816,-118.141667246819,50,2012-02-10 07:45:11
1.10799980163574,33.771248459816,-118.141667246819,50,2012-02-10 07:45:12
0.890000104904175,33.771248459816,-118.141667246819,50,2012-02-10 07:45:13
1.19000005722046,33.771248459816,-118.141667246819,50,2012-02-10 07:45:15
0.810999870300293,33.771248459816,-118.141667246819,50,2012-02-10 07:45:15
1.00100016593933,33.771248459816,-118.141667246819,50,2012-02-10 07:45:16
1.1710000038147,33.771248459816,-118.141667246819,50,2012-02-10 07:45:18
0.828999996185303,33.771248459816,-118.141667246819,50,2012-02-10 07:45:18
1.00299978256226,33.771248459816,-118.141667246819,50,2012-02-10 07:45:19
1,33.771248459816,-118.141667246819,50,2012-02-10 07:45:20
1.0530002117157,33.771248459816,-118.141667246819,50,2012-02-10 07:45:21
2.93699979782104,33.771248459816,-118.141667246819,50,2012-02-10 07:45:24
1.65500020980835,33.771248459816,-118.141667246819,50,2012-02-10 07:45:26
0.34499979019165,33.771248459816,-118.141667246819,50,2012-02-10 07:45:26
1.00100016593933,33.771248459816,-118.141667246819,50,2012-02-10 07:45:27
1.00699996948242,33.771248459816,-118.141667246819,50,2012-02-10 07:45:28
0.999000072479248,33.771248459816,-118.141667246819,50,2012-02-10 07:45:29
1.2519998550415,33.771248459816,-118.141667246819,50,2012-02-10 07:45:31
0.746000051498413,33.771248459816,-118.141667246819,50,2012-02-10 07:45:31
0.999000072479248,33.7594467401505,-118.122290968895,50,2012-02-10 07:45:32
1.00300002098083,33.7594467401505,-118.122290968895,50,2012-02-10 07:45:33
1.22399997711182,33.7594467401505,-118.122290968895,50,2012-02-10 07:45:35
0.776000022888184,33.7594467401505,-118.122290968895,50,2012-02-10 07:45:35
1,33.7594467401505,-118.122290968895,50,2012-02-10 07:45:36
1.0019998550415,33.7594467401505,-118.122290968895,50,2012-02-10 07:45:37
1.05999994277954,33.7594467401505,-118.122290968895,50,2012-02-10 07:45:38
0.940999984741211,33.7594467401505,-118.122290968895,50,2012-02-10 07:45:39
1.00100016593933,33.7594467401505,-118.122290968895,50,2012-02-10 07:45:40
1.00600004196167,33.7594467401505,-118.122290968895,50,2012-02-10 07:45:41
0.99399995803833,33.771248459816,-118.141667246819,50,2012-02-10 07:45:42
1.28199982643127,33.771248459816,-118.141667246819,50,2012-02-10 07:45:44
0.720000028610229,33.771248459816,-118.141667246819,50,2012-02-10 07:45:44
1.00500011444092,33.771248459816,-118.141667246819,50,2012-02-10 07:45:45
0.999000072479248,33.771248459816,-118.141667246819,50,2012-02-10 07:45:46
1,33.771248459816,-118.141667246819,50,2012-02-10 07:45:47
1.00499987602234,33.771248459816,-118.141667246819,50,2012-02-10 07:45:48
0.995000123977661,33.771248459816,-118.141667246819,50,2012-02-10 07:45:49
1.00300002098083,33.771248459816,-118.141667246819,50,2012-02-10 07:45:50
1.00499987602234,33.771248459816,-118.141667246819,50,2012-02-10 07:45:51
2.98300004005432,33.7766665220261,-118.137568831444,50,2012-02-10 07:45:54
1.17799997329712,33.7766665220261,-118.137568831444,50,2012-02-10 07:45:56
1.2739999294281,33.7766665220261,-118.137568831444,50,2012-02-10 07:45:57
0.549999952316284,33.7766665220261,-118.137568831444,50,2012-02-10 07:45:57
1.00200009346008,33.7766665220261,-118.137568831444,50,2012-02-10 07:45:58
1.18400001525879,33.7766665220261,-118.137568831444,50,2012-02-10 07:46:00
0.819000005722046,33.7766665220261,-118.137568831444,50,2012-02-10 07:46:00
1.00200009346008,33.7766665220261,-118.137568831444,50,2012-02-10 07:46:01
0.996999979019165,33.771248459816,-118.141667246819,50,2012-02-10 07:46:02
1.0019998550415,33.771248459816,-118.141667246819,50,2012-02-10 07:46:03
1.06900000572205,33.771248459816,-118.141667246819,50,2012-02-10 07:46:04
0.934000015258789,33.771248459816,-118.141667246819,50,2012-02-10 07:46:05
1.125,33.771248459816,-118.141667246819,50,2012-02-10 07:46:06
1.04999995231628,33.771248459816,-118.141667246819,50,2012-02-10 07:46:08
0.833000183105469,33.771248459816,-118.141667246819,50,2012-02-10 07:46:08
0.99399995803833,33.771248459816,-118.141667246819,50,2012-02-10 07:46:09
1.0019998550415,33.771248459816,-118.141667246819,50,2012-02-10 07:46:10
0.999000072479248,33.771248459816,-118.141667246819,50,2012-02-10 07:46:11
1.00200009346008,33.771248459816,-118.141667246819,50,2012-02-10 07:46:12
0.68999981880188,33.771248459816,-118.141667246819,50,2012-02-10 07:46:13
0.998000144958496,33.771248459816,-118.141667246819,50,2012-02-10 07:46:14
1.00099992752075,33.771248459816,-118.141667246819,50,2012-02-10 07:46:15
1.00099992752075,33.771248459816,-118.141667246819,50,2012-02-10 07:46:16
1.1560001373291,33.771248459816,-118.141667246819,50,2012-02-10 07:46:17
0.848000049591064,33.771248459816,-118.141667246819,50,2012-02-10 07:46:18
0.997999906539917,33.771248459816,-118.141667246819,50,2012-02-10 07:46:19
1.00200009346008,33.771248459816,-118.141667246819,50,2012-02-10 07:46:20
0.998999834060669,33.771248459816,-118.141667246819,50,2012-02-10 07:46:21
2.99300003051758,33.7594467401505,-118.122290968895,50,2012-02-10 07:46:24
0.996999979019165,33.7594467401505,-118.122290968895,50,2012-02-10 07:46:25
1.00200009346008,33.7594467401505,-118.122290968895,50,2012-02-10 07:46:26
1.00099992752075,33.7594467401505,-118.122290968895,50,2012-02-10 07:46:27
1.3730001449585,33.7594467401505,-118.122290968895,50,2012-02-10 07:46:28
0.630999803543091,33.7594467401505,-118.122290968895,50,2012-02-10 07:46:29
0.999000072479248,33.7594467401505,-118.122290968895,50,2012-02-10 07:46:30
0.998000144958496,33.7594467401505,-118.122290968895,50,2012-02-10 07:46:31
1.00099992752075,33.7594467401505,-118.122290968895,50,2012-02-10 07:46:32
1,33.771248459816,-118.141667246819,50,2012-02-10 07:46:33
1.00600004196167,33.771248459816,-118.141667246819,50,2012-02-10 07:46:34
0.997999906539917,33.771248459816,-118.141667246819,50,2012-02-10 07:46:35
1,33.771248459816,-118.141667246819,50,2012-02-10 07:46:36
0.999000072479248,33.771248459816,-118.141667246819,50,2012-02-10 07:46:37
1.22599983215332,33.771248459816,-118.141667246819,50,2012-02-10 07:46:38
0.775000095367432,33.771248459816,-118.141667246819,50,2012-02-10 07:46:39
1.00399994850159,33.771248459816,-118.141667246819,50,2012-02-10 07:46:40
0.999000072479248,33.771248459816,-118.141667246819,50,2012-02-10 07:46:41
1.0699999332428,33.771248459816,-118.141667246819,50,2012-02-10 07:46:42
0.947999954223633,33.7594467401505,-118.122290968895,50,2012-02-10 07:46:43
0.996000051498413,33.7594467401505,-118.122290968895,50,2012-02-10 07:46:44
1.00399994850159,33.7594467401505,-118.122290968895,50,2012-02-10 07:46:45
0.997000217437744,33.7594467401505,-118.122290968895,50,2012-02-10 07:46:46
1.00399994850159,33.7594467401505,-118.122290968895,50,2012-02-10 07:46:47
0.997999906539917,33.7594467401505,-118.122290968895,50,2012-02-10 07:46:48
1.00099992752075,33.7594467401505,-118.122290968895,50,2012-02-10 07:46:49
1.00600004196167,33.7594467401505,-118.122290968895,50,2012-02-10 07:46:50
1.45300006866455,33.7594467401505,-118.122290968895,50,2012-02-10 07:46:52
2.52099990844727,33.7594467401505,-118.122290968895,50,2012-02-10 07:46:54
1.02300000190735,33.7594467401505,-118.122290968895,50,2012-02-10 07:46:55
0.981000185012817,33.7594467401505,-118.122290968895,50,2012-02-10 07:46:56
0.995999813079834,33.7594467401505,-118.122290968895,50,2012-02-10 07:46:57
1.00100016593933,33.7594467401505,-118.122290968895,50,2012-02-10 07:46:58
1.01199984550476,33.7594467401505,-118.122290968895,50,2012-02-10 07:46:59
1.25100016593933,33.7594467401505,-118.122290968895,50,2012-02-10 07:47:00
0.73799991607666,33.7594467401505,-118.122290968895,50,2012-02-10 07:47:01
1.00600004196167,33.7594467401505,-118.122290968895,50,2012-02-10 07:47:02
0.996000051498413,33.7594467401505,-118.122290968895,50,2012-02-10 07:47:03
1.00799989700317,33.7594467401505,-118.122290968895,50,2012-02-10 07:47:04
0.993000030517578,33.7594467401505,-118.122290968895,50,2012-02-10 07:47:05
1.00499987602234,33.7594467401505,-118.122290968895,50,2012-02-10 07:47:06
0.999000072479248,33.7594467401505,-118.122290968895,50,2012-02-10 07:47:07
1.00099992752075,33.7594467401505,-118.122290968895,50,2012-02-10 07:47:08
0.999000072479248,33.7594467401505,-118.122290968895,50,2012-02-10 07:47:09
1.00099992752075,33.7594467401505,-118.122290968895,50,2012-02-10 07:47:10
1.13499999046326,33.7594467401505,-118.122290968895,50,2012-02-10 07:47:11
0.867000102996826,33.7594467401505,-118.122290968895,50,2012-02-10 07:47:12
1.00300002098083,33.7594467401505,-118.122290968895,50,2012-02-10 07:47:13
0.996999979019165,33.7594467401505,-118.122290968895,50,2012-02-10 07:47:14
1.00200009346008,33.7594467401505,-118.122290968895,50,2012-02-10 07:47:15
1.34299993515015,33.7594467401505,-118.122290968895,50,2012-02-10 07:47:16
0.661999940872192,33.7594467401505,-118.122290968895,50,2012-02-10 07:47:17
0.996999979019165,33.7594467401505,-118.122290968895,50,2012-02-10 07:47:18
0.999000072479248,33.7594467401505,-118.122290968895,50,2012-02-10 07:47:19
1.00499987602234,33.7594467401505,-118.122290968895,50,2012-02-10 07:47:20
0.997000217437744,33.7594467401505,-118.122290968895,50,2012-02-10 07:47:21
2.99199986457825,33.7655568122864,-118.138126730919,50,2012-02-10 07:47:24
1.17799997329712,33.7655568122864,-118.138126730919,50,2012-02-10 07:47:25
0.822999954223633,33.7655568122864,-118.138126730919,50,2012-02-10 07:47:26
1,33.7655568122864,-118.138126730919,50,2012-02-10 07:47:27
1.01100015640259,33.7655568122864,-118.138126730919,50,2012-02-10 07:47:28
1.18599987030029,33.7655568122864,-118.138126730919,50,2012-02-10 07:47:29
0.805000066757202,33.7640976905823,-118.145486712456,50,2012-02-10 07:47:30
1.0090000629425,33.7640976905823,-118.145486712456,50,2012-02-10 07:47:31
1.01900005340576,33.7655568122864,-118.138126730919,50,2012-02-10 07:47:32
0.97599983215332,33.7655568122864,-118.138126730919,50,2012-02-10 07:47:33
1.17000007629395,33.7655568122864,-118.138126730919,50,2012-02-10 07:47:34
0.835000038146973,33.7655568122864,-118.138126730919,50,2012-02-10 07:47:35
0.998999834060669,33.7655568122864,-118.138126730919,50,2012-02-10 07:47:36
0.999000072479248,33.7655568122864,-118.138126730919,50,2012-02-10 07:47:37
1,33.7655568122864,-118.138126730919,50,2012-02-10 07:47:38
1.0220000743866,33.7655568122864,-118.138126730919,50,2012-02-10 07:47:39
1.1949999332428,33.7655568122864,-118.138126730919,50,2012-02-10 07:47:40
0.78600001335144,33.7655568122864,-118.138126730919,50,2012-02-10 07:47:41
1.00500011444092,33.7655568122864,-118.138126730919,50,2012-02-10 07:47:42
0.998999834060669,33.7655568122864,-118.138126730919,50,2012-02-10 07:47:43
0.996000051498413,33.7655568122864,-118.138126730919,50,2012-02-10 07:47:44
1.09299993515015,33.7655568122864,-118.138126730919,50,2012-02-10 07:47:45
0.91100001335144,33.7655568122864,-118.138126730919,50,2012-02-10 07:47:46
1.24500012397766,33.7655568122864,-118.138126730919,50,2012-02-10 07:47:47
0.759000062942505,33.7655568122864,-118.138126730919,50,2012-02-10 07:47:48
0.998999834060669,33.7655568122864,-118.138126730919,50,2012-02-10 07:47:49
1.00200009346008,33.7655568122864,-118.138126730919,50,2012-02-10 07:47:50
1,33.7655568122864,-118.138126730919,50,2012-02-10 07:47:51
2.98300004005432,33.7655568122864,-118.138126730919,50,2012-02-10 07:47:54
1.19599986076355,33.7655568122864,-118.138126730919,50,2012-02-10 07:47:55
0.407000064849854,33.7655568122864,-118.138126730919,50,2012-02-10 07:47:56
1,33.7655568122864,-118.138126730919,50,2012-02-10 07:47:57
1.00099992752075,33.7655568122864,-118.138126730919,50,2012-02-10 07:47:58
1.00200009346008,33.7655568122864,-118.138126730919,50,2012-02-10 07:47:59
1,33.7655568122864,-118.138126730919,50,2012-02-10 07:48:00
1.03200006484985,33.7655568122864,-118.138126730919,50,2012-02-10 07:48:01
0.968999862670898,33.7655568122864,-118.138126730919,50,2012-02-10 07:48:02
1.03500008583069,33.7655568122864,-118.138126730919,50,2012-02-10 07:48:03
0.967000007629395,33.7655568122864,-118.138126730919,50,2012-02-10 07:48:04
0.998999834060669,33.7655568122864,-118.138126730919,50,2012-02-10 07:48:05
1.00200009346008,33.7655568122864,-118.138126730919,50,2012-02-10 07:48:06
1,33.7655568122864,-118.138126730919,50,2012-02-10 07:48:07
1.00300002098083,33.7655568122864,-118.138126730919,50,2012-02-10 07:48:08
0.999000072479248,33.7655568122864,-118.138126730919,50,2012-02-10 07:48:09
1.00399994850159,33.7655568122864,-118.138126730919,50,2012-02-10 07:48:10
1.21799993515015,33.7655568122864,-118.138126730919,50,2012-02-10 07:48:11
0.779999971389771,33.7655568122864,-118.138126730919,50,2012-02-10 07:48:12
1.00200009346008,33.7655568122864,-118.138126730919,50,2012-02-10 07:48:13
0.999000072479248,33.7655568122864,-118.138126730919,50,2012-02-10 07:48:14
1.0019998550415,33.7655568122864,-118.138126730919,50,2012-02-10 07:48:15
0.999000072479248,33.7655568122864,-118.138126730919,50,2012-02-10 07:48:16
1.06800007820129,33.7655568122864,-118.138126730919,50,2012-02-10 07:48:17
0.936999797821045,33.7655568122864,-118.138126730919,50,2012-02-10 07:48:18
1.00800013542175,33.7655568122864,-118.138126730919,50,2012-02-10 07:48:19
0.990999937057495,33.7655568122864,-118.138126730919,50,2012-02-10 07:48:20
1,33.7655568122864,-118.138126730919,50,2012-02-10 07:48:21
3.00399994850159,33.7655568122864,-118.138126730919,50,2012-02-10 07:48:24
1.13499999046326,33.7655568122864,-118.138126730919,50,2012-02-10 07:48:25
1.32200002670288,33.7655568122864,-118.138126730919,50,2012-02-10 07:48:26
0.542999982833862,33.7655568122864,-118.138126730919,50,2012-02-10 07:48:27
1.00100016593933,33.7655568122864,-118.138126730919,50,2012-02-10 07:48:28
1.08699989318848,33.7655568122864,-118.138126730919,50,2012-02-10 07:48:29
0.914999961853027,33.7655568122864,-118.138126730919,50,2012-02-10 07:48:30
1.25100016593933,33.7655568122864,-118.138126730919,50,2012-02-10 07:48:31
0.753999948501587,33.7655568122864,-118.138126730919,50,2012-02-10 07:48:32
0.996999979019165,33.7655568122864,-118.138126730919,50,2012-02-10 07:48:33
1.19700002670288,33.7655568122864,-118.138126730919,50,2012-02-10 07:48:34
0.803999900817871,33.7655568122864,-118.138126730919,50,2012-02-10 07:48:35
1.47300004959106,33.7655568122864,-118.138126730919,50,2012-02-10 07:48:36
0.529000043869019,33.7655568122864,-118.138126730919,50,2012-02-10 07:48:37
1.15599989891052,33.7655568122864,-118.138126730919,50,2012-02-10 07:48:38
0.845999956130981,33.7655568122864,-118.138126730919,50,2012-02-10 07:48:39
1,33.7655568122864,-118.138126730919,50,2012-02-10 07:48:40
1.00999999046326,33.7655568122864,-118.138126730919,50,2012-02-10 07:48:41
1.26100015640259,33.7655568122864,-118.138126730919,50,2012-02-10 07:48:42
0.753000020980835,33.7640976905823,-118.145486712456,50,2012-02-10 07:48:43
0.980000019073486,33.7640976905823,-118.145486712456,50,2012-02-10 07:48:44
0.998999834060669,33.7640976905823,-118.145486712456,50,2012-02-10 07:48:45
1.00800013542175,33.7640976905823,-118.145486712456,50,2012-02-10 07:48:46
1.08099985122681,33.7640976905823,-118.145486712456,50,2012-02-10 07:48:47
0.915000200271606,33.7640976905823,-118.145486712456,50,2012-02-10 07:48:48
0.998999834060669,33.7640976905823,-118.145486712456,50,2012-02-10 07:48:49
1.00399994850159,33.7640976905823,-118.145486712456,50,2012-02-10 07:48:50
0.998000144958496,33.7640976905823,-118.145486712456,50,2012-02-10 07:48:51
2.99000000953674,33.7640976905823,-118.145486712456,50,2012-02-10 07:48:54
1.00099992752075,33.7640976905823,-118.145486712456,50,2012-02-10 07:48:55
1.00099992752075,33.7640976905823,-118.145486712456,50,2012-02-10 07:48:56
1.00100016593933,33.7640976905823,-118.145486712456,50,2012-02-10 07:48:57
1,33.7640976905823,-118.145486712456,50,2012-02-10 07:48:58
1.0019998550415,33.7640976905823,-118.145486712456,50,2012-02-10 07:48:59
1.00600004196167,33.7640976905823,-118.145486712456,50,2012-02-10 07:49:00
1.01099991798401,33.7640976905823,-118.145486712456,50,2012-02-10 07:49:01
0.983000040054321,33.7640976905823,-118.145486712456,50,2012-02-10 07:49:02
1.00100016593933,33.7640976905823,-118.145486712456,50,2012-02-10 07:49:03
1.00099992752075,33.7640976905823,-118.145486712456,50,2012-02-10 07:49:04
1.00200009346008,33.7640976905823,-118.145486712456,50,2012-02-10 07:49:05
1.15999984741211,33.7640976905823,-118.145486712456,50,2012-02-10 07:49:06
0.842000007629395,33.7640976905823,-118.145486712456,50,2012-02-10 07:49:07
1.00099992752075,33.7640976905823,-118.145486712456,50,2012-02-10 07:49:08
0.998000144958496,33.7640976905823,-118.145486712456,50,2012-02-10 07:49:09
1.11500000953674,33.7640976905823,-118.145486712456,50,2012-02-10 07:49:10
0.829999923706055,33.7640976905823,-118.145486712456,50,2012-02-10 07:49:11
0.921999931335449,33.7640976905823,-118.145486712456,50,2012-02-10 07:49:12
0.999000072479248,33.7640976905823,-118.145486712456,50,2012-02-10 07:49:13
1.00200009346008,33.7640976905823,-118.145486712456,50,2012-02-10 07:49:14
1.68999981880188,33.7640976905823,-118.145486712456,50,2012-02-10 07:49:15
1.07800006866455,33.7640976905823,-118.145486712456,50,2012-02-10 07:49:16
0.92300009727478,33.7640976905823,-118.145486712456,50,2012-02-10 07:49:17
0.998999834060669,33.7640976905823,-118.145486712456,50,2012-02-10 07:49:18
1.00300002098083,33.7640976905823,-118.145486712456,50,2012-02-10 07:49:19
0.999000072479248,33.7640976905823,-118.145486712456,50,2012-02-10 07:49:20
1.07299995422363,33.7640976905823,-118.145486712456,50,2012-02-10 07:49:21
2.91100001335144,33.7640976905823,-118.145486712456,50,2012-02-10 07:49:24
1.00200009346008,33.7640976905823,-118.145486712456,50,2012-02-10 07:49:25
0.628000020980835,33.7640976905823,-118.145486712456,50,2012-02-10 07:49:26
1.01099991798401,33.7640976905823,-118.145486712456,50,2012-02-10 07:49:27
0.992000102996826,33.7640976905823,-118.145486712456,50,2012-02-10 07:49:28
0.995999813079834,33.7640976905823,-118.145486712456,50,2012-02-10 07:49:29
1.00200009346008,33.7640976905823,-118.145486712456,50,2012-02-10 07:49:30
1.00099992752075,33.7640976905823,-118.145486712456,50,2012-02-10 07:49:31
1.00500011444092,33.7640976905823,-118.145486712456,50,2012-02-10 07:49:32
0.994999885559082,33.7640976905823,-118.145486712456,50,2012-02-10 07:49:33
1.00500011444092,33.7640976905823,-118.145486712456,50,2012-02-10 07:49:34
0.999000072479248,33.7640976905823,-118.145486712456,50,2012-02-10 07:49:35
1.08499979972839,33.7640976905823,-118.145486712456,50,2012-02-10 07:49:36
0.925000190734863,33.7640976905823,-118.145486712456,50,2012-02-10 07:49:37
0.99399995803833,33.7640976905823,-118.145486712456,50,2012-02-10 07:49:38
0.997999906539917,33.7640976905823,-118.145486712456,50,2012-02-10 07:49:39
1.07200002670288,33.7640976905823,-118.145486712456,50,2012-02-10 07:49:40
1.02800011634827,33.7640976905823,-118.145486712456,50,2012-02-10 07:49:41
0.904999971389771,33.7640976905823,-118.145486712456,50,2012-02-10 07:49:42
0.997999906539917,33.7640976905823,-118.145486712456,50,2012-02-10 07:49:43
1.00600004196167,33.7640976905823,-118.145486712456,50,2012-02-10 07:49:44
0.994999885559082,33.7640976905823,-118.145486712456,50,2012-02-10 07:49:45
1.00800013542175,33.7640976905823,-118.145486712456,50,2012-02-10 07:49:46
0.994999885559082,33.7640976905823,-118.145486712456,50,2012-02-10 07:49:47
1.00200009346008,33.7640976905823,-118.145486712456,50,2012-02-10 07:49:48
1,33.7640976905823,-118.145486712456,50,2012-02-10 07:49:49
1.00099992752075,33.7640976905823,-118.145486712456,50,2012-02-10 07:49:50
1.06900000572205,33.7640976905823,-118.145486712456,50,2012-02-10 07:49:51
3.19099998474121,33.7640976905823,-118.145486712456,50,2012-02-10 07:49:54
0.728000164031982,33.7640976905823,-118.145486712456,50,2012-02-10 07:49:55
1.00399994850159,33.7640976905823,-118.145486712456,50,2012-02-10 07:49:56
0.997999906539917,33.7640976905823,-118.145486712456,50,2012-02-10 07:49:57
1.08599996566772,33.7640976905823,-118.145486712456,50,2012-02-10 07:49:58
0.916000127792358,33.7640976905823,-118.145486712456,50,2012-02-10 07:49:59
0.998999834060669,33.7640976905823,-118.145486712456,50,2012-02-10 07:50:00
1.07200002670288,33.7640976905823,-118.145486712456,50,2012-02-10 07:50:01
0.92900013923645,33.7640976905823,-118.145486712456,50,2012-02-10 07:50:02
1.00899982452393,33.7640976905823,-118.145486712456,50,2012-02-10 07:50:03
0.993000030517578,33.7640976905823,-118.145486712456,50,2012-02-10 07:50:04
1,33.7640976905823,-118.145486712456,50,2012-02-10 07:50:05
1.00600004196167,33.7640976905823,-118.145486712456,50,2012-02-10 07:50:06
1.00500011444092,33.7640976905823,-118.145486712456,50,2012-02-10 07:50:07
1.46399998664856,33.7653475999832,-118.154793977737,50,2012-02-10 07:50:08
0.527999877929688,33.7653475999832,-118.154793977737,50,2012-02-10 07:50:09
1,33.7653475999832,-118.154793977737,50,2012-02-10 07:50:10
1.38199996948242,33.7653475999832,-118.154793977737,50,2012-02-10 07:50:11
0.620000123977661,33.7653475999832,-118.154793977737,50,2012-02-10 07:50:12
1.00300002098083,33.7653475999832,-118.154793977737,50,2012-02-10 07:50:13
1.09200000762939,33.7653475999832,-118.154793977737,50,2012-02-10 07:50:14
0.907999992370605,33.7653475999832,-118.154793977737,50,2012-02-10 07:50:15
1.73699998855591,33.7653475999832,-118.154793977737,50,2012-02-10 07:50:17
0.263999938964844,33.7653475999832,-118.154793977737,50,2012-02-10 07:50:17
1.00300002098083,33.7653475999832,-118.154793977737,50,2012-02-10 07:50:18
1.36999988555908,33.7653475999832,-118.154793977737,50,2012-02-10 07:50:19
0.632000207901001,33.7653475999832,-118.154793977737,50,2012-02-10 07:50:20
1.00499987602234,33.7653475999832,-118.154793977737,50,2012-02-10 07:50:21
2.9850001335144,33.7653475999832,-118.154793977737,50,2012-02-10 07:50:24
1.02699995040894,33.7653475999832,-118.154793977737,50,2012-02-10 07:50:25
0.970000028610229,33.7653475999832,-118.154793977737,50,2012-02-10 07:50:26
1.00300002098083,33.7653475999832,-118.154793977737,50,2012-02-10 07:50:27
0.996999979019165,33.7653475999832,-118.154793977737,50,2012-02-10 07:50:28
1.00599980354309,33.7653475999832,-118.154793977737,50,2012-02-10 07:50:29
0.996000051498413,33.7653475999832,-118.154793977737,50,2012-02-10 07:50:30
1.00200009346008,33.7653475999832,-118.154793977737,50,2012-02-10 07:50:31
1.00399994850159,33.7653475999832,-118.154793977737,50,2012-02-10 07:50:32
0.996000051498413,33.7653475999832,-118.154793977737,50,2012-02-10 07:50:33
1.00099992752075,33.7653475999832,-118.154793977737,50,2012-02-10 07:50:34
1.00200009346008,33.7653475999832,-118.154793977737,50,2012-02-10 07:50:35
1.10399985313416,33.7653475999832,-118.154793977737,50,2012-02-10 07:50:36
0.897000074386597,33.7653475999832,-118.154793977737,50,2012-02-10 07:50:37
1,33.7653475999832,-118.154793977737,50,2012-02-10 07:50:38
1.00300002098083,33.7653475999832,-118.154793977737,50,2012-02-10 07:50:39
1.1010000705719,33.7653475999832,-118.154793977737,50,2012-02-10 07:50:40
0.967000007629395,33.7653475999832,-118.154793977737,50,2012-02-10 07:50:41
0.937000036239624,33.7653475999832,-118.154793977737,50,2012-02-10 07:50:42
0.994999885559082,33.7653475999832,-118.154793977737,50,2012-02-10 07:50:43
1.14800000190735,33.7653475999832,-118.154793977737,50,2012-02-10 07:50:44
0.858000040054321,33.7653475999832,-118.154793977737,50,2012-02-10 07:50:45
1.41499996185303,33.7653475999832,-118.154793977737,50,2012-02-10 07:50:46
0.582000017166138,33.7653475999832,-118.154793977737,50,2012-02-10 07:50:47
1.00200009346008,33.7653475999832,-118.154793977737,50,2012-02-10 07:50:48
0.860999822616577,33.7653475999832,-118.154793977737,50,2012-02-10 07:50:49
0.891999959945679,33.7653475999832,-118.154793977737,50,2012-02-10 07:50:50
1.00300002098083,33.7653475999832,-118.154793977737,50,2012-02-10 07:50:51
2.9850001335144,33.7653475999832,-118.154793977737,50,2012-02-10 07:50:54
1,33.7653475999832,-118.154793977737,50,2012-02-10 07:50:55
1.09699988365173,33.7653475999832,-118.154793977737,50,2012-02-10 07:50:56
0.904000043869019,33.7653475999832,-118.154793977737,50,2012-02-10 07:50:57
1.26600003242493,33.7653475999832,-118.154793977737,50,2012-02-10 07:50:58
0.734999895095825,33.7653475999832,-118.154793977737,50,2012-02-10 07:50:59
1.00400018692017,33.7653475999832,-118.154793977737,50,2012-02-10 07:51:00
0.998999834060669,33.7653475999832,-118.154793977737,50,2012-02-10 07:51:01
1.19099998474121,33.7653475999832,-118.154793977737,50,2012-02-10 07:51:02
0.811000108718872,33.7653475999832,-118.154793977737,50,2012-02-10 07:51:03
1,33.7653475999832,-118.154793977737,50,2012-02-10 07:51:04
1.00699996948242,33.7653475999832,-118.154793977737,50,2012-02-10 07:51:05
1.28200006484985,33.7653475999832,-118.154793977737,50,2012-02-10 07:51:06
0.892999887466431,33.7653475999832,-118.154793977737,50,2012-02-10 07:51:07
0.822000026702881,33.7653475999832,-118.154793977737,50,2012-02-10 07:51:08
1.00099992752075,33.7653475999832,-118.154793977737,50,2012-02-10 07:51:09
1.00600004196167,33.7653475999832,-118.154793977737,50,2012-02-10 07:51:10
1.13800001144409,33.7653475999832,-118.154793977737,50,2012-02-10 07:51:11
0.855999946594238,33.7653475999832,-118.154793977737,50,2012-02-10 07:51:12
1.00500011444092,33.7653475999832,-118.154793977737,50,2012-02-10 07:51:13
0.996999979019165,33.7653475999832,-118.154793977737,50,2012-02-10 07:51:14
1.07599997520447,33.7653475999832,-118.154793977737,50,2012-02-10 07:51:15
1.12700009346008,33.7653475999832,-118.154793977737,50,2012-02-10 07:51:16
0.799999952316284,33.7653475999832,-118.154793977737,50,2012-02-10 07:51:17
1,33.7653475999832,-118.154793977737,50,2012-02-10 07:51:18
1.00399994850159,33.7653475999832,-118.154793977737,50,2012-02-10 07:51:19
1.2409999370575,33.7653475999832,-118.154793977737,50,2012-02-10 07:51:20
0.819000005722046,33.7653475999832,-118.154793977737,50,2012-02-10 07:51:21
3.12000012397766,33.7653475999832,-118.154793977737,50,2012-02-10 07:51:24
0.806999921798706,33.7653475999832,-118.154793977737,50,2012-02-10 07:51:25
1.0770001411438,33.7653475999832,-118.154793977737,50,2012-02-10 07:51:26
0.922999858856201,33.7653475999832,-118.154793977737,50,2012-02-10 07:51:27
1.00300002098083,33.7653475999832,-118.154793977737,50,2012-02-10 07:51:28
1.00500011444092,33.7653475999832,-118.154793977737,50,2012-02-10 07:51:29
0.994999885559082,33.7653475999832,-118.154793977737,50,2012-02-10 07:51:30
1.08200001716614,33.7653475999832,-118.154793977737,50,2012-02-10 07:51:31
0.918999910354614,33.7653475999832,-118.154793977737,50,2012-02-10 07:51:32
1.22500014305115,33.7653475999832,-118.154793977737,50,2012-02-10 07:51:33
0.776999950408936,33.7653475999832,-118.154793977737,50,2012-02-10 07:51:34
1.00399994850159,33.7653475999832,-118.154793977737,50,2012-02-10 07:51:35
1.06500005722046,33.7653475999832,-118.154793977737,50,2012-02-10 07:51:36
0.934999942779541,33.7653475999832,-118.154793977737,50,2012-02-10 07:51:37
1.18900012969971,33.7653475999832,-118.154793977737,50,2012-02-10 07:51:38
0.812000036239624,33.7653475999832,-118.154793977737,50,2012-02-10 07:51:39
1.0019998550415,33.7653475999832,-118.154793977737,50,2012-02-10 07:51:40
1.08500003814697,33.7669461965561,-118.15993309021,50,2012-02-10 07:51:41
1.14100003242493,33.7669461965561,-118.15993309021,50,2012-02-10 07:51:42
0.773000001907349,33.7669461965561,-118.15993309021,50,2012-02-10 07:51:43
1.00600004196167,33.7669461965561,-118.15993309021,50,2012-02-10 07:51:44
0.995999813079834,33.7669461965561,-118.15993309021,50,2012-02-10 07:51:45
1.06800007820129,33.7669461965561,-118.15993309021,50,2012-02-10 07:51:46
0.940000057220459,33.7669461965561,-118.15993309021,50,2012-02-10 07:51:47
0.99399995803833,33.7669461965561,-118.15993309021,50,2012-02-10 07:51:48
1.00500011444092,33.7669461965561,-118.15993309021,50,2012-02-10 07:51:49
0.995999813079834,33.7669461965561,-118.15993309021,50,2012-02-10 07:51:50
1.54100012779236,33.7669461965561,-118.15993309021,50,2012-02-10 07:51:51
2.45000004768372,33.7669461965561,-118.15993309021,50,2012-02-10 07:51:54
1.00699996948242,33.7669461965561,-118.15993309021,50,2012-02-10 07:51:55
1.24499988555908,33.7669461965561,-118.15993309021,50,2012-02-10 07:51:56
0.755000114440918,33.7669461965561,-118.15993309021,50,2012-02-10 07:51:57
0.994999885559082,33.7669461965561,-118.15993309021,50,2012-02-10 07:51:58
1.0310001373291,33.7669461965561,-118.15993309021,50,2012-02-10 07:51:59
0.971999883651733,33.7669461965561,-118.15993309021,50,2012-02-10 07:52:00
1.61100006103516,33.7669461965561,-118.15993309021,50,2012-02-10 07:52:01
0.388999938964844,33.7669461965561,-118.15993309021,50,2012-02-10 07:52:02
1.00399994850159,33.7669461965561,-118.15993309021,50,2012-02-10 07:52:03
1,33.7669461965561,-118.15993309021,50,2012-02-10 07:52:04
0.999000072479248,33.7669461965561,-118.15993309021,50,2012-02-10 07:52:05
1.18300008773804,33.7669461965561,-118.15993309021,50,2012-02-10 07:52:06
0.819000005722046,33.7669461965561,-118.15993309021,50,2012-02-10 07:52:07
1.00099992752075,33.7669461965561,-118.15993309021,50,2012-02-10 07:52:08
1.00699996948242,33.7669461965561,-118.15993309021,50,2012-02-10 07:52:09
0.996000051498413,33.7669461965561,-118.15993309021,50,2012-02-10 07:52:10
1.05900001525879,33.7669461965561,-118.15993309021,50,2012-02-10 07:52:11
0.941999912261963,33.7669461965561,-118.15993309021,50,2012-02-10 07:52:12
1.00500011444092,33.7669461965561,-118.15993309021,50,2012-02-10 07:52:13
0.994999885559082,33.7669461965561,-118.15993309021,50,2012-02-10 07:52:14
1.00999999046326,33.7669461965561,-118.15993309021,50,2012-02-10 07:52:15
1.35899996757507,33.7669461965561,-118.15993309021,50,2012-02-10 07:52:16
0.634999990463257,33.7669461965561,-118.15993309021,50,2012-02-10 07:52:17
1.21800017356873,33.7669461965561,-118.15993309021,50,2012-02-10 07:52:18
0.784999847412109,33.7669461965561,-118.15993309021,50,2012-02-10 07:52:19
1.00300002098083,33.7669461965561,-118.15993309021,50,2012-02-10 07:52:20
1.06500005722046,33.7669461965561,-118.15993309021,50,2012-02-10 07:52:21
2.93400001525879,33.7669461965561,-118.15993309021,50,2012-02-10 07:52:24
1.00300002098083,33.7669461965561,-118.15993309021,50,2012-02-10 07:52:25
1.53999996185303,33.7669461965561,-118.15993309021,50,2012-02-10 07:52:26
0.464999914169312,33.7669461965561,-118.15993309021,50,2012-02-10 07:52:27
1.00400018692017,33.7669461965561,-118.15993309021,50,2012-02-10 07:52:28
0.996999979019165,33.7669461965561,-118.15993309021,50,2012-02-10 07:52:29
1.25499987602234,33.7669461965561,-118.15993309021,50,2012-02-10 07:52:30
1.48200011253357,33.6628496646881,-118.216527700424,50,2012-02-10 07:52:31
0.529000043869019,33.6628496646881,-118.216527700424,50,2012-02-10 07:52:32
0.991999864578247,33.6628496646881,-118.216527700424,50,2012-02-10 07:52:33
1.03600001335144,33.6628496646881,-118.216527700424,50,2012-02-10 07:52:34
0.963000059127808,33.6628496646881,-118.216527700424,50,2012-02-10 07:52:35
1.2739999294281,33.6628496646881,-118.216527700424,50,2012-02-10 07:52:36
0.727999925613403,33.6628496646881,-118.216527700424,50,2012-02-10 07:52:37
1.00200009346008,33.6628496646881,-118.216527700424,50,2012-02-10 07:52:38
1.11800003051758,33.6628496646881,-118.216527700424,50,2012-02-10 07:52:39
0.884000062942505,33.6628496646881,-118.216527700424,50,2012-02-10 07:52:40
1.0149998664856,33.6628496646881,-118.216527700424,50,2012-02-10 07:52:41
0.983000040054321,33.6628496646881,-118.216527700424,50,2012-02-10 07:52:42
1.1010000705719,33.6628496646881,-118.216527700424,50,2012-02-10 07:52:43
1.36500000953674,33.6628496646881,-118.216527700424,50,2012-02-10 07:52:44
0.995999813079834,33.6628496646881,-118.216527700424,50,2012-02-10 07:52:45
1.00400018692017,33.6628496646881,-118.216527700424,50,2012-02-10 07:52:46
1.11199998855591,33.6628496646881,-118.216527700424,50,2012-02-10 07:52:48
0.925999879837036,33.6628496646881,-118.216527700424,50,2012-02-10 07:52:48
0.963000059127808,33.6628496646881,-118.216527700424,50,2012-02-10 07:52:49
1.00099992752075,33.6628496646881,-118.216527700424,50,2012-02-10 07:52:50
1.15200018882751,33.6628496646881,-118.216527700424,50,2012-02-10 07:52:52
2.74899983406067,33.6628496646881,-118.216527700424,50,2012-02-10 07:52:54
0.96399998664856,33.6628496646881,-118.216527700424,50,2012-02-10 07:52:55
1.00200009346008,33.6628496646881,-118.216527700424,50,2012-02-10 07:52:56
1.00099992752075,33.6628496646881,-118.216527700424,50,2012-02-10 07:52:57
1.03600001335144,33.6628496646881,-118.216527700424,50,2012-02-10 07:52:58
0.96399998664856,33.6628496646881,-118.216527700424,50,2012-02-10 07:52:59
1.00200009346008,33.6628496646881,-118.216527700424,50,2012-02-10 07:53:00
1.01399993896484,33.6628496646881,-118.216527700424,50,2012-02-10 07:53:01
0.986999988555908,33.6628496646881,-118.216527700424,50,2012-02-10 07:53:02
1.00300002098083,33.6628496646881,-118.216527700424,50,2012-02-10 07:53:03
0.997999906539917,33.6628496646881,-118.216527700424,50,2012-02-10 07:53:04
1.00200009346008,33.6628496646881,-118.216527700424,50,2012-02-10 07:53:05
1.33500003814697,33.6628496646881,-118.216527700424,50,2012-02-10 07:53:07
0.664999961853027,33.6628496646881,-118.216527700424,50,2012-02-10 07:53:07
1,33.6628496646881,-118.216527700424,50,2012-02-10 07:53:08
1.00200009346008,33.6628496646881,-118.216527700424,50,2012-02-10 07:53:09
1.03600001335144,33.6628496646881,-118.216527700424,50,2012-02-10 07:53:10
1.03099989891052,33.6628496646881,-118.216527700424,50,2012-02-10 07:53:11
0.934999942779541,33.6628496646881,-118.216527700424,50,2012-02-10 07:53:12
1.00100016593933,33.6628496646881,-118.216527700424,50,2012-02-10 07:53:13
1,33.6628496646881,-118.216527700424,50,2012-02-10 07:53:14
1.0019998550415,33.6628496646881,-118.216527700424,50,2012-02-10 07:53:15
0.999000072479248,33.6628496646881,-118.216527700424,50,2012-02-10 07:53:16
1,33.6628496646881,-118.216527700424,50,2012-02-10 07:53:17
1.00099992752075,33.6628496646881,-118.216527700424,50,2012-02-10 07:53:18
1.00300002098083,33.6628496646881,-118.216527700424,50,2012-02-10 07:53:19
0.999000072479248,33.6628496646881,-118.216527700424,50,2012-02-10 07:53:20
1.00300002098083,33.6628496646881,-118.216527700424,50,2012-02-10 07:53:21
2.98599982261658,33.6628496646881,-118.216527700424,50,2012-02-10 07:53:24
1.00200009346008,33.6628496646881,-118.216527700424,50,2012-02-10 07:53:25
1.28099989891052,33.6628496646881,-118.216527700424,50,2012-02-10 07:53:27
0.730000019073486,33.6628496646881,-118.216527700424,50,2012-02-10 07:53:27
1.18700003623962,33.6628496646881,-118.216527700424,50,2012-02-10 07:53:29
0.802999973297119,33.6628496646881,-118.216527700424,50,2012-02-10 07:53:29
1,33.6628496646881,-118.216527700424,50,2012-02-10 07:53:30
1.00200009346008,33.6628496646881,-118.216527700424,50,2012-02-10 07:53:31
0.999000072479248,33.6628496646881,-118.216527700424,50,2012-02-10 07:53:32
1.00699996948242,33.6628496646881,-118.216527700424,50,2012-02-10 07:53:33
0.994999885559082,33.6628496646881,-118.216527700424,50,2012-02-10 07:53:34
1,33.6628496646881,-118.216527700424,50,2012-02-10 07:53:35
1.19300007820129,33.6628496646881,-118.216527700424,50,2012-02-10 07:53:37
0.810999870300293,33.6628496646881,-118.216527700424,50,2012-02-10 07:53:37
0.998000144958496,33.6628496646881,-118.216527700424,50,2012-02-10 07:53:38
1.00399994850159,33.6628496646881,-118.216527700424,50,2012-02-10 07:53:39
1,33.6628496646881,-118.216527700424,50,2012-02-10 07:53:40
1.67199993133545,33.6628496646881,-118.216527700424,50,2012-02-10 07:53:42
0.331000089645386,33.6628496646881,-118.216527700424,50,2012-02-10 07:53:42
0.999000072479248,33.6597222089767,-118.175972700119,50,2012-02-10 07:53:43
1.13099980354309,33.6597222089767,-118.175972700119,50,2012-02-10 07:53:44
0.870000123977661,33.6597222089767,-118.175972700119,50,2012-02-10 07:53:45
1,33.6597222089767,-118.175972700119,50,2012-02-10 07:53:46
1.00099992752075,33.6597222089767,-118.175972700119,50,2012-02-10 07:53:47
1.10400009155273,33.6597222089767,-118.175972700119,50,2012-02-10 07:53:48
1.04999995231628,33.6597222089767,-118.175972700119,50,2012-02-10 07:53:49
0.848000049591064,33.6597222089767,-118.175972700119,50,2012-02-10 07:53:50
1.17199993133545,33.6597222089767,-118.175972700119,50,2012-02-10 07:53:51
2.81599998474121,33.6597222089767,-118.175972700119,50,2012-02-10 07:53:54
1.00100016593933,33.6597222089767,-118.175972700119,50,2012-02-10 07:53:55
1.30799984931946,33.6597222089767,-118.175972700119,50,2012-02-10 07:53:57
0.697000026702881,33.6597222089767,-118.175972700119,50,2012-02-10 07:53:57
1.00500011444092,33.6597222089767,-118.175972700119,50,2012-02-10 07:53:58
0.996999979019165,33.6597222089767,-118.175972700119,50,2012-02-10 07:53:59
0.998999834060669,33.6597222089767,-118.175972700119,50,2012-02-10 07:54:00
1.00100016593933,33.6597222089767,-118.175972700119,50,2012-02-10 07:54:01
1.12999987602234,33.6597222089767,-118.175972700119,50,2012-02-10 07:54:02
0.874000072479248,33.6597222089767,-118.175972700119,50,2012-02-10 07:54:03
0.996999979019165,33.6597222089767,-118.175972700119,50,2012-02-10 07:54:04
0.619999885559082,33.6597222089767,-118.175972700119,50,2012-02-10 07:54:05
1.13499999046326,33.6597222089767,-118.175972700119,50,2012-02-10 07:54:06
0.867000102996826,33.6597222089767,-118.175972700119,50,2012-02-10 07:54:07
1,33.77485871315,-118.169444203377,50,2012-02-10 07:54:08
1.00399994850159,33.77485871315,-118.169444203377,50,2012-02-10 07:54:09
0.996999979019165,33.77485871315,-118.169444203377,50,2012-02-10 07:54:10
1.00699996948242,33.77485871315,-118.169444203377,50,2012-02-10 07:54:11
1.08400011062622,33.77485871315,-118.169444203377,50,2012-02-10 07:54:12
1.10599994659424,33.77485871315,-118.169444203377,50,2012-02-10 07:54:13
0.996999979019165,33.77485871315,-118.169444203377,50,2012-02-10 07:54:14
1.00300002098083,33.77485871315,-118.169444203377,50,2012-02-10 07:54:15
1.44700002670288,33.77485871315,-118.169444203377,50,2012-02-10 07:54:17
0.562999963760376,33.77485871315,-118.169444203377,50,2012-02-10 07:54:17
1.3970000743866,33.77485871315,-118.169444203377,50,2012-02-10 07:54:19
0.88700008392334,33.77485871315,-118.169444203377,50,2012-02-10 07:54:19
0.837999820709229,33.77485871315,-118.169444203377,50,2012-02-10 07:54:20
1.00100016593933,33.77485871315,-118.169444203377,50,2012-02-10 07:54:21
2.93999981880188,33.6597222089767,-118.175972700119,50,2012-02-10 07:54:24
1.00400018692017,33.6597222089767,-118.175972700119,50,2012-02-10 07:54:25
0.996999979019165,33.6597222089767,-118.175972700119,50,2012-02-10 07:54:26
1.31299996376038,33.6597222089767,-118.175972700119,50,2012-02-10 07:54:28
1.00600004196167,33.6597222089767,-118.175972700119,50,2012-02-10 07:54:29
0.996999979019165,33.6597222089767,-118.175972700119,50,2012-02-10 07:54:30
0.997999906539917,33.6597222089767,-118.175972700119,50,2012-02-10 07:54:31
1.00399994850159,33.6597222089767,-118.175972700119,50,2012-02-10 07:54:32
0.999000072479248,33.6597222089767,-118.175972700119,50,2012-02-10 07:54:33
1.00300002098083,33.6597222089767,-118.175972700119,50,2012-02-10 07:54:34
0.997999906539917,33.6597222089767,-118.175972700119,50,2012-02-10 07:54:35
1.0090000629425,33.6597222089767,-118.175972700119,50,2012-02-10 07:54:36
1.27699995040894,33.6597222089767,-118.175972700119,50,2012-02-10 07:54:37
0.721000194549561,33.7720155715942,-118.181530237198,50,2012-02-10 07:54:38
0.998999834060669,33.7720155715942,-118.181530237198,50,2012-02-10 07:54:39
1.17499995231628,33.7720155715942,-118.181530237198,50,2012-02-10 07:54:40
0.953999996185303,33.7720155715942,-118.181530237198,50,2012-02-10 07:54:41
1.27600002288818,33.7720155715942,-118.181530237198,50,2012-02-10 07:54:42
0.598000049591064,33.7720155715942,-118.181530237198,50,2012-02-10 07:54:43
1.00200009346008,33.7720155715942,-118.181530237198,50,2012-02-10 07:54:44
1.21599984169006,33.7720155715942,-118.181530237198,50,2012-02-10 07:54:45
0.79800009727478,33.7720155715942,-118.181530237198,50,2012-02-10 07:54:46
0.986999988555908,33.7720155715942,-118.181530237198,50,2012-02-10 07:54:47
1.01900005340576,33.7720155715942,-118.181530237198,50,2012-02-10 07:54:48
0.980000019073486,33.7720155715942,-118.181530237198,50,2012-02-10 07:54:49
1,33.7720155715942,-118.181530237198,50,2012-02-10 07:54:50
0.997999906539917,33.7720155715942,-118.181530237198,50,2012-02-10 07:54:51
1.37599992752075,33.7720155715942,-118.181530237198,50,2012-02-10 07:54:52
2.03000020980835,33.7720155715942,-118.181530237198,50,2012-02-10 07:54:54
1.13800001144409,33.7720155715942,-118.181530237198,50,2012-02-10 07:54:55
1.06499981880188,33.7720155715942,-118.181530237198,50,2012-02-10 07:54:56
1.0090000629425,33.7720155715942,-118.181530237198,50,2012-02-10 07:54:57
0.775000095367432,33.7720155715942,-118.181530237198,50,2012-02-10 07:54:58
1.24699997901917,33.7720155715942,-118.181530237198,50,2012-02-10 07:54:59
0.853999853134155,33.7720155715942,-118.181530237198,50,2012-02-10 07:55:00
0.902000188827515,33.7720155715942,-118.181530237198,50,2012-02-10 07:55:01
1.13099980354309,33.7720155715942,-118.181530237198,50,2012-02-10 07:55:02
0.638000011444092,33.7720155715942,-118.181530237198,50,2012-02-10 07:55:03
0.998000144958496,33.7720155715942,-118.181530237198,50,2012-02-10 07:55:04
1.00099992752075,33.7720155715942,-118.181530237198,50,2012-02-10 07:55:05
1.1710000038147,33.7720155715942,-118.181530237198,50,2012-02-10 07:55:06
0.832000017166138,33.7720155715942,-118.181530237198,50,2012-02-10 07:55:07
0.999000072479248,33.7720155715942,-118.181530237198,50,2012-02-10 07:55:08
1.00099992752075,33.7720155715942,-118.181530237198,50,2012-02-10 07:55:09
1.08999991416931,33.7720155715942,-118.181530237198,50,2012-02-10 07:55:10
1.16499996185303,33.7720155715942,-118.181530237198,50,2012-02-10 07:55:11
0.752000093460083,33.7720155715942,-118.181530237198,50,2012-02-10 07:55:12
0.995000123977661,33.7720155715942,-118.181530237198,50,2012-02-10 07:55:13
1.00699996948242,33.7720155715942,-118.181530237198,50,2012-02-10 07:55:14
1.06900000572205,33.7720155715942,-118.181530237198,50,2012-02-10 07:55:15
1.09899997711182,33.7720155715942,-118.181530237198,50,2012-02-10 07:55:16
0.829999923706055,33.7720155715942,-118.181530237198,50,2012-02-10 07:55:17
1.00300002098083,33.7720155715942,-118.181530237198,50,2012-02-10 07:55:18
1.17700004577637,33.7720155715942,-118.181530237198,50,2012-02-10 07:55:19
0.822999954223633,33.7720155715942,-118.181530237198,50,2012-02-10 07:55:20
1.05599999427795,33.7720155715942,-118.181530237198,50,2012-02-10 07:55:21
3.04900002479553,33.7720155715942,-118.181530237198,50,2012-02-10 07:55:24
0.885999917984009,33.7720155715942,-118.181530237198,50,2012-02-10 07:55:25
1.34100008010864,33.7720155715942,-118.181530237198,50,2012-02-10 07:55:26
0.779999971389771,33.7720155715942,-118.181530237198,50,2012-02-10 07:55:27
1.09699988365173,33.7720155715942,-118.181530237198,50,2012-02-10 07:55:28
0.785000085830688,33.7720155715942,-118.181530237198,50,2012-02-10 07:55:29
1.01600003242493,33.7720155715942,-118.181530237198,50,2012-02-10 07:55:30
1.06100010871887,33.7720155715942,-118.181530237198,50,2012-02-10 07:55:31
1.18499994277954,33.7720155715942,-118.181530237198,50,2012-02-10 07:55:32
1.12800002098083,33.7720155715942,-118.181530237198,50,2012-02-10 07:55:33
0.611999988555908,33.7720155715942,-118.181530237198,50,2012-02-10 07:55:34
1.00499987602234,33.7720155715942,-118.181530237198,50,2012-02-10 07:55:35
1.21099996566772,33.7720155715942,-118.181530237198,50,2012-02-10 07:55:36
0.866000175476074,33.7720155715942,-118.181530237198,50,2012-02-10 07:55:37
1.16799998283386,33.7720155715942,-118.181530237198,50,2012-02-10 07:55:38
0.753000020980835,33.7720155715942,-118.181530237198,50,2012-02-10 07:55:39
1.00799989700317,33.7720155715942,-118.181530237198,50,2012-02-10 07:55:40
1.44799995422363,33.7720155715942,-118.181530237198,50,2012-02-10 07:55:41
0.549999952316284,33.7720155715942,-118.181530237198,50,2012-02-10 07:55:42
1.19500017166138,33.7720155715942,-118.181530237198,50,2012-02-10 07:55:43
1.00799989700317,33.7720155715942,-118.181530237198,50,2012-02-10 07:55:44
0.802999973297119,33.7720155715942,-118.181530237198,50,2012-02-10 07:55:45
0.996999979019165,33.7720155715942,-118.181530237198,50,2012-02-10 07:55:46
1.00300002098083,33.7720155715942,-118.181530237198,50,2012-02-10 07:55:47
1.2720000743866,33.7720155715942,-118.181530237198,50,2012-02-10 07:55:48
0.875999927520752,33.7720155715942,-118.181530237198,50,2012-02-10 07:55:49
1.14199995994568,33.7720155715942,-118.181530237198,50,2012-02-10 07:55:50
0.712000131607056,33.7720155715942,-118.181530237198,50,2012-02-10 07:55:51
3.21399998664856,33.7720155715942,-118.181530237198,50,2012-02-10 07:55:54
0.773000001907349,33.7720155715942,-118.181530237198,50,2012-02-10 07:55:55
1.04200005531311,33.7720155715942,-118.181530237198,50,2012-02-10 07:55:56
0.961999893188477,33.7720155715942,-118.181530237198,50,2012-02-10 07:55:57
1.00200009346008,33.7720155715942,-118.181530237198,50,2012-02-10 07:55:58
1.21700000762939,33.7720155715942,-118.181530237198,50,2012-02-10 07:55:59
1.03999996185303,33.7720155715942,-118.181530237198,50,2012-02-10 07:56:00
0.743000030517578,33.7720155715942,-118.181530237198,50,2012-02-10 07:56:01
1.00399994850159,33.7720155715942,-118.181530237198,50,2012-02-10 07:56:02
0.996000051498413,33.7720155715942,-118.181530237198,50,2012-02-10 07:56:03
1.11399984359741,33.7720155715942,-118.181530237198,50,2012-02-10 07:56:04
1.16200017929077,33.7720155715942,-118.181530237198,50,2012-02-10 07:56:05
0.724999904632568,33.7720155715942,-118.181530237198,50,2012-02-10 07:56:06
1.00099992752075,33.7720155715942,-118.181530237198,50,2012-02-10 07:56:07
1.00100016593933,33.7720155715942,-118.181530237198,50,2012-02-10 07:56:08
1.00099992752075,33.7720155715942,-118.181530237198,50,2012-02-10 07:56:09
1.12800002098083,33.7720155715942,-118.181530237198,50,2012-02-10 07:56:10
0.871999979019165,33.7720155715942,-118.181530237198,50,2012-02-10 07:56:11
1.47399997711182,33.7720155715942,-118.181530237198,50,2012-02-10 07:56:12
1,33.7720155715942,-118.181530237198,50,2012-02-10 07:56:13
1.00300002098083,33.7720155715942,-118.181530237198,50,2012-02-10 07:56:14
1.22000002861023,33.7720155715942,-118.181530237198,50,2012-02-10 07:56:15
0.894000053405762,33.7720155715942,-118.181530237198,50,2012-02-10 07:56:16
0.886999845504761,33.7720155715942,-118.181530237198,50,2012-02-10 07:56:17
1,33.7720155715942,-118.181530237198,50,2012-02-10 07:56:18
0.998000144958496,33.7720155715942,-118.181530237198,50,2012-02-10 07:56:19
1.14800000190735,33.7720155715942,-118.181530237198,50,2012-02-10 07:56:20
1.04199981689453,33.7720155715942,-118.181530237198,50,2012-02-10 07:56:21
2.81500005722046,33.7720155715942,-118.181530237198,50,2012-02-10 07:56:24
1.16000008583069,33.7720155715942,-118.181530237198,50,2012-02-10 07:56:25
1.1340000629425,33.7720155715942,-118.181530237198,50,2012-02-10 07:56:27
0.98199987411499,33.7720155715942,-118.181530237198,50,2012-02-10 07:56:27
0.98799991607666,33.7720155715942,-118.181530237198,50,2012-02-10 07:56:28
0.903000116348267,33.7676382064819,-118.186599612236,50,2012-02-10 07:56:29
0.997999906539917,33.7676382064819,-118.186599612236,50,2012-02-10 07:56:30
1.23600006103516,33.7676382064819,-118.186599612236,50,2012-02-10 07:56:32
1.02099990844727,33.7676382064819,-118.186599612236,50,2012-02-10 07:56:33
0.743000030517578,33.7676382064819,-118.186599612236,50,2012-02-10 07:56:33
1.00100016593933,33.7676382064819,-118.186599612236,50,2012-02-10 07:56:34
1.20899987220764,33.7676382064819,-118.186599612236,50,2012-02-10 07:56:36
1.32200002670288,33.7676382064819,-118.186599612236,50,2012-02-10 07:56:37
0.914000034332275,33.7676382064819,-118.186599612236,50,2012-02-10 07:56:38
0.941999912261963,33.7753468751907,-118.187779784203,50,2012-02-10 07:56:39
0.832000017166138,33.7753468751907,-118.187779784203,50,2012-02-10 07:56:40
0.996999979019165,33.7753468751907,-118.187779784203,50,2012-02-10 07:56:41
1.02400016784668,33.7753468751907,-118.187779784203,50,2012-02-10 07:56:42
1.10899996757507,33.7753468751907,-118.187779784203,50,2012-02-10 07:56:43
1.05399990081787,33.7753468751907,-118.187779784203,50,2012-02-10 07:56:44
0.910000085830688,33.7753468751907,-118.187779784203,50,2012-02-10 07:56:45
0.902999877929688,33.7753468751907,-118.187779784203,50,2012-02-10 07:56:46
1.00100016593933,33.7753468751907,-118.187779784203,50,2012-02-10 07:56:47
1.15100002288818,33.7753468751907,-118.187779784203,50,2012-02-10 07:56:48
1.12099981307983,33.7753468751907,-118.187779784203,50,2012-02-10 07:56:49
0.825999975204468,33.7753468751907,-118.187779784203,50,2012-02-10 07:56:50
0.910000085830688,33.7753468751907,-118.187779784203,50,2012-02-10 07:56:51
0.996000051498413,33.7753468751907,-118.187779784203,50,2012-02-10 07:56:52
3.19099998474121,33.7753468751907,-118.187779784203,50,2012-02-10 07:56:55
0.91100001335144,33.7753468751907,-118.187779784203,50,2012-02-10 07:56:56
0.911999940872192,33.7753468751907,-118.187779784203,50,2012-02-10 07:56:57
1.00200009346008,33.7753468751907,-118.187779784203,50,2012-02-10 07:56:58
1.55099987983704,33.7753468751907,-118.187779784203,50,2012-02-10 07:56:59
0.532000064849854,33.7753468751907,-118.187779784203,50,2012-02-10 07:57:00
1.10699987411499,33.7753468751907,-118.187779784203,50,2012-02-10 07:57:01
0.907000064849854,33.7753468751907,-118.187779784203,50,2012-02-10 07:57:02
0.907000064849854,33.7753468751907,-118.187779784203,50,2012-02-10 07:57:03
1.15700006484985,33.7753468751907,-118.187779784203,50,2012-02-10 07:57:04
1.0149998664856,33.7753468751907,-118.187779784203,50,2012-02-10 07:57:05
0.922000169754028,33.7753468751907,-118.187779784203,50,2012-02-10 07:57:06
1.16799998283386,33.7753468751907,-118.187779784203,50,2012-02-10 07:57:07
0.741999864578247,33.7753468751907,-118.187779784203,50,2012-02-10 07:57:08
1.1230001449585,33.7753468751907,-118.187779784203,50,2012-02-10 07:57:09
1.0719997882843,33.7753468751907,-118.187779784203,50,2012-02-10 07:57:10
0.983000040054321,33.7753468751907,-118.187779784203,50,2012-02-10 07:57:11
1.10000014305115,33.7753468751907,-118.187779784203,50,2012-02-10 07:57:12
0.724999904632568,33.7753468751907,-118.187779784203,50,2012-02-10 07:57:13
1,33.7753468751907,-118.187779784203,50,2012-02-10 07:57:14
1.15700006484985,33.7753468751907,-118.187779784203,50,2012-02-10 07:57:15
1.4210000038147,33.7753468751907,-118.187779784203,50,2012-02-10 07:57:16
0.516999959945679,33.7753468751907,-118.187779784203,50,2012-02-10 07:57:17
1.01500010490417,33.7753468751907,-118.187779784203,50,2012-02-10 07:57:18
1.18799996376038,33.7753468751907,-118.187779784203,50,2012-02-10 07:57:19
0.871999979019165,33.7753468751907,-118.187779784203,50,2012-02-10 07:57:20
1.06299996376038,33.7753468751907,-118.187779784203,50,2012-02-10 07:57:21
1.03099989891052,33.7753468751907,-118.187779784203,50,2012-02-10 07:57:22
3.03700017929077,33.7753468751907,-118.187779784203,50,2012-02-10 07:57:25
1.28399991989136,33.7753468751907,-118.187779784203,50,2012-02-10 07:57:26
0.560999870300293,33.7753468751907,-118.187779784203,50,2012-02-10 07:57:27
1.02000021934509,33.7753468751907,-118.187779784203,50,2012-02-10 07:57:28
1.1710000038147,33.7753468751907,-118.187779784203,50,2012-02-10 07:57:29
0.895999908447266,33.7753468751907,-118.187779784203,50,2012-02-10 07:57:30
0.839999914169312,33.7753468751907,-118.187779784203,50,2012-02-10 07:57:31
1.08200001716614,33.7753468751907,-118.187779784203,50,2012-02-10 07:57:32
1.15000009536743,33.7753468751907,-118.187779784203,50,2012-02-10 07:57:33
0.924999952316284,33.7753468751907,-118.187779784203,50,2012-02-10 07:57:34
0.930999994277954,33.7753468751907,-118.187779784203,50,2012-02-10 07:57:35
1.1029999256134,33.7753468751907,-118.187779784203,50,2012-02-10 07:57:36
0.953000068664551,33.7753468751907,-118.187779784203,50,2012-02-10 07:57:37
1.01399993896484,33.7753468751907,-118.187779784203,50,2012-02-10 07:57:38
0.909000158309937,33.7753468751907,-118.187779784203,50,2012-02-10 07:57:39
1.04299998283386,33.7753468751907,-118.187779784203,50,2012-02-10 07:57:40
1.20199990272522,33.7753468751907,-118.187779784203,50,2012-02-10 07:57:41
0.782000064849854,33.7753468751907,-118.187779784203,50,2012-02-10 07:57:42
1.1269998550415,33.7753468751907,-118.187779784203,50,2012-02-10 07:57:43
0.828000068664551,33.7753468751907,-118.187779784203,50,2012-02-10 07:57:44
1.15499997138977,33.7753468751907,-118.187779784203,50,2012-02-10 07:57:45
1.15700006484985,33.7753468751907,-118.187779784203,50,2012-02-10 07:57:46
1.02800011634827,33.7753468751907,-118.187779784203,50,2012-02-10 07:57:47
0.806999921798706,33.7753468751907,-118.187779784203,50,2012-02-10 07:57:48
0.986000061035156,33.7753468751907,-118.187779784203,50,2012-02-10 07:57:49
0.958999872207642,33.7753468751907,-118.187779784203,50,2012-02-10 07:57:50
1.03999996185303,33.7753468751907,-118.187779784203,50,2012-02-10 07:57:51
1.00699996948242,33.7753468751907,-118.187779784203,50,2012-02-10 07:57:52
2.5860002040863,33.7753468751907,-118.187779784203,50,2012-02-10 07:57:54
0.630999803543091,33.7753468751907,-118.187779784203,50,2012-02-10 07:57:55
0.927000045776367,33.7753468751907,-118.187779784203,50,2012-02-10 07:57:56
1.2720000743866,33.7753468751907,-118.187779784203,50,2012-02-10 07:57:57
0.819000005722046,33.7753468751907,-118.187779784203,50,2012-02-10 07:57:58
1.15999984741211,33.7753468751907,-118.187779784203,50,2012-02-10 07:57:59
0.759000062942505,33.7753468751907,-118.187779784203,50,2012-02-10 07:58:00
1.07100009918213,33.7753468751907,-118.187779784203,50,2012-02-10 07:58:01
1.04399991035461,33.7753468751907,-118.187779784203,50,2012-02-10 07:58:02
1.36700010299683,33.7753468751907,-118.187779784203,50,2012-02-10 07:58:04
0.504999876022339,33.7753468751907,-118.187779784203,50,2012-02-10 07:58:04
1.23399996757507,33.7753468751907,-118.187779784203,50,2012-02-10 07:58:05
0.912000179290771,33.7753468751907,-118.187779784203,50,2012-02-10 07:58:06
1.06200003623962,33.7753468751907,-118.187779784203,50,2012-02-10 07:58:07
1.04699993133545,33.7753468751907,-118.187779784203,50,2012-02-10 07:58:08
0.750999927520752,33.7753468751907,-118.187779784203,50,2012-02-10 07:58:09
1.35899996757507,33.7753468751907,-118.187779784203,50,2012-02-10 07:58:10
0.756999969482422,33.7753468751907,-118.187779784203,50,2012-02-10 07:58:11
1.10700011253357,33.7753468751907,-118.187779784203,50,2012-02-10 07:58:12
0.956000089645386,33.7753468751907,-118.187779784203,50,2012-02-10 07:58:13
1.06599998474121,33.7753468751907,-118.187779784203,50,2012-02-10 07:58:14
1.1159999370575,33.7753468751907,-118.187779784203,50,2012-02-10 07:58:15
0.796000003814697,33.7753468751907,-118.187779784203,50,2012-02-10 07:58:16
0.990999937057495,33.7753468751907,-118.187779784203,50,2012-02-10 07:58:17
1.125,33.7753468751907,-118.187779784203,50,2012-02-10 07:58:18
1.10400009155273,33.7753468751907,-118.187779784203,50,2012-02-10 07:58:19
0.644999980926514,33.7753468751907,-118.187779784203,50,2012-02-10 07:58:20
1.28499984741211,33.7753468751907,-118.187779784203,50,2012-02-10 07:58:21
2.8490002155304,33.7753468751907,-118.187779784203,50,2012-02-10 07:58:24
1.1399998664856,33.7753468751907,-118.187779784203,50,2012-02-10 07:58:25
0.781000137329102,33.7753468751907,-118.187779784203,50,2012-02-10 07:58:26
1.2649998664856,33.7753468751907,-118.187779784203,50,2012-02-10 07:58:27
0.73799991607666,33.7753468751907,-118.187779784203,50,2012-02-10 07:58:28
1.39000010490417,33.7753468751907,-118.187779784203,50,2012-02-10 07:58:29
0.611999988555908,33.7753468751907,-118.187779784203,50,2012-02-10 07:58:30
1.17799997329712,33.7753468751907,-118.187779784203,50,2012-02-10 07:58:31
1.03800010681152,33.7753468751907,-118.187779784203,50,2012-02-10 07:58:32
1.11399984359741,33.7753468751907,-118.187779784203,50,2012-02-10 07:58:33
0.717000007629395,33.7753468751907,-118.187779784203,50,2012-02-10 07:58:34
1.21300005912781,33.7753468751907,-118.187779784203,50,2012-02-10 07:58:35
0.780999898910522,33.7753468751907,-118.187779784203,50,2012-02-10 07:58:36
1.31500005722046,33.7753468751907,-118.187779784203,50,2012-02-10 07:58:37
0.648000001907349,33.7753468751907,-118.187779784203,50,2012-02-10 07:58:38
1.01900005340576,33.7753468751907,-118.187779784203,50,2012-02-10 07:58:39
1.16599988937378,33.7753468751907,-118.187779784203,50,2012-02-10 07:58:40
0.953999996185303,33.7753468751907,-118.187779784203,50,2012-02-10 07:58:41
1.1100001335144,33.7753468751907,-118.187779784203,50,2012-02-10 07:58:42
0.75600004196167,33.7753468751907,-118.187779784203,50,2012-02-10 07:58:43
1.18199992179871,33.7753468751907,-118.187779784203,50,2012-02-10 07:58:44
0.960999965667725,33.7753468751907,-118.187779784203,50,2012-02-10 07:58:45
0.959000110626221,33.7753468751907,-118.187779784203,50,2012-02-10 07:58:46
1.08399987220764,33.7753468751907,-118.187779784203,50,2012-02-10 07:58:47
0.930999994277954,33.7753468751907,-118.187779784203,50,2012-02-10 07:58:48
1.00200009346008,33.7753468751907,-118.187779784203,50,2012-02-10 07:58:49
0.88700008392334,33.7753468751907,-118.187779784203,50,2012-02-10 07:58:50
1.10899996757507,33.7753468751907,-118.187779784203,50,2012-02-10 07:58:51
3.18199992179871,33.7753468751907,-118.187779784203,50,2012-02-10 07:58:54
0.749000072479248,33.7753468751907,-118.187779784203,50,2012-02-10 07:58:55
1.19899988174438,33.7753468751907,-118.187779784203,50,2012-02-10 07:58:56
0.991000175476074,33.7753468751907,-118.187779784203,50,2012-02-10 07:58:57
1.06799983978271,33.7753468751907,-118.187779784203,50,2012-02-10 07:58:58
0.749000072479248,33.7753468751907,-118.187779784203,50,2012-02-10 07:58:59
1.22199988365173,33.7720155715942,-118.181530237198,50,2012-02-10 07:59:00
0.779999971389771,33.7720155715942,-118.181530237198,50,2012-02-10 07:59:01
1.19800019264221,33.7720155715942,-118.181530237198,50,2012-02-10 07:59:02
0.993000030517578,33.7720155715942,-118.181530237198,50,2012-02-10 07:59:03
0.976999998092651,33.7720155715942,-118.181530237198,50,2012-02-10 07:59:04
0.962999820709229,33.7720155715942,-118.181530237198,50,2012-02-10 07:59:05
1.03500008583069,33.7753468751907,-118.187779784203,50,2012-02-10 07:59:06
0.950999975204468,33.7753468751907,-118.187779784203,50,2012-02-10 07:59:07
1.14199995994568,33.7753468751907,-118.187779784203,50,2012-02-10 07:59:08
0.76200008392334,33.7753468751907,-118.187779784203,50,2012-02-10 07:59:09
1.24900007247925,33.7753468751907,-118.187779784203,50,2012-02-10 07:59:10
0.82099986076355,33.7753468751907,-118.187779784203,50,2012-02-10 07:59:11
1.0239999294281,33.7753468751907,-118.187779784203,50,2012-02-10 07:59:12
1.00300002098083,33.7753468751907,-118.187779784203,50,2012-02-10 07:59:13
1.11400008201599,33.7753468751907,-118.187779784203,50,2012-02-10 07:59:14
0.990999937057495,33.7753468751907,-118.187779784203,50,2012-02-10 07:59:15
0.785000085830688,33.7753468751907,-118.187779784203,50,2012-02-10 07:59:16
1.00399994850159,33.7753468751907,-118.187779784203,50,2012-02-10 07:59:17
1.15899991989136,33.7753468751907,-118.187779784203,50,2012-02-10 07:59:18
1.12900018692017,33.7753468751907,-118.187779784203,50,2012-02-10 07:59:19
0.970999956130981,33.7753468751907,-118.187779784203,50,2012-02-10 07:59:20
0.743000030517578,33.7753468751907,-118.187779784203,50,2012-02-10 07:59:21
2.98899984359741,33.7753468751907,-118.187779784203,50,2012-02-10 07:59:24
1.19300007820129,33.7753468751907,-118.187779784203,50,2012-02-10 07:59:25
1.55599999427795,33.7753468751907,-118.187779784203,50,2012-02-10 07:59:27
1,33.7753468751907,-118.187779784203,50,2012-02-10 07:59:28
1.13599991798401,33.7753468751907,-118.187779784203,50,2012-02-10 07:59:29
0.933000087738037,33.7753468751907,-118.187779784203,50,2012-02-10 07:59:30
1.02699995040894,33.7753468751907,-118.187779784203,50,2012-02-10 07:59:31
0.909000158309937,33.7753468751907,-118.187779784203,50,2012-02-10 07:59:32
1.05399990081787,33.7753468751907,-118.187779784203,50,2012-02-10 07:59:33
1.1470000743866,33.7753468751907,-118.187779784203,50,2012-02-10 07:59:34
0.800999879837036,33.7753468751907,-118.187779784203,50,2012-02-10 07:59:35
1,33.7753468751907,-118.187779784203,50,2012-02-10 07:59:36
1.16400003433228,33.7753468751907,-118.187779784203,50,2012-02-10 07:59:37
1.07500004768372,33.7753468751907,-118.187779784203,50,2012-02-10 07:59:38
0.763999938964844,33.7753468751907,-118.187779784203,50,2012-02-10 07:59:39
1.05599999427795,33.7753468751907,-118.187779784203,50,2012-02-10 07:59:40
0.947999954223633,33.7753468751907,-118.187779784203,50,2012-02-10 07:59:41
1.12100005149841,33.7753468751907,-118.187779784203,50,2012-02-10 07:59:42
1.14300012588501,33.7753468751907,-118.187779784203,50,2012-02-10 07:59:43
0.735999822616577,33.7753468751907,-118.187779784203,50,2012-02-10 07:59:44
1.24600005149841,33.7753468751907,-118.187779784203,50,2012-02-10 07:59:45
0.773999929428101,33.7753468751907,-118.187779784203,50,2012-02-10 07:59:46
1.05000019073486,33.7753468751907,-118.187779784203,50,2012-02-10 07:59:47
1.15999984741211,33.7753468751907,-118.187779784203,50,2012-02-10 07:59:48
0.77400016784668,33.7753468751907,-118.187779784203,50,2012-02-10 07:59:49
1.16299986839294,33.7753468751907,-118.187779784203,50,2012-02-10 07:59:50
1.1029999256134,33.7753468751907,-118.187779784203,50,2012-02-10 07:59:51
0.736000061035156,33.7753468751907,-118.187779784203,50,2012-02-10 07:59:52
3.28400015830994,33.7753468751907,-118.187779784203,50,2012-02-10 07:59:55
0.797999858856201,33.7753468751907,-118.187779784203,50,2012-02-10 07:59:56
1.20000004768372,33.7753468751907,-118.187779784203,50,2012-02-10 07:59:57
0.808000087738037,33.7753468751907,-118.187779784203,50,2012-02-10 07:59:58
1.34999990463257,33.7753468751907,-118.187779784203,50,2012-02-10 07:59:59
