"diffSecs","latitude","longitude","altitude","time"
7.18499994277954,42.6161116361618,-72.5360405445099,50,2012-03-02 09:50:51
5.00800013542175,42.6161116361618,-72.5360405445099,50,2012-03-02 09:50:56
0.0379998683929443,42.6161116361618,-72.5360405445099,50,2012-03-02 09:50:56
0.00600004196166992,42.6161116361618,-72.5360405445099,50,2012-03-02 09:50:56
0.00200009346008301,42.6161116361618,-72.5360405445099,50,2012-03-02 09:50:56
0.00799989700317383,42.6161116361618,-72.5360405445099,50,2012-03-02 09:50:56
0.00800013542175293,42.6161116361618,-72.5360405445099,50,2012-03-02 09:50:56
0.925999879837036,42.6161116361618,-72.5360405445099,50,2012-03-02 09:50:57
1.35400009155273,42.6161116361618,-72.5360405445099,50,2012-03-02 09:50:58
3.2519998550415,42.6161116361618,-72.5360405445099,50,2012-03-02 09:51:01
0.775000095367432,42.6161116361618,-72.5360405445099,50,2012-03-02 09:51:02
1.05599999427795,42.6161116361618,-72.5360405445099,50,2012-03-02 09:51:03
2.09700012207031,42.6161116361618,-72.5360405445099,50,2012-03-02 09:51:05
0.56499981880188,42.6161116361618,-72.5360405445099,50,2012-03-02 09:51:06
0.958000183105469,42.6161116361618,-72.5360405445099,50,2012-03-02 09:51:07
1.25899982452393,42.6161116361618,-72.5360405445099,50,2012-03-02 09:51:08
0.764000177383423,42.6161116361618,-72.5360405445099,50,2012-03-02 09:51:09
2.01300001144409,42.6161116361618,-72.5360405445099,50,2012-03-02 09:51:11
1.06699991226196,42.6161116361618,-72.5360405445099,50,2012-03-02 09:51:12
0.558000087738037,42.6161116361618,-72.5360405445099,50,2012-03-02 09:51:12
0.847999811172485,42.6161116361618,-72.5360405445099,50,2012-03-02 09:51:13
1.1010000705719,42.6161116361618,-72.5360405445099,50,2012-03-02 09:51:14
1.06599998474121,42.6161116361618,-72.5360405445099,50,2012-03-02 09:51:15
2.82599997520447,42.6161116361618,-72.5360405445099,50,2012-03-02 09:51:18
0.937000036239624,42.6161116361618,-72.5360405445099,50,2012-03-02 09:51:19
1.02600002288818,42.6161116361618,-72.5360405445099,50,2012-03-02 09:51:20
1.28299999237061,42.6161116361618,-72.5360405445099,50,2012-03-02 09:51:21
0.644999980926514,42.6161116361618,-72.5360405445099,50,2012-03-02 09:51:22
1.04100012779236,42.6161116361618,-72.5360405445099,50,2012-03-02 09:51:23
0.952999830245972,42.6161116361618,-72.5360405445099,50,2012-03-02 09:51:24
1.01600003242493,42.6161116361618,-72.5360405445099,50,2012-03-02 09:51:25
1.125,42.6161116361618,-72.5360405445099,50,2012-03-02 09:51:26
0.940999984741211,42.6161116361618,-72.5360405445099,50,2012-03-02 09:51:27
1.07500004768372,42.6161116361618,-72.5360405445099,50,2012-03-02 09:51:28
0.845999956130981,42.6161116361618,-72.5360405445099,50,2012-03-02 09:51:29
1.41100001335144,42.6161116361618,-72.5360405445099,50,2012-03-02 09:51:31
0.588000059127808,42.6161116361618,-72.5360405445099,50,2012-03-02 09:51:31
1.40199995040894,42.6161116361618,-72.5360405445099,50,2012-03-02 09:51:33
0.598999977111816,42.6161116361618,-72.5360405445099,50,2012-03-02 09:51:33
1.33500003814697,42.6161116361618,-72.5360405445099,50,2012-03-02 09:51:34
0.710000038146973,42.6161116361618,-72.5360405445099,50,2012-03-02 09:51:35
1.16199994087219,42.6161116361618,-72.5360405445099,50,2012-03-02 09:51:36
0.796000003814697,42.6161116361618,-72.5360405445099,50,2012-03-02 09:51:37
1.4210000038147,42.6161116361618,-72.5360405445099,50,2012-03-02 09:51:39
0.584000110626221,42.6161116361618,-72.5360405445099,50,2012-03-02 09:51:39
1.21599984169006,42.6161116361618,-72.5360405445099,50,2012-03-02 09:51:40
0.785000085830688,42.6161116361618,-72.5360405445099,50,2012-03-02 09:51:41
1.25399994850159,42.6161116361618,-72.5360405445099,50,2012-03-02 09:51:42
0.785000085830688,42.6161116361618,-72.5360405445099,50,2012-03-02 09:51:43
1.07299995422363,42.6161116361618,-72.5360405445099,50,2012-03-02 09:51:44
1.42300009727478,42.6161116361618,-72.5360405445099,50,2012-03-02 09:51:46
2.66499996185303,42.6161116361618,-72.5360405445099,50,2012-03-02 09:51:48
1.22000002861023,42.6161116361618,-72.5360405445099,50,2012-03-02 09:51:50
0.621999979019165,42.6161116361618,-72.5360405445099,50,2012-03-02 09:51:50
1.01999998092651,42.6161116361618,-72.5360405445099,50,2012-03-02 09:51:51
0.980999946594238,42.6161116361618,-72.5360405445099,50,2012-03-02 09:51:52
1.17599987983704,42.6161116361618,-72.5360405445099,50,2012-03-02 09:51:53
1.16400003433228,42.6161116361618,-72.5360405445099,50,2012-03-02 09:51:55
0.699000120162964,42.6161116361618,-72.5360405445099,50,2012-03-02 09:51:55
0.970000028610229,42.6161116361618,-72.5360405445099,50,2012-03-02 09:51:56
0.430999994277954,42.5945895910263,-72.5504815578461,66.5999984741211,2012-03-02 09:51:57
1.01799988746643,42.5946807861328,-72.5507497787476,72.9000015258789,2012-03-02 09:51:58
0.998000144958496,42.5946915149689,-72.5505781173706,66.1999969482422,2012-03-02 09:51:59
1.02699995040894,42.594535946846,-72.550460100174,65.4000015258789,2012-03-02 09:52:00
0.970999956130981,42.5945252180099,-72.5504171848297,65,2012-03-02 09:52:01
0.983000040054321,42.594541311264,-72.5504493713379,65.3000030517578,2012-03-02 09:52:02
1.56500005722046,42.5945198535919,-72.550460100174,65.1999969482422,2012-03-02 09:52:03
0.515999794006348,42.5945252180099,-72.55047082901,65.4000015258789,2012-03-02 09:52:04
0.997000217437744,42.5945198535919,-72.550465464592,65.5,2012-03-02 09:52:05
0.973999977111816,42.5945198535919,-72.5504922866821,65.6999969482422,2012-03-02 09:52:06
0.986999988555908,42.5944769382477,-72.5504279136658,65.6999969482422,2012-03-02 09:52:07
1.06399989128113,42.5945144891739,-72.5503635406494,64.3000030517578,2012-03-02 09:52:08
0.907000064849854,42.5944930315018,-72.5504064559937,64.8000030517578,2012-03-02 09:52:09
0.997999906539917,42.5944930315018,-72.5504064559937,64.9000015258789,2012-03-02 09:52:10
0.993000030517578,42.5944393873215,-72.5503635406494,70,2012-03-02 09:52:11
1.00999999046326,42.5944286584854,-72.5503796339035,70.0999984741211,2012-03-02 09:52:12
1.30599999427795,42.5944340229034,-72.5503742694855,69.9000015258789,2012-03-02 09:52:13
0.684000015258789,42.5944340229034,-72.5503742694855,69.9000015258789,2012-03-02 09:52:14
1.01600003242493,42.5944340229034,-72.5503796339035,69.9000015258789,2012-03-02 09:52:15
0.98199987411499,42.5944340229034,-72.5503796339035,69.9000015258789,2012-03-02 09:52:16
1.30200004577637,42.5944340229034,-72.5503796339035,69.9000015258789,2012-03-02 09:52:17
1.0789999961853,42.5944340229034,-72.5503796339035,69.8000030517578,2012-03-02 09:52:18
0.692000150680542,42.5944340229034,-72.5503796339035,69.8000030517578,2012-03-02 09:52:19
0.952999830245972,42.5944340229034,-72.5503796339035,69.8000030517578,2012-03-02 09:52:20
1.01100015640259,42.5944340229034,-72.5503796339035,69.8000030517578,2012-03-02 09:52:21
0.988999843597412,42.5944393873215,-72.5503796339035,69.5999984741211,2012-03-02 09:52:22
1.04200005531311,42.5944393873215,-72.5503796339035,69.5999984741211,2012-03-02 09:52:23
1.08599996566772,42.5944393873215,-72.5503796339035,69.5999984741211,2012-03-02 09:52:24
0.890000104904175,42.5943696498871,-72.5503528118134,74.0999984741211,2012-03-02 09:52:25
0.978999853134155,42.5944501161575,-72.5503849983215,68.8000030517578,2012-03-02 09:52:26
1.01500010490417,42.5944983959198,-72.5504010915756,65.9000015258789,2012-03-02 09:52:27
1.00799989700317,42.5944608449936,-72.5503903627396,67.9000015258789,2012-03-02 09:52:28
1.09700012207031,42.5944286584854,-72.5503796339035,70.1999969482422,2012-03-02 09:52:29
0.930999994277954,42.5944286584854,-72.5503796339035,69.9000015258789,2012-03-02 09:52:30
1.02699995040894,42.5944286584854,-72.5503849983215,69.5999984741211,2012-03-02 09:52:31
0.944000005722046,42.5944447517395,-72.5503903627396,67.8000030517578,2012-03-02 09:52:32
1.0239999294281,42.5944631,-72.55038956,162.100006103516,2012-03-02 09:52:33
0.976999998092651,42.59450155,-72.55039447,128.100006103516,2012-03-02 09:52:34
1.00400018692017,42.59450426,-72.55039689,125.699996948242,2012-03-02 09:52:35
1.0019998550415,42.59452563,-72.55039605,104.599998474121,2012-03-02 09:52:36
1.11700010299683,42.59452683,-72.55039721,102.900001525879,2012-03-02 09:52:37
0.865000009536743,42.59453032,-72.55041381,98.1999969482422,2012-03-02 09:52:38
0.996000051498413,42.59453486,-72.55042405,93.4000015258789,2012-03-02 09:52:39
2.00899982452393,42.59453441,-72.55042097,93.6999969482422,2012-03-02 09:52:41
0.555000066757202,42.59453261,-72.55041892,93.5999984741211,2012-03-02 09:52:41
0.436000108718872,42.59454392,-72.55041544,86.5,2012-03-02 09:52:42
1.00300002098083,42.59454353,-72.55041547,86.8000030517578,2012-03-02 09:52:43
1.01299977302551,42.59453586,-72.55038732,86.5999984741211,2012-03-02 09:52:44
1.05700016021729,42.5945364,-72.55038557,86.9000015258789,2012-03-02 09:52:45
0.937999963760376,42.59453616,-72.5503874,86.9000015258789,2012-03-02 09:52:46
1.07800006866455,42.59453563,-72.5503905,86.8000030517578,2012-03-02 09:52:47
2.01799988746643,42.5945354,-72.55039104,86.3000030517578,2012-03-02 09:52:49
0.398000001907349,42.59453578,-72.55039085,86.4000015258789,2012-03-02 09:52:49
1.11700010299683,42.59453615,-72.55038985,86.4000015258789,2012-03-02 09:52:50
0.441999912261963,42.59453615,-72.55038976,86.4000015258789,2012-03-02 09:52:51
1.67400002479553,42.59453681,-72.55038822,86.5,2012-03-02 09:52:52
3.03999996185303,42.59453683,-72.55038837,86.5999984741211,2012-03-02 09:52:55
0.146000146865845,42.59453829,-72.5503845,86.6999969482422,2012-03-02 09:52:56
0.0739998817443848,42.59453892,-72.55038225,86.6999969482422,2012-03-02 09:52:56
1.03800010681152,42.59453925,-72.55038171,86.6999969482422,2012-03-02 09:52:57
0.98799991607666,42.59453926,-72.55038172,86.6999969482422,2012-03-02 09:52:58
1.01099991798401,42.59453935,-72.55038216,86.6999969482422,2012-03-02 09:52:59
0.975000143051147,42.59453951,-72.55038248,86.8000030517578,2012-03-02 09:53:00
1.04499983787537,42.59453946,-72.55038245,86.6999969482422,2012-03-02 09:53:01
0.959000110626221,42.59453965,-72.55038257,86.8000030517578,2012-03-02 09:53:02
1.02099990844727,42.59454036,-72.55038058,86.8000030517578,2012-03-02 09:53:03
1.09000015258789,42.59454049,-72.55038006,86.8000030517578,2012-03-02 09:53:04
0.878000020980835,42.59454057,-72.55037996,86.8000030517578,2012-03-02 09:53:05
1.73999977111816,42.59454051,-72.55038043,86.8000030517578,2012-03-02 09:53:06
0.285000085830688,42.5945407,-72.55037975,86.8000030517578,2012-03-02 09:53:07
1.00399994850159,42.59454066,-72.55037986,86.8000030517578,2012-03-02 09:53:08
0.992000102996826,42.59454069,-72.55037977,86.8000030517578,2012-03-02 09:53:09
1.5149998664856,42.5945406,-72.55038045,86.8000030517578,2012-03-02 09:53:10
2.54500007629395,42.59454053,-72.55038052,86.8000030517578,2012-03-02 09:53:13
2.50399994850159,42.59454092,-72.55037926,86.8000030517578,2012-03-02 09:53:15
1.87800002098083,42.59454137,-72.55037893,86.8000030517578,2012-03-02 09:53:17
2.31800007820129,42.59454128,-72.55038032,86.8000030517578,2012-03-02 09:53:19
2.33299994468689,42.59454187,-72.55037867,86.6999969482422,2012-03-02 09:53:22
3.29800009727478,42.59454231,-72.55037758,86.6999969482422,2012-03-02 09:53:25
3.62599992752075,42.59454229,-72.55037692,86.6999969482422,2012-03-02 09:53:29
3.0699999332428,42.59454246,-72.55037649,86.5999984741211,2012-03-02 09:53:32
3.45300006866455,42.59453888,-72.55037442,88.1999969482422,2012-03-02 09:53:35
3.11299991607666,42.59453955,-72.55037306,88.0999984741211,2012-03-02 09:53:38
2.15700006484985,42.59453914,-72.55037764,88,2012-03-02 09:53:40
2.91300010681152,42.59453855,-72.55038109,88,2012-03-02 09:53:43
2.82200002670288,42.59453889,-72.55038285,88,2012-03-02 09:53:46
1.14199995994568,42.5945389,-72.55038397,87.9000015258789,2012-03-02 09:53:47
2.83200001716614,42.59453904,-72.55038503,87.6999969482422,2012-03-02 09:53:50
1.53299999237061,42.59454002,-72.55038755,87.4000015258789,2012-03-02 09:53:52
1.125,42.59454113,-72.55038936,87.0999984741211,2012-03-02 09:53:53
3.00399994850159,42.59454117,-72.55038956,87.0999984741211,2012-03-02 09:53:56
1.68700003623962,42.59454151,-72.55039202,87.0999984741211,2012-03-02 09:53:58
2.59699988365173,42.5945416,-72.55039486,87.0999984741211,2012-03-02 09:54:00
2.68099999427795,42.59454193,-72.55039613,87.0999984741211,2012-03-02 09:54:03
1.88600015640259,42.59454242,-72.55039668,87,2012-03-02 09:54:05
2.39599990844727,42.59454405,-72.55039742,86.4000015258789,2012-03-02 09:54:07
0.444000005722046,42.59454494,-72.55040049,86.5999984741211,2012-03-02 09:54:08
0.894000053405762,42.59454491,-72.55040168,86.5999984741211,2012-03-02 09:54:08
0.94599986076355,42.59454508,-72.55040056,86.6999969482422,2012-03-02 09:54:09
1.02600002288818,42.59454536,-72.5504008,86.6999969482422,2012-03-02 09:54:10
1.01300001144409,42.59454607,-72.55040074,86.8000030517578,2012-03-02 09:54:11
1.66300010681152,42.59454618,-72.55040085,86.8000030517578,2012-03-02 09:54:13
0.398000001907349,42.59454643,-72.55040146,86.9000015258789,2012-03-02 09:54:13
0.947999954223633,42.59454658,-72.55040171,87,2012-03-02 09:54:14
1.05999994277954,42.59454684,-72.55040181,87,2012-03-02 09:54:15
0.960999965667725,42.59454675,-72.55040179,87,2012-03-02 09:54:16
0.978000164031982,42.59454674,-72.55040133,87,2012-03-02 09:54:17
0.990000009536743,42.59454674,-72.55040089,87.0999984741211,2012-03-02 09:54:18
0.985999822616577,42.5945469,-72.55039976,87.0999984741211,2012-03-02 09:54:19
1.00400018692017,42.59454746,-72.55039729,87.0999984741211,2012-03-02 09:54:20
1.00599980354309,42.59454764,-72.55039645,87.0999984741211,2012-03-02 09:54:21
1,42.59454755,-72.55039581,87.0999984741211,2012-03-02 09:54:22
1.00800013542175,42.59454705,-72.55039608,87,2012-03-02 09:54:23
1.0019998550415,42.59454714,-72.55039582,87,2012-03-02 09:54:24
1.125,42.59454726,-72.55039551,87,2012-03-02 09:54:26
0.909000158309937,42.59454736,-72.55039586,87,2012-03-02 09:54:26
0.958999872207642,42.59454745,-72.5503961,87,2012-03-02 09:54:27
0.970000028610229,42.59454734,-72.5503953,86.9000015258789,2012-03-02 09:54:28
1.03800010681152,42.59454742,-72.550395,86.9000015258789,2012-03-02 09:54:29
0.991999864578247,42.59454737,-72.55039421,86.9000015258789,2012-03-02 09:54:30
1.23699998855591,42.59454773,-72.55039293,87,2012-03-02 09:54:32
0.759000062942505,42.59454828,-72.55039169,87,2012-03-02 09:54:32
1.1100001335144,42.59454843,-72.55039135,87.0999984741211,2012-03-02 09:54:34
0.904999971389771,42.59454852,-72.55039078,87.0999984741211,2012-03-02 09:54:34
0.985999822616577,42.59454871,-72.55039041,87.0999984741211,2012-03-02 09:54:35
1.007000207901,42.59454882,-72.55038988,87.1999969482422,2012-03-02 09:54:36
2.33499979972839,42.59454886,-72.55038898,87.0999984741211,2012-03-02 09:54:39
1.45099997520447,42.5945491,-72.55038805,87.1999969482422,2012-03-02 09:54:40
0.218000173568726,42.59454881,-72.55038685,87.0999984741211,2012-03-02 09:54:40
0.99399995803833,42.59454875,-72.55038686,87.0999984741211,2012-03-02 09:54:41
2.47399997711182,42.59454862,-72.55038653,87.0999984741211,2012-03-02 09:54:44
1.56699991226196,42.59454902,-72.55038631,87.0999984741211,2012-03-02 09:54:45
0.909000158309937,42.59454936,-72.55038508,87.0999984741211,2012-03-02 09:54:46
1.01199984550476,42.59454933,-72.550385,87.0999984741211,2012-03-02 09:54:47
1.0220000743866,42.59454929,-72.55038515,87.0999984741211,2012-03-02 09:54:48
1.04100012779236,42.59454952,-72.55038484,87.1999969482422,2012-03-02 09:54:49
1.33599996566772,42.59454973,-72.5503848,87.1999969482422,2012-03-02 09:54:51
0.641000032424927,42.59455034,-72.55038526,87.1999969482422,2012-03-02 09:54:51
1.00999999046326,42.59455064,-72.55038553,87.1999969482422,2012-03-02 09:54:52
0.978999853134155,42.59455077,-72.55038596,87.1999969482422,2012-03-02 09:54:53
1.08100008964539,42.5945505,-72.55038638,87.0999984741211,2012-03-02 09:54:54
0.934999942779541,42.59455058,-72.55038637,87.0999984741211,2012-03-02 09:54:55
0.957000017166138,42.59455058,-72.55038636,87.0999984741211,2012-03-02 09:54:56
1.125,42.59455049,-72.55038648,87.0999984741211,2012-03-02 09:54:58
0.915999889373779,42.59455085,-72.55038682,87.0999984741211,2012-03-02 09:54:58
0.993000030517578,42.59455121,-72.5503869,87.0999984741211,2012-03-02 09:54:59
1.00400018692017,42.59455099,-72.5503879,87.0999984741211,2012-03-02 09:55:00
0.997999906539917,42.59455147,-72.55038676,87.0999984741211,2012-03-02 09:55:01
1.00499987602234,42.59455149,-72.5503868,87.0999984741211,2012-03-02 09:55:02
1.22000002861023,42.59455146,-72.55038677,87.0999984741211,2012-03-02 09:55:04
0.844000101089478,42.59455162,-72.55038682,87.0999984741211,2012-03-02 09:55:04
0.908999919891357,42.59455179,-72.55038662,87.0999984741211,2012-03-02 09:55:05
0.999000072479248,42.59455185,-72.55038682,87.0999984741211,2012-03-02 09:55:06
1.02799987792969,42.59455201,-72.55038783,87.0999984741211,2012-03-02 09:55:07
1.00400018692017,42.59455192,-72.55038785,87.0999984741211,2012-03-02 09:55:08
1.11500000953674,42.59455299,-72.55038718,87.0999984741211,2012-03-02 09:55:10
0.861999988555908,42.59455303,-72.55038737,87.0999984741211,2012-03-02 09:55:10
1.13299989700317,42.59455312,-72.55038701,87.0999984741211,2012-03-02 09:55:12
0.980000019073486,42.59455305,-72.55038677,87.0999984741211,2012-03-02 09:55:13
2.38700008392334,42.59455291,-72.55038686,87.0999984741211,2012-03-02 09:55:15
1.39100003242493,42.59455248,-72.55038831,87.0999984741211,2012-03-02 09:55:16
1.14999985694885,42.59455267,-72.5503884,87.0999984741211,2012-03-02 09:55:17
1.00300002098083,42.59455291,-72.5503886,87.0999984741211,2012-03-02 09:55:18
1.09700012207031,42.59455305,-72.5503884,87.0999984741211,2012-03-02 09:55:20
0.878999948501587,42.59455312,-72.55038849,87.0999984741211,2012-03-02 09:55:20
1.61099982261658,42.5945532,-72.55038854,87.0999984741211,2012-03-02 09:55:22
0.476000070571899,42.59455344,-72.55038873,87.0999984741211,2012-03-02 09:55:23
0.924000024795532,42.5945535,-72.55038876,87,2012-03-02 09:55:23
1.13700008392334,42.59455344,-72.5503888,87.0999984741211,2012-03-02 09:55:25
0.917999982833862,42.5945536,-72.5503885,87.0999984741211,2012-03-02 09:55:25
0.938999891281128,42.59455344,-72.55038882,87.0999984741211,2012-03-02 09:55:26
0.480000019073486,42.59455339,-72.55038928,87.0999984741211,2012-03-02 09:55:27
1.04900002479553,42.59455325,-72.55038863,87.0999984741211,2012-03-02 09:55:28
1.05800008773804,42.59455367,-72.55038913,87.0999984741211,2012-03-02 09:55:29
1.10500001907349,42.59455435,-72.55038931,87.0999984741211,2012-03-02 09:55:30
0.93999981880188,42.59455461,-72.55038959,87.0999984741211,2012-03-02 09:55:31
0.930000066757202,42.59455484,-72.55038936,87.0999984741211,2012-03-02 09:55:32
0.983000040054321,42.59455477,-72.55038966,87.0999984741211,2012-03-02 09:55:33
1.04299998283386,42.59455467,-72.55039009,87,2012-03-02 09:55:34
0.979000091552734,42.59455497,-72.55039001,87,2012-03-02 09:55:35
0.921999931335449,42.59455542,-72.55039077,87.0999984741211,2012-03-02 09:55:36
0.996000051498413,42.59455552,-72.55039083,87.0999984741211,2012-03-02 09:55:37
1.01999998092651,42.59455528,-72.55039112,87,2012-03-02 09:55:38
1.02300000190735,42.59455573,-72.55039096,87.0999984741211,2012-03-02 09:55:39
1.03099989891052,42.59455593,-72.55039127,87.1999969482422,2012-03-02 09:55:40
1.22300004959106,42.59455611,-72.55039045,87.1999969482422,2012-03-02 09:55:41
1.06200003623962,42.59455626,-72.55038996,87.0999984741211,2012-03-02 09:55:42
0.694000005722046,42.59455608,-72.55039038,87.0999984741211,2012-03-02 09:55:43
0.976999998092651,42.594556,-72.55039074,87.0999984741211,2012-03-02 09:55:44
0.990999937057495,42.59455637,-72.55039111,87.1999969482422,2012-03-02 09:55:45
1.08500003814697,42.59455694,-72.55039167,87.1999969482422,2012-03-02 09:55:46
0.977999925613403,42.59455715,-72.55039191,87.1999969482422,2012-03-02 09:55:47
0.936000108718872,42.59455712,-72.55039191,87.1999969482422,2012-03-02 09:55:48
1,42.59455722,-72.55039157,87.1999969482422,2012-03-02 09:55:49
1.02900004386902,42.59455747,-72.5503912,87.3000030517578,2012-03-02 09:55:50
1.13499999046326,42.59455724,-72.55039249,87.1999969482422,2012-03-02 09:55:51
0.957000017166138,42.59455799,-72.55039269,87.1999969482422,2012-03-02 09:55:52
0.891999959945679,42.59455811,-72.55039306,87.3000030517578,2012-03-02 09:55:53
1.13599991798401,42.59455811,-72.55039306,87.3000030517578,2012-03-02 09:55:54
0.950000047683716,42.5945571,-72.55039587,87.1999969482422,2012-03-02 09:55:55
0.924999952316284,42.59455719,-72.55039555,87.1999969482422,2012-03-02 09:55:56
0.986000061035156,42.59455731,-72.55039559,87.1999969482422,2012-03-02 09:55:57
1.00300002098083,42.59455757,-72.55039523,87.3000030517578,2012-03-02 09:55:58
1.26099991798401,42.59455772,-72.55039469,87.3000030517578,2012-03-02 09:55:59
0.773000001907349,42.59455795,-72.55039391,87.3000030517578,2012-03-02 09:56:00
0.956000089645386,42.59455801,-72.55039381,87.3000030517578,2012-03-02 09:56:01
1.12199997901917,42.59455808,-72.55039364,87.3000030517578,2012-03-02 09:56:02
0.88100004196167,42.59455811,-72.5503936,87.3000030517578,2012-03-02 09:56:03
1,42.59455806,-72.55039376,87.3000030517578,2012-03-02 09:56:04
1.06199979782104,42.59455806,-72.55039379,87.3000030517578,2012-03-02 09:56:05
0.934000015258789,42.59455798,-72.55039405,87.3000030517578,2012-03-02 09:56:06
1.14499998092651,42.59455806,-72.55039407,87.3000030517578,2012-03-02 09:56:07
1.11800003051758,42.59455807,-72.55039415,87.3000030517578,2012-03-02 09:56:08
0.748000144958496,42.59455807,-72.55039415,87.3000030517578,2012-03-02 09:56:09
1.00099992752075,42.59455806,-72.55039421,87.3000030517578,2012-03-02 09:56:10
0.986000061035156,42.59455784,-72.55039501,87.3000030517578,2012-03-02 09:56:11
1.15199995040894,42.59455777,-72.55039518,87.3000030517578,2012-03-02 09:56:12
0.924000024795532,42.59455782,-72.55039502,87.3000030517578,2012-03-02 09:56:13
0.91700005531311,42.59455782,-72.55039502,87.3000030517578,2012-03-02 09:56:14
0.994999885559082,42.59455781,-72.55039541,87.3000030517578,2012-03-02 09:56:15
1.03500008583069,42.59455781,-72.55039541,87.3000030517578,2012-03-02 09:56:16
0.990000009536743,42.59455779,-72.55039542,87.3000030517578,2012-03-02 09:56:17
1.10999989509583,42.59455776,-72.55039559,87.3000030517578,2012-03-02 09:56:18
0.884000062942505,42.59455776,-72.55039559,87.3000030517578,2012-03-02 09:56:19
1.03299999237061,42.59455757,-72.55039622,87.3000030517578,2012-03-02 09:56:20
1.0699999332428,42.59455757,-72.55039622,87.3000030517578,2012-03-02 09:56:21
0.947999954223633,42.59455755,-72.55039634,87.3000030517578,2012-03-02 09:56:22
0.927000045776367,42.59455745,-72.55039643,87.3000030517578,2012-03-02 09:56:23
1.00699996948242,42.59455745,-72.55039643,87.3000030517578,2012-03-02 09:56:24
1.12800002098083,42.59455752,-72.55039631,87.3000030517578,2012-03-02 09:56:25
0.878999948501587,42.59455752,-72.55039631,87.3000030517578,2012-03-02 09:56:26
1.06100010871887,42.59455774,-72.550396,87.3000030517578,2012-03-02 09:56:27
1.72499990463257,42.59455774,-72.550396,87.3000030517578,2012-03-02 09:56:29
1.74500012397766,42.59455769,-72.55039616,87.3000030517578,2012-03-02 09:56:30
1.09599995613098,42.59455756,-72.55039673,87.3000030517578,2012-03-02 09:56:32
0.38700008392334,42.59455756,-72.55039673,87.3000030517578,2012-03-02 09:56:32
0.996999979019165,42.59455753,-72.5503968,87.3000030517578,2012-03-02 09:56:33
0.98199987411499,42.59455753,-72.5503968,87.3000030517578,2012-03-02 09:56:34
1.14800000190735,42.5945577,-72.55039641,87.3000030517578,2012-03-02 09:56:35
0.871000051498413,42.59455763,-72.55039661,87.3000030517578,2012-03-02 09:56:36
1.0550000667572,42.59455755,-72.55039669,87.3000030517578,2012-03-02 09:56:37
0.947999954223633,42.59455756,-72.55039668,87.3000030517578,2012-03-02 09:56:38
1.06299996376038,42.59455766,-72.55039661,87.3000030517578,2012-03-02 09:56:39
0.932000160217285,42.59455782,-72.55039636,87.3000030517578,2012-03-02 09:56:40
0.974999904632568,42.59455792,-72.55039648,87.3000030517578,2012-03-02 09:56:41
1.02600002288818,42.59455792,-72.55039648,87.3000030517578,2012-03-02 09:56:42
0.990000009536743,42.59455791,-72.55039651,87.3000030517578,2012-03-02 09:56:43
0.996000051498413,42.59455806,-72.55039597,87.3000030517578,2012-03-02 09:56:44
1.00299978256226,42.59455809,-72.55039584,87.3000030517578,2012-03-02 09:56:45
1.08700013160706,42.59455831,-72.55039593,87.3000030517578,2012-03-02 09:56:46
1,42.59455838,-72.55039596,87.3000030517578,2012-03-02 09:56:47
0.911999940872192,42.59455842,-72.55039614,87.3000030517578,2012-03-02 09:56:48
0.985000133514404,42.59455851,-72.55039613,87.3000030517578,2012-03-02 09:56:49
1.01300001144409,42.59455851,-72.55039613,87.3000030517578,2012-03-02 09:56:50
1.04299998283386,42.59455856,-72.5503963,87.3000030517578,2012-03-02 09:56:51
1.0019998550415,42.5945584,-72.55039638,87.3000030517578,2012-03-02 09:56:52
0.968000173568726,42.59455834,-72.55039665,87.3000030517578,2012-03-02 09:56:53
1.55899977684021,42.59455834,-72.55039665,87.3000030517578,2012-03-02 09:56:55
0.797000169754028,42.59455872,-72.55039623,87.3000030517578,2012-03-02 09:56:55
0.738999843597412,42.59455872,-72.55039623,87.3000030517578,2012-03-02 09:56:56
0.994000196456909,42.59455896,-72.55039573,87.3000030517578,2012-03-02 09:56:57
0.959999799728394,42.594559,-72.55039568,87.3000030517578,2012-03-02 09:56:58
1.00500011444092,42.59455917,-72.55039509,87.3000030517578,2012-03-02 09:56:59
0.964999914169312,42.59455917,-72.55039509,87.3000030517578,2012-03-02 09:57:00
0.992000102996826,42.59455945,-72.55039483,87.3000030517578,2012-03-02 09:57:01
0.971999883651733,42.59455958,-72.55039468,87.3000030517578,2012-03-02 09:57:02
1.01400017738342,42.59455967,-72.55039433,87.3000030517578,2012-03-02 09:57:03
1.03699994087219,42.59455977,-72.55039427,87.3000030517578,2012-03-02 09:57:04
0.973999977111816,42.59455977,-72.55039424,87.3000030517578,2012-03-02 09:57:05
1.07800006866455,42.59455973,-72.55039434,87.3000030517578,2012-03-02 09:57:06
0.990999937057495,42.59455958,-72.55039474,87.3000030517578,2012-03-02 09:57:07
0.912999868392944,42.59455945,-72.55039498,87.3000030517578,2012-03-02 09:57:08
0.980000019073486,42.59455956,-72.55039505,87.3000030517578,2012-03-02 09:57:09
1.02300000190735,42.59455956,-72.55039505,87.3000030517578,2012-03-02 09:57:10
0.996999979019165,42.59455947,-72.5503955,87.3000030517578,2012-03-02 09:57:11
1.0460000038147,42.59455943,-72.55039536,87.3000030517578,2012-03-02 09:57:12
0.963000059127808,42.59455955,-72.55039553,87.3000030517578,2012-03-02 09:57:13
1.02999997138977,42.59455964,-72.55039544,87.3000030517578,2012-03-02 09:57:14
0.970000028610229,42.59455977,-72.55039492,87.3000030517578,2012-03-02 09:57:15
0.995000123977661,42.59455977,-72.55039492,87.3000030517578,2012-03-02 09:57:16
1.11299991607666,42.59455976,-72.55039492,87.3000030517578,2012-03-02 09:57:17
0.947999954223633,42.59455977,-72.55039493,87.3000030517578,2012-03-02 09:57:18
0.939000129699707,42.59455973,-72.550395,87.3000030517578,2012-03-02 09:57:19
0.99399995803833,42.59455978,-72.55039493,87.3000030517578,2012-03-02 09:57:20
1.01999998092651,42.59455978,-72.55039493,87.3000030517578,2012-03-02 09:57:21
1.16700005531311,42.59455978,-72.55039494,87.3000030517578,2012-03-02 09:57:22
0.822999954223633,42.5945598,-72.55039494,87.3000030517578,2012-03-02 09:57:23
1.04500007629395,42.59455982,-72.55039501,87.3000030517578,2012-03-02 09:57:24
1.08200001716614,42.59455982,-72.55039501,87.3000030517578,2012-03-02 09:57:25
0.908999919891357,42.5945598,-72.55039516,87.3000030517578,2012-03-02 09:57:26
1.03900003433228,42.59455979,-72.55039515,87.3000030517578,2012-03-02 09:57:27
0.909999847412109,42.59455984,-72.55039508,87.3000030517578,2012-03-02 09:57:28
1.04400014877319,42.59455968,-72.55039543,87.1999969482422,2012-03-02 09:57:29
0.976999998092651,42.59455967,-72.55039543,87.1999969482422,2012-03-02 09:57:30
0.984999895095825,42.59455965,-72.55039545,87.1999969482422,2012-03-02 09:57:31
1.03600001335144,42.59455968,-72.5503954,87.1999969482422,2012-03-02 09:57:32
1.24799990653992,42.59455962,-72.55039548,87.1999969482422,2012-03-02 09:57:33
0.760000228881836,42.59455965,-72.55039543,87.1999969482422,2012-03-02 09:57:34
0.953999996185303,42.59455966,-72.55039542,87.1999969482422,2012-03-02 09:57:35
1.0699999332428,42.59455969,-72.5503954,87.1999969482422,2012-03-02 09:57:36
0.986999988555908,42.59455971,-72.55039536,87.1999969482422,2012-03-02 09:57:37
0.934000015258789,42.5945597,-72.55039536,87.1999969482422,2012-03-02 09:57:38
1.0149998664856,42.5945597,-72.55039528,87.1999969482422,2012-03-02 09:57:39
1.09000015258789,42.59455992,-72.55039478,87.1999969482422,2012-03-02 09:57:40
0.918999910354614,42.59455989,-72.55039481,87.1999969482422,2012-03-02 09:57:41
1.02300000190735,42.59455989,-72.55039481,87.1999969482422,2012-03-02 09:57:42
1.21499991416931,42.59455984,-72.55039499,87.1999969482422,2012-03-02 09:57:43
0.764000177383423,42.59455984,-72.55039499,87.1999969482422,2012-03-02 09:57:44
0.819000005722046,42.59455983,-72.55039499,87.1999969482422,2012-03-02 09:57:45
0.911999940872192,42.59455983,-72.55039499,87.1999969482422,2012-03-02 09:57:46
0.979000091552734,42.59455979,-72.55039503,87.1999969482422,2012-03-02 09:57:47
1.05799984931946,42.5945598,-72.55039504,87.1999969482422,2012-03-02 09:57:48
0.986999988555908,42.59455979,-72.55039506,87.1999969482422,2012-03-02 09:57:49
1.01100015640259,42.59455972,-72.55039511,87.1999969482422,2012-03-02 09:57:50
1.01199984550476,42.59455972,-72.55039508,87.1999969482422,2012-03-02 09:57:51
1.32200002670288,42.59455972,-72.55039508,87.1999969482422,2012-03-02 09:57:52
1.63899993896484,42.59455972,-72.55039508,87.1999969482422,2012-03-02 09:57:54
1.05000019073486,42.5945574045181,-72.5503957271576,58.7000007629395,2012-03-02 09:57:55
0.927999973297119,42.5945574045181,-72.5503957271576,58.7000007629395,2012-03-02 09:57:56
2.51999998092651,42.5945574045181,-72.5503957271576,58.7000007629395,2012-03-02 09:57:58
2.0479998588562,42.5945574045181,-72.5503957271576,58.7000007629395,2012-03-02 09:58:00
0.312000036239624,42.5945574045181,-72.5503957271576,58.7000007629395,2012-03-02 09:58:01
0.144999980926514,42.5945574045181,-72.5503957271576,58.7000007629395,2012-03-02 09:58:01
1.04999995231628,42.5945574045181,-72.5503957271576,58.7000007629395,2012-03-02 09:58:02
0.936000108718872,42.5945574045181,-72.5503957271576,58.7000007629395,2012-03-02 09:58:03
0.999000072479248,42.5945574045181,-72.5503957271576,58.7000007629395,2012-03-02 09:58:04
1.11500000953674,42.5945574045181,-72.5503957271576,58.7000007629395,2012-03-02 09:58:05
1.15400004386902,42.5945574045181,-72.5503957271576,58.7000007629395,2012-03-02 09:58:06
0.74399995803833,42.5945574045181,-72.5503957271576,58.7000007629395,2012-03-02 09:58:07
2.41999983787537,42.5945574045181,-72.5503957271576,58.7000007629395,2012-03-02 09:58:09
1.04400014877319,42.5945574045181,-72.5503957271576,58.7000007629395,2012-03-02 09:58:10
0.178999900817871,42.5945574045181,-72.5503957271576,58.7000007629395,2012-03-02 09:58:10
0.355000019073486,42.5945574045181,-72.5503957271576,58.7000007629395,2012-03-02 09:58:11
1.04800009727478,42.5945574045181,-72.5503957271576,58.7000007629395,2012-03-02 09:58:12
0.95199990272522,42.5945574045181,-72.5503957271576,58.7000007629395,2012-03-02 09:58:13
2.34200000762939,42.5945574045181,-72.5503957271576,58.7000007629395,2012-03-02 09:58:15
1.96199989318848,42.5945574045181,-72.5503957271576,58.7000007629395,2012-03-02 09:58:17
0.604000091552734,42.5945574045181,-72.5503957271576,58.7000007629395,2012-03-02 09:58:18
0.214999914169312,42.5945574045181,-72.5503957271576,58.7000007629395,2012-03-02 09:58:18
0.846000194549561,42.5945574045181,-72.5503957271576,58.7000007629395,2012-03-02 09:58:19
1.02799987792969,42.5945574045181,-72.5504010915756,58.7000007629395,2012-03-02 09:58:20
1.00699996948242,42.5945574045181,-72.5504010915756,58.7000007629395,2012-03-02 09:58:21
1.01699995994568,42.5945574045181,-72.5504010915756,58.7000007629395,2012-03-02 09:58:22
1.43200016021729,42.5945574045181,-72.5504010915756,58.7000007629395,2012-03-02 09:58:23
0.53600001335144,42.5945574045181,-72.5504010915756,58.7000007629395,2012-03-02 09:58:24
1.00399994850159,42.5945574045181,-72.5504010915756,58.7000007629395,2012-03-02 09:58:25
1.0550000667572,42.5945574045181,-72.5504010915756,58.7000007629395,2012-03-02 09:58:26
0.990999937057495,42.5945574045181,-72.5504010915756,58.7000007629395,2012-03-02 09:58:27
1.06800007820129,42.5945574045181,-72.5504010915756,58.7000007629395,2012-03-02 09:58:28
0.921000003814697,42.5945574045181,-72.5504010915756,58.7000007629395,2012-03-02 09:58:29
0.95799994468689,42.5945574045181,-72.5504010915756,58.7000007629395,2012-03-02 09:58:30
1.0019998550415,42.5945574045181,-72.5504010915756,58.7000007629395,2012-03-02 09:58:31
0.991000175476074,42.5945574045181,-72.5504010915756,58.7000007629395,2012-03-02 09:58:32
1.01099991798401,42.5945574045181,-72.5504010915756,58.7000007629395,2012-03-02 09:58:33
1,42.5945574045181,-72.5504010915756,58.7000007629395,2012-03-02 09:58:34
1.00999999046326,42.5945574045181,-72.5504010915756,58.7000007629395,2012-03-02 09:58:35
1.08400011062622,42.5945574045181,-72.5504010915756,58.7000007629395,2012-03-02 09:58:36
0.970999956130981,42.5945574045181,-72.5504010915756,58.7000007629395,2012-03-02 09:58:37
0.935999870300293,42.5945574045181,-72.5504010915756,58.7000007629395,2012-03-02 09:58:38
1.00600004196167,42.5945574045181,-72.5504010915756,58.7000007629395,2012-03-02 09:58:39
1.00200009346008,42.5945574045181,-72.5504010915756,58.7000007629395,2012-03-02 09:58:40
0.994999885559082,42.5945574045181,-72.5504010915756,58.7000007629395,2012-03-02 09:58:41
0.990000009536743,42.5945574045181,-72.5504010915756,58.7000007629395,2012-03-02 09:58:42
1.12199997901917,42.5945574045181,-72.5504010915756,58.7000007629395,2012-03-02 09:58:43
0.904000043869019,42.5945574045181,-72.5504010915756,58.7000007629395,2012-03-02 09:58:44
0.979000091552734,42.5945574045181,-72.5504010915756,58.7000007629395,2012-03-02 09:58:45
1.00899982452393,42.5945574045181,-72.5504010915756,58.7000007629395,2012-03-02 09:58:46
1.19000005722046,42.5945574045181,-72.5504010915756,58.7000007629395,2012-03-02 09:58:47
0.89300012588501,42.5945574045181,-72.5504010915756,58.7000007629395,2012-03-02 09:58:48
0.908999919891357,42.5945574045181,-72.5504010915756,58.7000007629395,2012-03-02 09:58:49
1.00300002098083,42.5945574045181,-72.5504010915756,58.7000007629395,2012-03-02 09:58:50
1.03799986839294,42.5945574045181,-72.5504010915756,58.7000007629395,2012-03-02 09:58:51
0.976000070571899,42.5945574045181,-72.5504010915756,58.7000007629395,2012-03-02 09:58:52
0.982000112533569,42.5945574045181,-72.5504010915756,58.7000007629395,2012-03-02 09:58:53
1.0239999294281,42.5945574045181,-72.5504010915756,58.7000007629395,2012-03-02 09:58:54
0.989000082015991,42.5945574045181,-72.5504010915756,58.7000007629395,2012-03-02 09:58:55
1.0460000038147,42.5945574045181,-72.5504010915756,58.7000007629395,2012-03-02 09:58:56
0.991999864578247,42.5945574045181,-72.5504010915756,58.7000007629395,2012-03-02 09:58:57
1.04500007629395,42.5945574045181,-72.5504010915756,58.7000007629395,2012-03-02 09:58:58
0.904999971389771,42.5945574045181,-72.5504010915756,58.7000007629395,2012-03-02 09:58:59
0.980000019073486,42.5945574045181,-72.5504010915756,58.7000007629395,2012-03-02 09:59:00
1.03600001335144,42.5945574045181,-72.5504010915756,58.7000007629395,2012-03-02 09:59:01
1.00499987602234,42.5945574045181,-72.5504010915756,58.7000007629395,2012-03-02 09:59:02
0.990000009536743,42.5945574045181,-72.5504010915756,58.7000007629395,2012-03-02 09:59:03
1.00800013542175,42.5945574045181,-72.5504010915756,58.7000007629395,2012-03-02 09:59:04
1.11699986457825,42.5945574045181,-72.5504010915756,58.7000007629395,2012-03-02 09:59:05
0.904000043869019,42.5945574045181,-72.5504010915756,58.7000007629395,2012-03-02 09:59:06
0.970999956130981,42.5945574045181,-72.5504010915756,58.7000007629395,2012-03-02 09:59:07
0.998000144958496,42.5945574045181,-72.5504010915756,58.7000007629395,2012-03-02 09:59:08
1.00600004196167,42.5945574045181,-72.5504010915756,58.7000007629395,2012-03-02 09:59:09
0.98799991607666,42.5945574045181,-72.5504010915756,58.7000007629395,2012-03-02 09:59:10
1.00999999046326,42.5945574045181,-72.5504010915756,58.7000007629395,2012-03-02 09:59:11
0.996999979019165,42.5945574045181,-72.5504010915756,58.7000007629395,2012-03-02 09:59:12
1.06200003623962,42.5945574045181,-72.5504010915756,58.7000007629395,2012-03-02 09:59:13
0.920000076293945,42.5945574045181,-72.5504010915756,58.7000007629395,2012-03-02 09:59:14
1.03199982643127,42.5945574045181,-72.5504010915756,58.7000007629395,2012-03-02 09:59:15
0.996000051498413,42.5945574045181,-72.5504010915756,58.7000007629395,2012-03-02 09:59:16
1.00200009346008,42.5945574045181,-72.5504010915756,58.7000007629395,2012-03-02 09:59:17
0.998999834060669,42.5945574045181,-72.5504010915756,58.7000007629395,2012-03-02 09:59:18
0.989000082015991,42.5945574045181,-72.5504010915756,58.7000007629395,2012-03-02 09:59:19
1.04500007629395,42.5945574045181,-72.5504010915756,58.7000007629395,2012-03-02 09:59:20
0.940999984741211,42.5945574045181,-72.5504010915756,58.7000007629395,2012-03-02 09:59:21
0.976000070571899,42.5945574045181,-72.5504010915756,58.7000007629395,2012-03-02 09:59:22
1.04099988937378,42.5945574045181,-72.5504010915756,58.7000007629395,2012-03-02 09:59:23
1.01500010490417,42.5945574045181,-72.5504010915756,58.7000007629395,2012-03-02 09:59:24
1,42.5945574045181,-72.5504010915756,58.7000007629395,2012-03-02 09:59:25
0.970999956130981,42.5945574045181,-72.5504010915756,58.7000007629395,2012-03-02 09:59:26
1.78199982643127,42.5945574045181,-72.5504010915756,58.7000007629395,2012-03-02 09:59:27
0.896000146865845,42.5945574045181,-72.5504010915756,58.7000007629395,2012-03-02 09:59:28
0.98799991607666,42.5945574045181,-72.5504010915756,58.7000007629395,2012-03-02 09:59:29
1.0090000629425,42.5945574045181,-72.5504010915756,58.7000007629395,2012-03-02 09:59:30
1.01900005340576,42.5945574045181,-72.5504010915756,58.7000007629395,2012-03-02 09:59:31
0.99399995803833,42.5945574045181,-72.5504010915756,58.7000007629395,2012-03-02 09:59:32
0.996000051498413,42.5945574045181,-72.5504010915756,58.7000007629395,2012-03-02 09:59:33
1.13099980354309,42.5945574045181,-72.5504010915756,58.7000007629395,2012-03-02 09:59:34
0.916000127792358,42.5945574045181,-72.5504010915756,58.7000007629395,2012-03-02 09:59:35
0.960000038146973,42.5945574045181,-72.5504010915756,58.7000007629395,2012-03-02 09:59:36
1.17700004577637,42.59455938,-72.55040042,86.6999969482422,2012-03-02 09:59:38
0.821999788284302,42.59455938,-72.55040086,86.6999969482422,2012-03-02 09:59:38
1.00500011444092,42.59455937,-72.55040106,86.6999969482422,2012-03-02 09:59:39
0.996999979019165,42.59455935,-72.55040113,86.6999969482422,2012-03-02 09:59:40
1.05599999427795,42.5945574045181,-72.5504010915756,58.7000007629395,2012-03-02 09:59:41
0.949000120162964,42.5945574045181,-72.5504010915756,58.7000007629395,2012-03-02 09:59:42
0.958999872207642,42.5945574045181,-72.5504010915756,58.7000007629395,2012-03-02 09:59:43
1.02900004386902,42.5945574045181,-72.5504010915756,58.7000007629395,2012-03-02 09:59:44
1,42.5945574045181,-72.5504010915756,58.7000007629395,2012-03-02 09:59:45
1,42.5945574045181,-72.5504010915756,58.7000007629395,2012-03-02 09:59:46
0.996999979019165,42.5945574045181,-72.5504010915756,58.7000007629395,2012-03-02 09:59:47
1.03200006484985,42.5945574045181,-72.5504010915756,58.7000007629395,2012-03-02 09:59:48
0.937000036239624,42.5945574045181,-72.5504010915756,58.7000007629395,2012-03-02 09:59:49
1.03199982643127,42.5945574045181,-72.5504010915756,58.7000007629395,2012-03-02 09:59:50
0.991000175476074,42.5945574045181,-72.5504010915756,58.7000007629395,2012-03-02 09:59:51
0.991999864578247,42.5945574045181,-72.5504010915756,58.7000007629395,2012-03-02 09:59:52
1.00999999046326,42.5945574045181,-72.5504010915756,58.7000007629395,2012-03-02 09:59:53
1.01600003242493,42.5945574045181,-72.5504010915756,58.7000007629395,2012-03-02 09:59:54
1.06800007820129,42.5945574045181,-72.5504010915756,58.7000007629395,2012-03-02 09:59:55
0.909999847412109,42.5945574045181,-72.5504010915756,58.7000007629395,2012-03-02 09:59:56
1.00800013542175,42.5945574045181,-72.5504010915756,58.7000007629395,2012-03-02 09:59:57
0.986999988555908,42.5945574045181,-72.5504010915756,58.7000007629395,2012-03-02 09:59:58
