"diffSecs","level","azimuth.mean","azimuth.absolute.deviation","azimuth.standard.deviation","azimuth.max.deviation","pitch.mean","pitch.absolute.deviation","pitch.standard.deviation","pitch.max.deviation","roll.mean","roll.absolute.deviation","roll.standard.deviation","roll.max.deviation","time"
1.01300001144409,10,15.1200008392334,0.380000025033951,0.446766197681427,0.78000020980835,3.15000009536743,0.129999995231628,0.143178209662437,0.250000059604645,-42.9900016784668,0.152000278234482,0.175784334540367,0.289999783039093,2012-01-31 07:47:09
1.00099992752075,20,14.914999961853,0.317999958992004,0.390224277973175,0.784999668598175,3.5550000667572,0.444999992847443,0.515242636203766,0.944999933242798,-42.7849998474121,0.203499719500542,0.224220782518387,0.384999454021454,2012-01-31 07:47:10
1.0090000629425,20,14.7150001525879,0.179500043392181,0.237223505973816,0.585000097751617,3.95000004768372,0.165000006556511,0.222485974431038,0.549999892711639,-42.8250007629395,0.184999853372574,0.204633593559265,0.374999612569809,2012-01-31 07:47:11
1.02300000190735,19,15.2736845016479,0.403878211975098,0.472220063209534,0.926316440105438,3.72105264663696,0.108587205410004,0.12805812060833,0.278947323560715,-42.7210540771484,0.167312666773796,0.206675335764885,0.521052539348602,2012-01-31 07:47:12
1.00200009346008,20,16.4950008392334,0.64549994468689,0.722132205963135,1.19499981403351,6.11999988555908,0.896000027656555,1.0176442861557,1.91999983787537,-42.4000015258789,0.150000154972076,0.194935947656631,0.400001138448715,2012-01-31 07:47:13
1,20,17.1049995422363,0.227000027894974,0.30736780166626,0.894999802112579,7.03999996185303,0.126000016927719,0.171464323997498,0.540000081062317,-42.2700004577637,0.159999459981918,0.197736963629723,0.42999991774559,2012-01-31 07:47:14
1.0019998550415,20,16.8700008392334,0.259999841451645,0.328785747289658,0.830000281333923,6.76000022888184,0.101999998092651,0.142828568816185,0.459999978542328,-42.3899993896484,0.150000378489494,0.189473003149033,0.409999072551727,2012-01-31 07:47:15
1.04900002479553,21,17.1000003814697,0.438095360994339,0.526443660259247,1.10000050067902,6.57142877578735,0.235374167561531,0.291372567415237,0.571428656578064,-42.3857154846191,0.187755197286606,0.235605806112289,0.514285862445831,2012-01-31 07:47:16
1,20,16.7550010681152,0.749499976634979,0.824909031391144,1.3549998998642,7.13000011444092,0.680000007152557,0.715611636638641,1.03000020980835,-42.435001373291,0.26149982213974,0.29878905415535,0.534999489784241,2012-01-31 07:47:17
1.0090000629425,20,16.7399997711182,0.27400004863739,0.323110014200211,0.639999985694885,7.51999998092651,0.103999987244606,0.128840982913971,0.280000150203705,-42.370002746582,0.180000111460686,0.212367549538612,0.530000507831573,2012-01-31 07:47:18
1.00999999046326,19,16.9578952789307,0.403878271579742,0.452264398336411,0.842105865478516,7.67894744873047,0.236565187573433,0.280185967683792,0.521052360534668,-42.3210525512695,0.119114018976688,0.154166415333748,0.321053147315979,2012-01-31 07:47:19
1.01099991798401,20,16.9400005340576,0.297999739646912,0.363867849111557,0.959999263286591,8.02000045776367,0.0860001668334007,0.120830588042736,0.380000412464142,-42.2200012207031,0.143999710679054,0.183303043246269,0.48000031709671,2012-01-31 07:47:20
1,20,18.1750011444092,0.270000040531158,0.351958751678467,0.775000751018524,8.39999961853027,0.130000069737434,0.148324027657509,0.299999713897705,-41.8899993896484,0.113000527024269,0.154596403241158,0.390000522136688,2012-01-31 07:47:21
1.0220000743866,20,17.2700004577637,0.293999791145325,0.360693663358688,0.729999899864197,7.42000007629395,0.590000033378601,0.673498392105103,1.12000000476837,-42.4049987792969,0.175999835133553,0.2155801653862,0.394998550415039,2012-01-31 07:47:22
1.0479998588562,21,16.795238494873,0.329251617193222,0.388496577739716,0.704761505126953,7.1904764175415,0.162358358502388,0.184918969869614,0.309523731470108,-42.2714309692383,0.096598394215107,0.123992763459682,0.328573137521744,2012-01-31 07:47:23
1.0090000629425,20,16.2299995422363,0.25599992275238,0.327261239290237,0.870000064373016,7.1399998664856,0.174000069499016,0.215406581759453,0.439999788999557,-42.4200019836426,0.151999548077583,0.191310882568359,0.379998385906219,2012-01-31 07:47:24
