"diffSecs","latitude","longitude","altitude","time"
0.38100004196167,42.3711614501936,-70.9880713799999,0,2012-01-13 18:00:00
1.00300002098083,42.3711614501936,-70.9880713799999,0,2012-01-13 18:00:01
1.01099991798401,42.3711646195859,-70.9880713627815,0,2012-01-13 18:00:02
1.07400012016296,42.3711646210559,-70.9880713688925,0,2012-01-13 18:00:03
0.942999839782715,42.3711666205709,-70.988080924994,0,2012-01-13 18:00:04
1.00800013542175,42.3711758583091,-70.9881151717192,0,2012-01-13 18:00:05
1.0090000629425,42.3711843589617,-70.9881447071703,0,2012-01-13 18:00:06
1.00899982452393,42.3711905777204,-70.9881658524312,0,2012-01-13 18:00:07
1.00300002098083,42.3711903098541,-70.9881651623568,0,2012-01-13 18:00:08
1.01800012588501,42.3711908733936,-70.9881650401609,0,2012-01-13 18:00:09
1.05099987983704,42.3711907274387,-70.988164551118,0,2012-01-13 18:00:10
0.967000007629395,42.3711906185036,-70.9881642694967,0,2012-01-13 18:00:11
1.01200008392334,42.371188959228,-70.9881628568509,0,2012-01-13 18:00:12
1.00499987602234,42.3711294466651,-70.9881405786376,0,2012-01-13 18:00:13
1.06000018119812,42.3710474970439,-70.9881113217408,0,2012-01-13 18:00:14
1.00799989700317,42.3710536583033,-70.9881152577112,0,2012-01-13 18:00:15
1.99600005149841,42.3710387509692,-70.988123075872,0,2012-01-13 18:00:17
1.00699996948242,42.3710353196238,-70.9881206876146,0,2012-01-13 18:00:18
1.00799989700317,42.3710352758816,-70.9881214355466,0,2012-01-13 18:00:19
1.09100008010864,42.3710355434766,-70.9881220726134,0,2012-01-13 18:00:20
0.959000110626221,42.3710359615262,-70.9881230446403,0,2012-01-13 18:00:21
1.0259997844696,42.3710363982801,-70.9881239686663,0,2012-01-13 18:00:22
1.01800012588501,42.3710370954211,-70.9881251675598,0,2012-01-13 18:00:23
1,42.3710392976003,-70.9881537073201,0,2012-01-13 18:00:24
1.00499987602234,42.3710432327417,-70.9881996810207,0,2012-01-13 18:00:25
0.990000009536743,42.3710516447256,-70.9882357012519,0,2012-01-13 18:00:26
1.00800013542175,42.3710592858929,-70.9882637041818,0,2012-01-13 18:00:27
1,42.3710641608376,-70.9882878104771,0,2012-01-13 18:00:28
1.02099990844727,42.3710665896421,-70.9883047247965,0,2012-01-13 18:00:29
0.969000101089478,42.3710681920832,-70.9883141520377,0,2012-01-13 18:00:30
1.0090000629425,42.3710712639703,-70.9883293498837,0,2012-01-13 18:00:31
1.00899982452393,42.3710817061323,-70.9883796296407,0,2012-01-13 18:00:32
2213.23100018501,42.3712098719701,-70.9876473830255,-2.03017282485962,2012-01-13 18:37:25
0.967999935150146,42.3712098719701,-70.9876473830255,-2.03017282485962,2012-01-13 18:37:26
1.00799989700317,42.3712098719701,-70.9876473830255,-2.03017282485962,2012-01-13 18:37:27
1.01300001144409,42.3712219750592,-70.9876116428161,0.107961222529411,2012-01-13 18:37:28
1.00300002098083,42.3712240412536,-70.9876087190095,0.704477965831757,2012-01-13 18:37:29
1.05800008773804,42.3712327845819,-70.9876009336116,2.00644636154175,2012-01-13 18:37:30
1.03499984741211,42.3712418380236,-70.9876010079248,3.08866167068481,2012-01-13 18:37:31
0.989000082015991,42.3712399746051,-70.987596275138,4.03633403778076,2012-01-13 18:37:32
1.00600004196167,42.3712399746051,-70.987596275138,4.03633403778076,2012-01-13 18:37:33
1.03200006484985,42.3712504231968,-70.987626167296,5.61047220230103,2012-01-13 18:37:35
1.00799989700317,42.3712505178453,-70.9876262763571,5.61043977737427,2012-01-13 18:37:36
1.03200006484985,42.3712506184293,-70.9876263936866,5.61166334152222,2012-01-13 18:37:37
0.950999975204468,42.3712493459805,-70.9876260845722,6.04230833053589,2012-01-13 18:37:38
1.03999996185303,42.3712479758415,-70.9876248420323,6.00094699859619,2012-01-13 18:37:39
1.06299996376038,42.3712467372011,-70.9876234724881,5.95096969604492,2012-01-13 18:37:40
0.920000076293945,42.3712467182604,-70.9876231102932,5.75972938537598,2012-01-13 18:37:41
1.04299998283386,42.3712468011195,-70.9876232069358,5.7606840133667,2012-01-13 18:37:42
0.971999883651733,42.3712468011195,-70.9876232069358,5.7606840133667,2012-01-13 18:37:43
1.12900018692017,42.3712468011195,-70.9876232069358,5.7606840133667,2012-01-13 18:37:44
0.900999784469604,42.371246799013,-70.9876232016678,5.75860118865967,2012-01-13 18:37:45
1.04000020027161,42.371246799013,-70.9876232016678,5.75860118865967,2012-01-13 18:37:46
0.96399998664856,42.3712469330134,-70.9876233546327,5.7559494972229,2012-01-13 18:37:47
1.04499983787537,42.3712535699322,-70.9876312101223,5.18827962875366,2012-01-13 18:37:48
1.02100014686584,42.3712535699322,-70.9876312101223,5.18827962875366,2012-01-13 18:37:49
1.00999999046326,42.3712514736226,-70.9876302907138,5.11975479125977,2012-01-13 18:37:50
1.09599995613098,42.3712497171458,-70.9876281515025,4.95741558074951,2012-01-13 18:37:51
0.927000045776367,42.3712478457044,-70.987626390968,4.87095737457275,2012-01-13 18:37:52
1.01300001144409,42.371245921113,-70.9876266282496,5.3513355255127,2012-01-13 18:37:53
0.993000030517578,42.371244605037,-70.9876273556502,6.10748291015625,2012-01-13 18:37:54
1.02600002288818,42.371244605037,-70.9876273556502,6.10748291015625,2012-01-13 18:37:55
1.04099988937378,42.371244605037,-70.9876273556502,6.10748291015625,2012-01-13 18:37:56
0.956000089645386,42.371244605037,-70.9876273556502,6.10748291015625,2012-01-13 18:37:57
1.04399991035461,42.371244605037,-70.9876273556502,6.10748291015625,2012-01-13 18:37:58
0.969000101089478,42.3712447428844,-70.9876274880275,6.11089849472046,2012-01-13 18:37:59
1.08299994468689,42.3712447428844,-70.9876274880275,6.11089849472046,2012-01-13 18:38:00
0.932999849319458,42.3712447428844,-70.9876274880275,6.11089849472046,2012-01-13 18:38:01
1.04000020027161,42.3712447428844,-70.9876274880275,6.11089849472046,2012-01-13 18:38:02
0.978999853134155,42.3712447428844,-70.9876274880275,6.11089849472046,2012-01-13 18:38:03
1.00200009346008,42.3712447407546,-70.9876274826021,6.10676002502441,2012-01-13 18:38:04
1.01199984550476,42.3712447400513,-70.987627481088,6.10508251190186,2012-01-13 18:38:05
1.04800009727478,42.371242616022,-70.9876258037665,5.83925676345825,2012-01-13 18:38:06
0.964999914169312,42.3712414708178,-70.9876228770626,4.85442781448364,2012-01-13 18:38:07
1.00500011444092,42.3712400535862,-70.9876175868291,3.22755765914917,2012-01-13 18:38:08
1.0090000629425,42.3712385696295,-70.9876138592346,1.92266356945038,2012-01-13 18:38:09
1.01199984550476,42.3712380447027,-70.9876084962238,-0.115811951458454,2012-01-13 18:38:10
1.00100016593933,42.3712366526174,-70.9876020814925,-2.47322964668274,2012-01-13 18:38:11
1.02999997138977,42.3712346635935,-70.9875968220684,-4.26511907577515,2012-01-13 18:38:12
0.990999937057495,42.3712334944376,-70.9875943822601,-5.50577688217163,2012-01-13 18:38:13
1.02600002288818,42.3712330974397,-70.9875896843887,-7.21314668655396,2012-01-13 18:38:14
0.993000030517578,42.3712309113486,-70.9875823439419,-9.47256374359131,2012-01-13 18:38:15
1.03900003433228,42.3712298648107,-70.9875778430921,-11.0394601821899,2012-01-13 18:38:16
0.97599983215332,42.371229612293,-70.9875740718357,-12.8188924789429,2012-01-13 18:38:17
1.00800013542175,42.3712291090003,-70.9875748281645,-13.2680826187134,2012-01-13 18:38:18
1.00699996948242,42.3712290447884,-70.9875747658466,-13.270489692688,2012-01-13 18:38:19
1.01900005340576,42.3712289806486,-70.9875747031119,-13.2736072540283,2012-01-13 18:38:20
1.00799989700317,42.3712289806486,-70.9875747031119,-13.2736072540283,2012-01-13 18:38:21
0.996000051498413,42.3712289806486,-70.9875747031119,-13.2736072540283,2012-01-13 18:38:22
1.00999999046326,42.3712442887906,-70.9875859787576,-14.8120584487915,2012-01-13 18:38:23
1.07200002670288,42.3712635564568,-70.9875987243072,-16.7064361572266,2012-01-13 18:38:24
0.943000078201294,42.3712992855527,-70.9875976679373,-19.5852890014648,2012-01-13 18:38:25
1.00799989700317,42.3713349872404,-70.9875800062846,-20.1581630706787,2012-01-13 18:38:26
1.00999999046326,42.3713762015361,-70.9875535595131,-20.1860198974609,2012-01-13 18:38:27
1.0699999332428,42.3714249949337,-70.9875305323594,-19.9022274017334,2012-01-13 18:38:28
0.952000141143799,42.3714876354427,-70.9875142904935,-19.9340400695801,2012-01-13 18:38:29
1.05900001525879,42.3715589695428,-70.9874961071862,-19.8773727416992,2012-01-13 18:38:30
0.980000019073486,42.3716407977724,-70.9874854217679,-20.2392177581787,2012-01-13 18:38:31
0.98799991607666,42.3717301966434,-70.9874677728317,-19.9711990356445,2012-01-13 18:38:32
1.01300001144409,42.3718210019257,-70.9874481325201,-20.1947746276855,2012-01-13 18:38:33
1.08699989318848,42.3719181712705,-70.9874332103132,-20.739688873291,2012-01-13 18:38:34
0.976000070571899,42.3721272552607,-70.9873978760302,-21.5456600189209,2012-01-13 18:38:35
1.05099987983704,42.3722339719429,-70.9873692862678,-21.3292083740234,2012-01-13 18:38:36
0.986000061035156,42.3723469234739,-70.9873440401291,-21.6215286254883,2012-01-13 18:38:37
1.02300000190735,42.3724613665277,-70.9873229055857,-21.2658138275146,2012-01-13 18:38:38
0.973000049591064,42.3725679875162,-70.9873021710726,-21.2589817047119,2012-01-13 18:38:39
2.01399993896484,42.3727593497151,-70.9872537712554,-20.4698524475098,2012-01-13 18:38:41
1.17200016975403,42.3728318954127,-70.9872310579751,-19.7007217407227,2012-01-13 18:38:42
0.843999862670898,42.3728751333213,-70.9872118337782,-19.5249557495117,2012-01-13 18:38:43
1.06100010871887,42.3729002467193,-70.9872032329508,-19.5151271820068,2012-01-13 18:38:44
0.95199990272522,42.3729169919109,-70.9872032511899,-19.226037979126,2012-01-13 18:38:45
2.02500009536743,42.3729311008485,-70.9872052672806,-19.2641716003418,2012-01-13 18:38:47
1.03900003433228,42.3729441079601,-70.9872084758018,-19.7421169281006,2012-01-13 18:38:48
0.967000007629395,42.3729614726491,-70.9872115006426,-19.5404872894287,2012-01-13 18:38:49
1.03499984741211,42.3729857946375,-70.9872369155545,-19.588716506958,2012-01-13 18:38:50
0.980000019073486,42.3730193638284,-70.9872932633293,-19.6605854034424,2012-01-13 18:38:51
1.02500009536743,42.3730431860274,-70.9873743732849,-19.7437400817871,2012-01-13 18:38:52
0.990999937057495,42.3730595122427,-70.9874791377537,-19.7805366516113,2012-01-13 18:38:53
1.00799989700317,42.3730749806958,-70.9875928812044,-19.9084587097168,2012-01-13 18:38:54
1.0090000629425,42.3730941382134,-70.987719982086,-19.8272571563721,2012-01-13 18:38:55
1.00699996948242,42.3731194530453,-70.9878616088982,-19.8504066467285,2012-01-13 18:38:56
1.01800012588501,42.37314170157,-70.9880054717104,-19.8530693054199,2012-01-13 18:38:57
1.02900004386902,42.3731689928623,-70.9881665222745,-19.5020771026611,2012-01-13 18:38:58
0.973999977111816,42.3731955422914,-70.9883272256933,-19.1355781555176,2012-01-13 18:38:59
1.05699992179871,42.3732211663056,-70.9884983401163,-18.8961029052734,2012-01-13 18:39:00
1.0090000629425,42.3732407974947,-70.9886729215718,-18.8356685638428,2012-01-13 18:39:01
1.00699996948242,42.3732531541955,-70.9888474673497,-18.7075252532959,2012-01-13 18:39:02
1.00699996948242,42.373263674053,-70.9890248425179,-18.8697128295898,2012-01-13 18:39:03
1.0090000629425,42.3732800287827,-70.9891937173584,-18.4959602355957,2012-01-13 18:39:04
1.00999999046326,42.3732958595183,-70.9893583409574,-18.0761489868164,2012-01-13 18:39:05
1.03499984741211,42.3733094554864,-70.989523839579,-17.7527484893799,2012-01-13 18:39:06
1,42.3733269333316,-70.9896823108623,-17.405668258667,2012-01-13 18:39:07
0.989000082015991,42.3733431245805,-70.9898393612335,-17.2063007354736,2012-01-13 18:39:08
1.00699996948242,42.373357786455,-70.989990747609,-17.4733657836914,2012-01-13 18:39:09
1.00699996948242,42.3733771180207,-70.9901361113765,-17.8007831573486,2012-01-13 18:39:10
1.00600004196167,42.373394682988,-70.990284647835,-18.2609882354736,2012-01-13 18:39:11
1.19300007820129,42.3734105228975,-70.9904246126413,-18.7757415771484,2012-01-13 18:39:13
0.888000011444092,42.373422984201,-70.9905630179266,-19.1604804992676,2012-01-13 18:39:13
0.944999933242798,42.3734444918585,-70.9906877456212,-19.4204330444336,2012-01-13 18:39:14
1.01300001144409,42.3734760394005,-70.9908087876239,-19.3977184295654,2012-01-13 18:39:15
1.00999999046326,42.3735302018725,-70.9909002739349,-19.3320293426514,2012-01-13 18:39:16
1.00399994850159,42.3735866734525,-70.9909731305093,-19.2270240783691,2012-01-13 18:39:17
1.18900012969971,42.3736553781179,-70.9910296346031,-19.022912979126,2012-01-13 18:39:19
0.824999809265137,42.3737251587061,-70.9910788885071,-18.6932525634766,2012-01-13 18:39:19
1.0090000629425,42.3738061593705,-70.9911219369235,-17.7931232452393,2012-01-13 18:39:20
1.0090000629425,42.3738882027614,-70.9911662664149,-17.2556266784668,2012-01-13 18:39:21
1.02099990844727,42.3739702447716,-70.9912084537956,-16.9413185119629,2012-01-13 18:39:23
0.99399995803833,42.3740549989371,-70.9912492040679,-16.5321292877197,2012-01-13 18:39:24
1.02500009536743,42.3741422154157,-70.991291703149,-16.3610019683838,2012-01-13 18:39:25
0.993000030517578,42.3742332698599,-70.9913285828347,-15.6464147567749,2012-01-13 18:39:26
1.03600001335144,42.3743179073597,-70.9913647106326,-15.3930435180664,2012-01-13 18:39:27
1.01200008392334,42.3744043740026,-70.991402486676,-15.1926784515381,2012-01-13 18:39:28
0.977999925613403,42.3744891757386,-70.9914345754394,-15.2091684341431,2012-01-13 18:39:29
1.00799989700317,42.3745787576677,-70.9914610482538,-14.7982654571533,2012-01-13 18:39:30
1.03400015830994,42.3746737353091,-70.9914971838898,-14.2512855529785,2012-01-13 18:39:31
1.01399993896484,42.3747655182753,-70.9915400793631,-14.0087423324585,2012-01-13 18:39:32
0.974999904632568,42.3748662714518,-70.9915863236308,-13.7321376800537,2012-01-13 18:39:33
1.13800001144409,42.3749695992773,-70.9916373787264,-13.4787044525146,2012-01-13 18:39:34
0.894999980926514,42.3750654889605,-70.9916771155332,-13.093337059021,2012-01-13 18:39:35
0.991000175476074,42.3751664775085,-70.9917271138495,-12.8961973190308,2012-01-13 18:39:36
1.02199983596802,42.3752713482774,-70.9917855145539,-12.8712787628174,2012-01-13 18:39:37
0.995000123977661,42.3753825805228,-70.9918383809366,-12.7288665771484,2012-01-13 18:39:38
1.05699992179871,42.3754926363092,-70.9918871760895,-12.3578777313232,2012-01-13 18:39:39
1.0220000743866,42.3756021727937,-70.9919400312236,-11.9630069732666,2012-01-13 18:39:40
1.02999997138977,42.3757199403131,-70.9919965301435,-11.8168621063232,2012-01-13 18:39:41
1.05399990081787,42.3758385823778,-70.9920512181353,-11.8889446258545,2012-01-13 18:39:42
0.963000059127808,42.3759569673955,-70.9921061943752,-11.5412702560425,2012-01-13 18:39:43
0.966000080108643,42.3760753630006,-70.9921632950642,-11.2527828216553,2012-01-13 18:39:44
1.00799989700317,42.3761872666711,-70.9922136484664,-11.2231845855713,2012-01-13 18:39:45
1.00699996948242,42.3762957952812,-70.9922570958267,-11.3088874816895,2012-01-13 18:39:46
1.00699996948242,42.3764036241563,-70.9922823366075,-11.4956912994385,2012-01-13 18:39:47
1.0090000629425,42.3765186699069,-70.9922853274993,-11.8444700241089,2012-01-13 18:39:48
1.00699996948242,42.3766372496976,-70.9922775683232,-11.9951448440552,2012-01-13 18:39:49
1.00999999046326,42.3767702552602,-70.992251063971,-11.8137922286987,2012-01-13 18:39:50
1.03700017929077,42.376911229877,-70.9922190775562,-11.2294778823853,2012-01-13 18:39:51
0.991999864578247,42.3770583302003,-70.9921893888876,-11.0387296676636,2012-01-13 18:39:52
1.00500011444092,42.3771984311973,-70.9921656845827,-10.8502330780029,2012-01-13 18:39:53
1.01600003242493,42.3773375267467,-70.99213519361,-10.5992584228516,2012-01-13 18:39:54
1.03199982643127,42.3774727932541,-70.9921172636071,-10.4645395278931,2012-01-13 18:39:55
0.986999988555908,42.3776069306678,-70.992101415144,-10.0834674835205,2012-01-13 18:39:56
1.06599998474121,42.3777401598254,-70.9920783104839,-9.58267116546631,2012-01-13 18:39:57
0.962000131607056,42.3778689751288,-70.9920611457127,-8.78532695770264,2012-01-13 18:39:58
1.04399991035461,42.3779968870139,-70.992041957838,-7.89248847961426,2012-01-13 18:39:59
0.995000123977661,42.3781208610026,-70.9920242505713,-7.03144931793213,2012-01-13 18:40:00
1.02799987792969,42.3782410386026,-70.9920093104183,-6.19084358215332,2012-01-13 18:40:01
0.949000120162964,42.3783556043196,-70.9919982818917,-5.38305521011353,2012-01-13 18:40:02
1.17599987983704,42.3784715460314,-70.9919890855914,-4.3475604057312,2012-01-13 18:40:03
0.824000120162964,42.3785819588016,-70.9919765957723,-3.73580050468445,2012-01-13 18:40:04
1.00699996948242,42.3786879226778,-70.9919558554258,-2.71477675437927,2012-01-13 18:40:05
1.01900005340576,42.3787864795815,-70.9919348209351,-2.51992273330688,2012-01-13 18:40:06
0.997999906539917,42.3788824282792,-70.9919177203676,-1.82752156257629,2012-01-13 18:40:07
1.01099991798401,42.3789753804177,-70.9919061170133,-1.2790664434433,2012-01-13 18:40:08
1.05299997329712,42.3790601217723,-70.9918953912638,-0.97231113910675,2012-01-13 18:40:09
0.962000131607056,42.3791465345315,-70.9918773082955,-0.379264861345291,2012-01-13 18:40:10
1.00699996948242,42.3792368204843,-70.9918558889734,0.111273191869259,2012-01-13 18:40:11
1.0090000629425,42.3793230202601,-70.9918375504049,0.407840728759766,2012-01-13 18:40:12
1.00699996948242,42.3794093662882,-70.9918255835526,0.650630593299866,2012-01-13 18:40:13
1.00699996948242,42.3794928269142,-70.9918119022733,0.491251766681671,2012-01-13 18:40:14
1.01300001144409,42.3795816748402,-70.9917983660036,0.138921603560448,2012-01-13 18:40:15
1.00399994850159,42.3796661686065,-70.9917792260371,0.0260460563004017,2012-01-13 18:40:16
1.12199997901917,42.3797541216035,-70.9917653707004,-0.374572843313217,2012-01-13 18:40:17
0.947999954223633,42.3799381938912,-70.9917399165736,-1.0485657453537,2012-01-13 18:40:18
2.01500010490417,42.380124147454,-70.9917160152851,-2.12509346008301,2012-01-13 18:40:20
1.04399991035461,42.3802137246731,-70.991702420064,-2.67446255683899,2012-01-13 18:40:21
2.01800012588501,42.3804037652675,-70.9916789105057,-3.38993549346924,2012-01-13 18:40:23
0.967000007629395,42.380501382712,-70.9916701369813,-4.12311506271362,2012-01-13 18:40:24
1.0479998588562,42.3805902354337,-70.9916654077052,-4.60578536987305,2012-01-13 18:40:25
0.966000080108643,42.3806778457859,-70.9916637270262,-5.04251098632812,2012-01-13 18:40:26
1.01900005340576,42.3807764779788,-70.9916630626333,-5.50316143035889,2012-01-13 18:40:27
2.00099992752075,42.3809686319006,-70.991643872771,-5.63888168334961,2012-01-13 18:40:29
1.00800013542175,42.3810653363785,-70.991631139835,-5.52519941329956,2012-01-13 18:40:30
1.01699995994568,42.3811640278996,-70.9916305824363,-5.56840419769287,2012-01-13 18:40:31
0.997999906539917,42.3812481348164,-70.9916273532868,-5.61839628219604,2012-01-13 18:40:32
1.03200006484985,42.3813325691359,-70.9916238520498,-5.28510236740112,2012-01-13 18:40:33
1.99799990653992,42.3815021119707,-70.9916151514977,-3.39908695220947,2012-01-13 18:40:35
0.999000072479248,42.3815953800824,-70.9916099738206,-1.61119198799133,2012-01-13 18:40:36
1.00699996948242,42.3816713374098,-70.9916044844561,-0.390901863574982,2012-01-13 18:40:37
1.00800013542175,42.3817299390486,-70.9916026326351,0.459063053131104,2012-01-13 18:40:38
1.00799989700317,42.381776699671,-70.9916027380947,1.04253888130188,2012-01-13 18:40:39
1.00999999046326,42.3818044095787,-70.9916010853939,1.40618789196014,2012-01-13 18:40:40
1.00399994850159,42.3818196301727,-70.9916012748461,1.64004743099213,2012-01-13 18:40:41
1.01100015640259,42.3818343188152,-70.9915974454527,1.77314591407776,2012-01-13 18:40:42
1.01299977302551,42.3818548333028,-70.9915906672868,1.67726826667786,2012-01-13 18:40:43
1.00300002098083,42.3818856433713,-70.9915849265896,1.97089290618896,2012-01-13 18:40:44
1.0090000629425,42.3819217718359,-70.9915747159687,2.4118983745575,2012-01-13 18:40:45
1.05800008773804,42.381969044104,-70.9915608861193,2.85091519355774,2012-01-13 18:40:46
1.03799986839294,42.3820282192617,-70.9915494697541,3.084716796875,2012-01-13 18:40:47
0.973999977111816,42.382086143328,-70.9915377445878,2.82902312278748,2012-01-13 18:40:48
1.01100015640259,42.3821476539697,-70.9915241433592,2.98799610137939,2012-01-13 18:40:49
1.00399994850159,42.3822106286817,-70.9915085743019,3.37780475616455,2012-01-13 18:40:50
1.06299996376038,42.3822672539397,-70.9914922296622,3.61182641983032,2012-01-13 18:40:51
0.952000141143799,42.3823166768566,-70.9914830964633,3.46181702613831,2012-01-13 18:40:52
1.02799987792969,42.3823554965049,-70.9914801159355,3.14988017082214,2012-01-13 18:40:53
0.983999967575073,42.382393482887,-70.9914853879726,3.06078195571899,2012-01-13 18:40:54
1.00800013542175,42.382432934241,-70.9914956385727,3.27500510215759,2012-01-13 18:40:55
1.01999998092651,42.3824730967978,-70.9915138635583,3.36778688430786,2012-01-13 18:40:56
0.996999979019165,42.3825173709453,-70.9915424314361,3.53754305839539,2012-01-13 18:40:57
1.01300001144409,42.3825559252808,-70.9915999255676,4.19802713394165,2012-01-13 18:40:58
1.03999996185303,42.3825858706899,-70.9916708940609,4.86175870895386,2012-01-13 18:40:59
0.970000028610229,42.3826070790308,-70.9917470216047,5.44823217391968,2012-01-13 18:41:00
1.01999998092651,42.3826186833956,-70.9918419952689,5.91516828536987,2012-01-13 18:41:01
0.996000051498413,42.3826240784557,-70.9919574728418,6.55160570144653,2012-01-13 18:41:02
1.01399993896484,42.3826337625994,-70.9920806654189,6.92396926879883,2012-01-13 18:41:03
1.01300001144409,42.3826420300334,-70.9921970275687,7.61516237258911,2012-01-13 18:41:04
1.02499985694885,42.3826441979052,-70.9923125640604,8.52838134765625,2012-01-13 18:41:05
0.979000091552734,42.3826511824173,-70.992422322803,9.01934719085693,2012-01-13 18:41:06
1.0090000629425,42.3826572973962,-70.992517908719,9.60857200622559,2012-01-13 18:41:07
1.03499984741211,42.382663159794,-70.9926004777853,10.4070348739624,2012-01-13 18:41:08
1.00500011444092,42.3826649069391,-70.9926742342069,11.6243419647217,2012-01-13 18:41:09
0.986999988555908,42.3826668150073,-70.9927423033669,11.9474096298218,2012-01-13 18:41:10
1.00799989700317,42.382666388765,-70.9928101730316,12.5934448242188,2012-01-13 18:41:11
1.00300002098083,42.3826684205886,-70.9928864596211,12.9275541305542,2012-01-13 18:41:12
1.0090000629425,42.3826685145736,-70.9929724099553,13.312520980835,2012-01-13 18:41:14
1.00500011444092,42.3826676140179,-70.9930682568323,13.044361114502,2012-01-13 18:41:15
1.01399993896484,42.3826617995924,-70.9931750794541,12.3862056732178,2012-01-13 18:41:16
1.07699990272522,42.3826611698573,-70.9932638317409,11.7775793075562,2012-01-13 18:41:17
0.996000051498413,42.3826670397778,-70.9933506977385,11.5519981384277,2012-01-13 18:41:18
1.00200009346008,42.3826683484158,-70.9934400689593,11.5800075531006,2012-01-13 18:41:19
1,42.3826702236028,-70.9935260415779,11.5971622467041,2012-01-13 18:41:20
1.02099990844727,42.3826730081255,-70.9936178396462,11.2606048583984,2012-01-13 18:41:21
0.996999979019165,42.3826783458397,-70.9937113594898,10.8606386184692,2012-01-13 18:41:22
1.00800013542175,42.3826843391368,-70.9938027817154,10.7314624786377,2012-01-13 18:41:23
1.00799989700317,42.3826856657088,-70.993905359601,9.99324512481689,2012-01-13 18:41:24
1.0090000629425,42.3826882918112,-70.9940103013713,9.52979564666748,2012-01-13 18:41:25
1.01699995994568,42.3826936616835,-70.9941199755533,8.80013751983643,2012-01-13 18:41:26
0.996000051498413,42.3827006274815,-70.9942323274056,8.11054611206055,2012-01-13 18:41:27
1.01099991798401,42.3827084695105,-70.9943460826663,7.40978002548218,2012-01-13 18:41:28
1.04399991035461,42.3827129110245,-70.9944641949267,6.47147941589355,2012-01-13 18:41:29
0.978000164031982,42.3827209128055,-70.9945777770905,6.38299179077148,2012-01-13 18:41:30
0.996000051498413,42.3827391506808,-70.9946848234023,6.91751527786255,2012-01-13 18:41:31
1.00899982452393,42.3827638862453,-70.9947866019376,6.72142696380615,2012-01-13 18:41:32
1.03200006484985,42.3827845797679,-70.9948825722294,5.44925880432129,2012-01-13 18:41:33
0.98799991607666,42.3827992367189,-70.9949708877446,4.55838108062744,2012-01-13 18:41:34
1.01500010490417,42.3828165267306,-70.9950459306237,4.40867567062378,2012-01-13 18:41:35
0.99399995803833,42.3828331529634,-70.9951201664168,4.29823684692383,2012-01-13 18:41:36
1.06500005722046,42.3828496151586,-70.9952016875424,4.23182392120361,2012-01-13 18:41:37
0.961999893188477,42.3828702227113,-70.9952924073336,3.91389656066895,2012-01-13 18:41:38
1.07800006866455,42.3828907938266,-70.9953946565376,3.15053558349609,2012-01-13 18:41:39
0.944999933242798,42.3829103885677,-70.9955106146579,2.23762273788452,2012-01-13 18:41:40
1.08599996566772,42.3829297465921,-70.9956374642712,1.10284030437469,2012-01-13 18:41:41
0.944000005722046,42.3829529847967,-70.9957715332683,0.484501153230667,2012-01-13 18:41:42
1.08400011062622,42.3829797675946,-70.9959094147045,0.551082372665405,2012-01-13 18:41:43
0.971999883651733,42.3830089791677,-70.9960561554274,0.963741183280945,2012-01-13 18:41:44
0.948000192642212,42.3830450906529,-70.996201502499,1.45696759223938,2012-01-13 18:41:45
1.05499982833862,42.3830865471757,-70.9963460109086,2.22001028060913,2012-01-13 18:41:46
0.983000040054321,42.3831389551857,-70.9964936735391,3.45476055145264,2012-01-13 18:41:47
1.05999994277954,42.3831896322367,-70.9966473339919,2.88646030426025,2012-01-13 18:41:48
0.985000133514404,42.383241835175,-70.9968030861562,3.01042032241821,2012-01-13 18:41:49
1.0460000038147,42.3832957243534,-70.9969648796842,4.07929944992065,2012-01-13 18:41:50
0.964999914169312,42.3833507460461,-70.9971279423863,4.05304956436157,2012-01-13 18:41:51
1.01100015640259,42.3834061510214,-70.9972869164726,3.58230566978455,2012-01-13 18:41:52
1.00599980354309,42.3834630435227,-70.9974444703683,2.98906898498535,2012-01-13 18:41:53
1.01600003242493,42.3835184100546,-70.9975965176799,2.35744452476501,2012-01-13 18:41:54
1.0220000743866,42.3835711780644,-70.9977439474985,1.5808892250061,2012-01-13 18:41:55
0.990999937057495,42.3836220755487,-70.9978797924616,2.02043414115906,2012-01-13 18:41:56
1.03399991989136,42.3836731507299,-70.9980178020031,1.82059705257416,2012-01-13 18:41:57
0.976999998092651,42.3837249986588,-70.9981584112993,1.76847243309021,2012-01-13 18:41:58
1.02300000190735,42.3837794848135,-70.9982941396088,1.73573005199432,2012-01-13 18:41:59
1.01000022888184,42.3838291249118,-70.9984264775596,1.98651432991028,2012-01-13 18:42:00
0.99399995803833,42.3838796801531,-70.9985626584157,2.17849278450012,2012-01-13 18:42:01
1.01799988746643,42.3839285157239,-70.9986967425689,2.43700790405273,2012-01-13 18:42:02
0.99399995803833,42.3839756292833,-70.9988300627306,2.61869478225708,2012-01-13 18:42:03
1.01600003242493,42.3840234542222,-70.998962740343,2.61701560020447,2012-01-13 18:42:04
1.00300002098083,42.3840695503257,-70.9990965344339,2.107182264328,2012-01-13 18:42:05
1.03699994087219,42.3841157204282,-70.99923077979,1.51011168956757,2012-01-13 18:42:06
0.976000070571899,42.3841610063176,-70.999362069324,1.27977287769318,2012-01-13 18:42:07
1.06699991226196,42.3842077297684,-70.9994991309149,0.599593997001648,2012-01-13 18:42:08
0.945000171661377,42.3842549040702,-70.9996321402669,0.507977962493896,2012-01-13 18:42:09
1.04699993133545,42.3842971976956,-70.9997643357155,0.310890913009644,2012-01-13 18:42:10
0.969000101089478,42.3843457255686,-70.9999005489099,0.576267898082733,2012-01-13 18:42:11
1.06199979782104,42.3844433364751,-71.0001660045007,1.63449370861053,2012-01-13 18:42:12
0.972000122070312,42.3844878755135,-71.0003012695411,1.56959855556488,2012-01-13 18:42:13
1.00099992752075,42.3845299911802,-71.0004413855789,1.44494771957397,2012-01-13 18:42:14
1.04200005531311,42.3845718507921,-71.0005782180445,0.757740199565887,2012-01-13 18:42:15
2.00200009346008,42.3846601470442,-71.000843385165,0.269241899251938,2012-01-13 18:42:17
1.02600002288818,42.3847060480971,-71.000974579593,-0.0429509803652763,2012-01-13 18:42:18
1.13099980354309,42.3847481941547,-71.0011135574549,-0.214142322540283,2012-01-13 18:42:19
0.89900016784668,42.3847881440626,-71.0012535277076,-0.355077415704727,2012-01-13 18:42:20
0.97599983215332,42.3848309429571,-71.0013850549855,-0.676287889480591,2012-01-13 18:42:21
2.01400017738342,42.3849182118982,-71.0016499810243,-1.68976521492004,2012-01-13 18:42:23
1.00699996948242,42.3849644249254,-71.0017846670804,-2.08606648445129,2012-01-13 18:42:24
1.00699996948242,42.3850066575967,-71.0019166754792,-2.48150587081909,2012-01-13 18:42:25
1.01900005340576,42.3850519739301,-71.0020459079581,-3.43288397789001,2012-01-13 18:42:26
0.99399995803833,42.3850953696428,-71.0021610184726,-4.02337503433228,2012-01-13 18:42:27
1.0090000629425,42.3851371593494,-71.0022640248136,-4.55826234817505,2012-01-13 18:42:28
1.00599980354309,42.3851722730138,-71.0023588462863,-4.87030410766602,2012-01-13 18:42:29
1.72200012207031,42.3852102878442,-71.0024439592585,-5.50848293304443,2012-01-13 18:42:31
