"diffSecs","latitude","longitude","altitude","time"
0.783999919891357,42.85489516,-71.49117628,15.6000003814697,2012-01-18 15:22:00
0.843000173568726,42.85489513,-71.4911762,15.6000003814697,2012-01-18 15:22:01
0.998999834060669,42.85489513,-71.4911762,15.6000003814697,2012-01-18 15:22:02
1.09000015258789,42.85489513,-71.49117619,15.6000003814697,2012-01-18 15:22:03
1.03699994087219,42.85489512,-71.49117617,15.6000003814697,2012-01-18 15:22:04
1.22900009155273,42.85489511,-71.49117616,15.6000003814697,2012-01-18 15:22:05
0.968999862670898,42.85489511,-71.49117616,15.6000003814697,2012-01-18 15:22:06
0.927999973297119,42.85489512,-71.49117617,15.6000003814697,2012-01-18 15:22:07
0.914000034332275,42.85489511,-71.49117615,15.6000003814697,2012-01-18 15:22:08
0.707000017166138,42.85489509,-71.49117613,15.6000003814697,2012-01-18 15:22:09
1.03399991989136,42.85489505,-71.49117604,15.6000003814697,2012-01-18 15:22:10
0.960999965667725,42.85489507,-71.49117604,15.6000003814697,2012-01-18 15:22:11
1.17200016975403,42.85489506,-71.49117601,15.6000003814697,2012-01-18 15:22:12
0.833999872207642,42.85489506,-71.49117601,15.6000003814697,2012-01-18 15:22:13
1.04200005531311,42.85489503,-71.49117593,15.6000003814697,2012-01-18 15:22:14
0.960999965667725,42.85489501,-71.49117591,15.6000003814697,2012-01-18 15:22:15
1.19300007820129,42.85489499,-71.49117588,15.6000003814697,2012-01-18 15:22:16
0.802000045776367,42.85489504,-71.49117604,15.6000003814697,2012-01-18 15:22:17
1.18599987030029,42.85489504,-71.49117604,15.6000003814697,2012-01-18 15:22:18
0.875,42.85489506,-71.49117608,15.6000003814697,2012-01-18 15:22:19
0.944999933242798,42.85489504,-71.49117608,15.6000003814697,2012-01-18 15:22:20
1.10600018501282,42.85489504,-71.49117607,15.6000003814697,2012-01-18 15:22:21
0.884999990463257,42.85489504,-71.49117606,15.6000003814697,2012-01-18 15:22:22
1.0019998550415,42.85489504,-71.49117606,15.6000003814697,2012-01-18 15:22:23
0.996999979019165,42.85489505,-71.49117611,15.6000003814697,2012-01-18 15:22:24
1.00100016593933,42.85489506,-71.49117611,15.6000003814697,2012-01-18 15:22:25
0.998999834060669,42.85489506,-71.49117611,15.6000003814697,2012-01-18 15:22:26
1.0090000629425,42.85489506,-71.49117611,15.6000003814697,2012-01-18 15:22:27
1.22699999809265,42.85489505,-71.49117612,15.6000003814697,2012-01-18 15:22:28
1.60899996757507,42.85489504,-71.49117612,15.6000003814697,2012-01-18 15:22:30
0.373000144958496,42.85489502,-71.49117609,15.6000003814697,2012-01-18 15:22:30
1.04499983787537,42.85489502,-71.49117609,15.6000003814697,2012-01-18 15:22:31
0.89900016784668,42.85489498,-71.491176,15.6000003814697,2012-01-18 15:22:32
1.34099984169006,42.85489499,-71.491176,15.6000003814697,2012-01-18 15:22:33
0.670000076293945,42.85489499,-71.49117601,15.6000003814697,2012-01-18 15:22:34
0.986000061035156,42.85489497,-71.49117595,15.6000003814697,2012-01-18 15:22:35
1.30399990081787,42.85489498,-71.49117595,15.6000003814697,2012-01-18 15:22:36
0.582000017166138,42.854895,-71.49117596,15.6000003814697,2012-01-18 15:22:37
1.01099991798401,42.854895,-71.49117596,15.6000003814697,2012-01-18 15:22:38
1.01100015640259,42.85489492,-71.49117577,15.6999998092651,2012-01-18 15:22:39
0.967999935150146,42.85489493,-71.49117576,15.6999998092651,2012-01-18 15:22:40
1.08299994468689,42.85489493,-71.49117576,15.6999998092651,2012-01-18 15:22:41
0.922000169754028,42.85489497,-71.49117588,15.6000003814697,2012-01-18 15:22:42
1.34999990463257,42.85489497,-71.49117588,15.6000003814697,2012-01-18 15:22:43
0.809999942779541,42.85489498,-71.49117588,15.6000003814697,2012-01-18 15:22:44
1.11300015449524,42.85489496,-71.49117589,15.6000003814697,2012-01-18 15:22:45
0.827999830245972,42.85489496,-71.49117589,15.6000003814697,2012-01-18 15:22:46
1.00600004196167,42.85489498,-71.4911759,15.6000003814697,2012-01-18 15:22:47
0.891999959945679,42.85489497,-71.4911759,15.6000003814697,2012-01-18 15:22:48
1.44099998474121,42.85489496,-71.4911759,15.6000003814697,2012-01-18 15:22:49
1.00100016593933,42.85489496,-71.4911759,15.6000003814697,2012-01-18 15:22:50
0.995999813079834,42.85489496,-71.4911759,15.6000003814697,2012-01-18 15:22:51
1.00800013542175,42.85489496,-71.49117588,15.6000003814697,2012-01-18 15:22:52
1.07500004768372,42.85489496,-71.49117588,15.6000003814697,2012-01-18 15:22:54
0.929999828338623,42.85489496,-71.49117588,15.6000003814697,2012-01-18 15:22:54
0.992000102996826,42.85489496,-71.49117588,15.6000003814697,2012-01-18 15:22:55
0.994999885559082,42.85489496,-71.49117587,15.6000003814697,2012-01-18 15:22:56
1.00300002098083,42.85489496,-71.49117588,15.6000003814697,2012-01-18 15:22:57
1.01100015640259,42.85489496,-71.49117589,15.6000003814697,2012-01-18 15:22:58
1.05299997329712,42.85489498,-71.49117591,15.6000003814697,2012-01-18 15:23:00
0.937000036239624,42.85489497,-71.49117591,15.6000003814697,2012-01-18 15:23:00
1,42.85489497,-71.49117591,15.6000003814697,2012-01-18 15:23:01
0.998999834060669,42.85489497,-71.49117592,15.6000003814697,2012-01-18 15:23:02
0.996999979019165,42.85489497,-71.49117591,15.6000003814697,2012-01-18 15:23:03
1.02800011634827,42.85489498,-71.49117591,15.6000003814697,2012-01-18 15:23:05
0.990000009536743,42.85489498,-71.4911759,15.6000003814697,2012-01-18 15:23:05
1.12299990653992,42.85489497,-71.49117589,15.6000003814697,2012-01-18 15:23:07
0.863000154495239,42.85489499,-71.4911759,15.6000003814697,2012-01-18 15:23:07
1.0019998550415,42.854895,-71.49117592,15.6000003814697,2012-01-18 15:23:08
1.00999999046326,42.854895,-71.49117593,15.6000003814697,2012-01-18 15:23:09
0.994000196456909,42.854895,-71.49117592,15.6000003814697,2012-01-18 15:23:10
1.00299978256226,42.85489501,-71.49117593,15.6000003814697,2012-01-18 15:23:11
1.04000020027161,42.85489501,-71.49117593,15.6000003814697,2012-01-18 15:23:13
0.95199990272522,42.85489501,-71.49117592,15.6000003814697,2012-01-18 15:23:13
1.00399994850159,42.85489501,-71.49117592,15.6000003814697,2012-01-18 15:23:14
0.992000102996826,42.85489502,-71.49117592,15.6000003814697,2012-01-18 15:23:15
1.02099990844727,42.85489502,-71.49117591,15.6000003814697,2012-01-18 15:23:16
0.983000040054321,42.85489502,-71.49117592,15.6000003814697,2012-01-18 15:23:17
1.02099990844727,42.85489502,-71.4911759,15.6000003814697,2012-01-18 15:23:18
1.06800007820129,42.85489502,-71.4911759,15.6000003814697,2012-01-18 15:23:20
0.908999919891357,42.85489502,-71.4911759,15.6000003814697,2012-01-18 15:23:20
1.00200009346008,42.85489503,-71.49117591,15.6000003814697,2012-01-18 15:23:21
0.997999906539917,42.85489502,-71.49117591,15.6000003814697,2012-01-18 15:23:22
1.00300002098083,42.85489506,-71.49117596,15.6000003814697,2012-01-18 15:23:23
1.01300001144409,42.85489506,-71.49117596,15.6000003814697,2012-01-18 15:23:24
1.02800011634827,42.85489504,-71.49117593,15.6000003814697,2012-01-18 15:23:26
0.957000017166138,42.85489505,-71.49117593,15.6000003814697,2012-01-18 15:23:26
0.996999979019165,42.85489504,-71.49117591,15.6000003814697,2012-01-18 15:23:27
1.0090000629425,42.85489503,-71.49117591,15.6000003814697,2012-01-18 15:23:28
0.995999813079834,42.85489503,-71.49117591,15.6000003814697,2012-01-18 15:23:29
1.00600004196167,42.85489503,-71.49117591,15.6000003814697,2012-01-18 15:23:30
1.0090000629425,42.85489503,-71.49117593,15.6000003814697,2012-01-18 15:23:31
1.07500004768372,42.85489503,-71.49117593,15.6000003814697,2012-01-18 15:23:33
0.911999940872192,42.85489503,-71.49117593,15.6000003814697,2012-01-18 15:23:33
1.00099992752075,42.85489503,-71.49117592,15.6000003814697,2012-01-18 15:23:34
0.99399995803833,42.85489504,-71.49117593,15.6000003814697,2012-01-18 15:23:35
1.00300002098083,42.85489504,-71.49117594,15.6000003814697,2012-01-18 15:23:36
1.00200009346008,42.85489503,-71.49117594,15.6000003814697,2012-01-18 15:23:37
0.999000072479248,42.85489503,-71.49117593,15.6000003814697,2012-01-18 15:23:38
1,42.85489503,-71.49117592,15.6000003814697,2012-01-18 15:23:39
1.00599980354309,42.85489503,-71.49117592,15.6000003814697,2012-01-18 15:23:40
1.02300000190735,42.85489503,-71.49117592,15.6000003814697,2012-01-18 15:23:42
1.01200008392334,42.85489503,-71.49117592,15.6000003814697,2012-01-18 15:23:43
1.07100009918213,42.85489503,-71.49117591,15.6000003814697,2012-01-18 15:23:44
0.891000032424927,42.85489503,-71.49117592,15.6000003814697,2012-01-18 15:23:44
0.995999813079834,42.85489503,-71.49117592,15.6000003814697,2012-01-18 15:23:45
1.01200008392334,42.85489503,-71.49117592,15.6000003814697,2012-01-18 15:23:46
0.989000082015991,42.85489503,-71.49117592,15.6000003814697,2012-01-18 15:23:47
1.02899980545044,42.85489503,-71.49117592,15.6000003814697,2012-01-18 15:23:49
1.0310001373291,42.85489503,-71.4911759,15.6000003814697,2012-01-18 15:23:50
1.04900002479553,42.85489503,-71.49117589,15.6000003814697,2012-01-18 15:23:51
0.891000032424927,42.85489502,-71.4911759,15.6000003814697,2012-01-18 15:23:51
0.997999906539917,42.85489503,-71.49117589,15.6000003814697,2012-01-18 15:23:52
1.21000003814697,42.85489503,-71.49117589,15.6000003814697,2012-01-18 15:23:54
0.800999879837036,42.85489502,-71.49117589,15.6000003814697,2012-01-18 15:23:54
1.0220000743866,42.85489502,-71.49117588,15.6000003814697,2012-01-18 15:23:56
1.07999992370605,42.85489503,-71.49117588,15.6000003814697,2012-01-18 15:23:57
0.902000188827515,42.85489503,-71.49117586,15.6000003814697,2012-01-18 15:23:57
0.982999801635742,42.85489503,-71.49117586,15.6000003814697,2012-01-18 15:23:58
