"diffSecs","level","azimuth.mean","azimuth.absolute.deviation","azimuth.standard.deviation","azimuth.max.deviation","pitch.mean","pitch.absolute.deviation","pitch.standard.deviation","pitch.max.deviation","roll.mean","roll.absolute.deviation","roll.standard.deviation","roll.max.deviation","time"
1.01699995994568,21,7.22380971908569,0.115192741155624,0.141100347042084,0.323809564113617,-41.5095252990723,0.117460459470749,0.150885328650475,0.309523820877075,2.08095240592957,0.0920635312795639,0.113888218998909,0.280952364206314,2012-01-18 11:31:06
1.00399994850159,42,6.59999990463257,0.223809584975243,0.27342626452446,0.800000011920929,-41.761905670166,0.104761302471161,0.12526573240757,0.261905401945114,2.34523820877075,0.214966014027596,0.263856381177902,0.645238101482391,2012-01-18 11:31:07
1.00999999046326,38,6.5973687171936,0.1922437697649,0.2145826369524,0.302631556987762,-41.8052635192871,0.065374530851841,0.0916152000427246,0.205261126160622,2.38421058654785,0.108587294816971,0.138652011752129,0.384210556745529,2012-01-18 11:31:08
1.00300002098083,42,6.48571443557739,0.399319738149643,0.465766906738281,0.914285719394684,-41.9261894226074,0.113152265548706,0.129209831357002,0.226190388202667,2.44761919975281,0.0952381044626236,0.111778073012829,0.252380967140198,2012-01-18 11:31:09
1.06400012969971,28,6.49285745620728,0.192857131361961,0.225085020065308,0.507142722606659,-41.8642845153809,0.0928577706217766,0.107618294656277,0.235716268420219,2.46071434020996,0.124999992549419,0.154317125678062,0.360714197158813,2012-01-18 11:31:10
1.00999999046326,51,6.49019622802734,0.315494060516357,0.354387044906616,0.809804022312164,-41.8196067810059,0.111726604402065,0.134338617324829,0.28039363026619,2.3980393409729,0.206459075212479,0.267515957355499,0.601960718631744,2012-01-18 11:31:11
1.00799989700317,44,6.54090929031372,0.204545453190804,0.244315549731255,0.540909171104431,-41.7909088134766,0.0900822281837463,0.120261326432228,0.290909498929977,2.686363697052,0.116115666925907,0.139138415455818,0.28636360168457,2012-01-18 11:31:12
1.01900005340576,33,6.81515169143677,0.339577585458755,0.397050648927689,0.784848272800446,-41.6242446899414,0.173369914293289,0.200045868754387,0.424242526292801,2.38484859466553,0.156841158866882,0.177731871604919,0.315151482820511,2012-01-18 11:31:13
1.01600003242493,40,6.96500015258789,0.241750001907349,0.285963326692581,0.564999997615814,-41.557502746582,0.0803756788372993,0.0945715829730034,0.242498308420181,2.23250007629395,0.149124979972839,0.175196319818497,0.332500070333481,2012-01-18 11:31:14
1.26099991798401,46,6.53695678710938,0.254347831010818,0.320569276809692,0.663043677806854,-41.6500015258789,0.134782165288925,0.155688986182213,0.350001364946365,1.86521744728088,0.188468798995018,0.235184848308563,0.534782648086548,2012-01-18 11:31:15
1.01699995994568,50,6.47800016403198,0.197119951248169,0.275165379047394,0.822000086307526,-41.8059997558594,0.0926404520869255,0.127137705683708,0.294001847505569,2.54999995231628,0.100000023841858,0.118743404746056,0.24999988079071,2012-01-18 11:31:16
1.02999997138977,35,6.82857131958008,0.231836691498756,0.287423431873322,0.571428596973419,-41.6714286804199,0.0995911061763763,0.118493445217609,0.271427929401398,2.42000007629395,0.132571443915367,0.158204227685928,0.379999935626984,2012-01-18 11:31:17
1.09000015258789,50,6.73799991607666,0.438159972429276,0.507499694824219,1.06200003623962,-41.6679992675781,0.138399690389633,0.172557011246681,0.432001650333405,2.33800005912781,0.156080007553101,0.189620673656464,0.461999922990799,2012-01-18 11:31:18
1.01699995994568,35,6.3457145690918,0.173714235424995,0.211582913994789,0.545714139938354,-41.728572845459,0.0938770100474358,0.113568931818008,0.228571966290474,2.42857146263123,0.159999996423721,0.200814679265022,0.528571486473083,2012-01-18 11:31:19
1.04500007629395,31,6.55806446075439,0.325494289398193,0.39166659116745,0.841935455799103,-41.7774200439453,0.11155017465353,0.143030896782875,0.377418279647827,2.30967736244202,0.17377732694149,0.216056793928146,0.409677475690842,2012-01-18 11:31:20
1.15399980545044,44,7.13863658905029,0.324276894330978,0.394977509975433,0.83863627910614,-41.6659088134766,0.184193924069405,0.216315239667892,0.465908914804459,2.50909090042114,0.101652927696705,0.125803217291832,0.309090942144394,2012-01-18 11:31:21
1.01100015640259,44,6.27500009536743,0.220454558730125,0.277263432741165,0.724999904632568,-41.9931831359863,0.11353313177824,0.143650308251381,0.393180757761002,2.35681819915771,0.269834697246552,0.313628107309341,0.656818151473999,2012-01-18 11:31:22
1.00999999046326,33,5.61818170547485,0.251239717006683,0.326092153787613,0.881818115711212,-41.4333343505859,0.315151482820511,0.368178635835648,0.833331704139709,0.790909111499786,0.579063355922699,0.641666233539581,1.00909101963043,2012-01-18 11:31:23
1.01199984550476,41,6.03170728683472,0.477691859006882,0.533025920391083,0.868292689323425,-40.8609771728516,0.14134469628334,0.166569486260414,0.360976248979568,0.00731707364320755,0.227007731795311,0.26813742518425,0.607317090034485,2012-01-18 11:31:24
1.00800013542175,42,6.69285726547241,0.298299312591553,0.338338255882263,0.70714282989502,-40.7785720825195,0.0846934169530869,0.105865254998207,0.278571903705597,0.692857146263123,0.205782309174538,0.2585608959198,0.592857122421265,2012-01-18 11:31:25
1.0149998664856,41,6.9195122718811,0.26484227180481,0.338013887405396,0.819512367248535,-40.868293762207,0.126472786068916,0.161455497145653,0.368293195962906,1.10487806797028,0.165258795022964,0.210633456707001,0.504878044128418,2012-01-18 11:31:26
1.00600004196167,41,6.82439041137695,0.200713783502579,0.245724841952324,0.524390161037445,-40.868293762207,0.0892335250973701,0.115693725645542,0.26829120516777,0.970731735229492,0.0948245003819466,0.113145500421524,0.229268312454224,2012-01-18 11:31:27
1.01800012588501,43,6.62325572967529,0.221633389592171,0.279399037361145,0.623255908489227,-40.9744186401367,0.0855596140027046,0.105858936905861,0.274418771266937,0.918604671955109,0.135316386818886,0.157385349273682,0.318604648113251,2012-01-18 11:31:28
1.18700003623962,40,6.25,0.179999977350235,0.223606780171394,0.450000166893005,-41.247501373291,0.130374744534492,0.154899179935455,0.34749898314476,1.29750001430511,0.11787498742342,0.140512436628342,0.302500009536743,2012-01-18 11:31:30
1.01899981498718,45,6.17333364486694,0.317333400249481,0.378535240888596,0.673333406448364,-41.4866676330566,0.0794074162840843,0.0979801043868065,0.213333129882812,1.35333335399628,0.0856295898556709,0.104562558233738,0.253333330154419,2012-01-18 11:31:31
1,48,5.85416698455811,0.192013844847679,0.240622743964195,0.554166555404663,-41.5979194641113,0.0940979048609734,0.143598899245262,0.402082294225693,1.40625,0.112499997019768,0.144922748208046,0.393750041723251,2012-01-18 11:31:32
1.01699995994568,29,5.72758626937866,0.13579073548317,0.161664962768555,0.327586203813553,-41.6000022888184,0.144827887415886,0.20171682536602,0.500001192092896,1.27931034564972,0.195243746042252,0.218741402029991,0.420689702033997,2012-01-18 11:31:33
1.01100015640259,49,6.3326530456543,0.355768412351608,0.40877503156662,0.767346739768982,-41.3734703063965,0.104873336851597,0.124171555042267,0.273467630147934,1.05102038383484,0.18259060382843,0.214877709746361,0.448979556560516,2012-01-18 11:31:34
1.01900005340576,48,5.93541669845581,0.19644096493721,0.231381386518478,0.535416662693024,-41.3062515258789,0.10026078671217,0.137547329068184,0.306250184774399,0.910416662693024,0.0851562470197678,0.11944243311882,0.310416668653488,2012-01-18 11:31:35
1.01999998092651,35,6.19714307785034,0.249469444155693,0.319361627101898,0.797142863273621,-41.2400016784668,0.118856728076935,0.137736693024635,0.259999305009842,0.637142837047577,0.106775499880314,0.133278906345367,0.33714285492897,2012-01-18 11:31:36
1,35,5.86857175827026,0.158040791749954,0.196790590882301,0.431428641080856,-41.1285705566406,0.120815865695477,0.14257088303566,0.32857283949852,0.534285724163055,0.115265309810638,0.1351038813591,0.265714287757874,2012-01-18 11:31:37
1.00599980354309,43,6.13488388061523,0.297782629728317,0.35429835319519,0.734883725643158,-41.1441879272461,0.0969167202711105,0.112688332796097,0.244185253977776,0.527907013893127,0.0890211015939713,0.10415904968977,0.227906972169876,2012-01-18 11:31:38
1.01200008392334,44,5.90681838989258,0.316528916358948,0.368286997079849,0.706817984580994,-41.3318176269531,0.118182092905045,0.141055449843407,0.331818848848343,0.629545450210571,0.122107438743114,0.151626855134964,0.370454549789429,2012-01-18 11:31:39
1.36800003051758,49,5.77551031112671,0.182090774178505,0.229044675827026,0.575510025024414,-41.3938789367676,0.0932117328047752,0.113224200904369,0.293875634670258,0.838775515556335,0.101707629859447,0.122584968805313,0.338775515556335,2012-01-18 11:31:40
1.25600004196167,33,6.75757598876953,0.410835593938828,0.455957382917404,0.957575678825378,-41.1272735595703,0.0826440379023552,0.102314449846745,0.227272376418114,0.612121224403381,0.128374651074409,0.151272535324097,0.312121212482452,2012-01-18 11:31:41
1.01099991798401,39,7.12307691574097,0.404733747243881,0.525972366333008,1.42307674884796,-40.8461532592773,0.11124312132597,0.133678153157234,0.253847867250443,0.553846180438995,0.133333340287209,0.166172847151756,0.446153849363327,2012-01-18 11:31:42
1.21700000762939,41,6.18048763275146,0.218084529042244,0.264316439628601,0.580487966537476,-40.9536590576172,0.108269199728966,0.125129982829094,0.253658384084702,0.421951234340668,0.0929208770394325,0.115847244858742,0.32195121049881,2012-01-18 11:31:43
1.00099992752075,48,6.23333358764648,0.208333373069763,0.271057635545731,0.76666659116745,-41.033332824707,0.0861117616295815,0.100692331790924,0.233335256576538,0.618750035762787,0.133593752980232,0.161575898528099,0.381249994039536,2012-01-18 11:31:44
1.00300002098083,38,6.25,0.244736835360527,0.285389840602875,0.549999833106995,-40.9973678588867,0.0721606314182281,0.0986407920718193,0.202631503343582,0.689473688602448,0.113296397030354,0.135315373539925,0.310526311397552,2012-01-18 11:31:45
1.01300001144409,39,6.18205118179321,0.174096062779427,0.206151306629181,0.417948514223099,-41,0.10256464779377,0.130089074373245,0.300000131130219,0.502564132213593,0.101249180734158,0.134902015328407,0.297435909509659,2012-01-18 11:31:47
1.01500010490417,47,5.94042587280273,0.254142135381699,0.289283454418182,0.659574210643768,-41.0489387512207,0.0946134775876999,0.112745940685272,0.251062095165253,0.412765979766846,0.103033043444157,0.13466589152813,0.287234008312225,2012-01-18 11:31:48
1.01900005340576,24,5.97083330154419,0.195833280682564,0.245762676000595,0.529166579246521,-41.0583343505859,0.0868061259388924,0.0996523126959801,0.158332988619804,0.487500011920929,0.179166674613953,0.227875158190727,0.487500011920929,2012-01-18 11:31:49
1.0149998664856,48,6.11458349227905,0.39678817987442,0.455516874790192,0.98541647195816,-41,0.104167126119137,0.144337728619576,0.400000721216202,0.5,0.191666677594185,0.236290782690048,0.5,2012-01-18 11:31:50
1.01100015640259,36,5.93333339691162,0.159259185194969,0.212131977081299,0.666666448116302,-41.1111106872559,0.102468691766262,0.126442059874535,0.288889467716217,0.502777814865112,0.142438277602196,0.175572261214256,0.397222250699997,2012-01-18 11:31:51
1.02499985694885,43,6.20232582092285,0.254083275794983,0.320238560438156,0.602325797080994,-41.113956451416,0.134450748562813,0.177294105291367,0.386045426130295,0.509302318096161,0.159221202135086,0.187782600522041,0.30930233001709,2012-01-18 11:31:52
1.31200003623962,44,6.04090929031372,0.240909069776535,0.275778353214264,0.540909230709076,-41.1613655090332,0.11869790405035,0.146498188376427,0.338635355234146,0.522727310657501,0.183471083641052,0.228496700525284,0.577272713184357,2012-01-18 11:31:53
1.01399993896484,44,5.92727279663086,0.177685901522636,0.233903259038925,0.572727203369141,-41.2250022888184,0.103408806025982,0.131641626358032,0.324999213218689,0.493181824684143,0.148347109556198,0.182654336094856,0.406818211078644,2012-01-18 11:31:54
1.00200009346008,46,5.76739120483398,0.15718337893486,0.190027892589569,0.432608872652054,-41.2130432128906,0.0979199036955833,0.122666724026203,0.313042759895325,0.52173912525177,0.150661632418633,0.174347281455994,0.378260910511017,2012-01-18 11:31:55
1.01900005340576,35,5.86857128143311,0.330122441053391,0.430130511522293,1.13142848014832,-41.1885719299316,0.127999573945999,0.161725282669067,0.38857313990593,0.400000005960464,0.0971428602933884,0.128730058670044,0.300000011920929,2012-01-18 11:31:56
1.03399991989136,38,5.86315774917603,0.29418283700943,0.342914044857025,0.736841917037964,-41.1263160705566,0.109417773783207,0.133148267865181,0.273684740066528,0.50789475440979,0.0796398892998695,0.106082335114479,0.2078947275877,2012-01-18 11:31:57
1.01500010490417,48,6.09583330154419,0.251215279102325,0.308867782354355,0.79583328962326,-40.9333343505859,0.111111350357533,0.1343714594841,0.333331823348999,0.412499994039536,0.113541662693024,0.13635890185833,0.3125,2012-01-18 11:31:58
1.04999995231628,31,6.12580633163452,0.205827355384827,0.273528635501862,0.674193620681763,-40.9225807189941,0.0792920663952827,0.106890559196472,0.322579056024551,0.367741942405701,0.0913631618022919,0.111838296055794,0.267741948366165,2012-01-18 11:31:59
1.00699996948242,49,6.7734694480896,0.291295289993286,0.354432851076126,0.7265305519104,-40.8897972106934,0.128446698188782,0.171719819307327,0.489795058965683,1.2877551317215,0.772761344909668,0.893658578395844,1.61224496364594,2012-01-18 11:32:00
1.00399994850159,36,6.90555572509766,0.184259206056595,0.22966693341732,0.49444442987442,-40.7916679382324,0.180555135011673,0.217785388231277,0.608333587646484,2.52777791023254,0.380864202976227,0.489677399396896,1.17222225666046,2012-01-18 11:32:01
1.04800009727478,39,7.89487171173096,0.762919187545776,0.876458168029785,2.50512862205505,-41.4743614196777,0.168704584240913,0.210880637168884,0.574358344078064,4.37179470062256,0.248652175068855,0.307969957590103,0.871794939041138,2012-01-18 11:32:02
1.19400000572205,46,7.89347839355469,0.479584127664566,0.606989085674286,1.80652141571045,-41.7456512451172,0.190264150500298,0.252557665109634,0.645650267601013,4.78913068771362,0.150472581386566,0.198064863681793,0.51086962223053,2012-01-18 11:32:03
1.04399991035461,42,6.90714311599731,0.169387713074684,0.214246019721031,0.40714293718338,-42.1547622680664,0.114965453743935,0.14007180929184,0.345237016677856,4.75476217269897,0.132653087377548,0.154615342617035,0.354761898517609,2012-01-18 11:32:04
1.01300001144409,43,6.95348834991455,0.283288210630417,0.35263055562973,0.746511816978455,-42.1883735656738,0.114764146506786,0.1350437104702,0.311627060174942,4.80000019073486,0.102325588464737,0.129399329423904,0.300000101327896,2012-01-18 11:32:05
1.01900005340576,32,6.70937538146973,0.109375,0.1507468521595,0.409374982118607,-42.2406272888184,0.13066366314888,0.151779606938362,0.259374260902405,4.609375,0.135546982288361,0.172045394778252,0.409374833106995,2012-01-18 11:32:06
1.00699996948242,48,6.64375019073486,0.248697981238365,0.318136662244797,0.756249964237213,-42.1645851135254,0.0883674398064613,0.108952201902866,0.264582872390747,4.25,0.152083352208138,0.180277585983276,0.450000137090683,2012-01-18 11:32:07
1.01999998092651,29,6.60344839096069,0.156004831194878,0.188428655266762,0.396551638841629,-42.1724166870117,0.103685520589352,0.128375589847565,0.327584624290466,4.35172414779663,0.101545698940754,0.119252450764179,0.251724362373352,2012-01-18 11:32:08
1.00099992752075,41,7.00487804412842,0.259131461381912,0.29792058467865,0.595121741294861,-42.0878067016602,0.108150333166122,0.136498257517815,0.312195658683777,4.21951246261597,0.148721024394035,0.17699322104454,0.319512188434601,2012-01-18 11:32:09
1.01100015640259,42,7.04047632217407,0.190022677183151,0.235088154673576,0.640476167201996,-41.9476203918457,0.107029758393764,0.123901702463627,0.252380818128586,4.18333339691162,0.125396937131882,0.158740118145943,0.316666543483734,2012-01-18 11:32:10
1,31,6.82258081436157,0.196045756340027,0.237879991531372,0.477419435977936,-41.8677406311035,0.0869933888316154,0.105912834405899,0.267740070819855,3.69677424430847,0.151508793234825,0.18047222495079,0.403225660324097,2012-01-18 11:32:11
1.00599980354309,47,6.53191518783569,0.270348578691483,0.351353853940964,0.768085181713104,-41.819149017334,0.0943418517708778,0.114182226359844,0.28085270524025,3.5,0.123404294252396,0.1515873670578,0.399999916553497,2012-01-18 11:32:12
1.00800013542175,31,6.5,0.154838725924492,0.203200221061707,0.50000011920929,-41.8451614379883,0.104683056473732,0.124015346169472,0.254840493202209,3.32580637931824,0.137981295585632,0.164547756314278,0.325806498527527,2012-01-18 11:32:13
1.00399994850159,42,6.69523811340332,0.28140589594841,0.334487766027451,0.704761862754822,-41.9095230102539,0.0875280350446701,0.115076594054699,0.309522092342377,3.43809533119202,0.143537402153015,0.185102760791779,0.36190465092659,2012-01-18 11:32:14
1.02900004386902,48,6.44583320617676,0.157638862729073,0.199956595897675,0.454166650772095,-42.0125007629395,0.111979596316814,0.148078054189682,0.312499850988388,3.56458330154419,0.131250023841858,0.157439917325974,0.335416704416275,2012-01-18 11:32:15
1.01999998092651,26,6.3692307472229,0.171597614884377,0.221479713916779,0.530769228935242,-42.0384635925293,0.217159613966942,0.243494883179665,0.438459992408752,3.57692313194275,0.107100628316402,0.139525845646858,0.32307693362236,2012-01-18 11:32:16
1.00799989700317,43,6.53488397598267,0.342887997627258,0.380870252847672,0.565116107463837,-41.9813957214355,0.142563924193382,0.163189351558685,0.281395584344864,3.48372101783752,0.123634397983551,0.150858387351036,0.41627910733223,2012-01-18 11:32:17
1.0530002117157,36,6.17222213745117,0.195987716317177,0.225599363446236,0.527777969837189,-42.0638885498047,0.108333691954613,0.131556287407875,0.336111605167389,3.30833339691162,0.209259271621704,0.240803062915802,0.408333301544189,2012-01-18 11:32:19
1.03999996185303,41,6.25853681564331,1.16537773609161,1.59312176704407,3.94146323204041,-40.692684173584,1.17727541923523,1.58535838127136,3.89268469810486,0.785365879535675,0.757763266563416,0.893488943576813,2.31463432312012,2012-01-18 11:32:20
1.49599981307983,42,8.2857141494751,1.34081625938416,1.47059607505798,2.41428542137146,-38.0523834228516,0.632426500320435,0.731677353382111,1.45237970352173,-0.450000017881393,0.738095283508301,0.791397213935852,1.35000002384186,2012-01-18 11:32:21
1.00600004196167,45,7.17333316802979,0.285926014184952,0.357398062944412,0.773333311080933,-38.6599998474121,0.122666120529175,0.146666124463081,0.259999096393585,-1.75777781009674,0.368987649679184,0.436902672052383,0.742222189903259,2012-01-18 11:32:22
1.00999999046326,47,7.29148960113525,0.344861954450607,0.420652866363525,0.991489291191101,-38.3978729248047,0.100589126348495,0.131261646747589,0.39787283539772,-2.57872343063354,0.181892275810242,0.223069667816162,0.521276652812958,2012-01-18 11:32:23
1.01900005340576,42,6.62380981445312,0.38798189163208,0.480480670928955,1.02380967140198,-38.466667175293,0.117460139095783,0.149071216583252,0.366665065288544,-2.80952382087708,0.145578250288963,0.18232561647892,0.390476197004318,2012-01-18 11:32:24
1.02900004386902,42,6.54047632217407,0.322448998689651,0.369078367948532,0.659524023532867,-38.3380966186523,0.10657662153244,0.134434401988983,0.261906206607819,-2.85714292526245,0.0877551436424255,0.107222199440002,0.257142752408981,2012-01-18 11:32:25
1.00600004196167,43,7.02558135986328,0.223796650767326,0.269446492195129,0.625581383705139,-38.183723449707,0.0995127111673355,0.129273444414139,0.316278427839279,-2.71860480308533,0.180097326636314,0.242329597473145,0.718604683876038,2012-01-18 11:32:26
1.00899982452393,50,7.11600017547607,0.446720004081726,0.507684946060181,0.915999829769135,-38.1920013427734,0.0825593993067741,0.105526782572269,0.208000794053078,-2.53400015830994,0.144640028476715,0.176193073391914,0.433999925851822,2012-01-18 11:32:27
1.007000207901,43,6.56744194030762,0.224012970924377,0.263006687164307,0.532557964324951,-38.290699005127,0.136397585272789,0.161120787262917,0.309303730726242,-2.9604651927948,0.260032445192337,0.293447464704514,0.660465180873871,2012-01-18 11:32:28
1.01799988746643,43,6.50697660446167,0.374580860137939,0.443765789270401,0.893023252487183,-38.5395355224609,0.110222138464451,0.131431341171265,0.33953520655632,-2.65348839759827,0.131314188241959,0.156039386987686,0.346511572599411,2012-01-18 11:32:29
1.01300001144409,43,6.89767456054688,0.383883208036423,0.417349576950073,0.797674596309662,-38.4488372802734,0.124391615390778,0.151538193225861,0.351161420345306,-2.60697674751282,0.151974022388458,0.187263458967209,0.406976729631424,2012-01-18 11:32:30
1.01300001144409,44,6.96136379241943,0.340392589569092,0.376114070415497,0.761363446712494,-38.2750015258789,0.159090876579285,0.187234804034233,0.475001692771912,-2.66136360168457,0.171177670359612,0.201376974582672,0.461363643407822,2012-01-18 11:32:31
1.00999999046326,50,6.69600009918213,0.271680057048798,0.344650566577911,0.803999900817871,-38.2840003967285,0.121279425919056,0.147458165884018,0.31600159406662,-2.68200016021729,0.138719961047173,0.160860165953636,0.317999958992004,2012-01-18 11:32:32
1.00999999046326,44,6.87045478820801,0.324173539876938,0.38053759932518,0.670454323291779,-38.1409111022949,0.0900819003582001,0.107276014983654,0.240908533334732,-2.63863635063171,0.137603268027306,0.17084801197052,0.361363589763641,2012-01-18 11:32:33
1.01600003242493,41,6.85853672027588,0.27174299955368,0.332745879888535,0.841463625431061,-38.175609588623,0.100534811615944,0.12253487855196,0.275609165430069,-2.49024391174316,0.16168949007988,0.193560853600502,0.509756028652191,2012-01-18 11:32:34
1.0090000629425,43,7.66046524047852,0.328934669494629,0.405852377414703,0.939535200595856,-38.3651161193848,0.112926661968231,0.136200949549675,0.334884107112885,-1.39534890651703,0.451487302780151,0.481254905462265,0.704651296138763,2012-01-18 11:32:35
1.01199984550476,47,8.49148941040039,0.179990917444229,0.224868595600128,0.50851047039032,-38.7106399536133,0.110999874770641,0.137196525931358,0.310637623071671,-0.0319148935377598,0.232412859797478,0.311555057764053,0.768085122108459,2012-01-18 11:32:36
1.00300002098083,43,8.74651145935059,0.300919473171234,0.334350347518921,0.553488373756409,-38.6720924377441,0.103514835238457,0.124499633908272,0.272092163562775,-0.225581392645836,0.12861005961895,0.152640372514725,0.274418592453003,2012-01-18 11:32:37
1.02400016784668,43,8.50232601165771,0.304921567440033,0.347407907247543,0.602325737476349,-38.7604675292969,0.108382426202297,0.136636465787888,0.339536547660828,-0.453488379716873,0.163223370909691,0.199241399765015,0.453488379716873,2012-01-18 11:32:38
1.27999997138977,50,8.51800060272217,0.243039965629578,0.300459623336792,0.681999564170837,-38.9020004272461,0.10256016254425,0.127263978123665,0.298000186681747,-0.0380000025033951,0.174000009894371,0.212499424815178,0.437999993562698,2012-01-18 11:32:40
1.01899981498718,49,8.61428642272949,0.269970774650574,0.313635617494583,0.585713863372803,-38.8918380737305,0.0967102125287056,0.127514541149139,0.291835308074951,0.138775512576103,0.142940446734428,0.172397658228874,0.461224496364594,2012-01-18 11:32:41
1.01300001144409,33,8.36969757080078,0.292378425598145,0.333471089601517,0.630302846431732,-39.0272750854492,0.154270350933075,0.191125631332397,0.372728288173676,0.0787878781557083,0.124885216355324,0.153262659907341,0.378787904977798,2012-01-18 11:32:42
1.05800008773804,48,8.42500019073486,0.330208390951157,0.40233701467514,0.875,-38.904167175293,0.10920162498951,0.133788704872131,0.304165035486221,-0.202083334326744,0.152777776122093,0.19201734662056,0.402083337306976,2012-01-18 11:32:43
1.00500011444092,50,9.37400054931641,0.322000116109848,0.390287160873413,0.825999617576599,-38.6959991455078,0.0974395349621773,0.131087437272072,0.303999245166779,-0.241999998688698,0.144319996237755,0.167439550161362,0.358000010251999,2012-01-18 11:32:44
1.00599980354309,41,8.66097545623779,0.329922676086426,0.452568858861923,1.33902418613434,-38.8292694091797,0.0781684145331383,0.0917153283953667,0.170731335878372,-0.358536601066589,0.102201066911221,0.132472932338715,0.358536601066589,2012-01-18 11:32:45
1.14200019836426,46,8.14782619476318,0.288468807935715,0.358583688735962,0.852173745632172,-38.545654296875,0.150378614664078,0.18380843102932,0.445650845766068,-0.600000023841858,0.130434781312943,0.161514580249786,0.400000005960464,2012-01-18 11:32:46
1.09999990463257,43,8.67209339141846,0.372741997241974,0.411647588014603,0.872092962265015,-38.5162811279297,0.0885887071490288,0.117987409234047,0.283719539642334,-0.286046504974365,0.17641969025135,0.21304152905941,0.413953483104706,2012-01-18 11:32:47
1.01900005340576,52,8.16346168518066,0.39178991317749,0.456166684627533,0.936538696289062,-38.8115386962891,0.131657138466835,0.157692313194275,0.311539441347122,-0.709615409374237,0.169156804680824,0.20024947822094,0.390384644269943,2012-01-18 11:32:48
1.01199984550476,41,7.80243921279907,0.466270089149475,0.516313314437866,0.897560715675354,-38.7487831115723,0.145151033997536,0.165458112955093,0.348780006170273,-1.22439026832581,0.109101727604866,0.142761081457138,0.424390256404877,2012-01-18 11:32:49
1.01800012588501,44,8.04772758483887,0.433884382247925,0.473617047071457,0.75227278470993,-38.4022750854492,0.179751977324486,0.221039369702339,0.502272248268127,-1.170454621315,0.159504145383835,0.1841189712286,0.370454549789429,2012-01-18 11:32:50
1.00499987602234,41,8.43658542633057,0.405948847532272,0.479204714298248,1.03658545017242,-38.2804870605469,0.102914728224277,0.127297595143318,0.319513738155365,-1.03414630889893,0.121118396520615,0.16019769012928,0.434146344661713,2012-01-18 11:32:51
1.00800013542175,43,7.50465106964111,0.24705246090889,0.306483060121536,0.604651153087616,-38.5674438476562,0.0921584963798523,0.111482553184032,0.267443627119064,-1.36976742744446,0.338885873556137,0.380045831203461,0.669767498970032,2012-01-18 11:32:52
1.04499983787537,47,7.56595754623413,0.280036270618439,0.339133262634277,0.734042644500732,-38.3872337341309,0.110457628965378,0.14084418118,0.387234777212143,-1.64680850505829,0.304210066795349,0.359580755233765,0.846808552742004,2012-01-18 11:32:53
1.01400017738342,43,8.21162796020508,0.349269926548004,0.407036572694778,0.811627984046936,-38.5883712768555,0.0931318253278732,0.112496480345726,0.211626186966896,-0.948837220668793,0.159437537193298,0.1884725689888,0.351162850856781,2012-01-18 11:32:54
1.00300002098083,42,8.11666679382324,0.351587384939194,0.396962761878967,0.716666758060455,-38.7523803710938,0.102266885340214,0.127686157822609,0.352380126714706,-0.997619092464447,0.145464852452278,0.168308258056641,0.302381008863449,2012-01-18 11:32:55
1.01300001144409,41,8.08048820495605,0.568352222442627,0.720846235752106,1.61951196193695,-38.3780479431152,0.408923327922821,0.434776335954666,0.621950566768646,-0.639024376869202,0.522903025150299,0.640837132930756,1.56097567081451,2012-01-18 11:32:56
