"diffSecs","level","azimuth.mean","azimuth.absolute.deviation","azimuth.standard.deviation","azimuth.max.deviation","pitch.mean","pitch.absolute.deviation","pitch.standard.deviation","pitch.max.deviation","roll.mean","roll.absolute.deviation","roll.standard.deviation","roll.max.deviation","time"
1.00100016593933,16,8.43124961853027,0.731249928474426,0.899109780788422,1.53125,-12.1687498092651,0.143749952316284,0.175779551267624,0.368749976158142,-25.1437511444092,0.285156458616257,0.335352122783661,0.656250715255737,2012-02-20 11:18:19
1.01099991798401,42,8.74047660827637,0.422335654497147,0.471602916717529,0.859524011611938,-12.0547618865967,0.112358242273331,0.133099183440208,0.254761844873428,-25.4880962371826,0.104081772267818,0.133099436759949,0.311905711889267,2012-02-20 11:18:20
1.15700006484985,46,6.61521768569946,1.20689988136292,1.48879396915436,3.41521739959717,-12.0413045883179,0.124669216573238,0.15544618666172,0.358695924282074,-25.3326091766357,0.219659581780434,0.259643971920013,0.532607793807983,2012-02-20 11:18:21
1.0239999294281,34,2.90588235855103,0.814186871051788,1.00438487529755,2.59411764144897,-11.8470592498779,0.170934334397316,0.204702526330948,0.447058469057083,-25.2470588684082,0.406574338674545,0.44605153799057,0.847059547901154,2012-02-20 11:18:22
1.00699996948242,39,7.64102554321289,0.536226212978363,0.68900454044342,2.14102578163147,-12.4051284790039,0.128862470388412,0.176792994141579,0.405128419399261,-23.7897434234619,0.164891421794891,0.225086614489555,0.710256099700928,2012-02-20 11:18:23
1.00600004196167,42,7.64523792266846,0.637868463993073,0.705826878547668,1.34523797035217,-12.1500005722046,0.121428437530994,0.143510341644287,0.349999964237213,-25.011905670166,0.298979729413986,0.361348301172256,0.811904549598694,2012-02-20 11:18:24
1.01300001144409,43,4.18139553070068,1.16960525512695,1.30566847324371,2.11860466003418,-12.1860466003418,0.158463925123215,0.20067486166954,0.513953149318695,-25.1069774627686,0.215792462229729,0.363698869943619,1.40697658061981,2012-02-20 11:18:25
1.01399993896484,45,8.40222263336182,1.43713581562042,1.65656793117523,3.10222220420837,-13.0111112594604,0.254320949316025,0.283801347017288,0.511111319065094,-23.6711120605469,0.315851986408234,0.370358526706696,0.728888154029846,2012-02-20 11:18:26
1.00100016593933,43,9.93023300170898,0.464899957180023,0.520078182220459,1.03023219108582,-13.1348838806152,0.102649971842766,0.125538304448128,0.365116149187088,-23.5651168823242,0.224770292639732,0.252322912216187,0.465116411447525,2012-02-20 11:18:27
1.00799989700317,42,8.03333377838135,1.37936508655548,1.62065052986145,3.63333344459534,-13.0500001907349,0.1000000461936,0.125830546021461,0.350000321865082,-23.5238094329834,0.221088469028473,0.297457098960876,0.776191174983978,2012-02-20 11:18:28
1.00999999046326,43,3.00232577323914,0.570470571517944,0.66629433631897,1.39767444133759,-12.5627908706665,0.0961601063609123,0.120122455060482,0.262790709733963,-24.7186050415039,0.225743547081947,0.263479053974152,0.518604218959808,2012-02-20 11:18:29
1.00399994850159,47,6.4957447052002,1.03576278686523,1.2905478477478,2.89574456214905,-12.9851064682007,0.122860908508301,0.147285640239716,0.314893573522568,-23.9510631561279,0.141331031918526,0.185509562492371,0.551064372062683,2012-02-20 11:18:30
1.13300013542175,41,8.86097621917725,0.459726363420486,0.556941986083984,1.13902413845062,-12.9829273223877,0.09637101739645,0.120774708688259,0.317073076963425,-23.7365856170654,0.153242081403732,0.188389912247658,0.436584651470184,2012-02-20 11:18:31
1.04399991035461,39,6.70256423950195,0.869033515453339,1.11136031150818,2.20256423950195,-12.692307472229,0.167258307337761,0.217661961913109,0.507691919803619,-24.0923080444336,0.183826565742493,0.232472360134125,0.492307811975479,2012-02-20 11:18:32
1.01999998092651,40,4.66750001907349,1.07587504386902,1.21745383739471,2.43249988555908,-12.6900005340576,0.299499958753586,0.333766371011734,0.589999794960022,-24.2825012207031,0.610125124454498,0.666666328907013,0.982499182224274,2012-02-20 11:18:33
1,41,8.62195110321045,0.464723289012909,0.582053601741791,1.32195127010345,-13.3780488967896,0.108625948429108,0.137063667178154,0.321950763463974,-23.1146335601807,0.134919941425323,0.163141563534737,0.385365545749664,2012-02-20 11:18:34
1.22399997711182,45,9.18222236633301,0.279111087322235,0.357328951358795,0.982222616672516,-13.0044450759888,0.0990617051720619,0.134916424751282,0.404444217681885,-23.8155555725098,0.288691192865372,0.338595449924469,0.615555167198181,2012-02-20 11:18:35
1.02600002288818,45,6.69555568695068,0.808395087718964,0.963778555393219,1.60444450378418,-12.8888893127441,0.160987719893456,0.193473786115646,0.411111205816269,-23.6844444274902,0.169086664915085,0.202161282300949,0.415555626153946,2012-02-20 11:18:36
1.1949999332428,48,8.00208377838135,0.598177194595337,0.678997397422791,1.09791684150696,-12.6979169845581,0.106770791113377,0.126638650894165,0.202083751559258,-24.3354167938232,0.264583081007004,0.322418868541718,0.635416388511658,2012-02-20 11:18:37
1.01900005340576,50,5.17199993133545,1.4041600227356,1.62000489234924,3.12800025939941,-12.9020004272461,0.0864798352122307,0.125682130455971,0.402000278234482,-24.5799999237061,0.10960041731596,0.131149277091026,0.220000833272934,2012-02-20 11:18:38
1.0090000629425,42,5.39047622680664,1.42176878452301,1.51277256011963,2.19047617912292,-13.2619047164917,0.204761952161789,0.238998278975487,0.46190470457077,-24.3119049072266,0.264852404594421,0.320120722055435,0.688094973564148,2012-02-20 11:18:39
1.01099991798401,41,7.46829271316528,0.365734666585922,0.421633899211884,0.83170747756958,-13.0268297195435,0.328970938920975,0.366276264190674,0.673170387744904,-24.6707324981689,0.174896001815796,0.199075758457184,0.370730847120285,2012-02-20 11:18:40
1.02400016784668,38,6.35526323318481,0.645290851593018,0.794619202613831,1.65526294708252,-13.0210523605347,0.101385056972504,0.132104158401489,0.278947383165359,-24.9763164520264,0.136703625321388,0.161300972104073,0.323684990406036,2012-02-20 11:18:41
1.00799989700317,40,3.52500009536743,0.404999971389771,0.514660060405731,1.17500019073486,-12.6925001144409,0.157875001430511,0.190246656537056,0.407500177621841,-25.1100006103516,0.176500201225281,0.213072806596756,0.409999668598175,2012-02-20 11:18:42
1.0239999294281,48,5.19374990463257,0.880729198455811,1.0310605764389,1.90624988079071,-12.7604169845581,0.114583514630795,0.133447334170341,0.260416835546494,-24.4604167938232,0.211371541023254,0.28191277384758,0.739583671092987,2012-02-20 11:18:43
1,42,6.69761896133423,0.45986396074295,0.525306284427643,1.20238089561462,-12.5904760360718,0.136054441332817,0.17294305562973,0.39047646522522,-24.9761905670166,0.178457990288734,0.209090441465378,0.423808634281158,2012-02-20 11:18:44
1.01100015640259,34,4.85294151306152,0.89619380235672,0.98286360502243,1.65294122695923,-12.4117650985718,0.135986149311066,0.154852375388145,0.288234978914261,-25.5088233947754,0.236159384250641,0.274791777133942,0.608824491500854,2012-02-20 11:18:46
1.01600003242493,41,2.51219511032104,0.258179664611816,0.295655637979507,0.687804877758026,-12.4390249252319,0.134562686085701,0.166569486260414,0.439024657011032,-25.7365856170654,0.0960143581032753,0.114244274795055,0.263414025306702,2012-02-20 11:18:47
1.25099992752075,48,3.66458344459534,1.18663191795349,1.36190581321716,2.83541655540466,-12.5,0.133333295583725,0.164570093154907,0.300000339746475,-25.3645839691162,0.267534643411636,0.324351757764816,0.864583790302277,2012-02-20 11:18:48
1.01799988746643,49,8.14489841461182,0.151936635375023,0.195939660072327,0.655102074146271,-12.8612251281738,0.10079151391983,0.119208969175816,0.238775685429573,-24.5,0.151020660996437,0.19691513478756,0.500000417232513,2012-02-20 11:18:49
1,36,5.99722242355347,1.06944441795349,1.17673885822296,2.00277757644653,-12.5833339691162,0.164814844727516,0.217944964766502,0.516666889190674,-25.0416679382324,0.332407623529434,0.400953888893127,0.841666221618652,2012-02-20 11:18:50
1.02100014686584,43,3.42790699005127,0.611249327659607,0.653906166553497,1.1720929145813,-12.5069770812988,0.0928068980574608,0.116928301751614,0.293023198843002,-25.5441856384277,0.117036558687687,0.14026965200901,0.344185590744019,2012-02-20 11:18:51
1.00999999046326,41,4.47804880142212,1.33146941661835,1.41102147102356,2.42195129394531,-12.4853658676147,0.104937396943569,0.126029297709465,0.285366296768188,-25.2073173522949,0.343367069959641,0.385334998369217,0.707317471504211,2012-02-20 11:18:52
1.00499987602234,39,7.53846168518066,0.198816537857056,0.28249379992485,0.838461339473724,-12.9000005722046,0.138461604714394,0.175411611795425,0.400000244379044,-24.1410255432129,0.222748339176178,0.25791871547699,0.558974921703339,2012-02-20 11:18:53
1.01800012588501,44,7.25454568862915,0.504958748817444,0.591398417949677,1.05454528331757,-12.9204549789429,0.0959709286689758,0.119809560477734,0.320454388856888,-24.3113632202148,0.184090659022331,0.225847885012627,0.411364257335663,2012-02-20 11:18:54
1.00499987602234,35,4.79714298248291,0.596897959709167,0.685142636299133,1.30285704135895,-12.8085718154907,0.0788573697209358,0.0967219769954681,0.208571299910545,-24.7628574371338,0.0938776731491089,0.122090615332127,0.262857884168625,2012-02-20 11:18:55
1.00399994850159,39,4.7615385055542,0.329783022403717,0.375953733921051,0.738461494445801,-12.7743587493896,0.164760142564774,0.186352267861366,0.425640672445297,-24.4410266876221,0.393819779157639,0.423488408327103,0.741025269031525,2012-02-20 11:18:56
1,43,6.99069786071777,0.369388848543167,0.51796293258667,1.39069783687592,-12.8279075622559,0.111519813537598,0.133513510227203,0.272093206644058,-24.1139545440674,0.157815188169479,0.207511737942696,0.61395400762558,2012-02-20 11:18:57
1.01100015640259,48,6.10416650772095,0.767013907432556,0.953711688518524,1.70416665077209,-12.8208332061768,0.108507074415684,0.144277468323708,0.420832991600037,-24.5750007629395,0.13333348929882,0.174999982118607,0.424999743700027,2012-02-20 11:18:58
1.01099991798401,34,3.23529410362244,0.612456738948822,0.717381834983826,1.56470596790314,-12.7764711380005,0.0716264992952347,0.0909391790628433,0.276470750570297,-24.81764793396,0.105189844965935,0.138203799724579,0.317647606134415,2012-02-20 11:18:59
1.00300002098083,42,5.33333349227905,0.828571438789368,0.953356683254242,1.83333337306976,-12.9976196289062,0.255555480718613,0.322555303573608,0.697619020938873,-23.9595241546631,0.550793468952179,0.617621779441833,1.04047584533691,2012-02-20 11:19:00
1.01600003242493,45,7.82666683197021,0.409777790307999,0.520000040531158,1.07333374023438,-12.9733333587646,0.159407302737236,0.202649116516113,0.47333362698555,-24.0244445800781,0.216098919510841,0.260047495365143,0.524444818496704,2012-02-20 11:19:01
1.05099987983704,33,8.07272720336914,0.306336104869843,0.364544361829758,0.827273190021515,-12.8212127685547,0.121395848691463,0.1430354565382,0.278788089752197,-24.3909091949463,0.211019173264503,0.251497060060501,0.490909814834595,2012-02-20 11:19:02
1,54,4.08518505096436,1.10781896114349,1.22571337223053,2.21481490135193,-12.698148727417,0.12421116232872,0.158103078603745,0.401852041482925,-25.1185188293457,0.204115375876427,0.266718149185181,0.681482255458832,2012-02-20 11:19:03
1.00100016593933,36,4.87222242355347,0.965740740299225,1.13739740848541,2.02777767181396,-12.6611108779907,0.224382698535919,0.257420748472214,0.461111485958099,-24.7694454193115,0.599382817745209,0.685087025165558,1.13055491447449,2012-02-20 11:19:04
1.03099989891052,40,5.60249996185303,0.473250031471252,0.547031760215759,1.19749999046326,-12.6374998092651,0.0993748381733894,0.119765311479568,0.262500435113907,-24.8125,0.223749905824661,0.244118362665176,0.412500709295273,2012-02-20 11:19:05
1.01900005340576,41,5.45853662490845,0.815585970878601,0.910902976989746,1.55853652954102,-12.3731708526611,0.0948246568441391,0.116920702159405,0.326828867197037,-25.6024398803711,0.260916084051132,0.300801873207092,0.602439522743225,2012-02-20 11:19:06
1.03799986839294,47,3.42553186416626,0.525124490261078,0.619357287883759,1.17446792125702,-12.4765958786011,0.0854683369398117,0.105614133179188,0.276596218347549,-25.3723411560059,0.177183881402016,0.22379894554615,0.572339713573456,2012-02-20 11:19:07
1.22700023651123,36,6.41944456100464,0.644907414913177,0.894992113113403,1.91944456100464,-12.8555555343628,0.173456877470016,0.20199628174305,0.544444918632507,-24.2000007629395,0.399999856948853,0.437162429094315,0.799999535083771,2012-02-20 11:19:08
1.01399993896484,44,6.88181829452515,0.260743796825409,0.333897620439529,0.918181955814362,-12.7636365890503,0.147520780563354,0.177214503288269,0.363636046648026,-24.634090423584,0.273657083511353,0.357353329658508,0.834090173244476,2012-02-20 11:19:09
1.0149998664856,31,6.29032278060913,0.229968771338463,0.259471952915192,0.409677654504776,-12.6516132354736,0.0980227366089821,0.118786722421646,0.251612395048141,-25.2419357299805,0.116961404681206,0.147613644599915,0.34193629026413,2012-02-20 11:19:10
1.13900017738342,39,5.44871807098389,0.380670636892319,0.421153396368027,0.751282274723053,-12.5641031265259,0.124391861259937,0.156052529811859,0.364102989435196,-24.9538459777832,0.183037430047989,0.21103672683239,0.453846663236618,2012-02-20 11:19:11
1.01999998092651,46,6.50217390060425,0.65860116481781,0.75541216135025,1.60217392444611,-12.8282613754272,0.149338468909264,0.183756783604622,0.471739143133163,-24.008695602417,0.282041490077972,0.393327921628952,1.09130418300629,2012-02-20 11:19:12
1.00799989700317,39,7.75128221511841,0.214201211929321,0.271625518798828,0.551281929016113,-12.8153848648071,0.140434056520462,0.167237773537636,0.315384805202484,-24.2743587493896,0.190400913357735,0.245699241757393,0.82564103603363,2012-02-20 11:19:13
1.01900005340576,48,7.75624990463257,0.379687517881393,0.466327100992203,1.15625023841858,-12.7041664123535,0.159027859568596,0.192525282502174,0.404166638851166,-24.841667175293,0.224652633070946,0.268354088068008,0.641666114330292,2012-02-20 11:19:14
1.01799988746643,35,6.47142887115479,0.127346843481064,0.150373607873917,0.328571557998657,-12.708571434021,0.0960000827908516,0.113064952194691,0.208571627736092,-24.6942863464355,0.17763277888298,0.202756524085999,0.394284814596176,2012-02-20 11:19:15
1.01300001144409,40,5.45499992370605,0.39274999499321,0.46741309762001,0.955000102519989,-12.5100002288818,0.0984999686479568,0.126095101237297,0.390000283718109,-25.0799999237061,0.132000312209129,0.160000219941139,0.379999548196793,2012-02-20 11:19:17
1.00300002098083,39,6.92820501327515,0.446416825056076,0.555600225925446,1.37179493904114,-12.6282052993774,0.0927019715309143,0.108482904732227,0.228204607963562,-24.851282119751,0.157790586352348,0.187933072447777,0.351282507181168,2012-02-20 11:19:18
1.00300002098083,43,7.72558164596558,0.259924322366714,0.358350932598114,1.12558162212372,-12.7581396102905,0.125797852873802,0.151323780417442,0.458139568567276,-24.6720943450928,0.116171233355999,0.138640820980072,0.327906459569931,2012-02-20 11:19:19
1.00300002098083,65,5.78307723999023,0.264331340789795,0.358015567064285,1.21692299842834,-12.8523082733154,0.0882841795682907,0.108284182846546,0.352307945489883,-24.6430778503418,0.118911489844322,0.150863528251648,0.443076610565186,2012-02-20 11:19:20
1.00200009346008,37,6.76756763458252,0.478159219026566,0.635887980461121,1.46756756305695,-13.0864868164062,0.11263694614172,0.13981094956398,0.313513904809952,-24.0756759643555,0.154565632343292,0.209768906235695,0.624324679374695,2012-02-20 11:19:21
1.00099992752075,40,8.05249977111816,0.282500028610229,0.344229251146317,0.647499740123749,-13.0075006484985,0.154374897480011,0.183558478951454,0.407499849796295,-24.2674999237061,0.370875000953674,0.445750772953033,0.86750066280365,2012-02-20 11:19:22
1.02300000190735,41,7.8097562789917,0.426650851964951,0.501609623432159,0.909756064414978,-13,0.092682920396328,0.118938319385052,0.300000429153442,-24.634147644043,0.0953007787466049,0.109566651284695,0.165854290127754,2012-02-20 11:19:23
1.01799988746643,41,6.08536577224731,0.273527681827545,0.350999265909195,0.814634144306183,-12.9902439117432,0.0904222205281258,0.112195037305355,0.209755659103394,-24.8634147644043,0.157643914222717,0.190961688756943,0.436586052179337,2012-02-20 11:19:24
1.26300001144409,45,5.37555551528931,0.407209813594818,0.493583500385284,1.07555544376373,-13.7888889312744,0.319506227970123,0.374297738075256,0.788888990879059,-24.9177780151367,0.23150634765625,0.273487120866776,0.51777857542038,2012-02-20 11:19:25
1.03700017929077,44,5.84318208694458,0.17892561852932,0.222993850708008,0.656818091869354,-14.6909093856812,0.157851248979568,0.200927704572678,0.490909427404404,-25.0613632202148,0.252995848655701,0.290935575962067,0.538636326789856,2012-02-20 11:19:26
1.01999998092651,40,4.11749982833862,1.01512503623962,1.2328599691391,2.28250002861023,-14.9300003051758,0.0924998447299004,0.116618990898132,0.269999533891678,-25.5524997711182,0.158000335097313,0.180260464549065,0.347499310970306,2012-02-20 11:19:27
1.01899981498718,44,2.11136364936829,0.323450416326523,0.380320399999619,0.688636302947998,-14.870454788208,0.0894629210233688,0.115953654050827,0.329544991254807,-25.8977279663086,0.14865680038929,0.198275148868561,0.49772784113884,2012-02-20 11:19:28
1.01400017738342,43,5.39302349090576,1.09053552150726,1.18663012981415,2.39302325248718,-15.5697679519653,0.108166538178921,0.130356982350349,0.330232977867126,-23.9279079437256,0.276365429162979,0.363014191389084,1.1720929145813,2012-02-20 11:19:29
1.00099992752075,41,5.9195122718811,0.352647215127945,0.399523794651031,0.680487632751465,-15.3658542633057,0.127781212329865,0.160197719931602,0.365853846073151,-24.0463409423828,0.18072597682476,0.248014256358147,0.75365936756134,2012-02-20 11:19:30
1.01999998092651,45,4.42222213745117,0.78864198923111,0.890914380550385,1.72222220897675,-15.0288887023926,0.101925902068615,0.120410703122616,0.271111071109772,-24.9644451141357,0.173827216029167,0.201279848814011,0.435554713010788,2012-02-20 11:19:31
1.00099992752075,35,3.46571445465088,0.572571396827698,0.600924432277679,0.965714335441589,-15.0714282989502,0.122448891401291,0.140552699565887,0.271428465843201,-25.1114292144775,0.195265397429466,0.236367002129555,0.488571375608444,2012-02-20 11:19:32
1.01400017738342,43,4.13720941543579,0.690968096256256,0.787407696247101,1.3627907037735,-15.1000003814697,0.209302350878716,0.244949012994766,0.499999791383743,-24.7465114593506,0.508382976055145,0.576819241046906,1.14651155471802,2012-02-20 11:19:33
1.01799988746643,38,5.11842107772827,0.293074816465378,0.354560703039169,0.718421041965485,-15.2657899856567,0.120360195636749,0.141934648156166,0.365789175033569,-24.434211730957,0.123822718858719,0.150920450687408,0.334210455417633,2012-02-20 11:19:34
1.00300002098083,43,5.57674407958984,0.392644673585892,0.469456493854523,1.02325558662415,-15.125581741333,0.12504044175148,0.15264031291008,0.32558137178421,-24.5744190216064,0.287831097841263,0.32855761051178,0.525581419467926,2012-02-20 11:19:35
1.01900005340576,49,3.75510215759277,0.628488123416901,0.757832884788513,1.64489805698395,-14.8653059005737,0.139025464653969,0.17791423201561,0.565306127071381,-25.5591831207275,0.519783556461334,0.698663055896759,2.24081707000732,2012-02-20 11:19:36
1.01699995994568,43,1.9116278886795,2.67788004875183,3.22794556617737,6.21162796020508,-14.5069770812988,0.494213074445724,0.569126307964325,1.00697696208954,-27.734884262085,1.22130870819092,1.40512073040009,2.63488364219666,2012-02-20 11:19:37
1.00300002098083,41,-5.77804899215698,3.02903032302856,3.4848461151123,5.92195081710815,-14.4390249252319,0.796073794364929,0.913550615310669,1.76097619533539,-35.6121940612793,4.22165393829346,4.81132793426514,7.28780603408813,2012-02-20 11:19:38
1.00300002098083,36,-7.63333368301392,1.46666669845581,1.79768371582031,3.53333353996277,-16.3972225189209,0.653394997119904,0.802941203117371,1.49722182750702,-32.75,1.25000035762787,1.81758415699005,7.65000057220459,2012-02-20 11:19:39
1.01300001144409,48,-6.88333320617676,2.22569441795349,2.61982297897339,4.58333349227905,-15.8833332061768,0.466666758060455,0.583928346633911,1.08333349227905,-31.75,1.81666684150696,2.44625568389893,5.54999971389771,2012-02-20 11:19:40
1.01699995994568,37,0.551351368427277,1.83666908740997,2.01462507247925,3.04864883422852,-13.3135137557983,1.1951789855957,1.38567233085632,2.3864860534668,-32.943244934082,3.66515707969666,4.13348484039307,7.14324283599854,2012-02-20 11:19:41
1.00099992752075,43,2.64651155471802,2.04943203926086,2.87016320228577,6.94651174545288,-12.5581398010254,0.552514851093292,0.656712174415588,1.25813949108124,-33.9511642456055,2.39653849601746,2.97003436088562,7.2488374710083,2012-02-20 11:19:42
1.00300002098083,41,-7.01707315444946,1.24271261692047,1.40363681316376,2.98292684555054,-10.9878053665161,0.653301596641541,0.726567327976227,1.18780493736267,-40.2341461181641,1.94562757015228,2.22179985046387,3.76585292816162,2012-02-20 11:19:43
1.01099991798401,38,-12.2184209823608,3.39639902114868,3.92970180511475,6.81842136383057,-11.497368812561,1.03462600708008,1.25561618804932,1.99736869335175,-47.3815803527832,4.40457057952881,5.59496259689331,10.3184204101562,2012-02-20 11:19:44
1.01600003242493,49,-8.58367347717285,0.412494838237762,0.581815302371979,1.81632685661316,-10.2775506973267,0.367513537406921,0.482876241207123,1.42244863510132,-55.1857147216797,1.16967928409576,1.47385370731354,2.91428685188293,2012-02-20 11:19:45
1.01400017738342,37,-6.28378391265869,0.876260042190552,1.20236563682556,2.71621608734131,-9.05135154724121,0.339810103178024,0.442732095718384,1.04864883422852,-52.2918930053711,0.310153305530548,0.410259157419205,1.20810747146606,2012-02-20 11:19:46
1.00799989700317,42,-5.71904754638672,0.258049875497818,0.308018296957016,0.58095246553421,-8.83095264434814,0.086281381547451,0.0987738445401192,0.169047430157661,-51.9500007629395,0.304762154817581,0.370488971471786,0.75,2012-02-20 11:19:47
1.01300001144409,36,-6.45277786254883,0.728549420833588,0.843763470649719,1.54722213745117,-9.30277824401855,0.341975331306458,0.396152377128601,0.897221803665161,-53.3138885498047,1.032870054245,1.21795630455017,2.58611154556274,2012-02-20 11:19:48
1.00500011444092,49,-7.91836738586426,2.69437742233276,3.53002715110779,9.51836776733398,-10.9734697341919,0.49645984172821,0.572062373161316,1.12653076648712,-57.9367370605469,1.25356090068817,1.65464019775391,4.16326665878296,2012-02-20 11:19:49
1.00299978256226,33,13.1090908050537,3.23636364936829,4.68533277511597,11.009090423584,-11.0212125778198,1.5357209444046,1.68284714221954,2.52121233940125,-61.7606086730957,3.56896257400513,4.3416895866394,8.86060523986816,2012-02-20 11:19:50
1.00500011444092,44,14.1386365890503,1.01167356967926,1.21191358566284,3.43863677978516,-8.20681858062744,0.612603366374969,0.737747728824615,1.29318165779114,-49.0659103393555,1.57964885234833,1.84451818466187,3.43409037590027,2012-02-20 11:19:51
1.00499987602234,35,2.37714290618896,1.66971433162689,2.27320861816406,7.02285766601562,-11.4771432876587,0.585632681846619,0.72902512550354,1.77714323997498,-57.2971420288086,1.46677565574646,2.09140920639038,5.99714422225952,2012-02-20 11:19:52
1.01700019836426,42,6.53571462631226,2.91190481185913,3.42677283287048,5.93571424484253,-12.2380952835083,0.599546551704407,0.720764338970184,1.56190466880798,-58.75,1.5571426153183,1.74999976158142,3.45000004768372,2012-02-20 11:19:53
1.00599980354309,49,6.46326541900635,3.5191171169281,3.686527967453,5.16326522827148,-12.7734699249268,0.436568081378937,0.544649422168732,1.02653062343597,-59.3142852783203,1.56384837627411,2.00061225891113,3.81428647041321,2012-02-20 11:19:54
1.01200008392334,32,3.18437504768372,2.16425776481628,2.64280986785889,6.31562471389771,-12.6218748092651,1.21699213981628,1.31047093868256,1.87812483310699,-62.2437515258789,0.91093772649765,1.11633837223053,2.14374899864197,2012-02-20 11:19:55
1.00800013542175,44,5.98863649368286,1.23202478885651,1.44445896148682,3.311363697052,-10.5954551696777,0.178099155426025,0.220489680767059,0.404545187950134,-60.8636360168457,0.789255976676941,0.906062960624695,1.93636226654053,2012-02-20 11:19:56
1.00699996948242,34,5.69117641448975,0.57993084192276,0.677958726882935,1.20882344245911,-10.5735292434692,0.400173038244247,0.463559627532959,0.873529732227325,-60.5088233947754,0.452768206596375,0.596246898174286,1.40882205963135,2012-02-20 11:19:57
1.00899982452393,44,6.92272710800171,0.207024753093719,0.243892326951027,0.522727251052856,-10.1977272033691,0.152479320764542,0.186460688710213,0.497727692127228,-59.4545478820801,0.158264517784119,0.190041452646255,0.454546421766281,2012-02-20 11:19:58
1.01500010490417,32,6.640625,0.16464851796627,0.220594942569733,0.559375286102295,-10.1968755722046,0.103710815310478,0.131063848733902,0.303124815225601,-59.59375,0.225000143051147,0.254874497652054,0.506251573562622,2012-02-20 11:19:59
1.00699996948242,44,6.78863620758057,0.369938015937805,0.420073539018631,0.711363554000854,-10.0454549789429,0.138842925429344,0.164392128586769,0.354545831680298,-59.347728729248,0.143595352768898,0.175147593021393,0.352272540330887,2012-02-20 11:20:00
1.02300000190735,36,6.61111116409302,0.17962971329689,0.233068659901619,0.611111164093018,-9.98333358764648,0.142592579126358,0.170782551169395,0.316666692495346,-59.4916687011719,0.078703798353672,0.108972981572151,0.208333551883698,2012-02-20 11:20:01
1.08200001716614,43,6.37209320068359,0.251811802387238,0.313513934612274,0.827907204627991,-10.1418609619141,0.105245925486088,0.12801256775856,0.258139908313751,-59.5627899169922,0.10200160741806,0.125796541571617,0.262792468070984,2012-02-20 11:20:02
1.01900005340576,49,10.7734699249268,2.76751351356506,3.38187098503113,6.62653017044067,-10.7265310287476,0.652061641216278,0.808317840099335,2.07346940040588,-60.0591850280762,0.702873528003693,0.780349969863892,1.2591849565506,2012-02-20 11:20:03
1.01300001144409,45,13.8155555725098,2.23506164550781,2.55220651626587,5.08444404602051,-11.102222442627,1.26518511772156,1.44475889205933,2.69777774810791,-54.6822242736816,6.74103736877441,7.41515874862671,11.4177751541138,2012-02-20 11:20:04
1.03600001335144,42,22.0642852783203,3.69761919975281,3.98496127128601,5.83571338653564,-13.8333339691162,1.03174602985382,1.27179408073425,2.73333311080933,-47.704761505127,3.9285717010498,4.29201650619507,5.90476322174072,2012-02-20 11:20:05
1.04399991035461,35,21.477144241333,2.70269393920898,3.16914463043213,5.32285785675049,-14.4200000762939,1.00571429729462,1.1729816198349,2.28000044822693,-50.5714302062988,1.15755116939545,1.39275097846985,2.77143001556396,2012-02-20 11:20:06
1.03399991989136,51,17.5058822631836,2.39976930618286,3.30871772766113,9.09411811828613,-15.380392074585,0.574548423290253,0.655001878738403,1.2196079492569,-58.466667175293,1.88627457618713,2.62922263145447,7.86666536331177,2012-02-20 11:20:07
1.08800005912781,37,7.64594602584839,6.07085466384888,6.94455242156982,12.2540531158447,-16.7297306060791,0.622936487197876,0.689247488975525,1.17026960849762,-65.3027038574219,2.51599717140198,3.10835742950439,6.00270509719849,2012-02-20 11:20:09
1.0220000743866,49,5.56326532363892,0.316951274871826,0.438780277967453,1.86326539516449,-15.4387760162354,0.321199536323547,0.376783639192581,0.861225426197052,-64.2918395996094,0.802915632724762,0.969291090965271,2.10816335678101,2012-02-20 11:20:10
1,39,4.56410264968872,0.781459629535675,0.880701124668121,1.43589735031128,-15.0948715209961,0.226561442017555,0.264040321111679,0.594871938228607,-63.6846160888672,0.177119955420494,0.222501248121262,0.484615117311478,2012-02-20 11:20:11
1.30999994277954,42,3.48571443557739,0.257142841815948,0.320395112037659,0.614285588264465,-14.8952379226685,0.153741538524628,0.18510277569294,0.395238250494003,-63.4142875671387,0.193197354674339,0.238618582487106,0.485714852809906,2012-02-20 11:20:12
1.05999994277954,37,3.38648653030396,0.160555183887482,0.200219035148621,0.486486434936523,-14.7594594955444,0.0924764201045036,0.110182911157608,0.259459614753723,-63.1000022888184,0.145946174860001,0.173983544111252,0.300001502037048,2012-02-20 11:20:13
1.0310001373291,46,4.5695652961731,0.386578440666199,0.459143608808517,0.969565153121948,-15.1304349899292,0.189603045582771,0.215557545423508,0.430435210466385,-63.5934791564941,0.238374456763268,0.324641555547714,0.893478393554688,2012-02-20 11:20:14
1.01999998092651,51,4.73921585083008,0.17247211933136,0.208710730075836,0.460784494876862,-15.2666664123535,0.11895439773798,0.146416991949081,0.33333358168602,-63.6509819030762,0.104882270097733,0.124258428812027,0.250979691743851,2012-02-20 11:20:15
1.00600004196167,35,4.55714321136475,0.257142841815948,0.323627382516861,0.742857217788696,-15.3171434402466,0.166204079985619,0.207688897848129,0.517142832279205,-63.7999992370605,0.102857492864132,0.130930572748184,0.399999141693115,2012-02-20 11:20:16
1.0149998664856,40,4.90750026702881,0.242124989628792,0.270543485879898,0.507499992847443,-15.2425003051758,0.0703751146793365,0.0802730247378349,0.157500460743904,-63.7574996948242,0.123249657452106,0.141222059726715,0.257500946521759,2012-02-20 11:20:17
1.00200009346008,37,4.6945948600769,0.200146183371544,0.253564834594727,0.605405509471893,-15.2054052352905,0.0934990122914314,0.125085815787315,0.305404961109161,-63.5432434082031,0.106209374964237,0.122011594474316,0.243244886398315,2012-02-20 11:20:18
1.00999999046326,51,4.71764707565308,0.232064604759216,0.3020880818367,0.782352864742279,-15.1823530197144,0.107727728784084,0.13240747153759,0.28235250711441,-63.5274505615234,0.112495705485344,0.13587561249733,0.327451139688492,2012-02-20 11:20:19
1.00999999046326,32,4.89375019073486,0.183984324336052,0.237088426947594,0.493749976158142,-15.2750005722046,0.0718752443790436,0.082915872335434,0.174999743700027,-63.5437507629395,0.0980477854609489,0.119733482599258,0.243751883506775,2012-02-20 11:20:20
1.01200008392334,45,4.97777795791626,0.324938237667084,0.389237940311432,0.822222292423248,-15.1844444274902,0.150617212057114,0.181298464536667,0.415555715560913,-63.5488891601562,0.147753328084946,0.174638897180557,0.451110243797302,2012-02-20 11:20:21
1.04099988937378,26,5.03076934814453,0.136094659566879,0.165875822305679,0.330769032239914,-15.2653846740723,0.0733729004859924,0.091745138168335,0.234615251421928,-63.523078918457,0.095858633518219,0.115385003387928,0.223078653216362,2012-02-20 11:20:22
1.13299989700317,46,5.56304359436035,0.274480134248734,0.337096720933914,0.736956596374512,-15.1608695983887,0.11644596606493,0.145180881023407,0.339130252599716,-63.5130462646484,0.0897927656769753,0.111528776586056,0.213045209646225,2012-02-20 11:20:23
1,49,5.60204076766968,0.242982149124146,0.291715413331985,0.602040886878967,-15.1530609130859,0.117534197866917,0.149968683719635,0.353061199188232,-63.3591842651367,0.104540385305882,0.12923401594162,0.359184175729752,2012-02-20 11:20:24
1.02400016784668,37,5.24864864349365,0.182468935847282,0.213872417807579,0.448648542165756,-15.1945943832397,0.114536061882973,0.152361541986465,0.405405640602112,-63.4513511657715,0.0797661691904068,0.0918923392891884,0.15135295689106,2012-02-20 11:20:25
1.01300001144409,44,5.29545450210571,0.588429749011993,0.800838947296143,1.99545466899872,-15.7568187713623,0.32241752743721,0.42233008146286,1.14318120479584,-64.875,0.552272439002991,0.799467325210571,2.12499856948853,2012-02-20 11:20:26
1.04299998283386,36,16.5055561065674,6.77746915817261,7.62553977966309,12.6055555343628,-15.9888887405396,0.629629671573639,0.715610802173615,1.18888890743256,-59.1027793884277,4.25817918777466,4.97066354751587,8.0972261428833,2012-02-20 11:20:27
