"diffSecs","latitude","longitude","altitude","time"
0.589999914169312,42.85489379,-71.49117358,16.6000003814697,2012-01-18 15:14:00
0.907000064849854,42.85489382,-71.49117368,16.6000003814697,2012-01-18 15:14:01
1.00999999046326,42.85489383,-71.49117371,16.6000003814697,2012-01-18 15:14:02
1.06299996376038,42.85489384,-71.49117374,16.5,2012-01-18 15:14:03
1.00300002098083,42.85489385,-71.49117374,16.5,2012-01-18 15:14:04
1.02999997138977,42.85489387,-71.49117376,16.5,2012-01-18 15:14:05
1.21799993515015,42.8548939,-71.49117388,16.5,2012-01-18 15:14:06
0.76800012588501,42.8548939,-71.49117388,16.5,2012-01-18 15:14:07
0.839999914169312,42.8548939,-71.49117388,16.5,2012-01-18 15:14:08
0.921000003814697,42.85489392,-71.49117392,16.5,2012-01-18 15:14:09
1.00399994850159,42.85489393,-71.49117391,16.5,2012-01-18 15:14:10
1.23399996757507,42.85489388,-71.4911738,16.5,2012-01-18 15:14:11
0.769000053405762,42.85489394,-71.49117398,16.5,2012-01-18 15:14:12
1.19600009918213,42.85489394,-71.49117398,16.5,2012-01-18 15:14:13
0.993000030517578,42.85489393,-71.49117392,16.5,2012-01-18 15:14:14
0.812999963760376,42.85489393,-71.49117395,16.5,2012-01-18 15:14:15
1.19400000572205,42.85489396,-71.49117395,16.5,2012-01-18 15:14:16
0.815000057220459,42.854894,-71.49117408,16.5,2012-01-18 15:14:17
0.986999988555908,42.854894,-71.49117408,16.5,2012-01-18 15:14:18
1.12299990653992,42.85489404,-71.49117409,16.5,2012-01-18 15:14:19
0.970999956130981,42.85489402,-71.49117404,16.5,2012-01-18 15:14:20
0.909000158309937,42.85489406,-71.49117417,16.5,2012-01-18 15:14:21
1.00299978256226,42.85489404,-71.49117411,16.5,2012-01-18 15:14:22
1.04100012779236,42.85489399,-71.49117395,16.5,2012-01-18 15:14:23
1.0239999294281,42.85489405,-71.491174,16.5,2012-01-18 15:14:24
0.979000091552734,42.85489403,-71.49117397,16.5,2012-01-18 15:14:25
0.950000047683716,42.85489403,-71.49117398,16.5,2012-01-18 15:14:26
1.04099988937378,42.85489402,-71.4911739,16.5,2012-01-18 15:14:27
0.982000112533569,42.85489402,-71.4911739,16.5,2012-01-18 15:14:28
0.978999853134155,42.85489403,-71.49117391,16.5,2012-01-18 15:14:29
1.00699996948242,42.85489402,-71.49117389,16.5,2012-01-18 15:14:30
1.19900012016296,42.85489402,-71.49117389,16.5,2012-01-18 15:14:31
0.792999982833862,42.85489405,-71.49117402,16.5,2012-01-18 15:14:32
1.6949999332428,42.85489404,-71.49117399,16.5,2012-01-18 15:14:34
0.508000135421753,42.85489405,-71.491174,16.5,2012-01-18 15:14:34
0.980000019073486,42.85489403,-71.49117396,16.5,2012-01-18 15:14:35
0.98799991607666,42.85489403,-71.49117396,16.5,2012-01-18 15:14:36
1.19099998474121,42.85489403,-71.49117396,16.5,2012-01-18 15:14:37
0.822000026702881,42.85489403,-71.49117397,16.5,2012-01-18 15:14:38
0.976999998092651,42.85489402,-71.49117394,16.5,2012-01-18 15:14:39
1.05999994277954,42.85489401,-71.4911739,16.5,2012-01-18 15:14:40
0.821000099182129,42.85489402,-71.49117392,16.5,2012-01-18 15:14:41
1.01300001144409,42.85489401,-71.49117389,16.5,2012-01-18 15:14:42
0.983999967575073,42.85489401,-71.4911739,16.5,2012-01-18 15:14:43
1,42.85489401,-71.49117391,16.5,2012-01-18 15:14:44
1.09899997711182,42.85489401,-71.49117389,16.5,2012-01-18 15:14:45
0.920000076293945,42.854894,-71.49117386,16.5,2012-01-18 15:14:46
1.0479998588562,42.854894,-71.49117385,16.5,2012-01-18 15:14:47
0.946000099182129,42.85489402,-71.49117397,16.3999996185303,2012-01-18 15:14:48
0.991999864578247,42.85489402,-71.49117397,16.3999996185303,2012-01-18 15:14:49
1.0090000629425,42.85489401,-71.49117397,16.3999996185303,2012-01-18 15:14:50
1.02699995040894,42.85489399,-71.49117395,16.3999996185303,2012-01-18 15:14:51
1.03200006484985,42.85489398,-71.49117397,16.3999996185303,2012-01-18 15:14:52
0.927000045776367,42.85489398,-71.49117397,16.3999996185303,2012-01-18 15:14:53
0.996999979019165,42.85489397,-71.49117391,16.3999996185303,2012-01-18 15:14:54
1.0019998550415,42.85489397,-71.49117396,16.3999996185303,2012-01-18 15:14:55
0.999000072479248,42.85489396,-71.49117391,16.3999996185303,2012-01-18 15:14:56
1.13700008392334,42.85489396,-71.49117387,16.5,2012-01-18 15:14:57
0.859999895095825,42.85489395,-71.49117385,16.5,2012-01-18 15:14:58
1.00300002098083,42.85489394,-71.49117381,16.5,2012-01-18 15:14:59
1.02999997138977,42.85489397,-71.49117386,16.3999996185303,2012-01-18 15:15:00
0.973999977111816,42.85489396,-71.49117381,16.3999996185303,2012-01-18 15:15:01
0.998000144958496,42.85489396,-71.49117379,16.3999996185303,2012-01-18 15:15:02
1.0090000629425,42.854894,-71.49117388,16.3999996185303,2012-01-18 15:15:03
1.29999995231628,42.85489402,-71.49117388,16.3999996185303,2012-01-18 15:15:04
0.883999824523926,42.85489405,-71.49117396,16.3999996185303,2012-01-18 15:15:05
0.928000211715698,42.85489406,-71.49117397,16.3999996185303,2012-01-18 15:15:06
1.00399994850159,42.85489409,-71.49117408,16.3999996185303,2012-01-18 15:15:07
1.08399987220764,42.85489409,-71.49117408,16.3999996185303,2012-01-18 15:15:08
0.884000062942505,42.85489411,-71.49117415,16.3999996185303,2012-01-18 15:15:09
0.898999929428101,42.8548941,-71.49117412,16.3999996185303,2012-01-18 15:15:10
1.00699996948242,42.85489409,-71.49117408,16.3999996185303,2012-01-18 15:15:11
0.995000123977661,42.85489408,-71.49117402,16.3999996185303,2012-01-18 15:15:12
1.01699995994568,42.85489413,-71.4911741,16.3999996185303,2012-01-18 15:15:13
1.01300001144409,42.85489415,-71.49117416,16.3999996185303,2012-01-18 15:15:14
0.973000049591064,42.85489423,-71.49117432,16.3999996185303,2012-01-18 15:15:15
1.00399994850159,42.85489425,-71.49117435,16.3999996185303,2012-01-18 15:15:16
0.997999906539917,42.85489427,-71.49117445,16.3999996185303,2012-01-18 15:15:17
1.07200002670288,42.85489427,-71.4911744,16.3999996185303,2012-01-18 15:15:18
1.05000019073486,42.85489429,-71.49117445,16.3999996185303,2012-01-18 15:15:19
0.879999876022339,42.85489429,-71.49117445,16.3999996185303,2012-01-18 15:15:20
0.995000123977661,42.85489432,-71.49117457,16.2999992370605,2012-01-18 15:15:21
0.998999834060669,42.85489432,-71.49117457,16.2999992370605,2012-01-18 15:15:22
0.999000072479248,42.85489432,-71.49117457,16.2999992370605,2012-01-18 15:15:23
1.03699994087219,42.85489431,-71.49117454,16.2999992370605,2012-01-18 15:15:24
1.04699993133545,42.85489431,-71.49117452,16.2999992370605,2012-01-18 15:15:25
0.916000127792358,42.85489432,-71.49117454,16.2999992370605,2012-01-18 15:15:26
1.00399994850159,42.85489432,-71.49117454,16.2999992370605,2012-01-18 15:15:27
1.00500011444092,42.85489434,-71.49117466,16.2999992370605,2012-01-18 15:15:28
0.297999858856201,42.85489433,-71.49117463,16.2999992370605,2012-01-18 15:15:28
1.08899998664856,42.85489431,-71.49117459,16.2999992370605,2012-01-18 15:15:29
0.921000003814697,42.8548943,-71.49117456,16.2999992370605,2012-01-18 15:15:30
1.19500017166138,42.8548943,-71.49117456,16.2999992370605,2012-01-18 15:15:31
0.802999973297119,42.85489432,-71.49117467,16.2999992370605,2012-01-18 15:15:32
1.02300000190735,42.85489432,-71.49117468,16.2999992370605,2012-01-18 15:15:33
1.05099987983704,42.85489432,-71.49117464,16.2999992370605,2012-01-18 15:15:34
0.924999952316284,42.85489433,-71.49117468,16.2999992370605,2012-01-18 15:15:35
0.998000144958496,42.85489433,-71.49117468,16.2999992370605,2012-01-18 15:15:36
1.00600004196167,42.85489434,-71.49117472,16.2999992370605,2012-01-18 15:15:37
0.997999906539917,42.85489434,-71.49117472,16.2999992370605,2012-01-18 15:15:38
1.00699996948242,42.85489433,-71.49117467,16.2999992370605,2012-01-18 15:15:39
0.995000123977661,42.85489433,-71.49117471,16.2999992370605,2012-01-18 15:15:40
1.07099986076355,42.85489432,-71.49117466,16.2999992370605,2012-01-18 15:15:41
0.92900013923645,42.85489428,-71.49117455,16.2999992370605,2012-01-18 15:15:42
1,42.85489427,-71.49117453,16.2999992370605,2012-01-18 15:15:43
0.997999906539917,42.85489427,-71.4911745,16.2999992370605,2012-01-18 15:15:44
1,42.85489427,-71.4911745,16.2999992370605,2012-01-18 15:15:45
1.01099991798401,42.85489429,-71.49117455,16.2999992370605,2012-01-18 15:15:46
0.983000040054321,42.85489432,-71.49117466,16.2000007629395,2012-01-18 15:15:47
1.04299998283386,42.85489431,-71.49117463,16.2000007629395,2012-01-18 15:15:48
0.962000131607056,42.85489431,-71.4911746,16.2999992370605,2012-01-18 15:15:49
0.995999813079834,42.85489434,-71.4911747,16.2000007629395,2012-01-18 15:15:50
1.00100016593933,42.85489434,-71.4911747,16.2000007629395,2012-01-18 15:15:51
1.00600004196167,42.85489437,-71.4911748,16.2000007629395,2012-01-18 15:15:52
0.99399995803833,42.85489437,-71.49117478,16.2000007629395,2012-01-18 15:15:53
1.02199983596802,42.85489437,-71.49117474,16.2000007629395,2012-01-18 15:15:54
0.987000226974487,42.85489434,-71.49117463,16.2999992370605,2012-01-18 15:15:55
1.05999994277954,42.85489432,-71.4911745,16.2999992370605,2012-01-18 15:15:56
1.31099987030029,42.85489432,-71.49117454,16.2999992370605,2012-01-18 15:15:58
0.625,42.85489435,-71.4911746,16.2000007629395,2012-01-18 15:15:58
1.02400016784668,42.85489432,-71.49117448,16.2999992370605,2012-01-18 15:15:59
