"diffSecs","latitude","longitude","altitude","time"
1.70300006866455,42.3859030008316,-70.9862494468689,50,2012-01-01 08:00:04
0.940000057220459,42.3859030008316,-70.9862494468689,50,2012-01-01 08:00:05
1.02199983596802,42.3859030008316,-70.9862494468689,50,2012-01-01 08:00:06
0.978000164031982,42.3859030008316,-70.9862494468689,50,2012-01-01 08:00:07
1.00099992752075,42.3859030008316,-70.9862494468689,50,2012-01-01 08:00:08
1.00099992752075,42.3859030008316,-70.9862494468689,50,2012-01-01 08:00:09
1.00699996948242,42.3859030008316,-70.9862494468689,50,2012-01-01 08:00:10
0.565999984741211,42.3859030008316,-70.9862494468689,50,2012-01-01 08:00:11
1.00200009346008,42.3859030008316,-70.9862494468689,50,2012-01-01 08:00:12
1.00099992752075,42.3859030008316,-70.9862494468689,50,2012-01-01 08:00:13
0.998000144958496,42.3859030008316,-70.9862494468689,50,2012-01-01 08:00:14
1.00499987602234,42.3859030008316,-70.9862494468689,50,2012-01-01 08:00:15
0.999000072479248,42.3859030008316,-70.9862494468689,50,2012-01-01 08:00:16
1.00200009346008,42.3859030008316,-70.9862494468689,50,2012-01-01 08:00:17
1,42.3859030008316,-70.9862494468689,50,2012-01-01 08:00:18
1.02999997138977,42.3859030008316,-70.9862494468689,50,2012-01-01 08:00:19
0.970999956130981,42.3859030008316,-70.9862494468689,50,2012-01-01 08:00:20
1,42.3859030008316,-70.9862494468689,50,2012-01-01 08:00:21
1.00099992752075,42.3859030008316,-70.9862494468689,50,2012-01-01 08:00:22
1.00300002098083,42.3859030008316,-70.9862494468689,50,2012-01-01 08:00:23
1,42.3859030008316,-70.9862494468689,50,2012-01-01 08:00:24
1.00399994850159,42.3859030008316,-70.9862494468689,50,2012-01-01 08:00:25
1.00100016593933,42.3859030008316,-70.9862494468689,50,2012-01-01 08:00:26
1,42.3859030008316,-70.9862494468689,50,2012-01-01 08:00:27
1.0019998550415,42.3859030008316,-70.9862494468689,50,2012-01-01 08:00:28
1.00600004196167,42.3859030008316,-70.9862494468689,50,2012-01-01 08:00:29
0.992000102996826,42.3859030008316,-70.9862494468689,50,2012-01-01 08:00:30
1.00099992752075,42.3859030008316,-70.9862494468689,50,2012-01-01 08:00:31
2.99499988555908,42.3859030008316,-70.9862494468689,50,2012-01-01 08:00:34
1.00100016593933,42.3859030008316,-70.9862494468689,50,2012-01-01 08:00:35
1.00099992752075,42.3859030008316,-70.9862494468689,50,2012-01-01 08:00:36
0.997999906539917,42.3859030008316,-70.9862494468689,50,2012-01-01 08:00:37
1.00300002098083,42.3859030008316,-70.9862494468689,50,2012-01-01 08:00:38
1.00100016593933,42.3859030008316,-70.9862494468689,50,2012-01-01 08:00:39
1.00099992752075,42.3859030008316,-70.9862494468689,50,2012-01-01 08:00:40
0.997999906539917,42.3859030008316,-70.9862494468689,50,2012-01-01 08:00:41
1.00300002098083,42.3859030008316,-70.9862494468689,50,2012-01-01 08:00:42
1.04900002479553,42.3859030008316,-70.9862494468689,50,2012-01-01 08:00:43
0.953000068664551,42.3859030008316,-70.9862494468689,50,2012-01-01 08:00:44
1.00300002098083,42.3859030008316,-70.9862494468689,50,2012-01-01 08:00:45
0.996000051498413,42.3859030008316,-70.9862494468689,50,2012-01-01 08:00:46
1.00399994850159,42.3859030008316,-70.9862494468689,50,2012-01-01 08:00:47
1,42.3859030008316,-70.9862494468689,50,2012-01-01 08:00:48
1.00399994850159,42.3859030008316,-70.9862494468689,50,2012-01-01 08:00:49
0.996999979019165,42.3859030008316,-70.9862494468689,50,2012-01-01 08:00:50
1.00300002098083,42.3859030008316,-70.9862494468689,50,2012-01-01 08:00:51
1.00499987602234,42.3859030008316,-70.9862494468689,50,2012-01-01 08:00:52
0.995000123977661,42.3859030008316,-70.9862494468689,50,2012-01-01 08:00:53
1.15299987792969,42.3859030008316,-70.9862494468689,50,2012-01-01 08:00:54
0.846000194549561,42.3859030008316,-70.9862494468689,50,2012-01-01 08:00:55
1.08699989318848,42.3859030008316,-70.9862494468689,50,2012-01-01 08:00:56
1.00200009346008,42.3859030008316,-70.9862494468689,50,2012-01-01 08:00:57
