"diffSecs","latitude","longitude","altitude","time"
0.865999937057495,42.3727762699127,-70.9938186407089,50,2012-01-06 22:00:00
0.771000146865845,42.3727762699127,-70.9938186407089,50,2012-01-06 22:00:01
1.04399991035461,42.3727762699127,-70.9938186407089,50,2012-01-06 22:00:02
0.914000034332275,42.3727762699127,-70.9938186407089,50,2012-01-06 22:00:03
0.99399995803833,42.3727762699127,-70.9938186407089,50,2012-01-06 22:00:04
1.18700003623962,42.3727762699127,-70.9938186407089,50,2012-01-06 22:00:05
0.815999984741211,42.3727762699127,-70.9938186407089,50,2012-01-06 22:00:06
1.09400010108948,42.3727762699127,-70.9938186407089,50,2012-01-06 22:00:07
0.905999898910522,42.3727762699127,-70.9938186407089,50,2012-01-06 22:00:08
1.07599997520447,42.3727762699127,-70.9938186407089,50,2012-01-06 22:00:09
1.02300000190735,42.3727762699127,-70.9938186407089,50,2012-01-06 22:00:10
0.956000089645386,42.3727762699127,-70.9938186407089,50,2012-01-06 22:00:11
1.10999989509583,42.3727762699127,-70.9938186407089,50,2012-01-06 22:00:12
1.00500011444092,42.3727762699127,-70.9938186407089,50,2012-01-06 22:00:13
0.836999893188477,42.3727762699127,-70.9938186407089,50,2012-01-06 22:00:14
1.16199994087219,42.3727762699127,-70.9938186407089,50,2012-01-06 22:00:15
0.956000089645386,42.3727762699127,-70.9938186407089,50,2012-01-06 22:00:16
2.91199994087219,42.3727762699127,-70.9938186407089,50,2012-01-06 22:00:19
1.19000005722046,42.3727762699127,-70.9938186407089,50,2012-01-06 22:00:20
0.997999906539917,42.3727762699127,-70.9938186407089,50,2012-01-06 22:00:21
0.814000129699707,42.3727762699127,-70.9938186407089,50,2012-01-06 22:00:22
1.0019998550415,42.3727762699127,-70.9938186407089,50,2012-01-06 22:00:23
1.13600015640259,42.3727762699127,-70.9938186407089,50,2012-01-06 22:00:24
1.00699996948242,42.3727762699127,-70.9938186407089,50,2012-01-06 22:00:25
0.861999988555908,42.3727762699127,-70.9938186407089,50,2012-01-06 22:00:26
0.997999906539917,42.3727762699127,-70.9938186407089,50,2012-01-06 22:00:27
1.13600015640259,42.3727762699127,-70.9938186407089,50,2012-01-06 22:00:28
0.868000030517578,42.3727762699127,-70.9938186407089,50,2012-01-06 22:00:29
1.15799999237061,42.3727762699127,-70.9938186407089,50,2012-01-06 22:00:30
0.842999935150146,42.3727762699127,-70.9938186407089,50,2012-01-06 22:00:31
1.11999988555908,42.3727762699127,-70.9938186407089,50,2012-01-06 22:00:32
1.00800013542175,42.3727762699127,-70.9938186407089,50,2012-01-06 22:00:33
1.03600001335144,42.3727762699127,-70.9938186407089,50,2012-01-06 22:00:34
0.836999893188477,42.3727762699127,-70.9938186407089,50,2012-01-06 22:00:35
1.00399994850159,42.3727762699127,-70.9938186407089,50,2012-01-06 22:00:36
1.22900009155273,42.3727762699127,-70.9938186407089,50,2012-01-06 22:00:37
0.770999908447266,42.3727762699127,-70.9938186407089,50,2012-01-06 22:00:38
1.38900017738342,42.3727762699127,-70.9938186407089,50,2012-01-06 22:00:40
0.61299991607666,42.3727762699127,-70.9938186407089,50,2012-01-06 22:00:40
1.10599994659424,42.3727762699127,-70.9938186407089,50,2012-01-06 22:00:41
0.897000074386597,42.3727762699127,-70.9938186407089,50,2012-01-06 22:00:42
1.04399991035461,42.3727762699127,-70.9938186407089,50,2012-01-06 22:00:43
0.958000183105469,42.3727762699127,-70.9938186407089,50,2012-01-06 22:00:44
1.1029999256134,42.3727762699127,-70.9938186407089,50,2012-01-06 22:00:45
1.01200008392334,42.3727762699127,-70.9938186407089,50,2012-01-06 22:00:46
3.08599996566772,42.3727762699127,-70.9938186407089,50,2012-01-06 22:00:49
1.07699990272522,42.3727762699127,-70.9938186407089,50,2012-01-06 22:00:50
0.735000133514404,42.3727762699127,-70.9938186407089,50,2012-01-06 22:00:51
1.05999994277954,42.3727762699127,-70.9938186407089,50,2012-01-06 22:00:52
1.05499982833862,42.3727762699127,-70.9938186407089,50,2012-01-06 22:00:53
1.00300002098083,42.3727762699127,-70.9938186407089,50,2012-01-06 22:00:54
0.986000061035156,42.3727762699127,-70.9938186407089,50,2012-01-06 22:00:55
1.00699996948242,42.3727762699127,-70.9938186407089,50,2012-01-06 22:00:56
0.867000102996826,42.3727762699127,-70.9938186407089,50,2012-01-06 22:00:57
1.12400007247925,42.3727762699127,-70.9938186407089,50,2012-01-06 22:00:58
0.882999897003174,42.3727762699127,-70.9938186407089,50,2012-01-06 22:00:59
1.00300002098083,42.3727762699127,-70.9938186407089,50,2012-01-06 22:01:00
1.15400004386902,42.3727762699127,-70.9938186407089,50,2012-01-06 22:01:01
0.685999870300293,42.3727762699127,-70.9938186407089,50,2012-01-06 22:01:02
1.16199994087219,42.3727762699127,-70.9938186407089,50,2012-01-06 22:01:03
0.840000152587891,42.3727762699127,-70.9938186407089,50,2012-01-06 22:01:04
1.14199995994568,42.3727762699127,-70.9938186407089,50,2012-01-06 22:01:05
1.03500008583069,42.3727762699127,-70.9938186407089,50,2012-01-06 22:01:06
0.899999856948853,42.3727762699127,-70.9938186407089,50,2012-01-06 22:01:07
1.00200009346008,42.3727762699127,-70.9938186407089,50,2012-01-06 22:01:08
0.927000045776367,42.3727762699127,-70.9938186407089,50,2012-01-06 22:01:09
1.20799994468689,42.3727762699127,-70.9938186407089,50,2012-01-06 22:01:10
0.970000028610229,42.3727762699127,-70.9938186407089,50,2012-01-06 22:01:11
0.825999975204468,42.3727762699127,-70.9938186407089,50,2012-01-06 22:01:12
1.06399989128113,42.3727762699127,-70.9938186407089,50,2012-01-06 22:01:13
1.12199997901917,42.3727762699127,-70.9938186407089,50,2012-01-06 22:01:14
0.969000101089478,42.3727762699127,-70.9938186407089,50,2012-01-06 22:01:15
0.848000049591064,42.3727762699127,-70.9938186407089,50,2012-01-06 22:01:16
3.04999995231628,42.3727762699127,-70.9938186407089,50,2012-01-06 22:01:19
1.0239999294281,42.3727762699127,-70.9938186407089,50,2012-01-06 22:01:20
0.910000085830688,42.3727762699127,-70.9938186407089,50,2012-01-06 22:01:21
1.22399997711182,42.3727762699127,-70.9938186407089,50,2012-01-06 22:01:22
0.809999942779541,42.3727762699127,-70.9938186407089,50,2012-01-06 22:01:23
1.14000010490417,42.3727762699127,-70.9938186407089,50,2012-01-06 22:01:24
0.829999923706055,42.3727762699127,-70.9938186407089,50,2012-01-06 22:01:25
1.17600011825562,42.3727762699127,-70.9938186407089,50,2012-01-06 22:01:26
0.836999893188477,42.3727762699127,-70.9938186407089,50,2012-01-06 22:01:27
1.17300009727478,42.3727762699127,-70.9938186407089,50,2012-01-06 22:01:28
0.817999839782715,42.3727762699127,-70.9938186407089,50,2012-01-06 22:01:29
1.14000010490417,42.3727762699127,-70.9938186407089,50,2012-01-06 22:01:30
1.02999997138977,42.3727762699127,-70.9938186407089,50,2012-01-06 22:01:31
0.834000110626221,42.3727762699127,-70.9938186407089,50,2012-01-06 22:01:32
1,42.3727762699127,-70.9938186407089,50,2012-01-06 22:01:33
1.07299995422363,42.3727762699127,-70.9938186407089,50,2012-01-06 22:01:34
0.98199987411499,42.3727762699127,-70.9938186407089,50,2012-01-06 22:01:35
0.950999975204468,42.3727762699127,-70.9938186407089,50,2012-01-06 22:01:36
1.1560001373291,42.3727762699127,-70.9938186407089,50,2012-01-06 22:01:37
0.999000072479248,42.3727762699127,-70.9938186407089,50,2012-01-06 22:01:38
0.842999935150146,42.3727762699127,-70.9938186407089,50,2012-01-06 22:01:39
1.00699996948242,42.3727762699127,-70.9938186407089,50,2012-01-06 22:01:40
1.00399994850159,42.3727762699127,-70.9938186407089,50,2012-01-06 22:01:41
1.19300007820129,42.3727762699127,-70.9938186407089,50,2012-01-06 22:01:42
0.904000043869019,42.3727762699127,-70.9938186407089,50,2012-01-06 22:01:43
0.898000001907349,42.3727762699127,-70.9938186407089,50,2012-01-06 22:01:44
1.03199982643127,42.3727762699127,-70.9938186407089,50,2012-01-06 22:01:45
1.10500001907349,42.3727762699127,-70.9938186407089,50,2012-01-06 22:01:46
2.86500000953674,42.3727762699127,-70.9938186407089,50,2012-01-06 22:01:49
1.20000004768372,42.3727762699127,-70.9938186407089,50,2012-01-06 22:01:50
0.802999973297119,42.3727762699127,-70.9938186407089,50,2012-01-06 22:01:51
1.0090000629425,42.3727762699127,-70.9938186407089,50,2012-01-06 22:01:52
0.99399995803833,42.3727762699127,-70.9938186407089,50,2012-01-06 22:01:53
1.21000003814697,42.3727762699127,-70.9938186407089,50,2012-01-06 22:01:54
0.789000034332275,42.3727762699127,-70.9938186407089,50,2012-01-06 22:01:55
1.16700005531311,42.3727762699127,-70.9938186407089,50,2012-01-06 22:01:56
0.836999893188477,42.3727762699127,-70.9938186407089,50,2012-01-06 22:01:57
1.12700009346008,42.3727762699127,-70.9938186407089,50,2012-01-06 22:01:58
1.11299991607666,42.3727762699127,-70.9938186407089,50,2012-01-06 22:01:59
0.760999917984009,42.3727762699127,-70.9938186407089,50,2012-01-06 22:02:00
1.20500016212463,42.3727762699127,-70.9938186407089,50,2012-01-06 22:02:01
0.796999931335449,42.3727762699127,-70.9938186407089,50,2012-01-06 22:02:02
1.02300000190735,42.3727762699127,-70.9938186407089,50,2012-01-06 22:02:03
1.01600003242493,42.3727762699127,-70.9938186407089,50,2012-01-06 22:02:04
1.31200003623962,42.3727762699127,-70.9938186407089,50,2012-01-06 22:02:05
0.653999805450439,42.3727762699127,-70.9938186407089,50,2012-01-06 22:02:06
1,42.3727762699127,-70.9938186407089,50,2012-01-06 22:02:07
1.00300002098083,42.3727762699127,-70.9938186407089,50,2012-01-06 22:02:08
0.999000072479248,42.3727762699127,-70.9938186407089,50,2012-01-06 22:02:09
1.22499990463257,42.3727762699127,-70.9938186407089,50,2012-01-06 22:02:10
0.782000064849854,42.3727762699127,-70.9938186407089,50,2012-01-06 22:02:11
1.1230001449585,42.3727762699127,-70.9938186407089,50,2012-01-06 22:02:12
0.873999834060669,42.3727762699127,-70.9938186407089,50,2012-01-06 22:02:13
1.20099997520447,42.3727762699127,-70.9938186407089,50,2012-01-06 22:02:14
0.801000118255615,42.3727762699127,-70.9938186407089,50,2012-01-06 22:02:15
1.00399994850159,42.3727762699127,-70.9938186407089,50,2012-01-06 22:02:16
2.97900009155273,42.3727762699127,-70.9938186407089,50,2012-01-06 22:02:19
1.30299997329712,42.3727762699127,-70.9938186407089,50,2012-01-06 22:02:20
0.697999954223633,42.3727762699127,-70.9938186407089,50,2012-01-06 22:02:21
1.18400001525879,42.3727762699127,-70.9938186407089,50,2012-01-06 22:02:22
0.818000078201294,42.3727762699127,-70.9938186407089,50,2012-01-06 22:02:23
1.00799989700317,42.3727762699127,-70.9938186407089,50,2012-01-06 22:02:24
0.993000030517578,42.3727762699127,-70.9938186407089,50,2012-01-06 22:02:25
1.08100008964539,42.3727762699127,-70.9938186407089,50,2012-01-06 22:02:26
0.922999858856201,42.3727762699127,-70.9938186407089,50,2012-01-06 22:02:27
1,42.3727762699127,-70.9938186407089,50,2012-01-06 22:02:28
1.07200002670288,42.3727762699127,-70.9938186407089,50,2012-01-06 22:02:29
0.928999900817871,42.3727762699127,-70.9938186407089,50,2012-01-06 22:02:30
1.24500012397766,42.3727762699127,-70.9938186407089,50,2012-01-06 22:02:31
0.75600004196167,42.3727762699127,-70.9938186407089,50,2012-01-06 22:02:32
1.00099992752075,42.3727762699127,-70.9938186407089,50,2012-01-06 22:02:33
1.12599992752075,42.3727762699127,-70.9938186407089,50,2012-01-06 22:02:34
1.0789999961853,42.3727762699127,-70.9938186407089,50,2012-01-06 22:02:35
0.799000024795532,42.3727762699127,-70.9938186407089,50,2012-01-06 22:02:36
0.998000144958496,42.3727762699127,-70.9938186407089,50,2012-01-06 22:02:37
1.0019998550415,42.3727762699127,-70.9938186407089,50,2012-01-06 22:02:38
1.22099995613098,42.3727762699127,-70.9938186407089,50,2012-01-06 22:02:39
0.782999992370605,42.3727762699127,-70.9938186407089,50,2012-01-06 22:02:40
1.26900005340576,42.3727762699127,-70.9938186407089,50,2012-01-06 22:02:41
0.733000040054321,42.3727762699127,-70.9938186407089,50,2012-01-06 22:02:42
1.04999995231628,42.3727762699127,-70.9938186407089,50,2012-01-06 22:02:43
0.957000017166138,42.3727762699127,-70.9938186407089,50,2012-01-06 22:02:44
0.993000030517578,42.3727762699127,-70.9938186407089,50,2012-01-06 22:02:45
1.09700012207031,42.3727762699127,-70.9938186407089,50,2012-01-06 22:02:46
2.9009997844696,42.3727762699127,-70.9938186407089,50,2012-01-06 22:02:49
1.2039999961853,42.3727762699127,-70.9938186407089,50,2012-01-06 22:02:50
0.79800009727478,42.3727762699127,-70.9938186407089,50,2012-01-06 22:02:51
1.40199995040894,42.3727762699127,-70.9938186407089,50,2012-01-06 22:02:52
0.600000143051147,42.3727762699127,-70.9938186407089,50,2012-01-06 22:02:53
1.02300000190735,42.3727762699127,-70.9938186407089,50,2012-01-06 22:02:54
1.38299989700317,42.3727762699127,-70.9938186407089,50,2012-01-06 22:02:55
0.967999935150146,42.3727762699127,-70.9938186407089,50,2012-01-06 22:02:56
1.01900005340576,42.3727762699127,-70.9938186407089,50,2012-01-06 22:02:57
1.08299994468689,42.3727762699127,-70.9938186407089,50,2012-01-06 22:02:59
0.960000038146973,42.3727762699127,-70.9938186407089,50,2012-01-06 22:02:59
1.04800009727478,42.3727762699127,-70.9938186407089,50,2012-01-06 22:03:01
1.0090000629425,42.3727762699127,-70.9938186407089,50,2012-01-06 22:03:02
0.661999940872192,42.3727762699127,-70.9938186407089,50,2012-01-06 22:03:02
1.22000002861023,42.3727762699127,-70.9938186407089,50,2012-01-06 22:03:03
0.782999992370605,42.3727762699127,-70.9938186407089,50,2012-01-06 22:03:04
0.997999906539917,42.3727762699127,-70.9938186407089,50,2012-01-06 22:03:05
1.00600004196167,42.3727762699127,-70.9938186407089,50,2012-01-06 22:03:06
1.1010000705719,42.3727762699127,-70.9938186407089,50,2012-01-06 22:03:07
0.954999923706055,42.3727762699127,-70.9938186407089,50,2012-01-06 22:03:08
0.944999933242798,42.3727762699127,-70.9938186407089,50,2012-01-06 22:03:09
0.996999979019165,42.3727762699127,-70.9938186407089,50,2012-01-06 22:03:10
1.06599998474121,42.3727762699127,-70.9938186407089,50,2012-01-06 22:03:11
1.0789999961853,42.3727762699127,-70.9938186407089,50,2012-01-06 22:03:12
0.857000112533569,42.3727762699127,-70.9938186407089,50,2012-01-06 22:03:13
1.00399994850159,42.3727762699127,-70.9938186407089,50,2012-01-06 22:03:14
1.04900002479553,42.3727762699127,-70.9938186407089,50,2012-01-06 22:03:15
0.96399998664856,42.3727762699127,-70.9938186407089,50,2012-01-06 22:03:16
2.45799994468689,42.3727762699127,-70.9938186407089,50,2012-01-06 22:03:19
0.983000040054321,42.3727762699127,-70.9938186407089,50,2012-01-06 22:03:20
1.03800010681152,42.3727762699127,-70.9938186407089,50,2012-01-06 22:03:21
0.961999893188477,42.3727762699127,-70.9938186407089,50,2012-01-06 22:03:22
1.08299994468689,42.3727762699127,-70.9938186407089,50,2012-01-06 22:03:23
0.945000171661377,42.3727762699127,-70.9938186407089,50,2012-01-06 22:03:24
1.05399990081787,42.3727762699127,-70.9938186407089,50,2012-01-06 22:03:25
0.921000003814697,42.3727762699127,-70.9938186407089,50,2012-01-06 22:03:26
1.43400001525879,42.3727762699127,-70.9938186407089,50,2012-01-06 22:03:27
0.944000005722046,42.3727762699127,-70.9938186407089,50,2012-01-06 22:03:28
0.704999923706055,42.3727762699127,-70.9938186407089,50,2012-01-06 22:03:29
0.904999971389771,42.3727762699127,-70.9938186407089,50,2012-01-06 22:03:30
1.13700008392334,42.3727762699127,-70.9938186407089,50,2012-01-06 22:03:31
0.937999963760376,42.3727762699127,-70.9938186407089,50,2012-01-06 22:03:32
0.914999961853027,42.3727762699127,-70.9938186407089,50,2012-01-06 22:03:33
0.998000144958496,42.3727762699127,-70.9938186407089,50,2012-01-06 22:03:34
1.11099982261658,42.3727762699127,-70.9938186407089,50,2012-01-06 22:03:35
0.889000177383423,42.3727762699127,-70.9938186407089,50,2012-01-06 22:03:36
1.13100004196167,42.3727762699127,-70.9938186407089,50,2012-01-06 22:03:37
0.890999794006348,42.3727762699127,-70.9938186407089,50,2012-01-06 22:03:38
1.84100008010864,42.3727762699127,-70.9938186407089,50,2012-01-06 22:03:40
0.947999954223633,42.3727762699127,-70.9938186407089,50,2012-01-06 22:03:40
0.957000017166138,42.3727762699127,-70.9938186407089,50,2012-01-06 22:03:41
1.00200009346008,42.3727762699127,-70.9938186407089,50,2012-01-06 22:03:42
1.06500005722046,42.3727762699127,-70.9938186407089,50,2012-01-06 22:03:43
0.934999942779541,42.3727762699127,-70.9938186407089,50,2012-01-06 22:03:44
1.1159999370575,42.3727762699127,-70.9938186407089,50,2012-01-06 22:03:46
0.888000011444092,42.3727762699127,-70.9938186407089,50,2012-01-06 22:03:46
2.98499989509583,42.3727762699127,-70.9938186407089,50,2012-01-06 22:03:49
1.00500011444092,42.3727762699127,-70.9938186407089,50,2012-01-06 22:03:50
1.00099992752075,42.3727762699127,-70.9938186407089,50,2012-01-06 22:03:51
0.996000051498413,42.3727762699127,-70.9938186407089,50,2012-01-06 22:03:52
1.00200009346008,42.3727762699127,-70.9938186407089,50,2012-01-06 22:03:53
1.00300002098083,42.3727762699127,-70.9938186407089,50,2012-01-06 22:03:54
1.01899981498718,42.3727762699127,-70.9938186407089,50,2012-01-06 22:03:55
1.26100015640259,42.3727762699127,-70.9938186407089,50,2012-01-06 22:03:57
0.718999862670898,42.3727762699127,-70.9938186407089,50,2012-01-06 22:03:57
1.00500011444092,42.3727762699127,-70.9938186407089,50,2012-01-06 22:03:58
1.11100006103516,42.3727762699127,-70.9938186407089,50,2012-01-06 22:04:00
0.890999794006348,42.3727762699127,-70.9938186407089,50,2012-01-06 22:04:00
1.14400005340576,42.3727762699127,-70.9938186407089,50,2012-01-06 22:04:02
0.855000019073486,42.3727762699127,-70.9938186407089,50,2012-01-06 22:04:02
1.15100002288818,42.3727762699127,-70.9938186407089,50,2012-01-06 22:04:04
0.848999977111816,42.3727762699127,-70.9938186407089,50,2012-01-06 22:04:04
1.1489999294281,42.3727762699127,-70.9938186407089,50,2012-01-06 22:04:06
0.854000091552734,42.3727762699127,-70.9938186407089,50,2012-01-06 22:04:06
1.15100002288818,42.3727762699127,-70.9938186407089,50,2012-01-06 22:04:08
0.849999904632568,42.3727762699127,-70.9938186407089,50,2012-01-06 22:04:08
1.14000010490417,42.3727762699127,-70.9938186407089,50,2012-01-06 22:04:10
0.861000061035156,42.3727762699127,-70.9938186407089,50,2012-01-06 22:04:10
1.02799987792969,42.3727762699127,-70.9938186407089,50,2012-01-06 22:04:11
0.976000070571899,42.3727762699127,-70.9938186407089,50,2012-01-06 22:04:12
0.999000072479248,42.3727762699127,-70.9938186407089,50,2012-01-06 22:04:13
1.0019998550415,42.3727762699127,-70.9938186407089,50,2012-01-06 22:04:14
1.00300002098083,42.3727762699127,-70.9938186407089,50,2012-01-06 22:04:15
1.15199995040894,42.3727762699127,-70.9938186407089,50,2012-01-06 22:04:17
2.84100008010864,42.3727762699127,-70.9938186407089,50,2012-01-06 22:04:19
1.12700009346008,42.3727762699127,-70.9938186407089,50,2012-01-06 22:04:21
0.875,42.3727762699127,-70.9938186407089,50,2012-01-06 22:04:21
1.00499987602234,42.3727762699127,-70.9938186407089,50,2012-01-06 22:04:22
0.996999979019165,42.3727762699127,-70.9938186407089,50,2012-01-06 22:04:23
1.00200009346008,42.3727762699127,-70.9938186407089,50,2012-01-06 22:04:24
1.16400003433228,42.3727762699127,-70.9938186407089,50,2012-01-06 22:04:26
0.837999820709229,42.3727762699127,-70.9938186407089,50,2012-01-06 22:04:26
1.00999999046326,42.3727762699127,-70.9938186407089,50,2012-01-06 22:04:27
1.23300004005432,42.3727762699127,-70.9938186407089,50,2012-01-06 22:04:29
0.904000043869019,42.3727762699127,-70.9938186407089,50,2012-01-06 22:04:30
0.858000040054321,42.3727762699127,-70.9938186407089,50,2012-01-06 22:04:30
0.999000072479248,42.3727762699127,-70.9938186407089,50,2012-01-06 22:04:31
1.23000001907349,42.3727762699127,-70.9938186407089,50,2012-01-06 22:04:33
0.773999929428101,42.3727762699127,-70.9938186407089,50,2012-01-06 22:04:33
1.0019998550415,42.3727762699127,-70.9938186407089,50,2012-01-06 22:04:34
1.03600001335144,42.3727762699127,-70.9938186407089,50,2012-01-06 22:04:35
0.961000204086304,42.3727762699127,-70.9938186407089,50,2012-01-06 22:04:36
1.22099995613098,42.3727762699127,-70.9938186407089,50,2012-01-06 22:04:38
0.779999971389771,42.3727762699127,-70.9938186407089,50,2012-01-06 22:04:38
1,42.3727762699127,-70.9938186407089,50,2012-01-06 22:04:39
1.0019998550415,42.3727762699127,-70.9938186407089,50,2012-01-06 22:04:40
1.00100016593933,42.3727762699127,-70.9938186407089,50,2012-01-06 22:04:41
1.00099992752075,42.3727762699127,-70.9938186407089,50,2012-01-06 22:04:42
1.00399994850159,42.3727762699127,-70.9938186407089,50,2012-01-06 22:04:43
1.20300006866455,42.3727762699127,-70.9938186407089,50,2012-01-06 22:04:45
0.79800009727478,42.3727762699127,-70.9938186407089,50,2012-01-06 22:04:45
1.00399994850159,42.3727762699127,-70.9938186407089,50,2012-01-06 22:04:46
3.10800004005432,42.3727762699127,-70.9938186407089,50,2012-01-06 22:04:50
1.00999999046326,42.3727762699127,-70.9938186407089,50,2012-01-06 22:04:51
0.865000009536743,42.3727762699127,-70.9938186407089,50,2012-01-06 22:04:51
0.290999889373779,42.3727762699127,-70.9938186407089,50,2012-01-06 22:04:52
1.00399994850159,42.3727762699127,-70.9938186407089,50,2012-01-06 22:04:53
1.24200010299683,42.3727762699127,-70.9938186407089,50,2012-01-06 22:04:54
0.756999969482422,42.3727762699127,-70.9938186407089,50,2012-01-06 22:04:55
1.31599998474121,42.3727762699127,-70.9938186407089,50,2012-01-06 22:04:56
0.683000087738037,42.3727762699127,-70.9938186407089,50,2012-01-06 22:04:57
1.18400001525879,42.3727762699127,-70.9938186407089,50,2012-01-06 22:04:58
0.817999839782715,42.3727762699127,-70.9938186407089,50,2012-01-06 22:04:59
1.05200004577637,42.3727762699127,-70.9938186407089,50,2012-01-06 22:05:00
0.950999975204468,42.3727762699127,-70.9938186407089,50,2012-01-06 22:05:01
1.24399995803833,42.3727762699127,-70.9938186407089,50,2012-01-06 22:05:02
0.759000062942505,42.3727762699127,-70.9938186407089,50,2012-01-06 22:05:03
1.125,42.3727762699127,-70.9938186407089,50,2012-01-06 22:05:04
1.17000007629395,42.3727762699127,-70.9938186407089,50,2012-01-06 22:05:05
0.703999996185303,42.3727762699127,-70.9938186407089,50,2012-01-06 22:05:06
1.0019998550415,42.3727762699127,-70.9938186407089,50,2012-01-06 22:05:07
1,42.3727762699127,-70.9938186407089,50,2012-01-06 22:05:08
1.1800000667572,42.3727762699127,-70.9938186407089,50,2012-01-06 22:05:09
0.821000099182129,42.3727762699127,-70.9938186407089,50,2012-01-06 22:05:10
1.43099999427795,42.3727762699127,-70.9938186407089,50,2012-01-06 22:05:11
0.569999933242798,42.3727762699127,-70.9938186407089,50,2012-01-06 22:05:12
1.19199991226196,42.3727762699127,-70.9938186407089,50,2012-01-06 22:05:13
0.811000108718872,42.3727762699127,-70.9938186407089,50,2012-01-06 22:05:14
1.2279999256134,42.3727762699127,-70.9938186407089,50,2012-01-06 22:05:15
0.775000095367432,42.3727762699127,-70.9938186407089,50,2012-01-06 22:05:16
2.98300004005432,42.3727762699127,-70.9938186407089,50,2012-01-06 22:05:19
1.0019998550415,42.3727762699127,-70.9938186407089,50,2012-01-06 22:05:20
1.34400010108948,42.3727762699127,-70.9938186407089,50,2012-01-06 22:05:21
0.658999919891357,42.3727762699127,-70.9938186407089,50,2012-01-06 22:05:22
0.998000144958496,42.3727762699127,-70.9938186407089,50,2012-01-06 22:05:23
1.0019998550415,42.3727762699127,-70.9938186407089,50,2012-01-06 22:05:24
1.11100006103516,42.3727762699127,-70.9938186407089,50,2012-01-06 22:05:25
0.888999938964844,42.3727762699127,-70.9938186407089,50,2012-01-06 22:05:26
1.00300002098083,42.3727762699127,-70.9938186407089,50,2012-01-06 22:05:27
0.999000072479248,42.3727762699127,-70.9938186407089,50,2012-01-06 22:05:28
1,42.3727762699127,-70.9938186407089,50,2012-01-06 22:05:29
1.0019998550415,42.3727762699127,-70.9938186407089,50,2012-01-06 22:05:30
1.00200009346008,42.3727762699127,-70.9938186407089,50,2012-01-06 22:05:31
1.11299991607666,42.3727762699127,-70.9938186407089,50,2012-01-06 22:05:32
0.888000011444092,42.3727762699127,-70.9938186407089,50,2012-01-06 22:05:33
1.08400011062622,42.3727762699127,-70.9938186407089,50,2012-01-06 22:05:34
0.917999982833862,42.3727762699127,-70.9938186407089,50,2012-01-06 22:05:35
0.999000072479248,42.3727762699127,-70.9938186407089,50,2012-01-06 22:05:36
1.0019998550415,42.3727762699127,-70.9938186407089,50,2012-01-06 22:05:37
1.27600002288818,42.3727762699127,-70.9938186407089,50,2012-01-06 22:05:38
0.726000070571899,42.3727762699127,-70.9938186407089,50,2012-01-06 22:05:39
1.00099992752075,42.3727762699127,-70.9938186407089,50,2012-01-06 22:05:40
0.999000072479248,42.3727762699127,-70.9938186407089,50,2012-01-06 22:05:41
1.01900005340576,42.3727762699127,-70.9938186407089,50,2012-01-06 22:05:42
0.984999895095825,42.3727762699127,-70.9938186407089,50,2012-01-06 22:05:43
1.00200009346008,42.3727762699127,-70.9938186407089,50,2012-01-06 22:05:44
0.996999979019165,42.3727762699127,-70.9938186407089,50,2012-01-06 22:05:45
1.04699993133545,42.3727762699127,-70.9938186407089,50,2012-01-06 22:05:46
2.94000005722046,42.3727762699127,-70.9938186407089,50,2012-01-06 22:05:49
1.0019998550415,42.3727762699127,-70.9938186407089,50,2012-01-06 22:05:50
1.09200000762939,42.3727762699127,-70.9938186407089,50,2012-01-06 22:05:51
0.91100001335144,42.3727762699127,-70.9938186407089,50,2012-01-06 22:05:52
1.02100014686584,42.3727762699127,-70.9938186407089,50,2012-01-06 22:05:53
1.00099992752075,42.3727762699127,-70.9938186407089,50,2012-01-06 22:05:54
0.999000072479248,42.3727762699127,-70.9938186407089,50,2012-01-06 22:05:55
0.997999906539917,42.3727762699127,-70.9938186407089,50,2012-01-06 22:05:56
0.983000040054321,42.3727762699127,-70.9938186407089,50,2012-01-06 22:05:57
1.0460000038147,42.3727762699127,-70.9938186407089,50,2012-01-06 22:05:58
0.96399998664856,42.3727762699127,-70.9938186407089,50,2012-01-06 22:05:59
0.994999885559082,42.3727762699127,-70.9938186407089,50,2012-01-06 22:06:00
1.00300002098083,42.3727762699127,-70.9938186407089,50,2012-01-06 22:06:01
0.994000196456909,42.3727762699127,-70.9938186407089,50,2012-01-06 22:06:02
1.04199981689453,42.3727762699127,-70.9938186407089,50,2012-01-06 22:06:03
0.960999965667725,42.3727762699127,-70.9938186407089,50,2012-01-06 22:06:04
1,42.3727762699127,-70.9938186407089,50,2012-01-06 22:06:05
1.02500009536743,42.3727762699127,-70.9938186407089,50,2012-01-06 22:06:06
0.979000091552734,42.3727762699127,-70.9938186407089,50,2012-01-06 22:06:07
0.996999979019165,42.3727762699127,-70.9938186407089,50,2012-01-06 22:06:08
1.00399994850159,42.3727762699127,-70.9938186407089,50,2012-01-06 22:06:09
1.05099987983704,42.3727762699127,-70.9938186407089,50,2012-01-06 22:06:10
0.947000026702881,42.3727762699127,-70.9938186407089,50,2012-01-06 22:06:11
1.01999998092651,42.3727762699127,-70.9938186407089,50,2012-01-06 22:06:12
0.986999988555908,42.3727762699127,-70.9938186407089,50,2012-01-06 22:06:13
1.01100015640259,42.3727762699127,-70.9938186407089,50,2012-01-06 22:06:14
1.05299997329712,42.3727762699127,-70.9938186407089,50,2012-01-06 22:06:15
0.933000087738037,42.3727762699127,-70.9938186407089,50,2012-01-06 22:06:16
3.02899980545044,42.3727762699127,-70.9938186407089,50,2012-01-06 22:06:19
0.96399998664856,42.3727762699127,-70.9938186407089,50,2012-01-06 22:06:20
1.007000207901,42.3727762699127,-70.9938186407089,50,2012-01-06 22:06:21
0.994999885559082,42.3727762699127,-70.9938186407089,50,2012-01-06 22:06:22
1,42.3727762699127,-70.9938186407089,50,2012-01-06 22:06:23
1.0220000743866,42.3727762699127,-70.9938186407089,50,2012-01-06 22:06:24
0.983000040054321,42.3727762699127,-70.9938186407089,50,2012-01-06 22:06:25
0.997999906539917,42.3727762699127,-70.9938186407089,50,2012-01-06 22:06:26
1.05900001525879,42.3727762699127,-70.9938186407089,50,2012-01-06 22:06:27
0.943000078201294,42.3727762699127,-70.9938186407089,50,2012-01-06 22:06:28
1.20899987220764,42.3727762699127,-70.9938186407089,50,2012-01-06 22:06:29
0.79200005531311,42.3727762699127,-70.9938186407089,50,2012-01-06 22:06:30
1.17400002479553,42.3727762699127,-70.9938186407089,50,2012-01-06 22:06:31
0.852999925613403,42.3727762699127,-70.9938186407089,50,2012-01-06 22:06:32
0.974999904632568,42.3727762699127,-70.9938186407089,50,2012-01-06 22:06:33
1.00100016593933,42.3727762699127,-70.9938186407089,50,2012-01-06 22:06:34
1.06099987030029,42.3727762699127,-70.9938186407089,50,2012-01-06 22:06:35
0.939000129699707,42.3727762699127,-70.9938186407089,50,2012-01-06 22:06:36
1.00499987602234,42.3727762699127,-70.9938186407089,50,2012-01-06 22:06:37
1,42.3727762699127,-70.9938186407089,50,2012-01-06 22:06:38
1.03800010681152,42.3727762699127,-70.9938186407089,50,2012-01-06 22:06:39
0.960000038146973,42.3727762699127,-70.9938186407089,50,2012-01-06 22:06:40
1.2649998664856,42.3727762699127,-70.9938186407089,50,2012-01-06 22:06:41
0.761000156402588,42.3727762699127,-70.9938186407089,50,2012-01-06 22:06:42
0.980000019073486,42.3727762699127,-70.9938186407089,50,2012-01-06 22:06:43
1.00399994850159,42.3727762699127,-70.9938186407089,50,2012-01-06 22:06:44
1.05799984931946,42.3727762699127,-70.9938186407089,50,2012-01-06 22:06:45
0.956000089645386,42.3727762699127,-70.9938186407089,50,2012-01-06 22:06:46
3.00799989700317,42.3727762699127,-70.9938186407089,50,2012-01-06 22:06:49
0.975000143051147,42.3727762699127,-70.9938186407089,50,2012-01-06 22:06:50
1.00799989700317,42.3727762699127,-70.9938186407089,50,2012-01-06 22:06:51
0.980999946594238,42.3727762699127,-70.9938186407089,50,2012-01-06 22:06:52
1.00300002098083,42.3727762699127,-70.9938186407089,50,2012-01-06 22:06:53
1,42.3727762699127,-70.9938186407089,50,2012-01-06 22:06:54
1.01800012588501,42.3727762699127,-70.9938186407089,50,2012-01-06 22:06:55
0.983999967575073,42.3727762699127,-70.9938186407089,50,2012-01-06 22:06:56
1.10500001907349,42.3727762699127,-70.9938186407089,50,2012-01-06 22:06:57
0.895999908447266,42.3727762699127,-70.9938186407089,50,2012-01-06 22:06:58
1.00300002098083,42.3727762699127,-70.9938186407089,50,2012-01-06 22:06:59
1.09700012207031,42.3727762699127,-70.9938186407089,50,2012-01-06 22:07:00
0.904000043869019,42.3727762699127,-70.9938186407089,50,2012-01-06 22:07:01
1.00099992752075,42.3727762699127,-70.9938186407089,50,2012-01-06 22:07:02
1.00099992752075,42.3727762699127,-70.9938186407089,50,2012-01-06 22:07:03
1.04200005531311,42.3727762699127,-70.9938186407089,50,2012-01-06 22:07:04
0.957000017166138,42.3727762699127,-70.9938186407089,50,2012-01-06 22:07:05
1.41599988937378,42.3727762699127,-70.9938186407089,50,2012-01-06 22:07:06
0.585000038146973,42.3727762699127,-70.9938186407089,50,2012-01-06 22:07:07
1.0699999332428,42.3727762699127,-70.9938186407089,50,2012-01-06 22:07:08
0.932000160217285,42.3727762699127,-70.9938186407089,50,2012-01-06 22:07:09
1.00499987602234,42.3727762699127,-70.9938186407089,50,2012-01-06 22:07:10
0.996000051498413,42.3727762699127,-70.9938186407089,50,2012-01-06 22:07:11
1.00600004196167,42.3727762699127,-70.9938186407089,50,2012-01-06 22:07:12
1.06099987030029,42.3727762699127,-70.9938186407089,50,2012-01-06 22:07:13
0.939000129699707,42.3727762699127,-70.9938186407089,50,2012-01-06 22:07:14
1.0019998550415,42.3727762699127,-70.9938186407089,50,2012-01-06 22:07:15
1.19300007820129,42.3727762699127,-70.9938186407089,50,2012-01-06 22:07:16
2.79500007629395,42.3727762699127,-70.9938186407089,50,2012-01-06 22:07:19
1.08699989318848,42.3727762699127,-70.9938186407089,50,2012-01-06 22:07:20
1.52400016784668,42.3727762699127,-70.9938186407089,50,2012-01-06 22:07:21
1.15799999237061,42.3727762699127,-70.9938186407089,50,2012-01-06 22:07:23
0.842999935150146,42.3727762699127,-70.9938186407089,50,2012-01-06 22:07:23
1.12299990653992,42.3727762699127,-70.9938186407089,50,2012-01-06 22:07:25
0.877000093460083,42.3727762699127,-70.9938186407089,50,2012-01-06 22:07:25
1.10999989509583,42.3727762699127,-70.9938186407089,50,2012-01-06 22:07:26
0.890000104904175,42.3727762699127,-70.9938186407089,50,2012-01-06 22:07:27
1.08899998664856,42.3727762699127,-70.9938186407089,50,2012-01-06 22:07:28
0.912999868392944,42.3727762699127,-70.9938186407089,50,2012-01-06 22:07:29
1.0770001411438,42.3727762699127,-70.9938186407089,50,2012-01-06 22:07:30
0.938999891281128,42.3727762699127,-70.9938186407089,50,2012-01-06 22:07:31
0.985000133514404,42.3727762699127,-70.9938186407089,50,2012-01-06 22:07:32
1.00600004196167,42.3727762699127,-70.9938186407089,50,2012-01-06 22:07:33
1.07200002670288,42.3727762699127,-70.9938186407089,50,2012-01-06 22:07:34
0.931999921798706,42.3727762699127,-70.9938186407089,50,2012-01-06 22:07:35
0.991999864578247,42.3727762699127,-70.9938186407089,50,2012-01-06 22:07:36
1.00400018692017,42.3727762699127,-70.9938186407089,50,2012-01-06 22:07:37
1,42.3727762699127,-70.9938186407089,50,2012-01-06 22:07:38
1.24000000953674,42.3727762699127,-70.9938186407089,50,2012-01-06 22:07:40
0.764999866485596,42.3727762699127,-70.9938186407089,50,2012-01-06 22:07:40
0.996000051498413,42.3727762699127,-70.9938186407089,50,2012-01-06 22:07:41
1.12299990653992,42.3727762699127,-70.9938186407089,50,2012-01-06 22:07:43
0.886000156402588,42.3727762699127,-70.9938186407089,50,2012-01-06 22:07:43
0.996999979019165,42.3727762699127,-70.9938186407089,50,2012-01-06 22:07:44
1.08999991416931,42.3727762699127,-70.9938186407089,50,2012-01-06 22:07:45
0.914999961853027,42.3727762699127,-70.9938186407089,50,2012-01-06 22:07:46
3.17700004577637,42.3727762699127,-70.9938186407089,50,2012-01-06 22:07:50
0.924999952316284,42.3727762699127,-70.9938186407089,50,2012-01-06 22:07:51
0.907000064849854,42.3727762699127,-70.9938186407089,50,2012-01-06 22:07:51
0.996000051498413,42.3727762699127,-70.9938186407089,50,2012-01-06 22:07:52
1.0019998550415,42.3727762699127,-70.9938186407089,50,2012-01-06 22:07:53
1.00400018692017,42.3727762699127,-70.9938186407089,50,2012-01-06 22:07:54
1.0019998550415,42.3727762699127,-70.9938186407089,50,2012-01-06 22:07:55
0.995000123977661,42.3727762699127,-70.9938186407089,50,2012-01-06 22:07:56
1.00399994850159,42.3727762699127,-70.9938186407089,50,2012-01-06 22:07:57
1.00399994850159,42.3727762699127,-70.9938186407089,50,2012-01-06 22:07:58
1.1159999370575,42.3727762699127,-70.9938186407089,50,2012-01-06 22:08:00
0.882000207901001,42.3727762699127,-70.9938186407089,50,2012-01-06 22:08:00
1.12399983406067,42.3727762699127,-70.9938186407089,50,2012-01-06 22:08:02
0.884000062942505,42.3727762699127,-70.9938186407089,50,2012-01-06 22:08:02
1.12700009346008,42.3727762699127,-70.9938186407089,50,2012-01-06 22:08:04
0.86899995803833,42.3727762699127,-70.9938186407089,50,2012-01-06 22:08:04
1.14599990844727,42.3727762699127,-70.9938186407089,50,2012-01-06 22:08:06
0.854000091552734,42.3727762699127,-70.9938186407089,50,2012-01-06 22:08:06
1.12299990653992,42.3727762699127,-70.9938186407089,50,2012-01-06 22:08:08
0.878999948501587,42.3727762699127,-70.9938186407089,50,2012-01-06 22:08:08
1.12700009346008,42.3727762699127,-70.9938186407089,50,2012-01-06 22:08:10
0.878000020980835,42.3727762699127,-70.9938186407089,50,2012-01-06 22:08:10
1.1729998588562,42.3727762699127,-70.9938186407089,50,2012-01-06 22:08:12
0.826000213623047,42.3727762699127,-70.9938186407089,50,2012-01-06 22:08:12
1.07699990272522,42.3727762699127,-70.9938186407089,50,2012-01-06 22:08:14
0.924999952316284,42.3727762699127,-70.9938186407089,50,2012-01-06 22:08:14
1.19700002670288,42.3727762699127,-70.9938186407089,50,2012-01-06 22:08:16
0.818000078201294,42.3727762699127,-70.9938186407089,50,2012-01-06 22:08:16
3.02799987792969,42.3727762699127,-70.9938186407089,50,2012-01-06 22:08:19
0.957000017166138,42.3727762699127,-70.9938186407089,50,2012-01-06 22:08:20
1.01900005340576,42.3727762699127,-70.9938186407089,50,2012-01-06 22:08:21
0.983999967575073,42.3727762699127,-70.9938186407089,50,2012-01-06 22:08:22
1.02999997138977,42.3727762699127,-70.9938186407089,50,2012-01-06 22:08:23
0.970000028610229,42.3727762699127,-70.9938186407089,50,2012-01-06 22:08:24
1.20700001716614,42.3727762699127,-70.9938186407089,50,2012-01-06 22:08:26
0.802000045776367,42.3727762699127,-70.9938186407089,50,2012-01-06 22:08:26
1.2260000705719,42.3727762699127,-70.9938186407089,50,2012-01-06 22:08:28
0.767999887466431,42.3727762699127,-70.9938186407089,50,2012-01-06 22:08:28
1,42.3727762699127,-70.9938186407089,50,2012-01-06 22:08:29
1,42.3727762699127,-70.9938186407089,50,2012-01-06 22:08:30
1.01500010490417,42.3727762699127,-70.9938186407089,50,2012-01-06 22:08:31
0.988999843597412,42.3727762699127,-70.9938186407089,50,2012-01-06 22:08:32
0.999000072479248,42.3727762699127,-70.9938186407089,50,2012-01-06 22:08:33
1.00200009346008,42.3727762699127,-70.9938186407089,50,2012-01-06 22:08:34
0.998999834060669,42.3727762699127,-70.9938186407089,50,2012-01-06 22:08:35
1.00300002098083,42.3727762699127,-70.9938186407089,50,2012-01-06 22:08:36
0.998000144958496,42.3727762699127,-70.9938186407089,50,2012-01-06 22:08:37
1.02499985694885,42.3727762699127,-70.9938186407089,50,2012-01-06 22:08:38
0.980000019073486,42.3727762699127,-70.9938186407089,50,2012-01-06 22:08:39
1.09899997711182,42.3727762699127,-70.9938186407089,50,2012-01-06 22:08:41
0.901999950408936,42.3727762699127,-70.9938186407089,50,2012-01-06 22:08:41
1.08000016212463,42.3727762699127,-70.9938186407089,50,2012-01-06 22:08:43
0.918999910354614,42.3727762699127,-70.9938186407089,50,2012-01-06 22:08:43
1.13199996948242,42.3727762699127,-70.9938186407089,50,2012-01-06 22:08:45
0.870000123977661,42.3727762699127,-70.9938186407089,50,2012-01-06 22:08:45
1.13299989700317,42.3727762699127,-70.9938186407089,50,2012-01-06 22:08:47
2.85899996757507,42.3727762699127,-70.9938186407089,50,2012-01-06 22:08:49
1.18700003623962,42.3727762699127,-70.9938186407089,50,2012-01-06 22:08:51
0.941999912261963,42.3727762699127,-70.9938186407089,50,2012-01-06 22:08:52
1.05700016021729,42.3727762699127,-70.9938186407089,50,2012-01-06 22:08:53
0.819999933242798,42.3727762699127,-70.9938186407089,50,2012-01-06 22:08:53
1.16100001335144,42.3727762699127,-70.9938186407089,50,2012-01-06 22:08:55
0.835000038146973,42.3727762699127,-70.9938186407089,50,2012-01-06 22:08:55
1.45199990272522,42.3727762699127,-70.9938186407089,50,2012-01-06 22:08:57
0.549999952316284,42.3727762699127,-70.9938186407089,50,2012-01-06 22:08:57
1.19700002670288,42.3727762699127,-70.9938186407089,50,2012-01-06 22:08:59
0.80400013923645,42.3727762699127,-70.9938186407089,50,2012-01-06 22:08:59
1.15199995040894,42.3727762699127,-70.9938186407089,50,2012-01-06 22:09:01
0.852999925613403,42.3727762699127,-70.9938186407089,50,2012-01-06 22:09:01
1.07599997520447,42.3727762699127,-70.9938186407089,50,2012-01-06 22:09:03
1.125,42.3727762699127,-70.9938186407089,50,2012-01-06 22:09:04
0.797000169754028,42.3727762699127,-70.9938186407089,50,2012-01-06 22:09:04
1.00099992752075,42.3727762699127,-70.9938186407089,50,2012-01-06 22:09:05
1.15599989891052,42.3727762699127,-70.9938186407089,50,2012-01-06 22:09:07
0.846000194549561,42.3727762699127,-70.9938186407089,50,2012-01-06 22:09:07
1.12599992752075,42.3727762699127,-70.9938186407089,50,2012-01-06 22:09:09
0.878999948501587,42.3727762699127,-70.9938186407089,50,2012-01-06 22:09:09
1.08899998664856,42.3727762699127,-70.9938186407089,50,2012-01-06 22:09:11
1.07500004768372,42.3727762699127,-70.9938186407089,50,2012-01-06 22:09:12
0.833999872207642,42.3727762699127,-70.9938186407089,50,2012-01-06 22:09:12
1.00100016593933,42.3727762699127,-70.9938186407089,50,2012-01-06 22:09:13
1.1729998588562,42.3727762699127,-70.9938186407089,50,2012-01-06 22:09:15
0.828999996185303,42.3727762699127,-70.9938186407089,50,2012-01-06 22:09:15
1.47699999809265,42.3727762699127,-70.9938186407089,50,2012-01-06 22:09:17
2.68300008773804,42.3727762699127,-70.9938186407089,50,2012-01-06 22:09:20
1.05100011825562,42.3727762699127,-70.9938186407089,50,2012-01-06 22:09:21
0.954999923706055,42.3727762699127,-70.9938186407089,50,2012-01-06 22:09:22
1.24000000953674,42.3727762699127,-70.9938186407089,50,2012-01-06 22:09:23
0.757999897003174,42.3727762699127,-70.9938186407089,50,2012-01-06 22:09:24
1.00200009346008,42.3727762699127,-70.9938186407089,50,2012-01-06 22:09:25
1.00999999046326,42.3727762699127,-70.9938186407089,50,2012-01-06 22:09:26
1.01699995994568,42.3727762699127,-70.9938186407089,50,2012-01-06 22:09:27
1.23200011253357,42.3727762699127,-70.9938186407089,50,2012-01-06 22:09:28
0.74399995803833,42.3727762699127,-70.9938186407089,50,2012-01-06 22:09:29
0.998999834060669,42.3727762699127,-70.9938186407089,50,2012-01-06 22:09:30
1.12800002098083,42.3727762699127,-70.9938186407089,50,2012-01-06 22:09:31
1.01700019836426,42.3727762699127,-70.9938186407089,50,2012-01-06 22:09:32
0.85699987411499,42.3727762699127,-70.9938186407089,50,2012-01-06 22:09:33
1.00200009346008,42.3727762699127,-70.9938186407089,50,2012-01-06 22:09:34
1,42.3727762699127,-70.9938186407089,50,2012-01-06 22:09:35
1,42.3727762699127,-70.9938186407089,50,2012-01-06 22:09:36
1.3199999332428,42.3727762699127,-70.9938186407089,50,2012-01-06 22:09:37
0.683000087738037,42.3727762699127,-70.9938186407089,50,2012-01-06 22:09:38
1.17399978637695,42.3727762699127,-70.9938186407089,50,2012-01-06 22:09:39
0.830000162124634,42.3727762699127,-70.9938186407089,50,2012-01-06 22:09:40
0.996999979019165,42.3727762699127,-70.9938186407089,50,2012-01-06 22:09:41
1.00600004196167,42.3727762699127,-70.9938186407089,50,2012-01-06 22:09:42
0.996999979019165,42.3727762699127,-70.9938186407089,50,2012-01-06 22:09:43
1,42.3727762699127,-70.9938186407089,50,2012-01-06 22:09:44
1,42.3727762699127,-70.9938186407089,50,2012-01-06 22:09:45
1.00399994850159,42.3727762699127,-70.9938186407089,50,2012-01-06 22:09:46
0.996999979019165,42.3727762699127,-70.9938186407089,50,2012-01-06 22:09:47
3.19300007820129,42.3727762699127,-70.9938186407089,50,2012-01-06 22:09:50
0.796000003814697,42.3727762699127,-70.9938186407089,50,2012-01-06 22:09:51
0.997999906539917,42.3727762699127,-70.9938186407089,50,2012-01-06 22:09:52
1.00099992752075,42.3727762699127,-70.9938186407089,50,2012-01-06 22:09:53
1.00400018692017,42.3727762699127,-70.9938186407089,50,2012-01-06 22:09:54
0.996999979019165,42.3727762699127,-70.9938186407089,50,2012-01-06 22:09:55
1.00300002098083,42.3727762699127,-70.9938186407089,50,2012-01-06 22:09:56
0.998999834060669,42.3727762699127,-70.9938186407089,50,2012-01-06 22:09:57
1.06700015068054,42.3727762699127,-70.9938186407089,50,2012-01-06 22:09:58
0.93999981880188,42.3727762699127,-70.9938186407089,50,2012-01-06 22:09:59
1,42.3727762699127,-70.9938186407089,50,2012-01-06 22:10:00
1.02000021934509,42.3727762699127,-70.9938186407089,50,2012-01-06 22:10:01
1.04199981689453,42.3727762699127,-70.9938186407089,50,2012-01-06 22:10:02
0.943000078201294,42.3727762699127,-70.9938186407089,50,2012-01-06 22:10:03
0.999000072479248,42.3727762699127,-70.9938186407089,50,2012-01-06 22:10:04
1,42.3727762699127,-70.9938186407089,50,2012-01-06 22:10:05
1.20199990272522,42.3727762699127,-70.9938186407089,50,2012-01-06 22:10:06
0.799999952316284,42.3727762699127,-70.9938186407089,50,2012-01-06 22:10:07
0.999000072479248,42.3727762699127,-70.9938186407089,50,2012-01-06 22:10:08
1.00099992752075,42.3727762699127,-70.9938186407089,50,2012-01-06 22:10:09
1,42.3727762699127,-70.9938186407089,50,2012-01-06 22:10:10
1.02600002288818,42.3727762699127,-70.9938186407089,50,2012-01-06 22:10:11
1.06500005722046,42.3727762699127,-70.9938186407089,50,2012-01-06 22:10:12
0.95799994468689,42.3727762699127,-70.9938186407089,50,2012-01-06 22:10:13
0.956000089645386,42.3727762699127,-70.9938186407089,50,2012-01-06 22:10:14
1.00399994850159,42.3727762699127,-70.9938186407089,50,2012-01-06 22:10:15
0.996000051498413,42.3727762699127,-70.9938186407089,50,2012-01-06 22:10:16
1.0019998550415,42.3727762699127,-70.9938186407089,50,2012-01-06 22:10:17
2.98400020599365,42.3727762699127,-70.9938186407089,50,2012-01-06 22:10:20
1,42.3727762699127,-70.9938186407089,50,2012-01-06 22:10:21
1.0019998550415,42.3727762699127,-70.9938186407089,50,2012-01-06 22:10:22
1.3659999370575,42.3727762699127,-70.9938186407089,50,2012-01-06 22:10:23
0.638000011444092,42.3727762699127,-70.9938186407089,50,2012-01-06 22:10:24
0.998000144958496,42.3727762699127,-70.9938186407089,50,2012-01-06 22:10:25
0.998999834060669,42.3727762699127,-70.9938186407089,50,2012-01-06 22:10:26
1.09300017356873,42.3727762699127,-70.9938186407089,50,2012-01-06 22:10:27
0.909999847412109,42.3727762699127,-70.9938186407089,50,2012-01-06 22:10:28
0.999000072479248,42.3727762699127,-70.9938186407089,50,2012-01-06 22:10:29
1.00300002098083,42.3727762699127,-70.9938186407089,50,2012-01-06 22:10:30
1.29299998283386,42.3727762699127,-70.9938186407089,50,2012-01-06 22:10:31
0.70799994468689,42.3727762699127,-70.9938186407089,50,2012-01-06 22:10:32
1.0310001373291,42.3727762699127,-70.9938186407089,50,2012-01-06 22:10:33
0.967999935150146,42.3727762699127,-70.9938186407089,50,2012-01-06 22:10:34
1.21199989318848,42.3727762699127,-70.9938186407089,50,2012-01-06 22:10:35
0.79800009727478,42.3727762699127,-70.9938186407089,50,2012-01-06 22:10:36
1.07800006866455,42.3727762699127,-70.9938186407089,50,2012-01-06 22:10:37
0.915999889373779,42.3727762699127,-70.9938186407089,50,2012-01-06 22:10:38
1.07800006866455,42.3727762699127,-70.9938186407089,50,2012-01-06 22:10:39
0.927999973297119,42.3727762699127,-70.9938186407089,50,2012-01-06 22:10:40
0.996000051498413,42.3727762699127,-70.9938186407089,50,2012-01-06 22:10:41
1.07399988174438,42.3727762699127,-70.9938186407089,50,2012-01-06 22:10:42
1.05200004577637,42.3727762699127,-70.9938186407089,50,2012-01-06 22:10:43
0.878000020980835,42.3727762699127,-70.9938186407089,50,2012-01-06 22:10:44
1.12299990653992,42.3727762699127,-70.9938186407089,50,2012-01-06 22:10:45
0.883000135421753,42.3727762699127,-70.9938186407089,50,2012-01-06 22:10:46
1.2649998664856,42.3727762699127,-70.9938186407089,50,2012-01-06 22:10:47
2.7260000705719,42.3727762699127,-70.9938186407089,50,2012-01-06 22:10:50
0.995000123977661,42.3727762699127,-70.9938186407089,50,2012-01-06 22:10:51
1.14599990844727,42.3727762699127,-70.9938186407089,50,2012-01-06 22:10:52
0.858000040054321,42.3727762699127,-70.9938186407089,50,2012-01-06 22:10:53
1.00300002098083,42.3727762699127,-70.9938186407089,50,2012-01-06 22:10:54
0.994999885559082,42.3727762699127,-70.9938186407089,50,2012-01-06 22:10:55
1.00699996948242,42.3727762699127,-70.9938186407089,50,2012-01-06 22:10:56
1.08800005912781,42.3727762699127,-70.9938186407089,50,2012-01-06 22:10:57
0.976999998092651,42.3727762699127,-70.9938186407089,50,2012-01-06 22:10:58
0.933000087738037,42.3727762699127,-70.9938186407089,50,2012-01-06 22:10:59
1.18899989128113,42.3727762699127,-70.9938186407089,50,2012-01-06 22:11:00
0.812999963760376,42.3727762699127,-70.9938186407089,50,2012-01-06 22:11:01
0.999000072479248,42.3727762699127,-70.9938186407089,50,2012-01-06 22:11:02
1.00200009346008,42.3727762699127,-70.9938186407089,50,2012-01-06 22:11:03
1.08899998664856,42.3727762699127,-70.9938186407089,50,2012-01-06 22:11:04
0.914999961853027,42.3727762699127,-70.9938186407089,50,2012-01-06 22:11:05
0.996999979019165,42.3727762699127,-70.9938186407089,50,2012-01-06 22:11:06
1.08400011062622,42.3727762699127,-70.9938186407089,50,2012-01-06 22:11:07
0.961999893188477,42.3727762699127,-70.9938186407089,50,2012-01-06 22:11:08
0.977999925613403,42.3727762699127,-70.9938186407089,50,2012-01-06 22:11:09
0.980999946594238,42.3727762699127,-70.9938186407089,50,2012-01-06 22:11:10
0.999000072479248,42.3727762699127,-70.9938186407089,50,2012-01-06 22:11:11
0.735000133514404,42.3727762699127,-70.9938186407089,50,2012-01-06 22:11:11
0.692999839782715,42.3727762699127,-70.9938186407089,50,2012-01-06 22:11:12
1.04900002479553,42.3727762699127,-70.9938186407089,50,2012-01-06 22:11:13
