"diffSecs","N.samples","x.mean","x.absolute.deviation","x.standard.deviation","x.max.deviation","x.PSD.1","x.PSD.3","x.PSD.6","x.PSD.10","y.mean","y.absolute.deviation","y.standard.deviation","y.max.deviation","y.PSD.1","y.PSD.3","y.PSD.6","y.PSD.10","z.mean","z.absolute.deviation","z.standard.deviation","z.max.deviation","z.PSD.1","z.PSD.3","z.PSD.6","z.PSD.10","time"
1.0149998664856,41,-2.5174388885498,1.47790467739105,2.04109621047974,5.65556669235229,90.1961135864258,383.48046875,720.41455078125,308.920135498047,-9.51364612579346,2.23444604873657,2.88718843460083,7.30475902557373,14.1325883865356,145.27815246582,1200.33276367188,689.935729980469,-0.210005819797516,1.52148330211639,1.79172015190125,3.64400768280029,132.82258605957,163.642776489258,214.483062744141,63.3213653564453,2012-01-18 10:35:32
1.00999999046326,49,-3.1413300037384,0.614865899085999,0.845220863819122,2.0463879108429,2.68734383583069,3.394038438797,37.1870918273926,44.453727722168,-9.60151100158691,1.25503063201904,1.79319286346436,6.863853931427,126.256958007812,201.253372192383,478.774597167969,45.0379447937012,-0.406475633382797,1.18543243408203,1.65837216377258,5.64422750473022,1.64203035831451,23.9830837249756,55.7771682739258,110.984672546387,2012-01-18 10:35:33
1.0220000743866,43,-2.38415622711182,1.1401914358139,1.59853804111481,4.46316576004028,61.8511734008789,65.0242462158203,17.822717666626,16.6446743011475,-9.71633720397949,1.08919048309326,1.63458168506622,6.35676193237305,1.0603746175766,48.117748260498,74.9801788330078,68.5305328369141,-0.714517056941986,1.63954031467438,1.97583866119385,6.16975116729736,135.614944458008,227.122833251953,74.4060592651367,83.5817413330078,2012-01-18 10:35:34
1.01399993896484,34,-2.58635973930359,1.36456644535065,2.06328701972961,6.02849388122559,79.9829864501953,138.692581176758,92.7013320922852,34.1203346252441,-8.68465328216553,1.87676882743835,2.35486841201782,4.26012372970581,45.9435195922852,60.530948638916,41.5361251831055,69.7548599243164,-0.47562250494957,1.42830967903137,1.82286143302917,4.25118255615234,29.8718719482422,47.9411811828613,115.538589477539,81.8688812255859,2012-01-18 10:35:35
1.02500009536743,49,-2.24172019958496,1.60231101512909,2.15996122360229,5.37984800338745,0.816953718662262,239.787094116211,1227.45092773438,760.849731445312,-9.98437023162842,2.305988073349,2.90680456161499,7.55972576141357,18.7238140106201,756.027221679688,1832.09033203125,180.055511474609,-1.1940096616745,1.56312525272369,2.02957534790039,6.09233093261719,176.516082763672,580.906066894531,638.586547851562,310.722900390625,2012-01-18 10:35:36
1.01300001144409,61,-2.78492784500122,1.25314807891846,1.67405021190643,4.39321851730347,21.9403953552246,73.3611679077148,595.10888671875,494.730316162109,-9.89153385162354,1.52017569541931,2.19013500213623,7.69178915023804,58.0615653991699,675.234619140625,1680.91857910156,161.992904663086,-0.598527133464813,1.62027680873871,2.31466007232666,7.97248458862305,336.792510986328,1101.14831542969,1361.86547851562,464.900573730469,2012-01-18 10:35:37
1.01799988746643,48,-1.51941776275635,0.885586440563202,1.20634651184082,2.96222114562988,4.91597270965576,32.8468704223633,357.124298095703,224.244354248047,-9.6266565322876,0.944068789482117,1.06032156944275,2.14132285118103,29.632755279541,42.0274963378906,21.9182071685791,59.0763397216797,-0.00143013859633356,1.77835762500763,2.02890133857727,3.98292994499207,33.2649536132812,363.942169189453,494.033111572266,180.290679931641,2012-01-18 10:35:38
1.10000014305115,27,-2.05213236808777,1.12586796283722,1.65709829330444,6.36705780029297,4.85516929626465,7.19174861907959,14.7544822692871,47.9971160888672,-10.3943223953247,1.52405285835266,1.70763599872589,3.12759494781494,6.91303777694702,16.0651016235352,32.6160850524902,5.91647148132324,0.323619425296783,1.18188285827637,1.55730867385864,4.6875786781311,0.656701743602753,2.89569401741028,25.8854274749756,45.7919921875,2012-01-18 10:35:39
1.01099991798401,48,-2.49517941474915,1.50389063358307,2.10689926147461,8.25168323516846,53.996021270752,146.922012329102,238.918090820312,102.644821166992,-9.75802516937256,2.20198440551758,2.92861175537109,6.90347194671631,635.024780273438,1578.61694335938,1887.45983886719,138.030715942383,-0.999665379524231,2.43158936500549,3.3347544670105,12.0235652923584,475.187408447266,637.336059570312,260.688812255859,26.1001472473145,2012-01-18 10:35:40
1.1029999256134,46,-2.46317458152771,2.32324910163879,2.9448823928833,9.20034313201904,94.0740737915039,238.159759521484,403.554382324219,128.431015014648,-8.27318859100342,1.94271767139435,2.53283548355103,6.09611177444458,35.1533088684082,673.604187011719,880.362976074219,142.608673095703,-0.449400395154953,2.18083953857422,3.16179394721985,10.5242414474487,14.8257465362549,126.533027648926,260.098663330078,112.729972839355,2012-01-18 10:35:41
1.00699996948242,45,-2.76460361480713,2.20372128486633,2.88595843315125,8.42304039001465,18.9726753234863,35.6248168945312,292.188720703125,35.8381233215332,-8.78523254394531,2.18698453903198,2.65402150154114,5.27445220947266,283.483673095703,648.511657714844,564.399719238281,601.02734375,-0.15538090467453,1.99702131748199,2.54558658599854,6.88579368591309,42.4857521057129,293.369506835938,286.0126953125,20.82737159729,2012-01-18 10:35:42
1,43,-2.92831134796143,2.10688638687134,2.68422555923462,7.47859668731689,132.783325195312,231.484359741211,545.081359863281,193.059188842773,-9.84154319763184,1.58267343044281,2.05675721168518,6.05617618560791,49.6360969543457,99.0052795410156,200.573913574219,45.7180595397949,-0.716341555118561,1.73664152622223,2.31172776222229,7.88408994674683,331.709930419922,360.912017822266,66.329231262207,50.2018775939941,2012-01-18 10:35:43
1.01200008392334,36,-1.98748099803925,1.63680243492126,2.26612830162048,6.86138582229614,0.249712750315666,38.2693824768066,43.2194976806641,85.785041809082,-8.41682910919189,1.53095722198486,1.98621654510498,4.1258749961853,108.782684326172,131.863235473633,32.1708145141602,35.579273223877,-0.153637513518333,1.00300240516663,1.30513000488281,3.24926996231079,0.31744384765625,6.37479019165039,22.3977203369141,43.1752700805664,2012-01-18 10:35:44
1.00099992752075,36,-2.84038710594177,1.53926563262939,2.13391256332397,6.36097431182861,39.3650550842285,113.374519348145,249.763565063477,180.51823425293,-8.98752212524414,1.49966073036194,1.87175536155701,3.4761848449707,3.81451225280762,36.6628646850586,95.0041656494141,26.0013599395752,-0.655683517456055,1.28424739837646,1.62884902954102,4.11034822463989,35.2584342956543,92.9419174194336,155.601409912109,19.9596042633057,2012-01-18 10:35:45
1.02300000190735,44,-1.10191082954407,1.53830671310425,1.99593865871429,4.82843780517578,282.351165771484,693.584777832031,839.567993164062,304.970245361328,-9.63369655609131,1.78809261322021,2.17147707939148,4.82130575180054,4.35843896865845,45.641731262207,616.440979003906,511.022552490234,-0.380453437566757,1.43768727779388,1.88753008842468,5.45450305938721,156.15315246582,443.934112548828,668.204040527344,213.232559204102,2012-01-18 10:35:46
1.00200009346008,34,-2.91920876502991,0.682155966758728,0.843488335609436,1.96450293064117,0.405575484037399,0.421587109565735,6.74271392822266,7.70035934448242,-9.35612106323242,0.792234838008881,1.0812509059906,2.66798567771912,0.115766480565071,9.10724067687988,66.3975830078125,64.9454040527344,0.912018418312073,0.628779292106628,0.738802492618561,1.52983748912811,3.27630949020386,10.1074552536011,21.7096729278564,16.7694339752197,2012-01-18 10:35:47
1.00799989700317,42,-2.07107090950012,1.14664423465729,1.61803102493286,4.67963981628418,13.0373258590698,20.9580097198486,39.5423889160156,35.3385772705078,-9.15800952911377,1.23964059352875,1.9663827419281,6.82682943344116,5.5909571647644,6.91912794113159,27.8858013153076,27.3088302612305,-0.240729913115501,1.34897029399872,1.64781761169434,3.24063086509705,158.260192871094,182.527755737305,78.4382858276367,45.1073799133301,2012-01-18 10:35:48
1.00400018692017,49,-2.27374172210693,1.72236788272858,2.13805532455444,5.32360982894897,9.34633636474609,550.739135742188,1137.39807128906,121.256553649902,-9.70297908782959,1.42805409431458,1.81223475933075,4.70298910140991,3.25910472869873,223.016906738281,193.446990966797,159.513229370117,-0.460312128067017,1.19527578353882,1.69085478782654,6.73776865005493,154.397552490234,292.218078613281,287.864410400391,244.698364257812,2012-01-18 10:35:49
1.00499987602234,35,-3.05967473983765,0.1272062510252,0.168654829263687,0.451105833053589,0.0327785573899746,0.0279121305793524,0.0482818298041821,0.0925071984529495,-9.10869598388672,0.0936315134167671,0.136660978198051,0.400391012430191,0.00147996074520051,0.0690572783350945,0.126104950904846,0.117837823927402,0.355561107397079,0.378208458423615,0.572168529033661,1.92938816547394,0.455388605594635,0.492952674627304,0.462359935045242,0.40617698431015,2012-01-18 10:35:50
1.0090000629425,41,-3.57225155830383,0.108158983290195,0.129359021782875,0.385090321302414,1.60932064056396,1.82620000839233,0.200532615184784,0.206896707415581,-8.99796009063721,0.0505441203713417,0.057879101485014,0.113135062158108,0.164811328053474,0.122165843844414,0.229786306619644,0.161261588335037,0.119593292474747,0.0363913625478745,0.0470669120550156,0.125572949647903,0.0975734293460846,0.196284472942352,0.138245493173599,0.123048983514309,2012-01-18 10:35:51
1.01900005340576,39,-3.7468945980072,0.0445264130830765,0.0574138164520264,0.165958657860756,0.000315437471726909,0.00430193170905113,0.0378448329865932,0.0575084425508976,-8.91172981262207,0.0391620583832264,0.0497430525720119,0.139807388186455,0.0370545908808708,0.0649525076150894,0.0391316451132298,0.0616515763103962,0.0756872221827507,0.0535658411681652,0.0634358525276184,0.14005908370018,0.00703881215304136,0.070730097591877,0.205818608403206,0.148903504014015,2012-01-18 10:35:52
1.01399993896484,39,-3.76525068283081,0.095139317214489,0.114233642816544,0.195630013942719,0.628592252731323,1.51594305038452,0.831127226352692,0.00722908321768045,-8.90091800689697,0.0449519045650959,0.0521519221365452,0.101586662232876,0.0665573105216026,0.187104195356369,0.131991013884544,0.0182505808770657,0.0688979998230934,0.066654272377491,0.0859379321336746,0.215997755527496,0.159481212496758,0.154963165521622,0.168965339660645,0.151525393128395,2012-01-18 10:35:53
1.00999999046326,49,-3.73633360862732,0.0864586234092712,0.111426167190075,0.254972964525223,1.58223152160645,1.05666446685791,0.534682273864746,0.688852667808533,-8.88842678070068,0.0330836027860641,0.0394109189510345,0.0918621346354485,0.110415175557137,0.143350839614868,0.215256944298744,0.137944445014,-0.194932177662849,0.0738705024123192,0.0810527354478836,0.155705586075783,1.29553556442261,1.39952683448792,0.144305676221848,0.0842469781637192,2012-01-18 10:35:54
1.00200009346008,21,-3.64667272567749,0.0489665232598782,0.0541620030999184,0.0994674488902092,0.0113349696621299,0.0209103357046843,0.0266802329570055,0.00452118739485741,-8.90443801879883,0.00933965016156435,0.013534439727664,0.0294198989868164,5.77860873818281e-06,7.91797810961725e-06,7.78992489358643e-06,0.00015691079897806,-0.331091165542603,0.0276631973683834,0.0365561731159687,0.085924930870533,0.000191747181816027,0.000620198668912053,0.00303887436166406,0.00555809959769249,2012-01-18 10:35:55
1.00799989700317,47,-3.86674118041992,0.0422542952001095,0.0516514293849468,0.144178450107574,0.252629727125168,0.314135193824768,0.0791241154074669,0.0790152549743652,-8.84810161590576,0.0241592116653919,0.0313700139522552,0.0955625101923943,0.0427536405622959,0.0575942695140839,0.0200675651431084,0.0449819453060627,-0.400194764137268,0.038480781018734,0.047383788973093,0.0901377126574516,0.000559024570975453,0.171825528144836,0.171671777963638,0.102324202656746,2012-01-18 10:35:56
1.01999998092651,44,-4.01448583602905,0.0817356631159782,0.0962690785527229,0.219312414526939,1.3649388551712,1.65583384037018,0.202673673629761,0.210633546113968,-8.83066558837891,0.0287715271115303,0.034002598375082,0.0737726241350174,0.0487591288983822,0.0445186160504818,0.0684498995542526,0.108969278633595,-0.289519041776657,0.0614840462803841,0.074670247733593,0.152225941419601,0.427728295326233,0.654200494289398,0.20426344871521,0.364472031593323,2012-01-18 10:35:57
1.01800012588501,34,-4.00572824478149,0.0617242492735386,0.07510956376791,0.162098169326782,0.242824196815491,0.386101454496384,0.203354820609093,0.140589341521263,-8.80954456329346,0.0576012432575226,0.0615060478448868,0.111045695841312,0.147321060299873,0.220783546566963,0.0594641380012035,0.011251762509346,-0.28237384557724,0.0610794797539711,0.0691711157560349,0.129505470395088,0.213154599070549,0.342459052801132,0.177267670631409,0.0778812766075134,2012-01-18 10:35:58
1.00099992752075,43,-3.75891160964966,0.0428119301795959,0.0555366426706314,0.114715032279491,0.176136791706085,0.235633090138435,0.113615401089191,0.0511016063392162,-8.87296581268311,0.0285766031593084,0.0353619940578938,0.0706989839673042,0.0522877871990204,0.119766920804977,0.107545331120491,0.0230041909962893,-0.5692418217659,0.0619160793721676,0.0699201375246048,0.147555872797966,0.567981660366058,0.63756138086319,0.052157711237669,0.0138740688562393,2012-01-18 10:35:59
1.0239999294281,40,-3.74883699417114,0.0442402213811874,0.0528098419308662,0.114983037114143,0.152488514780998,0.254114657640457,0.129843339323997,0.0388585515320301,-8.84314632415771,0.023290753364563,0.0301264803856611,0.0956146717071533,0.00471223331987858,0.0419816337525845,0.06071487814188,0.0206220429390669,-0.679600834846497,0.034715548157692,0.0403266884386539,0.0912018418312073,0.00866626016795635,0.0742387175559998,0.0736423805356026,0.0550794377923012,2012-01-18 10:36:00
1.00999999046326,28,-3.77380895614624,0.037925697863102,0.0508930087089539,0.139044255018234,0.000394269271055236,0.001515984069556,0.00651728687807918,0.0209069065749645,-8.87396717071533,0.0215896032750607,0.0281478054821491,0.0598905086517334,0.000619404891040176,0.00189500651322305,0.00948930345475674,0.0111211920157075,-0.688566923141479,0.0280690379440784,0.0375587902963161,0.0861584097146988,0.00781075330451131,0.0193029213696718,0.0318235494196415,0.00682493951171637,2012-01-18 10:36:01
1.01699995994568,43,-3.78034949302673,0.026105061173439,0.0306027363985777,0.06385737657547,0.000498648383654654,0.00165041198488325,0.0319949053227901,0.00790298543870449,-8.8777551651001,0.022413644939661,0.0289467126131058,0.061576534062624,0.0435977131128311,0.124860391020775,0.0501980558037758,0.0115362023934722,-0.534348368644714,0.0778803899884224,0.0850036814808846,0.142310425639153,0.903501629829407,1.33882677555084,0.234961628913879,0.014427226036787,2012-01-18 10:36:02
1.09500002861023,41,-3.7222216129303,0.0280606839805841,0.0333474725484848,0.0643412619829178,0.0604922622442245,0.123721346259117,0.0876257941126823,0.0392119139432907,-8.86401557922363,0.0271155443042517,0.0354044027626514,0.0894556269049644,0.0367348454892635,0.0782038271427155,0.140009477734566,0.0557306073606014,-0.548694014549255,0.0349095724523067,0.0448587983846664,0.127964794635773,0.0267385262995958,0.0454954653978348,0.0761746764183044,0.161710277199745,2012-01-18 10:36:03
1.01699995994568,33,-3.64450764656067,0.0468449890613556,0.0537033788859844,0.0945005714893341,0.0863499119877815,0.172292873263359,0.118965111672878,0.0123005844652653,-8.90206050872803,0.0168576836585999,0.0209120344370604,0.0466558001935482,0.000177555906702764,0.000289002171484753,0.000573587603867054,0.00525205163285136,-0.647536039352417,0.0353903844952583,0.0415699891746044,0.0977693051099777,0.0298403184860945,0.0488613992929459,0.0401969105005264,0.0121903950348496,2012-01-18 10:36:04
1.01700019836426,49,-3.56301593780518,0.0402150601148605,0.0482215099036694,0.10467092692852,0.0017304546199739,0.192889854311943,0.251320719718933,0.111583039164543,-8.89663314819336,0.0287704803049564,0.0358259081840515,0.100067682564259,0.105626724660397,0.245229735970497,0.110066547989845,0.0377076640725136,-0.692069292068481,0.0435724034905434,0.0525309517979622,0.142896875739098,2.17915730900131e-05,0.0430997610092163,0.293706685304642,0.128023266792297,2012-01-18 10:36:05
1.01600003242493,33,-3.46590781211853,0.01786626316607,0.023534718900919,0.0644860416650772,0.0025559023488313,0.0135053116828203,0.0265003815293312,0.00860867742449045,-8.94752788543701,0.0203877110034227,0.0232743658125401,0.0528963841497898,0.000430380256148055,0.000596160360146314,0.0133389299735427,0.00982676818966866,-0.686168313026428,0.0288166124373674,0.0422652289271355,0.117382645606995,0.043420348316431,0.0696903690695763,0.053143072873354,0.0190471950918436,2012-01-18 10:36:06
1.0149998664856,45,-3.48724460601807,0.0286789685487747,0.0374654270708561,0.111795850098133,0.0112981256097555,0.0594875849783421,0.174977049231529,0.0758185014128685,-8.97504615783691,0.0150804221630096,0.0203196965157986,0.0666851028800011,9.11689403437776e-06,0.0091968597844243,0.0292791370302439,0.0135442232713103,-0.650725662708282,0.036872997879982,0.0465126819908619,0.101553291082382,0.0372452698647976,0.0588005557656288,0.145738959312439,0.0870490595698357,2012-01-18 10:36:07
1.02800011634827,48,-3.64725661277771,0.0636070147156715,0.0724197775125504,0.138110250234604,0.733363389968872,1.48792171478271,0.646621584892273,0.181021496653557,-8.91996479034424,0.0311224386096001,0.038130097091198,0.0841735973954201,0.104245379567146,0.0966398939490318,0.0290988385677338,0.0149940373376012,-0.639679610729218,0.03072240203619,0.0373017899692059,0.0807005539536476,0.12096368521452,0.167591020464897,0.0327054858207703,0.0486245453357697,2012-01-18 10:36:08
1.00099992752075,42,-3.78793525695801,0.0336338840425014,0.0414439216256142,0.105304777622223,0.0074475659057498,0.0287508517503738,0.0530433356761932,0.0334381461143494,-8.85750579833984,0.0363912805914879,0.0450686514377594,0.139394283294678,0.020681656897068,0.0494665987789631,0.0482376180589199,0.0296740233898163,-0.542634606361389,0.0512125045061111,0.0651437565684319,0.153637513518333,0.0570462830364704,0.0976745560765266,0.0734420865774155,0.0589607022702694,2012-01-18 10:36:09
1.0149998664856,36,-3.76411914825439,0.0259694177657366,0.0315662585198879,0.0572053603827953,0.0135048050433397,0.0431293807923794,0.0670929774641991,0.0109795974567533,-8.86602878570557,0.0301917176693678,0.0391839444637299,0.0988835468888283,0.0200645010918379,0.0186707302927971,0.00741131836548448,0.018860712647438,-0.558706641197205,0.0346259512007236,0.0436421111226082,0.117952182888985,0.0575989335775375,0.107746854424477,0.0827595517039299,0.0315917171537876,2012-01-18 10:36:10
1.30800008773804,45,-3.65853404998779,0.0469556972384453,0.0577917769551277,0.146445885300636,0.0715860649943352,0.206206887960434,0.0715804249048233,0.120477862656116,-8.91032218933105,0.0183928851038218,0.0238784737884998,0.0725690871477127,0.012225553393364,0.0145639898255467,0.014770888723433,0.00505838310346007,-0.678620159626007,0.0437594540417194,0.0518754385411739,0.164751693606377,0.191844001412392,0.43144279718399,0.101480603218079,0.178482905030251,2012-01-18 10:36:12
1.00999999046326,40,-3.63532495498657,0.0234378725290298,0.0334146283566952,0.104931205511093,1.46965567182633e-05,0.00873136427253485,0.0198360979557037,0.0246497951447964,-8.89217948913574,0.0254972465336323,0.0323581732809544,0.0661947727203369,0.0353043600916862,0.0420746654272079,0.0120183425024152,0.0238644182682037,-0.75584751367569,0.0672368407249451,0.0938416793942451,0.265515059232712,0.387972950935364,0.43365752696991,0.643146097660065,0.166493237018585,2012-01-18 10:36:13
1.19799995422363,42,-3.57242250442505,0.0469651930034161,0.0583037547767162,0.110674992203712,0.400156944990158,0.529405772686005,0.170431345701218,0.0673489272594452,-8.92124938964844,0.0253504794090986,0.0300578624010086,0.0616416931152344,0.00516291055828333,0.00973188504576683,0.0542174018919468,0.0411231182515621,-0.87092387676239,0.0161442793905735,0.020552571862936,0.0509011559188366,0.000353091803845018,0.00138111191336066,0.00491835922002792,0.00707432767376304,2012-01-18 10:36:14
1.00200009346008,45,-3.58204221725464,0.10489484667778,0.115394823253155,0.213131129741669,1.73524653911591,3.61648535728455,1.08744657039642,0.1171595454216,-8.89790058135986,0.0239717699587345,0.0281199496239424,0.0555709190666676,0.00043290009489283,0.0149778202176094,0.116673275828362,0.0088477972894907,-0.933157205581665,0.0829666778445244,0.0964615345001221,0.214220762252808,0.873942136764526,1.57412719726562,0.731662631034851,0.0677431374788284,2012-01-18 10:36:15
1.01200008392334,48,-3.49341464042664,0.19243848323822,0.243198990821838,0.664604902267456,2.08999252319336,3.41120791435242,3.61552095413208,4.26313066482544,-8.90770721435547,0.166849136352539,0.211538597941399,0.591667711734772,3.64514207839966,8.06109142303467,5.72715139389038,2.21228814125061,-0.739584863185883,0.18649660050869,0.253173649311066,0.741219222545624,0.566470980644226,12.0973052978516,8.49030780792236,6.55337858200073,2012-01-18 10:36:16
1.01199984550476,35,-3.73801469802856,0.316566616296768,0.375411063432693,0.560660123825073,7.83694171905518,13.1861114501953,6.05180835723877,1.44400489330292,-8.78479671478271,0.177752554416656,0.213811948895454,0.498177647590637,1.71536862850189,2.1026828289032,0.814761400222778,0.446485787630081,-0.244325667619705,0.831203639507294,0.908861219882965,1.56990456581116,47.558349609375,67.8902740478516,16.2899684906006,4.56197547912598,2012-01-18 10:36:17
1.1100001335144,38,-3.28367924690247,0.0672611594200134,0.083015076816082,0.168261528015137,0.190260723233223,0.336432725191116,0.318157315254211,0.205692887306213,-9.10702228546143,0.0351925231516361,0.0463958717882633,0.124131351709366,0.00580937368795276,0.0198633130639791,0.0357713215053082,0.09452785551548,0.860146403312683,0.0590979717671871,0.0796984359622002,0.228391766548157,0.000879095459822565,0.0242409389466047,0.0546910129487514,0.102714113891125,2012-01-18 10:36:18
1.01699995994568,53,-3.31187224388123,0.215257540345192,0.404241502285004,1.85623252391815,4.01885557174683,26.9749736785889,34.5847434997559,25.5442237854004,-9.14035224914551,0.0987787321209908,0.1463443338871,0.548617124557495,1.55833280086517,5.98384428024292,4.08228540420532,1.76719725131989,0.754186868667603,0.254630774259567,0.378921538591385,1.56018257141113,6.40735340118408,15.631402015686,27.3697929382324,21.7679767608643,2012-01-18 10:36:19
1.01099991798401,36,-2.4029016494751,1.43092334270477,1.7542417049408,3.68757271766663,1.23269009590149,53.4685287475586,93.8146667480469,8.53170490264893,-8.98343563079834,0.578471302986145,0.8044673204422,1.97059214115143,0.00617309287190437,2.04147458076477,9.51133060455322,15.9222917556763,0.0441299192607403,0.834382474422455,1.02888715267181,2.54482555389404,15.4173851013184,32.0897064208984,28.0490627288818,22.8136901855469,2012-01-18 10:36:20
1.00800013542175,39,-3.11801171302795,0.714486300945282,0.962687194347382,2.41193294525146,3.83942055702209,40.2959785461426,96.3611526489258,15.164454460144,-8.98289108276367,0.847897946834564,1.10934686660767,2.46146941184998,17.9454135894775,97.238655090332,80.1533966064453,53.781421661377,-0.0236365422606468,0.733454883098602,0.851813852787018,1.63192713260651,35.4856567382812,70.8468780517578,74.787483215332,16.6131038665771,2012-01-18 10:36:21
1.0149998664856,49,-2.44125533103943,1.12552237510681,1.50645244121552,3.28462719917297,42.3501739501953,30.4470806121826,55.6305885314941,27.736141204834,-9.48843383789062,1.26498830318451,1.88204264640808,6.34049940109253,84.0292282104492,377.348297119141,333.579132080078,141.04833984375,-0.10407055914402,1.31052124500275,1.75157272815704,4.19124174118042,22.3224353790283,63.227783203125,73.7518310546875,51.1356430053711,2012-01-18 10:36:22
1.01699995994568,37,-2.07582926750183,1.43360471725464,2.04471373558044,6.25346183776855,18.6931648254395,46.9079322814941,90.0630569458008,40.4824523925781,-8.73030376434326,1.27454924583435,1.78125095367432,4.61151075363159,3.66237449645996,7.48006153106689,43.8960380554199,45.4023017883301,0.365231424570084,1.53588318824768,1.87426996231079,3.87601208686829,78.5629272460938,141.195266723633,90.9373092651367,6.47660636901855,2012-01-18 10:36:23
1.00100016593933,49,-1.88107550144196,1.88395500183105,2.41421341896057,6.79420709609985,13.4977874755859,463.463073730469,1793.19055175781,313.427917480469,-9.27108669281006,1.71506500244141,2.11299276351929,4.71099472045898,37.6285209655762,64.6530380249023,286.292663574219,332.083587646484,0.397869795560837,1.56426072120667,1.80505001544952,3.45754456520081,27.8576259613037,296.675842285156,754.103210449219,54.6427001953125,2012-01-18 10:36:24
1.00399994850159,40,-1.97064626216888,1.60157299041748,2.14816117286682,6.23653888702393,83.1185302734375,309.178955078125,508.561187744141,367.963073730469,-9.47028160095215,1.94107925891876,2.27880692481995,3.86087799072266,8.71764469146729,89.8773803710938,399.456390380859,80.9080123901367,-0.806106626987457,1.3521409034729,1.6014039516449,3.21461963653564,65.7814254760742,207.078674316406,290.510498046875,55.2363586425781,2012-01-18 10:36:25
1.01099991798401,44,-2.80447888374329,0.874321579933167,1.15912568569183,3.45216345787048,56.7554359436035,63.2404899597168,12.3242254257202,57.9033660888672,-9.56950759887695,1.28199660778046,1.7376663684845,6.26466608047485,79.4986877441406,198.851348876953,256.095794677734,34.3561210632324,1.19418251514435,0.61678558588028,0.721177935600281,1.64528834819794,0.00198763608932495,11.486400604248,12.9998645782471,29.1649360656738,2012-01-18 10:36:26
1.1710000038147,43,-1.56404662132263,1.75508797168732,2.32150411605835,6.87925052642822,56.3249626159668,120.157241821289,81.6948318481445,74.8111190795898,-9.23353099822998,1.35679697990417,1.74818563461304,4.04467296600342,66.8925628662109,111.769195556641,259.584197998047,195.912612915039,-0.972226679325104,1.55209195613861,1.94019627571106,4.45085048675537,4.76222372055054,86.7012176513672,107.018348693848,320.81201171875,2012-01-18 10:36:27
1,48,-1.93599617481232,1.42506289482117,1.80918717384338,4.94663763046265,33.69384765625,104.046096801758,247.153930664062,187.74250793457,-9.12018394470215,1.86162900924683,2.44341921806335,7.35498762130737,121.411003112793,175.631454467773,513.709289550781,174.956253051758,-2.16808676719666,2.53610849380493,3.56827545166016,12.63014793396,95.2484893798828,302.670227050781,1472.62292480469,1562.50817871094,2012-01-18 10:36:28
1,42,-3.23782896995544,2.29685735702515,3.0923011302948,8.85703945159912,0.530882835388184,119.873802185059,1124.62341308594,397.229949951172,-9.2486047744751,2.25128221511841,2.8306713104248,6.73623466491699,2.2796368598938,87.8579940795898,285.170928955078,82.3177719116211,-1.24381005764008,2.72227931022644,3.40771055221558,8.75897312164307,117.535835266113,249.073791503906,697.554138183594,979.950012207031,2012-01-18 10:36:29
1.01800012588501,40,-2.00398898124695,2.05616021156311,2.68849849700928,6.15220165252686,91.3724822998047,228.933609008789,848.603576660156,777.939331054688,-9.98292446136475,1.60309302806854,1.82450008392334,3.53995537757874,17.114616394043,92.0673522949219,65.1296691894531,112.191780090332,0.280470192432404,1.81668186187744,2.31958746910095,6.33117341995239,113.27661895752,142.686279296875,346.936706542969,261.071807861328,2012-01-18 10:36:30
1.00699996948242,48,-1.46078217029572,1.52335059642792,2.17695188522339,7.15844535827637,88.4895248413086,628.005493164062,1218.60363769531,603.670593261719,-9.01680564880371,2.14442157745361,2.82557129859924,5.91872215270996,250.869644165039,979.813232421875,910.423767089844,363.790771484375,-0.757155120372772,2.02648639678955,3.06957674026489,10.2949390411377,1293.56140136719,2320.037109375,1517.01257324219,774.577514648438,2012-01-18 10:36:31
1.01300001144409,34,-2.56415057182312,1.38219463825226,1.58417212963104,3.96650147438049,21.4943046569824,45.1649703979492,77.0832748413086,17.094352722168,-9.89029502868652,2.30144071578979,2.88148880004883,6.47700357437134,157.043685913086,330.015045166016,594.110717773438,146.550308227539,-0.709251523017883,2.283846616745,3.15714979171753,9.21507835388184,86.9538803100586,101.406509399414,40.9145050048828,30.8540096282959,2012-01-18 10:36:32
1,42,-1.45885586738586,1.92468285560608,2.81150722503662,8.05873107910156,163.362777709961,139.236740112305,290.358612060547,71.6710586547852,-10.1349391937256,2.19270896911621,2.66502237319946,6.60454511642456,20.4729137420654,209.284393310547,636.390014648438,135.426696777344,-0.468150764703751,1.42392110824585,1.84105014801025,4.72937393188477,82.204216003418,57.2274971008301,69.7436599731445,17.5291957855225,2012-01-18 10:36:33
