"diffSecs","N.samples","x.mean","x.absolute.deviation","x.standard.deviation","x.max.deviation","x.PSD.1","x.PSD.3","x.PSD.6","x.PSD.10","y.mean","y.absolute.deviation","y.standard.deviation","y.max.deviation","y.PSD.1","y.PSD.3","y.PSD.6","y.PSD.10","z.mean","z.absolute.deviation","z.standard.deviation","z.max.deviation","z.PSD.1","z.PSD.3","z.PSD.6","z.PSD.10","time"
1.01300001144409,43,1.91092836856842,0.0675380676984787,0.08695999532938,0.194764569401741,0.0128062022849917,0.0496078170835972,0.122028566896915,0.615485489368439,-0.934824585914612,0.0624040178954601,0.0741659700870514,0.143906831741333,0.352963536977768,0.534389972686768,0.131580233573914,0.476707339286804,9.19909381866455,0.018818149343133,0.0239239875227213,0.0592962764203548,0.00987895019352436,0.03410429880023,0.053584486246109,0.00612810114398599,2012-01-23 11:56:16
1.00999999046326,41,1.92616951465607,0.0482923500239849,0.0594338811933994,0.131552562117577,0.0373544581234455,0.187192648649216,0.148851945996284,0.0868355929851532,-0.947657227516174,0.0446403734385967,0.0527328997850418,0.121267564594746,0.00223003607243299,0.0176914948970079,0.0279004517942667,0.0948727130889893,9.23547267913818,0.0473008863627911,0.0532213300466537,0.100458562374115,0.0633336082100868,0.0738681480288506,0.0440831854939461,0.218532040715218,2012-01-23 11:56:17
