"diffSecs","level","azimuth.mean","azimuth.absolute.deviation","azimuth.standard.deviation","azimuth.max.deviation","pitch.mean","pitch.absolute.deviation","pitch.standard.deviation","pitch.max.deviation","roll.mean","roll.absolute.deviation","roll.standard.deviation","roll.max.deviation","time"
0.897000074386597,29,24.1793098449707,0.254459142684937,0.298709124326706,0.520690023899078,30.0206909179688,0.30535089969635,0.329450368881226,0.620690643787384,-6.46206903457642,0.0875148102641106,0.106394790112972,0.237931251525879,2012-01-17 17:16:00
3.19400000572205,6,24.283332824707,0.122222267091274,0.157232940196991,0.283333778381348,30.3500003814697,0.166666448116302,0.189296826720238,0.35000005364418,-6.30000019073486,0.0333333015441895,0.0577349700033665,0.0999999046325684,2012-01-17 17:16:04
0.165999889373779,99,25.1989898681641,0.64742374420166,0.768508315086365,1.70100927352905,29.59494972229,0.713192641735077,0.870779752731323,2.09494996070862,-7.09292936325073,0.797041118144989,0.896598815917969,1.70707082748413,2012-01-17 17:16:04
1.0090000629425,94,27.756383895874,1.11050248146057,1.37295758724213,4.15638303756714,24.4872341156006,2.42476224899292,2.7452175617218,5.58723497390747,-11.2191486358643,4.54228162765503,5.50449085235596,14.2808513641357,2012-01-17 17:16:05
1.00100016593933,45,29.0222225189209,3.86271643638611,4.30151891708374,6.1777777671814,11.7888889312744,2.66567897796631,3.2585084438324,6.71111106872559,-21.9288883209229,5.86182689666748,6.89610576629639,15.1288890838623,2012-01-17 17:16:06
1.00999999046326,30,34.5066680908203,1.21155560016632,1.34979820251465,2.40666484832764,-3.70000004768372,6.78000020980835,7.43971347808838,11.8000001907349,-17.1066665649414,6.38622236251831,7.26406383514404,11.006667137146,2012-01-17 17:16:07
1.0019998550415,49,34.1285705566406,4.31603479385376,4.69854497909546,7.52857160568237,-4.86326551437378,3.37817573547363,4.00707006454468,7.66326522827148,-20.0306129455566,9.36593151092529,10.2588577270508,14.7306127548218,2012-01-17 17:16:08
1.00800013542175,47,29.4106388092041,0.943684875965118,1.11091935634613,1.8106381893158,1.73617029190063,5.63847923278809,6.32598257064819,9.86383056640625,-26.5021286010742,3.50411939620972,3.94809341430664,6.40212774276733,2012-01-17 17:16:09
1,44,32.8227272033691,3.14690089225769,3.37328171730042,5.22272729873657,-4.29090929031372,3.69628095626831,4.0992693901062,7.09090900421143,-19.4886360168457,8.93460750579834,9.72754383087158,13.3886365890503,2012-01-17 17:16:10
1.00799989700317,40,34.4099998474121,1.74699997901917,2.09413480758667,3.4900004863739,-7.66249990463257,3.8831250667572,4.4328145980835,9.66250038146973,-19.4174995422363,5.22075033187866,6.22590923309326,13.5174999237061,2012-01-17 17:16:11
1.00600004196167,49,35.4918365478516,1.75726783275604,1.99702203273773,3.6918363571167,-7.86122465133667,5.61482715606689,6.48885440826416,11.8612241744995,-19.2183685302734,6.83765077590942,8.21274948120117,15.1183681488037,2012-01-17 17:16:12
1.0090000629425,45,36.5844459533691,1.82004940509796,2.1216299533844,3.88444471359253,-6.55111122131348,5.92345714569092,6.56183004379272,9.55111122131348,-17.4044456481934,6.78232097625732,7.64681386947632,11.1955556869507,2012-01-17 17:16:13
1.00299978256226,23,35.4521751403809,1.24990546703339,1.36154317855835,2.15217566490173,-9.79565238952637,3.36143660545349,3.92156553268433,8.9956521987915,-14.6478261947632,6.5281662940979,7.2960901260376,11.8521738052368,2012-01-17 17:16:14
1.00400018692017,52,44.7442321777344,3.15843176841736,4.25478982925415,10.6442289352417,-21.7961540222168,7.18920135498047,8.960618019104,20.5961532592773,1.74615383148193,8.70295906066895,10.0412893295288,19.8538455963135,2012-01-17 17:16:15
1.01099991798401,46,45.0934791564941,1.31436669826508,1.56224489212036,2.9934766292572,-8.2456521987915,4.32069969177246,5.16731834411621,11.2456521987915,19.7891311645508,4.06786394119263,4.57598781585693,8.0108699798584,2012-01-17 17:16:16
1.00200009346008,28,37.3785705566406,1.40306103229523,1.89931499958038,4.12142753601074,12.0500001907349,2.53214287757874,3.09752202033997,8.35000038146973,27.3035717010498,2.4954080581665,3.91138291358948,13.4035711288452,2012-01-17 17:16:17
1.01899981498718,49,30.6448993682861,2.5635986328125,2.97143292427063,5.84489727020264,4.91224479675293,4.3288631439209,4.77149868011475,8.31224536895752,-12.3040819168091,12.1917533874512,13.8171138763428,25.1040821075439,2012-01-17 17:16:18
1.02000021934509,49,22.7428569793701,0.934110760688782,1.01940357685089,1.95714330673218,-4.48163270950317,0.2807996571064,0.397786468267441,1.18163275718689,-34.0469398498535,1.08488130569458,1.22842228412628,2.15306115150452,2012-01-17 17:16:19
1.24899983406067,41,18.809757232666,1.6246280670166,1.91079151630402,3.70975613594055,-6.60243892669678,0.417251646518707,0.503881454467773,1.20243895053864,-39.2756118774414,1.79452693462372,2.04793524742126,3.22438955307007,2012-01-17 17:16:20
1.00100016593933,50,15.53600025177,0.531040132045746,0.64428585767746,1.43599987030029,-7.31799983978271,0.298000007867813,0.34099268913269,0.718000173568726,-42.8400001525879,0.441600143909454,0.487852543592453,0.859999895095825,2012-01-17 17:16:21
1.00999999046326,48,16.3020839691162,0.227256715297699,0.269636750221252,0.597915947437286,-6.66041660308838,0.112066105008125,0.136533915996552,0.260416656732559,-42.1791687011719,0.142534300684929,0.176727473735809,0.420834690332413,2012-01-17 17:16:22
1.12899994850159,42,16.0261898040771,0.930725693702698,1.07594037055969,2.52619075775146,-7.03809547424316,0.149433091282845,0.186384603381157,0.461904674768448,-42.3380966186523,0.531065940856934,0.602752685546875,1.1619039773941,2012-01-17 17:16:23
1.0239999294281,48,14.1916666030884,0.290277779102325,0.354044109582901,0.708333671092987,-6.77291679382324,0.127083331346512,0.160389617085457,0.427083492279053,-43.6458358764648,0.162152394652367,0.193604171276093,0.454168081283569,2012-01-17 17:16:24
1.00600004196167,47,16.1340427398682,1.62209153175354,1.84636247158051,3.66595816612244,-8.64893627166748,2.5454957485199,2.98006653785706,7.25106430053711,-41.4085121154785,1.70620214939117,1.95304787158966,4.10851240158081,2012-01-17 17:16:25
1.01699995994568,48,21.1208343505859,0.30659744143486,0.425714373588562,1.12083375453949,-23.2354164123535,2.25303816795349,2.72285771369934,6.73541688919067,-32.4770851135254,1.6482640504837,1.96248590946198,4.52291584014893,2012-01-17 17:16:26
1.02099990844727,33,22.8909091949463,0.773553669452667,0.844362258911133,1.40909159183502,-28.7515163421631,1.00091826915741,1.13033151626587,2.0515148639679,-27.8969707489014,0.936088144779205,1.01219367980957,1.7030303478241,2012-01-17 17:16:27
1.06300020217896,47,23.2063827514648,0.395925849676132,0.46967825293541,1.09361779689789,-27.1574478149414,0.551109254360199,0.687500834465027,1.64255392551422,-28.8531913757324,0.617473781108856,0.72957307100296,1.5531907081604,2012-01-17 17:16:28
1.09599995613098,48,22.622917175293,0.211371660232544,0.264763712882996,0.677083969116211,-26.5625,0.0901043564081192,0.11479164659977,0.262499213218689,-29.9624996185303,0.157291620969772,0.187777578830719,0.362500071525574,2012-01-17 17:16:29
1.01399993896484,38,22.5578956604004,0.308310359716415,0.366082906723022,0.742106139659882,-26.3157901763916,0.187811180949211,0.238995775580406,0.515788674354553,-30.2394733428955,0.111080422997475,0.126780897378922,0.260525763034821,2012-01-17 17:16:30
1.00799989700317,46,22.1673908233643,0.136862173676491,0.166882365942001,0.367390602827072,-26.4782600402832,0.077693909406662,0.095355398952961,0.221739858388901,-30.215217590332,0.125897973775864,0.150314763188362,0.315218210220337,2012-01-17 17:16:32
1,49,22.3244895935059,0.196334466338158,0.26071360707283,0.675509870052338,-26.4959182739258,0.0750521346926689,0.100932843983173,0.204082250595093,-30.240816116333,0.111037135124207,0.133887484669685,0.25918310880661,2012-01-17 17:16:33
1.01600003242493,32,22.3812503814697,0.165233939886093,0.219996258616447,0.618749439716339,-26.3875007629395,0.116405829787254,0.14947809278965,0.312500536441803,-30.3187503814697,0.0898431539535522,0.107346884906292,0.21875,2012-01-17 17:16:34
1.00800013542175,50,22.5839996337891,0.233919933438301,0.273758828639984,0.516000032424927,-26.3360004425049,0.139999583363533,0.169422402977943,0.36400043964386,-30.4300003051758,0.146399959921837,0.182482853531837,0.530000627040863,2012-01-17 17:16:35
1.03600001335144,43,22.3999996185303,0.576744258403778,0.637947380542755,0.999999046325684,-26.1651172637939,0.18215249478817,0.260485738515854,0.865115761756897,-30.0186061859131,0.233856320381165,0.259028524160385,0.518605291843414,2012-01-17 17:16:36
1.26699995994568,44,23.7090911865234,0.495867788791656,0.622976005077362,1.109090924263,-24.9704551696777,1.21962809562683,1.43757688999176,2.92954468727112,-29.259090423584,0.998140454292297,1.07159984111786,1.7409086227417,2012-01-17 17:16:37
1.00499987602234,51,21.2803916931152,0.553325593471527,0.660665035247803,1.6196072101593,-29.0411758422852,0.293425768613815,0.414055347442627,1.1411771774292,-28.380392074585,0.418300718069077,0.487096130847931,1.28039216995239,2012-01-17 17:16:38
1.01600003242493,44,21.1431827545166,0.208677858114243,0.246242463588715,0.643182456493378,-28.3681812286377,0.111569844186306,0.13943487405777,0.36818191409111,-28.9227275848389,0.100619852542877,0.127677783370018,0.277273297309875,2012-01-17 17:16:39
1.0090000629425,35,21.3885726928711,0.386285752058029,0.459049731492996,0.911429166793823,-28.1599998474121,0.16114304959774,0.187006548047066,0.359999150037766,-28.9742851257324,0.0808164477348328,0.0966374129056931,0.225714981555939,2012-01-17 17:16:40
1,48,20.8020839691162,0.310850769281387,0.357939630746841,0.602083206176758,-28.2708339691162,0.117361061275005,0.151325106620789,0.370834141969681,-29.2458343505859,0.192361146211624,0.232700005173683,0.445832580327988,2012-01-17 17:16:41
1.01699995994568,46,20.7108707427979,0.133554026484489,0.160472601652145,0.310870409011841,-27.8173923492432,0.177693530917168,0.217999204993248,0.482609361410141,-29.8673915863037,0.144045010209084,0.18184357881546,0.467391937971115,2012-01-17 17:16:42
1.16799998283386,36,20.627779006958,0.149074330925941,0.19945926964283,0.572222471237183,-27.6472225189209,0.0714508220553398,0.0865581557154655,0.252776890993118,-30.0777778625488,0.0969139486551285,0.115737475454807,0.222223073244095,2012-01-17 17:16:43
1.00699996948242,53,20.8283023834229,0.346884727478027,0.409498989582062,0.77169805765152,-27.1377353668213,0.149804443120956,0.18856617808342,0.462264209985733,-30.4169807434082,0.172659397125244,0.21167428791523,0.416981428861618,2012-01-17 17:16:44
1.01400017738342,48,20.3583335876465,0.273611098527908,0.314797252416611,0.658332943916321,-26.966667175293,0.218055620789528,0.259272694587708,0.566667497158051,-30.7416667938232,0.136805519461632,0.171796083450317,0.358333319425583,2012-01-17 17:16:45
1.00599980354309,45,20.3555564880371,0.162468820810318,0.193856194615364,0.455556184053421,-26.8822231292725,0.114666186273098,0.141874343156815,0.382222533226013,-30.864444732666,0.122369885444641,0.146295592188835,0.33555594086647,2012-01-17 17:16:46
1.01800012588501,20,20.2749996185303,0.115000039339066,0.147901937365532,0.375000774860382,-26.9549999237061,0.069500058889389,0.0804673209786415,0.154998868703842,-31.0249996185303,0.0825003162026405,0.104283668100834,0.275001049041748,2012-01-17 17:16:47
1.01699995994568,47,20.3787231445312,0.390765011310577,0.470823794603348,1.02127575874329,-26.9063835144043,0.164237156510353,0.195049598813057,0.406383365392685,-31.0851058959961,0.139882549643517,0.167559206485748,0.414893239736557,2012-01-17 17:16:48
1,47,20.1276607513428,0.199185311794281,0.236735001206398,0.52765965461731,-26.8702125549316,0.108283758163452,0.127019345760345,0.270212769508362,-31.1255321502686,0.0942511484026909,0.110064394772053,0.22553277015686,2012-01-17 17:16:49
1.00699996948242,29,20.0965518951416,0.162663638591766,0.192053779959679,0.39655140042305,-26.6965522766113,0.163139209151268,0.200830534100533,0.496551513671875,-31.168966293335,0.0894175842404366,0.108607143163681,0.231033593416214,2012-01-17 17:16:50
1.02900004386902,49,20.1632652282715,0.304956346750259,0.356681913137436,0.736733973026276,-26.4795913696289,0.198000907897949,0.229444473981857,0.4795922935009,-31.3244895935059,0.103539638221264,0.1254061460495,0.324490129947662,2012-01-17 17:16:51
1.0090000629425,45,20.0355567932129,0.147456929087639,0.182763427495956,0.435555577278137,-26.6733341217041,0.0808891654014587,0.0997778177261353,0.273334324359894,-31.4311103820801,0.0728889629244804,0.0938608571887016,0.331110715866089,2012-01-17 17:16:52
1.01099991798401,35,20.1057147979736,0.127837002277374,0.170617401599884,0.494285851716995,-26.6457138061523,0.115592166781425,0.133829310536385,0.254284888505936,-31.4599990844727,0.075428694486618,0.0900793820619583,0.240000754594803,2012-01-17 17:16:53
1.01200008392334,46,20.1326084136963,0.302079498767853,0.368341952562332,0.767390429973602,-26.6847839355469,0.101796165108681,0.121525749564171,0.284783601760864,-31.4173908233643,0.103969790041447,0.147889867424965,0.482608079910278,2012-01-17 17:16:54
1.02099990844727,45,19.831111907959,0.258765250444412,0.318204820156097,0.7311110496521,-26.5533332824707,0.234074145555496,0.266333043575287,0.453333377838135,-31.4088897705078,0.0696295872330666,0.0938606709241867,0.291111767292023,2012-01-17 17:16:55
1.00699996948242,49,19.9224491119385,0.242898717522621,0.300520032644272,0.677551031112671,-26.5428581237793,0.123032316565514,0.149829998612404,0.342856764793396,-31.5,0.106122627854347,0.135526210069656,0.300000846385956,2012-01-17 17:16:56
1.00699996948242,23,20.3260879516602,0.300567030906677,0.377885907888412,0.926087498664856,-24.9391307830811,0.793572843074799,1.02139687538147,1.86087024211884,-32.0434799194336,0.325898081064224,0.40628319978714,0.743477642536163,2012-01-17 17:16:57
1.01400017738342,48,20.7583332061768,0.320486009120941,0.383966773748398,0.741666436195374,-23.5666675567627,0.516666650772095,0.627605676651001,1.43333303928375,-32.6187515258789,0.344531148672104,0.435247242450714,1.01875066757202,2012-01-17 17:16:58
1.01099991798401,47,20.3680858612061,0.189678430557251,0.229807019233704,0.468085676431656,-27.2659587860107,0.867541790008545,0.986132860183716,2.06595730781555,-30.4617023468018,0.522951602935791,0.58439040184021,1.2382984161377,2012-01-17 17:16:59
1.00799989700317,28,19.9321441650391,0.134438723325729,0.162686228752136,0.33214282989502,-27.5892868041992,0.239285871386528,0.288269877433777,0.610714495182037,-30.8714294433594,0.23367340862751,0.253345042467117,0.428572028875351,2012-01-17 17:17:00
1.00200009346008,47,19.7000007629395,0.319149106740952,0.382600367069244,0.799999594688416,-26.840425491333,0.105114884674549,0.126590967178345,0.259574472904205,-31.5702133178711,0.0985064059495926,0.121891207993031,0.329786598682404,2012-01-17 17:17:01
1.00600004196167,49,19.4938774108887,0.18025815486908,0.254276126623154,0.706122934818268,-26.710205078125,0.13044573366642,0.156811252236366,0.38979583978653,-31.8102054595947,0.130861788988113,0.164434522390366,0.410204946994781,2012-01-17 17:17:02
1.0090000629425,32,19.53125,0.118359535932541,0.160929918289185,0.468749821186066,-26.6937503814697,0.0890627056360245,0.111628666520119,0.206249058246613,-31.9468746185303,0.109375357627869,0.13459312915802,0.253125309944153,2012-01-17 17:17:03
1.03099989891052,44,19.4454555511475,0.301239609718323,0.395689576864243,1.05454504489899,-26.7840919494629,0.114979207515717,0.142928898334503,0.384091645479202,-31.9136371612549,0.131611689925194,0.165955692529678,0.386362373828888,2012-01-17 17:17:04
1.00500011444092,50,19.4220008850098,0.193119913339615,0.222970813512802,0.522000789642334,-26.5659999847412,0.175600066781044,0.223257720470428,0.566000521183014,-31.8640003204346,0.112319625914097,0.138217240571976,0.364000469446182,2012-01-17 17:17:05
1.51599979400635,43,19.4279079437256,0.160086572170258,0.199214294552803,0.427907317876816,-26.5953483581543,0.0937806665897369,0.125667661428452,0.304650545120239,-31.8813953399658,0.0820978879928589,0.0994302928447723,0.218606501817703,2012-01-17 17:17:07
1.01700019836426,45,19.7711124420166,0.257382839918137,0.311713814735413,0.628888010978699,-26.466667175293,0.165926054120064,0.192064881324768,0.366666674613953,-31.9888896942139,0.110124044120312,0.136987462639809,0.411111921072006,2012-01-17 17:17:08
1.00499987602234,48,19.6020832061768,0.20625014603138,0.248738154768944,0.602083802223206,-26.3520832061768,0.0959195494651794,0.113632045686245,0.247916623950005,-31.9770832061768,0.0888890698552132,0.112249277532101,0.277083188295364,2012-01-17 17:17:09
1.13000011444092,32,19.46875,0.131250143051147,0.162860155105591,0.431249499320984,-26.3656253814697,0.0990228652954102,0.116214342415333,0.234375,-31.9781265258789,0.123242378234863,0.147339716553688,0.321873605251312,2012-01-17 17:17:10
1.00899982452393,49,19.5387763977051,0.288296490907669,0.351565688848495,0.861223578453064,-26.2551021575928,0.10112451761961,0.126266911625862,0.344897747039795,-32.0959205627441,0.0672226846218109,0.0988902300596237,0.204079687595367,2012-01-17 17:17:11
1.01900005340576,48,19.5437507629395,0.129427373409271,0.157990500330925,0.356249332427979,-26.09375,0.107812732458115,0.137547522783279,0.306249171495438,-32.1791687011719,0.0993051156401634,0.120689399540424,0.220834016799927,2012-01-17 17:17:12
1.00399994850159,37,19.535135269165,0.17311917245388,0.20029191672802,0.364864081144333,-26.1810817718506,0.0991966128349304,0.131185442209244,0.38108041882515,-32.2432441711426,0.11701924353838,0.138603910803795,0.356758117675781,2012-01-17 17:17:13
1.00100016593933,49,19.5836734771729,0.30645552277565,0.346025049686432,0.71632719039917,-26.0244903564453,0.105539560317993,0.128620088100433,0.275511026382446,-32.308162689209,0.0793842524290085,0.0986373797059059,0.308163791894913,2012-01-17 17:17:14
1.01300001144409,45,19.4088897705078,0.136296391487122,0.184778839349747,0.508889555931091,-25.9377784729004,0.154666602611542,0.190074697136879,0.4377780854702,-32.2866668701172,0.0942218154668808,0.112743325531483,0.213332787156105,2012-01-17 17:17:15
1.01699995994568,48,19.34375,0.191145569086075,0.243161633610725,0.743749797344208,-25.9250011444092,0.17812505364418,0.212622568011284,0.425000429153442,-32.375,0.100000724196434,0.126656115055084,0.274998515844345,2012-01-17 17:17:16
1.0019998550415,30,19.593334197998,0.319110989570618,0.367816120386124,0.80666583776474,-25.9033336639404,0.177333295345306,0.204096883535385,0.396667301654816,-32.4900016784668,0.106000050902367,0.132539644837379,0.290000289678574,2012-01-17 17:17:17
1.01300001144409,49,19.5285720825195,0.26005831360817,0.294160723686218,0.471428215503693,-26.0020408630371,0.108704946935177,0.143555253744125,0.40204069018364,-32.3102035522461,0.113286443054676,0.134384214878082,0.310204863548279,2012-01-17 17:17:18
1.0090000629425,48,19.4500007629395,0.168749913573265,0.212131902575493,0.54999965429306,-25.9833335876465,0.125694558024406,0.15320648252964,0.416666060686111,-32.3333358764648,0.112500347197056,0.134370818734169,0.266668170690536,2012-01-17 17:17:19
1,41,19.558536529541,0.235574126243591,0.292153924703598,0.541463494300842,-25.7804870605469,0.223676279187202,0.281302988529205,0.68048757314682,-32.3487815856934,0.118144452571869,0.138144612312317,0.251221269369125,2012-01-17 17:17:20
1.02099990844727,49,19.3673477172852,0.294793754816055,0.346638530492783,0.732652962207794,-25.8979587554932,0.084380991756916,0.111556030809879,0.29795902967453,-32.2755126953125,0.0952931120991707,0.122108303010464,0.32449147105217,2012-01-17 17:17:21
1.01100015640259,46,19.4608707427979,0.126842975616455,0.149605542421341,0.33913117647171,-26.0282611846924,0.0773159042000771,0.0970501974225044,0.32826030254364,-32.4717407226562,0.131947264075279,0.159705206751823,0.371737509965897,2012-01-17 17:17:22
1.00300002098083,41,19.4682922363281,0.341582506895065,0.417565137147903,0.831708133220673,-25.9512195587158,0.110886253416538,0.127110183238983,0.251219063997269,-32.4073181152344,0.120047464966774,0.147152230143547,0.307315349578857,2012-01-17 17:17:23
1.00600004196167,48,19.497917175293,0.231683954596519,0.27725550532341,0.502082943916321,-25.9520835876465,0.0854167565703392,0.102040760219097,0.252082616090775,-32.3812522888184,0.110156647861004,0.130154311656952,0.281248331069946,2012-01-17 17:17:24
1.01399993896484,48,19.3500003814697,0.210416242480278,0.275378286838531,0.649999618530273,-25.8208332061768,0.198958098888397,0.247452273964882,0.72083306312561,-32.3916664123535,0.0947921052575111,0.12388414144516,0.291665226221085,2012-01-17 17:17:25
1.00399994850159,33,19.3969707489014,0.149310976266861,0.191461428999901,0.403031140565872,-25.8333339691162,0.0909084901213646,0.111915923655033,0.266666650772095,-32.4333343505859,0.0848481133580208,0.111916221678257,0.333332061767578,2012-01-17 17:17:26
1,48,19.5500011444092,0.406250149011612,0.473902374505997,0.849999368190765,-25.8833332061768,0.127777338027954,0.15046201646328,0.316667079925537,-32.4104156494141,0.107117868959904,0.138803899288177,0.410417318344116,2012-01-17 17:17:27
1.01300001144409,48,19.3999996185303,0.195833340287209,0.257390677928925,0.599999725818634,-25.8666667938232,0.119443945586681,0.140435561537743,0.333333611488342,-32.4791679382324,0.0967011675238609,0.122403621673584,0.320831775665283,2012-01-17 17:17:28
1.41199994087219,47,19.5127658843994,0.21303778886795,0.25898090004921,0.512766182422638,-25.8276596069336,0.121593087911606,0.149754390120506,0.372340589761734,-32.4595756530762,0.0966049432754517,0.112344235181808,0.240425512194633,2012-01-17 17:17:30
1,53,19.6433963775635,0.190388172864914,0.216759547591209,0.443395674228668,-25.6264152526855,0.165539532899857,0.209357514977455,0.626415550708771,-32.4773597717285,0.107440464198589,0.134082153439522,0.377357125282288,2012-01-17 17:17:31
1.05800008773804,46,19.4108695983887,0.179867714643478,0.226723626255989,0.58912992477417,-25.7739143371582,0.100189007818699,0.125861719250679,0.273913592100143,-32.4369583129883,0.106521606445312,0.13409723341465,0.336955040693283,2012-01-17 17:17:32
1.11199998855591,43,19.374418258667,0.132070958614349,0.158617421984673,0.374418914318085,-25.804651260376,0.0992964580655098,0.131101533770561,0.304651707410812,-32.5139541625977,0.124500006437302,0.151858910918236,0.313953399658203,2012-01-17 17:17:33
1.0019998550415,49,19.7142868041992,0.239067137241364,0.284999161958694,0.614285707473755,-25.7857151031494,0.0962098464369774,0.119522623717785,0.285714745521545,-32.5040817260742,0.0827162191271782,0.106826916337013,0.304081976413727,2012-01-17 17:17:34
1.01300001144409,47,19.3872337341309,0.139700874686241,0.17211689054966,0.412766844034195,-25.8425540924072,0.0902664810419083,0.110597014427185,0.257446825504303,-32.427661895752,0.0785874575376511,0.0938588455319405,0.227659434080124,2012-01-17 17:17:35
1.03600001335144,42,19.3095245361328,0.248979479074478,0.287691563367844,0.609523475170135,-25.6214294433594,0.199319913983345,0.231491804122925,0.478571176528931,-32.4523811340332,0.116326570510864,0.143490880727768,0.352379381656647,2012-01-17 17:17:36
1.0090000629425,49,19.624490737915,0.315785229206085,0.382009029388428,0.775509357452393,-25.8142852783203,0.146355301141739,0.167818948626518,0.314286053180695,-32.5204086303711,0.112286932766438,0.129330530762672,0.279589891433716,2012-01-17 17:17:37
1.05999994277954,41,19.4439029693604,0.154431864619255,0.180849969387054,0.356098264455795,-25.9609756469727,0.130755543708801,0.157539084553719,0.339025229215622,-32.426830291748,0.0899465158581734,0.108255825936794,0.226829245686531,2012-01-17 17:17:38
1.00699996948242,44,19.379545211792,0.156817823648453,0.185349136590958,0.420455187559128,-25.9022731781006,0.0894627347588539,0.11963677406311,0.297727763652802,-32.4113655090332,0.0917356833815575,0.115239195525646,0.311361998319626,2012-01-17 17:17:39
1.01100015640259,49,19.5387763977051,0.224823117256165,0.285583108663559,0.761225283145905,-25.8918361663818,0.140274494886398,0.177092924714088,0.40816405415535,-32.4857139587402,0.109037943184376,0.149830088019371,0.414286553859711,2012-01-17 17:17:40
1.01900005340576,48,19.2312507629395,0.23098948597908,0.290943950414658,0.76874965429306,-25.7000007629395,0.13333348929882,0.168325066566467,0.399999260902405,-32.3937492370605,0.136458829045296,0.165083914995193,0.306249856948853,2012-01-17 17:17:41
1,42,19.5309524536133,0.173469454050064,0.212118580937386,0.569047629833221,-26.0023803710938,0.0607711635529995,0.093829020857811,0.297620087862015,-32.4333343505859,0.0968255400657654,0.112687796354294,0.233333230018616,2012-01-17 17:17:42
1.00300002098083,47,19.7106380462646,0.257220387458801,0.296241641044617,0.61063826084137,-25.8893623352051,0.0736073926091194,0.0950562506914139,0.210638448596001,-32.4659576416016,0.107197768986225,0.134127169847488,0.334040939807892,2012-01-17 17:17:43
1.00699996948242,44,19.4477272033691,0.188842922449112,0.249989598989487,0.64772641658783,-25.9090919494629,0.0714875459671021,0.0924860090017319,0.209090322256088,-32.3113632202148,0.140702590346336,0.172173053026199,0.411364555358887,2012-01-17 17:17:44
1.01399993896484,48,19.564582824707,0.15868079662323,0.213590070605278,0.735417604446411,-25.8979167938232,0.111284360289574,0.160064503550529,0.497917205095291,-32.34375,0.121094115078449,0.153983443975449,0.45624852180481,2012-01-17 17:17:45
1.01900005340576,42,19.5404758453369,0.20147393643856,0.242073759436607,0.459523439407349,-25.6142864227295,0.203401416540146,0.229462414979935,0.414285391569138,-32.2571449279785,0.100679501891136,0.127508386969566,0.357143551111221,2012-01-17 17:17:46
1.01899981498718,49,19.6224498748779,0.15718474984169,0.196152225136757,0.577551543712616,-25.9285717010498,0.118367329239845,0.151185721158981,0.428571701049805,-32.1795921325684,0.104122489690781,0.127742230892181,0.37959161400795,2012-01-17 17:17:47
1.00200009346008,44,19.6727275848389,0.190496057271957,0.248964965343475,0.627273499965668,-25.9295463562012,0.104958564043045,0.123545028269291,0.270455002784729,-32.2545471191406,0.109090454876423,0.13047893345356,0.345456033945084,2012-01-17 17:17:48
1.01800012588501,42,19.6333332061768,0.185714527964592,0.226428642868996,0.566667139530182,-25.9880962371826,0.0693877637386322,0.0905074775218964,0.188094228506088,-32.1761932373047,0.0975051373243332,0.121124565601349,0.27619194984436,2012-01-17 17:17:49
1.02499985694885,49,19.5326538085938,0.168013542890549,0.206415325403214,0.532653450965881,-26.0102043151855,0.0863809213042259,0.11994044482708,0.410203844308853,-32.2653045654297,0.0778004229068756,0.0980440378189087,0.265306353569031,2012-01-17 17:17:50
1.00099992752075,47,19.6319160461426,0.174196630716324,0.223231971263885,0.568085432052612,-25.9446811676025,0.103757299482822,0.128507688641548,0.344680666923523,-32.2319145202637,0.160253345966339,0.18577778339386,0.331915885210037,2012-01-17 17:17:51
1.01900005340576,39,19.7153854370117,0.201577961444855,0.273194372653961,0.584616005420685,-25.9743595123291,0.133990898728371,0.158061951398849,0.325641870498657,-32.3051300048828,0.0934915021061897,0.115355908870697,0.205126538872719,2012-01-17 17:17:52
1.00500011444092,46,19.5043487548828,0.201512426137924,0.266177862882614,0.695652604103088,-25.9673919677734,0.0992440208792686,0.121680960059166,0.267390638589859,-32.278263092041,0.131001710891724,0.147313445806503,0.321740448474884,2012-01-17 17:17:53
1.00099992752075,49,19.5632648468018,0.117201447486877,0.15077218413353,0.436734527349472,-25.9551029205322,0.0933779031038284,0.112596891820431,0.255101352930069,-32.2938766479492,0.113618835806847,0.136139079928398,0.29387828707695,2012-01-17 17:17:54
1.01699995994568,36,19.7138900756836,0.280555456876755,0.335950285196304,0.713889181613922,-25.7722225189209,0.0919751897454262,0.109572432935238,0.272222727537155,-32.1944465637207,0.107407040894032,0.131115615367889,0.294445186853409,2012-01-17 17:17:55
1.01399993896484,49,19.6714286804199,0.278717339038849,0.335638284683228,0.828571140766144,-25.8897953033447,0.0917113274335861,0.118226230144501,0.210204303264618,-32.2122459411621,0.0935439616441727,0.127187117934227,0.312245935201645,2012-01-17 17:17:56
1.00500011444092,47,19.5553188323975,0.191761255264282,0.230456277728081,0.555319666862488,-25.9446811676025,0.0990492627024651,0.116342142224312,0.255319684743881,-32.1893615722656,0.0854677557945251,0.103623136878014,0.21063905954361,2012-01-17 17:17:57
1.00099992752075,40,19.6599998474121,0.172000154852867,0.198494344949722,0.45999950170517,-25.9400005340576,0.116999991238117,0.144568249583244,0.339999854564667,-32.3150024414062,0.117250345647335,0.14585942029953,0.315000534057617,2012-01-17 17:17:58
1.01900005340576,43,19.5883731842041,0.224770158529282,0.257184356451035,0.611628293991089,-25.9837207794189,0.135208114981651,0.156903430819511,0.316279739141464,-32.2837219238281,0.105786547064781,0.129273772239685,0.316280722618103,2012-01-17 17:17:59
1.26200008392334,43,19.5581398010254,0.216874048113823,0.256299644708633,0.541860520839691,-25.8999996185303,0.0790697932243347,0.116139248013496,0.299999713897705,-32.36279296875,0.138669893145561,0.162857159972191,0.337209403514862,2012-01-17 17:18:00
