"diffSecs","N.samples","x.mean","x.absolute.deviation","x.standard.deviation","x.max.deviation","x.PSD.1","x.PSD.3","x.PSD.6","x.PSD.10","y.mean","y.absolute.deviation","y.standard.deviation","y.max.deviation","y.PSD.1","y.PSD.3","y.PSD.6","y.PSD.10","z.mean","z.absolute.deviation","z.standard.deviation","z.max.deviation","z.PSD.1","z.PSD.3","z.PSD.6","z.PSD.10","time"
7.14400005340576,22,-8.61647891998291,0.0243951696902514,0.0303771514445543,0.0624066255986691,0.00155362242367119,0.0033000553958118,0.00700702471658587,0.0027191957924515,1.69565892219543,0.0250434353947639,0.0318334177136421,0.0677550733089447,0.000250512995989993,0.000439220544649288,0.00119308428838849,0.00142410630360246,4.27881956100464,0.0518294498324394,0.0589429065585136,0.101186774671078,0.0148147074505687,0.0278985630720854,0.0393399521708488,0.022226182743907,2012-01-17 13:28:07
0.190999984741211,99,-8.55932235717773,0.0218725632876158,0.0276207160204649,0.0803351476788521,0.0183260049670935,0.0433999672532082,0.176530212163925,0.0752798765897751,1.70992314815521,0.0380919575691223,0.0443074256181717,0.0846938341856003,0.00291391997598112,0.854208290576935,0.591561794281006,0.116773098707199,4.35553932189941,0.0418701469898224,0.0540380142629147,0.135906189680099,0.720272898674011,0.913779199123383,0.599416434764862,0.53035569190979,2012-01-17 13:28:07
0.452999830245972,99,-8.57744979858398,0.0235535465180874,0.0317285768687725,0.08182193338871,0.0737480670213699,0.0793113112449646,0.169528380036354,0.217729955911636,1.71408355236053,0.0286004897207022,0.0350485667586327,0.0861796960234642,0.0126881711184978,0.410032391548157,0.0823449790477753,0.0747359097003937,4.36088848114014,0.0355185195803642,0.0412225797772408,0.0913305729627609,0.365703493356705,0.228216245770454,0.340448468923569,0.25852558016777,2012-01-17 13:28:07
0.894999980926514,99,-8.56001663208008,0.0168456770479679,0.0221387185156345,0.0772643834352493,9.22696781344712e-05,0.169339194893837,0.10073684155941,0.0781126841902733,1.72646570205688,0.0379538536071777,0.0489315763115883,0.146604478359222,0.147446945309639,0.866383671760559,0.65371173620224,0.146945744752884,4.33731269836426,0.0295731443911791,0.0355103835463524,0.0854862779378891,0.00352633488364518,0.262682974338531,0.247694209218025,0.0718480944633484,2012-01-17 13:28:08
1.11199998855591,42,-8.5595703125,0.0199245885014534,0.0236288085579872,0.0473987273871899,0.0179321132600307,0.0174129530787468,0.00657655205577612,0.00800745654851198,1.73437607288361,0.0292865205556154,0.0328452363610268,0.0672455802559853,0.00751294009387493,0.0310333594679832,0.0677261874079704,0.0547025986015797,4.36325883865356,0.0369917415082455,0.0521732345223427,0.128186777234077,0.0704979449510574,0.268419981002808,0.454592794179916,0.22919374704361,2012-01-17 13:28:09
1.01800012588501,49,-8.548996925354,0.019351864233613,0.0242271274328232,0.0564381740987301,0.00154245470184833,0.031862847507,0.11965299397707,0.0399044677615166,1.76879942417145,0.0303471218794584,0.0375231839716434,0.091862291097641,0.0785491466522217,0.258017838001251,0.0935486555099487,0.112566843628883,4.37456655502319,0.0240326095372438,0.0320592299103737,0.0988673195242882,0.0100184446200728,0.0631999522447586,0.0186060201376677,0.0157379545271397,2012-01-17 13:28:10
1.12100005149841,32,-8.5658016204834,0.0257232580333948,0.0302245188504457,0.0640495717525482,0.0196369234472513,0.0320442318916321,0.0193227361887693,0.00544354831799865,1.72627687454224,0.0382880680263042,0.0505711100995541,0.10817962884903,0.045536495745182,0.0813656523823738,0.0693573579192162,0.0222654268145561,4.33699083328247,0.0260489732027054,0.031396709382534,0.0809050798416138,0.00876277405768633,0.0181511230766773,0.0219610501080751,0.0027887208852917,2012-01-17 13:28:11
1.00499987602234,49,-8.5275821685791,0.0351094603538513,0.0449177958071232,0.112075805664062,0.314165949821472,0.421872764825821,0.161974921822548,0.0382047854363918,1.78901314735413,0.0224152021110058,0.0317617394030094,0.0840570032596588,0.00254431762732565,0.0110717732459307,0.04276192933321,0.037078645080328,4.39538049697876,0.0360652282834053,0.0449169501662254,0.119681410491467,0.198387041687965,0.274500578641891,0.1865024715662,0.0485882125794888,2012-01-17 13:28:12
1,47,-8.50925064086914,0.0219306331127882,0.0268310271203518,0.0617609210312366,0.0831361040472984,0.106799922883511,0.0765355303883553,0.00985302776098251,1.81569075584412,0.0348759852349758,0.0411103032529354,0.0701071098446846,0.240195170044899,0.371435701847076,0.0619312226772308,0.0241532456129789,4.45034122467041,0.0295397620648146,0.0358261838555336,0.0803309306502342,1.21653295082069e-06,0.0646448284387589,0.108144834637642,0.0587956383824348,2012-01-17 13:28:13
1.02900004386902,28,-8.49991321563721,0.0150601863861084,0.0184631664305925,0.0416781902313232,0.00148689222987741,0.0030830055475235,0.00662749446928501,0.00654569314792752,1.80897665023804,0.0283692348748446,0.0315038673579693,0.0542868487536907,0.0039367969147861,0.00472731608897448,0.00284040812402964,0.0113046038895845,4.43610811233521,0.0245165824890137,0.0297927893698215,0.0721487998962402,0.00724451337009668,0.0144991157576442,0.0213448870927095,0.00975091010332108,2012-01-17 13:28:14
1.00999999046326,48,-8.52034378051758,0.0247889887541533,0.031225910410285,0.0670119896531105,0.018250310793519,0.0532652772963047,0.0352852456271648,0.0383989214897156,1.81096136569977,0.0149823660030961,0.0196473095566034,0.0523021630942822,0.00227626250125468,0.0057088527828455,0.00517308199778199,0.0108369141817093,4.41748714447021,0.0242612008005381,0.0334336645901203,0.093571625649929,0.00693858368322253,0.0602346956729889,0.147136718034744,0.0630371421575546,2012-01-17 13:28:15
1.08100008964539,34,-8.52774715423584,0.0136071275919676,0.0157979819923639,0.0334579236805439,0.00141199806239456,0.00378205766901374,0.00825397949665785,0.00655660917982459,1.81999886035919,0.0185613669455051,0.0233183447271585,0.0449952743947506,0.0119978385046124,0.0152190607041121,0.00242496468126774,0.0075614876113832,4.4034743309021,0.0314219444990158,0.0374926216900349,0.0781646370887756,0.0274394657462835,0.0540851466357708,0.0814422145485878,0.0217969808727503,2012-01-17 13:28:17
1.01799988746643,51,-8.51524829864502,0.0157826095819473,0.0184735599905252,0.0459565743803978,0.0279234312474728,0.0448819510638714,0.00489828875288367,0.00501766661182046,1.8276903629303,0.0270408634096384,0.034683208912611,0.104219727218151,0.038111537694931,0.0818940401077271,0.0563435554504395,0.122512571513653,4.45318031311035,0.0249369740486145,0.0297231059521437,0.06768499314785,0.0026602866128087,0.0344603843986988,0.149668589234352,0.0602850764989853,2012-01-17 13:28:18
1.13800001144409,36,-8.50318241119385,0.0191138535737991,0.0266944449394941,0.0596570186316967,0.00784785114228725,0.011030632071197,0.00737807201221585,0.00566981174051762,1.83792960643768,0.034277867525816,0.0427696146070957,0.102152578532696,0.0857776552438736,0.145004868507385,0.0747867301106453,0.0158930383622646,4.48681449890137,0.0283151399344206,0.0325648225843906,0.0640155225992203,0.010757127776742,0.0349682345986366,0.0455273725092411,0.00345452595502138,2012-01-17 13:28:19
1.01900005340576,49,-8.47074413299561,0.0197276286780834,0.0232966504991055,0.0414280220866203,0.043199997395277,0.0890766903758049,0.0152445249259472,0.0248128678649664,1.83844661712646,0.0273001473397017,0.0345499441027641,0.103270046412945,0.000444912642706186,0.215636715292931,0.22189362347126,0.00357187585905194,4.47183227539062,0.0376254506409168,0.0440352372825146,0.0784530639648438,0.0593570023775101,0.0536185167729855,0.234501883387566,0.0755131989717484,2012-01-17 13:28:20
1.0149998664856,33,-8.47413349151611,0.0316081568598747,0.0380006842315197,0.0772643834352493,0.0125789949670434,0.0200738329440355,0.00848672073334455,0.0300185605883598,1.83146619796753,0.0396048054099083,0.0429861918091774,0.0808305069804192,0.0581405311822891,0.104427486658096,0.0657175332307816,0.00578033644706011,4.45311069488525,0.0217745080590248,0.0275648850947618,0.0597313083708286,0.000663521059323102,0.000773216714151204,0.0158216152340174,0.0341105610132217,2012-01-17 13:28:21
1.01700019836426,48,-8.4872465133667,0.0330292843282223,0.0376608707010746,0.0739583596587181,0.00648717069998384,0.0663171485066414,0.0635626018047333,0.0844627693295479,1.82934880256653,0.0322121232748032,0.0409732572734356,0.0935717672109604,0.00659628165885806,0.108527176082134,0.104593120515347,0.233161211013794,4.41483116149902,0.0463516637682915,0.0560730285942554,0.135454118251801,0.110670506954193,0.198880434036255,0.0931308045983315,0.0610451176762581,2012-01-17 13:28:22
1.00799989700317,35,-8.49199771881104,0.0264178682118654,0.0312709584832191,0.0778926834464073,4.99008308452176e-07,0.00375212170183659,0.0314806550741196,0.0217485055327415,1.83832657337189,0.019084956496954,0.0226486530154943,0.0543568469583988,0.0151133453473449,0.0282899476587772,0.0172019358724356,0.00196096114814281,4.49004459381104,0.0485128276050091,0.0603676997125149,0.119081005454063,0.00401360681280494,0.0788618624210358,0.240842789411545,0.130833595991135,2012-01-17 13:28:23
1.00600004196167,48,-8.4913330078125,0.0239036679267883,0.0302674733102322,0.0772272348403931,0.0768302232027054,0.189947783946991,0.0612777322530746,0.02165237814188,1.94355535507202,0.0789128690958023,0.0971356853842735,0.227391645312309,1.59416007995605,1.64465403556824,0.249064221978188,0.291824579238892,4.41748714447021,0.0413036532700062,0.0524280294775963,0.122174762189388,0.25791147351265,0.34226992726326,0.109584257006645,0.130590870976448,2012-01-17 13:28:24
1.01699995994568,46,-8.47251892089844,0.0396714471280575,0.0499187037348747,0.137719243764877,0.0293749049305916,0.0263077933341265,0.322734922170639,0.241173639893532,2.00673890113831,0.0482824705541134,0.0661450102925301,0.182702168822289,0.283660978078842,0.733190178871155,0.38249009847641,0.368709862232208,4.36630439758301,0.0483751855790615,0.0559321641921997,0.115334674715996,0.344240635633469,0.429906636476517,0.0884235575795174,0.0355003401637077,2012-01-17 13:28:25
1.01699995994568,27,-8.54268169403076,0.0277652814984322,0.036433283239603,0.0893493220210075,0.00383361894637346,0.00686917966231704,0.00608636857941747,0.00887012109160423,1.86326348781586,0.0900758877396584,0.101493410766125,0.156906440854073,0.137572720646858,0.242825895547867,0.212715193629265,0.0278424359858036,4.38284635543823,0.0248327292501926,0.0308877248317003,0.0679204761981964,0.00027143195620738,0.00299320556223392,0.011925408616662,0.0091590154916048,2012-01-17 13:28:26
1.00300002098083,47,-8.55598831176758,0.0211848132312298,0.0243470780551434,0.0444428250193596,0.0055346991866827,0.00444610929116607,0.0666987076401711,0.0259521845728159,1.82382822036743,0.0244788806885481,0.0313714593648911,0.0782445445656776,0.000856623752042651,0.0184814855456352,0.0610299296677113,0.0310993995517492,4.36395931243896,0.0388092994689941,0.0487192906439304,0.107873044908047,0.00288605480454862,0.125710710883141,0.54211300611496,0.0778332725167274,2012-01-17 13:28:27
1.0090000629425,32,-8.53883361816406,0.0211455523967743,0.0252692569047213,0.0517912805080414,0.00110381538979709,0.00262249307706952,0.00201365980319679,0.0218604635447264,1.84977924823761,0.017927810549736,0.0218940563499928,0.0527107194066048,0.00450798124074936,0.00845448393374681,0.00692438567057252,0.0016908833058551,4.39184665679932,0.0423677936196327,0.0492234714329243,0.0867278277873993,0.0592912212014198,0.0810658484697342,0.0160831212997437,0.0141434194520116,2012-01-17 13:28:28
1.02099990844727,49,-8.52638149261475,0.0215247627347708,0.0260637421160936,0.0544368214905262,0.0018027963815257,0.0117947589606047,0.0418203547596931,0.0173855349421501,1.82623839378357,0.0251925885677338,0.0331090055406094,0.11007459461689,0.0100462902337313,0.0234857518225908,0.0744264721870422,0.133358806371689,4.38457345962524,0.0311639606952667,0.0390382558107376,0.0892608240246773,0.0123718185350299,0.0410309657454491,0.183994367718697,0.0681070610880852,2012-01-17 13:28:29
1.00100016593933,35,-8.51497364044189,0.0314612798392773,0.0369595363736153,0.0658445358276367,0.000136437171022408,0.0111365355551243,0.054925762116909,0.0119218043982983,1.84028792381287,0.0277308076620102,0.0312710106372833,0.052395511418581,0.00953166838735342,0.0357303842902184,0.0579486638307571,0.0149441482499242,4.40738868713379,0.0205739159137011,0.0260289870202541,0.0644435882568359,0.00201802561059594,0.00230366014875472,0.000933363335207105,0.00940155051648617,2012-01-17 13:28:30
1.02099990844727,49,-8.49175834655762,0.0249638240784407,0.0315033681690693,0.0678458884358406,0.00404262682422996,0.013160458765924,0.0633265301585197,0.00893387105315924,1.88007485866547,0.0323076173663139,0.0387230329215527,0.0854579135775566,0.0239680577069521,0.0577874556183815,0.178354889154434,0.113368958234787,4.42860317230225,0.0211326610296965,0.0272316504269838,0.0726491361856461,0.010879217647016,0.0345063917338848,0.0409198328852654,0.0468498282134533,2012-01-17 13:28:31
1,31,-8.50363063812256,0.0141231846064329,0.0182604175060987,0.0404919050633907,0.00102930783759803,0.00223339442163706,0.00436146790161729,0.00348560162819922,1.85693657398224,0.0266340896487236,0.03337686881423,0.0651668235659599,0.0360426492989063,0.0598223246634007,0.0400126688182354,0.0188974142074585,4.40793085098267,0.0396959446370602,0.0444796718657017,0.0831982120871544,0.0455328077077866,0.0884199514985085,0.0664899721741676,0.00822317041456699,2012-01-17 13:28:32
1.01900005340576,49,-8.53198528289795,0.0222517848014832,0.028400894254446,0.0590399317443371,0.0344741195440292,0.0171922836452723,0.0226247273385525,0.0440379418432713,1.85445749759674,0.0362858287990093,0.0429177917540073,0.0970658138394356,0.0141783617436886,0.0350583456456661,0.435598939657211,0.111607134342194,4.36696147918701,0.0406888201832771,0.0536110103130341,0.130488663911819,0.145953640341759,0.25653749704361,0.0927043184638023,0.168756872415543,2012-01-17 13:28:33
1.22000002861023,36,-8.51625823974609,0.0167529974132776,0.0192524120211601,0.0449470691382885,5.71570162719581e-05,0.00159136031288654,0.0186723787337542,0.00721757067367435,1.8540016412735,0.0349588841199875,0.0399649702012539,0.0691912993788719,0.000324487540638074,0.0254188161343336,0.0742605701088905,0.0120758712291718,4.3751277923584,0.0317807719111443,0.0421896353363991,0.116317592561245,0.00119069463107735,0.0242757964879274,0.0638225004076958,0.120818197727203,2012-01-17 13:28:34
1.00499987602234,51,-8.514479637146,0.0217397324740887,0.0307418629527092,0.0761456191539764,0.0243713315576315,0.0950775370001793,0.247065663337708,0.110419362783432,1.90114402770996,0.0553711801767349,0.0660287514328957,0.126140490174294,0.458768010139465,0.66267454624176,0.115791380405426,0.236282452940941,4.35703706741333,0.0271012410521507,0.0340430773794651,0.0715311244130135,0.00453539285808802,0.0922374501824379,0.318579256534576,0.0878328233957291,2012-01-17 13:28:35
1.00300002098083,42,-8.53505420684814,0.0194576047360897,0.0256500542163849,0.0719153061509132,0.0142743661999702,0.0317445173859596,0.0180990546941757,0.0116863278672099,1.87633895874023,0.0202359259128571,0.0250173974782228,0.0621087849140167,0.0370316728949547,0.0471396520733833,0.0627740472555161,0.0357679352164268,4.30558633804321,0.0261957067996264,0.0354846976697445,0.0985335037112236,0.0272142328321934,0.0361694544553757,0.0906949490308762,0.104382015764713,2012-01-17 13:28:36
1.00799989700317,39,-8.58081817626953,0.0311801843345165,0.0372931808233261,0.0784539207816124,0.0180813241750002,0.0681100115180016,0.14896522462368,0.0301621947437525,1.77299201488495,0.0504452511668205,0.0636775940656662,0.129498034715652,0.1556356549263,0.15013313293457,0.0624811910092831,0.090555377304554,4.30059289932251,0.0227081999182701,0.0265423618257046,0.0543138198554516,0.00742779392749071,0.0300813764333725,0.0299145895987749,0.00877551641315222,2012-01-17 13:28:37
1.01300001144409,47,-8.6290168762207,0.0380638279020786,0.0441281571984291,0.08742555975914,0.298085302114487,0.307996988296509,0.0333330929279327,0.0371220372617245,1.70364463329315,0.0331179723143578,0.0375585332512856,0.0757407620549202,0.165880039334297,0.21895757317543,0.0206419434398413,0.0229133237153292,4.21498155593872,0.0434084460139275,0.0505592115223408,0.0999441966414452,0.0348521843552589,0.168233186006546,0.13939580321312,0.112483479082584,2012-01-17 13:28:38
1.01700019836426,38,-8.65462684631348,0.0242859926074743,0.0294835790991783,0.0640017837285995,0.000660009682178497,0.00847871322184801,0.035690501332283,0.0062397662550211,1.6606787443161,0.0389821007847786,0.051069762557745,0.11432483792305,0.0345358811318874,0.0471703596413136,0.0288421846926212,0.015652984380722,4.21453666687012,0.0264317281544209,0.0326363295316696,0.0709690526127815,0.00783705525100231,0.0290666427463293,0.104988515377045,0.073675736784935,2012-01-17 13:28:39
1.00300002098083,41,-8.64922618865967,0.0136632509529591,0.016845615580678,0.0487945154309273,0.000342589715728536,0.00304002244956791,0.018348814919591,0.00595301482826471,1.6470388174057,0.017326470464468,0.0217620451003313,0.0495115853846073,0.0202420521527529,0.030979473143816,0.00794791430234909,0.0154918525367975,4.19246244430542,0.0147128663957119,0.0183940231800079,0.0440102554857731,0.00217506941407919,0.00918128341436386,0.0202502589672804,0.0124540561810136,2012-01-17 13:28:40
1.00799989700317,37,-8.64124870300293,0.0156738813966513,0.0194156598299742,0.0408171825110912,0.00489281443879008,0.0231636539101601,0.0329963825643063,0.01761220023036,1.65361320972443,0.0206448324024677,0.0242743864655495,0.0453226268291473,0.0105693144723773,0.0159529317170382,0.0218401625752449,0.00631771748885512,4.2327618598938,0.0248854961246252,0.0321916788816452,0.0845490768551826,0.0265800710767508,0.048937264829874,0.0281011909246445,0.0339623987674713,2012-01-17 13:28:41
1.01900005340576,49,-8.63345432281494,0.0286810602992773,0.0350909158587456,0.0820558667182922,0.0380985699594021,0.0940097644925117,0.180684372782707,0.0243627149611712,1.65892493724823,0.0299141686409712,0.0356264151632786,0.0768521353602409,0.00763296941295266,0.0413748547434807,0.202923059463501,0.0480720177292824,4.25508546829224,0.0365635566413403,0.044268473982811,0.0970657020807266,0.00366155593656003,0.117291674017906,0.0662860199809074,0.0591207072138786,2012-01-17 13:28:42
1.0699999332428,28,-8.62669944763184,0.017386918887496,0.0208121351897717,0.0423794463276863,0.00357544212602079,0.00880040787160397,0.0144488336518407,0.00445447722449899,1.66818118095398,0.0186376180499792,0.0242120139300823,0.0696972459554672,6.07448200753424e-05,0.000455340486951172,0.00440672738477588,0.00400819117203355,4.24347734451294,0.0268181394785643,0.032509833574295,0.0658445358276367,0.0063964007422328,0.0106582595035434,0.00849868357181549,0.0146222170442343,2012-01-17 13:28:43
1.01300001144409,49,-8.63485527038574,0.0273168161511421,0.031645841896534,0.0636436119675636,0.000687796273268759,0.110856361687183,0.139681711792946,0.0196124333888292,1.66933190822601,0.0205281991511583,0.0259281992912292,0.06644506752491,0.0284921433776617,0.0674516409635544,0.131554111838341,0.0801901370286942,4.27469873428345,0.0287623535841703,0.0366527438163757,0.0892608016729355,0.116856046020985,0.16541413962841,0.0393578037619591,0.0203300472348928,2012-01-17 13:28:44
1.34299993515015,37,-8.60970783233643,0.0339687950909138,0.040204931050539,0.0779231563210487,0.092463530600071,0.146170899271965,0.0331390649080276,0.0226190723478794,1.65361320972443,0.0244700629264116,0.0300191584974527,0.072357214987278,0.00198762607760727,0.012306360527873,0.0553543530404568,0.0246938616037369,4.27251863479614,0.03401168435812,0.0412959977984428,0.094885878264904,0.000864896865095943,0.0259885229170322,0.124935425817966,0.0552501417696476,2012-01-17 13:28:46
1.01600003242493,50,-8.62043762207031,0.0279295891523361,0.0325819849967957,0.0682548731565475,0.0421557575464249,0.0971041917800903,0.138777032494545,0.091923713684082,1.69086253643036,0.0315146371722221,0.0428850054740906,0.133174300193787,0.109292469918728,0.0733479708433151,0.0821081027388573,0.0772994011640549,4.25647830963135,0.0333739332854748,0.0379788987338543,0.0886519625782967,0.0644002929329872,0.290373384952545,0.171664193272591,0.0206577740609646,2012-01-17 13:28:47
1.01399993896484,32,-8.59614086151123,0.0257424712181091,0.0303192585706711,0.0631310939788818,0.00831871293485165,0.0111331893131137,0.017335306853056,0.0236926935613155,1.69930851459503,0.0294582564383745,0.0330960191786289,0.0658883899450302,0.00539444945752621,0.00514230551198125,0.0104299504309893,0.0289956778287888,4.28121566772461,0.0281175076961517,0.0336099416017532,0.0741627216339111,0.00804061722010374,0.0104900170117617,0.0160589069128036,0.0134562831372023,2012-01-17 13:28:48
1,45,-8.57733154296875,0.0272551756352186,0.0317034311592579,0.0651596263051033,0.0253237020224333,0.0599238723516464,0.0575633458793163,0.0348934605717659,1.73882794380188,0.0324854291975498,0.0407141856849194,0.0913107618689537,0.045236062258482,0.217065155506134,0.0982195436954498,0.0286750104278326,4.32604026794434,0.0281851906329393,0.0345700234174728,0.0699542760848999,0.00523274345323443,0.0693678110837936,0.0494136437773705,0.0340068973600864,2012-01-17 13:28:49
1.01600003242493,50,-8.55512523651123,0.0222179070115089,0.0260856430977583,0.0551132783293724,0.0204488057643175,0.0336114168167114,0.0869593918323517,0.0298304930329323,1.77461135387421,0.0302201714366674,0.0412793569266796,0.107480861246586,0.0181040056049824,0.0311461966484785,0.0447994880378246,0.102990120649338,4.32787084579468,0.0389756970107555,0.0443123020231724,0.0913980975747108,0.271330088376999,0.417484313249588,0.253387153148651,0.0973924472928047,2012-01-17 13:28:50
1.00300002098083,27,-8.58989810943604,0.0255053173750639,0.0312317181378603,0.0679200142621994,0.00567296333611012,0.011269124224782,0.0176078677177429,0.00707869650796056,1.74013555049896,0.0199361443519592,0.0276516526937485,0.0839013159275055,0.000265441922238097,0.00179137522354722,0.0080098295584321,0.00242054741829634,4.32727479934692,0.0456837639212608,0.0528167821466923,0.0857174471020699,0.00423712702468038,0.0095852417871356,0.0252034179866314,0.0116536216810346,2012-01-17 13:28:51
1.00500011444092,42,-8.63685607910156,0.0774527341127396,0.106533788144588,0.365648031234741,1.03590762615204,2.05595016479492,1.51277470588684,0.483628660440445,1.74068033695221,0.0562714897096157,0.0753642991185188,0.201036334037781,0.246709734201431,0.70722109079361,0.508299291133881,0.0270680207759142,4.24207639694214,0.162910491228104,0.208866894245148,0.643036067485809,4.12394952774048,8.61728000640869,5.2559986114502,1.39944291114807,2012-01-17 13:28:52
1,49,-9.06674766540527,0.0433599390089512,0.0500458478927612,0.102469310164452,2.18528111872729e-05,0.467479169368744,0.491022527217865,0.0392169244587421,1.74778509140015,0.137497320771217,0.159404039382935,0.390064418315887,3.75317358970642,9.02663803100586,2.92114353179932,0.136361613869667,3.10770726203918,0.139956116676331,0.166403666138649,0.383460015058517,2.113356590271,4.76666975021362,3.86500787734985,0.662850379943848,2012-01-17 13:28:53
1.00999999046326,38,-9.03424739837646,0.109258577227592,0.142137423157692,0.321297079324722,0.495206534862518,0.741912066936493,0.324683099985123,0.0944884940981865,2.70611906051636,0.306559681892395,0.366509884595871,0.725175976753235,10.4939393997192,14.7494926452637,4.79805421829224,0.29543474316597,2.11488151550293,0.318349391222,0.411887139081955,0.974213182926178,11.8345832824707,14.3535556793213,3.88626837730408,1.61985754966736,2012-01-17 13:28:54
1.00999999046326,48,-9.55658054351807,0.499526292085648,0.564841032028198,1.11305463314056,50.3721923828125,109.93229675293,37.468074798584,2.91297912597656,1.5008260011673,1.03851735591888,1.27030181884766,3.17776322364807,283.067199707031,550.403015136719,268.987670898438,32.3523330688477,2.53747057914734,0.303393214941025,0.370801270008087,0.664400458335876,21.0955791473389,21.0661926269531,12.4653415679932,1.06955885887146,2012-01-17 13:28:55
1.00099992752075,46,-8.47656917572021,0.493576616048813,0.578149020671844,1.36930704116821,61.2157173156738,70.2348251342773,13.4984722137451,2.51981091499329,-4.48185205459595,1.21198332309723,1.42661809921265,2.63820195198059,398.017120361328,534.1298828125,119.03833770752,11.4197092056274,1.39318382740021,0.807287454605103,0.957716226577759,1.76455748081207,177.704116821289,222.456527709961,39.7473220825195,8.46505069732666,2012-01-17 13:28:56
1.0090000629425,27,-7.24602460861206,0.24407659471035,0.296110212802887,0.560068666934967,1.42080163955688,2.42148065567017,1.78309547901154,0.609384655952454,-6.99504709243774,0.221745923161507,0.295501917600632,0.591304540634155,1.30044889450073,2.06637358665466,1.17439997196198,0.938304722309113,-0.583314061164856,0.244318753480911,0.283337205648422,0.544087469577789,1.09810996055603,1.76063168048859,0.865274131298065,0.158085733652115,2012-01-17 13:28:57
1.01099991798401,49,-6.57185649871826,0.180465266108513,0.207056447863579,0.390865087509155,8.83163452148438,10.8861351013184,1.4245548248291,1.01819336414337,-7.75405788421631,0.137954786419868,0.160629853606224,0.375655174255371,4.20688772201538,5.84818172454834,1.47102320194244,1.26127064228058,-0.946041524410248,0.099373497068882,0.12646010518074,0.259575992822647,0.228708639740944,0.272033452987671,0.745913684368134,0.816839396953583,2012-01-17 13:28:58
1.01800012588501,33,-6.69021558761597,0.0583895742893219,0.0775849521160126,0.18424628674984,0.0328657329082489,0.0715746730566025,0.0878849774599075,0.0534315258264542,-7.55706357955933,0.100605905056,0.114718839526176,0.241303086280823,0.0633498057723045,0.171026170253754,0.451226264238358,0.209292456507683,-1.36401581764221,0.0887191146612167,0.101781025528908,0.206831097602844,0.336159706115723,0.468537330627441,0.101770475506783,0.121794514358044,2012-01-17 13:28:59
1.0149998664856,49,-6.50921392440796,0.154643684625626,0.190276995301247,0.536964356899261,6.38716554641724,12.812198638916,3.80507206916809,1.60192835330963,-7.65919351577759,0.166390374302864,0.202334135770798,0.53916597366333,7.70430278778076,13.6882848739624,3.63602519035339,1.47845280170441,-1.25465071201324,0.15198877453804,0.179905191063881,0.342632353305817,7.53450298309326,9.99552249908447,1.96118259429932,0.490630924701691,2012-01-17 13:29:00
1.01900005340576,40,-5.58930015563965,0.19059219956398,0.221084490418434,0.422176510095596,2.06665658950806,2.1703245639801,0.669695854187012,0.372861355543137,-8.47000312805176,0.158818706870079,0.192747458815575,0.336368262767792,0.00147491949610412,0.382040798664093,1.10068655014038,2.90080451965332,0.605070292949677,0.859062492847443,0.977421462535858,1.6700724363327,111.12939453125,152.931579589844,37.6628265380859,11.4610071182251,2012-01-17 13:29:01
1.00300002098083,18,-5.17137336730957,0.277855068445206,0.334944903850555,0.670121133327484,0.19520078599453,0.379243612289429,0.669887840747833,0.374385893344879,-8.34001064300537,0.129907861351967,0.179020926356316,0.417327523231506,0.0498656705021858,0.096063993871212,0.151534631848335,0.0972387492656708,2.6102032661438,0.154727131128311,0.193975925445557,0.374287128448486,0.026606934145093,0.0525195524096489,0.055176243185997,0.0238471310585737,2012-01-17 13:29:02
1.0090000629425,48,-4.50901556015015,0.0325355492532253,0.0419875048100948,0.0960232838988304,0.0390860699117184,0.0301572363823652,0.0675377026200294,0.132884502410889,-8.7677583694458,0.0534001998603344,0.0714048072695732,0.195519760251045,0.00977569073438644,0.0906835570931435,0.662387251853943,0.0805941969156265,2.73217344284058,0.0681953802704811,0.0812813639640808,0.209821417927742,0.563256561756134,0.392543911933899,0.846625030040741,0.208086147904396,2012-01-17 13:29:03
1.00099992752075,48,-5.03591918945312,0.245404571294785,0.301597565412521,0.622517824172974,19.4993801116943,27.2306118011475,8.9079761505127,1.73218166828156,-8.5025691986084,0.13255999982357,0.16037306189537,0.372856587171555,5.10309076309204,7.8172459602356,2.52826619148254,1.05305778980255,2.37566089630127,0.170594826340675,0.225876927375793,0.669303894042969,7.75258255004883,15.4108972549438,7.30200624465942,3.40188527107239,2012-01-17 13:29:04
1.06099987030029,37,-6.15725088119507,0.218454048037529,0.262171864509583,0.498814016580582,0.990029156208038,1.73871004581451,0.603949844837189,0.495273351669312,-8.03986263275146,0.0911324992775917,0.111148990690708,0.214156046509743,0.00740686850622296,0.0873186513781548,0.0938907861709595,0.303685009479523,0.908572852611542,0.388039588928223,0.491144001483917,1.54600501060486,18.6562232971191,27.3199424743652,11.2696876525879,2.67700171470642,2012-01-17 13:29:05
1.01800012588501,51,-5.88168239593506,0.17556956410408,0.219503298401833,0.541673183441162,0.212653800845146,1.24512588977814,8.43333339691162,3.82602715492249,-8.21181964874268,0.121744148433208,0.170752540230751,0.427838534116745,1.55047607421875,6.31432485580444,7.09445667266846,1.26572489738464,-0.893558859825134,0.600117206573486,0.665781438350677,1.05796444416046,59.1816253662109,178.041290283203,58.7292442321777,8.80472564697266,2012-01-17 13:29:06
1.0090000629425,43,-5.15875387191772,0.765990078449249,0.875093638896942,1.94126033782959,66.3304901123047,72.8089599609375,8.71091842651367,1.57682800292969,-8.48001480102539,0.567661285400391,0.656993806362152,1.40942096710205,26.6151752471924,36.5906639099121,6.24231004714966,0.78118509054184,-1.41922748088837,0.935370862483978,0.994482398033142,1.61536049842834,121.697929382324,155.816101074219,14.5155324935913,6.71636247634888,2012-01-17 13:29:07
1.0019998550415,32,-5.00047206878662,0.441433280706406,0.543425500392914,1.26597690582275,3.62799739837646,5.55199480056763,2.46555376052856,13.1790857315063,-8.41226673126221,0.687806189060211,0.841386198997498,1.8356819152832,15.2680253982544,32.1829605102539,28.2142639160156,2.37757730484009,-1.68796956539154,0.742240786552429,0.853684723377228,1.61932301521301,19.1586780548096,32.8070068359375,28.8383178710938,9.69567680358887,2012-01-17 13:29:08
1.00600004196167,49,-5.59939670562744,1.04407942295074,1.22213995456696,2.17687606811523,4.80867528915405,159.296020507812,111.305099487305,43.22900390625,-8.61484146118164,0.720055639743805,0.972334206104279,2.74065852165222,49.934024810791,33.6621513366699,49.7914505004883,21.4897499084473,-0.430291771888733,1.44639301300049,2.43823313713074,10.580174446106,195.591461181641,237.429443359375,60.4751930236816,43.0229034423828,2012-01-17 13:29:09
1.00799989700317,32,-5.28057432174683,0.52856308221817,0.72953736782074,1.79982650279999,0.291732311248779,3.11131286621094,7.97081899642944,2.64631152153015,-8.41992855072021,0.828221321105957,1.12981450557709,2.48506665229797,1.38321197032928,2.68922281265259,9.09957504272461,8.26054000854492,-1.18721759319305,0.796253979206085,0.941786050796509,2.04897689819336,9.34432125091553,16.2110557556152,10.7260837554932,14.9818553924561,2012-01-17 13:29:10
1.01000022888184,47,-5.95514011383057,1.07628095149994,1.22028017044067,2.34128570556641,43.3825454711914,22.3967361450195,211.291763305664,91.6312637329102,-8.70121097564697,1.44949305057526,1.81727755069733,5.08693885803223,4.62838554382324,199.974822998047,450.703582763672,131.384063720703,-1.01530122756958,0.99019193649292,1.20402479171753,3.65266418457031,38.6700210571289,135.482757568359,102.327682495117,73.2448577880859,2012-01-17 13:29:11
1.01299977302551,44,-5.31208372116089,1.2679146528244,1.82016563415527,5.55368375778198,2.5226788520813,32.9493293762207,378.911590576172,561.004028320312,-9.04351425170898,1.60517024993896,1.98491716384888,3.77377724647522,12.0632352828979,205.479583740234,745.478637695312,244.436996459961,-0.0109210480004549,1.39498579502106,2.11575365066528,7.2972617149353,464.873718261719,756.98095703125,469.527954101562,353.573791503906,2012-01-17 13:29:12
1.01900005340576,20,-4.91362190246582,0.498619079589844,0.63347065448761,1.6872341632843,0.0294599272310734,0.185072541236877,1.11804139614105,0.610702455043793,-9.12067413330078,1.12923574447632,1.29557120800018,2.36291265487671,3.83470106124878,7.21507549285889,8.83653926849365,7.23112487792969,-0.147099748253822,0.976742327213287,1.16522228717804,2.2163028717041,1.32843720912933,2.42896366119385,4.2987494468689,1.57124483585358,2012-01-17 13:29:13
1.00800013542175,50,-6.36020088195801,1.52400052547455,1.74341630935669,3.96620178222656,14.5636138916016,184.294006347656,508.692108154297,39.2267913818359,-8.462158203125,1.57855677604675,1.85250520706177,4.09035301208496,65.8346862792969,179.306427001953,992.302001953125,256.059143066406,-0.559371292591095,1.21362388134003,1.33193075656891,2.3932147026062,31.6522808074951,20.3032150268555,71.1048965454102,191.662399291992,2012-01-17 13:29:14
1.00399994850159,48,-5.62779092788696,1.33692216873169,1.89744162559509,6.0617356300354,2.09688544273376,161.391326904297,121.976715087891,111.876747131348,-8.23452091217041,1.02660810947418,1.16729545593262,1.90923190116882,31.3509330749512,56.7265930175781,34.4232635498047,59.2355995178223,-1.22501397132874,1.04199063777924,1.25496351718903,2.53910517692566,0.528296649456024,86.3920288085938,102.083564758301,42.3657417297363,2012-01-17 13:29:15
1.00799989700317,36,-5.83304977416992,0.766825556755066,0.941877543926239,2.78699493408203,4.9488959312439,18.5113124847412,30.3026218414307,3.3642475605011,-8.34082794189453,1.23946666717529,1.512939453125,3.52521800994873,5.56841659545898,5.93248605728149,35.023193359375,6.69835472106934,-0.418417036533356,0.930178880691528,1.02077388763428,1.71289491653442,21.219331741333,56.9138221740723,40.5732116699219,9.85657119750977,2012-01-17 13:29:16
1.01600003242493,48,-6.13467216491699,1.46640062332153,2.06975865364075,6.73165225982666,2.06778359413147,109.027709960938,897.802307128906,553.084899902344,-8.41104125976562,1.38360595703125,1.66551947593689,4.24934434890747,1.21890139579773,237.113677978516,425.263153076172,24.6900882720947,-0.803328037261963,1.02973222732544,1.22082912921906,2.81532573699951,18.5626163482666,302.091827392578,184.120407104492,56.1552314758301,2012-01-17 13:29:17
1.01600003242493,45,-5.98053073883057,0.760037124156952,0.888292074203491,1.69807612895966,8.4494514465332,83.455322265625,87.5443878173828,6.65154314041138,-8.26003265380859,1.01439023017883,1.39240717887878,3.84137392044067,14.1141176223755,206.662307739258,383.416839599609,39.7715034484863,-0.90177595615387,0.7510005235672,0.872741520404816,2.1668336391449,85.421630859375,120.341720581055,16.7244338989258,47.5484771728516,2012-01-17 13:29:18
1.0090000629425,32,-6.14539861679077,1.31746208667755,1.52626502513885,3.79854464530945,32.411376953125,57.5103454589844,50.6334991455078,8.32392311096191,-8.85172748565674,1.70919179916382,1.92533683776855,3.43600487709045,7.37554883956909,36.004638671875,125.449256896973,61.3730239868164,0.333732545375824,0.98344224691391,1.30634844303131,3.61834716796875,6.060622215271,10.0348768234253,9.92945384979248,12.3422660827637,2012-01-17 13:29:19
1,48,-6.22722244262695,1.30673611164093,1.50210571289062,2.94199442863464,0.0604404658079147,173.576309204102,177.228012084961,58.9743537902832,-8.4843864440918,1.34385144710541,1.83485424518585,5.36260318756104,2.45716547966003,132.892044067383,74.6592407226562,37.7585220336914,-0.820081055164337,0.914061486721039,1.04853534698486,2.05571889877319,20.22021484375,93.3634185791016,50.2609443664551,30.731086730957,2012-01-17 13:29:20
1.01999998092651,33,-5.57730913162231,0.944626212120056,1.05746936798096,2.07187747955322,8.49967288970947,12.6616859436035,5.32528686523438,23.4563789367676,-9.26193523406982,0.880923509597778,1.04800140857697,2.3883650302887,13.4304656982422,18.1808776855469,16.3472843170166,17.7754516601562,-0.257350265979767,1.54212045669556,2.14838004112244,7.25929832458496,3.99457049369812,34.8930130004883,96.3119430541992,38.1303939819336,2012-01-17 13:29:21
1.0019998550415,48,-6.01188468933105,0.6145840883255,0.724644839763641,1.78440165519714,1.31304144859314,25.2389984130859,52.4940376281738,32.5291213989258,-8.15034770965576,0.875209450721741,1.10700130462646,2.99981331825256,49.3738555908203,242.558517456055,98.180046081543,13.2471084594727,0.019000381231308,0.802893936634064,0.969337046146393,2.36401557922363,90.9047622680664,79.5263519287109,9.18525314331055,16.614803314209,2012-01-17 13:29:22
1.35600018501282,35,-5.74025249481201,0.668501317501068,0.94738233089447,3.00727939605713,14.4177207946777,15.0249719619751,3.58260917663574,1.60397660732269,-8.45753479003906,0.19973535835743,0.282013684511185,1.15158081054688,0.356057196855545,0.879647433757782,1.64445388317108,0.10629765689373,-1.15970635414124,0.446222573518753,0.647736847400665,1.77752530574799,5.39810466766357,5.51195478439331,1.2140246629715,0.330973207950592,2012-01-17 13:29:23
1.01399993896484,44,-5.58288097381592,0.315899729728699,0.393920570611954,1.03660762310028,22.8215084075928,37.4573287963867,16.736701965332,6.0709867477417,-8.54226016998291,0.208918064832687,0.29730635881424,1.04998004436493,7.63554000854492,15.6841630935669,13.280574798584,4.96546363830566,-0.287290275096893,0.827567756175995,1.01787209510803,2.36630010604858,145.636199951172,264.225036621094,142.770767211914,29.4959583282471,2012-01-17 13:29:24
1.02699995040894,43,-6.23064374923706,0.645541667938232,0.772642195224762,1.39892983436584,37.5689582824707,82.6574249267578,36.3424301147461,39.713264465332,-7.61201286315918,0.553022921085358,0.709341943264008,1.66507828235626,21.067554473877,43.5331687927246,60.7266120910645,34.0386505126953,0.356688380241394,1.09217119216919,1.36051392555237,2.44550466537476,212.523681640625,337.882080078125,236.0966796875,28.1193180084229,2012-01-17 13:29:25
1.00099992752075,41,-6.33844423294067,0.602178514003754,0.744586288928986,1.33705294132233,4.37329912185669,38.3274307250977,72.8709335327148,25.4663543701172,-7.95941162109375,1.31684458255768,1.61760461330414,3.04364943504333,89.6726226806641,277.694366455078,152.071731567383,29.5256881713867,0.356388002634048,0.752375960350037,0.888564884662628,1.7685455083847,53.0474433898926,58.1655464172363,15.8209447860718,10.8921823501587,2012-01-17 13:29:26
1.35700011253357,43,-6.37819957733154,0.785210847854614,0.94280606508255,2.16339230537415,17.1991653442383,57.4152450561523,50.9502334594727,2.04147672653198,-8.62392234802246,0.71405565738678,0.874702990055084,2.21242547035217,0.549248337745667,10.3222484588623,67.456901550293,8.10887718200684,-1.0946958065033,0.778740286827087,1.19178128242493,3.69094920158386,1.5405091047287,1.88236856460571,69.616096496582,185.931381225586,2012-01-17 13:29:28
1.00999999046326,50,-5.59410524368286,0.806138038635254,1.00560998916626,2.27082777023315,43.3331565856934,166.636795043945,216.94694519043,20.0058517456055,-8.81441307067871,1.00062346458435,1.34408450126648,4.13036441802979,88.9562454223633,284.386383056641,327.207336425781,111.358734130859,-0.712551176548004,0.753095746040344,1.19287180900574,5.29225635528564,28.1545162200928,26.6893939971924,44.0757637023926,126.269393920898,2012-01-17 13:29:29
1.00999999046326,45,-6.1287202835083,0.945787191390991,1.13593375682831,2.92281723022461,14.9532794952393,76.1962051391602,81.5362091064453,26.5872783660889,-8.27964496612549,0.990786373615265,1.16156196594238,2.6939959526062,109.996299743652,151.202163696289,78.461540222168,32.3669090270996,0.0908749550580978,0.362860560417175,0.498730897903442,1.57625555992126,0.164790481328964,4.17933893203735,3.27378177642822,5.58499908447266,2012-01-17 13:29:30
1.00600004196167,46,-5.40261125564575,0.375841230154037,0.453729838132858,0.942291259765625,4.58493947982788,6.96684741973877,4.36529302597046,2.73027443885803,-8.55736827850342,0.331535279750824,0.391585797071457,0.896242499351501,14.1578197479248,13.0612230300903,5.05052280426025,0.973659515380859,0.176093325018883,0.496338814496994,0.545298337936401,1.02031791210175,45.3941078186035,71.2349472045898,14.1088953018188,6.42081022262573,2012-01-17 13:29:31
1.02900004386902,35,-5.07115888595581,0.0601847879588604,0.0735646709799767,0.165592417120934,0.19852414727211,0.245439305901527,0.0397659204900265,0.0397025682032108,-8.83495140075684,0.0328061878681183,0.0411659330129623,0.098906897008419,0.0557253770530224,0.0755430683493614,0.0765241906046867,0.0815181583166122,-0.571307420730591,0.0600247047841549,0.0720769390463829,0.179041415452957,0.0248893201351166,0.0370592698454857,0.0248586423695087,0.0433472655713558,2012-01-17 13:29:32
1.00899982452393,49,-4.87370491027832,0.093867801129818,0.10516444593668,0.157106503844261,2.60181331634521,3.3915114402771,0.401916205883026,0.0426366738975048,-8.93906116485596,0.023934556171298,0.0292594898492098,0.0732495412230492,0.0140018044039607,0.0442463010549545,0.058955505490303,0.0325346179306507,-0.322418630123138,0.124312862753868,0.137986570596695,0.207140445709229,4.28168869018555,5.06475877761841,0.544891595840454,0.265608012676239,2012-01-17 13:29:33
1.02700018882751,34,-4.63883399963379,0.0412456579506397,0.0555505119264126,0.127197906374931,0.0796430855989456,0.107081770896912,0.0618767850100994,0.02165137976408,-9.04605770111084,0.0405499190092087,0.050465427339077,0.131812691688538,0.00228103972040117,0.0049506057985127,0.0635289251804352,0.050901148468256,-0.183442041277885,0.0502887703478336,0.0601016841828823,0.120564095675945,0.0352058224380016,0.0549536757171154,0.0278436411172152,0.0415255799889565,2012-01-17 13:29:34
1.1399998664856,49,-4.63394212722778,0.17526176571846,0.248407855629921,0.543969094753265,2.21727252006531,13.6814517974854,19.0983028411865,1.67508745193481,-9.0705509185791,0.127596661448479,0.174713745713234,0.392866492271423,0.686496138572693,6.70083379745483,9.09889125823975,0.663502991199493,-0.157506808638573,0.0705376267433167,0.0917040929198265,0.245766654610634,0.443211436271667,1.76109635829926,0.825248241424561,0.540419697761536,2012-01-17 13:29:35
1.00399994850159,42,-4.53277349472046,0.0878262147307396,0.0983587652444839,0.164611652493477,0.992651700973511,2.02422618865967,0.636791229248047,0.133953556418419,-9.10617446899414,0.0581727512180805,0.0671336352825165,0.141496583819389,0.0921790972352028,0.551129639148712,0.556017994880676,0.0986907631158829,0.0751843154430389,0.0384482927620411,0.0442551411688328,0.0849909633398056,0.032062005251646,0.143701881170273,0.243703424930573,0.0515305735170841,2012-01-17 13:29:36
1.0090000629425,44,-4.14709854125977,0.0970027148723602,0.111052259802818,0.216860890388489,1.70284450054169,2.46775817871094,0.500859618186951,0.0392929874360561,-9.32278060913086,0.0373726151883602,0.0493860393762589,0.16337051987648,0.0211742408573627,0.0184099320322275,0.0228588599711657,0.0597617365419865,0.0312029756605625,0.0179923661053181,0.0233075823634863,0.0606229268014431,0.00523048313334584,0.013160839676857,0.0117954229936004,0.00659076170995831,2012-01-17 13:29:37
1.0789999961853,13,-3.99734139442444,0.0164796877652407,0.0198152456432581,0.0429981872439384,5.83790897508152e-05,0.000148637511301786,0.000405153899919242,0.000271462515229359,-9.33442211151123,0.0171761140227318,0.022706001996994,0.0475244522094727,3.31402625306509e-05,6.46702101221308e-05,0.000264866772340611,0.000625855464022607,0.0512963235378265,0.0103288982063532,0.0122568625956774,0.021876372396946,2.35304560192162e-05,5.25161922269035e-05,0.000132142682559788,0.000128152780234814,2012-01-17 13:29:38
1.00100016593933,41,-4.1888747215271,0.0639269351959229,0.0860546231269836,0.197567969560623,0.590716421604156,0.759929597377777,0.26600044965744,0.0512686483561993,-9.31536102294922,0.0283873155713081,0.0346415564417839,0.0774963200092316,0.0293096341192722,0.0608803257346153,0.064866878092289,0.0245731994509697,0.110982574522495,0.0251670964062214,0.0323760025203228,0.0851504132151604,0.00895131099969149,0.0170218758285046,0.0296081844717264,0.0857103243470192,2012-01-17 13:29:39
1.00999999046326,49,-4.24147605895996,0.0413341000676155,0.0488174855709076,0.112676672637463,0.0115129817277193,0.405834645032883,0.514302790164948,0.0819690525531769,-9.25467586517334,0.0320788994431496,0.039126418530941,0.0812550187110901,0.039998322725296,0.0226793047040701,0.0243537146598101,0.0858518704771996,0.0992673113942146,0.0315969362854958,0.0397056341171265,0.106672339141369,0.00261091697029769,0.040224477648735,0.0476984605193138,0.0828123390674591,2012-01-17 13:29:40
1,26,-4.3145489692688,0.054778091609478,0.0589330308139324,0.088637076318264,0.0404371321201324,0.0650539994239807,0.0320807881653309,0.00916463788598776,-9.22768020629883,0.0471766442060471,0.0531236380338669,0.0886372029781342,0.000631460512522608,0.00301199243403971,0.0247339159250259,0.0448914133012295,0.102215468883514,0.0508030913770199,0.0639126151800156,0.123337477445602,0.0382699742913246,0.0770325437188148,0.109824046492577,0.0371355004608631,2012-01-17 13:29:41
1.00399994850159,46,-4.3351788520813,0.018797654658556,0.0261388868093491,0.0680069699883461,3.62193059117999e-05,0.00398069527000189,0.00865843612700701,0.0238612089306116,-9.22166156768799,0.0356490015983582,0.0428548008203506,0.101478017866611,0.024189930409193,0.0472041219472885,0.176331326365471,0.107989996671677,0.137932658195496,0.039977390319109,0.0547694116830826,0.126846879720688,0.173163741827011,0.24054616689682,0.299822300672531,0.0605599582195282,2012-01-17 13:29:42
1.2189998626709,27,-4.37594509124756,0.0456029623746872,0.0589810162782669,0.139472514390945,0.05250309035182,0.0937598720192909,0.0918860882520676,0.0442595258355141,-9.20481204986572,0.0435316860675812,0.0512810386717319,0.114048071205616,0.0194799695163965,0.029627138748765,0.0112670371308923,0.0122498506680131,0.222284063696861,0.0401951596140862,0.0487783402204514,0.101335391402245,0.00625053513795137,0.0110149597749114,0.0165743231773376,0.0131245460361242,2012-01-17 13:29:43
1.00600004196167,35,-4.35611391067505,0.0297001823782921,0.0372727252542973,0.0902214199304581,0.00262523093260825,0.0325307920575142,0.0861871764063835,0.0670920461416245,-9.22665691375732,0.0225753933191299,0.0291990879923105,0.0700475126504898,0.00729229999706149,0.012971674092114,0.00714677385985851,0.00647030444815755,0.187727302312851,0.0634830519556999,0.0750208422541618,0.177920654416084,0.0739355683326721,0.125824704766273,0.0490123368799686,0.0776863321661949,2012-01-17 13:29:44
1.01699995994568,44,-4.36574220657349,0.0276369396597147,0.0364704802632332,0.0802365019917488,0.0196410585194826,0.0377840399742126,0.0448438860476017,0.0535060577094555,-9.22293090820312,0.0448190979659557,0.0540982522070408,0.112999483942986,0.025509400293231,0.417405277490616,0.257276445627213,0.0761256143450737,0.171839252114296,0.0314461141824722,0.0457346253097057,0.132612645626068,0.1023029088974,0.0872815996408463,0.0440925024449825,0.15470065176487,2012-01-17 13:29:45
1.01800012588501,45,-4.30359363555908,0.0237878896296024,0.0282683577388525,0.0799788683652878,0.0296644233167171,0.100962683558464,0.107051379978657,0.0103236427530646,-9.22239112854004,0.0315557867288589,0.0401683524250984,0.103732660412788,0.000398821575799957,0.0313896685838699,0.0679541379213333,0.131559446454048,0.1634441614151,0.0447473786771297,0.0577399916946888,0.1634441614151,2.14197625609813e-05,0.114135347306728,0.130736976861954,0.346368879079819,2012-01-17 13:29:46
1.05299997329712,41,-4.30942440032959,0.0264157131314278,0.0309394672513008,0.072952002286911,0.0201962534338236,0.0425832197070122,0.0205133780837059,0.0422298908233643,-9.24264812469482,0.026625519618392,0.0339796282351017,0.103089265525341,0.00374000892043114,0.0039689727127552,0.0290688369423151,0.0484698191285133,0.172692716121674,0.0331010892987251,0.0409742742776871,0.0844328626990318,0.0430918298661709,0.0905459746718407,0.0593079179525375,0.0300491917878389,2012-01-17 13:29:47
1.01799988746643,37,-4.33082866668701,0.0240833777934313,0.0296709220856428,0.0625506117939949,0.00027387827867642,0.0110889626666903,0.0745273977518082,0.0481406040489674,-9.27311515808105,0.0244413670152426,0.0287911631166935,0.0646707713603973,0.0311425384134054,0.0483683906495571,0.0168087538331747,0.0201058182865381,0.190302014350891,0.0346277169883251,0.0416347831487656,0.0940908193588257,0.0161254052072763,0.0629697442054749,0.206328764557838,0.0838366076350212,2012-01-17 13:29:48
1.01800012588501,48,-4.43199300765991,0.0568733885884285,0.0738056004047394,0.255585819482803,0.815715253353119,1.52581679821014,0.380261421203613,0.362398266792297,-9.18699169158936,0.0450495183467865,0.0624304227530956,0.145261108875275,0.347098052501678,0.403870731592178,0.496903985738754,0.437518060207367,0.191433981060982,0.0419166162610054,0.0484160222113132,0.102765522897243,0.000344564294209704,0.0733414962887764,0.0912426263093948,0.0275971293449402,2012-01-17 13:29:49
1.00399994850159,17,-4.70834589004517,0.0518496036529541,0.0603474676609039,0.096912607550621,0.00452928151935339,0.00890260003507137,0.0149502577260137,0.00374564714729786,-9.03826999664307,0.0420769043266773,0.0462353080511093,0.0721075981855392,0.00143776612821966,0.00290786381810904,0.00542226061224937,0.00181443558540195,0.231321558356285,0.0464882701635361,0.0556843429803848,0.103835105895996,0.00142635859083384,0.0029044144321233,0.00897714681923389,0.0110374568030238,2012-01-17 13:29:50
1.01800012588501,52,-4.94783210754395,0.101751215755939,0.125268772244453,0.240640044212341,3.50627875328064,3.62103676795959,0.522110939025879,0.215156197547913,-8.90839862823486,0.0466685481369495,0.0646294057369232,0.201978921890259,0.204390704631805,0.0906661003828049,0.0755606517195702,0.0284833535552025,0.258556097745895,0.0498746484518051,0.060269296169281,0.172936499118805,0.148880362510681,0.403166115283966,0.495441347360611,0.200636252760887,2012-01-17 13:29:51
1.00399994850159,37,-5.38146543502808,0.127407684922218,0.16911093890667,0.350654006004333,1.51294851303101,1.7946914434433,0.263582229614258,0.10955024510622,-8.75442314147949,0.0700004026293755,0.08841772377491,0.18341138958931,0.124976754188538,0.107715539634228,0.374655306339264,0.272853940725327,0.564544975757599,0.129900500178337,0.142541751265526,0.219986975193024,1.23171269893646,2.39890503883362,1.63151037693024,0.113970831036568,2012-01-17 13:29:52
1.00699996948242,45,-5.2522234916687,0.240696340799332,0.314639061689377,0.878457725048065,7.26277351379395,13.6017808914185,17.1889953613281,3.71187448501587,-8.55314159393311,0.209324717521667,0.266587644815445,0.57684862613678,2.63493061065674,12.2570085525513,11.3695707321167,3.45291686058044,0.321440190076828,0.417303204536438,0.505808889865875,1.4001716375351,30.5697135925293,70.5329666137695,32.1679840087891,12.2876634597778,2012-01-17 13:29:53
1.19799995422363,41,-5.00019550323486,0.324313670396805,0.39628878235817,0.99166738986969,11.1728916168213,17.0286617279053,8.202805519104,13.9871339797974,-8.73892116546631,0.300803363323212,0.346238017082214,0.940242230892181,4.34641695022583,7.41375017166138,2.22798943519592,2.60215592384338,-1.67741549015045,0.240610033273697,0.276390820741653,0.745783746242523,4.10426139831543,8.23523044586182,2.70758819580078,1.2313597202301,2012-01-17 13:29:55
1.00099992752075,46,-4.9097204208374,0.203344330191612,0.237686216831207,0.523163259029388,3.73521494865417,3.35150408744812,0.650335669517517,0.247066766023636,-8.76202869415283,0.306193590164185,0.390512526035309,1.0049684047699,10.6149787902832,8.20082187652588,4.04594087600708,0.919971466064453,-0.624214589595795,0.279128015041351,0.325816333293915,0.555568039417267,12.643762588501,17.2288475036621,1.93168032169342,3.72407793998718,2012-01-17 13:29:56
1.03500008583069,46,-5.11224937438965,0.127152740955353,0.160774305462837,0.448121309280396,3.00530290603638,4.46838808059692,4.34154987335205,1.48135781288147,-8.77524662017822,0.0807333812117577,0.109150648117065,0.237064823508263,1.90548765659332,2.35513710975647,1.05077612400055,0.373489648103714,-0.743813037872314,0.0806314200162888,0.110059753060341,0.24665854871273,1.76912724971771,2.47170329093933,0.552900850772858,0.462215662002563,2012-01-17 13:29:57
1.02500009536743,44,-5.10636711120605,0.0989175066351891,0.113454304635525,0.199030384421349,1.60284245014191,2.40191006660461,0.640380501747131,0.455148488283157,-8.80704021453857,0.0592146553099155,0.071680560708046,0.206608861684799,0.404660433530807,0.437500774860382,0.244964301586151,0.455589205026627,-0.400289624929428,0.0973370745778084,0.107432015240192,0.197916015982628,0.702779233455658,0.702802121639252,1.53063857555389,0.216707304120064,2012-01-17 13:29:58
1,28,-5.01399993896484,0.0469317622482777,0.0595279522240162,0.154104694724083,0.00826691836118698,0.0208492800593376,0.0542874149978161,0.0323661416769028,-8.88972854614258,0.0844070911407471,0.0972751080989838,0.191229343414307,0.0077244401909411,0.054011058062315,0.231491833925247,0.0960834175348282,-0.109274096786976,0.0930631011724472,0.112447507679462,0.207340598106384,0.0464405342936516,0.0834796577692032,0.128272354602814,0.0698041245341301,2012-01-17 13:29:59
