"diffSecs","N.samples","x.mean","x.absolute.deviation","x.standard.deviation","x.max.deviation","x.PSD.1","x.PSD.3","x.PSD.6","x.PSD.10","y.mean","y.absolute.deviation","y.standard.deviation","y.max.deviation","y.PSD.1","y.PSD.3","y.PSD.6","y.PSD.10","z.mean","z.absolute.deviation","z.standard.deviation","z.max.deviation","z.PSD.1","z.PSD.3","z.PSD.6","z.PSD.10","time"
6.34600019454956,21,-7.74211645126343,0.0128976125270128,0.0150162298232317,0.0340897254645824,0.000259799795458093,0.000640815240330994,0.00215949141420424,0.00161420693621039,4.87857484817505,0.0165892355144024,0.0188074931502342,0.0340899750590324,0.000414830079535022,0.000823006324935704,0.00148511223960668,0.00248725898563862,2.89576363563538,0.0341565124690533,0.0391264222562313,0.0714484974741936,0.00350369745865464,0.00679284194484353,0.0125673385336995,0.00549498246982694,2012-01-18 15:16:06
1,70,-7.85456609725952,0.0850735977292061,0.096824124455452,0.166152462363243,4.12312746047974,3.26262474060059,0.402410447597504,0.12222708761692,4.99985027313232,0.0710561126470566,0.0824263989925385,0.155365526676178,2.94574546813965,2.81446194648743,0.465046972036362,0.10022097826004,2.13630867004395,0.380934298038483,0.451661765575409,0.717426359653473,96.8187103271484,109.999504089355,6.95061731338501,0.309873104095459,2012-01-18 15:16:07
0.592999935150146,99,-7.72476768493652,0.0349621325731277,0.0413544066250324,0.0911324024200439,0.239673376083374,0.875058650970459,0.11179057508707,0.125620767474174,4.93977785110474,0.0297971442341805,0.0365350060164928,0.124713085591793,0.00180445588193834,0.0550811961293221,0.460194051265717,0.205795496702194,2.712975025177,0.102116830646992,0.125147134065628,0.378992259502411,0.289649665355682,4.33941507339478,1.98604166507721,0.469618082046509,2012-01-18 15:16:07
1.00799989700317,62,-7.6958475112915,0.0336804650723934,0.0434547401964664,0.115307375788689,0.0574664734303951,0.168906226754189,0.182589888572693,0.101030372083187,4.94318437576294,0.0320322997868061,0.0420094020664692,0.117046929895878,0.000691483321134001,0.619810879230499,0.446913748979568,0.0808968171477318,2.80185484886169,0.0428390167653561,0.0496739856898785,0.100913621485233,0.000499579356983304,0.486122518777847,0.370606333017349,0.231736406683922,2012-01-18 15:16:08
0.970000028610229,99,-7.71565437316895,0.0224749483168125,0.0279313027858734,0.0762742534279823,0.00127039651852101,0.152909159660339,0.117171004414558,0.0360105931758881,4.94690990447998,0.0289246141910553,0.0347688309848309,0.0937078297138214,0.00304952077567577,0.337002754211426,0.410783290863037,0.0942695736885071,2.80549430847168,0.043228879570961,0.0560093820095062,0.167505472898483,0.77099484205246,1.66827547550201,0.994040548801422,0.341083645820618,2012-01-18 15:16:09
1.00399994850159,77,-7.71095609664917,0.0239038094878197,0.0287137776613235,0.0617694854736328,0.0109482826665044,0.0879785418510437,0.113956816494465,0.0694828480482101,4.93936777114868,0.0223357677459717,0.028380174189806,0.0816370323300362,0.034897830337286,0.0730928629636765,0.219434946775436,0.0400610864162445,2.78687167167664,0.0258422791957855,0.0327631942927837,0.0998495891690254,0.00330251618288457,0.134489998221397,0.147024214267731,0.198063045740128,2012-01-18 15:16:10
1.01700019836426,33,-7.68781900405884,0.0155431106686592,0.0190005172044039,0.0496276654303074,0.00439018337056041,0.00631540780887008,0.0022478315513581,0.00424146698787808,4.93007040023804,0.0405233949422836,0.0471408292651176,0.0953921675682068,0.00781943928450346,0.0294124893844128,0.0599123537540436,0.00326230842620134,2.79222059249878,0.0309057626873255,0.0386482030153275,0.0757787600159645,0.0311424657702446,0.0452663637697697,0.0151106733828783,0.00851220730692148,2012-01-18 15:16:11
1,49,-7.71142911911011,0.0308290887624025,0.0374633893370628,0.0848574712872505,0.00574115756899118,0.0208296570926905,0.106828972697258,0.0405573919415474,4.95055723190308,0.0271285641938448,0.0336620546877384,0.0766523107886314,0.0105145610868931,0.112306952476501,0.233063086867332,0.0470976680517197,2.86073970794678,0.0270469840615988,0.0338555239140987,0.100868351757526,0.0514943227171898,0.137082353234291,0.111520819365978,0.0928140729665756,2012-01-18 15:16:12
1.00099992752075,39,-7.70400381088257,0.018917003646493,0.0228338409215212,0.0548169799149036,0.00260532577522099,0.00921014882624149,0.0227291267365217,0.00462609715759754,4.91891527175903,0.0245392080396414,0.0338052287697792,0.0824763625860214,0.0208002161234617,0.0311102848500013,0.0275339502841234,0.0326740592718124,2.854740858078,0.0238687228411436,0.0301072206348181,0.0774473994970322,0.00309619773179293,0.0181030854582787,0.0364943221211433,0.0233779307454824,2012-01-18 15:16:13
1.00399994850159,43,-7.69958877563477,0.0165795609354973,0.0200175680220127,0.0405953302979469,0.0270103067159653,0.0526857599616051,0.0196722000837326,0.00688898842781782,4.91176319122314,0.0206846725195646,0.0277842618525028,0.0770851299166679,0.00474335765466094,0.0180969219654799,0.0512875728309155,0.0568279400467873,2.86468195915222,0.0272189453244209,0.0333204604685307,0.0871195048093796,0.00371368625201285,0.0869225859642029,0.0899094194173813,0.0615523494780064,2012-01-18 15:16:14
1.00399994850159,50,-7.70194673538208,0.0231515467166901,0.0277990754693747,0.0649199709296227,0.056053388863802,0.135869443416595,0.146210059523582,0.0280141942203045,4.93745231628418,0.0276782941073179,0.0346573516726494,0.0831606760621071,0.0190395228564739,0.0402190238237381,0.0463649965822697,0.022390179336071,2.88923525810242,0.0271683428436518,0.0318612158298492,0.0649201050400734,0.0143153080716729,0.126040950417519,0.168838605284691,0.0428377985954285,2012-01-18 15:16:15
1,38,-7.72041416168213,0.0165435988456011,0.0222359299659729,0.0758723691105843,0.00515192421153188,0.0144684528931975,0.0107661429792643,0.0115056643262506,4.94203567504883,0.0175758767873049,0.0219222232699394,0.0495493039488792,0.00297537050209939,0.0091070719063282,0.0279932543635368,0.0123636415228248,2.88831639289856,0.0188526697456837,0.0231343451887369,0.0443881265819073,1.19995765999192e-05,0.00220164190977812,0.0326574668288231,0.0410125218331814,2012-01-18 15:16:16
1.30599999427795,36,-7.69195461273193,0.0287995934486389,0.032619658857584,0.055298700928688,0.000522059854120016,0.0235690865665674,0.0289561469107866,0.0252651739865541,4.90904569625854,0.0275131203234196,0.0329635441303253,0.0743673741817474,0.0269030295312405,0.0557967573404312,0.0229662209749222,0.022599708288908,2.87280368804932,0.0348075889050961,0.0450551807880402,0.128031373023987,0.0168048106133938,0.0534330308437347,0.0780457630753517,0.0740592777729034,2012-01-18 15:16:18
1.00400018692017,44,-7.69755172729492,0.0300886519253254,0.0370133295655251,0.0875914171338081,0.0315290577709675,0.182038992643356,0.235522881150246,0.0573754124343395,4.92895603179932,0.0249117184430361,0.0315158329904079,0.0724353864789009,0.0249234344810247,0.0167570356279612,0.0073262588120997,0.0456333123147488,2.87000513076782,0.0297846924513578,0.0387186892330647,0.111216224730015,0.00442626047879457,0.065272681415081,0.0478849932551384,0.0306914057582617,2012-01-18 15:16:19
1.00899982452393,41,-7.71711587905884,0.0157046131789684,0.0205922480672598,0.0385089740157127,0.00522780325263739,0.00343429273925722,0.0160978380590677,0.0110642798244953,4.92580842971802,0.0360880084335804,0.0422352664172649,0.0813237056136131,0.0025465115904808,0.0422968827188015,0.178424939513206,0.0595551691949368,2.87813210487366,0.0383748710155487,0.0481460727751255,0.103089325129986,0.0656984522938728,0.124873489141464,0.108337126672268,0.1693374812603,2012-01-18 15:16:20
1.07100009918213,41,-7.69822025299072,0.0181782338768244,0.0246002711355686,0.0588402040302753,7.53714120946825e-05,0.00858684722334146,0.045423150062561,0.00694616883993149,4.93107080459595,0.0282706934958696,0.0379440970718861,0.096392460167408,0.0385820977389812,0.0902389660477638,0.0870497822761536,0.0279349330812693,2.90205073356628,0.0346295163035393,0.0416280627250671,0.0889772847294807,0.000229540004511364,0.0902206599712372,0.139333799481392,0.0839606299996376,2012-01-18 15:16:21
1.03200006484985,42,-7.70755958557129,0.0323108658194542,0.039860874414444,0.0779864564538002,0.114824913442135,0.142083317041397,0.0196105353534222,0.0436717420816422,4.91640043258667,0.0161887276917696,0.0204887744039297,0.0555709190666676,0.00120491336565465,0.00886611081659794,0.00626374967396259,0.0207180287688971,2.90533685684204,0.0399270728230476,0.0486139692366123,0.115111462771893,0.0349107421934605,0.0928140580654144,0.189087361097336,0.119453474879265,2012-01-18 15:16:22
1.00699996948242,38,-7.69460725784302,0.0175487995147705,0.021035548299551,0.042839590460062,0.00142053526360542,0.0109746316447854,0.0163843147456646,0.0198626667261124,4.92706727981567,0.0398785695433617,0.0488591082394123,0.113550573587418,0.141989082098007,0.223524361848831,0.0713068842887878,0.0337058529257774,2.91618800163269,0.0385746099054813,0.0461302734911442,0.0846469700336456,0.00130384473595768,0.0453526936471462,0.136520683765411,0.0169198308140039,2012-01-18 15:16:23
1.0090000629425,36,-7.67887926101685,0.0204609520733356,0.0254771150648594,0.0689190924167633,0.01124057918787,0.0219477228820324,0.0191864874213934,0.00664618518203497,4.9068660736084,0.0319170355796814,0.0397107787430286,0.0847185030579567,0.00248295348137617,0.0254488587379456,0.0681570842862129,0.0221087019890547,2.91829562187195,0.025470033288002,0.0337641760706902,0.0825394093990326,0.0142502970993519,0.0318831950426102,0.0540397427976131,0.0488507524132729,2012-01-18 15:16:24
1.00899982452393,34,-7.69677782058716,0.0242791902273893,0.0298147164285183,0.0672046467661858,0.000223343013203703,0.00453300215303898,0.0250340420752764,0.0188363362103701,4.92264986038208,0.0222600549459457,0.0257802810519934,0.0487451963126659,0.017763290554285,0.0312596894800663,0.027066795155406,0.00888974592089653,2.88632774353027,0.0441299341619015,0.050718754529953,0.101239219307899,0.0784119367599487,0.121425665915012,0.0407195165753365,0.0150622762739658,2012-01-18 15:16:25
1.00300002098083,36,-7.67288637161255,0.0169348400086164,0.0213576201349497,0.0449472926557064,7.257355900947e-05,0.00216528191231191,0.0238502882421017,0.0125659480690956,4.93029308319092,0.0220649410039186,0.0257780887186527,0.0563886016607285,0.00658362079411745,0.0165178962051868,0.0122105786576867,0.0109731610864401,2.88233780860901,0.0281033311039209,0.0334462225437164,0.067829392850399,0.0205215159803629,0.0446785055100918,0.0382049679756165,0.0479707233607769,2012-01-18 15:16:26
1,41,-7.69845914840698,0.0217601917684078,0.0249306317418814,0.0590793788433075,0.0203521624207497,0.0418845973908901,0.043742012232542,0.051999282091856,4.94063806533813,0.0193682461977005,0.0249992460012436,0.0607532858848572,0.000798283610492945,0.0100831370800734,0.00896343402564526,0.00341879110783339,2.88435101509094,0.0248403921723366,0.0308745410293341,0.0698425620794296,0.0684037879109383,0.137290224432945,0.0667951181530952,0.019194046035409,2012-01-18 15:16:27
1.01100015640259,34,-7.68841361999512,0.018459701910615,0.0230601653456688,0.0490333065390587,0.000806711439508945,0.00137688138056546,0.00272745103575289,0.00318521889857948,4.91053581237793,0.0140483155846596,0.0215784814208746,0.0660509914159775,0.00081472349120304,0.000731645559426397,0.000645391875877976,0.000549635151401162,2.91170978546143,0.0165423303842545,0.0202333442866802,0.0400918237864971,0.00503235030919313,0.00721880421042442,0.00175186316482723,0.0012387951137498,2012-01-18 15:16:28
1.00099992752075,37,-7.6878833770752,0.0271063540130854,0.0304145291447639,0.0495634451508522,0.0207434259355068,0.0567672289907932,0.0711702555418015,0.00345353386364877,4.92134809494019,0.0166476368904114,0.0208359081298113,0.0506234280765057,0.0028463879134506,0.00866919104009867,0.00418411940336227,0.0182929821312428,2.90780425071716,0.0290402639657259,0.0373684540390968,0.0834891125559807,0.0668407157063484,0.0810298919677734,0.0560387186706066,0.0455594919621944,2012-01-18 15:16:29
1.01799988746643,36,-7.67315864562988,0.0253037717193365,0.0302655268460512,0.0740948095917702,0.0356402397155762,0.0548748858273029,0.0683945268392563,0.0205548014491796,4.93519687652588,0.014165136963129,0.0173550937324762,0.0416781902313232,8.01620844868012e-05,0.00762941455468535,0.0131946699693799,0.00723672844469547,2.91965746879578,0.0351101942360401,0.046952061355114,0.13456903398037,0.00241096550598741,0.0314967967569828,0.149970546364784,0.0669754445552826,2012-01-18 15:16:30
1.01400017738342,39,-7.70224332809448,0.0224631130695343,0.0306690223515034,0.094043180346489,0.000613130803685635,0.00286679738201201,0.0106640588492155,0.00804615207016468,4.92168092727661,0.0203998722136021,0.025338115170598,0.0600970722734928,0.000856694474350661,0.00267293211072683,0.00845011230558157,0.0320231504738331,2.89748787879944,0.0461898893117905,0.054797038435936,0.141819179058075,0.0211350843310356,0.0662763938307762,0.21502710878849,0.0199791230261326,2012-01-18 15:16:31
1.00999999046326,38,-7.65408992767334,0.0234844442456961,0.0271612759679556,0.0539368316531181,0.0482410937547684,0.0619050785899162,0.01211859844625,0.0127219343557954,4.94074535369873,0.0192601177841425,0.0247329492121935,0.0606462843716145,0.0121001414954662,0.0141687393188477,0.00208859518170357,0.00244747777469456,2.91102647781372,0.0296915620565414,0.0353244207799435,0.0670982375741005,0.0450834520161152,0.061799269169569,0.0188973024487495,0.00287529826164246,2012-01-18 15:16:32
1.09599995613098,39,-7.6605019569397,0.0141201047226787,0.017421243712306,0.0407353416085243,0.0152242043986917,0.020136995241046,0.0167579557746649,0.00112926063593477,4.92520141601562,0.0150097580626607,0.0181045532226562,0.0467700958251953,4.85015480080619e-05,0.00116218999028206,0.0143608022481203,0.00728861382231116,2.92238163948059,0.0241394117474556,0.0297118276357651,0.0784532949328423,0.000339589896611869,0.0148160699754953,0.0273856222629547,0.0230635479092598,2012-01-18 15:16:33
1.02600002288818,39,-7.68011569976807,0.0216637346893549,0.02632712200284,0.0505421832203865,0.00177783833350986,0.00110342598054558,0.0407118909060955,0.0678171738982201,4.92570400238037,0.035525768995285,0.0437975898385048,0.0953004509210587,0.0358037017285824,0.0857174023985863,0.0399578660726547,0.136819258332253,2.92313599586487,0.0349712073802948,0.0408515296876431,0.0973122045397758,0.0795144364237785,0.152730390429497,0.0717965140938759,0.0260916221886873,2012-01-18 15:16:34
1.03399991989136,40,-7.67860698699951,0.0274588111788034,0.0328194722533226,0.0784533023834229,0.00989178195595741,0.0610303357243538,0.155476719141006,0.0167565029114485,4.92416429519653,0.0275199320167303,0.0364425182342529,0.0968405604362488,0.0058762114495039,0.0265574436634779,0.0188717395067215,0.0147702377289534,2.90938782691956,0.0427569635212421,0.0531456768512726,0.111060366034508,0.0638677626848221,0.0714695528149605,0.283526688814163,0.176181331276894,2012-01-18 15:16:35
1.01399993896484,42,-7.6846776008606,0.0189240723848343,0.0242068096995354,0.0649109110236168,0.00307173328474164,0.0169145725667477,0.065864697098732,0.018467616289854,4.91453266143799,0.0247501190751791,0.0352008044719696,0.119080975651741,0.0236485172063112,0.10624273866415,0.169105172157288,0.0503511764109135,2.98332285881042,0.0221817437559366,0.0290704444050789,0.0665451735258102,0.0167326126247644,0.0560311824083328,0.088627502322197,0.0401174873113632,2012-01-18 15:16:36
1.00800013542175,39,-7.65773630142212,0.0182078015059233,0.0228836573660374,0.0477760247886181,0.000168391386978328,0.00189841957762837,0.00296830874867737,0.0203874483704567,4.91715478897095,0.035306554287672,0.0411723032593727,0.0824766755104065,0.0474326573312283,0.0670358762145042,0.0506223291158676,0.0176877602934837,2.93470287322998,0.0393039397895336,0.0483351498842239,0.12497191876173,0.0014217538991943,0.0628247782588005,0.18040731549263,0.027902202680707,2012-01-18 15:16:37
1.01799988746643,37,-7.66853523254395,0.0284100435674191,0.0362289175391197,0.0689117312431335,0.000464007520349696,0.00614718208089471,0.0561907812952995,0.0300492793321609,4.93990135192871,0.024412713944912,0.0288082361221313,0.0516836047172546,0.00241892202757299,0.0238910112529993,0.053552158176899,0.0204776749014854,2.98413705825806,0.0484816953539848,0.0569938495755196,0.130402073264122,0.153757140040398,0.267823934555054,0.0906991586089134,0.0127241024747491,2012-01-18 15:16:38
1.00200009346008,37,-7.68417263031006,0.0218484308570623,0.0247190315276384,0.0434674322605133,7.8757519077044e-05,0.00640572188422084,0.0405242182314396,0.0317693613469601,4.92664909362793,0.0351577885448933,0.0409354642033577,0.0821641087532043,0.0762978792190552,0.16472253203392,0.1122065782547,0.00452509522438049,2.94385027885437,0.0492123179137707,0.0587000511586666,0.119535185396671,0.00392959779128432,0.124054752290249,0.195692375302315,0.13244366645813,2012-01-18 15:16:39
1.0019998550415,38,-7.68867158889771,0.0220175143331289,0.0276906471699476,0.0880018174648285,0.0066676726564765,0.0121751986443996,0.0523448884487152,0.0310648158192635,4.94435787200928,0.0346492528915405,0.0422013252973557,0.0802599787712097,0.000120047108794097,0.0241869743913412,0.0643482506275177,0.0023553257342428,2.92444610595703,0.0336848720908165,0.0415548235177994,0.0861953645944595,0.00992586370557547,0.0186346881091595,0.0220940019935369,0.050581444054842,2012-01-18 15:16:40
1.00600004196167,38,-7.67989730834961,0.0170463249087334,0.0226294826716185,0.0575496666133404,0.00970467459410429,0.0174618996679783,0.00667164940387011,0.00337046245113015,4.93377733230591,0.0218951422721148,0.0264089498668909,0.0676141530275345,0.00361811928451061,0.0160871129482985,0.0468567498028278,0.0157719664275646,2.92496228218079,0.0232262425124645,0.0285187158733606,0.0712273567914963,0.0208165403455496,0.0631693303585052,0.0565667562186718,0.00941802747547626,2012-01-18 15:16:41
1.05299997329712,37,-7.69450950622559,0.0124212931841612,0.0163384936749935,0.045322984457016,0.000164081633556634,8.07556934887543e-05,0.00135693408083171,0.00391469802707434,4.9123363494873,0.0173353478312492,0.0216754116117954,0.0482384823262691,0.00394381862133741,0.006407730281353,0.00498080858960748,0.00189793994650245,2.95577716827393,0.0352437384426594,0.0397831611335278,0.0922354012727737,0.0734613165259361,0.114535383880138,0.0269944593310356,0.0144255580380559,2012-01-18 15:16:42
1.04800009727478,39,-7.66804599761963,0.0275438893586397,0.0334140099585056,0.0678923279047012,0.00630119489505887,0.0149908727034926,0.0168149601668119,0.0226191263645887,4.93349933624268,0.0198840610682964,0.0239579919725657,0.0497875213623047,0.00119701540097594,0.00812444929033518,0.0737615376710892,0.0410205759108067,2.96085381507874,0.0178337842226028,0.0221392642706633,0.0595943666994572,0.00580288330093026,0.00586596457287669,0.0161619950085878,0.0131204333156347,2012-01-18 15:16:43
1.10599994659424,40,-7.68890380859375,0.0216482747346163,0.025755425915122,0.0495238192379475,0.0247998740524054,0.0367242507636547,0.0342862717807293,0.011632738634944,4.91386699676514,0.0253256727010012,0.0292879100888968,0.0595757253468037,0.0259051807224751,0.0218545235693455,0.0265051517635584,0.0198491923511028,2.96013712882996,0.0239527318626642,0.0324917025864124,0.0799242705106735,0.068913035094738,0.0690261796116829,0.0313586443662643,0.0309845358133316,2012-01-18 15:16:44
1.01800012588501,35,-7.67692565917969,0.0244327541440725,0.0314937867224216,0.0767722129821777,0.00372223067097366,0.0185688361525536,0.0287469662725925,0.0297024175524712,4.92545986175537,0.0191329419612885,0.0235992111265659,0.0563180930912495,2.72909364866791e-05,0.00473237503319979,0.0135625069960952,0.0358295626938343,2.92994666099548,0.035367950797081,0.0450975149869919,0.125244945287704,0.0548144057393074,0.0766962915658951,0.0189358815550804,0.0166438315063715,2012-01-18 15:16:45
1,38,-7.69460725784302,0.0305881258100271,0.0350292138755322,0.055227167904377,5.1624886587831e-09,0.00644321227446198,0.0597352348268032,0.00666018947958946,4.91493797302246,0.0136369243264198,0.0169640071690083,0.0374200455844402,0.00976646412163973,0.0192317254841328,0.0132659273222089,0.00734281400218606,2.98947978019714,0.0275999214500189,0.0331818275153637,0.0701949819922447,0.04300157725811,0.0914833173155785,0.0441590584814548,0.0317890681326389,2012-01-18 15:16:46
1.01599979400635,38,-7.67421960830688,0.0193554349243641,0.0231301765888929,0.0534205809235573,0.000509885547216982,0.00127317290753126,0.0291404575109482,0.0307961292564869,4.93661594390869,0.0269886367022991,0.0327219814062119,0.0725179240107536,0.00309302844107151,0.0244110338389874,0.030962472781539,0.00330333271995187,2.97347950935364,0.0284148585051298,0.0344269536435604,0.0763886943459511,0.0183697938919067,0.0559635683894157,0.0877033472061157,0.0380730740725994,2012-01-18 15:16:47
1.00500011444092,34,-7.67456865310669,0.0252463724464178,0.030096635222435,0.0628781020641327,0.0114989560097456,0.0133120315149426,0.00729617523029447,0.0245017576962709,4.95062780380249,0.0269088577479124,0.032391645014286,0.0801836475729942,0.000226292904699221,0.0115939052775502,0.0495685786008835,0.00800228491425514,2.9921817779541,0.0365459397435188,0.0432569645345211,0.0871061161160469,0.00313441548496485,0.00507637532427907,0.0117376111447811,0.0375576093792915,2012-01-18 15:16:48
1,38,-7.68454265594482,0.0242993980646133,0.0305625963956118,0.0745823904871941,0.0328239798545837,0.0761857330799103,0.106039583683014,0.0352357663214207,4.9216480255127,0.0233077798038721,0.0276616867631674,0.0673565268516541,0.0128664867952466,0.0350480005145073,0.0486906059086323,0.00533486064523458,2.95283389091492,0.0315931551158428,0.0398531779646873,0.0872276201844215,0.0465551614761353,0.124662771821022,0.098278135061264,0.0322485826909542,2012-01-18 15:16:49
1.00399994850159,37,-7.68099212646484,0.0187681186944246,0.0263344012200832,0.0808388367295265,0.0269935559481382,0.0509561821818352,0.0622344091534615,0.0363276302814484,4.91710710525513,0.0221061632037163,0.026041941717267,0.0530092529952526,0.00132225651759654,0.00409172102808952,0.0272365510463715,0.0234702676534653,2.95365691184998,0.021088944748044,0.0301475878804922,0.0864045992493629,0.000117994473839644,0.00719441659748554,0.00684286933392286,0.0256648994982243,2012-01-18 15:16:50
1.03400015830994,38,-7.65950965881348,0.0294201243668795,0.0338928662240505,0.0681305453181267,0.00476108305156231,0.0122143235057592,0.0380497314035892,0.0338790267705917,4.91468000411987,0.0329514667391777,0.0408403687179089,0.0996151342988014,0.0153838014230132,0.020226402208209,0.0173270702362061,0.0520518757402897,2.9172203540802,0.0221939589828253,0.0259202308952808,0.0640011802315712,0.0010725517058745,0.0110879587009549,0.0215675514191389,0.0180956088006496,2012-01-18 15:16:51
1.02300000190735,34,-7.6748571395874,0.0108927264809608,0.0146648129448295,0.0429763495922089,0.00169176468625665,0.00345008098520339,0.00477474182844162,0.00556904030963778,4.87621212005615,0.0252124387770891,0.0300911068916321,0.0663392692804337,9.69945176620968e-05,0.00266558723524213,0.0261942092329264,0.0243678279221058,2.96045446395874,0.0344759672880173,0.0424650199711323,0.0871060267090797,0.00476286979392171,0.0208841301500797,0.0468906424939632,0.109277211129665,2012-01-18 15:16:52
1.08999991416931,41,-7.69080543518066,0.0187149737030268,0.0227969959378242,0.0514253862202168,1.18115863756429e-07,0.000395102280890569,0.0127282533794641,0.0580955669283867,4.92054653167725,0.0168013703078032,0.020862739533186,0.0514250248670578,0.0096241133287549,0.0088794557377696,0.00251869205385447,0.00851804576814175,2.94151663780212,0.0262288115918636,0.0304734949022532,0.0691250339150429,0.00503353634849191,0.0314640551805496,0.0304145123809576,0.0178812891244888,2012-01-18 15:16:54
1.07599997520447,40,-7.66953563690186,0.0193315632641315,0.0221887305378914,0.0497689135372639,0.0145346196368337,0.0246833264827728,0.0208507031202316,0.0187465474009514,4.89670562744141,0.0278754848986864,0.0362573638558388,0.0914472118020058,2.28145163418958e-05,0.025368582457304,0.0617171227931976,0.0326179154217243,2.95180153846741,0.0431492701172829,0.0523531995713711,0.107873253524303,0.00894945580512285,0.0271026473492384,0.0324779152870178,0.0763384997844696,2012-01-18 15:16:55
1.01200008392334,37,-7.66058349609375,0.0188683997839689,0.0240768902003765,0.0702368393540382,0.000220514964894392,0.00376001582480967,0.0222509540617466,0.00960699375718832,4.91127634048462,0.0128367319703102,0.0176368895918131,0.0508884750306606,0.00207914900965989,0.00420223874971271,0.00276086665689945,0.00319815659895539,2.94597053527832,0.024641951546073,0.0329188965260983,0.0842842608690262,0.000369016110198572,0.00105485017411411,0.0026692096143961,0.0221990197896957,2012-01-18 15:16:56
1.10500001907349,42,-7.67183542251587,0.0240498390048742,0.0305268820375204,0.0656112805008888,0.00557719776406884,0.00658661965280771,0.0145862083882093,0.0298205409198999,4.93227815628052,0.0387818589806557,0.0471260324120522,0.117213025689125,0.00219776434823871,0.0392472967505455,0.0525579079985619,0.0483498312532902,2.99359655380249,0.0391154661774635,0.0451967976987362,0.0908282175660133,0.128458693623543,0.285112768411636,0.133144795894623,0.0163161065429449,2012-01-18 15:16:57
1.03699994087219,41,-7.67645406723022,0.0167666021734476,0.0195550452917814,0.0370741225779057,0.0034347022883594,0.0056802867911756,0.0171345137059689,0.0218890141695738,4.90476036071777,0.0232069510966539,0.0285345334559679,0.0700819566845894,0.0483673475682735,0.0903498530387878,0.0323343761265278,0.00756045337766409,2.94701790809631,0.0357379503548145,0.0424500480294228,0.10308950394392,0.0394466407597065,0.0238755457103252,0.119875475764275,0.0596586912870407,2012-01-18 15:16:58
1.07500004768372,39,-7.69998025894165,0.0137331644073129,0.0167475659400225,0.0374663807451725,0.0066055809147656,0.0183880366384983,0.0227764286100864,0.00901576597243547,4.9259557723999,0.0243715476244688,0.0330256037414074,0.0754356756806374,0.0536336228251457,0.10352336615324,0.0580334179103374,0.0488533824682236,2.9487841129303,0.031876415014267,0.0401679016649723,0.0950491577386856,0.00630159163847566,0.0108303688466549,0.095417745411396,0.132002741098404,2012-01-18 15:16:59
1.01799988746643,41,-7.67525815963745,0.0169999469071627,0.0223637688905001,0.0554914809763432,0.0117845591157675,0.0136359296739101,0.00669254781678319,0.009691814891994,4.90212917327881,0.0306393075734377,0.0379622653126717,0.0870641246438026,0.0237026233226061,0.0954879149794579,0.120135478675365,0.00678278505802155,2.94534349441528,0.0306975338608027,0.0399734936654568,0.104524567723274,0.0130497338250279,0.0451217219233513,0.0818393528461456,0.0434635952115059,2012-01-18 15:17:00
1,38,-7.68170356750488,0.0208087246865034,0.0243464056402445,0.0557431690394878,0.00242281029932201,0.00211662403307855,0.0041170078329742,0.0385064482688904,4.89867973327637,0.0242857914417982,0.0303296055644751,0.0634851679205894,0.0260396394878626,0.0365644581615925,0.0136426752433181,0.0149450926110148,2.95644688606262,0.019395949319005,0.0236749686300755,0.0443881489336491,0.0170522518455982,0.0405227243900299,0.029217915609479,0.0204139109700918,2012-01-18 15:17:01
1,28,-7.67440414428711,0.0308210849761963,0.0329894907772541,0.0546371936798096,0.00430621160194278,0.0145084271207452,0.0352611243724823,0.0118826003745198,4.8980712890625,0.0249169692397118,0.0309540443122387,0.0731998831033707,0.000433213514043018,0.00143556040711701,0.00934601482003927,0.00526194926351309,2.933589220047,0.0268181655555964,0.0362897366285324,0.0994675233960152,0.000151649495819584,0.00237602926790714,0.00726008880883455,0.026351323351264,2012-01-18 15:17:02
1.07999992370605,38,-7.67499399185181,0.0223843529820442,0.0275930985808372,0.0650337114930153,0.0117000667378306,0.0199855379760265,0.00695488136261702,0.0165383908897638,4.92474460601807,0.0184180215001106,0.0259318631142378,0.0998732671141624,0.00011129606718896,0.00294108665548265,0.0245714113116264,0.0132487006485462,2.96702766418457,0.0421875901520252,0.055415328592062,0.15251924097538,0.0987045839428902,0.165174588561058,0.191073223948479,0.0647627115249634,2012-01-18 15:17:03
1.03299999237061,38,-7.65925121307373,0.0179020129144192,0.024899497628212,0.0585820935666561,0.00788463745266199,0.0218996815383434,0.024957962334156,0.00599081534892321,4.90384101867676,0.0212161019444466,0.0253488011658192,0.0495496802031994,6.97973018759512e-06,0.00412231031805277,0.021329503506422,0.0381429418921471,2.99515724182129,0.0259428713470697,0.0327291414141655,0.0939373597502708,0.0221837591379881,0.0345870405435562,0.0107962591573596,0.0203573685139418,2012-01-18 15:17:04
1.06200003623962,41,-7.66018915176392,0.0214919298887253,0.0295548997819424,0.0894557759165764,0.000131568624055944,0.00545150181278586,0.0612864084541798,0.0620461218059063,4.90715217590332,0.0259255263954401,0.0321899950504303,0.0724738016724586,0.0110428296029568,0.040113553404808,0.0850974172353745,0.00694376695901155,2.97524189949036,0.038444884121418,0.0454265773296356,0.0942395180463791,0.0936080887913704,0.102886661887169,0.0381724573671818,0.0217227544635534,2012-01-18 15:17:05
1.00500011444092,41,-7.68482542037964,0.0210252422839403,0.0247672237455845,0.0624278001487255,0.0118137039244175,0.0280106645077467,0.0310457479208708,0.0068549900315702,4.90117216110229,0.022133607417345,0.0272694751620293,0.0511859580874443,0.047428086400032,0.0545757748186588,0.035618145018816,0.0424981266260147,2.94319081306458,0.0245370306074619,0.0316992066800594,0.0674507170915604,0.0398924313485622,0.0511381328105927,0.0146660106256604,0.0195513870567083,2012-01-18 15:17:06
1.00300002098083,39,-7.68011569976807,0.0198842417448759,0.023136530071497,0.0505421347916126,3.90673164929467e-07,0.000812826969195157,0.0196371171623468,0.025028970092535,4.87993955612183,0.0391107015311718,0.0460839085280895,0.101838402450085,0.00443032756447792,0.0096158105880022,0.172088220715523,0.0705540180206299,2.99027371406555,0.0360157787799835,0.0455330684781075,0.0988208204507828,0.0550798363983631,0.106065161526203,0.0920254588127136,0.0495795980095863,2012-01-18 15:17:07
1.01399993896484,39,-7.68187570571899,0.0283304620534182,0.034068014472723,0.0653777346014977,0.00185508071444929,0.00754181388765574,0.0936147719621658,0.0698533430695534,4.93827676773071,0.0279563330113888,0.0351691767573357,0.0643722116947174,0.0463841967284679,0.0734241902828217,0.0893342047929764,0.0403034426271915,3.00360083580017,0.0469378493726254,0.0603276751935482,0.144333899021149,0.130197450518608,0.240392208099365,0.264865845441818,0.204992488026619,2012-01-18 15:17:08
1.01600003242493,37,-7.67277574539185,0.0205303933471441,0.024286113679409,0.0450578108429909,0.0320007428526878,0.0597528889775276,0.0389881357550621,0.00884196721017361,4.87841081619263,0.0235533360391855,0.0305550713092089,0.0641408637166023,0.00205234112218022,0.0207613185048103,0.0823684930801392,0.0708866640925407,2.99261856079102,0.0286678653210402,0.0347663722932339,0.0898500755429268,0.0208965800702572,0.0443761087954044,0.0250586662441492,0.0187000166624784,2012-01-18 15:17:09
1.01600003242493,37,-7.67542600631714,0.0175791122019291,0.0216366276144981,0.0556595139205456,0.00243455893360078,0.00605387380346656,0.0102525856345892,0.00826262775808573,4.89510869979858,0.02767931856215,0.0369412638247013,0.116089522838593,0.0037465684581548,0.0127979954704642,0.0178714208304882,0.0336450189352036,2.9584276676178,0.0302866902202368,0.034806702286005,0.085079200565815,0.0197329930961132,0.0461480915546417,0.0401432476937771,0.00635556131601334,2012-01-18 15:17:10
1.0019998550415,33,-7.66880035400391,0.0255569163709879,0.0328372120857239,0.0784533247351646,0.0321342945098877,0.0498436875641346,0.0509708411991596,0.0368517674505711,4.9015417098999,0.0238278359174728,0.0267157945781946,0.0508163347840309,0.000212568804272451,0.00692212907597423,0.0109036769717932,0.012485452927649,2.98835372924805,0.0238277725875378,0.0300833955407143,0.0811277627944946,4.30228192271898e-06,0.000141450553201139,0.00946399196982384,0.0288543552160263,2012-01-18 15:17:11
1.00500011444092,37,-7.65210247039795,0.0233526676893234,0.0282817333936691,0.0715620592236519,0.0021852005738765,0.00190041330642998,0.0273144841194153,0.0263862088322639,4.91737222671509,0.0288253761827946,0.0341650769114494,0.0644057765603065,0.0412637367844582,0.0998322069644928,0.137394979596138,0.0318273417651653,2.99076318740845,0.0331950858235359,0.0425625815987587,0.107608050107956,0.00543178105726838,0.0257677789777517,0.0325933434069157,0.00388123467564583,2012-01-18 15:17:12
1.08299994468689,42,-7.68117523193359,0.0189129859209061,0.0232522152364254,0.0660782232880592,0.00117022381164134,0.00128422072157264,0.0203371830284595,0.0299027245491743,4.89235067367554,0.0378146693110466,0.0441275760531425,0.106705814599991,0.144656494259834,0.236153960227966,0.106688879430294,0.0232589263468981,2.96627807617188,0.0373586937785149,0.0416192188858986,0.0831229835748672,0.073333777487278,0.0581072419881821,0.0763061121106148,0.072965033352375,2012-01-18 15:17:13
1.04900002479553,37,-7.66429424285889,0.0162466336041689,0.0224085319787264,0.0543342158198357,0.00821614544838667,0.0239446274936199,0.020887466147542,0.0097948769107461,4.88371133804321,0.0376364961266518,0.0462790541350842,0.0882599800825119,0.00960027799010277,0.0480811297893524,0.0532946065068245,0.0270343869924545,3.01726770401001,0.0198855213820934,0.0239187367260456,0.0522137470543385,0.00180761131923646,0.00442903256043792,0.0257003903388977,0.0107085788622499,2012-01-18 15:17:14
1.06299996376038,41,-7.6881742477417,0.0241988301277161,0.0278630740940571,0.0586009249091148,0.0134759033098817,0.0398629829287529,0.0412083826959133,0.0089914295822382,4.91982889175415,0.0192982517182827,0.0231702383607626,0.0459242090582848,0.0462580174207687,0.0726793259382248,0.0216214675456285,0.00725506525486708,2.94032073020935,0.0394249297678471,0.0480378083884716,0.0963922888040543,0.00163201964460313,0.0482608750462532,0.186025530099869,0.181988403201103,2012-01-18 15:17:15
1.06900000572205,41,-7.68315124511719,0.0228687319904566,0.0268871057778597,0.0542954467236996,0.00377728580497205,0.0172621291130781,0.0644031688570976,0.0336512327194214,4.88442897796631,0.0232537463307381,0.0280227735638618,0.0497510023415089,0.00606612581759691,0.0463333316147327,0.0393574051558971,0.00317423464730382,2.97619867324829,0.0269055981189013,0.0361211486160755,0.112656757235527,0.0230172947049141,0.0501126684248447,0.102549023926258,0.0405501089990139,2012-01-18 15:17:16
1.05999994277954,41,-7.65971088409424,0.0229153502732515,0.0304304342716932,0.069364108145237,0.00353876757435501,0.0175448004156351,0.0936207324266434,0.115042306482792,4.89830207824707,0.0288192089647055,0.0320618562400341,0.0540562719106674,0.0442533642053604,0.105677776038647,0.09999118745327,0.0099257193505764,2.97954726219177,0.0331244431436062,0.0405151508748531,0.0801275372505188,0.0660297572612762,0.105204358696938,0.0263036862015724,0.114273436367512,2012-01-18 15:17:17
1.00100016593933,34,-7.6892786026001,0.0399392731487751,0.0503071062266827,0.108738601207733,0.0482358261942863,0.0968723371624947,0.0530788786709309,0.0322576463222504,4.93447542190552,0.0218528620898724,0.0288834534585476,0.0703774616122246,0.00636999262496829,0.0152147710323334,0.0380076244473457,0.0379824712872505,2.92815017700195,0.0586363114416599,0.068610206246376,0.123448424041271,0.191632434725761,0.394011914730072,0.322085946798325,0.0377878658473492,2012-01-18 15:17:18
1.0019998550415,38,-7.68170356750488,0.0252637527883053,0.0317458473145962,0.0717435851693153,0.00113027053885162,0.00695082033053041,0.0559659413993359,0.0705686062574387,4.93506765365601,0.0291618797928095,0.0374735035002232,0.100389383733273,0.0110950125381351,0.0266172625124454,0.071480505168438,0.0584495291113853,2.86509013175964,0.0318376906216145,0.044630404561758,0.129034802317619,0.0153843481093645,0.0633335560560226,0.180998876690865,0.0498575568199158,2012-01-18 15:17:19
1.00399994850159,38,-7.66725158691406,0.031484667211771,0.0395816564559937,0.0867114961147308,0.0313869044184685,0.0534558445215225,0.0402776785194874,0.048642311245203,4.96551990509033,0.0216099079698324,0.0272100996226072,0.0652915313839912,0.000375989940948784,0.00581503985449672,0.0189680103212595,0.013181172311306,2.87696123123169,0.0404490530490875,0.0469998940825462,0.0846468210220337,0.0483861602842808,0.154086664319038,0.143535792827606,0.00595846958458424,2012-01-18 15:17:20
1.01800012588501,36,-7.68432712554932,0.0262874122709036,0.0311297085136175,0.0629261210560799,0.000957592390477657,0.00430100504308939,0.0282790753990412,0.027366504073143,4.96379947662354,0.0274222511798143,0.0341672003269196,0.0670119896531105,0.00293582514859736,0.0193146727979183,0.0803615972399712,0.0672977641224861,2.89868235588074,0.0329157970845699,0.0392520874738693,0.0825391784310341,0.0088166818022728,0.0491686202585697,0.0498685762286186,0.0115715255960822,2012-01-18 15:17:21
1.00600004196167,36,-7.66771030426025,0.0235482025891542,0.0294906254857779,0.0697363317012787,0.000231818557949737,0.00383531558327377,0.0178176108747721,0.00526122422888875,4.92702436447144,0.0247890278697014,0.0322258956730366,0.0825395956635475,0.0022782979067415,0.00163946754764766,0.00962360668927431,0.0207162629812956,2.86000037193298,0.0529680587351322,0.0648094043135643,0.163171827793121,0.0168658122420311,0.0437382124364376,0.0747232884168625,0.0140988454222679,2012-01-18 15:17:22
1.01900005340576,35,-7.6763653755188,0.0175641160458326,0.0209788922220469,0.0414682663977146,0.00623895041644573,0.0176875405013561,0.0378392189741135,0.0100626982748508,4.92125701904297,0.0182683896273375,0.0244167651981115,0.0605209618806839,0.00197218614630401,0.00693085696548223,0.00501291919499636,0.0118985148146749,2.90080690383911,0.0342952609062195,0.0453232862055302,0.109834566712379,0.0320313088595867,0.0589384809136391,0.0389222837984562,0.0223178807646036,2012-01-18 15:17:23
1.05499982833862,40,-7.68498134613037,0.0255219675600529,0.0301107130944729,0.0554077737033367,0.0731318667531013,0.102415353059769,0.0388821586966515,0.0125495754182339,4.95382928848267,0.02213847450912,0.0265459232032299,0.0573688037693501,0.0119929639622569,0.0105443885549903,0.0203904826194048,0.0123015679419041,2.90080690383911,0.0425608493387699,0.0479524023830891,0.0902210921049118,0.0737269967794418,0.0687213689088821,0.0851776674389839,0.111318252980709,2012-01-18 15:17:25
1.05100011825562,40,-7.66929054260254,0.0172599032521248,0.0223573725670576,0.0681563839316368,0.0206421706825495,0.0306517705321312,0.0102910762652755,0.0206306483596563,4.92637062072754,0.0196132771670818,0.0238757040351629,0.0524659529328346,0.000925956177525222,0.00578731717541814,0.00922936666756868,0.00807430315762758,2.89173579216003,0.0305231884121895,0.0363764241337776,0.0698723047971725,0.0486019439995289,0.139750495553017,0.138614282011986,0.0341962203383446,2012-01-18 15:17:26
1.10399985313416,42,-7.66739892959595,0.0232158750295639,0.0285167302936316,0.0672457069158554,0.0142863159999251,0.0300224479287863,0.0301756151020527,0.0104213086888194,4.93601369857788,0.021948205307126,0.0292377825826406,0.0751842111349106,0.0205674823373556,0.0630945935845375,0.050793930888176,0.0223811697214842,2.89669752120972,0.0253505036234856,0.0339005365967751,0.0747172385454178,0.0150877553969622,0.0369658283889294,0.0195786524564028,0.0956635624170303,2012-01-18 15:17:27
1.05000019073486,38,-7.65976762771606,0.014954567886889,0.0194034650921822,0.0482593327760696,0.0161869321018457,0.0316785983741283,0.0292664039880037,0.0116481091827154,4.92809963226318,0.0247746650129557,0.0293110609054565,0.0634850561618805,0.0232604052871466,0.0563834309577942,0.0290734153240919,0.00434574158862233,2.90457487106323,0.0253179781138897,0.0346976555883884,0.106066726148129,0.014529568143189,0.0790147632360458,0.061897374689579,0.0360356010496616,2012-01-18 15:17:28
1.03999996185303,38,-7.70080089569092,0.0136912884190679,0.0175260026007891,0.0418076626956463,0.00241837091743946,0.011045491322875,0.0173726174980402,0.0165696330368519,4.95803594589233,0.0412096194922924,0.0484428852796555,0.0841310396790504,0.0731196776032448,0.145739629864693,0.121163174510002,0.0576546862721443,2.91412353515625,0.037243478000164,0.041819978505373,0.086711511015892,0.0896311849355698,0.141706094145775,0.0549462549388409,0.00655511906370521,2012-01-18 15:17:29
1.10099983215332,42,-7.68070840835571,0.0310545414686203,0.0347402282059193,0.0609414912760258,0.0295058023184538,0.0509681031107903,0.0553902462124825,0.059224046766758,4.9717378616333,0.0273407157510519,0.0362844206392765,0.0884931907057762,0.0243086535483599,0.0552976578474045,0.0693498328328133,0.140055820345879,2.92541694641113,0.0316658914089203,0.0393133573234081,0.0852245539426804,0.0146926231682301,0.111869156360626,0.174717426300049,0.0691316872835159,2012-01-18 15:17:30
1.05800008773804,39,-7.67408084869385,0.0147005161270499,0.017883375287056,0.0347006395459175,0.0048209810629487,0.0058948895893991,0.00279706693254411,0.01185919996351,4.93827676773071,0.0257255136966705,0.0310744922608137,0.0741788297891617,0.00266183237545192,0.00618583476170897,0.0147481374442577,0.0314304679632187,2.94802975654602,0.0362865254282951,0.0429829396307468,0.0746813267469406,0.00384962535463274,0.0566160902380943,0.107349865138531,0.011137593537569,2012-01-18 15:17:31
1.00500011444092,41,-7.67645406723022,0.0180967133492231,0.020492197945714,0.0370741114020348,0.0101546607911587,0.0121086714789271,0.0140782967209816,0.0357950292527676,4.91289234161377,0.0346645899116993,0.0390761457383633,0.0786923542618752,0.0883844047784805,0.100191883742809,0.0486557073891163,0.0572763532400131,2.91998982429504,0.0327160134911537,0.0379364900290966,0.0906517878174782,0.0235432013869286,0.0128754768520594,0.110798560082912,0.0547987967729568,2012-01-18 15:17:32
1.00599980354309,37,-7.66111373901367,0.0210747439414263,0.0261093750596046,0.0665264278650284,0.000248850585194305,0.0173870641738176,0.0417287275195122,0.00773066934198141,4.9123363494873,0.0236534401774406,0.0293207187205553,0.0694416016340256,0.00596298230811954,0.014389630407095,0.0158746093511581,0.0160392578691244,2.95365691184998,0.0399429313838482,0.0507696978747845,0.0962112098932266,0.0159301292151213,0.0667180120944977,0.154795959591866,0.105382524430752,2012-01-18 15:17:33
1.01800012588501,41,-7.67095279693604,0.0179917048662901,0.0231778062880039,0.0511860735714436,0.0004186627920717,0.00184176757466048,0.0245436448603868,0.0185956321656704,4.92006826400757,0.022156834602356,0.0261928457766771,0.0559700168669224,0.0107429772615433,0.0250731408596039,0.0215495359152555,0.00360576063394547,2.95993399620056,0.027232252061367,0.0325539819896221,0.0669721662998199,0.0165891274809837,0.0594446249306202,0.0813700333237648,0.025161499157548,2012-01-18 15:17:34
1.00999999046326,37,-7.67489624023438,0.0150719359517097,0.0193937383592129,0.042937409132719,0.00224388064816594,0.00790796522051096,0.0180045440793037,0.0134475994855165,4.93035936355591,0.0329371429979801,0.0385181903839111,0.0808385014533997,0.00127763382624835,0.0244814064353704,0.0221788249909878,0.0400972999632359,2.93934440612793,0.0347709469497204,0.038803443312645,0.0909103602170944,0.0945904105901718,0.169801458716393,0.0673278197646141,0.0216167774051428,2012-01-18 15:17:35
1.02099990844727,36,-7.66553115844727,0.013983647339046,0.0179045405238867,0.0457644462585449,0.0018045058241114,0.00522709591314197,0.00936009734869003,0.00167737784795463,4.91994190216064,0.0194619446992874,0.0227439273148775,0.0460371561348438,1.22423361972324e-05,0.000554642057977617,0.0117125017568469,0.010425322689116,2.97577333450317,0.0250614546239376,0.0299994461238384,0.0642881095409393,0.0214354563504457,0.0272506140172482,0.0304669365286827,0.00849357899278402,2012-01-18 15:17:36
1.01900005340576,37,-7.66296911239624,0.0179658364504576,0.0212003905326128,0.0352511927485466,0.0168826952576637,0.0315514504909515,0.0166793707758188,0.00191027391701937,4.94387674331665,0.0262752119451761,0.0337534062564373,0.0895853713154793,0.0249205995351076,0.0734623000025749,0.110577799379826,0.0373490490019321,2.9510064125061,0.0527653619647026,0.0596026331186295,0.108668252825737,0.0506917834281921,0.111993879079819,0.348640471696854,0.141089424490929,2012-01-18 15:17:37
1.01600003242493,37,-7.67330598831177,0.0158455707132816,0.0177482776343822,0.0339259319007397,0.00643649604171515,0.0137797147035599,0.00986800715327263,0.00446699000895023,4.91816759109497,0.0216333512216806,0.0255544781684875,0.0442628227174282,0.0346984528005123,0.06723902374506,0.0353405736386776,0.0175205171108246,2.96876430511475,0.0346706919372082,0.0397955477237701,0.0758026838302612,0.0292529668658972,0.0384622327983379,0.0126758897677064,0.0422627329826355,2012-01-18 15:17:38
1.08599996566772,36,-7.6658034324646,0.0187507439404726,0.0240013245493174,0.0460368134081364,0.00427499692887068,0.00279872003011405,0.00532827200368047,0.00729886349290609,4.94609308242798,0.0283000059425831,0.0347603894770145,0.0749117806553841,0.0690826773643494,0.111248321831226,0.0763431787490845,0.0226942133158445,3.00818991661072,0.0325526706874371,0.039792887866497,0.115228086709976,0.0029493432957679,0.0241972636431456,0.024965638294816,0.0175551231950521,2012-01-18 15:17:39
1.02900004386902,35,-7.64750576019287,0.0209582578390837,0.0284693855792284,0.0703279748558998,0.0188044924288988,0.0213670469820499,0.00243207369931042,0.00342518812976778,4.92910242080688,0.0235039219260216,0.0280414167791605,0.0650044158101082,0.0238368604332209,0.0403948798775673,0.0344791784882545,0.0104900002479553,3.01624536514282,0.0329823940992355,0.0375287570059299,0.0728493705391884,0.03091224655509,0.067127026617527,0.0922319069504738,0.0227827802300453,2012-01-18 15:17:40
1.09200000762939,37,-7.67357063293457,0.0173355489969254,0.0208495873957872,0.0442626550793648,0.00243273796513677,0.00563404243439436,0.00421297643333673,0.00511864153668284,4.91763734817505,0.0300718396902084,0.0347724482417107,0.064140759408474,0.0215555019676685,0.0155792189761996,0.0440596900880337,0.0529025122523308,2.99155831336975,0.0344128757715225,0.0421612784266472,0.0887899175286293,0.010801930911839,0.0134958354756236,0.0286803804337978,0.130056858062744,2012-01-18 15:17:41
1.06800007820129,45,-7.67926073074341,0.0320788025856018,0.0380878858268261,0.0777995213866234,0.0602676570415497,0.24231044948101,0.27409103512764,0.067169688642025,4.93143749237061,0.0246691554784775,0.0303566344082355,0.0575327016413212,0.0102847004309297,0.131890997290611,0.197466865181923,0.0363777726888657,2.99124622344971,0.0316041111946106,0.0402744114398956,0.0982843711972237,7.4488707468845e-05,0.0331474840641022,0.0385211408138275,0.0540526881814003,2012-01-18 15:17:42
1.08799982070923,42,-7.67160177230835,0.0158109273761511,0.0202211234718561,0.0518352650105953,0.017891600728035,0.026504697278142,0.0336717255413532,0.0109585169702768,4.92107057571411,0.0145654072985053,0.0192881301045418,0.0410944633185863,0.000213245511986315,0.00128834310453385,0.00584600307047367,0.00497573195025325,2.99032759666443,0.0361578948795795,0.0448066964745522,0.118380203843117,0.0200811717659235,0.0708299353718758,0.14683224260807,0.107389070093632,2012-01-18 15:17:43
1.04500007629395,39,-7.63359642028809,0.0232367925345898,0.0275337845087051,0.0628630667924881,0.000585063826292753,0.00113166670780629,0.0212961938232183,0.0135209299623966,4.93199062347412,0.0172921698540449,0.022027550265193,0.0595941543579102,0.00156990461982787,0.00815754756331444,0.0261123478412628,0.0107462145388126,2.98574757575989,0.0282787997275591,0.0320935137569904,0.0633660405874252,0.00893204472959042,0.0203576274216175,0.0190075356513262,0.0565806739032269,2012-01-18 15:17:44
1.08999991416931,38,-7.64557361602783,0.0139900716021657,0.0165968853980303,0.0356135629117489,6.87463834765367e-05,0.00111779652070254,0.00965413264930248,0.00333328591659665,4.9216480255127,0.021039480343461,0.0266362819820642,0.0673565268516541,0.0253102537244558,0.0371739529073238,0.0216557700186968,0.021644864231348,2.9899959564209,0.0341195724904537,0.0407325588166714,0.0794854760169983,0.0101375263184309,0.0330706723034382,0.0166499316692352,0.0953865423798561,2012-01-18 15:17:46
1.04500007629395,41,-7.64990425109863,0.0194966979324818,0.0233670435845852,0.0497508160769939,0.00861246045678854,0.0140290427953005,0.0525283217430115,0.0135202603414655,4.91360998153687,0.0144561966881156,0.0184995196759701,0.048554815351963,0.00148690422065556,0.0036800685338676,0.012490825727582,0.0356980375945568,2.98720121383667,0.0209784507751465,0.0282301325351,0.0822802260518074,0.00560572883114219,0.00484686903655529,0.0228442959487438,0.0322416685521603,2012-01-18 15:17:47
1.10899996757507,40,-7.65776777267456,0.0220650490373373,0.025401771068573,0.0404526814818382,0.0282723754644394,0.0369426086544991,0.0135588999837637,0.0237991008907557,4.92318344116211,0.0257792174816132,0.0332912094891071,0.0786986723542213,0.0394463650882244,0.0787007883191109,0.0360191874206066,0.017911784350872,3.02289986610413,0.0384910926222801,0.0481800027191639,0.10051815956831,0.00242521427571774,0.0504624657332897,0.263385742902756,0.117965064942837,2012-01-18 15:17:48
1.06299996376038,40,-7.64060592651367,0.0326684825122356,0.0368362702429295,0.0600657574832439,0.0834727585315704,0.140482217073441,0.0740668475627899,0.0144202373921871,4.92686080932617,0.0401091948151588,0.0450359396636486,0.0745304822921753,0.100583627820015,0.208446592092514,0.149469271302223,0.0201791748404503,3.04300332069397,0.0364316813647747,0.045163843780756,0.0912018865346909,0.0192585736513138,0.0503994859755039,0.0531929060816765,0.0112103624269366,2012-01-18 15:17:49
1.03500008583069,40,-7.67492914199829,0.0324847064912319,0.0380246266722679,0.0649692043662071,0.0813529491424561,0.165575668215752,0.0858111009001732,0.0479143634438515,4.88738918304443,0.0210844222456217,0.0249722264707088,0.0551625117659569,0.00725208083167672,0.0408756397664547,0.0718881413340569,0.0152234761044383,3.00304126739502,0.0374614223837852,0.0481669083237648,0.11007958650589,0.0158475581556559,0.017074441537261,0.0380834229290485,0.0956457555294037,2012-01-18 15:17:50
1.08399987220764,38,-7.64273500442505,0.0291619170457125,0.0337677709758282,0.0652919188141823,0.0342157520353794,0.111401602625847,0.114429019391537,0.0134285949170589,4.93222904205322,0.0295014232397079,0.0363429524004459,0.0789692252874374,0.0130226304754615,0.0597996935248375,0.0875274464488029,0.0185463968664408,2.98741507530212,0.0360754728317261,0.0421152375638485,0.082066185772419,0.0617466531693935,0.136400282382965,0.129339352250099,0.0231484025716782,2012-01-18 15:17:51
1.10199999809265,38,-7.65279960632324,0.0261330306529999,0.0316912420094013,0.0650338158011436,0.000266761548118666,0.00446647917851806,0.0525224357843399,0.0199910942465067,4.91442203521729,0.01587806455791,0.0196353569626808,0.0503239743411541,0.00175165093969554,0.00129545258823782,0.00440750736743212,0.00481516774743795,3.00754475593567,0.0287137012928724,0.0337549299001694,0.0655497536063194,0.030879033729434,0.0957835242152214,0.125249147415161,0.023979838937521,2012-01-18 15:17:52
1.11200022697449,42,-7.68094158172607,0.024416696280241,0.0287755690515041,0.0611750297248363,0.036949634552002,0.046561487019062,0.045718040317297,0.0238426197320223,4.935546875,0.0250169318169355,0.0299816112965345,0.0616421587765217,0.000649865309242159,0.00524040311574936,0.0269350670278072,0.0256558712571859,2.97958707809448,0.0382148064672947,0.0496788807213306,0.116045273840427,0.104554183781147,0.37394592165947,0.387914448976517,0.17509850859642,2012-01-18 15:17:53
1.07499980926514,38,-7.71783351898193,0.0304522458463907,0.0357145145535469,0.0686468482017517,0.0300211105495691,0.122592277824879,0.129926323890686,0.0201521944254637,4.9699068069458,0.0358308851718903,0.0423988290131092,0.0763885080814362,0.000605576322413981,0.0557695552706718,0.0678412243723869,0.0841737166047096,2.7474102973938,0.0586769208312035,0.0748046189546585,0.227101370692253,0.000898239552043378,0.101038798689842,0.27844163775444,0.0577301792800426,2012-01-18 15:17:54
1.06599998474121,43,-7.79583024978638,0.0484020933508873,0.0674122050404549,0.146643787622452,0.22507356107235,0.184004500508308,0.248407080769539,0.0581992492079735,5.00526857376099,0.0290539395064116,0.0338484682142735,0.0921367406845093,0.0124314064159989,0.061232578009367,0.12313075363636,0.0179096590727568,2.31482553482056,0.0925824195146561,0.109098829329014,0.196589156985283,1.67030537128448,2.22327589988708,0.569549262523651,0.225678250193596,2012-01-18 15:17:55
1.04700016975403,39,-7.87297964096069,0.0345456823706627,0.0421286001801491,0.0900203138589859,0.0111868074163795,0.019670482724905,0.11420202255249,0.131669148802757,5.01924467086792,0.0371504388749599,0.0460974238812923,0.0900198593735695,0.0236908514052629,0.0823458880186081,0.208382934331894,0.141770973801613,2.0251989364624,0.0396006070077419,0.0510232150554657,0.142070800065994,0.00349526037462056,0.0464825071394444,0.0330727584660053,0.0140802524983883,2012-01-18 15:17:56
1,42,-7.82313823699951,0.0367804318666458,0.0443786978721619,0.105304561555386,0.0428492166101933,0.0300112143158913,0.107930891215801,0.112037569284439,4.9787425994873,0.0564159378409386,0.0617446452379227,0.110908351838589,0.315137416124344,0.485340803861618,0.099676750600338,0.0604317188262939,2.29709100723267,0.150257453322411,0.168445751070976,0.282057791948318,3.81741762161255,5.09563827514648,1.00533282756805,0.457105547189713,2012-01-18 15:17:57
1,34,-7.7870569229126,0.0287751723080873,0.0332083478569984,0.0692232921719551,0.0129654798656702,0.0156943667680025,0.00579163944348693,0.0146683929488063,4.93187952041626,0.0402446202933788,0.0514192543923855,0.128351598978043,0.0201864130795002,0.0404016114771366,0.028879152610898,0.0650100484490395,2.50415682792664,0.035188514739275,0.0400035493075848,0.0721078291535378,0.00927983410656452,0.0109517760574818,0.0486958958208561,0.0190577171742916,2012-01-18 15:17:58
1.01899981498718,36,-7.78457307815552,0.0194467958062887,0.0241122040897608,0.0569329522550106,0.000344655069056898,0.00162197987083346,0.00736837368458509,0.0438678748905659,4.92103147506714,0.0377737246453762,0.0469638966023922,0.129393115639687,0.0338641107082367,0.129325598478317,0.204899683594704,0.114836491644382,2.62327885627747,0.0419506765902042,0.0478475727140903,0.0931631773710251,0.115465350449085,0.176784098148346,0.0602470710873604,0.00277961301617324,2012-01-18 15:17:59
