"diffSecs","N.samples","x.mean","x.absolute.deviation","x.standard.deviation","x.max.deviation","x.PSD.1","x.PSD.3","x.PSD.6","x.PSD.10","y.mean","y.absolute.deviation","y.standard.deviation","y.max.deviation","y.PSD.1","y.PSD.3","y.PSD.6","y.PSD.10","z.mean","z.absolute.deviation","z.standard.deviation","z.max.deviation","z.PSD.1","z.PSD.3","z.PSD.6","z.PSD.10","time"
0,99,0.951641261577606,0.664971113204956,0.910971224308014,2.51991271972656,246.516983032227,148.535537719727,63.8653602600098,19.9657535552979,-9.70155048370361,0.474201232194901,0.624298453330994,1.55648350715637,0.117970891296864,11.9774503707886,40.5864181518555,5.17664480209351,-1.15599596500397,0.612803041934967,0.81806468963623,2.6882107257843,0.0237142983824015,125.423164367676,308.249847412109,20.0769634246826,2011-11-30 13:00:01
0.859588027000427,99,0.164731904864311,0.192544922232628,0.254003256559372,0.7472864985466,7.60839605331421,3.71860957145691,3.80550050735474,4.42433500289917,-9.80159759521484,0.0739628374576569,0.0963010713458061,0.250218033790588,0.273882210254669,1.20891952514648,1.23275148868561,0.352180033922195,-0.745701611042023,0.211916089057922,0.300943642854691,1.1371750831604,18.289026260376,11.367223739624,3.24189949035645,1.68955385684967,2011-11-30 13:00:01
0.835754990577698,99,1.02236795425415,0.412107408046722,0.495719999074936,1.48813438415527,84.1048889160156,96.7975006103516,41.2199287414551,27.7144165039062,-9.72235202789307,0.226118341088295,0.259986639022827,0.553135216236115,6.82825422286987,8.4155330657959,2.03113865852356,4.36488914489746,-0.745701611042023,0.689623296260834,0.84104996919632,1.99114620685577,209.049774169922,198.459411621094,306.459747314453,73.90869140625,2011-11-30 13:00:02
0.874571979045868,99,1.03861331939697,0.321107000112534,0.375387817621231,0.726583540439606,107.633903503418,138.071319580078,2.49936413764954,0.481489360332489,-9.58248329162598,0.213497042655945,0.257354527711868,0.560365974903107,37.2983779907227,34.1218605041504,3.49346661567688,0.611249566078186,-1.95370256900787,0.148981809616089,0.196704491972923,0.561158299446106,0.00290511618368328,2.60580635070801,3.92411589622498,0.825949251651764,2011-11-30 13:00:03
0.78219598531723,99,0.364529997110367,0.812746226787567,1.01741123199463,2.11011362075806,40.0717010498047,535.780029296875,260.920379638672,67.8523483276367,-9.82745170593262,0.824533045291901,0.997761130332947,2.05820751190186,94.5444259643555,702.536010742188,138.282791137695,23.1974411010742,-2.07623624801636,1.39269232749939,1.69553411006927,3.86659336090088,5.77812957763672,1030.56640625,368.327911376953,85.6439514160156,2011-11-30 13:00:04
0.836486995220184,99,0.853772878646851,0.535850703716278,0.738489866256714,2.10902404785156,38.8395156860352,60.3781623840332,68.6254272460938,30.8792781829834,-9.71531867980957,0.434768527746201,0.621625065803528,3.39983654022217,1.00038301944733,13.6106796264648,76.0692672729492,71.3289566040039,-0.983141422271729,0.385998368263245,0.527589559555054,1.61076700687408,3.87896490097046,27.8499450683594,55.2482452392578,12.7431049346924,2011-11-30 13:00:05
0.850067019462585,99,0.783046126365662,0.4188072681427,0.45334067940712,0.7536261677742,18.3474102020264,106.260925292969,17.935510635376,0.557610034942627,-9.71393203735352,0.120651662349701,0.148570269346237,0.466261237859726,7.34860610961914,7.85948181152344,2.00121641159058,1.22784459590912,-1.40185558795929,0.274304032325745,0.372014462947845,0.990966856479645,12.3780431747437,14.0089807510376,23.1132774353027,3.12073302268982,2011-11-30 13:00:06
0.836426019668579,99,1.45564365386963,0.335325181484222,0.44457283616066,1.27912390232086,0.672833204269409,38.709228515625,61.1486396789551,69.6905746459961,-9.57416248321533,0.283687382936478,0.370139747858047,0.918952643871307,3.77142286300659,48.7062072753906,66.5421905517578,10.4254903793335,-1.9267590045929,0.534469902515411,0.679010391235352,1.64286160469055,79.437370300293,104.808784484863,112.513931274414,60.3283348083496,2011-11-30 13:00:06
0.859223008155823,99,0.886857926845551,0.322679877281189,0.40664353966713,1.27060484886169,1.41810786724091,23.3097019195557,79.6552658081055,9.73412799835205,-9.70907878875732,0.223378792405128,0.34616607427597,1.09784924983978,1.27804589271545,2.05619382858276,14.9967250823975,6.81856822967529,-1.27526068687439,0.953473329544067,1.34099280834198,5.19712781906128,2.55232834815979,156.171615600586,123.692054748535,105.103256225586,2011-11-30 13:00:07
1.00015199184418,92,0.499179780483246,0.0645982995629311,0.0827089250087738,0.295158863067627,2.61817693710327,1.92694199085236,0.215814709663391,0.252778321504593,-9.70282745361328,0.0623251125216484,0.0763622149825096,0.231309399008751,1.05991637706757,1.31037843227386,0.599416434764862,0.418579965829849,0.335131585597992,0.169549375772476,0.205704033374786,0.68476003408432,1.08995294570923,7.48463869094849,5.41016244888306,2.33436512947083,2011-11-30 13:00:08
0.968352973461151,99,0.460714429616928,0.0602366998791695,0.0769906044006348,0.264581441879272,0.302703082561493,0.338368713855743,0.838380217552185,0.610100567340851,-9.65112972259521,0.0436270795762539,0.0573518499732018,0.168099582195282,0.0585786812007427,0.113434165716171,0.372400552034378,0.470740407705307,0.569380044937134,0.0769043117761612,0.101204141974449,0.255567252635956,1.32846617698669,0.699211776256561,0.424941629171371,0.451184064149857,2011-11-30 13:00:09
1.00030601024628,96,0.490026026964188,0.0510060675442219,0.0658223479986191,0.16701951622963,0.00320585793815553,0.488409429788589,0.111787930130959,0.288658142089844,-9.66986751556396,0.0644901916384697,0.0789416283369064,0.235870033502579,0.750560939311981,1.09429502487183,0.326848745346069,0.454202830791473,0.564801752567291,0.0830883681774139,0.105550430715084,0.278570145368576,0.553961396217346,1.71355605125427,0.359596192836761,0.734672844409943,2011-11-30 13:00:10
0.999969005584717,99,0.526785492897034,0.0764660462737083,0.103098660707474,0.311039179563522,0.790561616420746,0.960995733737946,1.92946231365204,0.922268569469452,-9.65588474273682,0.0522900968790054,0.0680793970823288,0.209605291485786,0.0853927657008171,1.13504040241241,0.654667913913727,0.0731351599097252,0.40544056892395,0.084826871752739,0.110775738954544,0.317180722951889,1.74665200710297,1.15770435333252,3.72711277008057,1.17724227905273,2011-11-30 13:00:11
0.952820003032684,99,0.288553237915039,0.330832600593567,0.499687522649765,1.60264432430267,82.9690399169922,45.6031150817871,7.79072141647339,2.40854239463806,-9.90758895874023,0.2984359562397,0.40616574883461,1.32102501392365,1.68714225292206,32.0509300231934,3.00864505767822,1.4581481218338,-0.396624505519867,0.844912767410278,1.08801662921906,3.18280267715454,16.0837535858154,364.310516357422,22.4556331634521,5.3218355178833,2011-11-30 13:00:12
0.805114984512329,99,-0.689932465553284,1.03073585033417,1.25168108940125,3.11504745483398,382.5361328125,871.7626953125,527.604614257812,72.4813232421875,-9.33850574493408,0.910588622093201,1.19324505329132,3.7141444683075,52.6605682373047,756.568298339844,234.596954345703,69.037467956543,-2.24839735031128,1.27113628387451,1.6206636428833,4.52354001998901,802.254699707031,739.508544921875,306.895385742188,430.710144042969,2011-11-30 13:00:13
0.859404981136322,99,0.44645020365715,0.4152592420578,0.505680561065674,1.47614848613739,0.660633981227875,111.672981262207,11.6989469528198,1.41437423229218,-9.76633358001709,0.195913061499596,0.288153976202011,1.09943389892578,6.00560283660889,14.7233934402466,6.06421566009521,1.04341387748718,0.228524655103683,0.286184877157211,0.367672979831696,1.03266990184784,1.19079387187958,25.5065803527832,18.6821670532227,7.66737413406372,2011-11-30 13:00:14
0.828705012798309,99,0.95154219865799,0.960715472698212,1.26819372177124,3.21687817573547,13.8633394241333,362.305541992188,308.565093994141,39.0222663879395,-9.76435279846191,0.999503791332245,1.33621311187744,3.45501184463501,45.399787902832,886.413330078125,342.090606689453,112.972785949707,-1.81759810447693,1.39325869083405,2.34108018875122,11.0094995498657,9.1250114440918,645.148498535156,870.989807128906,410.864624023438,2011-11-30 13:00:15
0.843109011650085,99,0.3421431183815,0.458568185567856,0.718597412109375,2.84283876419067,1.11506056785583,75.8443298339844,34.760627746582,3.9697413444519,-9.7544469833374,0.134265571832657,0.185769498348236,0.614649534225464,1.15065109729767,2.28280186653137,12.1374654769897,2.10963320732117,-0.634262382984161,0.367399662733078,0.465424597263336,1.72914016246796,0.61433345079422,61.9123611450195,12.0151510238647,3.50923156738281,2011-11-30 13:00:15
1.00009202957153,94,-0.0347405783832073,0.206425756216049,0.239460676908493,0.534879684448242,16.2367343902588,17.394079208374,5.61327219009399,0.631445705890656,-9.77889919281006,0.0814723148941994,0.110891059041023,0.442968279123306,0.644456923007965,3.02863621711731,0.622282683849335,0.346876949071884,-0.224196702241898,0.225865915417671,0.279133677482605,0.991827785968781,12.0374402999878,27.3011531829834,7.27101707458496,1.98580598831177,2011-11-30 13:00:16
0.874969005584717,99,0.976801753044128,0.330658495426178,0.430204778909683,1.44752097129822,44.3387718200684,56.7935333251953,24.6635971069336,2.98704552650452,-9.72829532623291,0.137195110321045,0.181520044803619,0.451006710529327,1.37941205501556,6.41127014160156,5.80229425430298,4.94724416732788,-1.23494446277618,0.4114750623703,0.503406584262848,1.14668464660645,31.4848499298096,131.883193969727,25.5206260681152,1.52130031585693,2011-11-30 13:00:17
0.921997010707855,99,0.995028257369995,0.172489374876022,0.22058330476284,0.475969195365906,0.230679377913475,12.801661491394,3.46665930747986,0.923377871513367,-9.64399814605713,0.141163319349289,0.178413689136505,0.398011356592178,0.196444556117058,2.3954918384552,9.92028999328613,0.86819064617157,-1.78322529792786,0.206392914056778,0.288294911384583,0.952830016613007,2.87866139411926,13.1844034194946,6.21572971343994,0.70272558927536,2011-11-30 13:00:18
0.929351985454559,99,0.814744353294373,0.204755961894989,0.254452973604202,0.628418028354645,12.6534042358398,16.911060333252,9.95119094848633,3.88910508155823,-9.70204544067383,0.171698987483978,0.224012315273285,0.699541091918945,0.121362946927547,5.42711877822876,13.2739334106445,4.88084983825684,-0.853079497814178,0.5134037733078,0.591173470020294,1.29457676410675,9.75125598907471,122.500007629395,18.9808254241943,7.07397794723511,2011-11-30 13:00:19
0.820098996162415,99,0.988589525222778,0.435923129320145,0.706402957439423,1.83572554588318,1.09963071346283,57.145378112793,503.849334716797,79.4234008789062,-9.78039932250977,0.220679312944412,0.361269295215607,2.01353287696838,0.906289458274841,19.484525680542,20.0392475128174,28.5396938323975,-0.936683654785156,0.470274925231934,0.699101209640503,2.58420085906982,1.89677703380585,71.6251907348633,211.401748657227,193.222702026367,2011-11-30 13:00:20
0.883117973804474,99,1.13420343399048,0.262002944946289,0.359847635030746,0.758479952812195,11.3361587524414,131.531845092773,39.1747169494629,2.06140780448914,-9.67738056182861,0.160940825939178,0.272855699062347,1.22761476039886,6.15427303314209,5.17045497894287,11.9374580383301,33.9222755432129,-0.135212898254395,0.305786162614822,0.392013996839523,0.968778133392334,39.9681510925293,56.4097175598145,14.9111833572388,13.3100423812866,2011-11-30 13:00:21
0.961151003837585,99,0.934405326843262,0.096819780766964,0.116860054433346,0.281619191169739,4.47182750701904,5.12269115447998,1.56591415405273,0.608341455459595,-9.68748378753662,0.0737405568361282,0.0965629369020462,0.305492252111435,0.153866171836853,1.08798623085022,1.28749537467957,0.465251058340073,-0.0134717617183924,0.11949684470892,0.143117144703865,0.359180927276611,5.16965246200562,12.1507196426392,0.927701234817505,1.44202411174774,2011-11-30 13:00:22
0.929473996162415,99,0.922221302986145,0.0582335479557514,0.0735570564866066,0.176915943622589,0.0302915163338184,0.717086315155029,0.716290056705475,0.864044487476349,-9.70511627197266,0.0551278702914715,0.066297248005867,0.150567248463631,0.0262626949697733,1.55675077438354,0.104654014110565,0.430359452962875,-0.000693399924784899,0.0878846347332001,0.102751456201077,0.215052902698517,1.16083860397339,2.09824728965759,2.62445259094238,0.42174220085144,2011-11-30 13:00:23
1.00796496868134,92,0.895283162593842,0.0532043166458607,0.0734081566333771,0.238237619400024,0.00963850039988756,0.373570948839188,0.229527786374092,0.56538850069046,-9.72681045532227,0.0630876496434212,0.0737074613571167,0.158292457461357,0.165520191192627,0.858341157436371,1.04357409477234,0.434159725904465,0.0093802735209465,0.0742172449827194,0.0967131480574608,0.422112315893173,0.0250128917396069,1.26651084423065,0.816729247570038,0.696587681770325,2011-11-30 13:00:24
0.953002989292145,99,0.776112139225006,0.0724377259612083,0.0961155742406845,0.253586113452911,2.07498621940613,2.76780271530151,1.90296792984009,0.295509696006775,-9.71660709381104,0.0645672380924225,0.0811958536505699,0.204156458377838,0.147936716675758,1.41992270946503,0.216647669672966,0.151982426643372,0.0691418349742889,0.0974081158638,0.122003249824047,0.304501414299011,3.01790595054626,2.36603450775146,1.6326858997345,0.776825964450836,2011-11-30 13:00:25
0.94522100687027,99,0.7352015376091,0.0753614157438278,0.103656955063343,0.314109951257706,0.0264200568199158,3.12469983100891,2.26050496101379,0.733025133609772,-9.68104553222656,0.0962716117501259,0.109474956989288,0.204057902097702,0.08464714884758,1.24661195278168,3.7737889289856,0.775821506977081,0.2512087225914,0.177792429924011,0.216190278530121,0.552936553955078,0.306799232959747,5.75180959701538,23.7666130065918,0.965294539928436,2011-11-30 13:00:26
1.02343702316284,93,0.768398463726044,0.0524313859641552,0.0748462826013565,0.261299788951874,0.819106459617615,0.816011548042297,0.552226364612579,0.938415050506592,-9.6823263168335,0.0387095622718334,0.0487511716783047,0.140456363558769,0.161557883024216,0.224918931722641,0.353936761617661,0.175607144832611,0.305693298578262,0.0924993082880974,0.123933836817741,0.501826286315918,2.55689334869385,2.43526363372803,2.33038020133972,0.480499088764191,2011-11-30 13:00:27
1.00018298625946,97,0.689700663089752,0.0891343057155609,0.10863533616066,0.320384204387665,0.234150618314743,2.37286734580994,1.3288197517395,3.10901641845703,-9.6949348449707,0.067451149225235,0.0840487703680992,0.20978182554245,0.111422449350357,1.27884256839752,1.1826343536377,1.13634753227234,0.292278587818146,0.0638177469372749,0.0779541879892349,0.17844058573246,0.0342836193740368,0.0481066517531872,0.514592528343201,0.588585674762726,2011-11-30 13:00:28
0.983916997909546,99,0.6238614320755,0.101258337497711,0.127533733844757,0.356803566217422,0.184224382042885,0.998303174972534,0.914893448352814,5.60348463058472,-9.68411540985107,0.0557180531322956,0.0790252909064293,0.289345264434814,0.105520196259022,0.200919419527054,0.720919370651245,0.360916972160339,0.305491983890533,0.0767242014408112,0.107529170811176,0.462398380041122,0.0868643075227737,0.253094136714935,1.43570840358734,1.49009120464325,2011-11-30 13:00:29
1.0237740278244,94,0.66893869638443,0.04670699685812,0.0568028315901756,0.14918626844883,0.318679183721542,0.728779435157776,0.295817494392395,0.436660408973694,-9.70201015472412,0.0568644218146801,0.0675709620118141,0.189560323953629,0.846761345863342,1.86655676364899,0.135657235980034,0.230408295989037,0.305779695510864,0.0746686086058617,0.0985448434948921,0.263005971908569,0.342069655656815,0.828519999980927,0.833689510822296,0.963793277740479,2011-11-30 13:00:30
0.992187023162842,99,0.678838074207306,0.0676449686288834,0.0842626988887787,0.247345492243767,0.376950591802597,1.66137909889221,0.40281555056572,0.365671992301941,-9.69610214233398,0.0542473196983337,0.0646428912878036,0.1444251537323,0.0318935997784138,0.484648555517197,0.402690857648849,0.780887544155121,0.320053398609161,0.0670346170663834,0.0896462649106979,0.310246735811234,0.143754586577415,0.44378873705864,0.620205938816071,0.54452258348465,2011-11-30 13:00:31
1.00006103515625,99,0.723017513751984,0.0710509270429611,0.0985685959458351,0.291524946689606,0.361546486616135,1.72460699081421,2.66143250465393,2.37863111495972,-9.73196125030518,0.0630246177315712,0.0754194557666779,0.180284053087234,0.197360023856163,1.90713381767273,0.493322253227234,0.144753769040108,0.121245853602886,0.0717353299260139,0.0926935970783234,0.3494733273983,0.33330175280571,0.854386746883392,1.02464258670807,1.22651851177216,2011-11-30 13:00:32
1,98,0.601607918739319,0.102763563394547,0.127371713519096,0.38586163520813,0.998249053955078,5.35674619674683,0.927435278892517,0.231533452868462,-9.68806934356689,0.0707847699522972,0.0867469012737274,0.234458744525909,0.316906720399857,0.732742607593536,2.25442242622375,0.562702000141144,0.0676458701491356,0.0855804830789566,0.106172136962414,0.3324254155159,0.329015791416168,1.39143228530884,0.363495409488678,0.764173626899719,2011-11-30 13:00:33
1.01556396484375,99,0.615243434906006,0.0879886969923973,0.103000111877918,0.257548362016678,0.0460089258849621,1.85151660442352,4.12146806716919,1.10703277587891,-9.69689464569092,0.0747151151299477,0.0936966985464096,0.233477354049683,1.50368821620941,1.09196853637695,0.818252146244049,0.831509530544281,0.321539252996445,0.16350419819355,0.185263782739639,0.419605731964111,11.3398342132568,14.6547155380249,5.02509880065918,1.05213868618011,2011-11-30 13:00:34
0.992401003837585,99,0.685871124267578,0.0844146311283112,0.104973390698433,0.235953912138939,0.829595625400543,4.96501541137695,0.988655269145966,0.549914717674255,-9.71234703063965,0.106927774846554,0.13969698548317,0.41792169213295,0.415861934423447,14.0523900985718,6.77849626541138,0.605004489421844,0.263392746448517,0.204465791583061,0.266656845808029,0.694885313510895,0.383696973323822,49.3774337768555,17.5388927459717,0.9019415974617,2011-11-30 13:00:35
0.968536972999573,99,0.640304923057556,0.0858494639396667,0.12294614315033,0.477653175592422,2.58531427383423,3.82101941108704,0.31683549284935,1.91077077388763,-9.71759700775146,0.0541633553802967,0.0761113315820694,0.275378912687302,0.00342892040498555,1.01296901702881,1.02721214294434,1.31862568855286,-0.0686465501785278,0.137094989418983,0.15788771212101,0.402072638273239,0.243416756391525,6.68204116821289,0.683104038238525,2.74369645118713,2011-11-30 13:00:36
1.00778198242188,95,1.04900181293488,0.177625879645348,0.210042417049408,0.499829441308975,0.0709586217999458,17.3809337615967,3.07752108573914,0.782613635063171,-9.72613143920898,0.0602960176765919,0.0784519910812378,0.223488241434097,0.29916250705719,0.895681440830231,0.557270765304565,1.54713094234467,-0.354174911975861,0.108997784554958,0.139072299003601,0.471854686737061,0.0355809591710567,1.03178679943085,1.24991381168365,1.35455060005188,2011-11-30 13:00:37
0.890747010707855,99,1.41582262516022,0.12175415456295,0.150997757911682,0.337091267108917,1.52409625053406,2.80840659141541,1.58334541320801,2.18160510063171,-9.72522449493408,0.129116535186768,0.167422235012054,0.424657553434372,0.0225708410143852,7.69403600692749,8.288330078125,4.58109617233276,-0.796319782733917,0.216130509972572,0.29728701710701,0.874772965908051,7.17362594604492,9.00820159912109,5.87887907028198,6.00255727767944,2011-11-30 13:00:38
0.828185975551605,99,1.4370208978653,0.248481154441833,0.304918050765991,0.59364902973175,31.7473583221436,41.0006637573242,18.3195686340332,0.64263653755188,-9.62695980072021,0.174948796629906,0.232760846614838,0.702908933162689,0.480232566595078,6.5674901008606,14.9771337509155,6.15266609191895,-1.24603891372681,0.196595266461372,0.268634229898453,0.872197449207306,11.015248298645,47.6872787475586,17.0223846435547,2.94470739364624,2011-11-30 13:00:38
0.90606701374054,99,1.1037929058075,0.173173770308495,0.221321508288383,0.456553995609283,7.41464281082153,16.7040824890137,10.4443674087524,0.891982913017273,-9.75930023193359,0.191036269068718,0.295234680175781,1.22414755821228,0.0358603596687317,10.1107082366943,1.76960349082947,0.83130544424057,-0.9864102602005,0.258576959371567,0.363411843776703,0.916079759597778,26.1772041320801,37.5866584777832,13.8142080307007,5.62145853042603,2011-11-30 13:00:39
0.938476026058197,99,1.28893053531647,0.146608471870422,0.184569761157036,0.466459721326828,3.12553381919861,14.456072807312,1.9534010887146,0.241595163941383,-9.69778633117676,0.071667417883873,0.0914173200726509,0.263788759708405,0.268584758043289,1.74654674530029,0.249105036258698,0.295190513134003,-0.142345011234283,0.133691027760506,0.192576110363007,0.906966507434845,0.661999702453613,3.40846157073975,4.93796730041504,0.762351274490356,2011-11-30 13:00:40
0.890320003032684,99,1.5498468875885,0.103625684976578,0.122484363615513,0.313416600227356,0.0271589867770672,1.46807289123535,3.79448699951172,0.476775377988815,-9.65954971313477,0.0998496040701866,0.118198819458485,0.313812494277954,0.0255631376057863,0.730242073535919,2.83267855644226,1.22217869758606,0.0751843154430389,0.146208226680756,0.169821843504906,0.375921577215195,1.21080829558196e-05,6.61545324325562,1.46899950504303,2.06341910362244,2011-11-30 13:00:41
0.975555002689362,99,1.82383871078491,0.111104004085064,0.15565687417984,0.461110562086105,1.66956770420074,2.04193663597107,1.58291375637054,1.12861096858978,-9.60714912414551,0.1095170378685,0.149150177836418,0.552540183067322,0.0570483393967152,2.16748738288879,0.553512215614319,0.859686315059662,0.296874046325684,0.0895836129784584,0.114201158285141,0.252298355102539,0.076103001832962,2.36660099029541,3.07398080825806,2.3156726360321,2011-11-30 13:00:42
0.906220018863678,99,1.60264432430267,0.246333912014961,0.299114882946014,0.896565556526184,1.20432066917419,17.8309478759766,58.0298004150391,1.70219206809998,-9.6843147277832,0.212148323655128,0.253985524177551,0.632280707359314,7.7215781211853,7.01800298690796,18.6594982147217,6.59183311462402,-0.0440803952515125,0.205780550837517,0.249416097998619,0.554125249385834,0.568619728088379,11.3082218170166,3.36653304100037,3.41798877716064,2011-11-30 13:00:43
0.891022026538849,99,1.53667235374451,0.271608471870422,0.341777622699738,0.781560242176056,2.34430646896362,66.802734375,59.4297676086426,1.49831593036652,-9.7016487121582,0.0964457169175148,0.124672397971153,0.301133632659912,0.186994224786758,5.79648351669312,1.74086844921112,1.94291806221008,-0.450907766819,0.1729676425457,0.209783405065536,0.764720559120178,6.44292831420898,18.3959846496582,2.58971810340881,4.1813645362854,2011-11-30 13:00:44
0.828125,99,1.34093546867371,0.435064643621445,0.685554385185242,1.93448543548584,0.801322221755981,172.134826660156,355.789276123047,105.56957244873,-9.66291809082031,0.167378559708595,0.20325556397438,0.771357595920563,0.682552933692932,6.5980486869812,5.70895719528198,1.88091433048248,-0.558384716510773,0.440365701913834,0.52234822511673,1.29507219791412,6.26068019866943,44.8628311157227,58.5709419250488,55.3277931213379,2011-11-30 13:00:45
0.898558974266052,99,1.1262788772583,0.144551277160645,0.171949952840805,0.420200109481812,0.237998113036156,4.53673219680786,14.9165544509888,3.82339692115784,-9.68599796295166,0.090544268488884,0.110365532338619,0.257944881916046,0.000969530956353992,1.14298439025879,0.867044985294342,1.20455813407898,0.040019053965807,0.514810621738434,0.565152823925018,1.1285572052002,18.200403213501,116.077087402344,43.4563789367676,4.11681032180786,2011-11-30 13:00:46
0.96109002828598,99,1.40968108177185,0.180512011051178,0.217755660414696,0.576115906238556,0.609253883361816,6.61444091796875,4.33830261230469,3.43921208381653,-9.67926216125488,0.081514909863472,0.114639893174171,0.715786933898926,2.14077354030451e-05,1.3548926115036,0.650959968566895,0.857093036174774,0.0690427795052528,0.217065051198006,0.370534986257553,1.55965352058411,6.26362180709839,4.07169580459595,4.69713497161865,2.82314348220825,2011-11-30 13:00:47
1.00766003131866,94,1.7385938167572,0.0770658925175667,0.0936218798160553,0.218563079833984,0.294495612382889,1.45380008220673,2.57315278053284,0.436753809452057,-9.64682197570801,0.0719450116157532,0.0867732241749763,0.252051442861557,0.00991773325949907,0.383511930704117,3.33065748214722,0.53782320022583,0.104221731424332,0.0859424769878387,0.118718333542347,0.601857006549835,0.218203783035278,0.717869162559509,0.702666640281677,1.8098931312561,2011-11-30 13:00:48
0.94515997171402,99,1.56510162353516,0.125526309013367,0.147873118519783,0.339270412921906,0.000750801642425358,1.85100340843201,5.68933773040771,2.80465579032898,-9.68391799926758,0.0800922214984894,0.096270740032196,0.249920770525932,0.155750975012779,1.38339424133301,1.64836847782135,0.777746737003326,0.0833069980144501,0.1158387362957,0.140263617038727,0.357992231845856,2.59826040267944,6.03094053268433,1.79045224189758,2.16270565986633,2011-11-30 13:00:49
0.984528005123138,99,1.44524264335632,0.0690557807683945,0.0932487398386002,0.268444627523422,0.550383925437927,0.575225591659546,0.715824782848358,0.846563756465912,-9.6435022354126,0.069610096514225,0.0887751802802086,0.221987366676331,0.0114961676299572,0.376044660806656,1.99194717407227,3.18049120903015,0.216340631246567,0.158311203122139,0.189271226525307,0.411284953355789,0.0424348004162312,8.05814075469971,2.58993339538574,0.944171667098999,2011-11-30 13:00:50
0.921752989292145,99,1.50883722305298,0.105977050960064,0.133839339017868,0.413266152143478,0.428150534629822,4.3872971534729,0.280857056379318,0.631693959236145,-9.61190319061279,0.127231284976006,0.188835456967354,0.609399139881134,0.0505753494799137,0.246004924178123,1.00672054290771,1.33797764778137,0.500733494758606,0.139268234372139,0.175126403570175,0.579186677932739,3.14155960083008,6.23059129714966,2.53030371665955,2.01207113265991,2011-11-30 13:00:51
0.9375,99,1.27248704433441,0.14177767932415,0.166733965277672,0.345610082149506,0.534354090690613,6.02454328536987,6.56751441955566,2.25716114044189,-9.65241813659668,0.0958152413368225,0.129372283816338,0.404746681451797,1.29072690010071,2.45774912834167,1.17974388599396,1.65402030944824,0.304204255342484,0.123863361775875,0.150400802493095,0.382261246442795,0.06806880235672,4.04170322418213,4.87300968170166,2.09935331344604,2011-11-30 13:00:51
