"diffSecs","latitude","longitude","altitude","time"
2.33299994468689,42.389931678772,-71.0418033599854,50,2012-01-27 07:38:38
0.914999961853027,42.389931678772,-71.0418033599854,50,2012-01-27 07:38:39
1.24200010299683,42.389931678772,-71.0418033599854,50,2012-01-27 07:38:40
1.29800009727478,42.389931678772,-71.0418033599854,50,2012-01-27 07:38:41
0.396999835968018,42.389931678772,-71.0418033599854,50,2012-01-27 07:38:42
1.00699996948242,42.389931678772,-71.0418033599854,50,2012-01-27 07:38:43
0.990000009536743,42.389931678772,-71.0418033599854,50,2012-01-27 07:38:44
1.00500011444092,42.389931678772,-71.0418033599854,50,2012-01-27 07:38:45
1.0019998550415,42.389931678772,-71.0418033599854,50,2012-01-27 07:38:46
0.997000217437744,42.389931678772,-71.0418033599854,50,2012-01-27 07:38:47
1.03099989891052,42.389931678772,-71.0418033599854,50,2012-01-27 07:38:48
0.974999904632568,42.389931678772,-71.0418033599854,50,2012-01-27 07:38:49
1.80800008773804,42.389931678772,-71.0418033599854,50,2012-01-27 07:38:51
0.829999923706055,42.389931678772,-71.0418033599854,50,2012-01-27 07:38:51
1.04999995231628,42.3863911628723,-71.0135436058044,50,2012-01-27 07:38:52
0.932000160217285,42.3863911628723,-71.0135436058044,50,2012-01-27 07:38:53
1.00300002098083,42.3863911628723,-71.0135436058044,50,2012-01-27 07:38:54
1,42.3863911628723,-71.0135436058044,50,2012-01-27 07:38:55
0.996999979019165,42.3863911628723,-71.0135436058044,50,2012-01-27 07:38:56
1.07599997520447,42.3863911628723,-71.0135436058044,50,2012-01-27 07:38:57
0.124000072479248,42.3723417520523,-70.9950578212738,50.4000015258789,2012-01-27 07:38:58
1.01099991798401,42.3723149299622,-70.9950470924377,50,2012-01-27 07:38:59
0.992000102996826,42.3722076416016,-70.9950792789459,51,2012-01-27 07:39:00
0.994999885559082,42.3721218109131,-70.9951758384705,52.0999984741211,2012-01-27 07:39:01
1.02500009536743,42.3721218109131,-70.9951758384705,52.0999984741211,2012-01-27 07:39:02
0.973999977111816,42.3721218109131,-70.9951758384705,52.0999984741211,2012-01-27 07:39:03
1.00999999046326,42.3721218109131,-70.9951758384705,52.0999984741211,2012-01-27 07:39:04
1.09099984169006,42.3721218109131,-70.9951758384705,52.0999984741211,2012-01-27 07:39:05
1.19500017166138,42.3721218109131,-70.9951758384705,52.0999984741211,2012-01-27 07:39:06
1.04199981689453,42.3720628023148,-70.9952455759048,48.5999984741211,2012-01-27 07:39:07
0.896000146865845,42.3720628023148,-70.9952455759048,48.5999984741211,2012-01-27 07:39:08
1.00099992752075,42.3720628023148,-70.9952455759048,48.5999984741211,2012-01-27 07:39:09
1.00800013542175,42.3720628023148,-70.9952455759048,48.5999984741211,2012-01-27 07:39:10
1.01199984550476,42.3720628023148,-70.9952455759048,48.5999984741211,2012-01-27 07:39:11
0.998000144958496,42.3720628023148,-70.9952455759048,48.5999984741211,2012-01-27 07:39:12
0.980999946594238,42.3720628023148,-70.9952455759048,48.5999984741211,2012-01-27 07:39:13
24.885999917984,42.3720628023148,-70.9952455759048,48.5999984741211,2012-01-27 07:39:38
1.1800000667572,42.3720628023148,-70.9952455759048,48.5999984741211,2012-01-27 07:39:39
0.83299994468689,42.3720628023148,-70.9952455759048,48.5999984741211,2012-01-27 07:39:40
1.00999999046326,42.3720628023148,-70.9952455759048,48.5999984741211,2012-01-27 07:39:41
0.975000143051147,42.3720628023148,-70.9952455759048,48.5999984741211,2012-01-27 07:39:42
0.995999813079834,42.3720628023148,-70.9952455759048,48.5999984741211,2012-01-27 07:39:43
0.994000196456909,42.3720628023148,-70.9952455759048,48.5999984741211,2012-01-27 07:39:44
1.00299978256226,42.3720628023148,-70.9952455759048,48.5999984741211,2012-01-27 07:39:45
1.00300002098083,42.3720628023148,-70.9952455759048,48.5999984741211,2012-01-27 07:39:46
1.05299997329712,42.3720628023148,-70.9952455759048,48.5999984741211,2012-01-27 07:39:47
0.951000213623047,42.3720628023148,-70.9952455759048,48.5999984741211,2012-01-27 07:39:48
0.998999834060669,42.3720628023148,-70.9952455759048,48.5999984741211,2012-01-27 07:39:49
1.05599999427795,42.3720628023148,-70.9952455759048,48.5999984741211,2012-01-27 07:39:50
0.946000099182129,42.3720628023148,-70.9952455759048,48.5999984741211,2012-01-27 07:39:51
1.0019998550415,42.3720628023148,-70.9952455759048,48.5999984741211,2012-01-27 07:39:52
0.996000051498413,42.3720628023148,-70.9952455759048,48.5999984741211,2012-01-27 07:39:53
1.00699996948242,42.3720628023148,-70.9952455759048,48.5999984741211,2012-01-27 07:39:54
0.54800009727478,42.3720628023148,-70.9952455759048,48.5999984741211,2012-01-27 07:39:54
0.999000072479248,42.3720628023148,-70.9952455759048,48.5999984741211,2012-01-27 07:39:55
0.745999813079834,42.3720628023148,-70.9952455759048,48.5999984741211,2012-01-27 07:39:56
1.19800019264221,42.3720628023148,-70.9952455759048,48.5999984741211,2012-01-27 07:39:57
0.947000026702881,42.3720628023148,-70.9952455759048,48.5999984741211,2012-01-27 07:39:58
0.765999794006348,42.3720628023148,-70.9952455759048,48.5999984741211,2012-01-27 07:39:59
1.11300015449524,42.3720628023148,-70.9952455759048,48.5999984741211,2012-01-27 07:40:00
0.894999980926514,42.3720628023148,-70.9952455759048,48.5999984741211,2012-01-27 07:40:01
0.996999979019165,42.3720628023148,-70.9952455759048,48.5999984741211,2012-01-27 07:40:02
1.00399994850159,42.3720628023148,-70.9952455759048,48.5999984741211,2012-01-27 07:40:03
1.00099992752075,42.3720628023148,-70.9952455759048,48.5999984741211,2012-01-27 07:40:04
2.98900008201599,42.3720628023148,-70.9952455759048,48.5999984741211,2012-01-27 07:40:07
0.999000072479248,42.3720628023148,-70.9952455759048,48.5999984741211,2012-01-27 07:40:08
0.998999834060669,42.3720628023148,-70.9952455759048,48.5999984741211,2012-01-27 07:40:09
1.00400018692017,42.3720628023148,-70.9952455759048,48.5999984741211,2012-01-27 07:40:10
1.01999998092651,42.3720628023148,-70.9952455759048,48.5999984741211,2012-01-27 07:40:11
1.06099987030029,42.3720628023148,-70.9952455759048,48.5999984741211,2012-01-27 07:40:12
0.917999982833862,42.3720628023148,-70.9952455759048,48.5999984741211,2012-01-27 07:40:13
1.00300002098083,42.3720628023148,-70.9952455759048,48.5999984741211,2012-01-27 07:40:14
1.00200009346008,42.3720628023148,-70.9952455759048,48.5999984741211,2012-01-27 07:40:15
1.00099992752075,42.3720628023148,-70.9952455759048,48.5999984741211,2012-01-27 07:40:16
1,42.3720628023148,-70.9952455759048,48.5999984741211,2012-01-27 07:40:17
1.00399994850159,42.3720628023148,-70.9952455759048,48.5999984741211,2012-01-27 07:40:18
1.05100011825562,42.3720628023148,-70.9952455759048,48.5999984741211,2012-01-27 07:40:19
0.946000099182129,42.3720628023148,-70.9952455759048,48.5999984741211,2012-01-27 07:40:20
0.997999906539917,42.3720628023148,-70.9952455759048,48.5999984741211,2012-01-27 07:40:21
1.00399994850159,42.3720628023148,-70.9952455759048,48.5999984741211,2012-01-27 07:40:22
1,42.3720628023148,-70.9952455759048,48.5999984741211,2012-01-27 07:40:23
1.00099992752075,42.3720628023148,-70.9952455759048,48.5999984741211,2012-01-27 07:40:24
1.00600004196167,42.3720628023148,-70.9952455759048,48.5999984741211,2012-01-27 07:40:25
1.06400012969971,42.3720628023148,-70.9952455759048,48.5999984741211,2012-01-27 07:40:26
0.935999870300293,42.3720628023148,-70.9952455759048,48.5999984741211,2012-01-27 07:40:27
1,42.3720628023148,-70.9952455759048,48.5999984741211,2012-01-27 07:40:28
1,42.3720628023148,-70.9952455759048,48.5999984741211,2012-01-27 07:40:29
1.0090000629425,42.3720628023148,-70.9952455759048,48.5999984741211,2012-01-27 07:40:30
0.996000051498413,42.3720628023148,-70.9952455759048,48.5999984741211,2012-01-27 07:40:31
0.16700005531311,42.3720735311508,-70.9952509403229,48.4000015258789,2012-01-27 07:40:31
0.99399995803833,42.3720735311508,-70.9952509403229,48.4000015258789,2012-01-27 07:40:32
0.997999906539917,42.3720735311508,-70.9952509403229,48.4000015258789,2012-01-27 07:40:33
0.998000144958496,42.3720735311508,-70.9952509403229,48.4000015258789,2012-01-27 07:40:34
1.04999995231628,42.3720735311508,-70.9952509403229,48.4000015258789,2012-01-27 07:40:35
0.974999904632568,42.3720735311508,-70.9952509403229,48.4000015258789,2012-01-27 07:40:36
0.976000070571899,42.3720735311508,-70.9952509403229,48.4000015258789,2012-01-27 07:40:37
29.7879998683929,42.3720735311508,-70.9952509403229,48.4000015258789,2012-01-27 07:41:07
1.04200005531311,42.3720735311508,-70.9952509403229,48.4000015258789,2012-01-27 07:41:08
0.939000129699707,42.3720735311508,-70.9952509403229,48.4000015258789,2012-01-27 07:41:09
0.996999979019165,42.3720735311508,-70.9952509403229,48.4000015258789,2012-01-27 07:41:10
1.00399994850159,42.3720735311508,-70.9952509403229,48.4000015258789,2012-01-27 07:41:11
0.996999979019165,42.3720735311508,-70.9952509403229,48.4000015258789,2012-01-27 07:41:12
1.00200009346008,42.3720735311508,-70.9952509403229,48.4000015258789,2012-01-27 07:41:13
1.00099992752075,42.3720735311508,-70.9952509403229,48.4000015258789,2012-01-27 07:41:14
1.05999994277954,42.3720735311508,-70.9952509403229,48.4000015258789,2012-01-27 07:41:15
0.939000129699707,42.3720735311508,-70.9952509403229,48.4000015258789,2012-01-27 07:41:16
1.00499987602234,42.3720735311508,-70.9952509403229,48.4000015258789,2012-01-27 07:41:17
0.996000051498413,42.3720735311508,-70.9952509403229,48.4000015258789,2012-01-27 07:41:18
1.00300002098083,42.3720735311508,-70.9952509403229,48.4000015258789,2012-01-27 07:41:19
1.00099992752075,42.3720735311508,-70.9952509403229,48.4000015258789,2012-01-27 07:41:20
1.04299998283386,42.3720735311508,-70.9952509403229,48.4000015258789,2012-01-27 07:41:21
1.05900001525879,42.3720735311508,-70.9952509403229,48.4000015258789,2012-01-27 07:41:22
0.0740001201629639,42.3720842599869,-70.9952616691589,48.2999992370605,2012-01-27 07:41:22
1.00499987602234,42.3720842599869,-70.9952616691589,48.2999992370605,2012-01-27 07:41:23
1.06400012969971,42.3720842599869,-70.9952616691589,48.2999992370605,2012-01-27 07:41:24
0.913999795913696,42.3720842599869,-70.9952616691589,48.2999992370605,2012-01-27 07:41:25
1.01800012588501,42.3720896244049,-70.9952616691589,48.2999992370605,2012-01-27 07:41:26
0.980000019073486,42.3720896244049,-70.9952616691589,48.4000015258789,2012-01-27 07:41:27
1.0019998550415,42.3720896244049,-70.9952616691589,48.4000015258789,2012-01-27 07:41:28
1.00100016593933,42.3720896244049,-70.9952616691589,48.4000015258789,2012-01-27 07:41:29
0.998999834060669,42.3720896244049,-70.9952616691589,48.4000015258789,2012-01-27 07:41:30
1.03700017929077,42.3720896244049,-70.9952616691589,48.4000015258789,2012-01-27 07:41:31
1.03999996185303,42.3720896244049,-70.9952616691589,48.4000015258789,2012-01-27 07:41:32
0.927999973297119,42.3720896244049,-70.9952616691589,48.4000015258789,2012-01-27 07:41:33
3.85400009155273,42.3720896244049,-70.9952616691589,48.4000015258789,2012-01-27 07:41:37
0.996999979019165,42.3720896244049,-70.9952616691589,48.4000015258789,2012-01-27 07:41:38
1.00099992752075,42.3720896244049,-70.9952616691589,48.4000015258789,2012-01-27 07:41:39
0.996999979019165,42.3720896244049,-70.9952616691589,48.4000015258789,2012-01-27 07:41:40
0.997999906539917,42.3720896244049,-70.9952616691589,48.4000015258789,2012-01-27 07:41:41
1.00300002098083,42.3720896244049,-70.9952616691589,48.4000015258789,2012-01-27 07:41:42
1.06000018119812,42.3720896244049,-70.9952616691589,48.4000015258789,2012-01-27 07:41:43
0.942999839782715,42.3720896244049,-70.9952616691589,48.4000015258789,2012-01-27 07:41:44
0.996000051498413,42.3720896244049,-70.9952616691589,48.4000015258789,2012-01-27 07:41:45
1.00200009346008,42.3720896244049,-70.9952616691589,48.4000015258789,2012-01-27 07:41:46
1.03199982643127,42.3720896244049,-70.9952616691589,48.4000015258789,2012-01-27 07:41:47
0.968000173568726,42.3720896244049,-70.9952616691589,48.4000015258789,2012-01-27 07:41:48
1.00699996948242,42.3720896244049,-70.9952616691589,48.4000015258789,2012-01-27 07:41:49
0.996999979019165,42.3720896244049,-70.9952616691589,48.4000015258789,2012-01-27 07:41:50
0.997999906539917,42.3720896244049,-70.9952616691589,48.4000015258789,2012-01-27 07:41:51
1.00500011444092,42.3720896244049,-70.9952616691589,48.4000015258789,2012-01-27 07:41:52
1.05699992179871,42.3720896244049,-70.9952616691589,48.4000015258789,2012-01-27 07:41:53
0.939000129699707,42.3720896244049,-70.9952616691589,48.4000015258789,2012-01-27 07:41:54
1.00099992752075,42.3720896244049,-70.9952616691589,48.4000015258789,2012-01-27 07:41:55
1.00099992752075,42.3720896244049,-70.9952616691589,48.4000015258789,2012-01-27 07:41:56
1.00399994850159,42.3720896244049,-70.9952616691589,48.4000015258789,2012-01-27 07:41:57
1.00600004196167,42.3720896244049,-70.9952616691589,48.4000015258789,2012-01-27 07:41:58
0.99399995803833,42.3720896244049,-70.9952616691589,48.4000015258789,2012-01-27 07:41:59
1.04700016975403,42.3720896244049,-70.9952616691589,48.4000015258789,2012-01-27 07:42:00
1.03799986839294,42.3720949888229,-70.9952616691589,48.2999992370605,2012-01-27 07:42:01
0.121999979019165,42.3720949888229,-70.9952616691589,48.2999992370605,2012-01-27 07:42:01
0.983000040054321,42.3720949888229,-70.9952616691589,48.2999992370605,2012-01-27 07:42:02
0.940000057220459,42.3720949888229,-70.9952616691589,48.2999992370605,2012-01-27 07:42:03
1,42.3720949888229,-70.9952616691589,48.2999992370605,2012-01-27 07:42:04
1.00099992752075,42.3720949888229,-70.9952616691589,48.2999992370605,2012-01-27 07:42:05
1.0220000743866,42.3720949888229,-70.9952616691589,48.2999992370605,2012-01-27 07:42:06
4.98399996757507,42.3720949888229,-70.9952616691589,48.2999992370605,2012-01-27 07:42:11
0.996000051498413,42.3720949888229,-70.9952616691589,48.2999992370605,2012-01-27 07:42:12
0.999000072479248,42.3720949888229,-70.9952616691589,48.2999992370605,2012-01-27 07:42:13
0.996999979019165,42.372100353241,-70.9952616691589,48.2999992370605,2012-01-27 07:42:14
1.01199984550476,42.372100353241,-70.995267033577,48.2999992370605,2012-01-27 07:42:15
1.04900002479553,42.372100353241,-70.995267033577,48.2999992370605,2012-01-27 07:42:16
0.940999984741211,42.372100353241,-70.995267033577,48.2999992370605,2012-01-27 07:42:17
1.00100016593933,42.372100353241,-70.995267033577,48.2999992370605,2012-01-27 07:42:18
1.0019998550415,42.372105717659,-70.995267033577,48.2000007629395,2012-01-27 07:42:19
1,42.372105717659,-70.995267033577,48.2000007629395,2012-01-27 07:42:20
1.01699995994568,42.372105717659,-70.995267033577,48.2000007629395,2012-01-27 07:42:21
0.978000164031982,42.372105717659,-70.995267033577,48.2000007629395,2012-01-27 07:42:22
1.01699995994568,42.372105717659,-70.995267033577,48.2000007629395,2012-01-27 07:42:23
1.01999998092651,42.372105717659,-70.995267033577,48.2000007629395,2012-01-27 07:42:24
1.06299996376038,42.372105717659,-70.995267033577,48.2000007629395,2012-01-27 07:42:25
1.89800000190735,42.3722022771835,-70.9951061010361,45.5,2012-01-27 07:42:27
0.999000072479248,42.3722022771835,-70.9951061010361,45.5,2012-01-27 07:42:28
1.00300002098083,42.3722022771835,-70.9951061010361,45.5,2012-01-27 07:42:29
0.998999834060669,42.3722130060196,-70.9951114654541,46.2999992370605,2012-01-27 07:42:30
1.01699995994568,42.3722183704376,-70.9951168298721,46.7000007629395,2012-01-27 07:42:31
1.04400014877319,42.3722183704376,-70.9951168298721,46.9000015258789,2012-01-27 07:42:32
0.940000057220459,42.3722237348557,-70.9951168298721,47.0999984741211,2012-01-27 07:42:33
0.998999834060669,42.3722237348557,-70.9951061010361,47.2000007629395,2012-01-27 07:42:34
1.00500011444092,42.3722237348557,-70.9951114654541,47.2999992370605,2012-01-27 07:42:35
1.78200006484985,42.3722237348557,-70.9951061010361,47.4000015258789,2012-01-27 07:42:37
0.982999801635742,42.3722237348557,-70.995100736618,47.5,2012-01-27 07:42:38
1.00600004196167,42.3722237348557,-70.995100736618,47.5,2012-01-27 07:42:39
1.00100016593933,42.3722237348557,-70.995100736618,47.5,2012-01-27 07:42:40
1.05099987983704,42.3722290992737,-70.995100736618,47.5,2012-01-27 07:42:41
0.95199990272522,42.3722290992737,-70.995100736618,47.5,2012-01-27 07:42:42
0.988000154495239,42.3722290992737,-70.995100736618,47.5,2012-01-27 07:42:43
1.00099992752075,42.3722290992737,-70.995100736618,47.5,2012-01-27 07:42:44
2.0090000629425,42.3722237348557,-70.995100736618,47.4000015258789,2012-01-27 07:42:46
1.0220000743866,42.3722290992737,-70.995084643364,47.4000015258789,2012-01-27 07:42:47
0.994999885559082,42.3722237348557,-70.995090007782,47.4000015258789,2012-01-27 07:42:48
1.04699993133545,42.3722237348557,-70.995090007782,47.4000015258789,2012-01-27 07:42:49
0.936000108718872,42.3722237348557,-70.9950792789459,47.5,2012-01-27 07:42:50
0.99399995803833,42.3722290992737,-70.9950739145279,47.5,2012-01-27 07:42:51
1.01999998092651,42.3722344636917,-70.9950739145279,47.5,2012-01-27 07:42:52
0.972000122070312,42.3722290992737,-70.9950739145279,47.5,2012-01-27 07:42:53
1.00299978256226,42.3722290992737,-70.9950739145279,47.4000015258789,2012-01-27 07:42:54
1.0090000629425,42.3722344636917,-70.9950739145279,47.4000015258789,2012-01-27 07:42:55
1.01800012588501,42.3722344636917,-70.9950685501099,47.4000015258789,2012-01-27 07:42:56
1.0479998588562,42.3722290992737,-70.9950739145279,47.4000015258789,2012-01-27 07:42:57
0.934000015258789,42.3722290992737,-70.9950739145279,47.4000015258789,2012-01-27 07:42:58
1.00200009346008,42.3722290992737,-70.9950739145279,47.4000015258789,2012-01-27 07:42:59
0.996000051498413,42.3722290992737,-70.9950739145279,47.4000015258789,2012-01-27 07:43:00
1.00799989700317,42.3722290992737,-70.9950739145279,47.4000015258789,2012-01-27 07:43:01
1.13599991798401,42.3722290992737,-70.9950631856918,47.4000015258789,2012-01-27 07:43:02
0.857000112533569,42.3722290992737,-70.9950578212738,47.4000015258789,2012-01-27 07:43:03
1.03399991989136,42.3722290992737,-70.9950578212738,47.4000015258789,2012-01-27 07:43:04
0.976999998092651,42.3722290992737,-70.9950578212738,47.4000015258789,2012-01-27 07:43:05
0.99399995803833,42.3722290992737,-70.9950524568558,47.4000015258789,2012-01-27 07:43:06
1.00500011444092,42.3722290992737,-70.9950524568558,47.4000015258789,2012-01-27 07:43:07
0.99399995803833,42.3722290992737,-70.9950524568558,47.4000015258789,2012-01-27 07:43:08
0.989000082015991,42.3722290992737,-70.9950524568558,47.4000015258789,2012-01-27 07:43:09
1.07200002670288,42.3722344636917,-70.9950524568558,47.4000015258789,2012-01-27 07:43:10
0.935999870300293,42.3722344636917,-70.9950470924377,47.4000015258789,2012-01-27 07:43:11
1.22000002861023,42.3722344636917,-70.9950470924377,47.4000015258789,2012-01-27 07:43:12
0.785000085830688,42.3722344636917,-70.9950578212738,47.4000015258789,2012-01-27 07:43:13
0.997999906539917,42.3722344636917,-70.9950685501099,47.4000015258789,2012-01-27 07:43:14
1.04500007629395,42.3722344636917,-70.9950739145279,47.4000015258789,2012-01-27 07:43:15
1.0460000038147,42.3722344636917,-70.9950792789459,47.4000015258789,2012-01-27 07:43:16
0.91700005531311,42.3722344636917,-70.9950792789459,47.2999992370605,2012-01-27 07:43:17
0.988999843597412,42.3722344636917,-70.9950792789459,47.2999992370605,2012-01-27 07:43:18
1.00200009346008,42.3722398281097,-70.9950792789459,47.2999992370605,2012-01-27 07:43:19
0.99399995803833,42.3722398281097,-70.9950792789459,47.2999992370605,2012-01-27 07:43:20
1.02999997138977,42.3722398281097,-70.9950792789459,47.2999992370605,2012-01-27 07:43:21
0.992000102996826,42.3722398281097,-70.9950792789459,47.2999992370605,2012-01-27 07:43:22
0.978999853134155,42.3722398281097,-70.9950792789459,47.2999992370605,2012-01-27 07:43:23
0.996999979019165,42.3722344636917,-70.9950792789459,47.2999992370605,2012-01-27 07:43:24
0.999000072479248,42.3722344636917,-70.9950792789459,47.2999992370605,2012-01-27 07:43:25
7.00800013542175,42.3722344636917,-70.9950739145279,47.4000015258789,2012-01-27 07:43:32
0.992999792098999,42.3722451925278,-70.9950685501099,47.2000007629395,2012-01-27 07:43:33
0.999000072479248,42.3722505569458,-70.9950685501099,47.2000007629395,2012-01-27 07:43:34
1.00300002098083,42.3722451925278,-70.9950685501099,47.2000007629395,2012-01-27 07:43:35
0.997999906539917,42.3722398281097,-70.9950685501099,47.2999992370605,2012-01-27 07:43:36
1.14200019836426,42.3722344636917,-70.9950685501099,47.2999992370605,2012-01-27 07:43:37
0.855999946594238,42.3722290992737,-70.9950739145279,47.4000015258789,2012-01-27 07:43:38
1.00499987602234,42.3722290992737,-70.9950739145279,47.4000015258789,2012-01-27 07:43:39
0.99399995803833,42.3722290992737,-70.9950739145279,47.4000015258789,2012-01-27 07:43:40
1.04500007629395,42.3722290992737,-70.9950739145279,47.4000015258789,2012-01-27 07:43:41
1.32299995422363,42.3722290992737,-70.9950739145279,47.4000015258789,2012-01-27 07:43:42
0.633000135421753,42.3722290992737,-70.9950739145279,47.4000015258789,2012-01-27 07:43:43
1,42.3722290992737,-70.9950739145279,47.4000015258789,2012-01-27 07:43:44
4.0019998550415,42.3722290992737,-70.9950739145279,47.4000015258789,2012-01-27 07:43:48
2.99699997901917,42.3722290992737,-70.9950739145279,47.4000015258789,2012-01-27 07:43:51
1.01200008392334,42.3722290992737,-70.9950739145279,47.4000015258789,2012-01-27 07:43:52
1.07299995422363,42.3722290992737,-70.9950739145279,47.4000015258789,2012-01-27 07:43:53
0.914999961853027,42.3722290992737,-70.9950739145279,47.4000015258789,2012-01-27 07:43:54
1.01100015640259,42.3722290992737,-70.9950739145279,47.4000015258789,2012-01-27 07:43:55
0.996000051498413,42.3722290992737,-70.9950739145279,47.4000015258789,2012-01-27 07:43:56
1.01300001144409,42.3722237348557,-70.9950739145279,47.4000015258789,2012-01-27 07:43:57
1.00699996948242,42.3722237348557,-70.9950739145279,47.4000015258789,2012-01-27 07:43:58
0.996999979019165,42.3722237348557,-70.9950739145279,47.4000015258789,2012-01-27 07:43:59
0.980000019073486,42.3722237348557,-70.9950739145279,47.4000015258789,2012-01-27 07:44:00
1.01099991798401,42.3722290992737,-70.9950739145279,47.4000015258789,2012-01-27 07:44:01
1.03600001335144,42.3722290992737,-70.9950685501099,47.4000015258789,2012-01-27 07:44:02
0.948999881744385,42.3722290992737,-70.9950685501099,47.4000015258789,2012-01-27 07:44:03
1.00300002098083,42.3722290992737,-70.9950685501099,47.4000015258789,2012-01-27 07:44:04
1.00400018692017,42.3722290992737,-70.9950685501099,47.4000015258789,2012-01-27 07:44:05
1.00499987602234,42.3722290992737,-70.9950685501099,47.4000015258789,2012-01-27 07:44:06
1.08299994468689,42.3722290992737,-70.9950685501099,47.4000015258789,2012-01-27 07:44:07
9.91500020027161,42.3722290992737,-70.9950685501099,47.4000015258789,2012-01-27 07:44:17
0.988999843597412,42.3722290992737,-70.9950685501099,47.4000015258789,2012-01-27 07:44:18
1.00300002098083,42.3722290992737,-70.9950685501099,47.4000015258789,2012-01-27 07:44:19
1.00099992752075,42.3722290992737,-70.9950685501099,47.4000015258789,2012-01-27 07:44:20
1.00200009346008,42.3722290992737,-70.9950631856918,47.4000015258789,2012-01-27 07:44:21
1.0090000629425,42.3722290992737,-70.9950631856918,47.4000015258789,2012-01-27 07:44:22
0.997999906539917,42.3722344636917,-70.9950631856918,47.4000015258789,2012-01-27 07:44:23
0.653000116348267,42.3722344636917,-70.9950631856918,47.4000015258789,2012-01-27 07:44:23
0.934999942779541,42.3722344636917,-70.9950631856918,47.4000015258789,2012-01-27 07:44:24
1.00499987602234,42.3722344636917,-70.9950578212738,47.4000015258789,2012-01-27 07:44:25
1.01800012588501,42.3722344636917,-70.9950578212738,47.4000015258789,2012-01-27 07:44:26
0.980000019073486,42.3722344636917,-70.9950578212738,47.4000015258789,2012-01-27 07:44:27
1,42.3722344636917,-70.9950578212738,47.4000015258789,2012-01-27 07:44:28
0.994999885559082,42.3722344636917,-70.9950578212738,47.4000015258789,2012-01-27 07:44:29
1.00100016593933,42.3722344636917,-70.9950578212738,47.4000015258789,2012-01-27 07:44:30
1.07699990272522,42.3722344636917,-70.9950578212738,47.4000015258789,2012-01-27 07:44:31
0.926000118255615,42.3722344636917,-70.9950578212738,47.4000015258789,2012-01-27 07:44:32
0.99399995803833,42.3722344636917,-70.9950578212738,47.4000015258789,2012-01-27 07:44:33
1.00699996948242,42.3722344636917,-70.9950578212738,47.4000015258789,2012-01-27 07:44:34
0.990999937057495,42.3722344636917,-70.9950578212738,47.4000015258789,2012-01-27 07:44:35
1.01500010490417,42.3722344636917,-70.9950578212738,47.4000015258789,2012-01-27 07:44:36
0.983999967575073,42.3722344636917,-70.9950578212738,47.4000015258789,2012-01-27 07:44:37
1.01300001144409,42.3722344636917,-70.9950578212738,47.4000015258789,2012-01-27 07:44:38
1.01099991798401,42.3722344636917,-70.9950578212738,47.4000015258789,2012-01-27 07:44:39
1.05399990081787,42.3722344636917,-70.9950578212738,47.4000015258789,2012-01-27 07:44:40
0.934000015258789,42.3722344636917,-70.9950578212738,47.4000015258789,2012-01-27 07:44:41
0.997000217437744,42.3722344636917,-70.9950524568558,47.4000015258789,2012-01-27 07:44:42
0.995999813079834,42.3722344636917,-70.9950524568558,47.4000015258789,2012-01-27 07:44:43
1.00400018692017,42.3722344636917,-70.9950524568558,47.4000015258789,2012-01-27 07:44:44
0.992999792098999,42.3722344636917,-70.9950524568558,47.4000015258789,2012-01-27 07:44:45
1.0310001373291,42.3722344636917,-70.9950524568558,47.4000015258789,2012-01-27 07:44:46
0.986000061035156,42.3722344636917,-70.9950524568558,47.4000015258789,2012-01-27 07:44:47
1.03499984741211,42.3722344636917,-70.9950524568558,47.4000015258789,2012-01-27 07:44:48
0.949000120162964,42.3722344636917,-70.9950524568558,47.4000015258789,2012-01-27 07:44:49
1.09699988365173,42.3722344636917,-70.9950524568558,47.4000015258789,2012-01-27 07:44:50
1.02300000190735,42.3722344636917,-70.9950470924377,47.4000015258789,2012-01-27 07:44:51
1.11800003051758,42.3722344636917,-70.9950470924377,47.4000015258789,2012-01-27 07:44:53
0.766999959945679,42.3722344636917,-70.9950470924377,47.4000015258789,2012-01-27 07:44:53
0.99399995803833,42.3722344636917,-70.9950470924377,47.2999992370605,2012-01-27 07:44:54
1.007000207901,42.3722344636917,-70.9950470924377,47.2999992370605,2012-01-27 07:44:55
1.04399991035461,42.3722344636917,-70.9950470924377,47.2999992370605,2012-01-27 07:44:56
1.03799986839294,42.3722290992737,-70.9950417280197,47.4000015258789,2012-01-27 07:44:57
0.909000158309937,42.3722290992737,-70.9950470924377,47.2999992370605,2012-01-27 07:44:58
1.06500005722046,42.3722290992737,-70.9950470924377,47.2999992370605,2012-01-27 07:44:59
0.941999912261963,42.3722290992737,-70.9950470924377,47.2999992370605,2012-01-27 07:45:00
1.08800005912781,42.3722290992737,-70.9950417280197,47.2999992370605,2012-01-27 07:45:01
0.904999971389771,42.3722290992737,-70.9950417280197,47.2999992370605,2012-01-27 07:45:02
1.0019998550415,42.3722290992737,-70.9950417280197,47.2999992370605,2012-01-27 07:45:03
0.996999979019165,42.3722290992737,-70.9950417280197,47.2999992370605,2012-01-27 07:45:04
1.00100016593933,42.3722290992737,-70.9950417280197,47.2999992370605,2012-01-27 07:45:05
1.02799987792969,42.3722290992737,-70.9950417280197,47.4000015258789,2012-01-27 07:45:06
0.985000133514404,42.3722290992737,-70.9950417280197,47.4000015258789,2012-01-27 07:45:07
1.05599999427795,42.3722290992737,-70.9950417280197,47.4000015258789,2012-01-27 07:45:08
0.927999973297119,42.3722290992737,-70.9950417280197,47.4000015258789,2012-01-27 07:45:09
1.00600004196167,42.3722290992737,-70.9950363636017,47.4000015258789,2012-01-27 07:45:10
1.0149998664856,42.3722290992737,-70.9950417280197,47.4000015258789,2012-01-27 07:45:11
0.978000164031982,42.3722290992737,-70.9950417280197,47.4000015258789,2012-01-27 07:45:12
1.00699996948242,42.3722290992737,-70.9950417280197,47.4000015258789,2012-01-27 07:45:13
1,42.3722290992737,-70.9950417280197,47.4000015258789,2012-01-27 07:45:14
0.997999906539917,42.3722290992737,-70.9950417280197,47.2999992370605,2012-01-27 07:45:15
1.02099990844727,42.3722290992737,-70.9950417280197,47.2999992370605,2012-01-27 07:45:16
1.05400013923645,42.3722290992737,-70.9950417280197,47.2999992370605,2012-01-27 07:45:17
2.92499995231628,42.3722290992737,-70.9950417280197,47.2999992370605,2012-01-27 07:45:20
1.00099992752075,42.3722290992737,-70.9950417280197,47.2999992370605,2012-01-27 07:45:21
0.999000072479248,42.3722290992737,-70.9950417280197,47.2999992370605,2012-01-27 07:45:22
1.00300002098083,42.3722290992737,-70.9950417280197,47.2999992370605,2012-01-27 07:45:23
0.997999906539917,42.3722290992737,-70.9950417280197,47.2999992370605,2012-01-27 07:45:24
1.00300002098083,42.3722290992737,-70.9950417280197,47.2999992370605,2012-01-27 07:45:25
1.10500001907349,42.3722290992737,-70.9950417280197,47.2999992370605,2012-01-27 07:45:26
7.95900011062622,42.3722290992737,-70.9950417280197,47.2999992370605,2012-01-27 07:45:34
0.931999921798706,42.3722290992737,-70.9950417280197,47.2999992370605,2012-01-27 07:45:35
1.00800013542175,42.3722290992737,-70.9950417280197,47.2999992370605,2012-01-27 07:45:36
0.997999906539917,42.3722290992737,-70.9950417280197,47.2999992370605,2012-01-27 07:45:37
0.991999864578247,42.3722290992737,-70.9950417280197,47.2999992370605,2012-01-27 07:45:38
1.00100016593933,42.3722290992737,-70.9950417280197,47.2999992370605,2012-01-27 07:45:39
1.20299983024597,42.3722290992737,-70.9950417280197,47.2999992370605,2012-01-27 07:45:41
1.10700011253357,42.3722290992737,-70.9950417280197,47.2999992370605,2012-01-27 07:45:42
0.894000053405762,42.3722290992737,-70.9950417280197,47.2000007629395,2012-01-27 07:45:43
0.997999906539917,42.3722237348557,-70.9950417280197,47.0999984741211,2012-01-27 07:45:44
1.00200009346008,42.3722237348557,-70.9950363636017,47.0999984741211,2012-01-27 07:45:45
0.998999834060669,42.3722237348557,-70.9950363636017,47.0999984741211,2012-01-27 07:45:46
1.01000022888184,42.3722237348557,-70.9950363636017,47.0999984741211,2012-01-27 07:45:47
0.997999906539917,42.3722290992737,-70.9950363636017,47.0999984741211,2012-01-27 07:45:48
0.98799991607666,42.3722290992737,-70.9950363636017,47.0999984741211,2012-01-27 07:45:49
1.05700016021729,42.3722290992737,-70.9950363636017,47.0999984741211,2012-01-27 07:45:50
1.04499983787537,42.3722290992737,-70.9950363636017,47.0999984741211,2012-01-27 07:45:51
0.909000158309937,42.3722290992737,-70.9950363636017,47.0999984741211,2012-01-27 07:45:52
0.984999895095825,42.3722237348557,-70.9950363636017,47.0999984741211,2012-01-27 07:45:52
1.0090000629425,42.3722237348557,-70.9950363636017,47.0999984741211,2012-01-27 07:45:54
0.99399995803833,42.3722290992737,-70.9950309991837,47.0999984741211,2012-01-27 07:45:55
1.00799989700317,42.3722290992737,-70.9950309991837,47.0999984741211,2012-01-27 07:45:56
1.01400017738342,42.3722290992737,-70.9950309991837,47.0999984741211,2012-01-27 07:45:57
1.03699994087219,42.3722290992737,-70.9950309991837,47.0999984741211,2012-01-27 07:45:58
1.04099988937378,42.3722290992737,-70.9950309991837,47.0999984741211,2012-01-27 07:45:59
0.906000137329102,42.3722290992737,-70.9950256347656,47.0999984741211,2012-01-27 07:46:00
0.996999979019165,42.3722290992737,-70.9950309991837,47.0999984741211,2012-01-27 07:46:01
1.0149998664856,42.3722290992737,-70.9950309991837,47.0999984741211,2012-01-27 07:46:02
1.00100016593933,42.3722344636917,-70.9950309991837,47.0999984741211,2012-01-27 07:46:03
1.01999998092651,42.3722344636917,-70.9950309991837,47.0999984741211,2012-01-27 07:46:04
1.06699991226196,42.3722290992737,-70.9950256347656,47.2000007629395,2012-01-27 07:46:05
0.901999950408936,42.3722290992737,-70.9950256347656,47.2000007629395,2012-01-27 07:46:06
1.01100015640259,42.3722344636917,-70.9950202703476,47.2000007629395,2012-01-27 07:46:07
0.98799991607666,42.3722344636917,-70.9950202703476,47.2000007629395,2012-01-27 07:46:08
1.00099992752075,42.3722344636917,-70.9950202703476,47.2000007629395,2012-01-27 07:46:09
0.998000144958496,42.3722344636917,-70.9950202703476,47.2000007629395,2012-01-27 07:46:10
1.02799987792969,42.3722344636917,-70.9950202703476,47.2000007629395,2012-01-27 07:46:11
1.08200001716614,42.3722344636917,-70.9950202703476,47.2000007629395,2012-01-27 07:46:12
0.89300012588501,42.3722344636917,-70.9950202703476,47.2000007629395,2012-01-27 07:46:13
2.00099992752075,42.3722344636917,-70.9950256347656,47.2000007629395,2012-01-27 07:46:15
0.999000072479248,42.3722344636917,-70.9950256347656,47.2000007629395,2012-01-27 07:46:16
1.02999997138977,42.3722344636917,-70.9950256347656,47.2000007629395,2012-01-27 07:46:17
0.970999956130981,42.3722344636917,-70.9950256347656,47.2000007629395,2012-01-27 07:46:18
1.00300002098083,42.3722344636917,-70.9950256347656,47.2000007629395,2012-01-27 07:46:19
0.993000030517578,42.3722344636917,-70.9950256347656,47.2000007629395,2012-01-27 07:46:20
1.00600004196167,42.3722344636917,-70.9950256347656,47.2000007629395,2012-01-27 07:46:21
2.99899983406067,42.3722344636917,-70.9950256347656,47.2000007629395,2012-01-27 07:46:24
0.998000144958496,42.3722344636917,-70.9950256347656,47.0999984741211,2012-01-27 07:46:25
1.00099992752075,42.3722344636917,-70.9950256347656,47.0999984741211,2012-01-27 07:46:26
1.01500010490417,42.3722344636917,-70.9950202703476,47.0999984741211,2012-01-27 07:46:27
1.00899982452393,42.3722344636917,-70.9950202703476,47.0999984741211,2012-01-27 07:46:28
1.05200004577637,42.3722344636917,-70.9950202703476,47.0999984741211,2012-01-27 07:46:29
0.91700005531311,42.3722344636917,-70.9950202703476,47.0999984741211,2012-01-27 07:46:30
1.00099992752075,42.3722344636917,-70.9950202703476,47.0999984741211,2012-01-27 07:46:31
1.0220000743866,42.3722344636917,-70.9950202703476,47.2000007629395,2012-01-27 07:46:32
0.983000040054321,42.3722344636917,-70.9950202703476,47.2000007629395,2012-01-27 07:46:33
0.990000009536743,42.3722344636917,-70.9950202703476,47.2000007629395,2012-01-27 07:46:33
1.00300002098083,42.3722344636917,-70.9950202703476,47.2000007629395,2012-01-27 07:46:35
1.01099991798401,42.3722344636917,-70.9950202703476,47.0999984741211,2012-01-27 07:46:36
1.02999997138977,42.3722344636917,-70.9950202703476,47.0999984741211,2012-01-27 07:46:37
1.05200004577637,42.3722344636917,-70.9950202703476,47.0999984741211,2012-01-27 07:46:38
0.908999919891357,42.3722344636917,-70.9950202703476,47.0999984741211,2012-01-27 07:46:39
0.996000051498413,42.3722344636917,-70.9950202703476,47.0999984741211,2012-01-27 07:46:40
1.00499987602234,42.3722344636917,-70.9950202703476,47.0999984741211,2012-01-27 07:46:41
1.05800008773804,42.3722344636917,-70.9950202703476,47.0999984741211,2012-01-27 07:46:42
0.941999912261963,42.3722344636917,-70.9950202703476,47.0999984741211,2012-01-27 07:46:43
1.1010000705719,42.3722344636917,-70.9950202703476,47.0999984741211,2012-01-27 07:46:44
0.898999929428101,42.3722344636917,-70.9950202703476,47.0999984741211,2012-01-27 07:46:45
1.00200009346008,42.3722344636917,-70.9950202703476,47.0999984741211,2012-01-27 07:46:46
1.00699996948242,42.3722344636917,-70.9950256347656,47.0999984741211,2012-01-27 07:46:47
0.985000133514404,42.3722344636917,-70.9950256347656,47.0999984741211,2012-01-27 07:46:47
1.01099991798401,42.3722344636917,-70.9950256347656,47.0999984741211,2012-01-27 07:46:49
0.993000030517578,42.3722344636917,-70.9950256347656,47.0999984741211,2012-01-27 07:46:50
1.02300000190735,42.3722344636917,-70.9950256347656,47.0999984741211,2012-01-27 07:46:51
1.03900003433228,42.3722344636917,-70.9950256347656,47.0999984741211,2012-01-27 07:46:52
0.938999891281128,42.3722344636917,-70.9950256347656,47.0999984741211,2012-01-27 07:46:53
1.00300002098083,42.3722344636917,-70.9950256347656,47.0999984741211,2012-01-27 07:46:54
0.996000051498413,42.3722344636917,-70.9950256347656,47.0999984741211,2012-01-27 07:46:55
0.997999906539917,42.3722344636917,-70.9950256347656,47,2012-01-27 07:46:56
1.01900005340576,42.3722344636917,-70.9950256347656,47,2012-01-27 07:46:57
0.982000112533569,42.3722344636917,-70.9950256347656,47.0999984741211,2012-01-27 07:46:58
1.04199981689453,42.3722344636917,-70.9950256347656,47.0999984741211,2012-01-27 07:46:59
0.960999965667725,42.3722344636917,-70.9950256347656,47.0999984741211,2012-01-27 07:47:00
1.00200009346008,42.3722344636917,-70.9950256347656,47.0999984741211,2012-01-27 07:47:01
1.01500010490417,42.3722344636917,-70.9950256347656,47.0999984741211,2012-01-27 07:47:02
0.982999801635742,42.3722344636917,-70.9950309991837,47.0999984741211,2012-01-27 07:47:03
1.00500011444092,42.37223511,-70.99502855,-29.2999992370605,2012-01-27 07:47:04
1,42.37223511,-70.99502855,-29.2999992370605,2012-01-27 07:47:05
1.01999998092651,42.37223511,-70.99502855,-29.2999992370605,2012-01-27 07:47:06
1.07400012016296,42.37223511,-70.99502855,-29.2999992370605,2012-01-27 07:47:07
0.908999919891357,42.37223511,-70.99502855,-29.2999992370605,2012-01-27 07:47:08
1.00200009346008,42.37223511,-70.99502855,-29.2999992370605,2012-01-27 07:47:09
0.991999864578247,42.37223511,-70.99502855,-29.2999992370605,2012-01-27 07:47:10
2.03500008583069,42.3722344636917,-70.9950309991837,47.0999984741211,2012-01-27 07:47:12
0.990000009536743,42.3722344636917,-70.9950309991837,47.0999984741211,2012-01-27 07:47:13
0.983999967575073,42.3722344636917,-70.9950309991837,47,2012-01-27 07:47:14
1.03999996185303,42.3722344636917,-70.9950309991837,47,2012-01-27 07:47:15
0.950000047683716,42.3722344636917,-70.9950309991837,47,2012-01-27 07:47:16
1.01300001144409,42.3722344636917,-70.9950309991837,47,2012-01-27 07:47:17
0.980999946594238,42.3722344636917,-70.9950309991837,47,2012-01-27 07:47:18
1.00300002098083,42.3722344636917,-70.9950309991837,47,2012-01-27 07:47:19
1.00399994850159,42.3722344636917,-70.9950309991837,47,2012-01-27 07:47:20
0.999000072479248,42.3722344636917,-70.9950309991837,47,2012-01-27 07:47:21
1.0550000667572,42.37223448,-70.99503273,-29.8999996185303,2012-01-27 07:47:22
0.950999975204468,42.37223448,-70.99503273,-29.8999996185303,2012-01-27 07:47:23
1.00300002098083,42.37223443,-70.99503316,-29.8999996185303,2012-01-27 07:47:24
0.990999937057495,42.3722354,-70.99503422,-29.7000007629395,2012-01-27 07:47:25
1.00499987602234,42.3722354,-70.99503422,-29.7000007629395,2012-01-27 07:47:26
1.02500009536743,42.37223591,-70.99503197,-29.2999992370605,2012-01-27 07:47:27
0.974999904632568,42.37223612,-70.9950326,-29.2000007629395,2012-01-27 07:47:28
1.02400016784668,42.37223612,-70.9950326,-29.2000007629395,2012-01-27 07:47:29
0.980000019073486,42.3722344636917,-70.9950309991837,47.0999984741211,2012-01-27 07:47:30
1.04999995231628,42.3722344636917,-70.9950309991837,47.0999984741211,2012-01-27 07:47:31
0.955999851226807,42.3722344636917,-70.9950309991837,47.0999984741211,2012-01-27 07:47:32
0.982000112533569,42.3722344636917,-70.9950309991837,47.0999984741211,2012-01-27 07:47:33
0.999000072479248,42.3722344636917,-70.9950309991837,47.0999984741211,2012-01-27 07:47:34
1.00299978256226,42.3722344636917,-70.9950309991837,47.0999984741211,2012-01-27 07:47:35
1.00100016593933,42.3722344636917,-70.9950309991837,47.0999984741211,2012-01-27 07:47:36
1.00799989700317,42.3722344636917,-70.9950309991837,47.0999984741211,2012-01-27 07:47:37
1.00600004196167,42.3722344636917,-70.9950309991837,47.0999984741211,2012-01-27 07:47:38
1.05299997329712,42.3722344636917,-70.9950309991837,47.0999984741211,2012-01-27 07:47:39
0.921999931335449,42.3722344636917,-70.9950309991837,47.0999984741211,2012-01-27 07:47:39
1.01100015640259,42.3722344636917,-70.9950309991837,47.0999984741211,2012-01-27 07:47:41
1.01199984550476,42.3722344636917,-70.9950309991837,47.0999984741211,2012-01-27 07:47:42
0.992000102996826,42.3722344636917,-70.9950309991837,47.0999984741211,2012-01-27 07:47:43
1.00500011444092,42.3722344636917,-70.9950309991837,47.0999984741211,2012-01-27 07:47:44
0.998999834060669,42.3722344636917,-70.9950309991837,47.0999984741211,2012-01-27 07:47:45
1.00800013542175,42.3722344636917,-70.9950309991837,47.0999984741211,2012-01-27 07:47:46
1.01099991798401,42.3722344636917,-70.9950309991837,47.0999984741211,2012-01-27 07:47:47
1.05099987983704,42.3722344636917,-70.9950309991837,47.0999984741211,2012-01-27 07:47:48
0.921000003814697,42.3722344636917,-70.9950309991837,47.0999984741211,2012-01-27 07:47:49
1.00500011444092,42.3722344636917,-70.9950309991837,47.0999984741211,2012-01-27 07:47:50
0.996999979019165,42.3722344636917,-70.9950309991837,47.0999984741211,2012-01-27 07:47:51
1.02600002288818,42.3722344636917,-70.9950309991837,47,2012-01-27 07:47:52
0.977999925613403,42.3722344636917,-70.9950309991837,47,2012-01-27 07:47:53
0.998000144958496,42.3722344636917,-70.9950309991837,47,2012-01-27 07:47:54
1.02199983596802,42.3722344636917,-70.9950309991837,47,2012-01-27 07:47:55
0.976000070571899,42.3722344636917,-70.9950309991837,47,2012-01-27 07:47:56
1.09599995613098,42.3722344636917,-70.9950309991837,47,2012-01-27 07:47:57
0.903000116348267,42.3722344636917,-70.9950309991837,47,2012-01-27 07:47:58
0.998999834060669,42.3722344636917,-70.9950309991837,47,2012-01-27 07:47:59
1.00200009346008,42.3722344636917,-70.9950256347656,47.0999984741211,2012-01-27 07:48:00
0.996999979019165,42.3722344636917,-70.9950256347656,47.0999984741211,2012-01-27 07:48:01
1.0239999294281,42.3722344636917,-70.9950256347656,47.0999984741211,2012-01-27 07:48:02
1.01100015640259,42.3722344636917,-70.9950256347656,47.0999984741211,2012-01-27 07:48:03
0.593999862670898,42.3722344636917,-70.9950256347656,47.0999984741211,2012-01-27 07:48:03
0.926000118255615,42.3722344636917,-70.9950256347656,47.0999984741211,2012-01-27 07:48:04
0.994999885559082,42.3722344636917,-70.9950256347656,47.0999984741211,2012-01-27 07:48:05
1.007000207901,42.3722344636917,-70.9950256347656,47.0999984741211,2012-01-27 07:48:06
0.991999864578247,42.3722344636917,-70.9950256347656,47.0999984741211,2012-01-27 07:48:07
1.00500011444092,42.3722344636917,-70.9950256347656,47.0999984741211,2012-01-27 07:48:08
0.990999937057495,42.3722344636917,-70.9950256347656,47.0999984741211,2012-01-27 07:48:09
1.01900005340576,42.3722344636917,-70.9950256347656,47.0999984741211,2012-01-27 07:48:10
1.07599997520447,42.3722344636917,-70.9950256347656,47.0999984741211,2012-01-27 07:48:11
0.907999992370605,42.3722344636917,-70.9950256347656,47.0999984741211,2012-01-27 07:48:12
1.01600003242493,42.3722344636917,-70.9950256347656,47.0999984741211,2012-01-27 07:48:13
0.988999843597412,42.3722344636917,-70.9950256347656,47.0999984741211,2012-01-27 07:48:14
0.996999979019165,42.3722344636917,-70.9950256347656,47.0999984741211,2012-01-27 07:48:15
1.03600001335144,42.37223605,-70.99502617,-28.7000007629395,2012-01-27 07:48:16
0.981000185012817,42.37223076,-70.99502863,-28.2999992370605,2012-01-27 07:48:17
1.00399994850159,42.37222679,-70.99502267,-31.1000003814697,2012-01-27 07:48:18
1.02300000190735,42.37222753,-70.99502215,-31.2000007629395,2012-01-27 07:48:19
1.05999994277954,42.37222819,-70.99502084,-31.2999992370605,2012-01-27 07:48:20
0.92300009727478,42.37222713,-70.99502027,-31,2012-01-27 07:48:21
0.990999937057495,42.37222632,-70.99502029,-31,2012-01-27 07:48:22
0.98799991607666,42.37222685,-70.99502101,-30.7999992370605,2012-01-27 07:48:23
0.998000144958496,42.37222684,-70.99502057,-30.5,2012-01-27 07:48:24
1.01699995994568,42.37222662,-70.9950213,-30.1000003814697,2012-01-27 07:48:25
1.01399993896484,42.37222654,-70.99502097,-30,2012-01-27 07:48:26
1.01999998092651,42.37222697,-70.99502167,-30.3999996185303,2012-01-27 07:48:27
0.953999996185303,42.37222699,-70.99502239,-30.2999992370605,2012-01-27 07:48:28
1.00699996948242,42.3722266,-70.99502569,-29.5,2012-01-27 07:48:29
1.17400002479553,42.3722266,-70.99502569,-29.5,2012-01-27 07:48:30
0.990000009536743,42.3722291,-70.99502432,-29.3999996185303,2012-01-27 07:48:31
0.986000061035156,42.37222883,-70.99502334,-29.7999992370605,2012-01-27 07:48:32
0.96399998664856,42.37222832,-70.99502431,-29.7999992370605,2012-01-27 07:48:33
0.881999969482422,42.37222747,-70.99502479,-29.7000007629395,2012-01-27 07:48:34
1.00300002098083,42.37222747,-70.99502479,-29.7000007629395,2012-01-27 07:48:35
1.04800009727478,42.3722279,-70.99502445,-29.8999996185303,2012-01-27 07:48:36
0.984999895095825,42.37222795,-70.9950243,-29.8999996185303,2012-01-27 07:48:37
1.03900003433228,42.37222776,-70.99502587,-29.2999992370605,2012-01-27 07:48:38
1.04699993133545,42.37222635,-70.99502723,-28.8999996185303,2012-01-27 07:48:39
0.885999917984009,42.37222635,-70.99502723,-28.8999996185303,2012-01-27 07:48:40
1.04400014877319,42.37222613,-70.99502661,-28.8999996185303,2012-01-27 07:48:41
0.947000026702881,42.37222502,-70.99502745,-28.8999996185303,2012-01-27 07:48:42
1.00899982452393,42.37222555,-70.99502657,-29,2012-01-27 07:48:43
0.990000009536743,42.37222555,-70.99502657,-29,2012-01-27 07:48:44
1.03800010681152,42.3722244,-70.99502621,-29,2012-01-27 07:48:45
0.96399998664856,42.37222189,-70.99502631,-27.7999992370605,2012-01-27 07:48:46
1.00500011444092,42.37222061,-70.99502775,-26.6000003814697,2012-01-27 07:48:47
0.992999792098999,42.3722244,-70.99502802,-26,2012-01-27 07:48:48
0.997000217437744,42.3722244,-70.99502802,-26,2012-01-27 07:48:49
1.00699996948242,42.37222458,-70.99502825,-26.1000003814697,2012-01-27 07:48:50
1.04099988937378,42.37223113,-70.99502387,-26,2012-01-27 07:48:51
1.06900000572205,42.37223536,-70.99502333,-25.7999992370605,2012-01-27 07:48:52
0.88100004196167,42.37223475,-70.99502357,-26,2012-01-27 07:48:53
1.00099992752075,42.37223605,-70.995024,-26.1000003814697,2012-01-27 07:48:54
1.00300002098083,42.37223605,-70.995024,-26.1000003814697,2012-01-27 07:48:55
1.01699995994568,42.37223605,-70.995024,-26.1000003814697,2012-01-27 07:48:56
0.981000185012817,42.37223605,-70.995024,-26.1000003814697,2012-01-27 07:48:57
1,42.37223629,-70.99502495,-26.1000003814697,2012-01-27 07:48:58
1.00699996948242,42.37223629,-70.99502495,-26.1000003814697,2012-01-27 07:48:59
1.03999996185303,42.37223629,-70.99502495,-26.1000003814697,2012-01-27 07:49:00
0.960999965667725,42.37223724,-70.99502453,-26.2000007629395,2012-01-27 07:49:01
0.990999937057495,42.37223698,-70.99502487,-26.2000007629395,2012-01-27 07:49:02
0.996999979019165,42.37223698,-70.99502487,-26.2000007629395,2012-01-27 07:49:03
1.00200009346008,42.3722376,-70.99502564,-26.6000003814697,2012-01-27 07:49:04
1.00099992752075,42.3722376,-70.99502564,-26.6000003814697,2012-01-27 07:49:05
1.01999998092651,42.37223797,-70.99502586,-26.7999992370605,2012-01-27 07:49:06
1.00699996948242,42.37223821,-70.99502658,-26.7999992370605,2012-01-27 07:49:07
0.998000144958496,42.37223821,-70.99502658,-26.7999992370605,2012-01-27 07:49:08
1.03399991989136,42.37223876,-70.99502677,-27.1000003814697,2012-01-27 07:49:09
1.03500008583069,42.37223876,-70.99502677,-27.1000003814697,2012-01-27 07:49:10
0.915999889373779,42.37223805,-70.99502741,-27.1000003814697,2012-01-27 07:49:11
0.992000102996826,42.37223805,-70.99502741,-27.1000003814697,2012-01-27 07:49:12
0.999000072479248,42.37223846,-70.99502721,-27.1000003814697,2012-01-27 07:49:13
0.997999906539917,42.3722398281097,-70.9950256347656,47.2999992370605,2012-01-27 07:49:14
0.99399995803833,42.3722398281097,-70.9950256347656,47.2999992370605,2012-01-27 07:49:15
1.03099989891052,42.3722398281097,-70.9950256347656,47.2999992370605,2012-01-27 07:49:16
0.980000019073486,42.3722398281097,-70.9950256347656,47.2999992370605,2012-01-27 07:49:17
1.03400015830994,42.3722398281097,-70.9950256347656,47.2999992370605,2012-01-27 07:49:18
1.03099989891052,42.3722398281097,-70.9950309991837,47.2999992370605,2012-01-27 07:49:19
0.92300009727478,42.3722398281097,-70.9950309991837,47.2999992370605,2012-01-27 07:49:20
1.02199983596802,42.3722398281097,-70.9950309991837,47.2999992370605,2012-01-27 07:49:21
0.976000070571899,42.3722398281097,-70.9950309991837,47.2999992370605,2012-01-27 07:49:22
1.00600004196167,42.3722344636917,-70.9950309991837,47.2999992370605,2012-01-27 07:49:23
0.994999885559082,42.3722344636917,-70.9950309991837,47.2999992370605,2012-01-27 07:49:24
1.00200009346008,42.3722344636917,-70.9950309991837,47.2999992370605,2012-01-27 07:49:25
1.01800012588501,42.3722344636917,-70.9950309991837,47.2999992370605,2012-01-27 07:49:26
0.992999792098999,42.3722344636917,-70.9950309991837,47.2999992370605,2012-01-27 07:49:27
1.04200005531311,42.3722344636917,-70.9950309991837,47.2999992370605,2012-01-27 07:49:28
1.03800010681152,42.3722344636917,-70.9950309991837,47.2999992370605,2012-01-27 07:49:29
0.904999971389771,42.3722344636917,-70.9950309991837,47.2999992370605,2012-01-27 07:49:30
1.01300001144409,42.3722344636917,-70.9950309991837,47.2999992370605,2012-01-27 07:49:31
0.988999843597412,42.3722344636917,-70.9950309991837,47.2999992370605,2012-01-27 07:49:32
1.00500011444092,42.3722344636917,-70.9950309991837,47.2999992370605,2012-01-27 07:49:33
1.99799990653992,42.3722344636917,-70.9950309991837,47.2999992370605,2012-01-27 07:49:35
1.02300000190735,42.3722344636917,-70.9950309991837,47.2999992370605,2012-01-27 07:49:36
0.978000164031982,42.3722344636917,-70.9950309991837,47.2999992370605,2012-01-27 07:49:37
1.02199983596802,42.3722344636917,-70.9950309991837,47.2999992370605,2012-01-27 07:49:38
1.03600001335144,42.3722344636917,-70.9950309991837,47.2999992370605,2012-01-27 07:49:39
1.04200005531311,42.3722344636917,-70.9950309991837,47.2999992370605,2012-01-27 07:49:40
0.976000070571899,42.3722344636917,-70.9950309991837,47.2999992370605,2012-01-27 07:49:41
4.26199984550476,42.3722344636917,-70.9950309991837,47.2999992370605,2012-01-27 07:49:45
0.896000146865845,42.3722344636917,-70.9950309991837,47.2999992370605,2012-01-27 07:49:46
0.997999906539917,42.3722344636917,-70.9950309991837,47.2999992370605,2012-01-27 07:49:47
1.00100016593933,42.3722344636917,-70.9950309991837,47.2999992370605,2012-01-27 07:49:48
1.00599980354309,42.3722344636917,-70.9950309991837,47.2999992370605,2012-01-27 07:49:49
0.996000051498413,42.3722344636917,-70.9950309991837,47.2999992370605,2012-01-27 07:49:50
1.00200009346008,42.3722344636917,-70.9950309991837,47.2999992370605,2012-01-27 07:49:51
0.998999834060669,42.3722344636917,-70.9950309991837,47.2999992370605,2012-01-27 07:49:52
1.00300002098083,42.3722344636917,-70.9950309991837,47.2999992370605,2012-01-27 07:49:53
1.01300001144409,42.3722344636917,-70.9950309991837,47.2999992370605,2012-01-27 07:49:54
1.07500004768372,42.3722344636917,-70.9950309991837,47.2999992370605,2012-01-27 07:49:55
0.689000129699707,42.3722344636917,-70.9950309991837,47.2999992370605,2012-01-27 07:49:56
0.985999822616577,42.3722344636917,-70.9950309991837,47.2999992370605,2012-01-27 07:49:57
1.00300002098083,42.3722344636917,-70.9950309991837,47.2999992370605,2012-01-27 07:49:58
0.995000123977661,42.3722344636917,-70.9950309991837,47.2999992370605,2012-01-27 07:49:59
1.09699988365173,42.3722344636917,-70.9950309991837,47.2999992370605,2012-01-27 07:50:00
0.913000106811523,42.3722344636917,-70.9950309991837,47.2000007629395,2012-01-27 07:50:01
0.986999988555908,42.3722344636917,-70.9950363636017,47.2999992370605,2012-01-27 07:50:02
0.998999834060669,42.3722344636917,-70.9950363636017,47.2999992370605,2012-01-27 07:50:03
1.007000207901,42.3722344636917,-70.9950363636017,47.2999992370605,2012-01-27 07:50:04
0.98799991607666,42.3722344636917,-70.9950363636017,47.2999992370605,2012-01-27 07:50:05
1.02099990844727,42.3722344636917,-70.9950363636017,47.2999992370605,2012-01-27 07:50:06
0.992000102996826,42.3722290992737,-70.9950363636017,47.2999992370605,2012-01-27 07:50:07
1.00399994850159,42.3722290992737,-70.9950363636017,47.2999992370605,2012-01-27 07:50:08
0.990000009536743,42.3722290992737,-70.9950363636017,47.2999992370605,2012-01-27 07:50:09
0.996999979019165,42.3722290992737,-70.9950309991837,47.2000007629395,2012-01-27 07:50:10
1.10800004005432,42.3722290992737,-70.9950309991837,47.2000007629395,2012-01-27 07:50:11
0.986000061035156,42.3722344636917,-70.9950309991837,47.2000007629395,2012-01-27 07:50:12
1.00099992752075,42.3722290992737,-70.9950309991837,47.2000007629395,2012-01-27 07:50:13
1.01999998092651,42.3722290992737,-70.9950256347656,47.2000007629395,2012-01-27 07:50:14
1.02999997138977,42.3722290992737,-70.9950256347656,47.2000007629395,2012-01-27 07:50:15
0.956000089645386,42.3722290992737,-70.9950309991837,47.2000007629395,2012-01-27 07:50:16
0.991999864578247,42.3722290992737,-70.9950309991837,47.2000007629395,2012-01-27 07:50:17
0.996000051498413,42.3722290992737,-70.9950309991837,47.2000007629395,2012-01-27 07:50:18
1.11800003051758,42.3722290992737,-70.9950256347656,47.2000007629395,2012-01-27 07:50:19
0.883000135421753,42.3722290992737,-70.9950256347656,47.2000007629395,2012-01-27 07:50:20
1.01699995994568,42.3722290992737,-70.9950256347656,47.2000007629395,2012-01-27 07:50:21
0.986999988555908,42.3722290992737,-70.9950256347656,47.2000007629395,2012-01-27 07:50:22
1.1029999256134,42.3722290992737,-70.9950256347656,47.2000007629395,2012-01-27 07:50:23
0.901000022888184,42.3722290992737,-70.9950256347656,47.2000007629395,2012-01-27 07:50:24
0.993000030517578,42.3722290992737,-70.9950202703476,47.2000007629395,2012-01-27 07:50:25
1.01300001144409,42.3722290992737,-70.9950202703476,47.2000007629395,2012-01-27 07:50:26
0.98799991607666,42.3722290992737,-70.9950202703476,47.2000007629395,2012-01-27 07:50:27
0.700999975204468,42.3722290992737,-70.9950202703476,47.2000007629395,2012-01-27 07:50:28
0.641000032424927,42.3722290992737,-70.9950202703476,47.2000007629395,2012-01-27 07:50:28
0.970999956130981,42.3722290992737,-70.9950202703476,47.2000007629395,2012-01-27 07:50:29
1.03400015830994,42.3722290992737,-70.9950202703476,47.2000007629395,2012-01-27 07:50:30
1.06099987030029,42.3722290992737,-70.9950202703476,47.2000007629395,2012-01-27 07:50:32
0.904000043869019,42.3722290992737,-70.9950202703476,47.2000007629395,2012-01-27 07:50:32
1.01200008392334,42.3722237348557,-70.9950202703476,47.0999984741211,2012-01-27 07:50:33
0.983999967575073,42.3722290992737,-70.9950202703476,47.0999984741211,2012-01-27 07:50:34
1.00899982452393,42.3722290992737,-70.9950202703476,47.0999984741211,2012-01-27 07:50:35
1.06200003623962,42.3722237348557,-70.9950202703476,47.0999984741211,2012-01-27 07:50:37
0.937000036239624,42.3722237348557,-70.9950202703476,47.0999984741211,2012-01-27 07:50:37
0.993000030517578,42.3722237348557,-70.9950256347656,47.0999984741211,2012-01-27 07:50:38
1.00200009346008,42.3722237348557,-70.9950256347656,47,2012-01-27 07:50:39
1.00599980354309,42.3722237348557,-70.9950256347656,47,2012-01-27 07:50:40
0.992000102996826,42.3722237348557,-70.9950256347656,47.0999984741211,2012-01-27 07:50:41
1.00399994850159,42.3722237348557,-70.9950256347656,47.0999984741211,2012-01-27 07:50:42
0.996000051498413,42.3722237348557,-70.9950256347656,47.0999984741211,2012-01-27 07:50:43
1.00500011444092,42.3722237348557,-70.9950256347656,47.0999984741211,2012-01-27 07:50:44
1.4909999370575,42.3722237348557,-70.9950256347656,47.0999984741211,2012-01-27 07:50:46
0.88100004196167,42.3722237348557,-70.9950256347656,47.0999984741211,2012-01-27 07:50:47
0.582000017166138,42.3722237348557,-70.9950256347656,47.0999984741211,2012-01-27 07:50:47
0.988999843597412,42.3722237348557,-70.9950309991837,47.0999984741211,2012-01-27 07:50:48
1.72900009155273,42.3722237348557,-70.9950309991837,47.0999984741211,2012-01-27 07:50:50
1.0220000743866,42.3722237348557,-70.9950309991837,47,2012-01-27 07:50:51
1.04299998283386,42.3722237348557,-70.9950309991837,47,2012-01-27 07:50:52
1.01899981498718,42.3722237348557,-70.9950309991837,47,2012-01-27 07:50:53
0.974000215530396,42.3722237348557,-70.9950309991837,47,2012-01-27 07:50:54
0.99399995803833,42.3722237348557,-70.9950309991837,47,2012-01-27 07:50:55
1.01300001144409,42.3722237348557,-70.9950363636017,47,2012-01-27 07:50:56
0.993000030517578,42.3722237348557,-70.9950363636017,47,2012-01-27 07:50:57
0.994999885559082,42.3722237348557,-70.9950363636017,47,2012-01-27 07:50:58
1.00200009346008,42.3722237348557,-70.9950363636017,47,2012-01-27 07:50:59
1.00599980354309,42.3722237348557,-70.9950363636017,47,2012-01-27 07:51:00
1.01900005340576,42.3722237348557,-70.9950363636017,47,2012-01-27 07:51:01
1.0699999332428,42.3722237348557,-70.9950363636017,47,2012-01-27 07:51:02
0.90500020980835,42.3722237348557,-70.9950363636017,47,2012-01-27 07:51:03
1.00399994850159,42.3722237348557,-70.9950363636017,47,2012-01-27 07:51:04
1,42.3722237348557,-70.9950363636017,47,2012-01-27 07:51:05
1.0090000629425,42.3722237348557,-70.9950363636017,47,2012-01-27 07:51:06
0.991999864578247,42.3722237348557,-70.9950363636017,47,2012-01-27 07:51:07
0.996000051498413,42.3722237348557,-70.9950363636017,47,2012-01-27 07:51:08
1.00300002098083,42.3722237348557,-70.9950363636017,47,2012-01-27 07:51:09
1.01199984550476,42.3722237348557,-70.9950363636017,47,2012-01-27 07:51:10
1.09700012207031,42.3722237348557,-70.9950363636017,47,2012-01-27 07:51:11
0.884000062942505,42.3722237348557,-70.9950363636017,47,2012-01-27 07:51:12
1.00099992752075,42.3722237348557,-70.9950363636017,47,2012-01-27 07:51:13
0.997999906539917,42.3722237348557,-70.9950363636017,47,2012-01-27 07:51:14
1.00999999046326,42.3722183704376,-70.9950363636017,47,2012-01-27 07:51:15
1.00600004196167,42.3722183704376,-70.9950363636017,47,2012-01-27 07:51:16
0.989000082015991,42.3722183704376,-70.9950363636017,47,2012-01-27 07:51:17
1.01999998092651,42.3722183704376,-70.9950363636017,47,2012-01-27 07:51:18
0.974999904632568,42.3722237348557,-70.9950363636017,47,2012-01-27 07:51:19
1.05200004577637,42.3722183704376,-70.9950363636017,47,2012-01-27 07:51:20
1.0789999961853,42.3722183704376,-70.9950363636017,47,2012-01-27 07:51:21
0.875,42.3722183704376,-70.9950363636017,47,2012-01-27 07:51:22
1.00500011444092,42.3722183704376,-70.9950417280197,47,2012-01-27 07:51:23
0.996999979019165,42.3722183704376,-70.9950417280197,47,2012-01-27 07:51:24
0.994999885559082,42.3722183704376,-70.9950417280197,47,2012-01-27 07:51:25
1.01900005340576,42.3722183704376,-70.9950417280197,47,2012-01-27 07:51:26
0.989000082015991,42.3722183704376,-70.9950417280197,47,2012-01-27 07:51:27
1.02099990844727,42.3722183704376,-70.9950417280197,47,2012-01-27 07:51:28
1.0460000038147,42.3722183704376,-70.9950417280197,47,2012-01-27 07:51:29
0.92900013923645,42.3722183704376,-70.9950417280197,47,2012-01-27 07:51:30
1.11099982261658,42.3722183704376,-70.9950417280197,47,2012-01-27 07:51:31
0.982000112533569,42.3722183704376,-70.9950417280197,47,2012-01-27 07:51:32
1.01600003242493,42.3722183704376,-70.9950417280197,47,2012-01-27 07:51:33
0.990999937057495,42.3722183704376,-70.9950417280197,47,2012-01-27 07:51:34
0.907000064849854,42.3722183704376,-70.9950417280197,47,2012-01-27 07:51:35
1.10899996757507,42.3722183704376,-70.9950417280197,47,2012-01-27 07:51:36
8.95000004768372,42.3722183704376,-70.9950417280197,47,2012-01-27 07:51:45
0.995999813079834,42.3722183704376,-70.9950417280197,47,2012-01-27 07:51:46
0.999000072479248,42.3722183704376,-70.9950417280197,47,2012-01-27 07:51:47
1,42.3722183704376,-70.9950417280197,47,2012-01-27 07:51:48
1.00500011444092,42.3722183704376,-70.9950417280197,47,2012-01-27 07:51:49
1.06299996376038,42.3722183704376,-70.9950417280197,47,2012-01-27 07:51:50
0.937000036239624,42.3722183704376,-70.9950417280197,47,2012-01-27 07:51:51
1.00299978256226,42.3722183704376,-70.9950417280197,47,2012-01-27 07:51:52
0.738000154495239,42.3722183704376,-70.9950470924377,47,2012-01-27 07:51:53
0.990999937057495,42.3722183704376,-70.9950470924377,47,2012-01-27 07:51:54
1,42.3722183704376,-70.9950470924377,47,2012-01-27 07:51:55
1.01300001144409,42.3722183704376,-70.9950470924377,47,2012-01-27 07:51:56
0.990000009536743,42.3722183704376,-70.9950524568558,47,2012-01-27 07:51:57
0.994999885559082,42.3722183704376,-70.9950524568558,47,2012-01-27 07:51:58
1,42.3722183704376,-70.9950524568558,47,2012-01-27 07:51:59
1.01100015640259,42.3722183704376,-70.9950524568558,47,2012-01-27 07:52:00
1.02999997138977,42.3722183704376,-70.9950524568558,47,2012-01-27 07:52:01
1.06200003623962,42.3722183704376,-70.9950524568558,47,2012-01-27 07:52:02
0.898000001907349,42.3722183704376,-70.9950524568558,47,2012-01-27 07:52:03
0.996999979019165,42.3722183704376,-70.9950524568558,47,2012-01-27 07:52:04
1.00399994850159,42.3722183704376,-70.9950524568558,47,2012-01-27 07:52:05
1.0090000629425,42.3722183704376,-70.9950524568558,47,2012-01-27 07:52:06
0.984999895095825,42.3722183704376,-70.9950524568558,47,2012-01-27 07:52:07
1.0090000629425,42.3722183704376,-70.9950524568558,47,2012-01-27 07:52:08
1.00600004196167,42.3722183704376,-70.9950524568558,47,2012-01-27 07:52:09
1.04200005531311,42.3722183704376,-70.9950524568558,47,2012-01-27 07:52:10
0.952999830245972,42.3722183704376,-70.9950578212738,47,2012-01-27 07:52:11
0.998000144958496,42.3722183704376,-70.9950578212738,47,2012-01-27 07:52:12
0.998999834060669,42.3722183704376,-70.9950578212738,47,2012-01-27 07:52:13
1.00300002098083,42.3722183704376,-70.9950578212738,47,2012-01-27 07:52:14
0.99399995803833,42.3722183704376,-70.9950578212738,47,2012-01-27 07:52:15
1.07900023460388,42.3722183704376,-70.9950578212738,47,2012-01-27 07:52:16
0.924999952316284,42.3722183704376,-70.9950578212738,47.0999984741211,2012-01-27 07:52:17
1.03600001335144,42.3722183704376,-70.9950578212738,47.0999984741211,2012-01-27 07:52:18
1.05499982833862,42.3722183704376,-70.9950578212738,47.0999984741211,2012-01-27 07:52:19
0.903000116348267,42.3722183704376,-70.9950578212738,47.0999984741211,2012-01-27 07:52:20
1.01600003242493,42.3722183704376,-70.9950578212738,47.0999984741211,2012-01-27 07:52:21
0.988999843597412,42.3722183704376,-70.9950631856918,47,2012-01-27 07:52:22
1.00200009346008,42.3722183704376,-70.9950631856918,47,2012-01-27 07:52:23
1.00600004196167,42.3722183704376,-70.9950631856918,47,2012-01-27 07:52:24
0.986999988555908,42.3722183704376,-70.9950578212738,47,2012-01-27 07:52:25
1.06200003623962,42.3722130060196,-70.9950578212738,47,2012-01-27 07:52:26
1.02199983596802,42.3722130060196,-70.9950578212738,47,2012-01-27 07:52:27
0.926000118255615,42.3722183704376,-70.9950578212738,47.0999984741211,2012-01-27 07:52:28
0.996999979019165,42.3722183704376,-70.9950578212738,47.0999984741211,2012-01-27 07:52:29
1.00300002098083,42.3722183704376,-70.9950578212738,47.2000007629395,2012-01-27 07:52:30
1.01600003242493,42.3722237348557,-70.9950578212738,47.2000007629395,2012-01-27 07:52:31
1.02300000190735,42.3722237348557,-70.9950578212738,47.2000007629395,2012-01-27 07:52:32
1.07699990272522,42.3722237348557,-70.9950578212738,47.2999992370605,2012-01-27 07:52:33
0.875999927520752,42.3722290992737,-70.9950524568558,47.4000015258789,2012-01-27 07:52:34
0.998000144958496,42.3722290992737,-70.9950524568558,47.4000015258789,2012-01-27 07:52:35
1.01300001144409,42.3722290992737,-70.9950524568558,47.4000015258789,2012-01-27 07:52:36
0.990000009536743,42.3722237348557,-70.9950578212738,47.2999992370605,2012-01-27 07:52:37
1.00399994850159,42.3722237348557,-70.9950578212738,47.2000007629395,2012-01-27 07:52:38
1.01500010490417,42.3722237348557,-70.9950578212738,47.2000007629395,2012-01-27 07:52:39
1.00899982452393,42.3722237348557,-70.9950578212738,47.2999992370605,2012-01-27 07:52:40
1.07599997520447,42.3722237348557,-70.9950578212738,47.2000007629395,2012-01-27 07:52:41
0.898000001907349,42.3722183704376,-70.9950631856918,47.0999984741211,2012-01-27 07:52:42
1.00100016593933,42.3722183704376,-70.9950631856918,47.0999984741211,2012-01-27 07:52:43
0.99399995803833,42.3722183704376,-70.9950631856918,47.0999984741211,2012-01-27 07:52:44
1.0019998550415,42.3722237348557,-70.9950631856918,47.2000007629395,2012-01-27 07:52:45
1.02500009536743,42.3722237348557,-70.9950631856918,47.2000007629395,2012-01-27 07:52:46
0.973999977111816,42.3722183704376,-70.9950631856918,47.0999984741211,2012-01-27 07:52:47
1.02300000190735,42.3722183704376,-70.9950631856918,47.0999984741211,2012-01-27 07:52:48
0.983999967575073,42.3722183704376,-70.9950631856918,47.0999984741211,2012-01-27 07:52:49
1.03999996185303,42.3722183704376,-70.9950631856918,47.0999984741211,2012-01-27 07:52:50
0.964000225067139,42.3722183704376,-70.9950631856918,47.0999984741211,2012-01-27 07:52:51
0.99399995803833,42.3722183704376,-70.9950631856918,47.0999984741211,2012-01-27 07:52:52
0.997999906539917,42.3722183704376,-70.9950631856918,47.0999984741211,2012-01-27 07:52:53
1.00200009346008,42.3722183704376,-70.9950631856918,47,2012-01-27 07:52:54
0.996999979019165,42.3722183704376,-70.9950685501099,47,2012-01-27 07:52:55
1.00300002098083,42.3722183704376,-70.9950631856918,47,2012-01-27 07:52:56
0.997999906539917,42.3722183704376,-70.9950631856918,47,2012-01-27 07:52:57
1.01099991798401,42.3722183704376,-70.9950631856918,47.0999984741211,2012-01-27 07:52:58
0.991000175476074,42.3722183704376,-70.9950631856918,47,2012-01-27 07:52:59
1.00099992752075,42.3722183704376,-70.9950631856918,47,2012-01-27 07:53:00
1.01500010490417,42.3722183704376,-70.9950631856918,47,2012-01-27 07:53:01
0.983999967575073,42.3722183704376,-70.9950685501099,47,2012-01-27 07:53:02
1.00099992752075,42.3722183704376,-70.9950685501099,47,2012-01-27 07:53:03
1.00200009346008,42.3722183704376,-70.9950685501099,47,2012-01-27 07:53:04
1.00099992752075,42.3722183704376,-70.9950685501099,47,2012-01-27 07:53:05
1.02900004386902,42.3722183704376,-70.9950685501099,47,2012-01-27 07:53:06
0.991999864578247,42.3722183704376,-70.9950685501099,47,2012-01-27 07:53:07
1.03299999237061,42.3722183704376,-70.9950685501099,47,2012-01-27 07:53:08
0.946000099182129,42.3722183704376,-70.9950685501099,47.0999984741211,2012-01-27 07:53:09
0.993000030517578,42.3722183704376,-70.9950685501099,47.0999984741211,2012-01-27 07:53:10
1.01900005340576,42.3722183704376,-70.9950685501099,47.0999984741211,2012-01-27 07:53:11
0.991999864578247,42.3722183704376,-70.9950685501099,47.0999984741211,2012-01-27 07:53:12
0.996000051498413,42.3722183704376,-70.9950685501099,47.0999984741211,2012-01-27 07:53:13
0.996999979019165,42.3722183704376,-70.9950685501099,47.0999984741211,2012-01-27 07:53:14
1.00999999046326,42.3722183704376,-70.9950685501099,47.0999984741211,2012-01-27 07:53:15
1.78699994087219,42.3722183704376,-70.9950685501099,47,2012-01-27 07:53:17
1.03500008583069,42.3722183704376,-70.9950685501099,47,2012-01-27 07:53:18
0.915999889373779,42.3722183704376,-70.9950685501099,47,2012-01-27 07:53:19
1.00300002098083,42.3722183704376,-70.9950685501099,47,2012-01-27 07:53:20
1.01400017738342,42.3722183704376,-70.9950685501099,47,2012-01-27 07:53:21
1.03699994087219,42.3722183704376,-70.9950685501099,47,2012-01-27 07:53:22
0.948999881744385,42.3722183704376,-70.9950685501099,47,2012-01-27 07:53:23
0.996999979019165,42.3722183704376,-70.9950685501099,47,2012-01-27 07:53:24
1.00300002098083,42.3722183704376,-70.9950685501099,47,2012-01-27 07:53:25
1.00100016593933,42.3722183704376,-70.9950685501099,47,2012-01-27 07:53:26
1.08200001716614,42.3722183704376,-70.9950685501099,47,2012-01-27 07:53:27
0.910999774932861,42.3722130060196,-70.9950685501099,47,2012-01-27 07:53:28
1,42.3722183704376,-70.9950685501099,47,2012-01-27 07:53:29
1.00600004196167,42.3722130060196,-70.9950685501099,47,2012-01-27 07:53:30
0.992000102996826,42.3722130060196,-70.9950685501099,47,2012-01-27 07:53:31
1.06200003623962,42.3722130060196,-70.9950685501099,47,2012-01-27 07:53:32
0.935999870300293,42.3722130060196,-70.9950685501099,47,2012-01-27 07:53:33
1.00500011444092,42.3722130060196,-70.9950685501099,47,2012-01-27 07:53:34
1.00799989700317,42.3722130060196,-70.9950685501099,47,2012-01-27 07:53:35
0.999000072479248,42.3722130060196,-70.9950685501099,47,2012-01-27 07:53:36
1.07599997520447,42.3722130060196,-70.9950685501099,47,2012-01-27 07:53:37
0.914999961853027,42.3722130060196,-70.9950685501099,47,2012-01-27 07:53:38
1.00399994850159,42.3722130060196,-70.9950685501099,46.9000015258789,2012-01-27 07:53:39
0.996000051498413,42.3722130060196,-70.9950685501099,46.9000015258789,2012-01-27 07:53:40
1.00099992752075,42.3722130060196,-70.9950685501099,46.9000015258789,2012-01-27 07:53:41
1.01500010490417,42.3722130060196,-70.9950685501099,46.9000015258789,2012-01-27 07:53:42
0.980999946594238,42.3722130060196,-70.9950685501099,46.9000015258789,2012-01-27 07:53:43
1.0090000629425,42.3722130060196,-70.9950685501099,46.9000015258789,2012-01-27 07:53:44
1.07999992370605,42.3722130060196,-70.9950685501099,46.9000015258789,2012-01-27 07:53:45
0.914999961853027,42.3722130060196,-70.9950685501099,46.9000015258789,2012-01-27 07:53:46
1.00300002098083,42.3722130060196,-70.9950685501099,46.9000015258789,2012-01-27 07:53:47
0.998000144958496,42.3722130060196,-70.9950739145279,46.9000015258789,2012-01-27 07:53:48
0.996999979019165,42.3722130060196,-70.9950739145279,46.9000015258789,2012-01-27 07:53:49
1.00399994850159,42.3722130060196,-70.9950739145279,46.9000015258789,2012-01-27 07:53:50
0.996999979019165,42.3722130060196,-70.9950739145279,46.9000015258789,2012-01-27 07:53:51
1.00699996948242,42.3722130060196,-70.9950685501099,46.9000015258789,2012-01-27 07:53:52
1.06800007820129,42.3722130060196,-70.9950739145279,46.9000015258789,2012-01-27 07:53:53
1.02900004386902,42.3722130060196,-70.9950739145279,46.9000015258789,2012-01-27 07:53:54
0.899999856948853,42.3722130060196,-70.9950739145279,46.9000015258789,2012-01-27 07:53:55
0.996000051498413,42.3722130060196,-70.9950739145279,46.9000015258789,2012-01-27 07:53:56
1.00399994850159,42.3722130060196,-70.9950739145279,46.9000015258789,2012-01-27 07:53:57
0.998000144958496,42.3722130060196,-70.9950739145279,46.9000015258789,2012-01-27 07:53:58
0.996000051498413,42.3722130060196,-70.9950739145279,46.9000015258789,2012-01-27 07:53:59
1.04499983787537,42.3722130060196,-70.9950739145279,46.9000015258789,2012-01-27 07:54:00
1.04500007629395,42.3722130060196,-70.9950739145279,46.9000015258789,2012-01-27 07:54:01
0.931999921798706,42.3722130060196,-70.9950739145279,46.9000015258789,2012-01-27 07:54:02
0.983000040054321,42.3722130060196,-70.9950739145279,46.9000015258789,2012-01-27 07:54:03
0.997999906539917,42.3722130060196,-70.9950739145279,46.9000015258789,2012-01-27 07:54:04
1.01000022888184,42.3722130060196,-70.9950739145279,46.9000015258789,2012-01-27 07:54:05
1.00999999046326,42.3722130060196,-70.9950739145279,47,2012-01-27 07:54:06
1.09699988365173,42.3722130060196,-70.9950685501099,46.9000015258789,2012-01-27 07:54:07
0.88700008392334,42.3722130060196,-70.9950631856918,46.7999992370605,2012-01-27 07:54:08
1.0019998550415,42.3722130060196,-70.9950631856918,46.7999992370605,2012-01-27 07:54:09
0.996000051498413,42.3722076416016,-70.9950631856918,46.9000015258789,2012-01-27 07:54:10
1.00200009346008,42.3722076416016,-70.9950578212738,46.9000015258789,2012-01-27 07:54:11
1.02199983596802,42.3722076416016,-70.9950524568558,47,2012-01-27 07:54:12
0.986999988555908,42.3722130060196,-70.9950470924377,47.0999984741211,2012-01-27 07:54:13
0.996000051498413,42.3722130060196,-70.9950417280197,47.2000007629395,2012-01-27 07:54:14
0.995000123977661,42.3722183704376,-70.9950417280197,47.4000015258789,2012-01-27 07:54:15
1.00099992752075,42.3722237348557,-70.9950363636017,47.4000015258789,2012-01-27 07:54:16
1.01699995994568,42.3722183704376,-70.9950363636017,47.4000015258789,2012-01-27 07:54:17
0.980000019073486,42.3722183704376,-70.9950363636017,47.5,2012-01-27 07:54:18
1.03200006484985,42.3722183704376,-70.9950309991837,47.5,2012-01-27 07:54:19
1.02499985694885,42.37222156,-70.99503143,-25.5,2012-01-27 07:54:20
1.05200004577637,42.37221958,-70.99502865,-25.6000003814697,2012-01-27 07:54:21
0.924000024795532,42.37221893,-70.99502665,-25.3999996185303,2012-01-27 07:54:22
0.973000049591064,42.37221872,-70.99502537,-25.1000003814697,2012-01-27 07:54:23
1.00499987602234,42.3722201,-70.99502477,-24.7999992370605,2012-01-27 07:54:24
1.00300002098083,42.37222188,-70.99502315,-24,2012-01-27 07:54:25
1.00800013542175,42.37222293,-70.99502023,-23.5,2012-01-27 07:54:26
1.05599999427795,42.37222152,-70.99501874,-23.2999992370605,2012-01-27 07:54:27
1.04299998283386,42.3722214,-70.99501684,-23,2012-01-27 07:54:28
0.889999866485596,42.3722214,-70.99501684,-23,2012-01-27 07:54:29
1.00300002098083,42.37222069,-70.99501543,-22.7999992370605,2012-01-27 07:54:30
0.996999979019165,42.37222101,-70.99501536,-22.7999992370605,2012-01-27 07:54:31
1.02000021934509,42.37222065,-70.99501634,-22.7999992370605,2012-01-27 07:54:32
0.979999780654907,42.37222,-70.995016,-22.8999996185303,2012-01-27 07:54:33
0.999000072479248,42.3722201,-70.99501637,-22.7999992370605,2012-01-27 07:54:34
1.04100012779236,42.37222029,-70.99501599,-22.6000003814697,2012-01-27 07:54:35
1.05599999427795,42.37221961,-70.9950158,-22.7999992370605,2012-01-27 07:54:36
0.924000024795532,42.37221967,-70.99501574,-22.7999992370605,2012-01-27 07:54:37
0.977999925613403,42.37221967,-70.99501574,-22.7999992370605,2012-01-27 07:54:38
1.00399994850159,42.37221967,-70.99501574,-22.7999992370605,2012-01-27 07:54:39
1,42.37221967,-70.99501574,-22.7999992370605,2012-01-27 07:54:40
1.00799989700317,42.37221967,-70.99501574,-22.7999992370605,2012-01-27 07:54:41
1.02700018882751,42.37221967,-70.99501574,-22.7999992370605,2012-01-27 07:54:42
2.05399990081787,42.3722183704376,-70.9950149059296,47.7000007629395,2012-01-27 07:54:44
0.997999906539917,42.3722183704376,-70.9950149059296,47.7000007629395,2012-01-27 07:54:45
1.09200000762939,42.3722183704376,-70.9950149059296,47.7000007629395,2012-01-27 07:54:46
0.89900016784668,42.3722183704376,-70.9950149059296,47.7000007629395,2012-01-27 07:54:47
1.00099992752075,42.3722183704376,-70.9950149059296,47.7000007629395,2012-01-27 07:54:48
1.00099992752075,42.3722183704376,-70.9950149059296,47.7000007629395,2012-01-27 07:54:49
1.00300002098083,42.3722183704376,-70.9950149059296,47.7000007629395,2012-01-27 07:54:50
0.91100001335144,42.37222049,-70.99501633,-22.7999992370605,2012-01-27 07:54:51
1.01500010490417,42.3722201,-70.99501533,-22.7000007629395,2012-01-27 07:54:52
0.983000040054321,42.37221979,-70.99501538,-22.7000007629395,2012-01-27 07:54:53
1.00499987602234,42.37222049,-70.99501303,-22.2999992370605,2012-01-27 07:54:54
1.00699996948242,42.37221991,-70.99501202,-22.2000007629395,2012-01-27 07:54:55
1.00399994850159,42.37222053,-70.99501192,-22.2000007629395,2012-01-27 07:54:56
1.23000001907349,42.37221954,-70.99500998,-22.1000003814697,2012-01-27 07:54:57
0.765000104904175,42.3722198,-70.99501024,-21.8999996185303,2012-01-27 07:54:58
0.99399995803833,42.37222007,-70.99500806,-21.5,2012-01-27 07:54:59
1.01399993896484,42.37221898,-70.99500618,-21.2000007629395,2012-01-27 07:55:00
1.02400016784668,42.3722181,-70.99500725,-21.7000007629395,2012-01-27 07:55:01
0.973999977111816,42.37221852,-70.99500621,-21.5,2012-01-27 07:55:02
0.993000030517578,42.37221666,-70.99500388,-21.3999996185303,2012-01-27 07:55:03
0.990000009536743,42.37221397,-70.99500028,-21.2000007629395,2012-01-27 07:55:04
1.00099992752075,42.37221445,-70.99500024,-21.1000003814697,2012-01-27 07:55:05
1,42.37221504,-70.99500058,-21.2000007629395,2012-01-27 07:55:06
1.07599997520447,42.37221389,-70.99500006,-21.1000003814697,2012-01-27 07:55:07
1.0090000629425,42.37221268,-70.99499998,-21.2999992370605,2012-01-27 07:55:08
0.36899995803833,42.37220963,-70.99499789,-21.2000007629395,2012-01-27 07:55:08
0.997999906539917,42.3722077,-70.99499735,-21.2000007629395,2012-01-27 07:55:09
1.00100016593933,42.3722073,-70.99499729,-21.2999992370605,2012-01-27 07:55:10
1.0389997959137,42.37220721,-70.99499753,-21.3999996185303,2012-01-27 07:55:11
1,42.37220694,-70.9949973,-21.2000007629395,2012-01-27 07:55:12
0.960000038146973,42.37220632,-70.99499747,-21.2999992370605,2012-01-27 07:55:13
1.03299999237061,42.37220535,-70.99499529,-21,2012-01-27 07:55:14
1.06599998474121,42.37220498,-70.994994,-20.7999992370605,2012-01-27 07:55:15
0.933000087738037,42.37220506,-70.99499371,-20.8999996185303,2012-01-27 07:55:16
0.966000080108643,42.3722039,-70.99499453,-21,2012-01-27 07:55:17
1.00899982452393,42.37220432,-70.99499407,-21.1000003814697,2012-01-27 07:55:18
0.993000030517578,42.37220481,-70.99499333,-21,2012-01-27 07:55:19
1.00100016593933,42.37220481,-70.99499333,-21,2012-01-27 07:55:20
1.02199983596802,42.37220422,-70.99499284,-21.1000003814697,2012-01-27 07:55:21
1.04200005531311,42.37220444,-70.9949934,-20.8999996185303,2012-01-27 07:55:22
0.936000108718872,42.37220317,-70.99499335,-21.1000003814697,2012-01-27 07:55:23
1,42.37220315,-70.99499338,-21.1000003814697,2012-01-27 07:55:24
0.998999834060669,42.37220335,-70.99499374,-21,2012-01-27 07:55:25
1.02500009536743,42.37220342,-70.99499395,-21,2012-01-27 07:55:26
0.993000030517578,42.3722035,-70.99499403,-21,2012-01-27 07:55:27
0.986999988555908,42.37220257,-70.99499426,-21.1000003814697,2012-01-27 07:55:28
1.05900001525879,42.37220257,-70.99499426,-21.1000003814697,2012-01-27 07:55:29
0.940999984741211,42.37220257,-70.99499426,-21.1000003814697,2012-01-27 07:55:30
1.0149998664856,42.37220267,-70.99499429,-21.1000003814697,2012-01-27 07:55:31
0.976999998092651,42.37220267,-70.99499429,-21.1000003814697,2012-01-27 07:55:32
1.0090000629425,42.3722024,-70.99499422,-21.1000003814697,2012-01-27 07:55:33
0.995000123977661,42.37220263,-70.99499437,-21.1000003814697,2012-01-27 07:55:34
1.02300000190735,42.37220263,-70.99499437,-21.1000003814697,2012-01-27 07:55:35
1.10899996757507,42.37220368,-70.99499528,-21.1000003814697,2012-01-27 07:55:36
0.861999988555908,42.3722037,-70.99499565,-21,2012-01-27 07:55:37
1.00799989700317,42.37220364,-70.99499583,-21,2012-01-27 07:55:38
1.00100016593933,42.37220275,-70.99499616,-21.6000003814697,2012-01-27 07:55:39
1.0019998550415,42.37220312,-70.99499546,-21.6000003814697,2012-01-27 07:55:40
1.00600004196167,42.37220445,-70.99499574,-21.3999996185303,2012-01-27 07:55:41
0.992000102996826,42.37220552,-70.99499571,-21.2999992370605,2012-01-27 07:55:42
1.02699995040894,42.37220602,-70.99499619,-21.2999992370605,2012-01-27 07:55:43
1.06200003623962,42.37220713,-70.99499756,-21.3999996185303,2012-01-27 07:55:44
0.909999847412109,42.37220668,-70.99499666,-21.2999992370605,2012-01-27 07:55:45
1.02800011634827,42.37220719,-70.99499798,-21.5,2012-01-27 07:55:46
0.97599983215332,42.37220719,-70.99499798,-21.5,2012-01-27 07:55:47
0.991000175476074,42.37220694,-70.99499811,-21.5,2012-01-27 07:55:48
1.00099992752075,42.37220706,-70.99499801,-21.5,2012-01-27 07:55:49
1.00999999046326,42.37220706,-70.99499801,-21.5,2012-01-27 07:55:50
1.0239999294281,42.3722069,-70.99499823,-21.5,2012-01-27 07:55:51
0.968000173568726,42.37220783,-70.9949984,-21.2999992370605,2012-01-27 07:55:52
1.00300002098083,42.37220833,-70.99499903,-21.2999992370605,2012-01-27 07:55:53
0.998999834060669,42.37220796,-70.99499841,-21.2999992370605,2012-01-27 07:55:54
0.999000072479248,42.37220818,-70.99499791,-21.2000007629395,2012-01-27 07:55:55
1.05800008773804,42.37220774,-70.994997,-21.1000003814697,2012-01-27 07:55:56
0.94599986076355,42.37220824,-70.99499793,-21.2000007629395,2012-01-27 07:55:57
0.990999937057495,42.37220908,-70.99499815,-21.2000007629395,2012-01-27 07:55:58
1.00500011444092,42.37220941,-70.99499929,-21.2999992370605,2012-01-27 07:55:59
1.00099992752075,42.37220991,-70.99500074,-21.3999996185303,2012-01-27 07:56:00
1.01100015640259,42.37221022,-70.99500236,-21.5,2012-01-27 07:56:01
1.01899981498718,42.37221016,-70.99500203,-21.5,2012-01-27 07:56:02
1.05000019073486,42.37221016,-70.99500203,-21.5,2012-01-27 07:56:03
0.914999961853027,42.37221016,-70.99500203,-21.5,2012-01-27 07:56:04
1.0019998550415,42.37221016,-70.99500194,-21.5,2012-01-27 07:56:05
1.01699995994568,42.3722103,-70.9950019,-21.5,2012-01-27 07:56:06
0.988000154495239,42.37221126,-70.99500152,-21.2999992370605,2012-01-27 07:56:07
1.03299999237061,42.3722127,-70.9950005,-21.5,2012-01-27 07:56:08
0.970000028610229,42.37221252,-70.99500133,-21.2999992370605,2012-01-27 07:56:09
1.03799986839294,42.37221171,-70.99500148,-21.2000007629395,2012-01-27 07:56:10
0.962000131607056,42.37221096,-70.99500175,-21.1000003814697,2012-01-27 07:56:11
0.993000030517578,42.37220992,-70.99500212,-21.2000007629395,2012-01-27 07:56:12
1.00300002098083,42.37221166,-70.99500161,-21,2012-01-27 07:56:13
1,42.37221098,-70.99500249,-21.2000007629395,2012-01-27 07:56:14
1.00299978256226,42.3722121,-70.99500236,-21.5,2012-01-27 07:56:15
1.02400016784668,42.37221251,-70.99500274,-21.3999996185303,2012-01-27 07:56:16
1.0019998550415,42.37221262,-70.99500221,-21.2999992370605,2012-01-27 07:56:17
1.04100012779236,42.37221332,-70.99500213,-21.3999996185303,2012-01-27 07:56:18
0.937999963760376,42.37221334,-70.99500184,-21.3999996185303,2012-01-27 07:56:19
0.999000072479248,42.37221455,-70.99500252,-21.5,2012-01-27 07:56:20
1.00099992752075,42.37221463,-70.99500266,-21.5,2012-01-27 07:56:21
0.99399995803833,42.37221515,-70.99500288,-21.5,2012-01-27 07:56:22
0.996000051498413,42.37221574,-70.99500317,-21.6000003814697,2012-01-27 07:56:23
1.01300001144409,42.37221595,-70.99500293,-21.5,2012-01-27 07:56:24
0.996000051498413,42.37221454,-70.99500113,-21.2999992370605,2012-01-27 07:56:25
1.03399991989136,42.37221424,-70.99500118,-21.2999992370605,2012-01-27 07:56:26
1.03699994087219,42.37221449,-70.99500127,-21.2999992370605,2012-01-27 07:56:27
0.926000118255615,42.37221479,-70.99500177,-21.3999996185303,2012-01-27 07:56:28
0.998999834060669,42.37221534,-70.9950018,-21.2999992370605,2012-01-27 07:56:29
0.998000144958496,42.37221563,-70.99500232,-21.3999996185303,2012-01-27 07:56:30
1.00600004196167,42.37221582,-70.99500271,-21.3999996185303,2012-01-27 07:56:31
0.998999834060669,42.37221534,-70.99500216,-21.3999996185303,2012-01-27 07:56:32
1.00200009346008,42.37221554,-70.99500199,-21.3999996185303,2012-01-27 07:56:33
0.996000051498413,42.37221528,-70.99500158,-21.3999996185303,2012-01-27 07:56:34
1.06799983978271,42.37221544,-70.99500162,-21.3999996185303,2012-01-27 07:56:35
0.961000204086304,42.37221521,-70.99500171,-21.2999992370605,2012-01-27 07:56:36
0.967000007629395,42.37221449,-70.99500186,-21.2000007629395,2012-01-27 07:56:37
1.00099992752075,42.37221493,-70.99500178,-21.1000003814697,2012-01-27 07:56:38
1.00099992752075,42.37221488,-70.99500166,-21,2012-01-27 07:56:39
0.999000072479248,42.37221313,-70.99500147,-20.7000007629395,2012-01-27 07:56:40
1.0149998664856,42.37221341,-70.99500154,-20.7000007629395,2012-01-27 07:56:41
1.02100014686584,42.37221369,-70.99500198,-20.7000007629395,2012-01-27 07:56:42
1.03499984741211,42.37221369,-70.99500198,-20.7000007629395,2012-01-27 07:56:43
0.926000118255615,42.37221382,-70.9950019,-20.7999992370605,2012-01-27 07:56:44
1.00300002098083,42.3722143,-70.99500169,-20.7999992370605,2012-01-27 07:56:45
1.01699995994568,42.37221434,-70.99500161,-20.8999996185303,2012-01-27 07:56:46
0.982000112533569,42.37221434,-70.99500161,-20.8999996185303,2012-01-27 07:56:47
0.998999834060669,42.37221433,-70.99500167,-20.8999996185303,2012-01-27 07:56:48
1.01699995994568,42.37221433,-70.99500167,-20.8999996185303,2012-01-27 07:56:49
1.007000207901,42.37221427,-70.99500204,-20.8999996185303,2012-01-27 07:56:50
0.976999998092651,42.37221451,-70.99500194,-20.7999992370605,2012-01-27 07:56:51
0.996999979019165,42.3722142,-70.99500126,-21.1000003814697,2012-01-27 07:56:52
0.996999979019165,42.37221545,-70.9950012,-21.3999996185303,2012-01-27 07:56:53
1.00499987602234,42.37221614,-70.99500136,-21.3999996185303,2012-01-27 07:56:54
0.996999979019165,42.37221614,-70.99500136,-21.3999996185303,2012-01-27 07:56:55
1.01500010490417,42.37221644,-70.99500145,-21.3999996185303,2012-01-27 07:56:56
1.00600004196167,42.37221749,-70.99500166,-21.3999996185303,2012-01-27 07:56:57
1.05499982833862,42.37221783,-70.99500157,-21.5,2012-01-27 07:56:58
0.926000118255615,42.37221783,-70.99500157,-21.5,2012-01-27 07:56:59
1.00099992752075,42.37221797,-70.99500168,-21.5,2012-01-27 07:57:00
1.00500011444092,42.37221797,-70.99500168,-21.5,2012-01-27 07:57:01
0.990000009536743,42.3722181,-70.99500184,-21.5,2012-01-27 07:57:02
1.02099990844727,42.37221812,-70.9950018,-21.5,2012-01-27 07:57:03
1.08899998664856,42.37221785,-70.99500161,-21.5,2012-01-27 07:57:04
0.890000104904175,42.37221785,-70.99500161,-21.5,2012-01-27 07:57:05
1.05299997329712,42.37221872,-70.99500261,-21.5,2012-01-27 07:57:06
0.948999881744385,42.37221872,-70.99500261,-21.5,2012-01-27 07:57:07
1.00300002098083,42.37221864,-70.99500285,-21.5,2012-01-27 07:57:08
1.00100016593933,42.37221896,-70.99500285,-21.5,2012-01-27 07:57:09
1.00899982452393,42.37221896,-70.99500285,-21.5,2012-01-27 07:57:10
1.10600018501282,42.37221873,-70.99500355,-21.5,2012-01-27 07:57:11
0.909999847412109,42.37221362,-70.99500243,-21.5,2012-01-27 07:57:12
1.03299999237061,42.3722099,-70.99500162,-21.5,2012-01-27 07:57:13
0.976000070571899,42.37221054,-70.99500175,-21.5,2012-01-27 07:57:14
0.991999864578247,42.37221044,-70.99500168,-21.5,2012-01-27 07:57:15
1.00200009346008,42.37221045,-70.99500171,-21.5,2012-01-27 07:57:16
1,42.37221028,-70.99500161,-21.5,2012-01-27 07:57:17
1.00999999046326,42.37221028,-70.99500161,-21.5,2012-01-27 07:57:18
1.01500010490417,42.37220996,-70.99500187,-21.5,2012-01-27 07:57:19
0.970000028610229,42.3722104,-70.99500209,-21.5,2012-01-27 07:57:20
1.02899980545044,42.37220918,-70.99500236,-21.5,2012-01-27 07:57:21
0.973999977111816,42.37220799,-70.99500231,-21.6000003814697,2012-01-27 07:57:22
1,42.37220799,-70.99500249,-21.6000003814697,2012-01-27 07:57:23
0.999000072479248,42.37220799,-70.99500249,-21.6000003814697,2012-01-27 07:57:24
0.999000072479248,42.37220798,-70.99500255,-21.6000003814697,2012-01-27 07:57:25
1.02099990844727,42.37220822,-70.99500337,-21.7000007629395,2012-01-27 07:57:26
0.976999998092651,42.37220822,-70.99500337,-21.7000007629395,2012-01-27 07:57:27
1.00300002098083,42.37220927,-70.99500411,-21.7000007629395,2012-01-27 07:57:28
0.99399995803833,42.37220927,-70.99500411,-21.7000007629395,2012-01-27 07:57:29
1.00500011444092,42.37220927,-70.99500411,-21.7000007629395,2012-01-27 07:57:30
1.03999996185303,42.37220927,-70.99500411,-21.7000007629395,2012-01-27 07:57:31
0.960999965667725,42.37220944,-70.99500411,-21.7000007629395,2012-01-27 07:57:32
1.00399994850159,42.37220969,-70.99500427,-21.7999992370605,2012-01-27 07:57:33
1.06100010871887,42.37220992,-70.99500448,-21.7999992370605,2012-01-27 07:57:34
0.930999994277954,42.3722076416016,-70.9950041770935,47.7999992370605,2012-01-27 07:57:35
1.0149998664856,42.3722076416016,-70.9950041770935,47.7999992370605,2012-01-27 07:57:36
0.978000164031982,42.3722076416016,-70.9950041770935,47.7999992370605,2012-01-27 07:57:37
1.0019998550415,42.3722130060196,-70.9950041770935,47.7999992370605,2012-01-27 07:57:38
1.05599999427795,42.3722130060196,-70.9950041770935,47.7999992370605,2012-01-27 07:57:39
0.940000057220459,42.3722130060196,-70.9950041770935,47.7999992370605,2012-01-27 07:57:40
1.01999998092651,42.3722130060196,-70.9950041770935,47.7999992370605,2012-01-27 07:57:41
0.982000112533569,42.3722130060196,-70.9950041770935,47.7999992370605,2012-01-27 07:57:42
1.00300002098083,42.3722130060196,-70.9950041770935,47.7999992370605,2012-01-27 07:57:43
1.00399994850159,42.3722130060196,-70.9950041770935,47.7999992370605,2012-01-27 07:57:44
1.02500009536743,42.3722130060196,-70.9950041770935,47.7999992370605,2012-01-27 07:57:45
1.03999996185303,42.3722130060196,-70.9950095415115,47.7999992370605,2012-01-27 07:57:46
0.934000015258789,42.3722130060196,-70.9950095415115,47.7999992370605,2012-01-27 07:57:47
0.995999813079834,42.3722130060196,-70.9950095415115,47.7999992370605,2012-01-27 07:57:48
1,42.3722130060196,-70.9950095415115,47.7999992370605,2012-01-27 07:57:49
1.00800013542175,42.3722130060196,-70.9950095415115,47.7999992370605,2012-01-27 07:57:50
1.02099990844727,42.3722130060196,-70.9950095415115,47.7999992370605,2012-01-27 07:57:51
0.983000040054321,42.3722130060196,-70.9950095415115,47.7999992370605,2012-01-27 07:57:52
1.00699996948242,42.3722130060196,-70.9950095415115,47.7999992370605,2012-01-27 07:57:53
1.01200008392334,42.37221169,-70.99500879,-22.1000003814697,2012-01-27 07:57:54
1.04399991035461,42.37221183,-70.99500894,-22.1000003814697,2012-01-27 07:57:55
0.952000141143799,42.3722118,-70.99500933,-22.1000003814697,2012-01-27 07:57:56
0.982999801635742,42.37221242,-70.99500986,-22.1000003814697,2012-01-27 07:57:57
1.00300002098083,42.37221239,-70.99501005,-22.1000003814697,2012-01-27 07:57:58
0.993000030517578,42.37221239,-70.99501005,-22.1000003814697,2012-01-27 07:57:59
1.02600002288818,42.37221239,-70.99501005,-22.1000003814697,2012-01-27 07:58:00
1.02500009536743,42.37221243,-70.9950101,-22.1000003814697,2012-01-27 07:58:01
1.03499984741211,42.37221243,-70.9950101,-22.1000003814697,2012-01-27 07:58:02
0.916000127792358,42.37221241,-70.99501009,-22.1000003814697,2012-01-27 07:58:03
1.00999999046326,42.37221241,-70.99501009,-22.1000003814697,2012-01-27 07:58:04
0.990000009536743,42.3722130060196,-70.9950095415115,47.7999992370605,2012-01-27 07:58:05
1.01099991798401,42.3722130060196,-70.9950095415115,47.7999992370605,2012-01-27 07:58:06
0.989000082015991,42.3722130060196,-70.9950095415115,47.7999992370605,2012-01-27 07:58:07
1.01099991798401,42.3722130060196,-70.9950095415115,47.7999992370605,2012-01-27 07:58:08
1.00699996948242,42.3722130060196,-70.9950095415115,47.7999992370605,2012-01-27 07:58:09
1.03900003433228,42.3722130060196,-70.9950095415115,47.7999992370605,2012-01-27 07:58:10
0.993000030517578,42.3722130060196,-70.9950095415115,47.7999992370605,2012-01-27 07:58:11
0.943000078201294,42.3722130060196,-70.9950095415115,47.7999992370605,2012-01-27 07:58:12
1.01099991798401,42.37221284,-70.99501136,-22.2000007629395,2012-01-27 07:58:13
1,42.37221277,-70.99501183,-22.2000007629395,2012-01-27 07:58:14
1.00200009346008,42.37221263,-70.99501235,-22.2999992370605,2012-01-27 07:58:15
1.00399994850159,42.37221207,-70.99501274,-22.2999992370605,2012-01-27 07:58:16
1.04500007629395,42.37220962,-70.99501271,-22.2999992370605,2012-01-27 07:58:17
0.94599986076355,42.37220931,-70.99501315,-22.3999996185303,2012-01-27 07:58:18
0.996999979019165,42.37220862,-70.99501306,-22.3999996185303,2012-01-27 07:58:19
1.00600004196167,42.37220513,-70.9950122,-22.3999996185303,2012-01-27 07:58:20
1.12100005149841,42.37220476,-70.99501268,-22.3999996185303,2012-01-27 07:58:21
1.00099992752075,42.37220311,-70.99501255,-22.6000003814697,2012-01-27 07:58:22
0.973999977111816,42.37220289,-70.99501296,-22.6000003814697,2012-01-27 07:58:23
0.996999979019165,42.37220182,-70.9950124,-22.6000003814697,2012-01-27 07:58:24
0.906000137329102,42.37220184,-70.99501194,-22.3999996185303,2012-01-27 07:58:25
1.04499983787537,42.3722012,-70.9950117,-22.3999996185303,2012-01-27 07:58:26
0.956000089645386,42.37219944,-70.99501152,-22.3999996185303,2012-01-27 07:58:27
0.999000072479248,42.37220108,-70.9950114,-22.2999992370605,2012-01-27 07:58:28
1.00600004196167,42.37220166,-70.99501106,-22.2000007629395,2012-01-27 07:58:29
0.990000009536743,42.37220046,-70.99501106,-22.2000007629395,2012-01-27 07:58:30
1.10399985313416,42.37219915,-70.99501077,-22.2999992370605,2012-01-27 07:58:31
0.898000001907349,42.37219915,-70.99501072,-22.2999992370605,2012-01-27 07:58:32
0.998000144958496,42.37219922,-70.99501087,-22.2999992370605,2012-01-27 07:58:33
1.00399994850159,42.37219912,-70.99501115,-22.2999992370605,2012-01-27 07:58:34
1,42.37219907,-70.99501081,-22.2999992370605,2012-01-27 07:58:35
1.00099992752075,42.37219852,-70.99501076,-22.2999992370605,2012-01-27 07:58:36
1.00600004196167,42.37219897,-70.99501105,-22.2999992370605,2012-01-27 07:58:37
1,42.37219863,-70.99501103,-22.2999992370605,2012-01-27 07:58:38
1.08899998664856,42.37219802,-70.99501054,-22.2999992370605,2012-01-27 07:58:39
0.901000022888184,42.37219945,-70.99501145,-22.3999996185303,2012-01-27 07:58:40
1.01799988746643,42.37219949,-70.9950115,-22.3999996185303,2012-01-27 07:58:41
0.980000019073486,42.37219956,-70.99501161,-22.3999996185303,2012-01-27 07:58:42
1.00600004196167,42.37219901,-70.99501139,-22.3999996185303,2012-01-27 07:58:43
0.995000123977661,42.37219865,-70.99501136,-22.3999996185303,2012-01-27 07:58:44
1.01699995994568,42.37219944,-70.99501188,-22.5,2012-01-27 07:58:45
1.04699993133545,42.37219952,-70.99501189,-22.5,2012-01-27 07:58:46
1.05699992179871,42.37219988,-70.99501212,-22.5,2012-01-27 07:58:47
0.878000020980835,42.37219989,-70.99501216,-22.5,2012-01-27 07:58:48
1.01399993896484,42.37219997,-70.99501212,-22.5,2012-01-27 07:58:49
1.04500007629395,42.37219979,-70.99501213,-22.5,2012-01-27 07:58:50
1.15000009536743,42.3721994,-70.99501198,-22.5,2012-01-27 07:58:51
0.792999982833862,42.37219938,-70.995012,-22.5,2012-01-27 07:58:52
0.997999906539917,42.37220018,-70.99501272,-22.5,2012-01-27 07:58:53
1.00300002098083,42.37220022,-70.99501306,-22.6000003814697,2012-01-27 07:58:54
1,42.37220022,-70.99501295,-22.6000003814697,2012-01-27 07:58:55
1.02800011634827,42.37219982,-70.99501326,-22.6000003814697,2012-01-27 07:58:56
1.05999994277954,42.37219943,-70.99501745,-22.8999996185303,2012-01-27 07:58:57
1.07399988174438,42.37220027,-70.99501959,-23,2012-01-27 07:58:58
0.841000080108643,42.37220862,-70.99503128,-23.8999996185303,2012-01-27 07:58:59
0.999000072479248,42.37221667,-70.99503875,-24.8999996185303,2012-01-27 07:59:00
1.0239999294281,42.3722185,-70.99504417,-25.7999992370605,2012-01-27 07:59:01
1.3970000743866,42.37221917,-70.9950457,-26.2000007629395,2012-01-27 07:59:03
1.03999996185303,42.37221846,-70.99504622,-26.5,2012-01-27 07:59:04
0.953000068664551,42.37222617,-70.99504483,-24.8999996185303,2012-01-27 07:59:05
1.0149998664856,42.37224535,-70.99503728,-18.8999996185303,2012-01-27 07:59:06
1.07299995422363,42.37223387,-70.99504303,-23.3999996185303,2012-01-27 07:59:07
0.906000137329102,42.3722323,-70.9950428,-23.8999996185303,2012-01-27 07:59:08
1.0939998626709,42.3722323,-70.9950428,-23.8999996185303,2012-01-27 07:59:09
0.91100001335144,42.37223531,-70.99504217,-22,2012-01-27 07:59:10
1.00400018692017,42.37219108,-70.99503727,-28.3999996185303,2012-01-27 07:59:11
1.00799989700317,42.37219108,-70.99503727,-28.3999996185303,2012-01-27 07:59:12
0.984999895095825,42.37218019,-70.99504235,-30.7999992370605,2012-01-27 07:59:13
1.01800012588501,42.37218083,-70.99504045,-30.1000003814697,2012-01-27 07:59:14
1.01300001144409,42.37218171,-70.99503622,-28.7000007629395,2012-01-27 07:59:15
1.06200003623962,42.3721925,-70.99503234,-27.2999992370605,2012-01-27 07:59:16
0.924000024795532,42.37219066,-70.99503602,-29.6000003814697,2012-01-27 07:59:17
0.979999780654907,42.37219914,-70.99502601,-25.5,2012-01-27 07:59:18
1.00600004196167,42.37220169,-70.99501986,-24.7000007629395,2012-01-27 07:59:19
1.00100016593933,42.37222135,-70.99501029,-17.2000007629395,2012-01-27 07:59:20
1.00099992752075,42.37222302,-70.99501516,-17,2012-01-27 07:59:21
1.01900005340576,42.37222302,-70.99501516,-17,2012-01-27 07:59:22
1.01199984550476,42.37222455,-70.99501597,-16.7999992370605,2012-01-27 07:59:23
1.07300019264221,42.37222455,-70.99501597,-16.7999992370605,2012-01-27 07:59:24
0.891999959945679,42.37222248,-70.99501682,-17.2000007629395,2012-01-27 07:59:25
1.00699996948242,42.37222157,-70.99501708,-17.2999992370605,2012-01-27 07:59:26
1.0239999294281,42.37222273,-70.99501717,-17.1000003814697,2012-01-27 07:59:27
0.982000112533569,42.37222273,-70.99501717,-17.1000003814697,2012-01-27 07:59:28
1.00499987602234,42.37222199,-70.9950173,-17.2000007629395,2012-01-27 07:59:29
0.998000144958496,42.37222216,-70.99501734,-17.2000007629395,2012-01-27 07:59:30
1.06900000572205,42.37222225,-70.99501737,-17.1000003814697,2012-01-27 07:59:31
0.964999914169312,42.37222259,-70.99501743,-17.1000003814697,2012-01-27 07:59:32
0.960999965667725,42.37222323,-70.99501822,-17.1000003814697,2012-01-27 07:59:33
1.00500011444092,42.37222392,-70.99501927,-17.1000003814697,2012-01-27 07:59:34
0.990999937057495,42.37222439,-70.99501997,-17.1000003814697,2012-01-27 07:59:35
1.07299995422363,42.37222645,-70.99502101,-16.7999992370605,2012-01-27 07:59:36
1.15799999237061,42.3722274,-70.9950218,-16.7000007629395,2012-01-27 07:59:37
0.772000074386597,42.37222811,-70.99502188,-16.6000003814697,2012-01-27 07:59:38
1.00099992752075,42.37222843,-70.99502223,-16.5,2012-01-27 07:59:39
1.00399994850159,42.37222908,-70.99502296,-16.5,2012-01-27 07:59:40
1.01300001144409,42.37222917,-70.99502307,-16.5,2012-01-27 07:59:41
1.0770001411438,42.37222948,-70.99502321,-16.3999996185303,2012-01-27 07:59:42
0.913999795913696,42.37222895,-70.99502415,-16.6000003814697,2012-01-27 07:59:43
0.994000196456909,42.37222872,-70.99502404,-16.6000003814697,2012-01-27 07:59:44
0.995999813079834,42.3722286,-70.99502385,-16.6000003814697,2012-01-27 07:59:45
1.01500010490417,42.37222821,-70.99502441,-16.7999992370605,2012-01-27 07:59:46
1.01099991798401,42.37222796,-70.99502425,-16.7999992370605,2012-01-27 07:59:47
1.00699996948242,42.37222779,-70.99502448,-16.8999996185303,2012-01-27 07:59:48
1.06300020217896,42.37222785,-70.99502452,-16.7999992370605,2012-01-27 07:59:49
0.904999971389771,42.37222801,-70.99502477,-16.7999992370605,2012-01-27 07:59:50
1.01300001144409,42.37222801,-70.99502474,-16.7999992370605,2012-01-27 07:59:51
1.18999981880188,42.372228,-70.99502468,-16.7999992370605,2012-01-27 07:59:52
0.814000129699707,42.37222803,-70.99502496,-16.8999996185303,2012-01-27 07:59:53
1.03500008583069,42.37222818,-70.99502519,-16.8999996185303,2012-01-27 07:59:54
1.03399991989136,42.37222831,-70.99502546,-16.8999996185303,2012-01-27 07:59:55
0.911999940872192,42.37222828,-70.99502547,-16.8999996185303,2012-01-27 07:59:56
1.02100014686584,42.37222806,-70.99502512,-16.8999996185303,2012-01-27 07:59:57
0.977999925613403,42.3722277,-70.99502518,-16.8999996185303,2012-01-27 07:59:58
0.996999979019165,42.37222759,-70.99502497,-16.8999996185303,2012-01-27 07:59:59
