"diffSecs","level","azimuth.mean","azimuth.absolute.deviation","azimuth.standard.deviation","azimuth.max.deviation","pitch.mean","pitch.absolute.deviation","pitch.standard.deviation","pitch.max.deviation","roll.mean","roll.absolute.deviation","roll.standard.deviation","roll.max.deviation","time"
1.01300001144409,20,5.97500038146973,1.51250004768372,1.68192613124847,2.62500023841858,-42.2150001525879,1.43350005149841,1.60258388519287,2.61499834060669,11.8650007247925,5.14849996566772,5.94628286361694,10.5650005340576,2012-01-13 16:51:19
1.00800013542175,49,12.9122447967529,6.1553521156311,6.57570171356201,9.38775634765625,-42.2795906066895,1.5808413028717,1.73863410949707,2.97959327697754,-6.5938777923584,1.70162439346313,2.26782369613647,6.5938777923584,2012-01-13 16:51:20
1.07699990272522,26,4.98461532592773,4.12721920013428,4.93532752990723,11.0153846740723,-38.9730796813965,1.95769202709198,2.1689338684082,3.22692275047302,-23.3192310333252,5.88698244094849,6.82292652130127,13.8192310333252,2012-01-13 16:51:21
1.00200009346008,44,10.9318180084229,4.39400815963745,5.03613185882568,10.0318183898926,-41.1909103393555,1.03057849407196,1.15282618999481,2.30909013748169,-15.9522733688354,2.04597115516663,2.48454213142395,5.04772710800171,2012-01-13 16:51:22
1.01799988746643,48,13.4916667938232,7.27500009536743,8.01175785064697,11.3916664123535,-42.8125,1.99791634082794,2.21976184844971,3.71249842643738,2.31041669845581,5.55651044845581,6.80294799804688,14.7104167938232,2012-01-13 16:51:23
1.02300000190735,23,5.45217370986938,3.30245757102966,5.03197336196899,15.0478258132935,-47.0913047790527,0.880907356739044,1.24128711223602,3.69130349159241,2.75217390060425,1.31153118610382,1.56145691871643,3.54782629013062,2012-01-13 16:51:24
1.00600004196167,45,13.6644449234009,5.04809904098511,5.4647216796875,7.43555593490601,-45.8800010681152,1.64888882637024,1.75861048698425,2.6800000667572,0.680000007152557,5.13066673278809,5.81697130203247,11.6800003051758,2012-01-13 16:51:25
1.00699996948242,49,-4.1673469543457,6.23740100860596,6.71344661712646,10.2673473358154,-44.5040817260742,2.26505637168884,2.40662002563477,3.4040801525116,-18.2755107879639,3.80966281890869,4.15282201766968,7.07551097869873,2012-01-13 16:51:26
1.01300001144409,29,-5.10344839096069,2.96837091445923,3.1787531375885,4.69655179977417,-45.6482772827148,2.449702501297,2.57234883308411,3.35172343254089,-18.7758617401123,3.83519625663757,3.98009324073792,4.87586164474487,2012-01-13 16:51:27
1.01500010490417,39,0.851282060146332,0.672978341579437,0.907199621200562,2.25128197669983,-48.9076919555664,0.227219045162201,0.268313527107239,0.50769180059433,-12.2102565765381,0.629980325698853,0.774528801441193,1.78974342346191,2012-01-13 16:51:28
1.27300000190735,49,-2.61836743354797,1.28363180160522,1.50437104701996,2.81836748123169,-46.5571441650391,1.02507293224335,1.12085974216461,2.04285860061646,-15.3795919418335,1.18092465400696,1.36216819286346,2.87959218025208,2012-01-13 16:51:29
1.00999999046326,50,-4.39400005340576,0.690720021724701,0.821318447589874,1.59400010108948,-44.0340003967285,0.964800000190735,1.16044986248016,2.06600165367126,-20.3240013122559,2.4281599521637,2.75735831260681,4.82400035858154,2012-01-13 16:51:30
1.01799988746643,40,-3.15250015258789,0.566375017166138,0.738913893699646,1.64750015735626,-46.120002746582,0.907999873161316,1.13714551925659,2.71999931335449,-15.5725002288818,2.05699992179871,2.63011288642883,6.52750015258789,2012-01-13 16:51:31
1.05100011825562,33,-2.75151515007019,0.541414141654968,0.666570246219635,1.64848494529724,-47.6575775146484,0.364003300666809,0.427841663360596,0.75757497549057,-9.38787937164307,2.37832880020142,2.81777453422546,5.08787870407104,2012-01-13 16:51:32
1.04999995231628,53,-5.3188681602478,0.729085087776184,1.01238679885864,3.21886777877808,-48.15283203125,0.23139899969101,0.27029275894165,0.547169864177704,-10.7245283126831,0.221217572689056,0.259102702140808,0.524528741836548,2012-01-13 16:51:33
1.03399991989136,40,-3.66499996185303,0.677000045776367,0.793583691120148,1.66500008106232,-46.4550018310547,0.52049994468689,0.696042358875275,1.54499936103821,-14.5050001144409,1.25475013256073,1.57907426357269,3.40499997138977,2012-01-13 16:51:34
1.0090000629425,46,-2.9956521987915,0.912476360797882,1.08065128326416,1.90434789657593,-46.1956520080566,0.183364719152451,0.259562075138092,0.704348683357239,-14.2521743774414,0.33308133482933,0.417413949966431,1.24782586097717,2012-01-13 16:51:35
1.32399988174438,46,-1.55000007152557,0.336956530809402,0.435266047716141,0.949999988079071,-47.8695640563965,0.497920423746109,0.581926703453064,1.06956660747528,-12.5021743774414,0.763421475887299,0.907334625720978,1.69782567024231,2012-01-13 16:51:36
1.01600003242493,52,-0.748076915740967,0.401775151491165,0.468832612037659,1.05192315578461,-47.9384613037109,0.195858314633369,0.231345564126968,0.461538970470428,-12.2480773925781,0.31161242723465,0.349994689226151,0.551923155784607,2012-01-13 16:51:37
1.01300001144409,43,-1.48372089862823,0.248350471258163,0.31396210193634,0.616279184818268,-47.7093048095703,0.128826022148132,0.174960196018219,0.390699088573456,-12.0418605804443,0.393618226051331,0.477022111415863,1.04186069965363,2012-01-13 16:51:38
1.01200008392334,23,-1.27391302585602,0.212098300457001,0.236307442188263,0.473913043737411,-48.3739128112793,0.188279896974564,0.223056614398956,0.426085084676743,-10.4782609939575,0.234404563903809,0.273395031690598,0.521738827228546,2012-01-13 16:51:39
1.00600004196167,40,-14.4724998474121,4.17837524414062,4.76098680496216,8.42749977111816,-41.2350006103516,0.628249943256378,0.793898582458496,1.76499962806702,-16.8700008392334,4.55250024795532,5.13936758041382,10.0699996948242,2012-01-13 16:51:40
1.00799989700317,49,-27.4836730957031,1.96426486968994,2.48122310638428,5.08367395401001,-36.2346954345703,1.78092443943024,2.03936266899109,4.06530475616455,-11.9591836929321,4.13552713394165,4.66939306259155,10.5591840744019,2012-01-13 16:51:42
1.02099990844727,27,-18.6851844787598,4.08395051956177,4.83472776412964,10.7148141860962,-42.1444435119629,1.97860050201416,2.77185988426208,8.54444313049316,-4.68518543243408,3.73168730735779,5.25791835784912,15.8148145675659,2012-01-13 16:51:43
1.01400017738342,48,-27.2604179382324,4.41119766235352,4.69262456893921,6.76041698455811,-36.4270858764648,3.66987895965576,3.9139039516449,5.37291526794434,-8.15416717529297,9.32118034362793,9.69686317443848,12.654167175293,2012-01-13 16:51:44
1.0019998550415,49,-27.1816329956055,1.72119963169098,2.35412573814392,7.88163185119629,-35.9979591369629,2.67155337333679,2.9583842754364,6.59796047210693,8.51224517822266,6.75735139846802,8.31773662567139,22.8877544403076,2012-01-13 16:51:45
1.00699996948242,31,-25.2709674835205,6.8068675994873,7.15867137908936,9.37096786499023,-32.0516128540039,1.48158180713654,1.7226893901825,3.25161242485046,18.9903221130371,11.3719043731689,12.0037994384766,16.2096786499023,2012-01-13 16:51:46
1.00200009346008,40,-27.1200008392334,6.56500005722046,7.04188203811646,9.31999969482422,-35.8125,3.31437516212463,3.50600838661194,4.88749980926514,9.40750026702881,4.51600027084351,4.8760838508606,7.09249973297119,2012-01-13 16:51:47
1.00799989700317,45,-29.7577781677246,2.9330370426178,3.85356903076172,9.05777740478516,-35.9466667175293,1.35140740871429,1.86256682872772,4.05333232879639,4.32666683197021,3.04888892173767,3.57885146141052,7.37333297729492,2012-01-13 16:51:48
1.00300002098083,22,-30.6454544067383,3.40165328979492,3.95379328727722,8.1454553604126,-34.0681838989258,1.01115715503693,1.20506012439728,2.63181829452515,8.122727394104,4.38140487670898,4.87581539154053,8.07727336883545,2012-01-13 16:51:49
1.01900005340576,50,-33.6180000305176,1.14536023139954,1.97693622112274,11.1180009841919,-32.2480010986328,0.593920171260834,0.742223918437958,2.15200090408325,-0.36599999666214,3.40343999862671,4.04725170135498,10.2660007476807,2012-01-13 16:51:50
1.00200009346008,48,-34.5375022888184,0.15312534570694,0.196452975273132,0.56250125169754,-31.8374996185303,0.108853690326214,0.137878119945526,0.36250028014183,-3.41458344459534,0.40685760974884,0.485622256994247,1.51458334922791,2012-01-13 16:51:51
1.01999998092651,43,-34.4162788391113,0.415035039186478,0.502981662750244,1.08372008800507,-31.3883724212646,0.682747364044189,0.837274014949799,1.51162898540497,-7.12325620651245,3.07885360717773,3.68730306625366,6.92325592041016,2012-01-13 16:51:52
1.01199984550476,42,-20.1738090515137,7.80612230300903,8.68663597106934,14.1261892318726,-37.4809532165527,3.57233572006226,3.88459968566895,6.98095321655273,-15.2142858505249,6.41360569000244,7.65411758422852,11.8142862319946,2012-01-13 16:51:53
1.0220000743866,41,-20.3731708526611,8.589768409729,9.14461135864258,13.2731714248657,-36.9878044128418,5.53563356399536,5.93580293655396,8.58780574798584,-13.6195125579834,7.72623443603516,8.76259326934814,13.7804870605469,2012-01-13 16:51:54
1.00399994850159,48,-28.8291664123535,4.04392385482788,4.7107572555542,10.4291677474976,-34.2250022888184,3.51875019073486,4.03384160995483,7.17500114440918,-11.8687505722046,3.51354169845581,4.30857467651367,8.66874980926514,2012-01-13 16:51:55
1.04200005531311,27,-16.5481491088867,1.65377247333527,1.88667285442352,2.94814825057983,-41.3407402038574,0.841975271701813,1.34859549999237,5.74073934555054,-10.9555559158325,2.21893000602722,3.20662879943848,12.9444437026978,2012-01-13 16:51:56
1.00399994850159,48,-4.69583320617676,9.14913177490234,10.5771560668945,17.7041664123535,-41.033332824707,2.21250009536743,2.64294147491455,5.73333501815796,-14.4083337783813,5.32847213745117,6.160080909729,9.59166622161865,2012-01-13 16:51:57
1.01100015640259,49,3.2734694480896,5.33536052703857,6.13124418258667,9.5734691619873,-39.6326522827148,0.670221269130707,0.859138190746307,1.83265459537506,-15.3285713195801,3.6413996219635,4.55026340484619,8.77142906188965,2012-01-13 16:51:58
1.0149998664856,38,5.23684215545654,5.74072027206421,5.83656454086304,8.26315784454346,-44.8684234619141,4.00332450866699,4.3159499168396,7.76841926574707,-15.9236841201782,9.05803298950195,9.92048454284668,15.2236843109131,2012-01-13 16:51:59
1.01400017738342,43,4.81162786483765,3.32925915718079,4.01944160461426,8.78837203979492,-50.9674415588379,0.774472713470459,0.932543575763702,1.86744046211243,-4.16511631011963,3.57685232162476,4.03691577911377,7.86511659622192,2012-01-13 16:52:00
1.01999998092651,49,13.8979597091675,5.5452733039856,6.35935735702515,10.4979591369629,-45.3020401000977,1.34135782718658,1.78811156749725,5.49795770645142,14.0081634521484,4.6182427406311,5.62526512145996,13.3081636428833,2012-01-13 16:52:01
1.01300001144409,40,1.51750004291534,0.346250027418137,0.540318191051483,1.68250000476837,-46.8575019836426,0.192500025033951,0.227911397814751,0.457499414682388,8.90999984741211,0.563499927520752,0.769350349903107,2.58999991416931,2012-01-13 16:52:02
1.00799989700317,37,8.56756782531738,6.40116882324219,7.37021255493164,13.3324317932129,-43.7756767272949,2.72914576530457,2.85604238510132,3.87567472457886,16.2297306060791,5.3770637512207,5.55264091491699,6.57027101516724,2012-01-13 16:52:03
1.19000005722046,49,3.94693875312805,2.39483547210693,2.64491057395935,4.84693908691406,-45.6612243652344,1.16901290416718,1.33505582809448,2.76122355461121,4.3469386100769,9.721116065979,10.5353651046753,16.7530612945557,2012-01-13 16:52:04
1.00999999046326,47,13.3595743179321,3.42779541015625,4.44654607772827,12.659574508667,-44.6851081848145,0.492439985275269,0.576112687587738,1.21489453315735,-10.6489362716675,1.58841109275818,1.88475096225739,3.54893660545349,2012-01-13 16:52:05
1.01799988746643,40,-0.0375000089406967,5.03812503814697,5.95326328277588,11.7375001907349,-43.4599990844727,2.39100003242493,2.74515914916992,5.05999946594238,-17.0524997711182,6.06012487411499,7.03182029724121,11.147500038147,2012-01-13 16:52:06
1.00100016593933,39,1.69743585586548,5.87442493438721,6.38156366348267,9.30256366729736,-45.6307716369629,3.45443820953369,3.81731295585632,7.13077020645142,-12.6948719024658,9.54293251037598,10.2795276641846,15.6051292419434,2012-01-13 16:52:07
1.13699984550476,49,-4.76326513290405,7.51203680038452,8.14405250549316,12.7367343902588,-46.5408172607422,1.72569751739502,1.89207971096039,2.6408154964447,-15.1959190368652,4.39616823196411,4.9343843460083,9.29591846466064,2012-01-13 16:52:08
1.01100015640259,50,-3.36400008201599,4.76000022888184,5.48130512237549,10.1640005111694,-47.2200012207031,1.95599985122681,2.41039395332336,5.61999845504761,-14.5380001068115,4.4747200012207,5.37419366836548,11.7620010375977,2012-01-13 16:52:09
1.01399993896484,41,-0.478048771619797,6.49946451187134,7.18098831176758,11.5780487060547,-47.9560966491699,2.51576447486877,3.0292112827301,6.2560977935791,-12.4219512939453,5.73456287384033,6.98830080032349,13.7780494689941,2012-01-13 16:52:10
1,47,3.1680850982666,2.64028978347778,3.26497268676758,7.73191547393799,-49.5808525085449,0.499592542648315,0.598806798458099,1.11914885044098,-11.274468421936,2.76432776451111,3.0585401058197,4.52553176879883,2012-01-13 16:52:11
1.01099991798401,38,-3.01052641868591,1.13767313957214,1.38027262687683,2.8105263710022,-48.5605278015137,0.700554072856903,0.798531293869019,1.33947432041168,-14.0631580352783,3.21301960945129,3.57494378089905,6.16315793991089,2012-01-13 16:52:12
