"diffSecs","level","azimuth.mean","azimuth.absolute.deviation","azimuth.standard.deviation","azimuth.max.deviation","pitch.mean","pitch.absolute.deviation","pitch.standard.deviation","pitch.max.deviation","roll.mean","roll.absolute.deviation","roll.standard.deviation","roll.max.deviation","time"
0,38,-206.407897949219,0.47673237323761,0.519303441047668,0.907898366451263,142.278945922852,0.958171784877777,1.1865828037262,2.37894248962402,-86.2052688598633,0.15734076499939,0.201242551207542,0.50526088476181,2012-01-01 16:00:03
1.01603162288666,29,-206.05517578125,0.807370543479919,1.01287686824799,2.45516920089722,143.537933349609,0.337455421686172,0.449837923049927,1.03793382644653,-86.2000045776367,0.144829735159874,0.22743022441864,0.600000858306885,2012-01-01 16:00:04
1.02907335758209,45,-202.106674194336,1.08236956596375,1.17802059650421,1.90667319297791,146.300003051758,1.77333402633667,2.01373100280762,3.39999413490295,-87.2533340454102,0.238518536090851,0.287208676338196,0.653336226940155,2012-01-01 16:00:05
1.00489830970764,47,-195.638305664062,2.69868683815002,3.09677624702454,5.03829479217529,150.148941040039,1.00932514667511,1.14108407497406,2.05105829238892,-87.5468139648438,0.248076647520065,0.287210911512375,0.646808862686157,2012-01-01 16:00:06
1.01148164272308,31,-188.948394775391,1.77585792541504,1.80677366256714,2.44839024543762,149.993545532227,0.955462098121643,1.12678027153015,2.39354395866394,-87.0580673217773,0.142767995595932,0.171848133206367,0.358061522245407,2012-01-01 16:00:07
1.00995004177094,13,-185.46923828125,0.537278234958649,0.649715423583984,1.3307694196701,148.115386962891,0.394082874059677,0.481737077236176,1.015380859375,-86.5307693481445,0.140828147530556,0.163540750741959,0.269232541322708,2012-01-01 16:00:08
1.08844327926636,37,-184.656753540039,0.315558522939682,0.378860831260681,0.856755435466766,149.078384399414,0.139225780963898,0.178787097334862,0.478375822305679,-86.6297302246094,0.119213074445724,0.139236241579056,0.2702696621418,2012-01-01 16:00:09
1.01330828666687,44,-185.720458984375,0.373243451118469,0.446490466594696,1.07954442501068,149.011367797852,0.1270662099123,0.159851729869843,0.311369121074677,-86.6704559326172,0.122315965592861,0.153119117021561,0.429543048143387,2012-01-01 16:00:10
1.00871336460114,49,-186.369384765625,0.305622547864914,0.372636675834656,0.830606579780579,149.375518798828,0.12903194129467,0.162293881177902,0.424489229917526,-86.8653106689453,0.153768181800842,0.181322172284126,0.434695482254028,2012-01-01 16:00:11
1.01037168502808,24,-186.558334350586,0.331943839788437,0.367328286170959,0.658327102661133,150.670837402344,0.987499892711639,1.07837796211243,1.42916929721832,-87.0708312988281,0.09236129373312,0.109846077859402,0.229168891906738,2012-01-01 16:00:12
1.01804995536804,45,-186.213333129883,0.417481750249863,0.495580673217773,1.01333951950073,153.27555847168,0.588346362113953,0.701159536838531,1.67555367946625,-85.2111129760742,0.785185217857361,0.942153990268707,1.78888750076294,2012-01-01 16:00:13
1.09472334384918,38,-177.481582641602,6.25623321533203,6.90213108062744,10.9815816879272,151.465789794922,2.36384963989258,2.68458223342896,5.23420381546021,-79.4263153076172,3.30803346633911,3.98389434814453,10.0736818313599,2012-01-01 16:00:14
1.17421662807465,46,-169.308700561523,0.954253017902374,1.33836734294891,3.8086998462677,155.039138793945,2.07920551300049,2.30457735061646,3.33913660049438,-104.59130859375,1.68960297107697,2.09147596359253,4.69130420684814,2012-01-01 16:00:15
1.01512503623962,49,-168.39387512207,0.439400315284729,0.579023480415344,2.29387402534485,161.720413208008,0.852645337581635,1.04060041904449,2.22040987014771,-109.863265991211,0.417076230049133,0.514164328575134,1.4632660150528,2012-01-01 16:00:16
1.00123834609985,43,-169.758148193359,2.83547902107239,3.06686997413635,4.95813894271851,157.518600463867,9.03039455413818,9.41735744476318,13.9186010360718,-103.14884185791,4.92449998855591,5.38271903991699,8.7488374710083,2012-01-01 16:00:17
1.01804161071777,39,-174.476928710938,1.52307629585266,1.85782527923584,4.07691621780396,144.043594360352,1.23800027370453,1.43344497680664,2.75641131401062,-90.7641067504883,1.24339234828949,1.55620944499969,3.33589434623718,2012-01-01 16:00:18
1.00233995914459,46,-170.632614135742,1.72107708454132,1.98560571670532,3.83260941505432,147.267395019531,0.567391455173492,0.658078074455261,1.33261239528656,-95.4913024902344,1.34139883518219,1.59562253952026,3.39130759239197,2012-01-01 16:00:19
1.01967334747314,35,-174.257141113281,3.22367382049561,3.5977201461792,6.25714492797852,147.662857055664,1.42171382904053,1.5942907333374,2.56285452842712,-108.328575134277,7.21877431869507,8.08315849304199,11.1285676956177,2012-01-01 16:00:20
1.0731782913208,40,-189.942504882812,5.05112504959106,5.59378623962402,9.34249782562256,160.809997558594,5.88350009918213,6.73441934585571,12.209997177124,-123.5625,1.52187490463257,2.04568886756897,5.36249685287476,2012-01-01 16:00:21
1.18559336662292,49,-192.94694519043,0.527363479137421,0.7205730676651,2.35306167602539,168.718368530273,0.1723463088274,0.218224689364433,0.718371033668518,-124.581634521484,0.700791120529175,0.807786881923676,1.58163464069366,2012-01-01 16:00:22
1.02071833610535,49,-194.10205078125,0.238566637039185,0.274412333965302,0.502037227153778,168.359191894531,0.151106059551239,0.179476797580719,0.440815508365631,-125.722450256348,0.220157995820045,0.253356695175171,0.522445857524872,2012-01-01 16:00:23
1.05733501911163,24,-194.520843505859,0.207638531923294,0.249965876340866,0.520836532115936,168.508331298828,0.0937504768371582,0.125553756952286,0.308338791131973,-125.404167175293,0.0881930962204933,0.109843544661999,0.204163551330566,2012-01-01 16:00:24
1.01092171669006,42,-194.159530639648,0.301358699798584,0.357276290655136,0.659526646137238,168.792861938477,0.147280424833298,0.185669094324112,0.407136470079422,-125.502380371094,0.145691335201263,0.179268047213554,0.397618979215622,2012-01-01 16:00:25
1.01231503486633,48,-193.935424804688,0.235937669873238,0.289029747247696,0.56457930803299,169.15625,0.343228787183762,0.441544115543365,1.45625531673431,-125.433334350586,0.186110317707062,0.267965406179428,0.966666519641876,2012-01-01 16:00:26
1.00745165348053,30,-186.940002441406,6.34400033950806,6.78560256958008,8.94000244140625,154.510009765625,7.5906662940979,8.25692939758301,12.789999961853,-126.650001525879,1.82666683197021,1.95954942703247,2.65000200271606,2012-01-01 16:00:27
1.00096666812897,41,-177.595123291016,0.376442581415176,0.443352907896042,0.895128190517426,145.100006103516,0.146342396736145,0.173907876014709,0.399996489286423,-124.475608825684,0.139678195118904,0.180487677454948,0.52438873052597,2012-01-01 16:00:28
1.00694835186005,48,-180.316665649414,2.58333349227905,5.19500303268433,21.8833274841309,145.160415649414,0.239496827125549,0.323226541280746,1.26041126251221,-124.470832824707,0.14670042693615,0.240622043609619,1.07083225250244,2012-01-01 16:00:29
1.00171172618866,36,-86.852783203125,38.512809753418,51.3709373474121,125.047225952148,12.9416666030884,43.3449096679688,56.3635482788086,130.558334350586,-10.9111108779907,38.179012298584,49.3547821044922,112.088890075684,2012-01-01 16:00:30
1.01183497905731,43,-10.3883724212646,20.352840423584,22.7558765411377,46.9116287231445,-0.595348834991455,4.65949153900146,5.32187032699585,12.2046508789062,-21.8441867828369,6.79513263702393,8.9785099029541,26.4441871643066,2012-01-01 16:00:31
1.07101833820343,47,7.62340450286865,2.31100058555603,2.68131542205811,5.72340440750122,-0.936170220375061,1.96342241764069,2.30987024307251,4.13617038726807,-9.87872314453125,4.31625175476074,4.87424564361572,7.67872333526611,2012-01-01 16:00:32
1.01885330677032,47,-3.27872347831726,1.54268908500671,1.90407586097717,5.17872333526611,5.69148969650269,4.33209609985352,4.72065782546997,7.59148931503296,1.5021276473999,0.741783618927002,1.04239690303802,3.30212783813477,2012-01-01 16:00:34
1.00013661384583,36,-2.29444456100464,3.41790127754211,3.7769730091095,6.79444456100464,-0.458333373069763,4.52175951004028,5.01089811325073,8.35833358764648,1.31388890743256,0.806018531322479,0.909564256668091,1.7138888835907,2012-01-01 16:00:35
1.00102996826172,40,6.25250005722046,2.63412499427795,3.26687836647034,5.9524998664856,-9.12750053405762,2.14299988746643,2.3607189655304,4.1725001335144,0.0425000004470348,0.504625022411346,0.573971927165985,1.15750002861023,2012-01-01 16:00:36
1.01848161220551,49,-0.187755107879639,3.12836313247681,3.58304595947266,6.01224517822266,-5.13673496246338,2.26239061355591,2.55715847015381,4.86326503753662,0.485714286565781,1.34518957138062,1.59373772144318,3.41428589820862,2012-01-01 16:00:37
1.01758003234863,26,-1.49615383148193,6.08934926986694,6.549485206604,12.6961536407471,-11.9307689666748,5.82544374465942,6.06152868270874,7.86923170089722,4.52692317962646,1.02544379234314,1.13427639007568,1.7730770111084,2012-01-01 16:00:38
1.00235331058502,43,32.7674407958984,5.44878339767456,7.49122667312622,20.3674411773682,-37.7232551574707,13.634181022644,14.9274969100952,26.0767421722412,-3.73255825042725,3.35262322425842,4.00509691238403,7.73255825042725,2012-01-01 16:00:39
1.00867331027985,46,63.4630470275879,14.2417774200439,16.376220703125,32.063045501709,-56.0891304016113,11.3059549331665,13.603759765625,25.4891319274902,-43.7695655822754,13.1527404785156,15.3069305419922,32.2695655822754,2012-01-01 16:00:40
1.01235663890839,30,80.6366653442383,1.31244480609894,1.46161651611328,2.36333155632019,-66.8266677856445,1.12577795982361,1.35816884040833,2.82666826248169,-59.8300018310547,1.05866658687592,1.33894228935242,2.72999858856201,2012-01-01 16:00:41
1.01526498794556,40,80.8650054931641,1.16049993038177,1.29895162582397,2.3650016784668,-69.2324981689453,1.87912440299988,2.09384632110596,3.26749849319458,-39.8600006103516,10.5329999923706,11.389705657959,17.1399993896484,2012-01-01 16:00:42
1.09262335300446,45,92.511116027832,4.84345626831055,5.54553747177124,11.0111122131348,-126.660003662109,28.9448890686035,32.7323722839355,59.3600006103516,-47.3733329772949,6.71140766143799,8.56671619415283,18.3266696929932,2012-01-01 16:00:43
1.01916170120239,49,97.6612243652344,2.64139986038208,3.45784068107605,10.2387752532959,-124.208168029785,11.5930032730103,15.1953783035278,47.5918388366699,-61.5857162475586,9.46297359466553,12.3725833892822,30.41428565979,2012-01-01 16:00:44
1.02673995494843,29,37.5724143981934,31.8511295318604,38.2121124267578,72.7724151611328,106.696556091309,68.0394744873047,95.1166839599609,290.496551513672,49.7275886535645,26.8083248138428,42.1673278808594,145.427597045898,2012-01-01 16:00:45
1.0141932964325,39,-32.7153854370117,28.7877712249756,53.3869743347168,185.015380859375,84.8076934814453,42.2402381896973,56.3012619018555,167.092315673828,42.9000015258789,11.0410261154175,19.469108581543,69.5999984741211,2012-01-01 16:00:46
1.49749672412872,18,126.961112976074,29.0962963104248,46.2882881164551,170.061111450195,-12.816668510437,87.4611129760742,110.059989929199,314.816680908203,165.472229003906,33.216667175293,50.1636505126953,141.027770996094,2012-01-01 16:00:47
1.02873837947845,42,-46.6476211547852,13.8317461013794,21.0559272766113,89.6476211547852,81.2666702270508,22.5079364776611,35.8556938171387,156.433334350586,54.1095237731934,9.64648532867432,15.2297925949097,60.4904747009277,2012-01-01 16:00:48
1.00430333614349,38,-42.0736846923828,4.21052646636963,5.01123428344727,8.32631683349609,59.0131607055664,7.51066541671753,10.0713033676147,21.8868427276611,57.565788269043,5.79030466079712,6.52615308761597,11.5342082977295,2012-01-01 16:00:49
1.20947670936584,45,-40.857780456543,9.58419799804688,12.2483644485474,26.0422229766846,36.0488891601562,9.06291389465332,11.1844062805176,25.4511108398438,72.2911148071289,5.74330854415894,7.4452018737793,26.8088855743408,2012-01-01 16:00:50
1.00609338283539,48,-20.2875003814697,1.81406247615814,2.21318244934082,4.71249961853027,30.7104167938232,2.05095481872559,2.74903321266174,7.88958549499512,93.5541687011719,3.10034728050232,3.87168979644775,9.54583072662354,2012-01-01 16:00:51
1.01265835762024,36,-23.3361110687256,1.45632708072662,1.52991509437561,2.16388869285583,29.0722217559814,1.76512336730957,1.82141745090485,2.82777690887451,89.283332824707,0.513889133930206,0.605301201343536,1.11666631698608,2012-01-01 16:00:53
1.00898838043213,39,-19.3128204345703,1.21564757823944,1.47024846076965,3.01281976699829,33.8794860839844,2.13359618186951,2.71955680847168,6.0205135345459,99.6641006469727,8.64957237243652,9.34293842315674,14.4358949661255,2012-01-01 16:00:54
1.00554001331329,47,-21.1702136993408,0.598913609981537,0.671585977077484,1.52978765964508,32.027660369873,0.6750568151474,0.782441020011902,1.72765922546387,123.504257202148,5.41656875610352,5.8120551109314,9.50425720214844,2012-01-01 16:00:55
1.00798499584198,32,-21.2531261444092,1.14726567268372,1.32688176631927,3.15312504768372,31.0375003814697,0.583593606948853,0.687727034091949,1.46249961853027,120.309379577637,7.22812652587891,8.21935176849365,14.5093746185303,2012-01-01 16:00:56
1.01779496669769,44,-5.82727289199829,14.3061981201172,15.1700267791748,23.4272727966309,29.3272724151611,6.0380163192749,6.99504232406616,12.0727281570435,55.3454551696777,51.5487632751465,54.8771553039551,86.4454574584961,2012-01-01 16:00:57
1.22231328487396,45,-35.5088882446289,14.5485439300537,17.4684066772461,41.9088897705078,20.1333332061768,1.98962950706482,2.63927602767944,6.23333311080933,-31.0755558013916,4.59387683868408,5.11629915237427,7.67555665969849,2012-01-01 16:00:58
1.01460838317871,48,-53.9020843505859,2.64357614517212,3.04996490478516,7.30208158493042,12.6333332061768,0.637499988079071,0.809149086475372,1.83333337306976,-21.7375011444092,2.04114556312561,2.51351547241211,6.16249942779541,2012-01-01 16:00:59
1.01065003871918,40,-20.9575004577637,11.2617502212524,13.5567865371704,25.0424995422363,14.4549999237061,1.54975008964539,1.91297543048859,4.54500007629395,-37.2200012207031,1.96099996566772,2.76253509521484,8.92000007629395,2012-01-01 16:01:00
1.01119828224182,36,18.2694454193115,5.49506187438965,6.62263870239258,13.9694442749023,21.7583332061768,1.00555562973022,1.23093807697296,2.65833353996277,-21.6777782440186,6.73333358764648,7.78924179077148,13.3222217559814,2012-01-01 16:01:01
1.16941499710083,45,28.1622219085693,0.329185336828232,0.451805859804153,1.26222288608551,23.1644439697266,0.116642117500305,0.149302870035172,0.36444365978241,-8.0444450378418,1.1851851940155,1.3142899274826,2.6555552482605,2012-01-01 16:01:02
1.02375996112823,42,28.4785709381104,0.339796096086502,0.40031886100769,0.878571271896362,23.4928569793701,0.0938777551054955,0.116277508437634,0.207143515348434,-7.08571434020996,0.340136051177979,0.378953069448471,0.714285790920258,2012-01-01 16:01:03
