"diffSecs","level","azimuth.mean","azimuth.absolute.deviation","azimuth.standard.deviation","azimuth.max.deviation","pitch.mean","pitch.absolute.deviation","pitch.standard.deviation","pitch.max.deviation","roll.mean","roll.absolute.deviation","roll.standard.deviation","roll.max.deviation","time"
1.01900005340576,19,-40.5526313781738,0.281993955373764,0.315174221992493,0.452629685401917,6.24210548400879,0.107479244470596,0.126972019672394,0.257894605398178,-11.8000001907349,0.347368508577347,0.464531391859055,0.899999678134918,2012-01-12 19:05:17
1.01999998092651,42,-40.9142875671387,0.341496467590332,0.427935749292374,0.985714972019196,5.54523801803589,0.722789108753204,0.876465380191803,2.04523825645447,-13.3833332061768,0.395238161087036,0.4450344145298,0.716666758060455,2012-01-12 19:05:18
1.00599980354309,44,-41.722728729248,0.311156898736954,0.397070914506912,1.07727110385895,0.911363661289215,1.47954547405243,1.76522159576416,3.51136374473572,-11.0931816101074,0.801342964172363,0.893511354923248,1.60681784152985,2012-01-12 19:05:19
1,22,-41.8636360168457,0.244628489017487,0.322695404291153,0.736365258693695,-5.98181819915771,1.80413222312927,2.00672435760498,3.01818180084229,-6.09090900421143,3.15619826316833,3.30370450019836,5.29090929031372,2012-01-12 19:05:20
1.00100016593933,46,-32.9391326904297,7.69224977493286,8.54421997070312,14.0391311645508,-15.0695657730103,2.65652203559875,3.25147938728333,5.76956558227539,18.9869575500488,9.42173957824707,10.7330379486084,19.3869571685791,2012-01-12 19:05:21
1.00799989700317,49,-41.8734703063965,1.47680115699768,2.08598589897156,6.67346906661987,-10.3918371200562,3.90428996086121,4.80517721176147,11.0081624984741,1.0448979139328,2.20966267585754,2.82077288627625,8.15510177612305,2012-01-12 19:05:22
1.00100016593933,42,-40.8214302062988,1.74421763420105,2.30305552482605,5.92142772674561,-8.60476207733154,4.27324247360229,5.22448253631592,12.4952383041382,-6.54523801803589,4.42063522338867,5.88295364379883,14.3452386856079,2012-01-12 19:05:23
1.01799988746643,34,-40.2882347106934,1.31176435947418,1.61459589004517,3.3117663860321,-10.6382350921631,5.84636688232422,6.45855665206909,9.86176490783691,-7.5,5.92352962493896,6.63316106796265,10.6999998092651,2012-01-12 19:05:24
1.00799989700317,42,-40.75,1.67618989944458,1.7547550201416,2.64999866485596,-5.23571443557739,3.09353756904602,4.37383031845093,11.3642864227295,-11.8190479278564,3.70566916465759,4.73176908493042,10.0190477371216,2012-01-12 19:05:25
1.007000207901,40,-39.0974998474121,0.998000204563141,1.40951895713806,3.99749851226807,-3.6725001335144,3.19512510299683,4.02684688568115,9.82750034332275,-10.8699998855591,3.89450001716614,4.71233510971069,10.2700004577637,2012-01-12 19:05:26
1.0019998550415,44,-35.847728729248,1.138636469841,1.24872469902039,2.25227427482605,-3.41590905189514,2.55278921127319,3.59835457801819,10.0840911865234,-11.6022729873657,3.49328517913818,4.57783651351929,11.1022729873657,2012-01-12 19:05:27
1.01300001144409,44,-36.9318199157715,1.26260328292847,1.5157915353775,2.93181896209717,-11.2045459747314,3.01074385643005,3.62390756607056,7.69545412063599,-5.27272748947144,3.01363635063171,3.55037546157837,6.77272748947144,2012-01-12 19:05:28
1.0090000629425,43,-37.7558135986328,0.595565259456635,0.71602988243103,1.95581555366516,-11.2255811691284,1.01806390285492,1.13077318668365,2.67441892623901,3.91627907752991,7.15381288528442,7.93335437774658,14.0837211608887,2012-01-12 19:05:29
1.0019998550415,38,-28.5289478302002,6.81759023666382,7.56936025619507,12.6289472579956,-14.3842105865479,3.43490314483643,4.19307231903076,9.48421096801758,15.9473686218262,10.3191137313843,12.3337736129761,26.8473701477051,2012-01-12 19:05:30
