"diffSecs","N.samples","x.mean","x.absolute.deviation","x.standard.deviation","x.max.deviation","x.PSD.1","x.PSD.3","x.PSD.6","x.PSD.10","y.mean","y.absolute.deviation","y.standard.deviation","y.max.deviation","y.PSD.1","y.PSD.3","y.PSD.6","y.PSD.10","z.mean","z.absolute.deviation","z.standard.deviation","z.max.deviation","z.PSD.1","z.PSD.3","z.PSD.6","z.PSD.10","time"
1.01699995994568,43,9.79547500610352,0.265898734331131,0.357968986034393,1.0310662984848,8.2080659866333,15.4700565338135,15.9145851135254,9.93612384796143,-1.81947565078735,0.351108819246292,0.456988930702209,1.28923225402832,1.6271368265152,15.645188331604,11.957127571106,2.68592238426208,0.754427850246429,0.184411689639091,0.332104712724686,1.5291531085968,1.40820264816284,5.60149002075195,13.6168880462646,11.4862842559814,2012-01-25 10:00:19
1.00099992752075,41,9.59425258636475,0.493622750043869,0.648638427257538,1.65397500991821,1.11816382408142,11.9723558425903,56.7431678771973,41.6382484436035,-1.85034739971161,0.622503519058228,0.742437303066254,1.48750138282776,9.22874450683594,33.3235855102539,28.1903514862061,2.44013476371765,-0.201155915856361,0.374659538269043,0.485757619142532,1.31887483596802,0.685168385505676,9.66678333282471,18.990255355835,17.7866592407227,2012-01-25 10:00:20
1.01900005340576,45,9.61727237701416,0.188491061329842,0.241833969950676,0.555928289890289,1.56629991531372,4.08901453018188,3.05052900314331,3.36082363128662,-2.3381233215332,0.447909653186798,0.526212990283966,1.04517090320587,0.00518236355856061,36.1436538696289,38.8756332397461,11.5954113006592,0.75075352191925,0.336089611053467,0.424912363290787,1.09398627281189,7.34075212478638,6.35010099411011,11.5495223999023,4.38391065597534,2012-01-25 10:00:21
1.01900005340576,45,9.49349117279053,0.105679243803024,0.137236967682838,0.381805837154388,0.899572551250458,0.70013701915741,2.20376181602478,1.26863467693329,-2.16291117668152,0.373088538646698,0.440776169300079,0.867343723773956,11.735315322876,20.4959239959717,10.0152311325073,2.17753577232361,-0.187633901834488,0.215513840317726,0.246583893895149,0.55767148733139,2.69254350662231,8.77135276794434,3.46879577636719,0.247431233525276,2012-01-25 10:00:22
1.33299994468689,42,9.54000186920166,0.0776303932070732,0.117138400673866,0.384327471256256,0.83916437625885,0.966762542724609,0.857836723327637,0.207461297512054,-2.22821092605591,0.160475492477417,0.190945520997047,0.472820639610291,0.607768058776855,1.0355339050293,3.97262072563171,0.856173038482666,0.159474804997444,0.203171104192734,0.269290387630463,0.909449994564056,7.7345986366272,13.2165508270264,6.81952524185181,2.33754467964172,2012-01-25 10:00:23
1.04299998283386,45,9.53315353393555,0.350279003381729,0.443433314561844,0.950155675411224,16.7352046966553,13.2083129882812,15.1083860397339,8.1272144317627,-2.46931433677673,0.511514842510223,0.584710299968719,1.00812351703644,0.0123312920331955,21.5372676849365,18.6260833740234,7.16519594192505,0.105911813676357,0.56712943315506,0.661774396896362,1.19837260246277,59.984992980957,71.3942489624023,23.1831340789795,7.01306676864624,2012-01-25 10:00:24
1.01300001144409,50,9.79998111724854,0.419285327196121,0.717901468276978,3.15460300445557,11.4131240844727,17.9601078033447,16.0579833984375,5.63523292541504,-2.1286313533783,0.758697330951691,0.994545936584473,2.5393340587616,26.4609184265137,51.1350440979004,10.9589138031006,8.73006534576416,0.28458896279335,0.632505357265472,0.902737081050873,3.4129102230072,81.2925338745117,128.532241821289,15.9263820648193,4.41985273361206,2012-01-25 10:00:25
1.0090000629425,40,9.50239849090576,0.0786982327699661,0.0911934450268745,0.176764562726021,0.18351486325264,0.287750154733658,0.643775105476379,0.463137209415436,-2.41807460784912,0.129190370440483,0.171348407864571,0.466551393270493,0.748617351055145,1.35653877258301,2.33705806732178,1.78391098976135,0.377065688371658,0.247568875551224,0.297102242708206,0.583005309104919,3.22809720039368,3.30772709846497,2.69172406196594,0.367437988519669,2012-01-25 10:00:26
1.02300000190735,39,9.5039005279541,0.0216635670512915,0.0268500950187445,0.0673891678452492,0.00206995429471135,0.0232388600707054,0.0250983648002148,0.0151598108932376,-2.43330645561218,0.0436496287584305,0.0549468621611595,0.148357138037682,0.0172722991555929,0.0572196021676064,0.0564375258982182,0.0698399916291237,0.182303100824356,0.030096935108304,0.0403250269591808,0.113656550645828,0.0258256457746029,0.0380457118153572,0.011223035864532,0.0354456789791584,2012-01-25 10:00:27
1.00600004196167,50,9.46988964080811,0.0216373559087515,0.0272906459867954,0.0653121769428253,0.026666097342968,0.145594730973244,0.0982516631484032,0.0620001405477524,-2.52011275291443,0.0300161652266979,0.0389554724097252,0.0982626900076866,0.113258101046085,0.268541097640991,0.125315546989441,0.0739190876483917,0.200644060969353,0.0366454906761646,0.0447342358529568,0.113168738782406,0.117120817303658,0.308281451463699,0.227419450879097,0.0646145939826965,2012-01-25 10:00:28
1.00699996948242,36,9.4149284362793,0.0165562592446804,0.022403672337532,0.0681016147136688,0.00333442911505699,0.00385064561851323,0.000758396345190704,0.00291356258094311,-2.7213454246521,0.0544814243912697,0.06878262758255,0.191229715943336,0.10965858399868,0.150712817907333,0.0539357401430607,0.0705484747886658,0.287116914987564,0.0268472172319889,0.0337036848068237,0.0811772644519806,0.0320053771138191,0.041809868067503,0.0107118356972933,0.00773730454966426,2012-01-25 10:00:29
1.00099992752075,30,9.44216918945312,0.0359576530754566,0.0445155836641788,0.0997007712721825,0.0232015773653984,0.0525447316467762,0.092791847884655,0.0604392401874065,-2.64485335350037,0.0345193967223167,0.0456580109894276,0.091201938688755,0.0402307920157909,0.0638039633631706,0.0393568016588688,0.0217692460864782,0.334733635187149,0.0760124251246452,0.0833558812737465,0.126178875565529,0.19079701602459,0.3152676820755,0.174798905849457,0.013581994920969,2012-01-25 10:00:30
1.16799998283386,37,9.45864582061768,0.0152436196804047,0.0202164575457573,0.0538039579987526,0.00163109600543976,0.00126752664800733,0.00124746770597994,0.00484037213027477,-2.61413478851318,0.0332810021936893,0.0424435660243034,0.0826938301324844,0.0216967798769474,0.0558562017977238,0.0667631253600121,0.0378342904150486,0.418505400419235,0.0343698374927044,0.0427798740565777,0.0914404019713402,4.68412945338059e-05,0.000335683580487967,0.0288745127618313,0.0394987910985947,2012-01-25 10:00:31
1.29900002479553,50,9.45870971679688,0.0278665274381638,0.0317613817751408,0.0635469853878021,9.96459675661754e-06,0.00891107879579067,0.193587705492973,0.0302758365869522,-2.6095495223999,0.0583299398422241,0.066663570702076,0.128467038273811,1.04355525970459,1.38081705570221,0.16649617254734,0.00910331308841705,0.36010017991066,0.0300946440547705,0.0387847721576691,0.100812345743179,0.00246760994195938,0.0951086580753326,0.0696048438549042,0.0598818957805634,2012-01-25 10:00:32
1.00099992752075,47,9.54917335510254,0.0396971069276333,0.0492815859615803,0.0955625101923943,0.103732377290726,0.193498283624649,0.210734248161316,0.0192129872739315,-2.33189606666565,0.0789149031043053,0.0961050763726234,0.198219493031502,1.73025131225586,2.05571484565735,0.444764792919159,0.190857753157616,0.474057614803314,0.0284477192908525,0.0358055792748928,0.0849214121699333,0.0339799299836159,0.182402744889259,0.197532460093498,0.122639201581478,2012-01-25 10:00:33
1.01100015640259,26,9.55620288848877,0.0173501968383789,0.0198440179228783,0.0347003936767578,0.00120107654947788,0.0022674398496747,0.00238985358737409,0.00202967738732696,-2.21403980255127,0.0259963031858206,0.0305677633732557,0.0663835853338242,0.00502369366586208,0.0104977367445827,0.0193041246384382,0.0157197527587414,0.459403812885284,0.0175823345780373,0.0220448039472103,0.0573311820626259,0.000551498727872968,0.00181465083733201,0.00455961935222149,0.0015176743036136,2012-01-25 10:00:34
1.00600004196167,42,9.57619285583496,0.028719425201416,0.0386532060801983,0.102969646453857,0.0804187059402466,0.102846145629883,0.0119528928771615,0.0320190899074078,-2.10492730140686,0.0308542288839817,0.0370546020567417,0.081955648958683,0.107717253267765,0.116346709430218,0.0120674790814519,0.00979258213192225,0.466516345739365,0.026417912915349,0.0325350314378738,0.072849377989769,0.00372885982505977,0.0368319898843765,0.0265538934618235,0.00471764802932739,2012-01-25 10:00:35
1,45,9.630784034729,0.026964608579874,0.0375792980194092,0.0987201035022736,0.0279701370745897,0.144322842359543,0.114171974360943,0.135891139507294,-2.04784631729126,0.0650871023535728,0.0857990309596062,0.272842824459076,0.806101977825165,1.78974568843842,0.809677720069885,0.308256655931473,0.508202373981476,0.029085798189044,0.0339264646172523,0.0703899785876274,0.0713775679469109,0.0970583334565163,0.137782126665115,0.128712445497513,2012-01-25 10:00:36
1.01599979400635,34,9.71406364440918,0.0504076741635799,0.0593279823660851,0.102393485605717,0.00664949044585228,0.0376261658966541,0.0496729537844658,0.0746893957257271,-1.6705915927887,0.0478795170783997,0.0623357743024826,0.150560885667801,0.000100722209026571,0.00440244842320681,0.0229889079928398,0.00906342826783657,0.533597111701965,0.0281644314527512,0.0370855331420898,0.0922978892922401,0.0164050403982401,0.0426528826355934,0.0832676738500595,0.0346900187432766,2012-01-25 10:00:37
1.00400018692017,44,9.6838436126709,0.0245267134159803,0.0276970230042934,0.0537136048078537,0.00662239082157612,0.0198930930346251,0.0348344631493092,0.0663293525576591,-1.75338435173035,0.0346373319625854,0.0422100275754929,0.109879083931446,0.141303792595863,0.115990243852139,0.0872602388262749,0.0393807999789715,0.532456517219543,0.0182152446359396,0.0244344286620617,0.0657491236925125,0.0239256583154202,0.0239874646067619,0.000926938315387815,0.0338816940784454,2012-01-25 10:00:38
1.31099987030029,44,9.68562602996826,0.0315878950059414,0.0393901839852333,0.0849165245890617,0.0138659998774529,0.0368057861924171,0.0939154475927353,0.0386819317936897,-1.7874847650528,0.0358226411044598,0.0428668856620789,0.0909344181418419,0.0427728965878487,0.0956643596291542,0.106530293822289,0.0342875197529793,0.632974684238434,0.0629732832312584,0.0758022516965866,0.15155728161335,0.0919634029269218,0.406587660312653,0.718301355838776,0.0765331089496613,2012-01-25 10:00:40
1.00500011444092,49,9.71218490600586,0.0215819869190454,0.0271433349698782,0.062442272901535,0.014633228071034,0.0263499449938536,0.00729091372340918,0.034318283200264,-1.75959312915802,0.0215574707835913,0.0263587180525064,0.0630427822470665,0.0396951101720333,0.0554872266948223,0.0165235660970211,0.018445635214448,0.585396945476532,0.047248363494873,0.0581420920789242,0.120681822299957,0.561642169952393,0.584611296653748,0.0319246239960194,0.0866699740290642,2012-01-25 10:00:41
1.1159999370575,39,9.70355415344238,0.0268086660653353,0.0327795594930649,0.0832306519150734,0.00125617778394371,0.00352273555472493,0.103510871529579,0.0508246906101704,-1.76217949390411,0.0296327136456966,0.0363659895956516,0.0912773311138153,0.0338718444108963,0.110255844891071,0.134890049695969,0.0397551953792572,0.612789869308472,0.0504323616623878,0.0653854012489319,0.161683991551399,0.233369201421738,0.41697496175766,0.115960545837879,0.138846144080162,2012-01-25 10:00:42
1.00200009346008,45,9.68679046630859,0.0301705300807953,0.0375502221286297,0.0762738138437271,0.0367713049054146,0.0669167637825012,0.0300847683101892,0.174958691000938,-1.81444811820984,0.0194486379623413,0.0256967414170504,0.0688644796609879,0.00215768814086914,0.00436837552115321,0.0343628376722336,0.0389036163687706,0.668377637863159,0.0365630649030209,0.0449613779783249,0.0965410247445107,0.116383127868176,0.18607597053051,0.0689575374126434,0.146421670913696,2012-01-25 10:00:43
1.01699995994568,45,9.65170478820801,0.0560503788292408,0.0747309029102325,0.247127175331116,0.109187357127666,0.329746037721634,0.263271003961563,0.312797218561172,-2.16400074958801,0.366550773382187,0.418754041194916,0.787800788879395,27.6483421325684,47.7552833557129,12.1163415908813,3.11915731430054,0.714795827865601,0.20814311504364,0.328292369842529,1.17570829391479,10.4922399520874,21.4839973449707,13.3478345870972,8.32677936553955,2012-01-25 10:00:44
1.00399994850159,38,9.5059986114502,0.362397789955139,0.438158422708511,0.876147210597992,0.0333290696144104,3.35940051078796,12.3659467697144,3.22272157669067,-2.0844292640686,0.259360074996948,0.292280912399292,0.584011733531952,2.28451681137085,2.83067584037781,2.32797789573669,1.91083645820618,-0.12542188167572,0.554442465305328,0.637174725532532,0.988407075405121,30.8238983154297,47.5308303833008,19.0470962524414,7.07069158554077,2012-01-25 10:00:45
1.08800005912781,43,9.63172626495361,0.16068272292614,0.218475535511971,0.570382297039032,2.48613595962524,8.17724800109863,5.89935255050659,3.49597501754761,-1.90887582302094,0.277291119098663,0.364533364772797,1.05273234844208,9.45284271240234,28.1402645111084,12.5856332778931,6.14330959320068,0.910193920135498,0.300712496042252,0.39686444401741,1.01806712150574,0.00563431670889258,8.70957946777344,34.320484161377,7.77066946029663,2012-01-25 10:00:46
1,50,9.33200836181641,0.0609580501914024,0.0767177492380142,0.180442065000534,0.0604080520570278,0.138160467147827,0.588386714458466,0.168375268578529,-2.79058027267456,0.11358454823494,0.157885983586311,0.535050868988037,0.297853201627731,0.277732968330383,1.51258277893066,0.269792377948761,-0.593302309513092,0.274782329797745,0.347898423671722,0.956148326396942,17.6395149230957,11.6325845718384,4.51245880126953,1.47340631484985,2012-01-25 10:00:47
1.01300001144409,44,9.37783145904541,0.12140778452158,0.148303613066673,0.34055769443512,0.0250830445438623,0.67629736661911,3.77423191070557,1.46143805980682,-2.5457170009613,0.222189486026764,0.275105625391006,0.702067017555237,1.18760824203491,5.14980268478394,8.82186317443848,2.51861786842346,-0.847160816192627,0.107305817306042,0.136802136898041,0.297988414764404,0.929336130619049,2.28376936912537,3.29176664352417,0.71492063999176,2012-01-25 10:00:48
1.28499984741211,35,9.39336967468262,0.0377855561673641,0.047243308275938,0.128887176513672,9.45364008657634e-05,0.00419910345226526,0.0394472666084766,0.0313184000551701,-2.42168211936951,0.0817034021019936,0.0971641317009926,0.206500053405762,0.383561074733734,0.542842149734497,0.160790354013443,0.137941226363182,-1.06444180011749,0.0657886192202568,0.0878805592656136,0.230036035180092,0.000722722325008363,0.0829004943370819,0.115125358104706,0.0197241418063641,2012-01-25 10:00:49
1.01600003242493,44,9.3965539932251,0.0346474014222622,0.040394451469183,0.0962833091616631,0.00206495332531631,0.027598412707448,0.0865996703505516,0.0881833508610725,-2.42759156227112,0.126959636807442,0.144377037882805,0.279935359954834,2.15297675132751,3.92743992805481,0.736863017082214,0.0701590329408646,-1.11327767372131,0.110750310122967,0.127939775586128,0.250292420387268,2.46314907073975,3.99469900131226,1.0899715423584,0.475338131189346,2012-01-25 10:00:50
1.01399993896484,44,9.3321418762207,0.0265224855393171,0.0311670824885368,0.0724353566765785,0.000235221377806738,0.0493200719356537,0.0687726363539696,0.0222669709473848,-2.63754296302795,0.0264212042093277,0.036749929189682,0.107427425682545,0.0942054241895676,0.101555310189724,0.0492844395339489,0.0320704728364944,-0.960605919361115,0.0636824294924736,0.0740077048540115,0.167158797383308,0.032083235681057,0.214107185602188,0.0979743599891663,0.150593191385269,2012-01-25 10:00:51
1.09200000762939,38,9.33515644073486,0.0302756018936634,0.0361637882888317,0.0678722262382507,0.00836556497961283,0.0338109135627747,0.063188225030899,0.00700030475854874,-2.65140843391418,0.032842755317688,0.0441110655665398,0.101679541170597,0.0290090385824442,0.021596260368824,0.031638789921999,0.0169137138873339,-0.980664968490601,0.0314844995737076,0.0396756492555141,0.0784531831741333,0.0562747493386269,0.0944215804338455,0.0867912396788597,0.0189968589693308,2012-01-25 10:00:52
1.01800012588501,48,9.29404830932617,0.0453727692365646,0.0553569383919239,0.124831162393093,0.0139353461563587,0.228949308395386,0.704063653945923,0.173576653003693,-2.73135614395142,0.0509401187300682,0.0693143010139465,0.200832009315491,0.442048400640488,1.03164911270142,0.763772130012512,0.429746747016907,-0.995170652866364,0.0430913753807545,0.0573915876448154,0.201240614056587,0.00527065526694059,0.389990419149399,0.560877919197083,0.288991570472717,2012-01-25 10:00:53
1.00600004196167,24,9.355544090271,0.111959233880043,0.139493644237518,0.274586528539658,0.0471956059336662,0.0975425541400909,0.159675553441048,0.0841334909200668,-2.58732104301453,0.287934124469757,0.327063977718353,0.560613572597504,0.727713346481323,1.37001848220825,1.84081447124481,0.410126090049744,-1.18783044815063,0.190718919038773,0.219945922493935,0.469493389129639,0.360712856054306,0.632797598838806,0.588279962539673,0.0754037722945213,2012-01-25 10:00:54
1.01900005340576,47,9.37098407745361,0.0405139587819576,0.0543472766876221,0.161079168319702,0.00555158732458949,0.140216574072838,0.385759979486465,0.519112765789032,-2.63193798065186,0.070382334291935,0.0938781499862671,0.278341919183731,0.701740980148315,0.552704989910126,0.110843107104301,0.19625648856163,-1.04889416694641,0.0824220255017281,0.109295077621937,0.275003492832184,0.918617725372314,3.35137224197388,2.44778394699097,0.664984822273254,2012-01-25 10:00:56
1.01199984550476,46,9.10931205749512,0.42231622338295,0.569109857082367,1.52877140045166,12.9684972763062,68.1339645385742,85.7556228637695,22.9718227386475,-2.5716872215271,0.252933710813522,0.335371613502502,0.904556810855865,12.0547647476196,11.9110164642334,15.1963634490967,7.26039171218872,-1.27379858493805,0.235526442527771,0.317121267318726,1.01882565021515,0.719679415225983,3.04686570167542,8.59262561798096,9.87898349761963,2012-01-25 10:00:57
