"diffSecs","latitude","longitude","altitude","time"
154.184000015259,42.3740079451932,-70.9934386549661,0,2012-02-07 17:41:55
1.58599996566772,42.3740360210614,-70.9934408334919,0,2012-02-07 17:41:56
1.00200009346008,42.3740480866536,-70.9934503208593,0,2012-02-07 17:41:57
1.00699996948242,42.3740574512681,-70.9934722858167,11.8497524261475,2012-02-07 17:41:58
1.00600004196167,42.3740831783329,-70.9934732855754,14.6849164962769,2012-02-07 17:41:59
1.00699996948242,42.3740970061962,-70.9934733810249,16.1397438049316,2012-02-07 17:42:00
1.00600004196167,42.3740851268225,-70.9934641746749,15.6119117736816,2012-02-07 17:42:01
1.00399994850159,42.3740879338229,-70.9934561557322,16.0291404724121,2012-02-07 17:42:02
1.00699996948242,42.374110117033,-70.993454962283,16.3858318328857,2012-02-07 17:42:03
1.00500011444092,42.3741269195885,-70.9934569682898,16.6114902496338,2012-02-07 17:42:04
1.00699996948242,42.3741391916424,-70.9934612859543,17.7698020935059,2012-02-07 17:42:05
1.00399994850159,42.3741421751485,-70.9934756197082,17.9268474578857,2012-02-07 17:42:06
1.00499987602234,42.3741439040188,-70.9934775823498,18.1413860321045,2012-02-07 17:42:07
1.007000207901,42.3741459223661,-70.9934778796089,18.0245227813721,2012-02-07 17:42:08
1.00599980354309,42.3741562166306,-70.993483603243,19.5193138122559,2012-02-07 17:42:09
