"diffSecs","N.samples","x.mean","x.absolute.deviation","x.standard.deviation","x.max.deviation","x.PSD.1","x.PSD.3","x.PSD.6","x.PSD.10","y.mean","y.absolute.deviation","y.standard.deviation","y.max.deviation","y.PSD.1","y.PSD.3","y.PSD.6","y.PSD.10","z.mean","z.absolute.deviation","z.standard.deviation","z.max.deviation","z.PSD.1","z.PSD.3","z.PSD.6","z.PSD.10","time"
1.11299991607666,34,-2.70375108718872,0.0281983874738216,0.0344285704195499,0.0853754878044128,0.00793167762458324,0.00770638044923544,0.0235580839216709,0.0208542160689831,5.7510232925415,0.0340688675642014,0.0395992621779442,0.072973221540451,2.7642585337162e-05,0.00923548452556133,0.0557561255991459,0.0464704968035221,7.39392566680908,0.0343404188752174,0.0435646362602711,0.0977781489491463,0.00532596977427602,0.0243225432932377,0.0944005772471428,0.0509329363703728,2012-01-17 17:48:01
3.3840000629425,16,-2.69315123558044,0.0330974608659744,0.0361776314675808,0.062517449259758,0.00113910820800811,0.00231457338668406,0.00469046737998724,0.00208325823768973,5.77121353149414,0.0324845388531685,0.0430265441536903,0.102970063686371,0.000186428413144313,0.000475262728286907,0.000985701684840024,0.00113403692375869,7.36540651321411,0.0118752606213093,0.0144913094118237,0.0288074314594269,7.68224981584353e-06,1.80091483343858e-05,0.000200488662812859,0.000407553743571043,2012-01-17 17:48:04
0.307999849319458,99,-2.78924894332886,0.0658999904990196,0.0724281668663025,0.123326070606709,0.00513196736574173,1.30807852745056,0.752021729946136,0.0515649504959583,5.77413558959961,0.0307296942919493,0.038374874740839,0.100047506392002,0.00200503133237362,0.493088245391846,0.371712654829025,0.272426784038544,7.34993553161621,0.0351022370159626,0.0445459894835949,0.142345175147057,0.00597857544198632,0.706428468227386,0.256303369998932,0.204532623291016,2012-01-17 17:48:04
1.07500004768372,97,-2.91146278381348,0.0710385218262672,0.0856763049960136,0.165600895881653,1.33885610103607,4.62685489654541,0.397035956382751,0.0847455114126205,5.75630140304565,0.0537745654582977,0.0689273551106453,0.196335017681122,0.174543857574463,0.648599803447723,0.183026343584061,0.256566673517227,7.26652526855469,0.0547812506556511,0.0640666857361794,0.137495517730713,0.416669011116028,1.14155888557434,0.264338403940201,0.233892068266869,2012-01-17 17:48:05
1.0090000629425,47,-2.82452368736267,0.0223390739411116,0.0276257172226906,0.0782446339726448,0.0373518615961075,0.0433011054992676,0.0598809942603111,0.0274273827672005,5.80094623565674,0.0328959487378597,0.0405525863170624,0.112463302910328,0.052827499806881,0.211797162890434,0.0712090879678726,0.0335672274231911,7.29009628295898,0.0569309033453465,0.0689158365130424,0.131242007017136,0.202738776803017,0.741678595542908,0.389947593212128,0.146825149655342,2012-01-17 17:48:06
1.01900005340576,42,-2.77901768684387,0.0334448739886284,0.0411051288247108,0.0919957682490349,0.138063594698906,0.267730057239532,0.143636181950569,0.0609061121940613,5.71540880203247,0.0368028953671455,0.0423825681209564,0.0961986184120178,2.03301133296918e-05,0.0234644133597612,0.1622294485569,0.0433550886809826,7.38557481765747,0.0509457960724831,0.0642068907618523,0.165545597672462,0.439648002386093,0.667640149593353,0.368521422147751,0.258375525474548,2012-01-17 17:48:07
1.00499987602234,36,-2.78808498382568,0.0211871769279242,0.0272338576614857,0.0912564024329185,0.00120299018453807,0.0069348462857306,0.0317870080471039,0.0130965569987893,5.73498344421387,0.0232454929500818,0.0314238779246807,0.0863532200455666,0.0228647440671921,0.0254969783127308,0.00361406453885138,0.00173964479472488,7.35444259643555,0.0273617673665285,0.0353542305529118,0.0779083147644997,0.00114488496910781,0.00783857889473438,0.0195227824151516,0.0071312147192657,2012-01-17 17:48:08
1.01699995994568,49,-2.78769040107727,0.0249638333916664,0.0324811972677708,0.0758515298366547,0.00924084056168795,0.0124279325827956,0.0224506203085184,0.0582424439489841,5.68725633621216,0.0362613797187805,0.0425579957664013,0.0888604521751404,0.0748418048024178,0.085031621158123,0.40968519449234,0.129408791661263,7.36459350585938,0.0270959381014109,0.0383405350148678,0.127286195755005,5.77777536818758e-05,0.0347365029156208,0.206003740429878,0.0688927918672562,2012-01-17 17:48:09
1.00800013542175,45,-2.77397441864014,0.0314684137701988,0.0361414588987827,0.0771457329392433,0.000604272820055485,0.0220671277493238,0.128598436713219,0.0916062295436859,5.71575117111206,0.0346163995563984,0.0404580570757389,0.109398722648621,0.0431509502232075,0.105446621775627,0.0692463219165802,0.102750569581985,7.35890960693359,0.0200491547584534,0.0261019989848137,0.0823757573962212,0.0324473008513451,0.0366780757904053,0.00358090922236443,0.00465210294350982,2012-01-17 17:48:10
1.06900000572205,23,-2.76163792610168,0.0205401815474033,0.0248324982821941,0.055002648383379,0.000514343904796988,0.000917046680115163,0.000755554996430874,0.00160098145715892,5.71002817153931,0.0303655210882425,0.0393562577664852,0.0857017114758492,0.000130340791656636,0.000276926090009511,0.00172790954820812,0.000876889971550554,7.39805126190186,0.0272141043096781,0.03229795768857,0.0746158957481384,0.000191124141565524,0.00101269921287894,0.00495285028591752,0.00318950996734202,2012-01-17 17:48:12
1.01300001144409,53,-2.76492023468018,0.0254854094237089,0.0310940369963646,0.0778981819748878,0.0322290584445,0.106317184865475,0.11643410474062,0.00915498565882444,5.65936183929443,0.033103059977293,0.0430322960019112,0.128411382436752,0.179409861564636,0.345355540513992,0.384220898151398,0.22172985970974,7.44213724136353,0.0392475426197052,0.0486677810549736,0.108983211219311,0.0890745297074318,0.358201414346695,0.159648612141609,0.0856279730796814,2012-01-17 17:48:13
1.00499987602234,46,-2.77187085151672,0.0223383791744709,0.0287890527397394,0.0652356520295143,0.022155137732625,0.0119354547932744,0.0805523321032524,0.0357978194952011,5.645432472229,0.0293457470834255,0.0359478928148746,0.0752552524209023,0.0196738336235285,0.0136325266212225,0.0256542321294546,0.0536407269537449,7.41595935821533,0.0263426788151264,0.0331561379134655,0.0903919562697411,0.00182939821388572,0.0221127737313509,0.0459922775626183,0.0495368950068951,2012-01-17 17:48:14
1.00999999046326,41,-2.75327682495117,0.0305342115461826,0.0407390370965004,0.115287929773331,0.0296570230275393,0.131727263331413,0.107013583183289,0.0820182487368584,5.65532732009888,0.0422367975115776,0.0505843721330166,0.0851503014564514,0.0792674049735069,0.0957908779382706,0.0766335874795914,0.0419040806591511,7.42722177505493,0.0381998941302299,0.0480307415127754,0.121267773211002,0.133105576038361,0.32804337143898,0.334869772195816,0.0993544608354568,2012-01-17 17:48:15
1.01100015640259,43,-2.71826648712158,0.0203134790062904,0.0253138653934002,0.0606644190847874,0.000769657373894006,0.0238220803439617,0.0208917614072561,0.0140522569417953,5.66527843475342,0.0279401727020741,0.037089291960001,0.101031579077244,0.0144724929705262,0.0425371043384075,0.10982396453619,0.0728539675474167,7.41565179824829,0.0229335054755211,0.0272703841328621,0.0570154078304768,0.0615382716059685,0.0962515249848366,0.0257171653211117,0.0117306336760521,2012-01-17 17:48:16
1.00099992752075,39,-2.74913096427917,0.0212896410375834,0.0261196177452803,0.0653775855898857,0.0017088504973799,0.0106952041387558,0.0586804710328579,0.0326963998377323,5.66623163223267,0.0305353347212076,0.0369061566889286,0.0862481072545052,0.000816651561763138,0.0239634364843369,0.0416305214166641,0.0334413982927799,7.42313098907471,0.0186461415141821,0.0229662675410509,0.0789559707045555,0.00892180483788252,0.00503072189167142,0.0302413795143366,0.0245834495872259,2012-01-17 17:48:17
1.00300002098083,46,-2.72944641113281,0.0363068841397762,0.0418093502521515,0.0718443840742111,0.0524099320173264,0.18317337334156,0.262214332818985,0.0421599447727203,5.63882350921631,0.0362419188022614,0.0399657487869263,0.0882601663470268,0.00472207833081484,0.11036255210638,0.144893914461136,0.0477184243500233,7.43727827072144,0.0322191640734673,0.0408186465501785,0.123648874461651,0.00810183212161064,0.0333387181162834,0.0341792665421963,0.1279656291008,2012-01-17 17:48:18
1.01799988746643,32,-2.72716808319092,0.0253785736858845,0.0314310193061829,0.0695659667253494,0.00612356653437018,0.0158975329250097,0.0304962024092674,0.028644485399127,5.64188814163208,0.0218733884394169,0.0254119429737329,0.0422911047935486,0.0100837089121342,0.0178095512092113,0.0146256322041154,0.0042055225931108,7.46929597854614,0.0442256182432175,0.0510515905916691,0.101437360048294,0.00265685888007283,0.00827726535499096,0.0371899604797363,0.082800604403019,2012-01-17 17:48:19
1.01900005340576,50,-2.75645303726196,0.0342212654650211,0.0389233715832233,0.0776685774326324,0.0365076251327991,0.102271035313606,0.209968253970146,0.0655586123466492,5.63470458984375,0.0399169288575649,0.0491933561861515,0.123367451131344,0.112603522837162,0.241068765521049,0.142273798584938,0.253003716468811,7.45599603652954,0.0199663043022156,0.0257412437349558,0.0519751533865929,0.000910327478777617,0.0197035670280457,0.0312475524842739,0.0345555767416954,2012-01-17 17:48:20
1.01800012588501,27,-2.73423933982849,0.0178645849227905,0.0206806734204292,0.037410631775856,9.48326924117282e-05,0.000360955076757818,0.00136067147832364,0.00246182782575488,5.63192272186279,0.0421591512858868,0.051741685718298,0.114774368703365,0.0199076421558857,0.0290467943996191,0.0138079561293125,0.0253089163452387,7.42399740219116,0.0114074414595962,0.0147357098758221,0.0388633236289024,0.00064731843303889,0.00110870262142271,0.000852958997711539,0.000103862068499438,2012-01-17 17:48:21
1.01399993896484,42,-2.75356721878052,0.0293865986168385,0.0353930629789829,0.0805545374751091,0.00629456341266632,0.0441836528480053,0.0398333705961704,0.0652167126536369,5.63298606872559,0.0478657409548759,0.0597688034176826,0.160875514149666,0.177443936467171,0.269276708364487,0.058572594076395,0.067622572183609,7.47173309326172,0.0343788079917431,0.0442106947302818,0.128420189023018,4.89657395519316e-06,0.0598865747451782,0.114456653594971,0.0651998519897461,2012-01-17 17:48:22
1.00600004196167,47,-2.7201976776123,0.0280038435012102,0.0353035777807236,0.0822088867425919,0.0369080118834972,0.0461692735552788,0.176085397601128,0.127504602074623,5.63965797424316,0.0343787334859371,0.0422323122620583,0.0874255448579788,0.104768432676792,0.332256406545639,0.370337754487991,0.0561704747378826,7.44700288772583,0.024469967931509,0.0320849157869816,0.0943105965852737,0.0378770418465137,0.0723353326320648,0.0237698312848806,0.0400665104389191,2012-01-17 17:48:23
1.00999999046326,44,-2.73872995376587,0.0258539207279682,0.0315261036157608,0.061514500528574,0.10211618989706,0.130569115281105,0.0292625185102224,0.038603663444519,5.63503456115723,0.0346170105040073,0.043617520481348,0.113890670239925,0.00127351167611778,0.0353475399315357,0.0804808735847473,0.0111546944826841,7.44681310653687,0.0395507588982582,0.0469422303140163,0.101632811129093,0.0478290915489197,0.319525420665741,0.308665722608566,0.101005174219608,2012-01-17 17:48:24
1.01999998092651,43,-2.72556447982788,0.026370357722044,0.0333999693393707,0.0875756591558456,5.14871753694024e-05,0.0293143261224031,0.074704647064209,0.0378401353955269,5.65159511566162,0.0365534424781799,0.0430087447166443,0.0814178586006165,0.00592938484624028,0.0649582967162132,0.0489574298262596,0.1228017359972,7.45693111419678,0.042822502553463,0.0493351332843304,0.0941893234848976,0.0199107807129622,0.0801062136888504,0.237155005335808,0.0587022192776203,2012-01-17 17:48:25
1.00999999046326,49,-2.72364687919617,0.0294976178556681,0.0372123569250107,0.0856580808758736,0.105685584247112,0.198155984282494,0.0736707746982574,0.0847521424293518,5.65123176574707,0.0349706225097179,0.0415010079741478,0.0908614844083786,0.0403823181986809,0.223854035139084,0.188518419861794,0.119159035384655,7.44384765625,0.0266792867332697,0.0325797162950039,0.0778526738286018,0.0156260561197996,0.00952532794326544,0.0406097322702408,0.0142430411651731,2012-01-17 17:48:26
1.01900005340576,46,-2.71217823028564,0.0132177080959082,0.0155262416228652,0.0349628515541553,0.00469799106940627,0.0124230589717627,0.00565096968784928,0.0065234168432653,5.61857080459595,0.0422482341527939,0.0551117956638336,0.136653304100037,0.263932824134827,0.602558255195618,0.599069178104401,0.251910507678986,7.47479915618896,0.0315147116780281,0.0389544926583767,0.0903920382261276,0.00217157695442438,0.0651346445083618,0.0773960947990417,0.0724596902728081,2012-01-17 17:48:27
1.00299978256226,42,-2.71644186973572,0.0298870000988245,0.0357448607683182,0.068646565079689,0.0120988776907325,0.00711276847869158,0.0580832362174988,0.028177784755826,5.63835668563843,0.0489220507442951,0.0611659176647663,0.16718016564846,0.201548710465431,0.229027956724167,0.16891522705555,0.050109013915062,7.45025205612183,0.0390264727175236,0.0456116572022438,0.0910616591572762,0.151327237486839,0.294544160366058,0.110954508185387,0.0723982527852058,2012-01-17 17:48:28
1.00800013542175,49,-2.71263933181763,0.023893803358078,0.0295741148293018,0.0822557806968689,0.038569238036871,0.0844870433211327,0.0943580940365791,0.0382550805807114,5.60099792480469,0.0317357517778873,0.0372241027653217,0.0700473785400391,0.0549886859953403,0.213194116950035,0.0887412205338478,0.0209899675101042,7.46306085586548,0.0342272408306599,0.0410594865679741,0.0786536633968353,0.00104430585633963,0.164893835783005,0.142783522605896,0.0427935607731342,2012-01-17 17:48:29
1.02999997138977,46,-2.69789457321167,0.0222828201949596,0.0277546308934689,0.0675806775689125,0.0288530364632607,0.037887204438448,0.0188690479844809,0.00897110439836979,5.5851001739502,0.0260088965296745,0.0333337187767029,0.0929498225450516,0.0487065277993679,0.0985132455825806,0.0341765880584717,0.0559784211218357,7.48929595947266,0.0276402588933706,0.0343305319547653,0.114695437252522,0.00466652354225516,0.0456152111291885,0.0787667781114578,0.0331058502197266,2012-01-17 17:48:30
1.00999999046326,39,-2.66615152359009,0.0285752825438976,0.0345598161220551,0.0673891752958298,0.0311437603086233,0.0728994011878967,0.062216505408287,0.00530262803658843,5.58149242401123,0.0262670759111643,0.0329795554280281,0.0671377182006836,0.0656243413686752,0.102558866143227,0.0604377128183842,0.0332526117563248,7.51792860031128,0.0304837357252836,0.0409257151186466,0.113907814025879,0.00812398735433817,0.0415976718068123,0.0333696864545345,0.0342953465878963,2012-01-17 17:48:31
1.00999999046326,42,-2.71083807945251,0.0392933487892151,0.0467939861118793,0.123283542692661,0.113100804388523,0.239528149366379,0.214391723275185,0.0531522668898106,5.57554721832275,0.0451527610421181,0.0506503842771053,0.0838233605027199,0.209959626197815,0.47048556804657,0.240526631474495,0.035314779728651,7.50628995895386,0.0261510219424963,0.0324645228683949,0.0840568542480469,0.00538818305358291,0.0203066989779472,0.00733358692377806,0.106968268752098,2012-01-17 17:48:32
1.01500010490417,47,-2.71498131752014,0.0366073995828629,0.0454143397510052,0.106412522494793,0.125411614775658,0.196584120392799,0.181880384683609,0.0801612436771393,5.54993772506714,0.0381965897977352,0.0453883521258831,0.10724700987339,0.00729565648362041,0.0565808713436127,0.0976752191781998,0.108252316713333,7.53234148025513,0.0457879900932312,0.0588686987757683,0.156071975827217,0.292322486639023,0.26130211353302,0.0235992390662432,0.0612083300948143,2012-01-17 17:48:33
1.00899982452393,46,-2.69618916511536,0.0292623769491911,0.0338727682828903,0.0680069252848625,0.0562041662633419,0.145477414131165,0.118619754910469,0.0339444577693939,5.57635974884033,0.0328216329216957,0.0421233177185059,0.104248769581318,0.1017936617136,0.134542688727379,0.0291654970496893,0.0548881441354752,7.53768968582153,0.05148945748806,0.0595236644148827,0.121303789317608,0.192210733890533,0.179350480437279,0.278974980115891,0.187029227614403,2012-01-17 17:48:34
1.00600004196167,64,-2.69453024864197,0.0280025713145733,0.0359794311225414,0.105574578046799,0.00105310324579477,0.399534046649933,0.521810293197632,0.0526942983269691,5.56527376174927,0.0335570722818375,0.0426757596433163,0.112776279449463,0.0362648889422417,0.658946692943573,0.337796360254288,0.181125655770302,7.53395843505859,0.0281174555420876,0.0353157930076122,0.0858080387115479,0.00416679540649056,0.378289371728897,0.0292843747884035,0.113564424216747,2012-01-17 17:48:35
1.00699996948242,46,-2.70130562782288,0.0488942302763462,0.0616747699677944,0.161383390426636,0.516919076442719,0.659842967987061,0.192397773265839,0.024981303140521,5.54075717926025,0.0238770190626383,0.0333500765264034,0.0980663299560547,0.000968976935837418,0.0998749434947968,0.0455700680613518,0.0461312159895897,7.54621696472168,0.0353891551494598,0.044271744787693,0.102969646453857,0.0999205335974693,0.174412488937378,0.0684830918908119,0.109639078378677,2012-01-17 17:48:36
1.17700004577637,37,-2.69338321685791,0.0308884717524052,0.0377556271851063,0.0750075578689575,0.0175714436918497,0.0684446841478348,0.15702261030674,0.0267881136387587,5.56487607955933,0.0295846555382013,0.036379661411047,0.0731521844863892,0.0236346554011106,0.0236392430961132,0.0118559300899506,0.00395796447992325,7.53442239761353,0.0330517217516899,0.0432517603039742,0.100981816649437,0.0361440852284431,0.120566613972187,0.128660768270493,0.12505154311657,2012-01-17 17:48:37
1.00800013542175,53,-2.6683337688446,0.0224411189556122,0.0322315469384193,0.0891851037740707,0.0474864654242992,0.0729679614305496,0.171182960271835,0.0703043714165688,5.56166553497314,0.0221897326409817,0.0287042371928692,0.0771578475832939,0.0190170127898455,0.0748368874192238,0.112735375761986,0.0490369237959385,7.54334878921509,0.0402808710932732,0.0536576844751835,0.145064622163773,0.2226233035326,0.489476054906845,0.332612842321396,0.234641820192337,2012-01-17 17:48:38
1.00099992752075,48,-2.68171000480652,0.0347659327089787,0.0428378917276859,0.112367957830429,0.135579407215118,0.33820453286171,0.166859552264214,0.0365807935595512,5.55301570892334,0.0361619591712952,0.0456693321466446,0.0907113552093506,0.228694468736649,0.458349943161011,0.125664830207825,0.09656772762537,7.53416299819946,0.0415845513343811,0.0495913997292519,0.120335556566715,0.258472353219986,0.240546941757202,0.219404071569443,0.0758972615003586,2012-01-17 17:48:39
1.02099990844727,30,-2.68571448326111,0.0250178445130587,0.0307761561125517,0.0673389211297035,0.00377835077233613,0.00817434675991535,0.0194475129246712,0.00809130817651749,5.56233167648315,0.0143830617889762,0.018846433609724,0.06080112606287,0.000376062729628757,0.00128774205222726,0.00124093936756253,0.000492656021378934,7.53706407546997,0.0233833715319633,0.0298185441643,0.0728959739208221,0.00154883170034736,0.00633015390485525,0.00926759373396635,0.0038912002928555,2012-01-17 17:48:40
1.01200008392334,52,-2.65194439888,0.028462452813983,0.0346367992460728,0.0727956220507622,0.0575980991125107,0.0588885955512524,0.182806268334389,0.094430111348629,5.60468864440918,0.037137545645237,0.0445465631783009,0.0835449695587158,0.00758887082338333,0.192641347646713,0.182667702436447,0.094429150223732,7.53094100952148,0.0265910625457764,0.0342106036841869,0.0888254642486572,0.0617964901030064,0.190760865807533,0.126906305551529,0.053352665156126,2012-01-17 17:48:41
1.03600001335144,39,-2.69280552864075,0.0272600315511227,0.0347405187785625,0.064623236656189,0.000206679324037395,0.0427834205329418,0.0313608460128307,0.0197025611996651,5.58803033828735,0.0221019964665174,0.0263581331819296,0.0605999641120434,0.00376387243159115,0.0263749603182077,0.025661613792181,0.0213183183223009,7.57274532318115,0.0440105982124805,0.054041787981987,0.125475063920021,0.0444801151752472,0.225008860230446,0.321890294551849,0.0388125665485859,2012-01-17 17:48:42
1.25799989700317,46,-2.68254518508911,0.0329236537218094,0.0403150990605354,0.0837828069925308,0.075501337647438,0.149325653910637,0.145748287439346,0.0218795146793127,5.59405422210693,0.0334982722997665,0.0419887714087963,0.0925234481692314,0.0655371099710464,0.0516000129282475,0.0439187437295914,0.122721932828426,7.50784301757812,0.0387352742254734,0.0474547334015369,0.131536796689034,0.0906830653548241,0.0674753412604332,0.0562244616448879,0.11704658716917,2012-01-17 17:48:43
1.00500011444092,49,-2.68041753768921,0.0188862476497889,0.0241343770176172,0.071848601102829,0.0246969945728779,0.0803394690155983,0.0859422460198402,0.0209439657628536,5.55336570739746,0.0205853525549173,0.0262093283236027,0.0714483261108398,0.0118758203461766,0.0411691032350063,0.05862707644701,0.0819729790091515,7.5435152053833,0.0445444360375404,0.0574991889297962,0.164511725306511,0.344292879104614,0.823175966739655,0.367513418197632,0.0888179987668991,2012-01-17 17:48:44
1.04499983787537,48,-2.68354892730713,0.0237589776515961,0.0279883202165365,0.0525065623223782,0.0391619950532913,0.0598815344274044,0.0140275247395039,0.0226649325340986,5.55138111114502,0.0353787913918495,0.0451546087861061,0.107055746018887,0.120587192475796,0.105929620563984,0.0427706651389599,0.0436101593077183,7.53395843505859,0.0398394465446472,0.0515625961124897,0.134841203689575,0.044517669826746,0.314749598503113,0.114519737660885,0.0589768625795841,2012-01-17 17:48:45
1.00300002098083,46,-2.69213843345642,0.0238955914974213,0.0335837155580521,0.0933762341737747,0.0239530634135008,0.0880799144506454,0.0786264836788177,0.0790872797369957,5.54416799545288,0.044213280081749,0.0523418299853802,0.133881866931915,0.0015213480219245,0.156174540519714,0.17950402200222,0.0783060640096664,7.55858182907104,0.0552156083285809,0.0645719394087791,0.115334533154964,0.377809435129166,0.285916447639465,0.162694320082664,0.190338671207428,2012-01-17 17:48:46
1.00800013542175,31,-2.71739101409912,0.0323691442608833,0.0380507856607437,0.0990155041217804,0.000358764664269984,0.00801997445523739,0.0326278582215309,0.0121198780834675,5.55942153930664,0.0389408022165298,0.0469553619623184,0.108821995556355,0.0352142937481403,0.0439713150262833,0.0189901906996965,0.0393330305814743,7.52075147628784,0.0324914865195751,0.039881806820631,0.108821995556355,0.00212935917079449,0.0131579609587789,0.0307444781064987,0.0148035660386086,2012-01-17 17:48:47
1.01300001144409,47,-2.68931722640991,0.0176599472761154,0.0216194149106741,0.0467382185161114,0.00282174861058593,0.0268776938319206,0.0199160408228636,0.00898197665810585,5.52865552902222,0.0336417779326439,0.0414193719625473,0.105578258633614,0.0434365272521973,0.143548622727394,0.181637868285179,0.0670670196413994,7.58408737182617,0.035905871540308,0.042406152933836,0.0945197194814682,0.0568164885044098,0.26110765337944,0.336611092090607,0.0693808123469353,2012-01-17 17:48:48
1.01399993896484,46,-2.6742308139801,0.0246556252241135,0.0291966125369072,0.055855181068182,0.00285795889794827,0.0483174100518227,0.0672305300831795,0.042009100317955,5.54587364196777,0.0345734804868698,0.044034481048584,0.112563088536263,0.0233547128736973,0.0815675258636475,0.211370840668678,0.101308010518551,7.58842802047729,0.0213558431714773,0.026631398126483,0.0569211095571518,0.00719564873725176,0.00939607061445713,0.0278701074421406,0.0295073315501213,2012-01-17 17:48:49
1.00999999046326,36,-2.67939472198486,0.0273012164980173,0.0384778901934624,0.1056939214468,0.0765149965882301,0.113576583564281,0.0806934162974358,0.0481305830180645,5.5020751953125,0.0278762839734554,0.0393587872385979,0.0888049602508545,0.0204607509076595,0.0836012735962868,0.150821223855019,0.0450745075941086,7.49554920196533,0.0259694177657366,0.0345945507287979,0.10133520513773,0.00386231928132474,0.0145078590139747,0.0509476996958256,0.0387082919478416,2012-01-17 17:48:50
1.00600004196167,49,-2.7020320892334,0.0260748453438282,0.0307636987417936,0.0640433952212334,0.02537677064538,0.0300103835761547,0.130410298705101,0.0582695752382278,5.54916286468506,0.0467744953930378,0.0578304640948772,0.158307075500488,0.00944511499255896,0.133230939507484,0.345742970705032,0.08944471180439,7.56152725219727,0.0423143357038498,0.0522839985787868,0.128086641430855,0.167735695838928,0.356534123420715,0.100944735109806,0.167184069752693,2012-01-17 17:48:51
1.00999999046326,45,-2.6756899356842,0.0247950609773397,0.0305220112204552,0.0603654906153679,0.0546019785106182,0.074096605181694,0.0712038949131966,0.0172408241778612,5.50872230529785,0.0230710115283728,0.0276137944310904,0.0562246963381767,0.00043736188672483,0.0208340622484684,0.0540536306798458,0.00769939320161939,7.54523611068726,0.0375703014433384,0.0441673658788204,0.0921823531389236,0.00987677089869976,0.092109777033329,0.144451394677162,0.0732443928718567,2012-01-17 17:48:52
1,40,-2.70957732200623,0.0263799279928207,0.0327607020735741,0.0813951641321182,0.00336756487376988,0.0624027140438557,0.0737449750304222,0.045853640884161,5.56135129928589,0.0305476617068052,0.0359517112374306,0.0970856696367264,0.00328067364171147,0.00167126720771194,0.044980276376009,0.051354568451643,7.58617877960205,0.0311360601335764,0.037846963852644,0.08262088149786,0.0101291220635176,0.0110781639814377,0.0343286618590355,0.0684507787227631,2012-01-17 17:48:53
1.0460000038147,46,-2.69213843345642,0.0197986699640751,0.0262455139309168,0.0737629607319832,0.000755927583668381,0.00377447600476444,0.0145200500264764,0.0249740332365036,5.53201627731323,0.0289193708449602,0.0373832955956459,0.116613656282425,0.00209386949427426,0.0947995483875275,0.177758857607841,0.141520738601685,7.55815553665161,0.0375488363206387,0.0497805774211884,0.144328057765961,0.00104473682586104,0.237323924899101,0.395151197910309,0.0699345394968987,2012-01-17 17:48:54
1.00099992752075,45,-2.66740870475769,0.0200491156429052,0.0259046945720911,0.0490331649780273,0.00472871586680412,0.052848007529974,0.0296079590916634,0.0571538917720318,5.55056381225586,0.0618907511234283,0.0689105466008186,0.137292861938477,0.127569511532784,0.36859142780304,0.557009816169739,0.0247380826622248,7.57051563262939,0.0307129211723804,0.0369535833597183,0.0884776189923286,0.0544441603124142,0.10561578720808,0.0360729768872261,0.00707011437043548,2012-01-17 17:48:55
1.02900004386902,30,-2.65792894363403,0.0199619457125664,0.024612283334136,0.0591666847467422,0.0012840423732996,0.00203854916617274,0.00361173297278583,0.00957833137363195,5.55415964126587,0.0308146197348833,0.0411008559167385,0.0918554589152336,0.0313853062689304,0.0556193068623543,0.048293549567461,0.0191521663218737,7.58773183822632,0.0266740415245295,0.0320216566324234,0.0660313293337822,0.0133503442630172,0.0165784545242786,0.00435941107571125,0.00869898404926062,2012-01-17 17:48:56
1.01900005340576,54,-2.65959978103638,0.0320027470588684,0.038879070430994,0.0862622633576393,0.0537864789366722,0.486317127943039,0.262047171592712,0.100476667284966,5.47102117538452,0.0407602116465569,0.0484364479780197,0.0991560816764832,0.0197822861373425,0.0965410694479942,0.742813229560852,0.0848424360156059,7.62575960159302,0.0413857065141201,0.0521458946168423,0.121493674814701,0.234417423605919,0.645881831645966,0.109927028417587,0.041035171598196,2012-01-17 17:48:58
1.00499987602234,46,-2.6578152179718,0.0407652407884598,0.0539652071893215,0.156693160533905,0.324430465698242,0.313822031021118,0.0934249982237816,0.0913653299212456,5.4718976020813,0.0433236211538315,0.0535764917731285,0.137079998850822,0.0397914722561836,0.25456839799881,0.139921188354492,0.11480239033699,7.5743579864502,0.034638375043869,0.0461948961019516,0.121303796768188,0.0608693808317184,0.291130781173706,0.143839314579964,0.22634619474411,2012-01-17 17:48:59
1.4760000705719,44,-2.66941452026367,0.0257221721112728,0.0357627719640732,0.0960606560111046,0.000926566426642239,0.10058057308197,0.249805137515068,0.0757797285914421,5.47879695892334,0.0220041684806347,0.0270005185157061,0.0619601234793663,0.00239889277145267,0.00167120643891394,0.0381668098270893,0.0636144801974297,7.59725618362427,0.0303519535809755,0.0401941724121571,0.0911575630307198,0.187385469675064,0.299736171960831,0.117020599544048,0.0405872017145157,2012-01-17 17:49:00
1.00999999046326,52,-2.64345788955688,0.0264242384582758,0.0316846594214439,0.0643091127276421,0.00015005879686214,0.0286187771707773,0.0988431423902512,0.108625940978527,5.47324228286743,0.0252274852246046,0.0324484072625637,0.0893916413187981,0.025653850287199,0.085657887160778,0.0467112511396408,0.0957193523645401,7.60467958450317,0.0326114073395729,0.0412695668637753,0.112399101257324,0.00448858086019754,0.138152092695236,0.198956489562988,0.344156980514526,2012-01-17 17:49:01
1.01300001144409,46,-2.66676926612854,0.0478838570415974,0.0558654107153416,0.0987060815095901,0.284028857946396,0.555775463581085,0.177250146865845,0.0575170442461967,5.47722721099854,0.0450290329754353,0.0584384314715862,0.141983106732368,0.164964094758034,0.313535362482071,0.27491483092308,0.111632190644741,7.57052040100098,0.0471515506505966,0.0558311603963375,0.117466405034065,0.0659830942749977,0.217418804764748,0.249290078878403,0.188659071922302,2012-01-17 17:49:02
1.00099992752075,31,-2.67120480537415,0.0322466120123863,0.0383206717669964,0.0844637900590897,0.00776024395599961,0.0163977555930614,0.0284054968506098,0.0351706258952618,5.49520349502563,0.0412879958748817,0.0480780601501465,0.101546473801136,0.00522733945399523,0.0134628182277083,0.0417242534458637,0.0377901569008827,7.56155967712402,0.0324098505079746,0.0402365401387215,0.107240274548531,0.00411987770348787,0.0197340026497841,0.0425097420811653,0.0256001316010952,2012-01-17 17:49:03
1.00500011444092,50,-2.67545008659363,0.0234104134142399,0.0292027331888676,0.0668812543153763,0.0540678277611732,0.0438808761537075,0.0392282865941525,0.0432006195187569,5.50957202911377,0.0207351557910442,0.0272257551550865,0.0766883343458176,0.103037990629673,0.167045563459396,0.0616985596716404,0.003693878185004,7.58858156204224,0.0259758103638887,0.0320897251367569,0.086494505405426,0.0653765127062798,0.0372205004096031,0.0614362731575966,0.0415039248764515,2012-01-17 17:49:04
1.00300002098083,46,-2.67252516746521,0.0288081727921963,0.0352837294340134,0.0733367726206779,0.0118631860241294,0.116863213479519,0.0556620247662067,0.0461753010749817,5.48767328262329,0.0278534553945065,0.0349764637649059,0.0923102870583534,0.0347576253116131,0.0521996207535267,0.126047760248184,0.0513743013143539,7.57968759536743,0.035426240414381,0.0459438227117062,0.126633495092392,0.0458157509565353,0.138544619083405,0.402169793844223,0.0236904211342335,2012-01-17 17:49:05
1.00999999046326,32,-2.67292499542236,0.0212987922132015,0.0269613042473793,0.0643560439348221,0.0079090902581811,0.0176507644355297,0.0258151665329933,0.0145587716251612,5.48865938186646,0.023597277700901,0.032841119915247,0.0950021892786026,0.0024993612896651,0.00864146836102009,0.0200249943882227,0.0125008812174201,7.53978157043457,0.0347254425287247,0.0457422770559788,0.125953942537308,0.00463250232860446,0.00437939213588834,0.0323473066091537,0.0216208826750517,2012-01-17 17:49:06
1.01300001144409,51,-2.67606163024902,0.0252687893807888,0.0331080406904221,0.0992202684283257,0.0737838596105576,0.0906343907117844,0.21408224105835,0.0778088048100471,5.47826385498047,0.0330508090555668,0.0441550016403198,0.111526496708393,0.0841524749994278,0.0927748307585716,0.155083581805229,0.169805735349655,7.57015657424927,0.0390908010303974,0.0471075475215912,0.0986431911587715,0.0095888888463378,0.00552343670278788,0.168113082647324,0.271966904401779,2012-01-17 17:49:07
1.01699995994568,49,-2.64479351043701,0.0275696851313114,0.0345557108521461,0.0950645208358765,0.0486352704465389,0.0839785113930702,0.132162943482399,0.06014384329319,5.50733470916748,0.0343416221439838,0.0426274798810482,0.102069064974785,0.0803379938006401,0.142518132925034,0.015075215138495,0.091969758272171,7.55292129516602,0.0416118279099464,0.0508863851428032,0.135492116212845,0.016031876206398,0.260464817285538,0.252834349870682,0.0794027671217918,2012-01-17 17:49:08
1.01600003242493,46,-2.68446373939514,0.0290120951831341,0.0339979827404022,0.0562815889716148,0.0113681219518185,0.120537057518959,0.0672457665205002,0.0388526245951653,5.48447561264038,0.0383553393185139,0.0459716245532036,0.110431611537933,0.0943626239895821,0.368890523910522,0.278753191232681,0.0587077215313911,7.58480405807495,0.0244146231561899,0.0286751296371222,0.063103549182415,0.0082599613815546,0.0361454226076603,0.068551778793335,0.0448042526841164,2012-01-17 17:49:09
1.00499987602234,31,-2.67120480537415,0.030205674469471,0.0372533649206161,0.0942704379558563,0.0122083788737655,0.0240057911723852,0.0387712828814983,0.020734591409564,5.43952703475952,0.0383083336055279,0.0515553504228592,0.120843335986137,0.0674439370632172,0.12999951839447,0.103486642241478,0.0728720426559448,7.63779830932617,0.0171233527362347,0.0217289086431265,0.0572580993175507,0.0036136123817414,0.00747811794281006,0.0142454989254475,0.00768188154324889,2012-01-17 17:49:10
1.00600004196167,47,-2.69349026679993,0.0205278117209673,0.0254504326730967,0.0751146748661995,6.3046085415408e-05,0.0431015267968178,0.0272465478628874,0.0223683044314384,5.51384115219116,0.0275864619761705,0.0399741940200329,0.139797136187553,0.0266074910759926,0.0685704723000526,0.28027868270874,0.170114606618881,7.58742570877075,0.03223891928792,0.0383249633014202,0.0755319371819496,0.0186264589428902,0.136865422129631,0.0762341469526291,0.212292268872261,2012-01-17 17:49:11
1.01399993896484,49,-2.69142508506775,0.0327324159443378,0.0381131321191788,0.07405024766922,0.0443417131900787,0.053492583334446,0.130116328597069,0.121082238852978,5.49672746658325,0.0249148309230804,0.0318926014006138,0.0734497010707855,0.0580207109451294,0.0533370785415173,0.00682052271440625,0.101723939180374,7.58414268493652,0.0327486805617809,0.0421540401875973,0.121282033622265,0.000370508671039715,0.0712290033698082,0.146728336811066,0.185170292854309,2012-01-17 17:49:12
1.01500010490417,34,-2.70750069618225,0.0159655399620533,0.0203727353364229,0.0498985201120377,0.00105241441633552,0.00114616216160357,0.00104539550375193,0.00416671670973301,5.50412654876709,0.0211741831153631,0.0265183467417955,0.0614356696605682,0.000629651360213757,0.00923661328852177,0.0155573878437281,0.00415143277496099,7.60159540176392,0.039345309138298,0.0445688180625439,0.0798952281475067,0.016937393695116,0.0183707252144814,0.0212002359330654,0.0836463496088982,2012-01-17 17:49:13
1.00600004196167,47,-2.66949510574341,0.0244877263903618,0.0292410403490067,0.0609263144433498,0.0151201682165265,0.0655423626303673,0.0808030068874359,0.00633012875914574,5.49589681625366,0.0257219076156616,0.0325403697788715,0.0644734278321266,0.00145072781015188,0.00940001010894775,0.0246919505298138,0.0196549706161022,7.55278968811035,0.0339170098304749,0.0430237725377083,0.0963971167802811,0.0132177192717791,0.235225692391396,0.316658765077591,0.0750062242150307,2012-01-17 17:49:14
1.00499987602234,48,-2.6745593547821,0.0243548732250929,0.029333982616663,0.0614959746599197,0.000506739655975252,0.0193289816379547,0.0843426212668419,0.0735587030649185,5.47824001312256,0.0244144834578037,0.0316904112696648,0.0943892672657967,0.0248020589351654,0.0260494276881218,0.0421101115643978,0.0163995735347271,7.57543277740479,0.0247379131615162,0.031650111079216,0.0831520780920982,0.0236597843468189,0.0952732861042023,0.143310755491257,0.021748261526227,2012-01-17 17:49:15
1,33,-2.69980049133301,0.0337874703109264,0.0388897247612476,0.0852881669998169,0.00311515619978309,0.0280611496418715,0.0727244764566422,0.0293296910822392,5.45338869094849,0.0240439306944609,0.0292076747864485,0.069538302719593,0.00420856149867177,0.00426140148192644,0.00778268417343497,0.0129084698855877,7.5829176902771,0.0238276869058609,0.0281576104462147,0.0564624331891537,0.00310413888655603,0.00659094098955393,0.00509518710896373,0.00450993701815605,2012-01-17 17:49:16
1.01200008392334,47,-2.68848252296448,0.0386494919657707,0.0449615269899368,0.106412574648857,0.226723462343216,0.603053212165833,0.344541847705841,0.0283645167946815,5.48588180541992,0.0395196117460728,0.0473415516316891,0.102031111717224,0.294025123119354,0.489605396986008,0.218202486634254,0.0126351732760668,7.61413335800171,0.0344852954149246,0.0421797409653664,0.0938937291502953,0.0105632422491908,0.0171464923769236,0.116828836500645,0.0242693163454533,2012-01-17 17:49:17
1.00099992752075,46,-2.71750783920288,0.0314777418971062,0.0377728417515755,0.0773872584104538,0.107025928795338,0.10192846506834,0.0601680502295494,0.0501514263451099,5.48063802719116,0.0412658117711544,0.0541632436215878,0.136014133691788,0.138292700052261,0.0926579162478447,0.127680882811546,0.078493744134903,7.6389536857605,0.0457334741950035,0.0540607571601868,0.12705996632576,0.00339451245963573,0.234574690461159,0.362534552812576,0.021182008087635,2012-01-17 17:49:18
1.01100015640259,35,-2.67805600166321,0.0323419384658337,0.0370931923389435,0.0678060427308083,0.0146132651716471,0.0274288915097713,0.0153508456423879,0.00399458827450871,5.47155046463013,0.0319577008485794,0.0395713746547699,0.0876997113227844,0.00540554197505116,0.00523241935297847,0.036419004201889,0.026013445109129,7.56905221939087,0.0155625259503722,0.0196811947971582,0.0473520271480083,6.1616792663699e-06,0.000161298448801972,0.00118408142589033,0.00588212534785271,2012-01-17 17:49:19
1.0019998550415,49,-2.69442701339722,0.0188535917550325,0.0228084549307823,0.0564382039010525,0.00730131939053535,0.0304162818938494,0.0696191862225533,0.013885460793972,5.50433254241943,0.0311639551073313,0.0366395711898804,0.075651191174984,0.00409315293654799,0.00651833228766918,0.166417211294174,0.095328189432621,7.64278268814087,0.056952990591526,0.0673492327332497,0.160308644175529,0.00329190865159035,0.628182351589203,0.585067927837372,0.3497554063797,2012-01-17 17:49:20
1.1230001449585,43,-2.69774079322815,0.0156991314142942,0.0191300287842751,0.0481211319565773,0.000737664289772511,0.0138008156791329,0.0397947765886784,0.011480525135994,5.47097015380859,0.034569974988699,0.0401402302086353,0.0773131102323532,0.0586331188678741,0.135690703988075,0.0610182993113995,0.0186322219669819,7.59285545349121,0.0324483402073383,0.0387153662741184,0.0907683670520782,0.0286648496985435,0.137137100100517,0.144997343420982,0.105184979736805,2012-01-17 17:49:21
1.0699999332428,41,-2.66860461235046,0.025027047842741,0.0333576984703541,0.089455857872963,0.0640429928898811,0.111443698406219,0.0741631686687469,0.0858375057578087,5.49315929412842,0.0333927497267723,0.0412983037531376,0.0966312512755394,0.0155297666788101,0.0156767722219229,0.136812016367912,0.154302284121513,7.58915090560913,0.0598782598972321,0.071874625980854,0.155710250139236,0.433357238769531,0.737003922462463,0.398921310901642,0.107165791094303,2012-01-17 17:49:22
1.00099992752075,49,-2.66700839996338,0.026842663064599,0.0343137755990028,0.0886601880192757,0.00585450511425734,0.0628304779529572,0.197516456246376,0.0265585985034704,5.46310472488403,0.0314009450376034,0.0385624580085278,0.097265936434269,0.150307565927505,0.202579945325851,0.217218086123466,0.0853628143668175,7.61516380310059,0.0227092374116182,0.0279559809714556,0.0640433207154274,0.0039348085410893,0.0161263141781092,0.0188838448375463,0.0500328801572323,2012-01-17 17:49:23
1.00600004196167,48,-2.68804359436035,0.0199452955275774,0.0248606838285923,0.0598613508045673,0.0145113412290812,0.0695333108305931,0.0273699779063463,0.0133697232231498,5.49437999725342,0.0368685461580753,0.0406187102198601,0.0757971331477165,0.276879817247391,0.428970336914062,0.0577898509800434,0.00850977096706629,7.59361553192139,0.0257424209266901,0.035035777837038,0.0947979167103767,0.0182818993926048,0.054736714810133,0.0568257346749306,0.0571213848888874,2012-01-17 17:49:24
1.01500010490417,48,-2.69478559494019,0.0123434327542782,0.0148399351164699,0.0314631722867489,0.000287400733213872,0.00276534096337855,0.00371160125359893,0.023733951151371,5.48069143295288,0.036110982298851,0.0450566522777081,0.096840888261795,0.108471348881721,0.269015550613403,0.319779992103577,0.163145750761032,7.59177684783936,0.0324844717979431,0.0404332689940929,0.0896898284554482,0.00138381612487137,0.00818464159965515,0.219666510820389,0.215659201145172,2012-01-17 17:49:25
1.01399993896484,31,-2.67025589942932,0.0351038686931133,0.0422125346958637,0.0813001543283463,0.00181768962647766,0.00751989241689444,0.0317023582756519,0.0131684616208076,5.4929895401001,0.021388903260231,0.0269134044647217,0.0601056143641472,9.67837841017172e-05,0.00364047870971262,0.00824258010834455,0.00720457499846816,7.54510974884033,0.0304913837462664,0.0363257639110088,0.08224917948246,0.0128847612068057,0.0233882442116737,0.0423194169998169,0.0210413485765457,2012-01-17 17:49:26
1.00699996948242,47,-2.66636538505554,0.0247629806399345,0.0298846065998077,0.0598832853138447,0.0124406302347779,0.0234192982316017,0.0473852939903736,0.138425439596176,5.50069618225098,0.0279415883123875,0.0353195331990719,0.0792876780033112,0.00513885216787457,0.00741704739630222,0.0260272938758135,0.0309627149254084,7.62268781661987,0.0241414625197649,0.0302033983170986,0.0813741981983185,0.0278808306902647,0.0252418760210276,0.0820937305688858,0.00860838405787945,2012-01-17 17:49:27
1.00799989700317,48,-2.69069957733154,0.0342721752822399,0.0395635217428207,0.0943890437483788,0.227806359529495,0.369982689619064,0.0536128580570221,0.0568678751587868,5.45923948287964,0.0259723588824272,0.0335055068135262,0.0913243889808655,0.0291033424437046,0.0536163747310638,0.0577420927584171,0.074569396674633,7.58687353134155,0.0375325232744217,0.0465811006724834,0.101539969444275,0.0935528874397278,0.183327853679657,0.415785938501358,0.149252653121948,2012-01-17 17:49:28
1.01500010490417,33,-2.67454075813293,0.0159932002425194,0.0210845004767179,0.051707923412323,0.000226698233745992,0.000778343819547445,0.000844052818138152,0.00346618122421205,5.45190286636353,0.0215945579111576,0.0278360396623611,0.0778590813279152,0.0167209934443235,0.0287461169064045,0.0163286384195089,0.00765263941138983,7.61590337753296,0.0408294945955276,0.0483412519097328,0.104009784758091,0.0735050737857819,0.121710300445557,0.0676303431391716,0.0133181475102901,2012-01-17 17:49:29
1.00799989700317,49,-2.68802261352539,0.0466520451009274,0.0543035753071308,0.108873948454857,0.180336907505989,0.553598880767822,0.37302628159523,0.0882685109972954,5.5025315284729,0.0323239304125309,0.0404214523732662,0.0794541910290718,0.0316735953092575,0.147989451885223,0.0252825058996677,0.00329723325558007,7.56112718582153,0.0290563870221376,0.0355238877236843,0.0880595594644547,0.0293265171349049,0.0448045469820499,0.0238589942455292,0.165193825960159,2012-01-17 17:49:30
1.01600003242493,48,-2.67578530311584,0.0240824427455664,0.0290766973048449,0.0672163069248199,0.0532839708030224,0.155002191662788,0.0816187411546707,0.0166286583989859,5.50827264785767,0.0556731373071671,0.0712011754512787,0.153841957449913,0.0651422664523125,0.916851043701172,1.23735272884369,0.185165658593178,7.57727146148682,0.0509400255978107,0.061122365295887,0.143830642104149,9.67169398791157e-05,0.603654861450195,0.469729512929916,0.0913842022418976,2012-01-17 17:49:31
1.01200008392334,41,-2.70328664779663,0.0251204520463943,0.0291081685572863,0.0554912686347961,0.00158558052498847,0.00856971181929111,0.0253505110740662,0.0398451946675777,5.47019720077515,0.0458772219717503,0.0540276579558849,0.105959802865982,0.195757478475571,0.204859763383865,0.0917992740869522,0.0883965045213699,7.59082508087158,0.0316542610526085,0.0391637980937958,0.0975884199142456,0.0538029000163078,0.0894530117511749,0.0315192900598049,0.019075246527791,2012-01-17 17:49:32
1.04200005531311,47,-2.70809578895569,0.0214157365262508,0.0306782703846693,0.0897203236818314,0.0245334859937429,0.0555177628993988,0.0904069095849991,0.109078004956245,5.44748973846436,0.0282880384474993,0.0350313223898411,0.0930590033531189,0.0166743006557226,0.0226540118455887,0.228428453207016,0.0491416975855827,7.60787343978882,0.0467558242380619,0.0569647252559662,0.149186432361603,0.234262436628342,0.771945297718048,0.536064028739929,0.0844695940613747,2012-01-17 17:49:33
1.00899982452393,47,-2.68034505844116,0.0221082251518965,0.028473163023591,0.0753235071897507,0.00187837379053235,0.0473481677472591,0.128486484289169,0.00510751362890005,5.4524974822998,0.0308806411921978,0.0373564250767231,0.0882600098848343,0.0146778309717774,0.013579161837697,0.107414290308952,0.0608267076313496,7.62081003189087,0.0180861130356789,0.0243792422115803,0.0794963240623474,0.00658270809799433,0.0305743031203747,0.0271712206304073,0.0123268263414502,2012-01-17 17:49:34
1.00699996948242,33,-2.69474840164185,0.0158491041511297,0.019125422462821,0.0469529703259468,0.00818318873643875,0.0133535386994481,0.00771719170734286,0.0033600521273911,5.4753794670105,0.0427926890552044,0.0517607778310776,0.130755484104156,0.0334348157048225,0.080035537481308,0.152787744998932,0.0718908607959747,7.58321475982666,0.0226390045136213,0.0277659855782986,0.0615143328905106,0.00249613891355693,0.0123338354751468,0.0132573852315545,0.0062368456274271,2012-01-17 17:49:36
1.01600003242493,50,-2.66407442092896,0.0268623344600201,0.0313573218882084,0.0621742866933346,0.00102535891346633,0.0768387839198112,0.0331143736839294,0.0592416822910309,5.49290084838867,0.0352097973227501,0.0407012812793255,0.089436911046505,0.0110655687749386,0.0371047109365463,0.219610765576363,0.155443370342255,7.61074447631836,0.0365748628973961,0.0448471568524837,0.108657531440258,0.179049178957939,0.423603415489197,0.175065696239471,0.0319850817322731,2012-01-17 17:49:37
1.01900005340576,44,-2.64980125427246,0.0232198368757963,0.0269848126918077,0.0510390661656857,0.00317890173755586,0.01416449341923,0.0279441867023706,0.0411551222205162,5.55791854858398,0.0217306073755026,0.0274302996695042,0.0710980892181396,0.0142217883840203,0.00715446285903454,0.0769369527697563,0.042365487664938,7.57764291763306,0.0275456979870796,0.0334250181913376,0.0911571085453033,0.00764046981930733,0.0267815086990595,0.0547406598925591,0.040752649307251,2012-01-17 17:49:38
1.41000008583069,45,-2.64474439620972,0.0323497876524925,0.0372607558965683,0.0754023417830467,0.204222947359085,0.325058132410049,0.0877378210425377,0.033693190664053,5.60439109802246,0.0391006208956242,0.0448025763034821,0.093271978199482,0.0747343301773071,0.123518735170364,0.212197795510292,0.0951210185885429,7.58315515518188,0.0294634848833084,0.03808768466115,0.100681431591511,0.0918722525238991,0.24512779712677,0.207045659422874,0.0944272056221962,2012-01-17 17:49:39
1.00799989700317,51,-2.67375421524048,0.0220111962407827,0.0264728181064129,0.0651852637529373,0.0727872997522354,0.10716000944376,0.0247522164136171,0.00641853222623467,5.54364156723022,0.0300872474908829,0.0378214232623577,0.0813373699784279,0.0186538212001324,0.349935352802277,0.251476854085922,0.0530741661787033,7.54996633529663,0.0334353037178516,0.0370330847799778,0.0599935203790665,0.164588496088982,0.30728754401207,0.0768770128488541,0.0314793884754181,2012-01-17 17:49:40
1.00100016593933,46,-2.68041324615479,0.0222178902477026,0.0312165804207325,0.114482000470161,0.0519087351858616,0.139185026288033,0.0930277034640312,0.0220571998506784,5.56825828552246,0.0376507975161076,0.0462519004940987,0.109791651368141,0.0466357804834843,0.282951653003693,0.378129750490189,0.0218348279595375,7.53960800170898,0.037613719701767,0.0508460439741611,0.145393997430801,0.0905852466821671,0.200895816087723,0.208232879638672,0.0588477849960327,2012-01-17 17:49:41
1.00099992752075,40,-2.64951157569885,0.0201158560812473,0.0246034618467093,0.0473170056939125,0.015931336209178,0.0195991564542055,0.02900056168437,0.01566993445158,5.56895112991333,0.0368974581360817,0.0467328764498234,0.096840500831604,0.0209824666380882,0.0853322967886925,0.152234479784966,0.0164289250969887,7.52268123626709,0.0342251509428024,0.0435705967247486,0.108853623270988,0.131459936499596,0.268336921930313,0.141166672110558,0.0530697032809258,2012-01-17 17:49:42
1.01699995994568,50,-2.63367390632629,0.0235359240323305,0.0268322210758924,0.0643317475914955,0.0054789655841887,0.11447086930275,0.073876790702343,0.0184397175908089,5.57821846008301,0.0349665321409702,0.0421429723501205,0.0900248885154724,6.75821647746488e-05,0.227549105882645,0.126733303070068,0.13494299352169,7.50385236740112,0.0266505051404238,0.0363078601658344,0.0963011384010315,0.0880683362483978,0.317208230495453,0.257970452308655,0.112861849367619,2012-01-17 17:49:43
1.01900005340576,48,-2.68824791908264,0.0221160259097815,0.0253700632601976,0.0478075481951237,0.0325913988053799,0.0800461173057556,0.0607838928699493,0.0296589471399784,5.58243560791016,0.0363662652671337,0.0441978983581066,0.0858080387115479,0.0792167410254478,0.173248797655106,0.123289808630943,0.183413177728653,7.51128101348877,0.0317183285951614,0.0397040620446205,0.09867924451828,0.0514970608055592,0.149188876152039,0.113889276981354,0.146917939186096,2012-01-17 17:49:44
1.0460000038147,30,-2.66315913200378,0.0271316841244698,0.0305618215352297,0.0447836257517338,0.000185678756679408,0.00739259226247668,0.0320636220276356,0.0148123176768422,5.54696798324585,0.0363499373197556,0.0462393499910831,0.114084288477898,0.0152627509087324,0.0452086068689823,0.0796324163675308,0.00969018694013357,7.5324878692627,0.0317081138491631,0.0372436940670013,0.0872790366411209,0.00282610580325127,0.00724816462025046,0.0195162296295166,0.00536290742456913,2012-01-17 17:49:45
1.00799989700317,52,-2.6679744720459,0.0255465805530548,0.0322057120501995,0.0692122057080269,0.0107528576627374,0.0840578228235245,0.297603815793991,0.0509623698890209,5.55886173248291,0.0305514335632324,0.0376082770526409,0.0995750427246094,0.00196800963021815,0.0818165391683578,0.154375240206718,0.0380035117268562,7.50133275985718,0.0212090201675892,0.0281901266425848,0.0694007873535156,0.0357549861073494,0.0587859377264977,0.0305162910372019,0.0273233596235514,2012-01-17 17:49:46
1.00699996948242,44,-2.70262360572815,0.0225715134292841,0.030321316793561,0.0842479541897774,0.0342789851129055,0.0332745090126991,0.030807338654995,0.028397349640727,5.56482791900635,0.0264211762696505,0.0363612361252308,0.123028665781021,0.00647471053525805,0.0132157765328884,0.0604087263345718,0.0346629060804844,7.53373575210571,0.0268061477690935,0.0332469455897808,0.0708752125501633,0.00210442999377847,0.0549693442881107,0.040859442204237,0.0163210164755583,2012-01-17 17:49:47
1.01800012588501,45,-2.6974823474884,0.0333281084895134,0.0381438471376896,0.0791069269180298,0.0431570969521999,0.0447189472615719,0.0818188488483429,0.0926239788532257,5.55753755569458,0.0373281612992287,0.0427022129297256,0.0910927206277847,0.0217448882758617,0.0196312610059977,0.183502271771431,0.0209947936236858,7.54000616073608,0.0482922308146954,0.0600122027099133,0.138600885868073,0.223416671156883,0.333348333835602,0.5305215716362,0.510789275169373,2012-01-17 17:49:48
1.01699995994568,50,-2.69133687019348,0.027850890532136,0.03259352222085,0.0643316954374313,0.126275107264519,0.202959164977074,0.0254122484475374,0.0746691673994064,5.53977632522583,0.0350292921066284,0.0404456742107868,0.0774724036455154,0.19501593708992,0.524502575397491,0.305060356855392,0.0333875827491283,7.5585732460022,0.038614597171545,0.0507130958139896,0.105519369244576,0.00115840951912105,0.314082324504852,0.49628809094429,0.0656952261924744,2012-01-17 17:49:49
1.0090000629425,46,-2.71025943756104,0.0167955402284861,0.0205867663025856,0.0526574216783047,0.00400486635044217,0.00861609075218439,0.013817741535604,0.0260874647647142,5.49492168426514,0.0245073232799768,0.0312834531068802,0.0752552598714828,0.000204371026484296,0.00638033263385296,0.0207198522984982,0.0123936543241143,7.57457113265991,0.0302726607769728,0.038117129355669,0.113842681050301,0.0788664892315865,0.242273643612862,0.150947347283363,0.0371398851275444,2012-01-17 17:49:50
1.44799995422363,46,-2.69682860374451,0.0204660687595606,0.0300527270883322,0.0980665311217308,0.0370685085654259,0.0557770617306232,0.0490519069135189,0.0955973118543625,5.48554134368896,0.0267597436904907,0.0336223132908344,0.0722710490226746,0.0134374825283885,0.0404990017414093,0.145916908979416,0.113988518714905,7.54813575744629,0.0425077676773071,0.0535911582410336,0.110857591032982,0.188787654042244,0.515904366970062,0.192714840173721,0.307974815368652,2012-01-17 17:49:52
1.00099992752075,52,-2.703617811203,0.0221665110439062,0.0308642126619816,0.104855597019196,0.00205624965019524,0.00783645547926426,0.0376171320676804,0.0323650762438774,5.49096965789795,0.0403581485152245,0.0476889349520206,0.0875057354569435,0.00639383727684617,0.034685991704464,0.610511898994446,0.26307338476181,7.57337379455566,0.0426791980862617,0.0526741854846478,0.134653061628342,0.0928708985447884,0.171889513731003,0.1810432523489,0.0273583400994539,2012-01-17 17:49:53
1.10599994659424,47,-2.68180561065674,0.0234666801989079,0.0275040958076715,0.0634301528334618,6.80312732583843e-05,0.025943024083972,0.0620010644197464,0.0145069872960448,5.49381017684937,0.0502097196877003,0.0624152906239033,0.115593202412128,0.602659106254578,1.03530585765839,0.366990774869919,0.0514104478061199,7.57094240188599,0.0286163669079542,0.0375468842685223,0.0982749834656715,0.215845555067062,0.302770256996155,0.121340990066528,0.0609505511820316,2012-01-17 17:49:54
1.32200002670288,38,-2.71695804595947,0.0217594318091869,0.0265197772532701,0.0495494045317173,0.00634186714887619,0.00528869824483991,0.0108872586861253,0.0203630365431309,5.53378915786743,0.035274013876915,0.0452152118086815,0.100905559957027,0.0083948764950037,0.00590360537171364,0.061696220189333,0.043874341994524,7.56583023071289,0.0214197505265474,0.0246195942163467,0.0539364814758301,0.000272537261480466,0.00992143806070089,0.0352563373744488,0.00666867941617966,2012-01-17 17:49:55
1.0090000629425,52,-2.71134996414185,0.0201936326920986,0.0252590626478195,0.0831678956747055,0.00622091116383672,0.0335939265787601,0.0461102053523064,0.0255410484969616,5.50756549835205,0.0287816096097231,0.0342506244778633,0.0746817514300346,0.051498781889677,0.222245261073112,0.147636398673058,0.0614047944545746,7.56809329986572,0.030130734667182,0.0388053841888905,0.115039348602295,2.53382477239938e-05,0.0638372302055359,0.090592734515667,0.0563306398689747,2012-01-17 17:49:56
1.01200008392334,44,-2.69638299942017,0.0336141027510166,0.0437546074390411,0.107427284121513,0.00138461159076542,0.170462548732758,0.194335654377937,0.0216081608086824,5.48592901229858,0.0172223933041096,0.0219599902629852,0.0548279918730259,9.62276317295618e-05,0.00873855408281088,0.015529272146523,0.0209257453680038,7.54889154434204,0.037382747977972,0.0495592281222343,0.129715457558632,0.0667260512709618,0.139229223132133,0.161561384797096,0.159437939524651,2012-01-17 17:49:57
1.0239999294281,31,-2.71359491348267,0.0107965478673577,0.013226100243628,0.0322671644389629,0.00107745721470565,0.00258120964281261,0.00458177085965872,0.00125711259897798,5.5050106048584,0.0189601704478264,0.0235712677240372,0.0553600266575813,0.00250206817872822,0.00819832272827625,0.0145621271803975,0.00350966304540634,7.55807971954346,0.0303281098604202,0.0359407961368561,0.0657993406057358,0.0127440243959427,0.0168007798492908,0.00353458477184176,0.00172621023375541,2012-01-17 17:49:58
1.01500010490417,52,-2.69041657447815,0.0379645004868507,0.0462732501327991,0.0916543677449226,0.247324734926224,0.237532064318657,0.456625312566757,0.113793343305588,5.50492525100708,0.0354547761380672,0.0439360588788986,0.111268013715744,0.019398020580411,0.0896522328257561,0.301451325416565,0.193310022354126,7.56545305252075,0.0263734590262175,0.0300703532993793,0.0535593032836914,0.00642322422936559,0.108306035399437,0.150155499577522,0.0084717134013772,2012-01-17 17:49:59
1,46,-2.68318462371826,0.0264167599380016,0.0352089516818523,0.104035846889019,0.0118186734616756,0.0583220198750496,0.13336618244648,0.0709166526794434,5.51005792617798,0.0310141816735268,0.0369547419250011,0.0869810357689857,0.0304266661405563,0.0266913529485464,0.103206865489483,0.0977683290839195,7.56263256072998,0.0343324840068817,0.0458744987845421,0.119385100901127,0.0564925521612167,0.169084697961807,0.213659450411797,0.0625878125429153,2012-01-17 17:50:00
