"diffSecs","N.samples","x.mean","x.absolute.deviation","x.standard.deviation","x.max.deviation","x.PSD.1","x.PSD.3","x.PSD.6","x.PSD.10","y.mean","y.absolute.deviation","y.standard.deviation","y.max.deviation","y.PSD.1","y.PSD.3","y.PSD.6","y.PSD.10","z.mean","z.absolute.deviation","z.standard.deviation","z.max.deviation","z.PSD.1","z.PSD.3","z.PSD.6","z.PSD.10","time"
0,98,10.2159118652344,2.91803431510925,3.6415581703186,8.78447341918945,2221.3046875,5874.0283203125,406.839111328125,169.56217956543,-2.74443912506104,2.22181916236877,3.31925058364868,16.7648849487305,221.327697753906,1988.24060058594,705.720458984375,777.631530761719,0.725491940975189,1.26886105537415,1.90271580219269,8.27201557159424,0.464935570955276,183.139190673828,155.49169921875,234.8583984375,2011-11-10 18:00:01
1.00219810009003,94,10.1937971115112,2.61737728118896,3.34560632705688,7.05260467529297,739.485229492188,3525.03173828125,616.68896484375,77.195915222168,-2.61996984481812,2.56914210319519,3.82807779312134,17.5597877502441,73.4140090942383,2051.05200195312,667.803405761719,781.300598144531,1.05141115188599,1.12268435955048,1.5993138551712,6.07373285293579,85.9749221801758,416.455383300781,143.275344848633,228.763946533203,2011-11-10 18:00:02
1.01119315624237,99,10.8215980529785,2.73586535453796,3.35890626907349,8.40863037109375,13.4437103271484,4683.00048828125,1103.34936523438,432.944671630859,-2.50699520111084,2.73077654838562,4.03395938873291,16.7572822570801,77.9520416259766,1548.953125,1222.46228027344,683.5986328125,0.63187575340271,1.49807405471802,2.07547473907471,7.60379123687744,739.758117675781,584.921264648438,211.74267578125,231.081298828125,2011-11-10 18:00:03
1.00657868385315,87,10.2143793106079,3.02303671836853,3.88610100746155,9.13077068328857,19.8637447357178,2819.23071289062,269.875091552734,720.54638671875,-2.37548828125,2.61761498451233,4.11305379867554,14.7104148864746,253.547912597656,2480.3701171875,1506.83642578125,542.470581054688,1.01183915138245,1.64995896816254,2.66612982749939,8.8331184387207,124.267051696777,429.865539550781,524.211547851562,526.992370605469,2011-11-10 18:00:04
1.0044823884964,99,10.5375823974609,3.05009317398071,3.75063872337341,8.46280288696289,121.090850830078,2635.08935546875,975.320068359375,712.515808105469,-2.12547063827515,2.69801545143127,3.95719766616821,15.1116209030151,7.82675361633301,3432.87817382812,3170.14501953125,1027.93566894531,0.70384693145752,1.38898777961731,2.29435801506042,10.2806539535522,356.985931396484,1035.74816894531,204.872421264648,571.8134765625,2011-11-10 18:00:05
0.985551953315735,99,10.1815967559814,2.82122707366943,3.76564455032349,9.03238010406494,9.69919490814209,2634.13354492188,2025.57568359375,348.349029541016,-2.48803496360779,2.43817806243896,3.21589183807373,10.8773174285889,1.95411503314972,2557.60815429688,1627.73120117188,1436.89697265625,0.797486841678619,1.79449486732483,2.67850470542908,7.82163953781128,461.0263671875,819.376892089844,2428.84985351562,1297.41284179688,2011-11-10 18:00:06
1.0099960565567,91,10.2292928695679,2.88509249687195,3.65209341049194,8.77109241485596,123.506645202637,3145.46508789062,1447.08703613281,332.352355957031,-1.67078447341919,2.2578272819519,3.38366866111755,11.362512588501,2.44251441955566,2407.65869140625,2796.6064453125,1049.80187988281,0.526619136333466,1.65826201438904,2.047856092453,4.66379928588867,584.94970703125,1615.18969726562,334.95751953125,599.904113769531,2011-11-10 18:00:07
0.990074157714844,99,10.3348255157471,3.19187021255493,4.04375886917114,9.08693885803223,175.877868652344,9302.2431640625,3465.88232421875,1393.46228027344,-2.12237524986267,2.0659167766571,3.22324228286743,12.3887119293213,866.340209960938,5636.62548828125,5637.421875,2787.9921875,0.814512252807617,1.53117120265961,2.19089937210083,6.46386098861694,120.544097900391,1192.35229492188,793.675415039062,850.775512695312,2011-11-10 18:00:08
1.00991177558899,90,10.2791061401367,3.29952907562256,3.98380017280579,8.87450790405273,255.860107421875,5376.45849609375,4952.73974609375,1629.92431640625,-1.96260690689087,2.79316425323486,4.50686883926392,16.787504196167,97.8729095458984,5429.7626953125,11855.6103515625,6411.21630859375,0.724857866764069,1.52093875408173,2.28848934173584,9.91859245300293,87.9123992919922,1693.00024414062,904.015014648438,568.6513671875,2011-11-10 18:00:09
1.00001513957977,98,10.6779441833496,3.37689924240112,3.97840118408203,8.16921043395996,936.920959472656,12834.4345703125,3830.66455078125,1304.20434570312,-2.10103416442871,2.69740462303162,4.12872934341431,15.0105695724487,169.987701416016,5463.65869140625,7124.6943359375,4540.64306640625,0.527310729026794,1.57691431045532,2.33283376693726,7.92060565948486,439.175994873047,1136.34265136719,1233.32116699219,744.362915039062,2011-11-10 18:00:10
1.00003492832184,97,10.5889863967896,2.63567876815796,3.26301264762878,7.91340351104736,337.971496582031,8332.6337890625,1587.74682617188,960.588562011719,-1.99710977077484,2.89863038063049,4.80236339569092,19.1970558166504,58.1565055847168,3847.33349609375,5764.90966796875,3129.64501953125,0.441125482320786,1.48330271244049,2.23108792304993,9.25178813934326,438.6943359375,470.003082275391,932.207580566406,623.178955078125,2011-11-10 18:00:11
1.00999879837036,99,10.5074014663696,2.36416673660278,2.96458745002747,7.4586877822876,140.511917114258,3760.724609375,596.261108398438,406.351593017578,-1.83371663093567,1.9619038105011,3.35444736480713,13.632342338562,603.833679199219,900.706298828125,227.629333496094,463.400512695312,0.369142353534698,1.31306898593903,2.10960412025452,8.98826885223389,45.2434959411621,233.245208740234,619.981811523438,258.762390136719,2011-11-10 18:00:12
0.989970147609711,99,10.1754055023193,1.55546641349792,2.01313471794128,5.76040077209473,565.263427734375,1196.75805664062,352.115570068359,177.494018554688,-2.7496075630188,1.40717792510986,1.73299324512482,5.0267596244812,1389.6484375,792.1962890625,66.7711334228516,90.6821212768555,1.02578234672546,0.889105975627899,1.41377639770508,6.35048723220825,65.5336761474609,298.403778076172,333.022888183594,177.236419677734,2011-11-10 18:00:13
1.00993013381958,85,10.5457544326782,1.57242548465729,2.36294937133789,7.76510000228882,206.87565612793,756.768188476562,908.987670898438,299.267791748047,-2.16503429412842,2.16958355903625,3.30983734130859,9.67189884185791,579.986389160156,996.854797363281,642.630798339844,1032.12805175781,0.705754339694977,1.23565065860748,1.92312753200531,7.21798276901245,417.28759765625,275.049224853516,167.082122802734,84.6090774536133,2011-11-10 18:00:14
0.990216314792633,99,10.6292877197266,1.17859315872192,1.36790490150452,2.81654810905457,113.818351745605,722.288024902344,545.666015625,161.680557250977,-1.83255577087402,1.47416186332703,2.152996301651,7.04233837127686,0.0111010111868382,1351.42358398438,703.299194335938,178.104110717773,0.149359494447708,0.968245327472687,1.28897523880005,3.56644153594971,118.80224609375,250.991470336914,136.823379516602,51.9249153137207,2011-11-10 18:00:15
0.989842712879181,99,10.5921411514282,0.809779047966003,1.11325371265411,2.96861720085144,91.5832672119141,198.295700073242,74.2256622314453,25.7216930389404,-2.31894159317017,0.692578732967377,0.854016125202179,2.08638954162598,206.499008178711,109.30184173584,28.5590057373047,7.75216722488403,0.845080614089966,0.903426766395569,1.65101563930511,8.39160442352295,40.7570457458496,281.907928466797,86.3178558349609,56.0631484985352,2011-11-10 18:00:16
1.00002610683441,88,10.3581867218018,1.05125248432159,1.48174917697906,4.39009571075439,21.0169162750244,786.375671386719,218.386917114258,350.1025390625,-1.54273653030396,1.83676815032959,2.72714042663574,8.2081937789917,319.974670410156,3408.8369140625,1189.70373535156,1089.60144042969,0.2968809902668,1.22474300861359,1.51970314979553,3.62960958480835,655.844421386719,933.134338378906,375.670501708984,101.239158630371,2011-11-10 18:00:17
0.990708351135254,99,10.7879343032837,2.23864126205444,2.76055765151978,6.60354709625244,0.62443208694458,4394.86572265625,1448.611328125,328.457702636719,-1.11052262783051,2.18976163864136,3.16504764556885,10.7256364822388,490.763031005859,2927.2763671875,1219.32177734375,856.166076660156,-0.142394542694092,1.21179187297821,1.54032647609711,4.07140016555786,44.938533782959,323.987518310547,428.020355224609,329.047058105469,2011-11-10 18:00:18
1.00928068161011,87,10.4323348999023,0.988355875015259,1.24010872840881,3.34549784660339,4.13985013961792,250.794342041016,551.222045898438,17.4245796203613,-3.52470517158508,1.62783193588257,2.04386234283447,4.09843301773071,205.932342529297,1934.64001464844,490.349639892578,158.711227416992,0.576369643211365,1.19414901733398,1.59215688705444,4.02402019500732,135.845703125,364.121765136719,198.345458984375,193.344329833984,2011-11-10 18:00:19
0.990018427371979,99,10.4876670837402,0.558141946792603,0.684515058994293,1.57910895347595,18.4296989440918,48.3300361633301,161.377639770508,34.7328414916992,-2.6025698184967,1.091668009758,1.35231482982635,3.63686490058899,684.089721679688,1109.38171386719,145.249938964844,47.5344314575195,0.263507276773453,0.982996046543121,1.27734017372131,4.60151052474976,109.367660522461,485.822418212891,268.683929443359,58.4890251159668,2011-11-10 18:00:20
1.00000643730164,98,10.4062757492065,1.09500277042389,1.42814564704895,4.50696229934692,418.268951416016,970.250244140625,436.866180419922,298.007171630859,-2.41609144210815,1.33014309406281,1.76490259170532,5.01551055908203,296.372344970703,1978.84826660156,559.689086914062,176.796630859375,-1.2864191532135,1.87197256088257,2.41007041931152,7.06455564498901,2192.5830078125,2252.7060546875,788.941467285156,846.089965820312,2011-11-10 18:00:21
1.0101170539856,97,10.1403570175171,0.188779696822166,0.247524246573448,0.777202427387238,0.0105702569708228,4.18782711029053,3.24323296546936,4.53878116607666,-2.74864220619202,0.307345360517502,0.358554184436798,0.909895360469818,2.14964151382446,25.875825881958,35.052318572998,1.91630828380585,1.2522908449173,0.365085065364838,0.536931574344635,1.78859210014343,14.7640361785889,21.5568199157715,85.8116073608398,79.1333084106445,2011-11-10 18:00:22
0.989884734153748,99,10.4319477081299,0.439620584249496,0.69686084985733,2.82235240936279,18.0809936523438,5.85419225692749,81.6279449462891,10.3898439407349,-2.48107004165649,0.956277549266815,1.19776916503906,2.6726062297821,9.35831832885742,687.514587402344,217.800231933594,63.4839363098145,0.0390811115503311,0.865952014923096,1.03613471984863,1.83797299861908,321.783782958984,880.798889160156,81.1877975463867,67.6256484985352,2011-11-10 18:00:23
1.00993502140045,87,10.1505346298218,0.171934545040131,0.30596074461937,1.30156481266022,2.36893725395203,1.74282991886139,3.38161754608154,1.89196956157684,-2.69559597969055,0.224681094288826,0.303921848535538,0.971770644187927,11.8176298141479,20.7853698730469,12.4860668182373,1.99835062026978,0.723874509334564,0.272386699914932,0.384260773658752,1.45171177387238,19.3614311218262,12.1978092193604,8.21535778045654,21.5555572509766,2011-11-10 18:00:24
1.0000684261322,99,10.181209564209,0.0451431535184383,0.0719357132911682,0.20004865527153,0.436684280633926,0.401914119720459,1.05487561225891,0.294711858034134,-2.94539999961853,0.177563264966011,0.263825595378876,0.84701532125473,7.30991458892822,6.83196449279785,0.929339289665222,0.182609885931015,0.581960320472717,0.113510712981224,0.13952562212944,0.31380969285965,2.96998929977417,5.04968500137329,1.57025611400604,0.117936618626118,2011-11-10 18:00:25
0.999984443187714,99,10.3193473815918,0.396251738071442,0.484512746334076,1.51758539676666,0.350321978330612,23.9207725524902,41.6273765563965,16.4146938323975,-2.57470989227295,0.72062611579895,0.887849807739258,2.17538642883301,30.9677753448486,422.038421630859,43.5790367126465,41.5928611755371,0.756857931613922,0.735400259494781,0.941392600536346,2.05930352210999,282.217834472656,206.663436889648,129.727035522461,36.8955841064453,2011-11-10 18:00:26
1.01000308990479,85,10.1780052185059,1.69711875915527,2.68310856819153,9.39698791503906,6.28156852722168,924.529174804688,3516.66357421875,3328.4541015625,-1.26909589767456,2.27053427696228,2.84959721565247,6.09580659866333,145.73908996582,4022.11474609375,1706.81323242188,779.408569335938,0.178015947341919,1.69188046455383,1.98245167732239,5.52976083755493,538.662780761719,2765.53149414062,338.799743652344,212.857788085938,2011-11-10 18:00:27
0.989998877048492,99,10.648247718811,3.19810819625854,3.8678457736969,8.62028789520264,224.366836547852,8919.388671875,3864.08520507812,2104.63427734375,-2.08213329315186,3.14221668243408,4.6309380531311,14.3021383285522,42.8603515625,6825.6083984375,6867.82080078125,2875.23852539062,0.697268903255463,1.95396947860718,2.77629494667053,7.63087701797485,397.318115234375,568.561584472656,1025.298828125,567.157348632812,2011-11-10 18:00:28
1.00998091697693,75,9.76527786254883,3.28298044204712,3.94992780685425,8.96695518493652,109.647682189941,4970.99755859375,6276.37841796875,1441.6376953125,-1.81218719482422,3.30217146873474,4.93132495880127,17.5564575195312,445.762268066406,5125.08837890625,14359.9775390625,4566.650390625,1.01743996143341,1.49101936817169,2.54808235168457,11.0539331436157,211.309097290039,601.190002441406,534.724670410156,2028.75036621094,2011-11-10 18:00:29
0.990009665489197,99,10.4129877090454,3.50433158874512,4.15749883651733,8.74062633514404,188.074920654297,13595.9169921875,4015.26538085938,832.848815917969,-2.16339087486267,3.18053555488586,4.58945560455322,18.3673477172852,13.7444972991943,5669.91650390625,2219.21557617188,1245.34240722656,0.367981553077698,1.69201385974884,2.54309463500977,10.9407768249512,573.236145019531,321.431610107422,631.070678710938,1000.5009765625,2011-11-10 18:00:30
1.01002538204193,99,10.2168083190918,3.28495502471924,4.10595417022705,8.82188415527344,259.594818115234,9851.447265625,3936.49560546875,2177.65014648438,-2.01132297515869,3.15917944908142,4.64968538284302,18.5217361450195,2.79269361495972,3730.80151367188,2702.724609375,1328.86462402344,0.473616629838943,1.65667319297791,2.49652099609375,11.1613330841064,143.861465454102,219.345428466797,753.897827148438,335.447662353516,2011-11-10 18:00:31
1.00990879535675,95,9.93689441680908,3.46216678619385,4.20166015625,9.25502681732178,1814.94189453125,12048.6806640625,3056.52783203125,669.674255371094,-2.8403799533844,2.65653920173645,3.69481706619263,12.8002586364746,237.313873291016,4305.91064453125,4718.6767578125,1742.4306640625,0.48831632733345,1.54470014572144,2.33444905281067,10.0651235580444,488.707214355469,311.798828125,667.009338378906,279.813629150391,2011-11-10 18:00:32
0.99005925655365,99,10.1982345581055,3.46974897384644,4.24399328231812,8.95537948608398,1364.77954101562,9743.5732421875,2110.46362304688,779.00048828125,-2.18002939224243,3.3376886844635,4.80425882339478,18.3839855194092,3.7047324180603,3189.58154296875,660.598266601562,2283.7958984375,0.738284707069397,1.2541835308075,2.14315032958984,11.0429286956787,179.999664306641,126.123435974121,174.846969604492,155.635192871094,2011-11-10 18:00:33
1.09040904045105,98,10.0572109222412,3.23936986923218,3.79919338226318,8.06210708618164,3257.89282226562,9100.2685546875,919.697875976562,348.27587890625,-1.96656787395477,2.94376921653748,4.22760629653931,16.5233135223389,0.251065760850906,3052.34838867188,911.495849609375,1272.96264648438,0.508938848972321,1.63213360309601,2.47749018669128,10.9285039901733,28.8619441986084,103.609069824219,512.016296386719,251.578231811523,2011-11-10 18:00:34
0.989606380462646,99,10.4973411560059,3.17878460884094,3.92137241363525,8.46473693847656,943.896118164062,8853.423828125,1378.23828125,196.889343261719,-2.00938820838928,2.9925365447998,4.34143877029419,16.0298328399658,85.4704895019531,3066.91528320312,1520.68884277344,1600.84973144531,0.438791871070862,1.52455019950867,2.31103444099426,10.2837495803833,147.702713012695,101.950706481934,390.127471923828,658.368225097656,2011-11-10 18:00:35
0.990101337432861,99,10.0155982971191,3.36020159721375,4.02658557891846,8.75494194030762,2796.78125,10343.9794921875,1391.08605957031,529.405883789062,-2.22143220901489,3.07198858261108,4.3720326423645,17.4677085876465,44.198184967041,3177.24829101562,1141.93151855469,1622.0068359375,0.356760233640671,1.35189604759216,2.18638920783997,11.1593980789185,99.2830200195312,160.125137329102,191.764007568359,295.145629882812,2011-11-10 18:00:36
1.00990581512451,90,10.837965965271,3.87554693222046,4.79365873336792,9.30567646026611,466.608215332031,16147.0751953125,3467.44653320312,327.839294433594,-2.10774874687195,3.22607374191284,4.4990439414978,14.5575971603394,0.71795529127121,4713.041015625,2591.36865234375,1872.86840820312,-0.0617171861231327,1.91484105587006,2.58240914344788,8.36587238311768,16.9911670684814,263.269287109375,1134.57873535156,402.470520019531,2011-11-10 18:00:37
0.989995360374451,99,10.5135927200317,3.24425983428955,4.05065155029297,8.94299602508545,2395.32934570312,5887.13134765625,1251.51232910156,277.428070068359,-2.61340403556824,2.65132451057434,3.34173655509949,11.0793008804321,415.490051269531,3718.71655273438,498.507293701172,831.505310058594,0.985927402973175,2.14913654327393,3.13872647285461,9.01225852966309,213.126678466797,336.646392822266,804.987365722656,1675.046875,2011-11-10 18:00:38
1.00156331062317,95,10.1368989944458,3.36543297767639,4.040358543396,8.55702686309814,2007.27905273438,7401.515625,764.217041015625,532.794128417969,-2.94884991645813,2.72907900810242,3.37538146972656,10.9167528152466,208.158264160156,4014.61938476562,557.757385253906,554.757568359375,0.685497760772705,1.53632140159607,2.47665214538574,9.38123798370361,19.2767753601074,238.339965820312,266.088775634766,194.690322875977,2011-11-10 18:00:39
0.99840122461319,99,10.4373645782471,3.35640239715576,4.08359050750732,8.67794227600098,1333.68505859375,4987.28955078125,272.188812255859,403.909240722656,-2.11154079437256,2.71773767471313,3.99486494064331,14.6380043029785,22.8116607666016,1663.48278808594,807.852111816406,413.776733398438,1.06795907020569,1.28450572490692,1.92179906368256,8.12577533721924,177.147918701172,517.851013183594,231.880722045898,52.486930847168,2011-11-10 18:00:40
1.00002038478851,97,10.9708738327026,3.17544889450073,3.81971049308777,8.48919773101807,0.364919036626816,3828.392578125,325.928283691406,304.259704589844,-1.79964983463287,2.90592622756958,4.54056549072266,16.9310035705566,107.564483642578,1732.49877929688,1131.90612792969,369.077850341797,0.859740555286407,1.36191165447235,2.37270259857178,12.3136005401611,196.034774780273,208.287017822266,170.860748291016,117.588203430176,2011-11-10 18:00:41
1.0099151134491,98,10.5419139862061,2.97799205780029,3.82999801635742,8.91815757751465,127.824478149414,2506.953125,392.360382080078,843.143371582031,-1.87392699718475,3.06920504570007,4.28403425216675,14.1705465316772,230.125946044922,4557.65869140625,1288.02941894531,543.804626464844,0.745036482810974,1.30268502235413,2.02853512763977,8.25325298309326,328.766693115234,397.292358398438,303.032348632812,243.532012939453,2011-11-10 18:00:42
1.00006353855133,99,10.6826858520508,3.39748072624207,4.16980075836182,8.81569290161133,219.530288696289,3879.40551757812,619.340026855469,516.147705078125,-2.38897800445557,3.41106677055359,4.4641637802124,14.0726823806763,68.9596099853516,6902.68505859375,3775.09936523438,530.942993164062,0.908926010131836,1.65934669971466,2.54182934761047,8.7444953918457,286.515533447266,815.927673339844,895.586975097656,843.135803222656,2011-11-10 18:00:43
1.01997828483582,91,9.96745586395264,3.14464354515076,3.97766947746277,9.26277256011963,138.679321289062,4010.81372070312,575.337036132812,1466.60290527344,-1.81391036510468,3.99015021324158,5.04418230056763,14.6468315124512,865.53369140625,9583.8134765625,4161.46142578125,1216.72143554688,0.961469292640686,1.60018825531006,2.14113450050354,6.35521125793457,914.472045898438,992.276672363281,448.960510253906,399.873657226562,2011-11-10 18:00:44
1.00003814697266,99,9.71146202087402,2.95062971115112,3.72289419174194,9.32723045349121,101.38826751709,3309.77783203125,903.393127441406,2336.35888671875,-1.90104448795319,2.36619138717651,4.30118370056152,17.6070079803467,284.785369873047,3148.94091796875,7918.36865234375,5070.2236328125,0.446530699729919,2.08489656448364,3.171147108078,12.5516138076782,95.4064178466797,3678.28002929688,2433.28051757812,412.274353027344,2011-11-10 18:00:45
1.00002264976501,98,10.2886171340942,3.03786206245422,3.75501322746277,8.29038715362549,456.833099365234,4008.3720703125,1439.15563964844,2635.77465820312,-2.18937516212463,2.88209629058838,4.67207622528076,17.3207302093506,80.9118423461914,8250.21875,9820.4052734375,4451.78955078125,0.603534281253815,1.55567860603333,2.50684142112732,11.4444799423218,206.430419921875,1075.65344238281,914.621826171875,733.761901855469,2011-11-10 18:00:46
1.00999629497528,77,11.1837205886841,2.61848521232605,3.29654908180237,8.123122215271,1867.29211425781,3808.88989257812,524.508361816406,384.913665771484,-1.50243926048279,3.63786196708679,5.14103174209595,16.4422569274902,1040.84204101562,6443.70751953125,3165.2705078125,669.081237792969,0.962655663490295,1.72573113441467,2.72513914108276,10.5394630432129,405.425262451172,719.598449707031,120.664115905762,426.068359375,2011-11-10 18:00:47
1.00009667873383,99,10.3270864486694,3.45884442329407,4.38501691818237,9.40771293640137,1331.47509765625,9803.1669921875,4969.8056640625,2021.18994140625,-2.27947354316711,3.03456854820251,4.5292329788208,19.0197315216064,5.26036596298218,6705.6845703125,12097.2998046875,6135.12353515625,1.02229988574982,1.4606306552887,2.33752822875977,10.7140283584595,0.346168369054794,682.861694335938,802.31884765625,2570.32861328125,2011-11-10 18:00:48
1.00986874103546,98,10.6165742874146,3.32625102996826,3.99183297157288,8.42211818695068,711.851013183594,8553.052734375,3446.97045898438,3448.92797851562,-2.01230216026306,3.31910347938538,4.98231172561646,18.4844093322754,0.95072728395462,7741.955078125,14409.701171875,7399.25537109375,0.365482211112976,1.6553555727005,2.56727337837219,11.3979635238647,26.215784072876,973.781066894531,1262.85681152344,2739.22607421875,2011-11-10 18:00:49
1.00001108646393,99,10.8927955627441,2.94879269599915,3.55564546585083,7.18821573257446,165.042724609375,10679.5302734375,3991.572265625,999.194152832031,-1.93896472454071,2.66331577301025,3.86162185668945,12.7032957077026,88.347053527832,6079.474609375,5023.46875,2955.81811523438,0.509602189064026,1.61396896839142,2.28413963317871,6.86860179901123,471.654174804688,476.823822021484,1299.15502929688,1540.14038085938,2011-11-10 18:00:50
1.00001800060272,98,10.6310367584229,2.37074828147888,2.90025067329407,5.84263372421265,0.290077030658722,4840.8017578125,2405.205078125,1050.19750976562,-1.13749003410339,2.8418824672699,4.03004837036133,10.7909116744995,40.1891059875488,5046.04150390625,5922.0400390625,1495.08972167969,-0.0859958156943321,1.47812283039093,1.96469783782959,4.83609199523926,56.0756797790527,1031.98693847656,640.531127929688,353.141143798828,2011-11-10 18:00:51
0.989941895008087,99,10.4516820907593,3.04711508750916,3.85507941246033,8.93177509307861,869.978393554688,7205.3203125,2113.87646484375,1127.28125,-1.62438118457794,3.17429757118225,4.4966893196106,12.0896062850952,173.314208984375,3842.43017578125,5373.541015625,1721.67602539062,0.627232491970062,1.75175142288208,2.48933911323547,9.93588829040527,490.153747558594,303.610260009766,1856.34655761719,504.56298828125,2011-11-10 18:00:52
1.00004994869232,92,10.4062414169312,3.3796169757843,4.2157301902771,8.47922039031982,1979.7880859375,11909.173828125,1676.19592285156,509.573822021484,-1.81959331035614,2.38212656974792,3.38443064689636,9.71088218688965,0.628456771373749,3279.87866210938,1514.44616699219,696.687744140625,0.767810106277466,1.44379866123199,1.99253559112549,7.35665273666382,72.9452209472656,178.140762329102,221.143112182617,674.696533203125,2011-11-10 18:00:53
0.999979019165039,99,10.1448373794556,3.02593874931335,3.80040216445923,8.24263095855713,2402.08154296875,5622.6171875,778.880554199219,171.692733764648,-2.68460130691528,2.15904068946838,2.82673192024231,9.80355453491211,822.149353027344,2351.69848632812,1542.04150390625,1467.30322265625,0.28362825512886,1.52434694766998,2.3548595905304,12.1588687896729,19.8385715484619,478.974182128906,304.377593994141,398.272674560547,2011-11-10 18:00:54
1.00161230564117,88,9.85366344451904,3.41836595535278,4.21581935882568,9.14672183990479,3871.40161132812,10870.5810546875,1307.13830566406,847.860046386719,-1.95976293087006,2.89718198776245,4.30307245254517,16.8612747192383,120.632751464844,2970.2041015625,1053.59619140625,175.064987182617,1.13354563713074,1.15182864665985,1.66316533088684,6.83435726165771,619.385498046875,392.306823730469,211.983276367188,239.511306762695,2011-11-10 18:00:55
0.988542914390564,99,10.7925777435303,3.07914113998413,3.58559799194336,7.90134859085083,119.285247802734,4226.18359375,243.667449951172,141.656021118164,-1.82752561569214,3.07272338867188,4.83772945404053,19.6020793914795,159.059280395508,1500.34265136719,1219.31555175781,740.076782226562,0.862879931926727,1.51746022701263,2.51620221138,11.2441377639771,78.5126342773438,626.863891601562,250.474395751953,208.788360595703,2011-11-10 18:00:56
1.00985360145569,91,10.6094179153442,3.26149415969849,3.89433550834656,8.27604389190674,790.497436523438,4443.7314453125,389.601715087891,394.357360839844,-1.68593895435333,3.09784770011902,4.91264486312866,18.7709636688232,4.71610975265503,1654.703125,1798.70153808594,1304.61853027344,0.38896569609642,1.44265723228455,2.29558992385864,11.3065252304077,155.587020874023,452.318115234375,271.867065429688,245.462509155273,2011-11-10 18:00:57
1.00994849205017,99,10.4006052017212,3.08105635643005,3.82198071479797,8.17839908599854,2.49834871292114,2472.69702148438,252.562484741211,347.422607421875,-1.98926723003387,3.06217050552368,4.62337112426758,17.1206207275391,10.5896682739258,3362.56884765625,1977.30456542969,925.768310546875,0.47709909081459,1.41198539733887,2.18983483314514,11.1265087127686,481.993743896484,844.101013183594,51.9518508911133,60.8819465637207,2011-11-10 18:00:58
1.00422394275665,98,10.4352016448975,3.17235207557678,3.89792466163635,8.06718826293945,86.4204330444336,2404.95654296875,180.4267578125,505.558746337891,-1.92552447319031,3.02408504486084,4.82091379165649,19.2020835876465,60.147632598877,3227.44067382812,2858.62084960938,2573.92065429688,0.662949562072754,1.38027274608612,2.15428352355957,10.8909788131714,586.420837402344,1152.17834472656,165.319107055664,81.7140274047852,2011-11-10 18:00:59
1.00070810317993,99,9.90686798095703,2.93745803833008,3.79668188095093,9.17013168334961,1.01783990859985,2252.17431640625,849.9013671875,1642.96508789062,-2.02293109893799,3.16483902931213,4.79653835296631,18.1119651794434,66.1788330078125,6396.69921875,6539.8330078125,3936.85473632812,0.629167199134827,1.4635306596756,2.36944389343262,12.0447206497192,272.647064208984,1418.80944824219,530.931091308594,208.321380615234,2011-11-10 18:01:00
1.00513422489166,99,10.1951398849487,3.09381365776062,3.71421098709106,8.99678134918213,239.805969238281,4374.5693359375,1723.27868652344,1315.86499023438,-1.8735716342926,3.07266879081726,4.44973230361938,16.8516979217529,233.663040161133,7509.4794921875,7307.05517578125,4128.35693359375,0.629554092884064,1.38298428058624,2.13782048225403,9.51683044433594,339.638793945312,1160.50036621094,373.434173583984,851.410888671875,2011-11-10 18:01:01
0.98998886346817,99,9.84960079193115,3.3677761554718,4.19302558898926,8.72940349578857,1340.94116210938,4657.015625,1286.51428222656,4362.76318359375,-2.55652379989624,2.91670393943787,4.78522968292236,19.488317489624,19.2930679321289,4651.8701171875,11671.9453125,9721.2890625,0.528175413608551,1.55810856819153,2.50523257255554,11.8671140670776,34.7531318664551,2737.62939453125,2346.91381835938,462.454986572266,2011-11-10 18:01:02
1.00000250339508,90,10.7817821502686,3.16948318481445,3.89817571640015,8.7898063659668,1276.6953125,2594.4794921875,1995.5830078125,2894.08032226562,-2.44144725799561,3.49282455444336,5.10134983062744,18.6454029083252,261.765594482422,5513.642578125,9482.3203125,7749.02685546875,0.578864753246307,1.44073009490967,2.36710858345032,11.2282743453979,184.606094360352,1955.98547363281,428.313842773438,785.723327636719,2011-11-10 18:01:03
0.990007400512695,99,10.2264814376831,3.56656265258789,4.25922298431396,9.04205417633057,1096.65625,10050.826171875,3393.78271484375,3100.11474609375,-2.36305284500122,3.47926235198975,4.88498830795288,18.950080871582,1.36283147335052,6676.455078125,10138.779296875,8649.9921875,0.775044202804565,1.71635603904724,2.68809151649475,12.6885919570923,10.9481945037842,727.697570800781,1127.32409667969,2272.12036132812,2011-11-10 18:01:04
1.00997614860535,89,9.93577575683594,3.48978304862976,4.39178705215454,9.52429580688477,278.796630859375,7659.3505859375,9459.8837890625,989.188171386719,-2.14305257797241,2.81515789031982,4.48461484909058,17.3510208129883,24.9355945587158,7139.1630859375,13062.1015625,4129.58154296875,0.584077596664429,1.66242051124573,2.60779047012329,10.9270286560059,47.1486930847168,1664.10485839844,1904.974609375,420.700012207031,2011-11-10 18:01:05
0.99003142118454,99,10.5205574035645,3.3217887878418,3.94911003112793,8.28829002380371,509.303955078125,12138.5703125,3079.02392578125,1682.02661132812,-2.12392282485962,3.0913200378418,4.3946647644043,14.4971570968628,11.1028604507446,5249.70751953125,4608.9384765625,4302.1796875,0.645031750202179,1.72667443752289,2.39936757087708,8.03832626342773,791.161865234375,832.880615234375,1438.28503417969,547.383361816406,2011-11-10 18:01:06
1.00002372264862,98,10.5000886917114,3.64341449737549,4.38207960128784,8.84506130218506,181.930862426758,15914.734375,4890.0078125,1132.63830566406,-2.21595573425293,3.17681932449341,4.55715847015381,17.3090038299561,27.0433025360107,5330.03955078125,4241.73291015625,3749.60278320312,0.70125675201416,1.51239359378815,2.42258501052856,10.3929853439331,386.802978515625,300.690307617188,833.23876953125,718.335205078125,2011-11-10 18:01:07
0.99080103635788,99,10.3994445800781,3.41221594810486,4.216148853302,8.5990047454834,2.57589101791382,16050.4873046875,3100.11450195312,895.709045410156,-2.31507205963135,3.19545030593872,4.70689964294434,18.8637943267822,66.9037933349609,4003.0244140625,2786.19775390625,3089.91821289062,0.559517681598663,1.69466388225555,2.77086424827576,11.9367637634277,370.601531982422,321.066986083984,561.276062011719,1082.23254394531,2011-11-10 18:01:08
1.00181412696838,98,10.1177988052368,3.35734677314758,4.19055557250977,8.72935581207275,56.4294776916504,13694.2421875,2643.47998046875,1137.25476074219,-1.99940276145935,2.92659401893616,4.48247909545898,17.8202877044678,158.139801025391,2935.05126953125,1543.55383300781,2778.85864257812,0.697738766670227,1.70913887023926,2.6580913066864,11.9600629806519,462.377258300781,232.766952514648,550.602966308594,802.248107910156,2011-11-10 18:01:09
0.987329185009003,99,10.5321655273438,3.69189262390137,4.50482988357544,8.88959884643555,297.775909423828,15525.0302734375,3119.21606445312,831.852783203125,-1.99932765960693,3.27946758270264,4.63720512390137,14.4491758346558,38.944034576416,3870.26928710938,2689.74267578125,1894.47863769531,0.576930046081543,1.31794679164886,2.00196528434753,8.85129070281982,429.652984619141,244.228012084961,393.363830566406,262.822875976562,2011-11-10 18:01:10
1.00002491474152,97,10.5254039764404,3.3208281993866,4.14183187484741,8.93466758728027,741.361450195312,7857.03564453125,3033.88354492188,950.091491699219,-2.05279350280762,3.40437197685242,4.66717720031738,16.8393821716309,6.65038108825684,3077.60180664062,450.45263671875,2632.14453125,0.757456302642822,1.63361656665802,2.53549194335938,11.1004076004028,791.894348144531,799.170043945312,416.542938232422,437.816375732422,2011-11-10 18:01:11
0.999979436397552,99,10.1409673690796,3.07541251182556,3.88216090202332,8.59126567840576,3394.01586914062,7387.24365234375,1151.36303710938,411.325653076172,-2.3951690196991,3.22367763519287,4.7438645362854,18.5225105285645,229.90705871582,3524.181640625,1451.69470214844,1500.78845214844,0.779300570487976,1.27858817577362,2.41942000389099,11.5819387435913,33.4389801025391,107.212799072266,119.401100158691,104.032318115234,2011-11-10 18:01:12
1.00004315376282,97,10.4709053039551,2.50594973564148,3.25454998016357,7.68671989440918,1360.55432128906,3225.75610351562,317.113433837891,276.583953857422,-3.07642579078674,2.51235795021057,3.06549310684204,8.45405006408691,2765.45556640625,3647.18701171875,591.349487304688,739.73828125,0.907920777797699,0.979832828044891,1.38658881187439,5.00679397583008,6.9976863861084,212.635116577148,340.906463623047,128.270278930664,2011-11-10 18:01:13
0.989975392818451,99,10.4377517700195,2.82501029968262,3.88063549995422,9.09893417358398,1792.72204589844,1012.85809326172,231.490036010742,1167.384765625,-1.28387248516083,3.35492515563965,4.602952003479,15.4192390441895,739.810546875,3479.01391601562,973.182006835938,1120.10986328125,0.301427572965622,1.49649500846863,2.24303722381592,8.19271659851074,1393.56555175781,1043.65808105469,31.4041595458984,228.602828979492,2011-11-10 18:01:14
1.01002442836761,88,11.3215265274048,2.81763887405396,3.47339177131653,9.63600826263428,1619.65380859375,3922.6455078125,1247.43359375,282.601043701172,-1.81567549705505,2.92797994613647,3.93563866615295,12.0437049865723,723.421997070312,7999.1953125,2070.07763671875,408.578826904297,0.645999133586884,1.86850619316101,2.43804287910461,7.77114295959473,1428.20202636719,1037.27392578125,587.374450683594,328.748260498047,2011-11-10 18:01:15
0.989971399307251,99,10.0550661087036,2.9518256187439,3.77754521369934,8.83039569854736,1107.41369628906,4447.595703125,3422.49584960938,4953.12890625,-2.45630574226379,3.02623581886292,4.6402268409729,17.6259670257568,251.468124389648,8539.076171875,12932.5556640625,5191.74951171875,0.509989142417908,1.96582794189453,2.60168385505676,8.97588539123535,1.03904151916504,833.497131347656,2263.38110351562,590.2353515625,2011-11-10 18:01:16
1.00999200344086,92,10.8109655380249,3.00469136238098,3.69366598129272,8.41926288604736,87.912109375,3695.39526367188,6158.05517578125,2259.46264648438,-2.08482909202576,2.96115231513977,4.49107599258423,18.5952434539795,6.05146217346191,7326.59765625,10229.4375,6269.73876953125,0.457604795694351,1.55818629264832,2.39113426208496,9.95779705047607,289.602996826172,2064.32470703125,1038.53735351562,788.753234863281,2011-11-10 18:01:17
1.00001966953278,99,10.2392511367798,3.6631965637207,4.4209418296814,9.29743480682373,1360.39172363281,13243.2763671875,3816.56494140625,2716.74853515625,-2.47139644622803,3.3986611366272,4.95881652832031,17.2579860687256,76.7643051147461,6985.830078125,8761.18359375,5527.36181640625,0.518114924430847,1.51441943645477,2.41480350494385,11.7421321868896,539.958923339844,1424.61352539062,1867.20483398438,800.166320800781,2011-11-10 18:01:18
1.00999891757965,99,10.1904964447021,4.06366920471191,4.77227783203125,8.9631175994873,1151.56591796875,12083.279296875,5984.79931640625,4465.15234375,-2.54181981086731,3.51217985153198,4.98421859741211,18.2477836608887,5.57130718231201,10482.923828125,8661.16015625,5886.58447265625,0.630714952945709,1.93240237236023,2.95116281509399,11.7398109436035,140.244964599609,570.317199707031,1397.85192871094,3250.49365234375,2011-11-10 18:01:19
0.989997625350952,99,10.2218379974365,3.9346342086792,4.74936485290527,9.31484794616699,1439.30395507812,15054.0712890625,5357.38818359375,2788.10961914062,-2.42341566085815,3.71510910987854,5.11836671829224,16.8652400970459,36.1913719177246,7664.43994140625,9491.783203125,4125.1650390625,0.711585760116577,2.02229785919189,2.98363518714905,12.3952903747559,80.9532775878906,426.480804443359,1489.080078125,3365.0947265625,2011-11-10 18:01:20
1.0099104642868,95,9.78285884857178,3.39510250091553,4.27678298950195,9.40906238555908,1538.32946777344,11301.15234375,3734.75854492188,2231.78735351562,-2.34036993980408,3.15373110771179,4.75199508666992,18.8124771118164,60.3215675354004,4055.40942382812,5542.40283203125,8428.0615234375,0.856468915939331,1.39648830890656,2.00396633148193,5.49164342880249,2.77649641036987,331.375152587891,149.431777954102,114.641815185547,2011-11-10 18:01:21
1.00006234645844,95,9.79334354400635,3.7118067741394,4.74430990219116,9.71672916412354,1201.85107421875,12924.189453125,5076.6728515625,3672.45166015625,-2.75408792495728,3.51199793815613,5.00540351867676,18.0769786834717,217.792617797852,4662.783203125,7677.38818359375,7450.59228515625,0.722192049026489,1.67084872722626,2.6282217502594,12.3675889968872,303.290130615234,1022.04400634766,1990.03894042969,1722.53051757812,2011-11-10 18:01:22
1.00001454353333,98,10.1482877731323,4.02584838867188,4.82778596878052,9.04363346099854,498.654449462891,15418.7060546875,7080.09765625,2885.87841796875,-2.37113904953003,3.38715028762817,4.93394613265991,19.8775424957275,0.364299803972244,5481.21337890625,7145.75341796875,6213.55712890625,0.643014192581177,1.9541152715683,2.9386260509491,12.0202598571777,217.543167114258,430.811309814453,805.715454101562,3460.970703125,2011-11-10 18:01:23
0.990006566047668,99,10.1150426864624,3.79092621803284,4.6953763961792,9.42164325714111,1170.53149414062,16836.669921875,4925.39306640625,2415.73022460938,-2.65364599227905,3.52679753303528,4.8360276222229,18.2446880340576,183.339752197266,5043.3525390625,6041.00439453125,4417.302734375,0.565708756446838,1.79250144958496,2.8669855594635,12.4409494400024,471.833862304688,1234.56896972656,2570.14892578125,1258.81604003906,2011-11-10 18:01:24
1.00002086162567,87,9.16819667816162,3.74882435798645,4.70081567764282,10.3301820755005,577.906860351562,8540.6474609375,5150.2802734375,4749.359375,-3.04960751533508,3.83862805366516,5.42566823959351,19.2535648345947,24.107593536377,9654.728515625,12925.8662109375,7510.80908203125,0.432387292385101,2.383793592453,3.42293810844421,13.9165315628052,7.50997972488403,1133.69226074219,2975.16943359375,4546.82568359375,2011-11-10 18:01:25
