"diffSecs","latitude","longitude","altitude","time"
1.08599996566772,42.3863911628723,-71.0135436058044,50,2012-02-03 08:08:49
0.82699990272522,42.3863911628723,-71.0135436058044,50,2012-02-03 08:08:49
1,42.3863911628723,-71.0135436058044,50,2012-02-03 08:08:50
1.0090000629425,42.3863911628723,-71.0135436058044,50,2012-02-03 08:08:51
0.991999864578247,42.3863911628723,-71.0135436058044,50,2012-02-03 08:08:52
1.56600022315979,42.3863911628723,-71.0135436058044,50,2012-02-03 08:08:54
0.434999942779541,42.3727762699127,-70.9938186407089,50,2012-02-03 08:08:54
1.40999984741211,42.3727762699127,-70.9938186407089,50,2012-02-03 08:08:56
0.592000007629395,42.3727762699127,-70.9938186407089,50,2012-02-03 08:08:56
0.581000089645386,42.3727762699127,-70.9938186407089,50,2012-02-03 08:08:57
0.871000051498413,42.3727762699127,-70.9938186407089,50,2012-02-03 08:08:58
1.00499987602234,42.3727762699127,-70.9938186407089,50,2012-02-03 08:08:59
1.00200009346008,42.3727762699127,-70.9938186407089,50,2012-02-03 08:09:00
1.2039999961853,42.3727762699127,-70.9938186407089,50,2012-02-03 08:09:01
0.793999910354614,42.3727762699127,-70.9938186407089,50,2012-02-03 08:09:02
1.11300015449524,42.3727762699127,-70.9938186407089,50,2012-02-03 08:09:03
1.05199980735779,42.3834729194641,-70.9997248649597,50,2012-02-03 08:09:04
0.837000131607056,42.3834729194641,-70.9997248649597,50,2012-02-03 08:09:05
1.38899993896484,42.3834729194641,-70.9997248649597,50,2012-02-03 08:09:06
0.613000154495239,42.3834729194641,-70.9997248649597,50,2012-02-03 08:09:07
1.3219997882843,42.3834729194641,-70.9997248649597,50,2012-02-03 08:09:08
2.67400002479553,42.3834729194641,-70.9997248649597,50,2012-02-03 08:09:11
1.11500000953674,42.3834729194641,-70.9997248649597,50,2012-02-03 08:09:12
0.886000156402588,42.3834729194641,-70.9997248649597,50,2012-02-03 08:09:13
1.00300002098083,42.3834729194641,-70.9997248649597,50,2012-02-03 08:09:14
1.06699991226196,42.3834729194641,-70.9997248649597,50,2012-02-03 08:09:15
0.934999942779541,42.3834729194641,-70.9997248649597,50,2012-02-03 08:09:16
1.21900010108948,42.3834729194641,-70.9997248649597,50,2012-02-03 08:09:17
0.781999826431274,42.3834729194641,-70.9997248649597,50,2012-02-03 08:09:18
1.31800007820129,42.3834729194641,-70.9997248649597,50,2012-02-03 08:09:19
0.681999921798706,42.3834729194641,-70.9997248649597,50,2012-02-03 08:09:20
1.27400016784668,42.3834729194641,-70.9997248649597,50,2012-02-03 08:09:21
0.73199987411499,42.3834729194641,-70.9997248649597,50,2012-02-03 08:09:22
1.24699997901917,42.3834729194641,-70.9997248649597,50,2012-02-03 08:09:23
0.755000114440918,42.3834729194641,-70.9997248649597,50,2012-02-03 08:09:24
1.09100008010864,42.3863911628723,-71.0135436058044,50,2012-02-03 08:09:25
0.908999919891357,42.3863911628723,-71.0135436058044,50,2012-02-03 08:09:26
1.06399989128113,42.3863911628723,-71.0135436058044,50,2012-02-03 08:09:27
1.37199997901917,42.3863911628723,-71.0135436058044,50,2012-02-03 08:09:28
0.569000005722046,42.3863911628723,-71.0135436058044,50,2012-02-03 08:09:29
1.06599998474121,42.3863911628723,-71.0135436058044,50,2012-02-03 08:09:30
