"diffSecs","level","azimuth.mean","azimuth.absolute.deviation","azimuth.standard.deviation","azimuth.max.deviation","pitch.mean","pitch.absolute.deviation","pitch.standard.deviation","pitch.max.deviation","roll.mean","roll.absolute.deviation","roll.standard.deviation","roll.max.deviation","time"
1.00400018692017,8,28.625,0.900000095367432,1.01827073097229,1.625,-28.4375,0.421875,0.458087056875229,0.662500381469727,5.875,0.631250023841858,0.746240615844727,1.375,2012-01-27 16:58:15
1.01699995994568,43,20.3488368988037,3.02898859977722,3.90428352355957,9.34883785247803,-32.639533996582,1.82379674911499,2.09707903862,3.43953490257263,7.98604679107666,0.694645822048187,0.81742125749588,1.48604667186737,2012-01-27 16:58:16
1.00999999046326,46,-1.40434789657593,4.38185262680054,4.99682331085205,11.3043479919434,-37.6173934936523,0.557845115661621,0.701955378055573,1.81739270687103,2.13260865211487,4.52967882156372,4.9325475692749,7.23260879516602,2012-01-27 16:58:17
1.08500003814697,39,-10.8666667938232,0.965811908245087,1.17458844184875,2.96666669845581,-36.1948738098145,0.516765177249908,0.599550485610962,1.20512902736664,-10.4153842926025,1.58974361419678,1.92294359207153,4.81538486480713,2012-01-27 16:58:18
1.00599980354309,49,-6.40000009536743,1.4244898557663,1.71832859516144,3.40000009536743,-37.4183692932129,0.410911858081818,0.532484769821167,1.41836810112,-6.25510215759277,2.48296546936035,2.78260350227356,4.54489803314209,2012-01-27 16:58:19
1.01500010490417,43,-4,0.437209337949753,0.528270602226257,1.10000002384186,-37.6651153564453,0.318226039409637,0.37159863114357,0.665117144584656,-1.21395349502563,0.393077343702316,0.51470535993576,1.21395349502563,2012-01-27 16:58:20
1.01500010490417,41,-3.80731725692749,0.451397985219955,0.616595804691315,1.70731699466705,-35.1219520568848,1.34610342979431,1.64116442203522,4.12195205688477,7.26885884816397e-10,0.687804877758026,1.06907761096954,3.10000014305115,2012-01-27 16:58:21
1,45,-1.84666669368744,1.98370373249054,2.20197892189026,4.24666690826416,-31.2422218322754,0.485037118196487,0.571737766265869,0.957777976989746,4.73555564880371,1.40869140625,1.61247301101685,3.66444492340088,2012-01-27 16:58:22
1.00799989700317,39,5.03076934814453,1.33136093616486,1.48585712909698,2.53076934814453,-31.2051277160645,0.29783034324646,0.331236004829407,0.694871246814728,10.3051280975342,0.52781069278717,0.644085049629211,1.60512852668762,2012-01-27 16:58:23
1.01399993896484,43,5.30232572555542,0.747106552124023,0.870842516422272,1.49767446517944,-33.5139541625977,0.733910381793976,0.839319109916687,1.51395404338837,8.94651222229004,0.512709498405457,0.569923996925354,1.04651176929474,2012-01-27 16:58:24
1.00800013542175,47,7.50638294219971,0.86980539560318,1.04746997356415,2.50638318061829,-34.8404273986816,0.729923009872437,0.902869999408722,2.35957431793213,8.8361701965332,0.722498893737793,0.960812091827393,2.73617053031921,2012-01-27 16:58:25
