"diffSecs","level","azimuth.mean","azimuth.absolute.deviation","azimuth.standard.deviation","azimuth.max.deviation","pitch.mean","pitch.absolute.deviation","pitch.standard.deviation","pitch.max.deviation","roll.mean","roll.absolute.deviation","roll.standard.deviation","roll.max.deviation","time"
0,12,23.4166660308838,0.274305552244186,0.29682931303978,0.479166656732559,-54.0416679382324,0.263888895511627,0.31180477142334,0.666666686534882,-42.9166679382324,0.625,0.716860413551331,1.33333337306976,2011-12-14 07:42:58
1.01420903205872,11,23.0965900421143,0.400826454162598,0.455680400133133,0.840909063816071,-54.4431800842285,0.314049601554871,0.370670586824417,0.681818187236786,-42.9318199157715,0.326446294784546,0.440698176622391,0.931818187236786,2011-12-14 07:42:59
1.01535594463348,11,23.3465900421143,0.371900826692581,0.455680400133133,0.909090936183929,-54.2840919494629,0.342975199222565,0.443036109209061,0.840909063816071,-43.0681800842285,0.334710747003555,0.427611082792282,1.06818187236786,2011-12-14 07:43:00
1.01668405532837,11,22.9829540252686,0.194214880466461,0.233991593122482,0.454545468091965,-54.4886360168457,0.417355358600616,0.481045693159103,0.886363625526428,-42.8181800842285,0.223140493035316,0.263087213039398,0.431818187236786,2011-12-14 07:43:01
1.01767599582672,9,22.6597213745117,0.259259253740311,0.321551024913788,0.527777791023254,-53.9861106872559,0.265432089567184,0.291335791349411,0.388888895511627,-42.8333320617676,0.111111111938953,0.117851130664349,0.16666667163372,2011-12-14 07:43:02
1.01754999160767,9,23.3263893127441,0.314814805984497,0.355729132890701,0.638888895511627,-54.4027786254883,0.253086417913437,0.27498596906662,0.472222208976746,-43.0555572509766,0.185185179114342,0.229061424732208,0.444444447755814,2011-12-14 07:43:03
