"diffSecs","latitude","longitude","altitude","time"
0.296000003814697,42.90404238,-71.55766229,43.9000015258789,2012-01-25 18:32:00
0.674000024795532,42.90415536,-71.55769721,43.9000015258789,2012-01-25 18:32:00
1.20800018310547,42.90427523,-71.55772721,44,2012-01-25 18:32:02
2.31499981880188,42.90438409,-71.55773761,44.4000015258789,2012-01-25 18:32:04
0.552000045776367,42.90464711,-71.557778,43.9000015258789,2012-01-25 18:32:05
1.53200006484985,42.90479224,-71.55781156,43.9000015258789,2012-01-25 18:32:06
0.619999885559082,42.90493913,-71.55784266,43.9000015258789,2012-01-25 18:32:07
1.21800017356873,42.90508151,-71.55787199,43.9000015258789,2012-01-25 18:32:08
0.892999887466431,42.90522309,-71.55789845,43.9000015258789,2012-01-25 18:32:09
0.760999917984009,42.90533034,-71.55792965,44.0999984741211,2012-01-25 18:32:10
1.86100006103516,42.90548589,-71.5579732,43.7999992370605,2012-01-25 18:32:11
0.227999925613403,42.90563269,-71.55800577,43.7999992370605,2012-01-25 18:32:12
1.21700000762939,42.90577726,-71.55803507,43.7999992370605,2012-01-25 18:32:13
1.125,42.90591894,-71.55805912,43.9000015258789,2012-01-25 18:32:14
0.55400013923645,42.9060748,-71.55809468,43.7999992370605,2012-01-25 18:32:15
1.33299994468689,42.90619367,-71.55812781,43.7999992370605,2012-01-25 18:32:16
0.74399995803833,42.90634919,-71.55817858,43.7000007629395,2012-01-25 18:32:17
1.43600010871887,42.90649773,-71.55820657,43.7999992370605,2012-01-25 18:32:18
0.654999971389771,42.90662259,-71.55819991,43.7000007629395,2012-01-25 18:32:19
0.83299994468689,42.90677981,-71.55822099,43.7999992370605,2012-01-25 18:32:20
1.24699997901917,42.90694029,-71.55827138,44,2012-01-25 18:32:21
0.932000160217285,42.90708712,-71.55830194,44,2012-01-25 18:32:22
1.13199996948242,42.90719632,-71.55830724,44.2000007629395,2012-01-25 18:32:23
0.822000026702881,42.90733126,-71.55831678,44.2000007629395,2012-01-25 18:32:24
0.901999950408936,42.90746679,-71.5583527,44.2999992370605,2012-01-25 18:32:25
0.971999883651733,42.90764438,-71.55836529,44.2999992370605,2012-01-25 18:32:26
1.11300015449524,42.90778333,-71.55841281,44.2000007629395,2012-01-25 18:32:27
1,42.9078915,-71.55843085,44.5,2012-01-25 18:32:28
1.45999979972839,42.90800023,-71.55843428,44.5999984741211,2012-01-25 18:32:29
0.413000106811523,42.90809861,-71.55844955,44.5999984741211,2012-01-25 18:32:30
1.00699996948242,42.90823079,-71.55847381,44.5999984741211,2012-01-25 18:32:31
1.9520001411438,42.90839381,-71.55853741,45.9000015258789,2012-01-25 18:32:33
0.307999849319458,42.90853981,-71.55857999,45.4000015258789,2012-01-25 18:32:33
0.930999994277954,42.90868357,-71.55861519,45.5,2012-01-25 18:32:34
1.42000007629395,42.9088259,-71.55866517,45.5,2012-01-25 18:32:35
0.740999937057495,42.90897475,-71.55867564,45.5,2012-01-25 18:32:36
0.676000118255615,42.90912173,-71.55866963,46.4000015258789,2012-01-25 18:32:37
1.19299983978271,42.90924175,-71.55865127,46.5,2012-01-25 18:32:38
1.22000002861023,42.90938741,-71.55861005,46.4000015258789,2012-01-25 18:32:39
1.48300004005432,42.90951632,-71.55856164,47.0999984741211,2012-01-25 18:32:40
0.582000017166138,42.90961755,-71.55846827,47.5,2012-01-25 18:32:41
0.812000036239624,42.90967796,-71.55838284,47.5999984741211,2012-01-25 18:32:42
1.53099989891052,42.90975932,-71.55833617,47.7000007629395,2012-01-25 18:32:43
0.569000005722046,42.90984722,-71.55826996,47.7999992370605,2012-01-25 18:32:44
1.18799996376038,42.90987241,-71.55818533,48.0999984741211,2012-01-25 18:32:45
1.01300001144409,42.90988193,-71.55813655,48.5999984741211,2012-01-25 18:32:46
0.779000043869019,42.90991028,-71.55809355,48.7000007629395,2012-01-25 18:32:47
1.0460000038147,42.90991057,-71.55802213,48.7000007629395,2012-01-25 18:32:48
1.20499992370605,42.90993055,-71.55795117,48.9000015258789,2012-01-25 18:32:49
0.78600001335144,42.90997016,-71.55793889,51.2999992370605,2012-01-25 18:32:50
1.49900007247925,42.90997154,-71.55793351,52,2012-01-25 18:32:51
0.368000030517578,42.90999202,-71.55790881,53.2999992370605,2012-01-25 18:32:52
1.00099992752075,42.91000728,-71.55789309,53.9000015258789,2012-01-25 18:32:53
1.58899998664856,42.91005535,-71.55789892,53.7000007629395,2012-01-25 18:32:54
0.79800009727478,42.91011398,-71.55791588,53.5,2012-01-25 18:32:55
0.75,42.91016032,-71.55796212,53.7000007629395,2012-01-25 18:32:56
1.08599996566772,42.91019698,-71.55800239,54.2999992370605,2012-01-25 18:32:57
0.315000057220459,42.91025387,-71.55806119,54.2999992370605,2012-01-25 18:32:57
1.30200004577637,42.91031567,-71.55810745,54.4000015258789,2012-01-25 18:32:59
0.671999931335449,42.91039211,-71.55818503,54,2012-01-25 18:32:59
1.125,42.91046528,-71.55826484,53.9000015258789,2012-01-25 18:33:00
0.848999977111816,42.91053225,-71.55833074,54,2012-01-25 18:33:01
0.898999929428101,42.91061727,-71.55838383,54,2012-01-25 18:33:02
1.18600010871887,42.9106997,-71.55845391,53.7999992370605,2012-01-25 18:33:03
0.990999937057495,42.91079919,-71.5585056,54,2012-01-25 18:33:04
1.25699996948242,42.91089075,-71.55856206,53.5,2012-01-25 18:33:06
0.832000017166138,42.91099871,-71.55861236,53,2012-01-25 18:33:07
0.723999977111816,42.91106481,-71.55868122,52.5,2012-01-25 18:33:07
1.00699996948242,42.91115921,-71.55876143,54.0999984741211,2012-01-25 18:33:08
1.13499999046326,42.91121368,-71.5587875,55.2000007629395,2012-01-25 18:33:09
1.06900000572205,42.91127759,-71.55885136,54.7000007629395,2012-01-25 18:33:10
1.11900019645691,42.91132376,-71.55891316,54.7000007629395,2012-01-25 18:33:12
0.839999914169312,42.9113655,-71.55893981,55.2999992370605,2012-01-25 18:33:12
0.831000089645386,42.911395,-71.55896334,57.5,2012-01-25 18:33:13
1.61399984359741,42.91142437,-71.55898664,58.5,2012-01-25 18:33:15
0.49399995803833,42.91145844,-71.55900373,57.7000007629395,2012-01-25 18:33:15
1.31500005722046,42.91149206,-71.55902827,57.7000007629395,2012-01-25 18:33:17
1.22900009155273,42.91151349,-71.5590103,57.2000007629395,2012-01-25 18:33:18
0.359999895095825,42.9115217,-71.55901606,57.2000007629395,2012-01-25 18:33:18
1.23699998855591,42.91151807,-71.5590219,57.2000007629395,2012-01-25 18:33:19
1.27500009536743,42.91151383,-71.55901362,57.2000007629395,2012-01-25 18:33:21
0.563999891281128,42.91149244,-71.55902842,57.2999992370605,2012-01-25 18:33:21
1.19000005722046,42.91149322,-71.55903202,57.5999984741211,2012-01-25 18:33:23
0.720000028610229,42.91149868,-71.55903565,57.7000007629395,2012-01-25 18:33:23
1.01999998092651,42.91149218,-71.55902502,57.4000015258789,2012-01-25 18:33:24
1.49499988555908,42.91149371,-71.55902286,57.2999992370605,2012-01-25 18:33:26
0.625,42.9115189,-71.5589806,56.5,2012-01-25 18:33:26
1.16500020027161,42.91153197,-71.55896655,56,2012-01-25 18:33:28
1.24799990653992,42.91153212,-71.55894917,55.9000015258789,2012-01-25 18:33:29
0.45199990272522,42.91154518,-71.55891956,55.4000015258789,2012-01-25 18:33:29
1.26400017738342,42.91155067,-71.55890328,55.4000015258789,2012-01-25 18:33:31
0.875,42.91156059,-71.55888815,55.2999992370605,2012-01-25 18:33:31
0.98799991607666,42.91156087,-71.55888965,55.2999992370605,2012-01-25 18:33:32
1.18900012969971,42.91154812,-71.55889797,55.5999984741211,2012-01-25 18:33:34
0.684999942779541,42.91153226,-71.55890821,55.9000015258789,2012-01-25 18:33:34
1.31900000572205,42.9115289,-71.55890377,56,2012-01-25 18:33:36
0.960000038146973,42.91153061,-71.55889517,56,2012-01-25 18:33:37
0.935999870300293,42.91153041,-71.55889619,55.7000007629395,2012-01-25 18:33:37
1.13100004196167,42.91152727,-71.55888757,55.2999992370605,2012-01-25 18:33:39
0.793999910354614,42.91153014,-71.55888668,55.2000007629395,2012-01-25 18:33:39
0.853000164031982,42.91153014,-71.55888668,55.2000007629395,2012-01-25 18:33:40
1.24799990653992,42.91153576,-71.55887913,55.2000007629395,2012-01-25 18:33:41
0.871999979019165,42.911571,-71.55883349,55.4000015258789,2012-01-25 18:33:42
1.01099991798401,42.91164055,-71.55877485,57.2000007629395,2012-01-25 18:33:43
1.43600010871887,42.91166192,-71.55872503,56.7000007629395,2012-01-25 18:33:45
0.440000057220459,42.91168602,-71.5586664,56.2999992370605,2012-01-25 18:33:45
1.15299987792969,42.91170933,-71.55855146,56,2012-01-25 18:33:46
1.10300016403198,42.91174521,-71.55843382,56.2000007629395,2012-01-25 18:33:47
0.98799991607666,42.91178356,-71.55830603,56.2000007629395,2012-01-25 18:33:48
0.950000047683716,42.91183908,-71.55814871,56.7999992370605,2012-01-25 18:33:49
0.960000038146973,42.91188333,-71.55797696,56.7999992370605,2012-01-25 18:33:50
1.04199981689453,42.91193109,-71.55780109,56.7000007629395,2012-01-25 18:33:51
1.18700003623962,42.91199246,-71.55762406,57.7999992370605,2012-01-25 18:33:53
0.921000003814697,42.91203684,-71.55745886,57.9000015258789,2012-01-25 18:33:54
0.835000038146973,42.91203959,-71.55725954,57.4000015258789,2012-01-25 18:33:54
1.38100004196167,42.91208676,-71.55704481,57.2999992370605,2012-01-25 18:33:56
0.509000062942505,42.91211372,-71.55680274,57.5,2012-01-25 18:33:56
1.13499999046326,42.91217613,-71.55659128,57.4000015258789,2012-01-25 18:33:57
0.976999998092651,42.9121941,-71.5563362,55.5999984741211,2012-01-25 18:33:58
1.13099980354309,42.91219549,-71.55604684,51.9000015258789,2012-01-25 18:34:00
