"diffSecs","latitude","longitude","altitude","time"
1.85700011253357,42.3735648393631,-70.9882181882858,44.7000007629395,2011-12-20 18:40:56
0.990000009536743,42.3735648393631,-70.9882181882858,44.7000007629395,2011-12-20 18:40:57
1.00099992752075,42.3735648393631,-70.9882181882858,44.7000007629395,2011-12-20 18:40:58
1.00099992752075,42.3735648393631,-70.9882181882858,44.7000007629395,2011-12-20 18:40:59
1.00100016593933,42.3735648393631,-70.9882181882858,44.7000007629395,2011-12-20 18:41:00
1.00699996948242,42.3735648393631,-70.9882181882858,44.7000007629395,2011-12-20 18:41:01
1.0479998588562,42.3735648393631,-70.9882181882858,44.7000007629395,2011-12-20 18:41:02
0.950000047683716,42.3735648393631,-70.9882181882858,44.7000007629395,2011-12-20 18:41:03
1.00100016593933,42.3735648393631,-70.9882181882858,44.7000007629395,2011-12-20 18:41:04
0.997999906539917,42.3735648393631,-70.9882181882858,44.7000007629395,2011-12-20 18:41:05
1.00099992752075,42.3735648393631,-70.9882181882858,44.7000007629395,2011-12-20 18:41:06
