"diffSecs","latitude","longitude","altitude","time"
1.53999996185303,42.3739349842072,-70.9942263364792,48.5999984741211,2011-12-20 17:01:59
0.979000091552734,42.3739296197891,-70.9942317008972,48.5999984741211,2011-12-20 17:02:00
1.00799989700317,42.3739296197891,-70.9942317008972,48.5999984741211,2011-12-20 17:02:01
1.00300002098083,42.3739242553711,-70.9942370653152,48.5999984741211,2011-12-20 17:02:02
1,42.3739188909531,-70.9942424297333,48.5999984741211,2011-12-20 17:02:03
0.999000072479248,42.373913526535,-70.9942424297333,48.5,2011-12-20 17:02:04
1.08999991416931,42.373908162117,-70.9942477941513,48.5,2011-12-20 17:02:05
0.921999931335449,42.37390315,-70.99425335,-14.6999998092651,2011-12-20 17:02:06
1.11100006103516,42.37390069,-70.99425308,-15.1999998092651,2011-12-20 17:02:07
0.884999990463257,42.37389986,-70.99425162,-15.3999996185303,2011-12-20 17:02:08
0.99399995803833,42.37389986,-70.99425162,-15.3999996185303,2011-12-20 17:02:09
1.00600004196167,42.37389872,-70.99425247,-15.6000003814697,2011-12-20 17:02:10
0.996000051498413,42.37389852,-70.99425267,-15.6000003814697,2011-12-20 17:02:11
1.00799989700317,42.37389843,-70.99425269,-15.6000003814697,2011-12-20 17:02:12
1.06300020217896,42.37389828,-70.99425307,-15.5,2011-12-20 17:02:13
0.93399977684021,42.37389783,-70.99425409,-15.5,2011-12-20 17:02:14
1.00100016593933,42.37389742,-70.99425479,-15.5,2011-12-20 17:02:15
1.0789999961853,42.37389723,-70.99425507,-15.3999996185303,2011-12-20 17:02:16
0.918999910354614,42.37389719,-70.99425515,-15.3999996185303,2011-12-20 17:02:17
1.00699996948242,42.37389711,-70.99425526,-15.3999996185303,2011-12-20 17:02:18
1.0770001411438,42.37389743,-70.99425522,-15.3999996185303,2011-12-20 17:02:19
0.917999982833862,42.37389729,-70.9942553,-15.3999996185303,2011-12-20 17:02:20
0.994999885559082,42.37389731,-70.9942553,-15.3999996185303,2011-12-20 17:02:21
1.07200002670288,42.3738973,-70.99425532,-15.3999996185303,2011-12-20 17:02:22
0.936000108718872,42.37389728,-70.99425531,-15.5,2011-12-20 17:02:23
1.07799983024597,42.37389728,-70.9942553,-15.5,2011-12-20 17:02:24
0.921000003814697,42.37389728,-70.9942553,-15.5,2011-12-20 17:02:25
1,42.37389728,-70.9942553,-15.5,2011-12-20 17:02:26
1.06300020217896,42.37389729,-70.99425529,-15.5,2011-12-20 17:02:27
0.935999870300293,42.37389724,-70.99425532,-15.5,2011-12-20 17:02:28
1.00399994850159,42.37389725,-70.99425532,-15.5,2011-12-20 17:02:29
0.986000061035156,42.37389717,-70.99425536,-15.5,2011-12-20 17:02:30
1.00399994850159,42.37389717,-70.99425536,-15.5,2011-12-20 17:02:31
1.00600004196167,42.37389717,-70.99425536,-15.5,2011-12-20 17:02:32
1.08599996566772,42.37389717,-70.99425537,-15.5,2011-12-20 17:02:33
0.914999961853027,42.37389716,-70.99425538,-15.5,2011-12-20 17:02:34
1.00300002098083,42.37389717,-70.99425538,-15.5,2011-12-20 17:02:35
1.01800012588501,42.37389717,-70.99425537,-15.5,2011-12-20 17:02:36
0.973999977111816,42.3738972,-70.99425531,-15.5,2011-12-20 17:02:37
0.999000072479248,42.37389726,-70.99425521,-15.5,2011-12-20 17:02:38
1.10099983215332,42.37389726,-70.99425521,-15.5,2011-12-20 17:02:39
0.89300012588501,42.37389727,-70.99425522,-15.5,2011-12-20 17:02:40
0.998999834060669,42.37389727,-70.99425522,-15.5,2011-12-20 17:02:41
1.00200009346008,42.37389728,-70.99425522,-15.5,2011-12-20 17:02:42
1.00799989700317,42.37389727,-70.99425523,-15.5,2011-12-20 17:02:43
1.07600021362305,42.37389726,-70.99425524,-15.5,2011-12-20 17:02:44
0.923999786376953,42.37389726,-70.99425524,-15.5,2011-12-20 17:02:45
1,42.37389725,-70.99425525,-15.5,2011-12-20 17:02:46
1.00100016593933,42.37389723,-70.99425526,-15.5,2011-12-20 17:02:47
0.996999979019165,42.37389724,-70.99425526,-15.5,2011-12-20 17:02:48
0.999000072479248,42.37389725,-70.99425526,-15.5,2011-12-20 17:02:49
1.07299995422363,42.37389722,-70.99425528,-15.5,2011-12-20 17:02:50
0.929999828338623,42.37389718,-70.99425535,-15.5,2011-12-20 17:02:51
0.999000072479248,42.37389719,-70.99425535,-15.5,2011-12-20 17:02:52
1.03800010681152,42.3738972,-70.99425535,-15.5,2011-12-20 17:02:53
0.962999820709229,42.37389719,-70.99425535,-15.5,2011-12-20 17:02:54
1.01200008392334,42.3738972,-70.99425534,-15.5,2011-12-20 17:02:55
1.14600014686584,42.37389721,-70.99425534,-15.5,2011-12-20 17:02:56
0.852999925613403,42.37389719,-70.99425536,-15.5,2011-12-20 17:02:57
1.00399994850159,42.37389717,-70.99425539,-15.5,2011-12-20 17:02:58
1.14300012588501,42.37389715,-70.99425541,-15.5,2011-12-20 17:02:59
0.851999998092651,42.37389711,-70.99425545,-15.5,2011-12-20 17:03:00
1.15199995040894,42.37389708,-70.99425548,-15.5,2011-12-20 17:03:01
0.849999904632568,42.37389703,-70.99425553,-15.5,2011-12-20 17:03:02
1.00300002098083,42.37389705,-70.99425554,-15.5,2011-12-20 17:03:03
1.05599999427795,42.37389704,-70.99425555,-15.5,2011-12-20 17:03:04
0.941999912261963,42.373897,-70.99425559,-15.5,2011-12-20 17:03:05
0.997000217437744,42.373897,-70.99425558,-15.5,2011-12-20 17:03:06
1.07099986076355,42.37389699,-70.99425558,-15.5,2011-12-20 17:03:07
0.930000066757202,42.37389707,-70.9942555,-15.5,2011-12-20 17:03:08
0.999000072479248,42.37389707,-70.9942555,-15.5,2011-12-20 17:03:09
1.1029999256134,42.37389713,-70.99425544,-15.5,2011-12-20 17:03:10
0.894999980926514,42.37389716,-70.9942554,-15.5,2011-12-20 17:03:11
0.999000072479248,42.37389711,-70.99425546,-15.5,2011-12-20 17:03:12
0.984999895095825,42.37389712,-70.99425543,-15.5,2011-12-20 17:03:13
1.01399993896484,42.3738971,-70.99425545,-15.5,2011-12-20 17:03:14
1.00200009346008,42.37389706,-70.9942555,-15.5,2011-12-20 17:03:15
1.07299995422363,42.37389701,-70.99425555,-15.5,2011-12-20 17:03:16
0.927000045776367,42.37389702,-70.99425555,-15.5,2011-12-20 17:03:17
0.996999979019165,42.37389706,-70.99425551,-15.5,2011-12-20 17:03:18
0.994999885559082,42.37389709,-70.99425548,-15.5,2011-12-20 17:03:19
0.808000087738037,42.37389706,-70.99425552,-15.5,2011-12-20 17:03:20
0.990000009536743,42.37389695,-70.99425564,-15.5,2011-12-20 17:03:21
1.01600003242493,42.37389699,-70.99425562,-15.5,2011-12-20 17:03:22
1.00200009346008,42.37389704,-70.99425558,-15.5,2011-12-20 17:03:23
0.992999792098999,42.37389704,-70.99425558,-15.5,2011-12-20 17:03:24
0.994000196456909,42.37389711,-70.9942555,-15.5,2011-12-20 17:03:25
1.00300002098083,42.37389716,-70.99425547,-15.5,2011-12-20 17:03:26
1.09799981117249,42.37389718,-70.99425548,-15.5,2011-12-20 17:03:27
0.901000022888184,42.3738973,-70.99425541,-15.5,2011-12-20 17:03:28
0.990000009536743,42.37389738,-70.99425531,-15.5,2011-12-20 17:03:29
1.01500010490417,42.37389738,-70.99425531,-15.5,2011-12-20 17:03:30
1.00499987602234,42.37389738,-70.99425531,-15.5,2011-12-20 17:03:31
1.00100016593933,42.37389741,-70.99425529,-15.5,2011-12-20 17:03:32
1.06199979782104,42.37389742,-70.99425527,-15.5,2011-12-20 17:03:33
0.92900013923645,42.37389741,-70.99425527,-15.5,2011-12-20 17:03:34
1.00799989700317,42.37389742,-70.99425529,-15.5,2011-12-20 17:03:35
1.06400012969971,42.37389744,-70.99425528,-15.5,2011-12-20 17:03:36
0.929999828338623,42.37389745,-70.99425531,-15.5,2011-12-20 17:03:37
0.999000072479248,42.37389748,-70.99425531,-15.5,2011-12-20 17:03:38
1.06699991226196,42.37389748,-70.99425537,-15.5,2011-12-20 17:03:39
0.932000160217285,42.37389751,-70.9942554,-15.5,2011-12-20 17:03:40
1.00600004196167,42.3738975,-70.99425544,-15.5,2011-12-20 17:03:41
0.99399995803833,42.3738975,-70.99425544,-15.5,2011-12-20 17:03:42
1.00699996948242,42.37389749,-70.99425546,-15.5,2011-12-20 17:03:43
1.08200001716614,42.37389749,-70.99425545,-15.5,2011-12-20 17:03:44
0.911999940872192,42.37389745,-70.99425549,-15.5,2011-12-20 17:03:45
1.00800013542175,42.37389747,-70.99425549,-15.5,2011-12-20 17:03:46
1.06900000572205,42.37389748,-70.99425549,-15.5,2011-12-20 17:03:47
0.929999828338623,42.3738975,-70.99425549,-15.5,2011-12-20 17:03:48
0.998000144958496,42.37389751,-70.99425547,-15.5,2011-12-20 17:03:49
0.994999885559082,42.37389756,-70.99425544,-15.5,2011-12-20 17:03:50
1.00699996948242,42.37389766,-70.99425539,-15.5,2011-12-20 17:03:51
0.999000072479248,42.37389767,-70.99425541,-15.5,2011-12-20 17:03:52
1.06500005722046,42.37389776,-70.99425538,-15.3999996185303,2011-12-20 17:03:53
0.927000045776367,42.37389788,-70.99425532,-15.3999996185303,2011-12-20 17:03:54
1.00099992752075,42.3738979,-70.99425534,-15.3999996185303,2011-12-20 17:03:55
1.01399993896484,42.37389794,-70.99425532,-15.3999996185303,2011-12-20 17:03:56
0.983000040054321,42.37389796,-70.99425531,-15.3999996185303,2011-12-20 17:03:57
1.00200009346008,42.37389795,-70.99425532,-15.3999996185303,2011-12-20 17:03:58
1.17999982833862,42.37389798,-70.99425535,-15.3999996185303,2011-12-20 17:03:59
0.819000005722046,42.37389804,-70.99425532,-15.3999996185303,2011-12-20 17:04:00
1.01500010490417,42.37389809,-70.99425532,-15.3999996185303,2011-12-20 17:04:01
0.98199987411499,42.37389806,-70.99425538,-15.3999996185303,2011-12-20 17:04:02
1.00400018692017,42.37389815,-70.99425533,-15.3999996185303,2011-12-20 17:04:03
1.07799983024597,42.37389815,-70.99425533,-15.3999996185303,2011-12-20 17:04:04
0.919000148773193,42.37389817,-70.99425532,-15.3999996185303,2011-12-20 17:04:05
1.00399994850159,42.37389821,-70.9942553,-15.3999996185303,2011-12-20 17:04:06
1.00099992752075,42.37389821,-70.9942553,-15.3999996185303,2011-12-20 17:04:07
0.999000072479248,42.3738982,-70.99425531,-15.3999996185303,2011-12-20 17:04:08
1.0019998550415,42.37389825,-70.99425527,-15.3999996185303,2011-12-20 17:04:09
1.08500003814697,42.37389827,-70.99425526,-15.3999996185303,2011-12-20 17:04:10
0.920000076293945,42.37389835,-70.99425523,-15.3999996185303,2011-12-20 17:04:11
0.992000102996826,42.3738984,-70.99425521,-15.3999996185303,2011-12-20 17:04:12
1.06799983978271,42.3738984,-70.99425521,-15.3999996185303,2011-12-20 17:04:13
0.934999942779541,42.37389847,-70.99425514,-15.3999996185303,2011-12-20 17:04:14
1.00400018692017,42.37389853,-70.99425509,-15.3999996185303,2011-12-20 17:04:15
1.13099980354309,42.3738986,-70.99425504,-15.3999996185303,2011-12-20 17:04:16
0.866000175476074,42.37389867,-70.994255,-15.3999996185303,2011-12-20 17:04:17
1.00300002098083,42.37389873,-70.99425496,-15.3999996185303,2011-12-20 17:04:18
1.06599998474121,42.37389877,-70.99425495,-15.3999996185303,2011-12-20 17:04:19
0.93999981880188,42.37389883,-70.99425492,-15.3999996185303,2011-12-20 17:04:20
1.31000018119812,42.3738989,-70.99425487,-15.3999996185303,2011-12-20 17:04:21
0.680999994277954,42.37390045,-70.99425527,-15.3999996185303,2011-12-20 17:04:22
0.996999979019165,42.37392739,-70.99424954,-15.6000003814697,2011-12-20 17:04:23
1.07299995422363,42.37394233,-70.99423936,-15.5,2011-12-20 17:04:24
0.92300009727478,42.37396268,-70.99421979,-17,2011-12-20 17:04:25
1.00300002098083,42.37396694,-70.99424197,-17.5,2011-12-20 17:04:26
1.09999990463257,42.37398945,-70.99423131,-18.6000003814697,2011-12-20 17:04:27
0.898000001907349,42.37401629,-70.99421773,-18.7999992370605,2011-12-20 17:04:28
1,42.37400282,-70.99423606,-19,2011-12-20 17:04:29
1.0699999332428,42.37399348,-70.99425167,-18.8999996185303,2011-12-20 17:04:30
0.934999942779541,42.37401098,-70.99424865,-19.1000003814697,2011-12-20 17:04:31
1.00500011444092,42.37402365,-70.99423634,-19.3999996185303,2011-12-20 17:04:32
0.990000009536743,42.37403342,-70.99423088,-19.5,2011-12-20 17:04:33
1.00200009346008,42.37404599,-70.99422009,-19.6000003814697,2011-12-20 17:04:34
1.0019998550415,42.37405011,-70.99421804,-19.6000003814697,2011-12-20 17:04:35
1.07299995422363,42.37406127,-70.99422175,-20.2999992370605,2011-12-20 17:04:36
0.934000015258789,42.37406223,-70.99422584,-20.3999996185303,2011-12-20 17:04:37
1.00100016593933,42.37403976,-70.99423592,-20.6000003814697,2011-12-20 17:04:38
0.992999792098999,42.3740312,-70.99423426,-20.3999996185303,2011-12-20 17:04:39
1.00600004196167,42.37402129,-70.99423422,-20.2000007629395,2011-12-20 17:04:40
1.08400011062622,42.37401594,-70.99423797,-20.1000003814697,2011-12-20 17:04:41
0.91700005531311,42.37402711,-70.99423775,-20,2011-12-20 17:04:42
0.996999979019165,42.37403718,-70.99423841,-19.7000007629395,2011-12-20 17:04:43
0.99399995803833,42.37403724,-70.99423416,-19.1000003814697,2011-12-20 17:04:44
0.996999979019165,42.37404018,-70.99423659,-19.2000007629395,2011-12-20 17:04:45
1.00399994850159,42.37404696,-70.99424003,-19,2011-12-20 17:04:46
1.06599998474121,42.37404691,-70.99423984,-19,2011-12-20 17:04:47
0.934999942779541,42.37404824,-70.9942387,-19,2011-12-20 17:04:48
1.00100016593933,42.37404723,-70.99423875,-18.8999996185303,2011-12-20 17:04:49
1.00399994850159,42.37404826,-70.99423833,-18.8999996185303,2011-12-20 17:04:50
0.990999937057495,42.37404826,-70.99423833,-18.8999996185303,2011-12-20 17:04:51
1.00800013542175,42.37404892,-70.99423787,-18.8999996185303,2011-12-20 17:04:52
1.06599998474121,42.37404918,-70.99423834,-18.8999996185303,2011-12-20 17:04:53
0.930999994277954,42.37404895,-70.99423857,-18.8999996185303,2011-12-20 17:04:54
0.996999979019165,42.37404904,-70.9942385,-18.8999996185303,2011-12-20 17:04:55
1.0019998550415,42.37404883,-70.99423883,-18.7999992370605,2011-12-20 17:04:56
1.007000207901,42.37404907,-70.99423894,-18.7999992370605,2011-12-20 17:04:57
1.08299994468689,42.37404912,-70.99423895,-18.7999992370605,2011-12-20 17:04:58
0.968999862670898,42.37404902,-70.99423867,-18.7999992370605,2011-12-20 17:04:59
0.938000202178955,42.37404933,-70.99423841,-18.8999996185303,2011-12-20 17:05:00
1.08699989318848,42.37404919,-70.99423839,-18.8999996185303,2011-12-20 17:05:01
0.91100001335144,42.37404915,-70.99423836,-18.8999996185303,2011-12-20 17:05:02
1.01099991798401,42.37404896,-70.9942388,-18.8999996185303,2011-12-20 17:05:03
1.07800006866455,42.37404837,-70.99423916,-18.8999996185303,2011-12-20 17:05:04
0.914999961853027,42.37404749,-70.99423973,-18.7999992370605,2011-12-20 17:05:05
1.00099992752075,42.37404679,-70.99423995,-18.7999992370605,2011-12-20 17:05:06
1.08500003814697,42.3740464,-70.99424006,-18.7999992370605,2011-12-20 17:05:07
0.92300009727478,42.37404645,-70.99423986,-18.7999992370605,2011-12-20 17:05:08
0.990999937057495,42.37404645,-70.99423986,-18.7999992370605,2011-12-20 17:05:09
0.99399995803833,42.374046,-70.99423985,-18.7999992370605,2011-12-20 17:05:10
1.00600004196167,42.37404497,-70.99424037,-18.7999992370605,2011-12-20 17:05:11
1.08599996566772,42.37404467,-70.99424054,-18.7999992370605,2011-12-20 17:05:12
0.916000127792358,42.37404482,-70.99424054,-18.8999996185303,2011-12-20 17:05:13
1.00399994850159,42.37404464,-70.9942406,-18.8999996185303,2011-12-20 17:05:14
1.08699989318848,42.37404461,-70.99424058,-18.8999996185303,2011-12-20 17:05:15
0.945000171661377,42.37404462,-70.99424058,-18.8999996185303,2011-12-20 17:05:16
0.967000007629395,42.37404438,-70.99424055,-18.8999996185303,2011-12-20 17:05:17
1.06599998474121,42.37404477,-70.99424039,-18.7999992370605,2011-12-20 17:05:18
0.924999952316284,42.37404462,-70.99424042,-18.8999996185303,2011-12-20 17:05:19
1.00200009346008,42.37404454,-70.99424033,-18.8999996185303,2011-12-20 17:05:20
0.997999906539917,42.37404463,-70.99424026,-18.8999996185303,2011-12-20 17:05:21
1.00399994850159,42.37404463,-70.99424026,-18.8999996185303,2011-12-20 17:05:22
1.00200009346008,42.37404479,-70.99424026,-18.8999996185303,2011-12-20 17:05:23
1.07599997520447,42.37404488,-70.99424024,-18.8999996185303,2011-12-20 17:05:24
0.91700005531311,42.3740448,-70.99424022,-18.8999996185303,2011-12-20 17:05:25
1.00300002098083,42.37404488,-70.99424016,-18.8999996185303,2011-12-20 17:05:26
1.00799989700317,42.37404515,-70.99424014,-18.8999996185303,2011-12-20 17:05:27
0.98799991607666,42.37404496,-70.99424019,-18.8999996185303,2011-12-20 17:05:28
1.00500011444092,42.37404483,-70.99424036,-18.7999992370605,2011-12-20 17:05:29
1.07399988174438,42.37404499,-70.99424037,-18.7999992370605,2011-12-20 17:05:30
0.92300009727478,42.37404494,-70.99424045,-18.7999992370605,2011-12-20 17:05:31
1.00099992752075,42.37404507,-70.99424039,-18.7999992370605,2011-12-20 17:05:32
1.00100016593933,42.37404523,-70.99424022,-18.8999996185303,2011-12-20 17:05:33
1.00799989700317,42.37404518,-70.9942402,-18.7999992370605,2011-12-20 17:05:34
1.07200002670288,42.37404518,-70.9942402,-18.7999992370605,2011-12-20 17:05:35
0.921999931335449,42.37404514,-70.99424016,-18.7999992370605,2011-12-20 17:05:36
0.999000072479248,42.37404525,-70.99424008,-18.8999996185303,2011-12-20 17:05:37
1.00300002098083,42.37404552,-70.99423998,-18.8999996185303,2011-12-20 17:05:38
0.99399995803833,42.37404566,-70.99423996,-18.8999996185303,2011-12-20 17:05:39
1.00200009346008,42.37404583,-70.99423987,-18.8999996185303,2011-12-20 17:05:40
1.07299995422363,42.37404599,-70.99423993,-18.8999996185303,2011-12-20 17:05:41
0.924999952316284,42.37404599,-70.99423993,-18.8999996185303,2011-12-20 17:05:42
1,42.37404638,-70.99423986,-18.8999996185303,2011-12-20 17:05:43
1.07599997520447,42.3740466,-70.99423983,-18.8999996185303,2011-12-20 17:05:44
0.924000024795532,42.37404663,-70.99423981,-18.8999996185303,2011-12-20 17:05:45
1.00099992752075,42.37404678,-70.99423983,-18.8999996185303,2011-12-20 17:05:46
1.09400010108948,42.37404676,-70.99423986,-18.8999996185303,2011-12-20 17:05:47
0.904999971389771,42.3740467,-70.99423982,-18.8999996185303,2011-12-20 17:05:48
1.00200009346008,42.37404668,-70.99423979,-18.8999996185303,2011-12-20 17:05:49
1.00699996948242,42.37404682,-70.99423973,-18.8999996185303,2011-12-20 17:05:50
0.990999937057495,42.37404698,-70.99423971,-18.8999996185303,2011-12-20 17:05:51
1.07800006866455,42.37404698,-70.99423971,-18.8999996185303,2011-12-20 17:05:52
0.927999973297119,42.37404697,-70.99423979,-18.8999996185303,2011-12-20 17:05:53
1.00600004196167,42.3740471,-70.99423974,-18.8999996185303,2011-12-20 17:05:54
1.05799984931946,42.37404714,-70.99423972,-18.8999996185303,2011-12-20 17:05:55
0.936000108718872,42.37404716,-70.99423979,-18.8999996185303,2011-12-20 17:05:56
0.998999834060669,42.37404711,-70.99423981,-18.8999996185303,2011-12-20 17:05:57
0.998000144958496,42.37404708,-70.99423978,-18.8999996185303,2011-12-20 17:05:58
1.01799988746643,42.37404704,-70.99423973,-18.8999996185303,2011-12-20 17:05:59
0.986000061035156,42.37404701,-70.99423974,-18.8999996185303,2011-12-20 17:06:00
1.09800004959106,42.37404684,-70.99423975,-18.8999996185303,2011-12-20 17:06:01
0.901999950408936,42.374047,-70.99423968,-18.8999996185303,2011-12-20 17:06:02
1,42.37404693,-70.99423968,-18.8999996185303,2011-12-20 17:06:03
1,42.37404686,-70.99423971,-18.8999996185303,2011-12-20 17:06:04
0.999000072479248,42.3740469,-70.99423972,-18.8999996185303,2011-12-20 17:06:05
1.00399994850159,42.37404691,-70.99423967,-18.8999996185303,2011-12-20 17:06:06
1.07699990272522,42.3740469,-70.99423968,-18.8999996185303,2011-12-20 17:06:07
0.919000148773193,42.37404701,-70.99423965,-18.8999996185303,2011-12-20 17:06:08
1,42.37404702,-70.99423961,-18.8999996185303,2011-12-20 17:06:09
1.00699996948242,42.3740472,-70.99423946,-18.8999996185303,2011-12-20 17:06:10
0.990999937057495,42.37404716,-70.99423955,-18.8999996185303,2011-12-20 17:06:11
1.08100008964539,42.37404722,-70.99423955,-18.8999996185303,2011-12-20 17:06:12
0.918999910354614,42.37404718,-70.99423963,-18.8999996185303,2011-12-20 17:06:13
1.00200009346008,42.3740471,-70.99423976,-18.8999996185303,2011-12-20 17:06:14
1.0019998550415,42.37404708,-70.99423975,-18.8999996185303,2011-12-20 17:06:15
0.996999979019165,42.37404723,-70.99423969,-18.8999996185303,2011-12-20 17:06:16
1.00300002098083,42.37404711,-70.99423968,-18.8999996185303,2011-12-20 17:06:17
1.0770001411438,42.37404718,-70.99423967,-18.8999996185303,2011-12-20 17:06:18
0.921999931335449,42.37404715,-70.99423966,-18.8999996185303,2011-12-20 17:06:19
1.00300002098083,42.37404695,-70.99423966,-18.8999996185303,2011-12-20 17:06:20
1.13800001144409,42.37404688,-70.99423969,-18.8999996185303,2011-12-20 17:06:21
0.85699987411499,42.3740468,-70.99423971,-18.8999996185303,2011-12-20 17:06:22
0.997000217437744,42.37404669,-70.99423971,-18.8999996185303,2011-12-20 17:06:23
1.07799983024597,42.37404669,-70.99423971,-18.8999996185303,2011-12-20 17:06:24
0.922000169754028,42.37404675,-70.99423966,-18.8999996185303,2011-12-20 17:06:25
1.00399994850159,42.37404694,-70.99423963,-18.8999996185303,2011-12-20 17:06:26
0.996000051498413,42.37404695,-70.99423954,-18.8999996185303,2011-12-20 17:06:27
1.00399994850159,42.37404699,-70.99423953,-18.8999996185303,2011-12-20 17:06:28
1.07500004768372,42.3740469,-70.99423947,-18.8999996185303,2011-12-20 17:06:29
0.938999891281128,42.37404669,-70.99423951,-18.8999996185303,2011-12-20 17:06:30
0.982000112533569,42.37404663,-70.99423946,-18.8999996185303,2011-12-20 17:06:31
1.07699990272522,42.37404663,-70.99423946,-18.8999996185303,2011-12-20 17:06:32
0.924000024795532,42.37404655,-70.99423951,-18.8999996185303,2011-12-20 17:06:33
1.00399994850159,42.3740464,-70.99423949,-18.8999996185303,2011-12-20 17:06:34
1.07299995422363,42.37404625,-70.99423942,-18.8999996185303,2011-12-20 17:06:35
0.92300009727478,42.37404629,-70.99423933,-18.8999996185303,2011-12-20 17:06:36
1.0019998550415,42.37404607,-70.99423928,-18.8999996185303,2011-12-20 17:06:37
1.07500004768372,42.37404605,-70.99423927,-18.8999996185303,2011-12-20 17:06:38
0.942000150680542,42.3740462,-70.9942392,-19,2011-12-20 17:06:39
1.01799988746643,42.37404634,-70.99423917,-19,2011-12-20 17:06:40
0.962000131607056,42.37404636,-70.99423905,-19,2011-12-20 17:06:41
1,42.37404633,-70.99423905,-19,2011-12-20 17:06:42
1.10699987411499,42.37404623,-70.99423911,-19,2011-12-20 17:06:43
0.89300012588501,42.37404623,-70.99423911,-19,2011-12-20 17:06:44
1.00499987602234,42.37404616,-70.99423917,-19,2011-12-20 17:06:45
0.99399995803833,42.37404616,-70.99423919,-19,2011-12-20 17:06:46
1.00200009346008,42.37404594,-70.99423934,-19,2011-12-20 17:06:47
1.00399994850159,42.37404575,-70.99423943,-19,2011-12-20 17:06:48
1.07299995422363,42.37404564,-70.9942395,-19,2011-12-20 17:06:49
0.927000045776367,42.37404549,-70.99423954,-19,2011-12-20 17:06:50
0.999000072479248,42.37404539,-70.99423959,-19,2011-12-20 17:06:51
0.996999979019165,42.37404516,-70.99423966,-19,2011-12-20 17:06:52
1.0019998550415,42.37404491,-70.99423979,-18.8999996185303,2011-12-20 17:06:53
1.00600004196167,42.37404498,-70.99423975,-19,2011-12-20 17:06:54
1.08899998664856,42.37404507,-70.99423973,-19,2011-12-20 17:06:55
0.907999992370605,42.37404536,-70.99423966,-19,2011-12-20 17:06:56
1,42.37404537,-70.99423971,-18.8999996185303,2011-12-20 17:06:57
0.998000144958496,42.37404523,-70.99423977,-18.8999996185303,2011-12-20 17:06:58
1.01900005340576,42.37404518,-70.99423975,-18.8999996185303,2011-12-20 17:06:59
0.978999853134155,42.37404525,-70.99423973,-18.8999996185303,2011-12-20 17:07:00
1.12100005149841,42.37404529,-70.99423972,-18.8999996185303,2011-12-20 17:07:01
0.877000093460083,42.3740453,-70.99423972,-18.8999996185303,2011-12-20 17:07:02
1.0019998550415,42.37404525,-70.9942397,-18.8999996185303,2011-12-20 17:07:03
1.05299997329712,42.37404525,-70.99423969,-18.8999996185303,2011-12-20 17:07:04
0.955000162124634,42.3740452,-70.99423966,-18.8999996185303,2011-12-20 17:07:05
1.14499998092651,42.37404525,-70.99423967,-18.8999996185303,2011-12-20 17:07:06
0.845000028610229,42.37404535,-70.99423979,-18.8999996185303,2011-12-20 17:07:07
0.997999906539917,42.37404533,-70.99423983,-18.8999996185303,2011-12-20 17:07:08
1.01200008392334,42.37404551,-70.99423992,-18.8999996185303,2011-12-20 17:07:09
0.986999988555908,42.37404565,-70.99423992,-18.8999996185303,2011-12-20 17:07:10
1.00300002098083,42.37404575,-70.99424,-18.8999996185303,2011-12-20 17:07:11
1.07799983024597,42.37404582,-70.99424003,-18.8999996185303,2011-12-20 17:07:12
0.921000003814697,42.37404591,-70.99424011,-18.8999996185303,2011-12-20 17:07:13
0.998000144958496,42.37404592,-70.9942403,-18.8999996185303,2011-12-20 17:07:14
1.08200001716614,42.37404598,-70.99424029,-18.8999996185303,2011-12-20 17:07:15
0.918999910354614,42.37404596,-70.99424033,-18.8999996185303,2011-12-20 17:07:16
1.00099992752075,42.3740461,-70.99424047,-18.8999996185303,2011-12-20 17:07:17
0.996000051498413,42.37404616,-70.99424062,-18.7999992370605,2011-12-20 17:07:18
1.00200009346008,42.37404618,-70.99424068,-18.7999992370605,2011-12-20 17:07:19
1.00300002098083,42.37404624,-70.99424076,-18.7999992370605,2011-12-20 17:07:20
1.11999988555908,42.37404633,-70.99424088,-18.7999992370605,2011-12-20 17:07:21
0.878999948501587,42.37404639,-70.99424091,-18.7999992370605,2011-12-20 17:07:22
1.09200000762939,42.3740464,-70.99424096,-18.7999992370605,2011-12-20 17:07:23
0.907000064849854,42.37404646,-70.99424093,-18.7999992370605,2011-12-20 17:07:24
1.00099992752075,42.37404645,-70.99424098,-18.7999992370605,2011-12-20 17:07:25
1.14900016784668,42.37404643,-70.99424102,-18.7999992370605,2011-12-20 17:07:26
0.851999998092651,42.37404645,-70.99424109,-18.7999992370605,2011-12-20 17:07:27
1,42.37404645,-70.99424113,-18.7999992370605,2011-12-20 17:07:28
0.997999906539917,42.37404648,-70.9942411,-18.7999992370605,2011-12-20 17:07:29
1.00200009346008,42.37404649,-70.99424114,-18.7999992370605,2011-12-20 17:07:30
1.00799989700317,42.37404655,-70.99424116,-18.7999992370605,2011-12-20 17:07:31
1.08500003814697,42.37404661,-70.99424112,-18.7999992370605,2011-12-20 17:07:32
0.907000064849854,42.37404661,-70.99424119,-18.7000007629395,2011-12-20 17:07:33
1,42.37404648,-70.99424127,-18.7000007629395,2011-12-20 17:07:34
1.00299978256226,42.37404644,-70.99424145,-18.7000007629395,2011-12-20 17:07:35
1.01300001144409,42.37404644,-70.99424154,-18.7000007629395,2011-12-20 17:07:36
1.00400018692017,42.37404651,-70.99424159,-18.7000007629395,2011-12-20 17:07:37
1.07399988174438,42.37404659,-70.99424157,-18.7000007629395,2011-12-20 17:07:38
0.92300009727478,42.37404664,-70.99424161,-18.7000007629395,2011-12-20 17:07:39
1.00300002098083,42.37404673,-70.99424156,-18.7000007629395,2011-12-20 17:07:40
1.00699996948242,42.37404678,-70.99424156,-18.7000007629395,2011-12-20 17:07:41
0.990000009536743,42.37404669,-70.99424155,-18.7000007629395,2011-12-20 17:07:42
1.08699989318848,42.37404672,-70.99424159,-18.6000003814697,2011-12-20 17:07:43
0.914999961853027,42.37404672,-70.99424156,-18.6000003814697,2011-12-20 17:07:44
1.00100016593933,42.37404675,-70.99424157,-18.6000003814697,2011-12-20 17:07:45
1.00899982452393,42.37404674,-70.99424154,-18.6000003814697,2011-12-20 17:07:46
0.994000196456909,42.37404663,-70.99424159,-18.6000003814697,2011-12-20 17:07:47
1.00099992752075,42.37404665,-70.9942416,-18.6000003814697,2011-12-20 17:07:48
1.07999992370605,42.37404641,-70.99424159,-18.6000003814697,2011-12-20 17:07:49
0.914000034332275,42.37404613,-70.99424166,-18.6000003814697,2011-12-20 17:07:50
1.00300002098083,42.37404613,-70.99424166,-18.6000003814697,2011-12-20 17:07:51
1.09100008010864,42.37404604,-70.99424182,-18.6000003814697,2011-12-20 17:07:52
0.905999898910522,42.37404597,-70.99424185,-18.6000003814697,2011-12-20 17:07:53
1,42.37404582,-70.99424177,-18.6000003814697,2011-12-20 17:07:54
1.09100008010864,42.37404582,-70.99424177,-18.6000003814697,2011-12-20 17:07:55
0.908999919891357,42.37404579,-70.99424178,-18.6000003814697,2011-12-20 17:07:56
1.00200009346008,42.37404579,-70.99424173,-18.6000003814697,2011-12-20 17:07:57
1.07499980926514,42.37404577,-70.99424169,-18.6000003814697,2011-12-20 17:07:58
0.96399998664856,42.37404581,-70.99424162,-18.6000003814697,2011-12-20 17:07:59
0.961000204086304,42.37404581,-70.99424162,-18.6000003814697,2011-12-20 17:08:00
1.02499985694885,42.37404569,-70.99424168,-18.6000003814697,2011-12-20 17:08:01
0.980999946594238,42.37404555,-70.99424169,-18.6000003814697,2011-12-20 17:08:02
1.07100009918213,42.37404558,-70.99424168,-18.6000003814697,2011-12-20 17:08:03
0.921999931335449,42.37404547,-70.99424171,-18.6000003814697,2011-12-20 17:08:04
1.00300002098083,42.37404546,-70.99424172,-18.6000003814697,2011-12-20 17:08:05
1.02100014686584,42.37404533,-70.99424177,-18.6000003814697,2011-12-20 17:08:06
0.976999998092651,42.37404533,-70.99424177,-18.6000003814697,2011-12-20 17:08:07
1.00099992752075,42.37404513,-70.99424179,-18.6000003814697,2011-12-20 17:08:08
1.07699990272522,42.37404503,-70.99424174,-18.6000003814697,2011-12-20 17:08:09
0.922000169754028,42.37404503,-70.99424174,-18.6000003814697,2011-12-20 17:08:10
1.01199984550476,42.37404499,-70.99424177,-18.6000003814697,2011-12-20 17:08:11
0.990000009536743,42.37404485,-70.99424177,-18.6000003814697,2011-12-20 17:08:12
0.996000051498413,42.37404448,-70.99424183,-18.6000003814697,2011-12-20 17:08:13
1.00200009346008,42.3740444,-70.9942419,-18.6000003814697,2011-12-20 17:08:14
1.07799983024597,42.3740444,-70.9942419,-18.6000003814697,2011-12-20 17:08:15
0.920000076293945,42.37404399,-70.99424194,-18.6000003814697,2011-12-20 17:08:16
1.00200009346008,42.37404356,-70.994242,-18.6000003814697,2011-12-20 17:08:17
1.00399994850159,42.37404328,-70.99424212,-18.6000003814697,2011-12-20 17:08:18
0.99399995803833,42.37404297,-70.99424222,-18.6000003814697,2011-12-20 17:08:19
1.00699996948242,42.37404306,-70.99424217,-18.5,2011-12-20 17:08:20
1.00399994850159,42.37404322,-70.99424209,-18.6000003814697,2011-12-20 17:08:21
0.989000082015991,42.37404302,-70.99424196,-18.6000003814697,2011-12-20 17:08:22
1.00500011444092,42.37404287,-70.99424195,-18.6000003814697,2011-12-20 17:08:23
1,42.37404265,-70.9942419,-18.6000003814697,2011-12-20 17:08:24
1.00599980354309,42.37404265,-70.9942419,-18.6000003814697,2011-12-20 17:08:25
1.1560001373291,42.37404188,-70.99424217,-18.5,2011-12-20 17:08:26
0.838000059127808,42.37404189,-70.99424213,-18.5,2011-12-20 17:08:27
0.994999885559082,42.37404181,-70.99424218,-18.5,2011-12-20 17:08:28
1.01099991798401,42.37404181,-70.99424218,-18.5,2011-12-20 17:08:29
0.988000154495239,42.37404143,-70.9942422,-18.5,2011-12-20 17:08:30
1.0019998550415,42.37404147,-70.99424226,-18.5,2011-12-20 17:08:31
1.0789999961853,42.37404147,-70.99424226,-18.5,2011-12-20 17:08:32
0.920000076293945,42.3740411,-70.99424237,-18.5,2011-12-20 17:08:33
1.00300002098083,42.37404087,-70.99424227,-18.5,2011-12-20 17:08:34
1.09899997711182,42.37404051,-70.99424222,-18.5,2011-12-20 17:08:35
0.897000074386597,42.37404016,-70.99424218,-18.5,2011-12-20 17:08:36
1.00300002098083,42.37404015,-70.99424212,-18.5,2011-12-20 17:08:37
0.994999885559082,42.37404009,-70.99424211,-18.5,2011-12-20 17:08:38
1.00300002098083,42.3740399,-70.99424217,-18.5,2011-12-20 17:08:39
1.00500011444092,42.3740399,-70.99424217,-18.5,2011-12-20 17:08:40
1.05199980735779,42.37403976,-70.99424218,-18.5,2011-12-20 17:08:41
0.945000171661377,42.37403969,-70.99424217,-18.5,2011-12-20 17:08:42
1.08699989318848,42.37403941,-70.99424215,-18.5,2011-12-20 17:08:43
0.911999940872192,42.37403941,-70.99424215,-18.5,2011-12-20 17:08:44
1.00100016593933,42.37403951,-70.99424245,-18.3999996185303,2011-12-20 17:08:45
1.09299993515015,42.37403919,-70.99424238,-18.5,2011-12-20 17:08:46
0.910000085830688,42.37403914,-70.99424251,-18.3999996185303,2011-12-20 17:08:47
1.00399994850159,42.37403889,-70.9942426,-18.3999996185303,2011-12-20 17:08:48
0.990000009536743,42.37403889,-70.9942426,-18.3999996185303,2011-12-20 17:08:49
1.00099992752075,42.37403862,-70.99424276,-18.3999996185303,2011-12-20 17:08:50
1.00999999046326,42.37403813,-70.99424276,-18.3999996185303,2011-12-20 17:08:51
1.07999992370605,42.37403718,-70.9942428,-18.3999996185303,2011-12-20 17:08:52
0.910000085830688,42.37403718,-70.9942428,-18.3999996185303,2011-12-20 17:08:53
1.00099992752075,42.37403664,-70.9942433,-18.2999992370605,2011-12-20 17:08:54
1.00999999046326,42.37403664,-70.9942433,-18.2999992370605,2011-12-20 17:08:55
0.989000082015991,42.37403605,-70.99424356,-18.2999992370605,2011-12-20 17:08:56
1.00200009346008,42.37403478,-70.99424352,-18.2999992370605,2011-12-20 17:08:57
1.07299995422363,42.3740342,-70.99424463,-18.2000007629395,2011-12-20 17:08:58
0.98799991607666,42.37403357,-70.99424465,-18.2000007629395,2011-12-20 17:08:59
0.937999963760376,42.3740324,-70.99424484,-18.1000003814697,2011-12-20 17:09:00
1.12199997901917,42.37403129,-70.99424532,-18.2000007629395,2011-12-20 17:09:01
0.879000186920166,42.37403043,-70.99424604,-18.1000003814697,2011-12-20 17:09:02
1.07799983024597,42.37402899,-70.99424663,-18.1000003814697,2011-12-20 17:09:03
0.921000003814697,42.37402848,-70.99424722,-17.8999996185303,2011-12-20 17:09:04
1.00100016593933,42.37402745,-70.99424767,-17.8999996185303,2011-12-20 17:09:05
1.01399993896484,42.37402681,-70.99424819,-17.8999996185303,2011-12-20 17:09:06
0.983999967575073,42.37402613,-70.99424877,-17.7999992370605,2011-12-20 17:09:07
1.00200009346008,42.37402584,-70.9942491,-17.7999992370605,2011-12-20 17:09:08
1.07999992370605,42.37402573,-70.99424917,-17.7000007629395,2011-12-20 17:09:09
0.920000076293945,42.3740255,-70.9942495,-17.7000007629395,2011-12-20 17:09:10
1,42.37402501,-70.99425016,-17.6000003814697,2011-12-20 17:09:11
1.08399987220764,42.37402467,-70.99425057,-17.6000003814697,2011-12-20 17:09:12
0.924000024795532,42.37402355,-70.99425114,-17.6000003814697,2011-12-20 17:09:13
0.990999937057495,42.37402292,-70.99425128,-17.5,2011-12-20 17:09:14
1.08800005912781,42.37402243,-70.99425155,-17.5,2011-12-20 17:09:15
0.91100001335144,42.37402198,-70.99425191,-17.3999996185303,2011-12-20 17:09:16
1.00200009346008,42.3740213,-70.99425215,-17.3999996185303,2011-12-20 17:09:17
0.726999998092651,42.37402079,-70.99425264,-17.3999996185303,2011-12-20 17:09:18
0.921999931335449,42.3740205,-70.99425266,-17.2999992370605,2011-12-20 17:09:19
1,42.37402021,-70.994253,-17.2999992370605,2011-12-20 17:09:20
1.01699995994568,42.37401969,-70.99425316,-17.2999992370605,2011-12-20 17:09:21
0.986999988555908,42.37401945,-70.99425363,-17.2000007629395,2011-12-20 17:09:22
1.07800006866455,42.3740194,-70.99425381,-17.2000007629395,2011-12-20 17:09:23
0.917999982833862,42.37401933,-70.99425433,-17.1000003814697,2011-12-20 17:09:24
1,42.37401862,-70.99425426,-17.1000003814697,2011-12-20 17:09:25
1.02900004386902,42.3740177,-70.99425449,-17.1000003814697,2011-12-20 17:09:26
0.968999862670898,42.37401703,-70.99425449,-17.1000003814697,2011-12-20 17:09:27
1.00100016593933,42.37401683,-70.99425443,-17.1000003814697,2011-12-20 17:09:28
1.0789999961853,42.37401627,-70.99425437,-17.1000003814697,2011-12-20 17:09:29
0.921999931335449,42.37401622,-70.99425435,-17,2011-12-20 17:09:30
1.00099992752075,42.37401583,-70.99425444,-17,2011-12-20 17:09:31
1.00300002098083,42.37401566,-70.99425456,-17,2011-12-20 17:09:32
0.99399995803833,42.3740148,-70.9942547,-17,2011-12-20 17:09:33
1.00200009346008,42.3740147,-70.99425486,-16.8999996185303,2011-12-20 17:09:34
1.07399988174438,42.37401451,-70.99425525,-16.7999992370605,2011-12-20 17:09:35
0.924000024795532,42.37401361,-70.99425551,-16.7999992370605,2011-12-20 17:09:36
1.00200009346008,42.37401272,-70.99425562,-16.7999992370605,2011-12-20 17:09:37
1.0019998550415,42.37401163,-70.99425634,-16.7000007629395,2011-12-20 17:09:38
0.996000051498413,42.37401056,-70.99425666,-16.7000007629395,2011-12-20 17:09:39
1.00300002098083,42.37400999,-70.99425722,-16.6000003814697,2011-12-20 17:09:40
0.996999979019165,42.3740091,-70.99425767,-16.5,2011-12-20 17:09:41
1,42.37400795,-70.994258,-16.5,2011-12-20 17:09:42
1.0090000629425,42.37400738,-70.9942583,-16.5,2011-12-20 17:09:43
0.997999906539917,42.37400642,-70.99425824,-16.5,2011-12-20 17:09:44
0.995000123977661,42.37400584,-70.99425829,-16.3999996185303,2011-12-20 17:09:45
1.09800004959106,42.37400556,-70.99425838,-16.5,2011-12-20 17:09:46
0.901000022888184,42.37400477,-70.99425846,-16.3999996185303,2011-12-20 17:09:47
1.0019998550415,42.3740045,-70.99425837,-16.3999996185303,2011-12-20 17:09:48
1.08200001716614,42.37400319,-70.99425871,-16.3999996185303,2011-12-20 17:09:49
0.916000127792358,42.37400244,-70.99425893,-16.3999996185303,2011-12-20 17:09:50
1.0019998550415,42.37400197,-70.99425923,-16.3999996185303,2011-12-20 17:09:51
1.07299995422363,42.37400127,-70.99425953,-16.2999992370605,2011-12-20 17:09:52
0.926000118255615,42.37399991,-70.99425981,-16.2999992370605,2011-12-20 17:09:53
1.00099992752075,42.37399932,-70.99426006,-16.2000007629395,2011-12-20 17:09:54
1.08200001716614,42.37399868,-70.99426036,-16.2000007629395,2011-12-20 17:09:55
0.91700005531311,42.37399824,-70.99426083,-16.2000007629395,2011-12-20 17:09:56
1,42.37399798,-70.99426103,-16.2000007629395,2011-12-20 17:09:57
0.991999864578247,42.37399745,-70.99426157,-16.1000003814697,2011-12-20 17:09:58
1.00600004196167,42.37399654,-70.99426166,-16.1000003814697,2011-12-20 17:09:59
1.00300002098083,42.37399575,-70.99426208,-16.1000003814697,2011-12-20 17:10:00
1.0220000743866,42.3739956,-70.99426278,-16,2011-12-20 17:10:01
0.976999998092651,42.37399468,-70.99426282,-16,2011-12-20 17:10:02
1.09699988365173,42.37399455,-70.99426321,-15.8999996185303,2011-12-20 17:10:03
0.901000022888184,42.37399405,-70.99426358,-15.8999996185303,2011-12-20 17:10:04
1.00300002098083,42.37399376,-70.99426374,-15.8999996185303,2011-12-20 17:10:05
1.11100006103516,42.37399295,-70.99426357,-15.8999996185303,2011-12-20 17:10:06
0.885999917984009,42.37399246,-70.9942639,-15.8999996185303,2011-12-20 17:10:07
1.00200009346008,42.37399148,-70.99426406,-15.8999996185303,2011-12-20 17:10:08
0.999000072479248,42.37399078,-70.99426414,-15.8999996185303,2011-12-20 17:10:09
0.997999906539917,42.37398977,-70.99426453,-15.8999996185303,2011-12-20 17:10:10
1.01300001144409,42.37398939,-70.99426478,-15.8999996185303,2011-12-20 17:10:11
1.07800006866455,42.37398911,-70.9942648,-15.8999996185303,2011-12-20 17:10:12
0.911999940872192,42.3739885,-70.99426513,-15.8000001907349,2011-12-20 17:10:13
1.01999998092651,42.37398812,-70.99426551,-15.8000001907349,2011-12-20 17:10:14
0.983999967575073,42.37398725,-70.99426575,-15.8000001907349,2011-12-20 17:10:15
0.99399995803833,42.37398667,-70.99426586,-15.8000001907349,2011-12-20 17:10:16
1.00300002098083,42.37398586,-70.99426597,-15.8000001907349,2011-12-20 17:10:17
1.06700015068054,42.373985,-70.99426606,-15.8000001907349,2011-12-20 17:10:18
0.931999921798706,42.37398451,-70.99426613,-15.8000001907349,2011-12-20 17:10:19
1.00099992752075,42.37398411,-70.99426611,-15.8000001907349,2011-12-20 17:10:20
0.999000072479248,42.37398334,-70.99426602,-15.8000001907349,2011-12-20 17:10:21
1,42.373983,-70.99426619,-15.6999998092651,2011-12-20 17:10:22
1.08100008964539,42.37398238,-70.99426599,-15.6999998092651,2011-12-20 17:10:23
0.916999816894531,42.37398184,-70.99426608,-15.6999998092651,2011-12-20 17:10:24
1.00100016593933,42.37398163,-70.99426611,-15.6999998092651,2011-12-20 17:10:25
1.01599979400635,42.37398091,-70.99426601,-15.6999998092651,2011-12-20 17:10:26
0.982000112533569,42.3739801,-70.99426622,-15.6999998092651,2011-12-20 17:10:27
1.00399994850159,42.37397892,-70.99426598,-15.6999998092651,2011-12-20 17:10:28
1.06900000572205,42.37397893,-70.99426595,-15.6000003814697,2011-12-20 17:10:29
0.927999973297119,42.37397878,-70.9942657,-15.6000003814697,2011-12-20 17:10:30
1.08000016212463,42.37397855,-70.99426544,-15.6999998092651,2011-12-20 17:10:31
1.00899982452393,42.37397812,-70.99426515,-15.6999998092651,2011-12-20 17:10:32
0.913000106811523,42.37397806,-70.99426491,-15.6999998092651,2011-12-20 17:10:33
1,42.37397809,-70.99426471,-15.6999998092651,2011-12-20 17:10:34
1.00099992752075,42.37397789,-70.99426434,-15.6999998092651,2011-12-20 17:10:35
1.0090000629425,42.37397773,-70.99426386,-15.6999998092651,2011-12-20 17:10:36
0.996999979019165,42.37397727,-70.99426389,-15.6999998092651,2011-12-20 17:10:37
0.990000009536743,42.37397708,-70.99426374,-15.6000003814697,2011-12-20 17:10:38
1.00300002098083,42.37397683,-70.9942637,-15.6000003814697,2011-12-20 17:10:39
1.08899998664856,42.37397722,-70.9942634,-15.6000003814697,2011-12-20 17:10:40
0.910000085830688,42.37397724,-70.99426316,-15.6000003814697,2011-12-20 17:10:41
1.0019998550415,42.3739768,-70.99426298,-15.6000003814697,2011-12-20 17:10:42
1.06700015068054,42.37397696,-70.99426279,-15.6000003814697,2011-12-20 17:10:43
0.929999828338623,42.37397663,-70.99426245,-15.6000003814697,2011-12-20 17:10:44
1,42.37397653,-70.99426223,-15.6000003814697,2011-12-20 17:10:45
0.996000051498413,42.37397629,-70.99426214,-15.6000003814697,2011-12-20 17:10:46
1.00200009346008,42.37397633,-70.99426184,-15.6999998092651,2011-12-20 17:10:47
1.0019998550415,42.37397608,-70.99426161,-15.6000003814697,2011-12-20 17:10:48
1.09500002861023,42.37397579,-70.99426118,-15.6000003814697,2011-12-20 17:10:49
0.906000137329102,42.37397568,-70.9942611,-15.6000003814697,2011-12-20 17:10:50
1.00099992752075,42.37397521,-70.99426109,-15.6000003814697,2011-12-20 17:10:51
1.00099992752075,42.37397515,-70.99426111,-15.6000003814697,2011-12-20 17:10:52
0.995000123977661,42.37397498,-70.9942609,-15.6000003814697,2011-12-20 17:10:53
1.08799982070923,42.37397489,-70.99426064,-15.5,2011-12-20 17:10:54
0.920000076293945,42.37397506,-70.99426038,-15.5,2011-12-20 17:10:55
0.999000072479248,42.37397475,-70.99426033,-15.5,2011-12-20 17:10:56
0.996000051498413,42.37397467,-70.99426023,-15.5,2011-12-20 17:10:57
0.998999834060669,42.37397457,-70.99426026,-15.5,2011-12-20 17:10:58
1.00399994850159,42.37397471,-70.99426031,-15.5,2011-12-20 17:10:59
1.07400012016296,42.37397455,-70.99426026,-15.5,2011-12-20 17:11:00
0.92300009727478,42.37397444,-70.99426039,-15.5,2011-12-20 17:11:01
1.00099992752075,42.37397426,-70.99426012,-15.5,2011-12-20 17:11:02
1.00799989700317,42.37397406,-70.99425993,-15.5,2011-12-20 17:11:03
0.990000009536743,42.37397418,-70.99426015,-15.5,2011-12-20 17:11:04
1.00100016593933,42.37397408,-70.99426041,-15.5,2011-12-20 17:11:05
1.11500000953674,42.37397369,-70.99426056,-15.3999996185303,2011-12-20 17:11:06
0.884999990463257,42.37397367,-70.99426044,-15.3999996185303,2011-12-20 17:11:07
0.998999834060669,42.37397397,-70.99426024,-15.3999996185303,2011-12-20 17:11:08
1.01100015640259,42.37397382,-70.99426018,-15.3999996185303,2011-12-20 17:11:09
0.98799991607666,42.37397373,-70.99426005,-15.5,2011-12-20 17:11:10
1.01099991798401,42.37397349,-70.99425996,-15.5,2011-12-20 17:11:11
0.99399995803833,42.37397363,-70.99425966,-15.5,2011-12-20 17:11:12
0.996000051498413,42.37397356,-70.99425936,-15.5,2011-12-20 17:11:13
1.00200009346008,42.37397375,-70.99425909,-15.6000003814697,2011-12-20 17:11:14
1.00099992752075,42.37397375,-70.99425901,-15.6000003814697,2011-12-20 17:11:15
1.2480001449585,42.37397381,-70.9942589,-15.6000003814697,2011-12-20 17:11:16
1.0719997882843,42.37397378,-70.9942586,-15.6000003814697,2011-12-20 17:11:17
0.918000221252441,42.37397369,-70.9942586,-15.6000003814697,2011-12-20 17:11:18
1.0019998550415,42.37397359,-70.99425882,-15.6000003814697,2011-12-20 17:11:19
1.06800007820129,42.37397335,-70.99425882,-15.5,2011-12-20 17:11:20
0.931999921798706,42.37397336,-70.99425892,-15.5,2011-12-20 17:11:21
1.00099992752075,42.37397339,-70.99425892,-15.5,2011-12-20 17:11:22
1.0789999961853,42.37397313,-70.99425879,-15.5,2011-12-20 17:11:23
0.918000221252441,42.3739729,-70.9942588,-15.5,2011-12-20 17:11:24
1.0019998550415,42.37397244,-70.99425846,-15.5,2011-12-20 17:11:25
1.09599995613098,42.37397211,-70.99425829,-15.6000003814697,2011-12-20 17:11:26
0.902000188827515,42.37397216,-70.99425825,-15.5,2011-12-20 17:11:27
1.00099992752075,42.3739719,-70.99425838,-15.5,2011-12-20 17:11:28
0.997999906539917,42.37397185,-70.99425854,-15.3999996185303,2011-12-20 17:11:29
1,42.37397154,-70.99425864,-15.3999996185303,2011-12-20 17:11:30
1.09200000762939,42.37397131,-70.99425841,-15.3999996185303,2011-12-20 17:11:31
0.998000144958496,42.37397117,-70.99425829,-15.3999996185303,2011-12-20 17:11:32
0.911999940872192,42.37397101,-70.99425832,-15.3999996185303,2011-12-20 17:11:33
0.99399995803833,42.373971,-70.99425852,-15.3999996185303,2011-12-20 17:11:34
1.00399994850159,42.37397095,-70.9942586,-15.3999996185303,2011-12-20 17:11:35
1.00999999046326,42.37397081,-70.99425855,-15.3999996185303,2011-12-20 17:11:36
1.08000016212463,42.37397092,-70.9942587,-15.3999996185303,2011-12-20 17:11:37
0.91100001335144,42.37397082,-70.99425875,-15.3999996185303,2011-12-20 17:11:38
1.00099992752075,42.37397052,-70.9942587,-15.3999996185303,2011-12-20 17:11:39
1,42.3739703,-70.99425886,-15.3999996185303,2011-12-20 17:11:40
0.996999979019165,42.37397018,-70.99425892,-15.3999996185303,2011-12-20 17:11:41
1.00399994850159,42.37396995,-70.9942588,-15.3999996185303,2011-12-20 17:11:42
1.06800007820129,42.37396992,-70.99425886,-15.3999996185303,2011-12-20 17:11:43
0.932999849319458,42.37397002,-70.99425905,-15.3999996185303,2011-12-20 17:11:44
0.999000072479248,42.37396987,-70.99425898,-15.3999996185303,2011-12-20 17:11:45
1.00200009346008,42.3739699,-70.99425904,-15.3999996185303,2011-12-20 17:11:46
0.996999979019165,42.37396963,-70.99425886,-15.3999996185303,2011-12-20 17:11:47
1.00799989700317,42.37396961,-70.99425897,-15.3999996185303,2011-12-20 17:11:48
1.08100008964539,42.37396936,-70.99425905,-15.3999996185303,2011-12-20 17:11:49
0.91100001335144,42.37396923,-70.99425922,-15.3999996185303,2011-12-20 17:11:50
1.0019998550415,42.37396907,-70.99425915,-15.3000001907349,2011-12-20 17:11:51
1.05800008773804,42.37396913,-70.99425915,-15.3000001907349,2011-12-20 17:11:52
0.939000129699707,42.37396903,-70.99425908,-15.3000001907349,2011-12-20 17:11:53
1.07699990272522,42.3739693,-70.99425901,-15.3000001907349,2011-12-20 17:11:54
0.92300009727478,42.37396923,-70.99425909,-15.3000001907349,2011-12-20 17:11:55
1,42.37396939,-70.99425903,-15.3000001907349,2011-12-20 17:11:56
1.01199984550476,42.37396934,-70.99425903,-15.3000001907349,2011-12-20 17:11:57
0.986000061035156,42.3739694,-70.99425914,-15.3000001907349,2011-12-20 17:11:58
1.48399996757507,42.37396955,-70.99425921,-15.3000001907349,2011-12-20 17:11:59
0.508000135421753,42.37396969,-70.9942592,-15.3000001907349,2011-12-20 17:12:00
1.00999999046326,42.37397,-70.99425916,-15.3000001907349,2011-12-20 17:12:01
1.0019998550415,42.37397007,-70.99425922,-15.3000001907349,2011-12-20 17:12:02
1.08800005912781,42.37397033,-70.99425914,-15.3000001907349,2011-12-20 17:12:03
0.910000085830688,42.37397052,-70.99425923,-15.1999998092651,2011-12-20 17:12:04
1.00099992752075,42.3739708,-70.99425922,-15.1999998092651,2011-12-20 17:12:05
1.0239999294281,42.37397074,-70.99425904,-15.3000001907349,2011-12-20 17:12:06
0.973999977111816,42.37397097,-70.99425898,-15.3000001907349,2011-12-20 17:12:07
1.00300002098083,42.373971,-70.99425906,-15.1999998092651,2011-12-20 17:12:08
1.0770001411438,42.37397084,-70.99425898,-15.3000001907349,2011-12-20 17:12:09
0.921000003814697,42.3739709,-70.99425881,-15.3000001907349,2011-12-20 17:12:10
1.00399994850159,42.3739709,-70.99425881,-15.3000001907349,2011-12-20 17:12:11
1.05499982833862,42.37397089,-70.99425883,-15.3000001907349,2011-12-20 17:12:12
0.947000026702881,42.37397089,-70.99425883,-15.3000001907349,2011-12-20 17:12:13
0.986999988555908,42.37397094,-70.9942588,-15.3000001907349,2011-12-20 17:12:14
1.007000207901,42.3739709,-70.99425879,-15.3000001907349,2011-12-20 17:12:15
1.26799988746643,42.37397082,-70.99425892,-15.3000001907349,2011-12-20 17:12:16
0.76200008392334,42.37397082,-70.99425892,-15.3000001907349,2011-12-20 17:12:17
0.974999904632568,42.37397069,-70.9942589,-15.3999996185303,2011-12-20 17:12:18
0.704999923706055,42.37397059,-70.99425891,-15.3999996185303,2011-12-20 17:12:18
1.1230001449585,42.37397045,-70.99425891,-15.3999996185303,2011-12-20 17:12:20
0.855000019073486,42.37397045,-70.99425891,-15.3999996185303,2011-12-20 17:12:20
1.13599991798401,42.37397037,-70.99425893,-15.3999996185303,2011-12-20 17:12:22
0.867000102996826,42.3739703,-70.99425897,-15.3999996185303,2011-12-20 17:12:22
1.1029999256134,42.37397019,-70.994259,-15.3999996185303,2011-12-20 17:12:24
0.907999992370605,42.37397013,-70.99425888,-15.3999996185303,2011-12-20 17:12:24
1,42.37397,-70.99425878,-15.3999996185303,2011-12-20 17:12:25
1.09299993515015,42.37397,-70.99425878,-15.3999996185303,2011-12-20 17:12:27
0.959000110626221,42.37397001,-70.99425877,-15.3999996185303,2011-12-20 17:12:28
0.950000047683716,42.37396999,-70.99425877,-15.3999996185303,2011-12-20 17:12:28
1.08299994468689,42.37396988,-70.99425877,-15.3999996185303,2011-12-20 17:12:30
1.13699984550476,42.37396975,-70.99425878,-15.3999996185303,2011-12-20 17:12:31
1.64300012588501,42.37396973,-70.99425877,-15.3999996185303,2011-12-20 17:12:32
1.51399993896484,42.37396973,-70.99425877,-15.3999996185303,2011-12-20 17:12:34
0.648000001907349,42.3739697,-70.99425878,-15.3999996185303,2011-12-20 17:12:34
1.38600015640259,42.37396956,-70.99425878,-15.3999996185303,2011-12-20 17:12:36
0.875,42.37396947,-70.99425878,-15.3999996185303,2011-12-20 17:12:37
0.940999984741211,42.37396942,-70.99425877,-15.3999996185303,2011-12-20 17:12:38
1.15599989891052,42.37396927,-70.99425877,-15.3999996185303,2011-12-20 17:12:39
0.842999935150146,42.37396912,-70.99425855,-15.3999996185303,2011-12-20 17:12:40
1.00300002098083,42.37396912,-70.99425855,-15.3999996185303,2011-12-20 17:12:41
1.00300002098083,42.37396909,-70.99425875,-15.3999996185303,2011-12-20 17:12:42
1.02500009536743,42.37396908,-70.99425874,-15.3999996185303,2011-12-20 17:12:43
1.36999988555908,42.37396904,-70.99425872,-15.3999996185303,2011-12-20 17:12:44
0.907000064849854,42.37396903,-70.99425871,-15.3999996185303,2011-12-20 17:12:45
0.730000019073486,42.37396899,-70.99425873,-15.3999996185303,2011-12-20 17:12:46
1.42799997329712,42.37396899,-70.99425873,-15.3999996185303,2011-12-20 17:12:47
0.565999984741211,42.3739689,-70.99425872,-15.3999996185303,2011-12-20 17:12:48
1.06200003623962,42.37396887,-70.99425873,-15.3999996185303,2011-12-20 17:12:49
0.938999891281128,42.37396877,-70.99425873,-15.3999996185303,2011-12-20 17:12:50
1,42.37396867,-70.99425874,-15.3999996185303,2011-12-20 17:12:51
1.09200000762939,42.3739686,-70.99425874,-15.3999996185303,2011-12-20 17:12:52
0.898000001907349,42.37396857,-70.99425873,-15.3999996185303,2011-12-20 17:12:53
1.02699995040894,42.37396847,-70.99425872,-15.3999996185303,2011-12-20 17:12:54
1.07000017166138,42.37396839,-70.99425871,-15.3999996185303,2011-12-20 17:12:55
0.901999950408936,42.37396834,-70.9942587,-15.3999996185303,2011-12-20 17:12:56
1.0789999961853,42.37396834,-70.9942587,-15.3999996185303,2011-12-20 17:12:57
0.924999952316284,42.37396833,-70.9942587,-15.3999996185303,2011-12-20 17:12:58
1.19400000572205,42.37396826,-70.99425871,-15.3999996185303,2011-12-20 17:12:59
0.819999933242798,42.3739674,-70.99425886,-15.3999996185303,2011-12-20 17:13:00
1.00500011444092,42.37396728,-70.99425891,-15.3999996185303,2011-12-20 17:13:01
0.98199987411499,42.37396709,-70.99425894,-15.3000001907349,2011-12-20 17:13:02
1.26100015640259,42.3739665,-70.99425915,-15.3000001907349,2011-12-20 17:13:03
0.958999872207642,42.37396646,-70.99425895,-15.3000001907349,2011-12-20 17:13:04
0.879000186920166,42.37396613,-70.99425903,-15.3000001907349,2011-12-20 17:13:05
0.895999908447266,42.37396594,-70.99425912,-15.3000001907349,2011-12-20 17:13:06
1.26099991798401,42.37396562,-70.99425914,-15.3000001907349,2011-12-20 17:13:07
0.751000165939331,42.3739658,-70.99425893,-15.3000001907349,2011-12-20 17:13:08
1.00099992752075,42.37396571,-70.99425884,-15.3000001907349,2011-12-20 17:13:09
1.00499987602234,42.37396534,-70.99425902,-15.3000001907349,2011-12-20 17:13:10
1.34700012207031,42.37396512,-70.99425908,-15.3000001907349,2011-12-20 17:13:11
0.63700008392334,42.3739645,-70.99425916,-15.3000001907349,2011-12-20 17:13:12
1.21299982070923,42.3739645,-70.99425916,-15.3000001907349,2011-12-20 17:13:13
0.825000047683716,42.37396413,-70.99425954,-15.1999998092651,2011-12-20 17:13:14
1.02699995040894,42.37396386,-70.99425959,-15.3000001907349,2011-12-20 17:13:15
1.05299997329712,42.37396366,-70.99425967,-15.1999998092651,2011-12-20 17:13:16
0.878000020980835,42.37396371,-70.99425972,-15.1999998092651,2011-12-20 17:13:17
1.02600002288818,42.37396356,-70.99425964,-15.1999998092651,2011-12-20 17:13:18
0.990000009536743,42.37396356,-70.99425964,-15.1999998092651,2011-12-20 17:13:19
0.999000072479248,42.37396337,-70.99425966,-15.1999998092651,2011-12-20 17:13:20
1.07800006866455,42.37396323,-70.99425971,-15.1999998092651,2011-12-20 17:13:21
0.908999919891357,42.37396323,-70.99425971,-15.1999998092651,2011-12-20 17:13:22
1.15599989891052,42.37396303,-70.99425985,-15.1000003814697,2011-12-20 17:13:23
1.20000004768372,42.37396303,-70.99425985,-15.1000003814697,2011-12-20 17:13:24
0.812999963760376,42.37396299,-70.99425986,-15.1000003814697,2011-12-20 17:13:25
1.03600001335144,42.37396295,-70.99425986,-15.1000003814697,2011-12-20 17:13:26
0.794000148773193,42.37396291,-70.99425984,-15.1000003814697,2011-12-20 17:13:27
1.00999999046326,42.37396286,-70.99425981,-15.1000003814697,2011-12-20 17:13:28
1.00499987602234,42.37396278,-70.99425981,-15.1000003814697,2011-12-20 17:13:29
1.07599997520447,42.37396278,-70.99425981,-15.1000003814697,2011-12-20 17:13:30
1.25699996948242,42.37396278,-70.99425981,-15.1000003814697,2011-12-20 17:13:31
0.657999992370605,42.37396278,-70.99425981,-15.1000003814697,2011-12-20 17:13:32
1.01700019836426,42.37396278,-70.99425981,-15.1000003814697,2011-12-20 17:13:33
1.03699994087219,42.37396277,-70.99425981,-15.1000003814697,2011-12-20 17:13:34
0.947000026702881,42.37396277,-70.99425981,-15.1000003814697,2011-12-20 17:13:35
0.997999906539917,42.37396275,-70.99425981,-15.1000003814697,2011-12-20 17:13:36
1.01200008392334,42.37396274,-70.9942598,-15.1000003814697,2011-12-20 17:13:37
1.00300002098083,42.37396273,-70.9942598,-15.1000003814697,2011-12-20 17:13:38
1,42.37396273,-70.9942598,-15.1000003814697,2011-12-20 17:13:39
1.06099987030029,42.37396271,-70.9942598,-15.1000003814697,2011-12-20 17:13:40
1.11500000953674,42.3739627,-70.9942598,-15.1000003814697,2011-12-20 17:13:41
0.805999994277954,42.37396269,-70.99425979,-15.1000003814697,2011-12-20 17:13:42
1.01200008392334,42.37396268,-70.99425979,-15.1000003814697,2011-12-20 17:13:43
1.16499996185303,42.37396267,-70.99425979,-15.1000003814697,2011-12-20 17:13:44
0.849999904632568,42.37396268,-70.99425979,-15.1000003814697,2011-12-20 17:13:45
1.07600021362305,42.37396266,-70.99425979,-15.1000003814697,2011-12-20 17:13:46
0.898000001907349,42.37396263,-70.99425979,-15.1000003814697,2011-12-20 17:13:47
1.01300001144409,42.37396261,-70.99425979,-15.1000003814697,2011-12-20 17:13:48
1.00399994850159,42.37396259,-70.99425979,-15.1000003814697,2011-12-20 17:13:49
1.06099987030029,42.37396257,-70.99425978,-15.1000003814697,2011-12-20 17:13:50
1.09000015258789,42.37396255,-70.99425978,-15.1000003814697,2011-12-20 17:13:51
1.12199997901917,42.37396252,-70.99425978,-15.1000003814697,2011-12-20 17:13:52
0.858000040054321,42.37396247,-70.99425977,-15.1000003814697,2011-12-20 17:13:53
1.01699995994568,42.37396243,-70.99425977,-15.1000003814697,2011-12-20 17:13:54
1.03799986839294,42.37396236,-70.99425975,-15.1000003814697,2011-12-20 17:13:55
0.955000162124634,42.37396235,-70.99425975,-15.1000003814697,2011-12-20 17:13:56
0.980999946594238,42.37396229,-70.99425973,-15.1000003814697,2011-12-20 17:13:57
1.09500002861023,42.37396226,-70.99425973,-15.1000003814697,2011-12-20 17:13:58
0.980999946594238,42.37396221,-70.99425973,-15.1000003814697,2011-12-20 17:13:59
0.947000026702881,42.3739622,-70.99425973,-15.1000003814697,2011-12-20 17:14:00
0.984999895095825,42.37396217,-70.99425973,-15.1000003814697,2011-12-20 17:14:01
0.946000099182129,42.37396214,-70.99425972,-15.1000003814697,2011-12-20 17:14:02
0.937999963760376,42.3739621,-70.99425971,-15.1000003814697,2011-12-20 17:14:03
0.99399995803833,42.37396201,-70.99425971,-15.1000003814697,2011-12-20 17:14:04
0.998000144958496,42.37396182,-70.99425967,-15.1000003814697,2011-12-20 17:14:05
1.0019998550415,42.37396182,-70.99425967,-15.1000003814697,2011-12-20 17:14:06
1.00099992752075,42.37396156,-70.99425978,-15.1000003814697,2011-12-20 17:14:07
1.00300002098083,42.37396126,-70.99425971,-15.1000003814697,2011-12-20 17:14:08
0.976999998092651,42.37396102,-70.99425968,-15.1000003814697,2011-12-20 17:14:09
0.991000175476074,42.37396087,-70.99425969,-15.1000003814697,2011-12-20 17:14:10
1.1159999370575,42.37396087,-70.99425969,-15.1000003814697,2011-12-20 17:14:11
0.898000001907349,42.37396012,-70.99425972,-15.1000003814697,2011-12-20 17:14:12
0.999000072479248,42.37395987,-70.9942596,-15.1000003814697,2011-12-20 17:14:13
1.00499987602234,42.37395987,-70.9942596,-15.1000003814697,2011-12-20 17:14:14
0.980999946594238,42.37395952,-70.99425966,-15.1000003814697,2011-12-20 17:14:15
1.01300001144409,42.37395924,-70.99425965,-15.1000003814697,2011-12-20 17:14:16
1.07800006866455,42.37395888,-70.99425963,-15.1000003814697,2011-12-20 17:14:17
0.921000003814697,42.37395884,-70.99425957,-15.1000003814697,2011-12-20 17:14:18
1.00200009346008,42.37395874,-70.99425958,-15.1000003814697,2011-12-20 17:14:19
1.06499981880188,42.37395874,-70.99425958,-15.1000003814697,2011-12-20 17:14:20
0.93500018119812,42.37395874,-70.99425958,-15.1000003814697,2011-12-20 17:14:21
1.00699996948242,42.37395874,-70.99425958,-15.1000003814697,2011-12-20 17:14:22
1.0699999332428,42.37395868,-70.99425958,-15.1000003814697,2011-12-20 17:14:23
0.931999921798706,42.37395865,-70.99425958,-15.1000003814697,2011-12-20 17:14:24
1.00200009346008,42.37395862,-70.99425957,-15.1000003814697,2011-12-20 17:14:25
1.01300001144409,42.37395863,-70.99425957,-15.1000003814697,2011-12-20 17:14:26
0.976999998092651,42.37395864,-70.99425957,-15.1000003814697,2011-12-20 17:14:27
1.00399994850159,42.37395863,-70.99425957,-15.1000003814697,2011-12-20 17:14:28
1.09400010108948,42.37395855,-70.99425956,-15.1000003814697,2011-12-20 17:14:29
1.40400004386902,42.37395826,-70.99425953,-15.1000003814697,2011-12-20 17:14:30
0.996999979019165,42.37395826,-70.99425953,-15.1000003814697,2011-12-20 17:14:31
1.04299998283386,42.37395798,-70.99425965,-15.1000003814697,2011-12-20 17:14:32
0.934000015258789,42.37395789,-70.99425958,-15.1000003814697,2011-12-20 17:14:33
1.03999996185303,42.37395789,-70.99425958,-15.1000003814697,2011-12-20 17:14:34
2.52099990844727,42.37395788,-70.99425956,-15.1000003814697,2011-12-20 17:14:37
0.623000144958496,42.37395756,-70.99425952,-15.1000003814697,2011-12-20 17:14:37
2.367999792099,42.37395749,-70.99425951,-15.1000003814697,2011-12-20 17:14:40
0.630000114440918,42.37395738,-70.9942595,-15.1000003814697,2011-12-20 17:14:40
0.810999870300293,42.37395728,-70.99425948,-15.1000003814697,2011-12-20 17:14:41
1.01100015640259,42.37395721,-70.99425946,-15.1000003814697,2011-12-20 17:14:42
1.11199998855591,42.37395714,-70.99425945,-15.1000003814697,2011-12-20 17:14:43
0.895999908447266,42.37395707,-70.99425944,-15.1000003814697,2011-12-20 17:14:44
0.996000051498413,42.37395693,-70.99425942,-15.1000003814697,2011-12-20 17:14:45
0.992000102996826,42.37395684,-70.99425941,-15,2011-12-20 17:14:46
1.00399994850159,42.37395673,-70.99425939,-15,2011-12-20 17:14:47
1.07699990272522,42.37395667,-70.99425939,-15,2011-12-20 17:14:48
0.927999973297119,42.3739566,-70.99425939,-15,2011-12-20 17:14:49
1.00200009346008,42.37395652,-70.99425937,-15,2011-12-20 17:14:50
1.09500002861023,42.3739565,-70.99425936,-15,2011-12-20 17:14:51
0.894000053405762,42.37395647,-70.99425935,-15,2011-12-20 17:14:52
1.00599980354309,42.37395643,-70.99425934,-15,2011-12-20 17:14:53
1.08000016212463,42.37395637,-70.99425934,-15,2011-12-20 17:14:54
0.921999931335449,42.37395632,-70.99425933,-15,2011-12-20 17:14:55
1,42.37395626,-70.99425932,-15,2011-12-20 17:14:56
1.02900004386902,42.37395618,-70.99425932,-15,2011-12-20 17:14:57
0.967000007629395,42.37395612,-70.99425932,-15,2011-12-20 17:14:58
0.98799991607666,42.37395603,-70.99425931,-15,2011-12-20 17:14:59
1.03699994087219,42.37395596,-70.99425931,-15,2011-12-20 17:15:00
0.983000040054321,42.37395593,-70.99425931,-15,2011-12-20 17:15:01
1.00399994850159,42.37395592,-70.99425931,-15,2011-12-20 17:15:02
1.00100016593933,42.3739559,-70.9942593,-15,2011-12-20 17:15:03
0.990999937057495,42.3739558,-70.99425929,-15,2011-12-20 17:15:04
1.03999996185303,42.37395572,-70.99425927,-15,2011-12-20 17:15:05
0.953999996185303,42.37395564,-70.99425925,-15,2011-12-20 17:15:06
0.999000072479248,42.37395554,-70.99425924,-15,2011-12-20 17:15:07
1.00600004196167,42.37395546,-70.99425924,-15,2011-12-20 17:15:08
0.996000051498413,42.37395548,-70.99425923,-15,2011-12-20 17:15:09
1.01199984550476,42.37395548,-70.99425923,-15,2011-12-20 17:15:10
1.00200009346008,42.37395546,-70.99425923,-15,2011-12-20 17:15:11
0.988999843597412,42.37395533,-70.99425922,-15,2011-12-20 17:15:12
1.00200009346008,42.37395523,-70.99425919,-15,2011-12-20 17:15:13
0.999000072479248,42.37395515,-70.99425919,-15,2011-12-20 17:15:14
0.994999885559082,42.37395504,-70.99425917,-15,2011-12-20 17:15:15
1.00800013542175,42.37395496,-70.99425917,-15,2011-12-20 17:15:16
1.07399988174438,42.37395489,-70.99425917,-15,2011-12-20 17:15:17
0.924999952316284,42.3739548,-70.99425915,-15,2011-12-20 17:15:18
1,42.37395476,-70.99425916,-15,2011-12-20 17:15:19
1.06900000572205,42.37395462,-70.99425914,-15,2011-12-20 17:15:20
0.930999994277954,42.37395455,-70.99425913,-15,2011-12-20 17:15:21
1.00100016593933,42.37395447,-70.99425913,-15,2011-12-20 17:15:22
1.07399988174438,42.37395439,-70.99425912,-15,2011-12-20 17:15:23
0.926000118255615,42.3739543,-70.99425912,-15,2011-12-20 17:15:24
1,42.37395425,-70.99425911,-15,2011-12-20 17:15:25
0.998999834060669,42.37395418,-70.9942591,-15,2011-12-20 17:15:26
1.00300002098083,42.3739541,-70.9942591,-15,2011-12-20 17:15:27
1.07000017166138,42.373954,-70.9942591,-15,2011-12-20 17:15:28
0.923999786376953,42.37395393,-70.9942591,-15,2011-12-20 17:15:29
1,42.37395388,-70.99425909,-15,2011-12-20 17:15:30
1.10700011253357,42.37395382,-70.99425908,-15,2011-12-20 17:15:31
0.894000053405762,42.37395376,-70.99425907,-15,2011-12-20 17:15:32
0.991999864578247,42.37395373,-70.99425906,-15,2011-12-20 17:15:33
1.26100015640259,42.37395369,-70.99425906,-15,2011-12-20 17:15:34
0.903999805450439,42.37395368,-70.99425906,-15,2011-12-20 17:15:35
2.06500005722046,42.37395367,-70.99425906,-15,2011-12-20 17:15:37
0.988000154495239,42.37395364,-70.99425906,-15,2011-12-20 17:15:38
0.770999908447266,42.37395365,-70.99425906,-15,2011-12-20 17:15:39
1.01399993896484,42.37395364,-70.99425906,-15,2011-12-20 17:15:40
1.0460000038147,42.37395362,-70.99425906,-15,2011-12-20 17:15:41
0.955000162124634,42.37395362,-70.99425906,-15,2011-12-20 17:15:42
1.00599980354309,42.3739536,-70.99425906,-15,2011-12-20 17:15:43
1.0770001411438,42.37395359,-70.99425906,-15,2011-12-20 17:15:44
0.907999992370605,42.37395358,-70.99425906,-15,2011-12-20 17:15:45
1.08899998664856,42.37395356,-70.99425906,-15,2011-12-20 17:15:46
1.01699995994568,42.37395354,-70.99425906,-15,2011-12-20 17:15:47
0.913000106811523,42.37395353,-70.99425906,-15,2011-12-20 17:15:48
1.06499981880188,42.37395353,-70.99425906,-15,2011-12-20 17:15:49
1.07599997520447,42.37395353,-70.99425905,-15,2011-12-20 17:15:50
0.83899998664856,42.37395352,-70.99425905,-15,2011-12-20 17:15:51
1.10500001907349,42.37395352,-70.99425905,-15,2011-12-20 17:15:52
0.907999992370605,42.3739535,-70.99425905,-15,2011-12-20 17:15:53
1.00500011444092,42.37395349,-70.99425906,-15,2011-12-20 17:15:54
1.07999992370605,42.37395349,-70.99425905,-15,2011-12-20 17:15:55
0.916000127792358,42.37395347,-70.99425904,-15,2011-12-20 17:15:56
1,42.37395344,-70.99425904,-15,2011-12-20 17:15:57
1.07099986076355,42.37395344,-70.99425904,-15,2011-12-20 17:15:58
0.914000034332275,42.3739534,-70.99425904,-15,2011-12-20 17:15:59
1.01100015640259,42.37395337,-70.99425903,-15,2011-12-20 17:16:00
1,42.37395337,-70.99425903,-15,2011-12-20 17:16:01
1.00099992752075,42.37395331,-70.99425904,-15,2011-12-20 17:16:02
1.00699996948242,42.37395325,-70.99425904,-15,2011-12-20 17:16:03
1.0699999332428,42.37395322,-70.99425904,-15,2011-12-20 17:16:04
0.927000045776367,42.37395318,-70.99425905,-15,2011-12-20 17:16:05
1.00099992752075,42.37395313,-70.99425906,-15,2011-12-20 17:16:06
0.996000051498413,42.37395309,-70.99425907,-15,2011-12-20 17:16:07
1,42.37395305,-70.99425908,-15,2011-12-20 17:16:08
1.00399994850159,42.37395303,-70.99425908,-15,2011-12-20 17:16:09
1.07500004768372,42.37395302,-70.99425907,-15,2011-12-20 17:16:10
0.924999952316284,42.373953,-70.99425908,-15,2011-12-20 17:16:11
0.994000196456909,42.37395301,-70.99425907,-15,2011-12-20 17:16:12
1.00099992752075,42.373953,-70.99425907,-15,2011-12-20 17:16:13
1.00399994850159,42.37395295,-70.99425907,-15,2011-12-20 17:16:14
1.23600006103516,42.37395292,-70.99425907,-15,2011-12-20 17:16:15
0.884999990463257,42.37395293,-70.99425907,-15,2011-12-20 17:16:16
0.861999988555908,42.37395293,-70.99425907,-15,2011-12-20 17:16:17
1.00399994850159,42.37395294,-70.99425907,-15,2011-12-20 17:16:18
0.999000072479248,42.37395295,-70.99425906,-15,2011-12-20 17:16:19
1.15700006484985,42.37395295,-70.99425906,-15,2011-12-20 17:16:20
0.847999811172485,42.37395295,-70.99425906,-15,2011-12-20 17:16:21
1.00400018692017,42.37395296,-70.99425906,-15,2011-12-20 17:16:22
1,42.37395295,-70.99425906,-15,2011-12-20 17:16:23
1.00399994850159,42.37395293,-70.99425906,-15,2011-12-20 17:16:24
1.07299995422363,42.37395291,-70.99425905,-15,2011-12-20 17:16:25
0.928999900817871,42.37395291,-70.99425905,-15,2011-12-20 17:16:26
0.996999979019165,42.37395291,-70.99425905,-15,2011-12-20 17:16:27
1.13600015640259,42.37395287,-70.99425907,-15,2011-12-20 17:16:28
0.855000019073486,42.37395287,-70.99425907,-15,2011-12-20 17:16:29
0.994999885559082,42.37395286,-70.99425907,-15,2011-12-20 17:16:30
1.1010000705719,42.37395285,-70.99425907,-15,2011-12-20 17:16:31
1.30099987983704,42.37395282,-70.99425907,-15,2011-12-20 17:16:33
0.717000007629395,42.37395281,-70.99425907,-15,2011-12-20 17:16:33
