"diffSecs","level","azimuth.mean","azimuth.absolute.deviation","azimuth.standard.deviation","azimuth.max.deviation","pitch.mean","pitch.absolute.deviation","pitch.standard.deviation","pitch.max.deviation","roll.mean","roll.absolute.deviation","roll.standard.deviation","roll.max.deviation","time"
1.00099992752075,27,-14.7296295166016,0.21508926153183,0.277308285236359,0.670370817184448,-3.28518533706665,0.174211233854294,0.238364323973656,0.685185074806213,22.1407413482666,0.210974112153053,0.257134169340134,0.559259533882141,2012-03-02 12:52:57
1.14599990844727,28,-14.8142862319946,0.217346966266632,0.268214046955109,0.514285683631897,-2.89642858505249,0.254336714744568,0.301759272813797,0.596428632736206,21.9428577423096,0.321428507566452,0.351962327957153,0.642856419086456,2012-03-02 12:52:58
1.38199996948242,41,-14.021951675415,0.515764474868774,0.58581280708313,1.12195074558258,-3.25365853309631,0.35443189740181,0.392053753137589,0.646341502666473,26.6292686462402,3.20963716506958,3.4269552230835,5.02926826477051,2012-03-02 12:52:59
1.08599996566772,50,-14.2840003967285,0.265280038118362,0.3009053170681,0.584000408649445,-3.85400009155273,0.27400004863739,0.309328347444534,0.55400013923645,28.9939994812012,0.869120061397552,1.15141832828522,3.09400081634521,2012-03-02 12:53:00
1.00600004196167,34,-13.8117647171021,0.333217948675156,0.371613830327988,0.711764454841614,-3.40294122695923,0.261937707662582,0.296534180641174,0.502941131591797,24.1676483154297,1.08114182949066,1.3276960849762,2.66764736175537,2012-03-02 12:53:01
1.00600004196167,38,-15.3368425369263,0.315235555171967,0.390964478254318,1.13684248924255,-2.39736843109131,0.349307477474213,0.387628972530365,0.702631652355194,20.75,0.86315792798996,0.961563944816589,1.44999897480011,2012-03-02 12:53:02
1.02300000190735,48,-15.3687505722046,0.417447924613953,0.507919073104858,0.868750214576721,-2.95208334922791,0.374913215637207,0.460067749023438,0.95208340883255,19.5062503814697,0.161458492279053,0.200422748923302,0.40625,2012-03-02 12:53:03
1.01399993896484,35,-14.542857170105,0.911836802959442,1.00407338142395,1.64285671710968,-3.20000004768372,0.177142858505249,0.222967013716698,0.400000095367432,18.6885719299316,0.355918258428574,0.423435777425766,0.888570666313171,2012-03-02 12:53:04
1.01900005340576,36,-14.0611114501953,0.415740758180618,0.479744046926498,0.838889241218567,-3.29444456100464,0.166975289583206,0.185508966445923,0.305555641651154,18.1833343505859,0.279629737138748,0.325320392847061,0.616667509078979,2012-03-02 12:53:05
1.00699996948242,44,-14.1318187713623,0.327479273080826,0.390088945627213,0.831818163394928,-2.97500014305115,0.271590888500214,0.292423248291016,0.47500005364418,17.0704555511475,0.594008207321167,0.647224724292755,1.17045438289642,2012-03-02 12:53:06
1.02900004386902,40,-15.2700004577637,0.22800013422966,0.286531060934067,0.770000219345093,-2.53999996185303,0.253000020980835,0.321558713912964,0.64000004529953,15.6325006484985,0.295875012874603,0.403972536325455,1.13250029087067,2012-03-02 12:53:07
1.00699996948242,42,-14.2142858505249,0.251700669527054,0.302821218967438,0.614285528659821,-2.4642858505249,0.143537402153015,0.188757121562958,0.535714209079742,14.6666669845581,0.207936465740204,0.255106598138809,0.533332943916321,2012-03-02 12:53:08
1.00500011444092,44,-13.5659093856812,0.390185981988907,0.44463637471199,0.934090733528137,-2.30227279663086,0.202066138386726,0.247247263789177,0.502272725105286,14.5749998092651,0.245454609394073,0.287722319364548,0.525000154972076,2012-03-02 12:53:09
1.30299997329712,46,-13.1173915863037,0.281096369028091,0.337706059217453,0.617391467094421,-2.18695664405823,0.195652157068253,0.222250059247017,0.513043463230133,13.991304397583,0.255387514829636,0.324925482273102,0.808695673942566,2012-03-02 12:53:11
1.00099992752075,50,-12.3400001525879,0.260000050067902,0.327414065599442,0.939999580383301,-1.87400007247925,0.132079973816872,0.157238677144051,0.374000042676926,13.0539999008179,0.321680039167404,0.420575827360153,0.953999757766724,2012-03-02 12:53:12
1.01300001144409,35,-10.6828575134277,0.86138778924942,0.96820479631424,1.71714317798615,-1.5342857837677,0.162938788533211,0.198484048247337,0.465714246034622,11.8285713195801,0.141224652528763,0.164874836802483,0.32857158780098,2012-03-02 12:53:13
1.0090000629425,39,-10.1282052993774,0.334385246038437,0.44775727391243,1.27179527282715,-1.6820513010025,0.218934923410416,0.297745198011398,0.917948842048645,10.966667175293,0.547008454799652,0.632995784282684,1.36666655540466,2012-03-02 12:53:14
1.0019998550415,43,-10.8674421310425,0.343537002801895,0.390420645475388,0.832557678222656,-1.94186055660248,0.120713904500008,0.143433898687363,0.258139550685883,9.66511631011963,0.189399600028992,0.24100923538208,0.565116107463837,2012-03-02 12:53:15
1.03200006484985,17,-11.076470375061,0.244982585310936,0.296110808849335,0.676470279693604,-1.70000004768372,0.105882368981838,0.132842242717743,0.299999952316284,9.6294116973877,0.0968857482075691,0.112536057829857,0.17058826982975,2012-03-02 12:53:16
1.01399993896484,50,-10.3500003814697,0.358000040054321,0.411946624517441,0.749999761581421,-1.47000002861023,0.160399988293648,0.191049724817276,0.429999947547913,8.48600006103516,0.31688004732132,0.405960649251938,0.886000275611877,2012-03-02 12:53:17
