"diffSecs","N.samples","x.mean","x.absolute.deviation","x.standard.deviation","x.max.deviation","x.PSD.1","x.PSD.3","x.PSD.6","x.PSD.10","y.mean","y.absolute.deviation","y.standard.deviation","y.max.deviation","y.PSD.1","y.PSD.3","y.PSD.6","y.PSD.10","z.mean","z.absolute.deviation","z.standard.deviation","z.max.deviation","z.PSD.1","z.PSD.3","z.PSD.6","z.PSD.10","time"
1.02499985694885,47,0.253512322902679,0.0852632448077202,0.117714196443558,0.420225381851196,0.613442003726959,0.33195087313652,0.245453774929047,0.321638405323029,-0.225970253348351,0.13423877954483,0.173938542604446,0.422103226184845,4.05468606948853,3.63785219192505,1.27073621749878,0.128345146775246,10.0870780944824,0.131317555904388,0.213502556085587,0.974822878837585,0.462296068668365,0.328096508979797,0.150434583425522,0.629399478435516,2012-01-08 13:46:26
1.00800013542175,45,0.434325635433197,0.14411173760891,0.169397830963135,0.310979723930359,5.13337755203247,7.31483697891235,1.63713347911835,0.481678634881973,-0.406866997480392,0.0678765475749969,0.0837146192789078,0.161918669939041,0.878664433956146,1.40613663196564,0.443783819675446,0.173732563853264,10.0916967391968,0.0926618054509163,0.108778551220894,0.234706342220306,0.174779191613197,0.610446929931641,0.290689170360565,0.231208145618439,2012-01-08 13:46:27
1.02899980545044,38,1.23847663402557,0.189382433891296,0.227684944868088,0.483364582061768,0.290949940681458,1.43696522712708,1.13868963718414,0.116474643349648,-0.467364281415939,0.0666634812951088,0.0831901654601097,0.182971447706223,0.367423325777054,0.538711786270142,0.412077516317368,0.148534417152405,9.94703960418701,0.164594084024429,0.208408519625664,0.438202679157257,0.378707736730576,0.750427782535553,0.32388037443161,0.118109196424484,2012-01-08 13:46:28
1.00200009346008,28,1.11025285720825,0.0222650952637196,0.0261249989271164,0.0469318889081478,0.00264338124543428,0.00387265533208847,0.0020056867506355,0.000820688903331757,-0.815352857112885,0.130188271403313,0.138357549905777,0.256373852491379,0.155417114496231,0.222701445221901,0.0678567588329315,0.114261828362942,9.92222785949707,0.0634930282831192,0.0784688517451286,0.184225484728813,0.0428010001778603,0.076295480132103,0.0786209926009178,0.0620945878326893,2012-01-08 13:46:29
1.00200009346008,53,1.21472930908203,0.0511035025119781,0.0611101575195789,0.11638455092907,0.340043514966965,0.617503643035889,0.0762057825922966,0.0501273721456528,-0.993247091770172,0.10733900219202,0.120594598352909,0.189101815223694,4.24711227416992,6.20706081390381,0.889642298221588,0.103971809148788,9.95374965667725,0.0492181964218616,0.0579385794699192,0.137292861938477,0.0192455258220434,0.109036788344383,0.283644616603851,0.323278665542603,2012-01-08 13:46:30
1.11999988555908,38,1.11099016666412,0.0313079208135605,0.0396697744727135,0.110711954534054,0.0104473019018769,0.0517932809889317,0.0900338366627693,0.0135507686063647,-1.22737967967987,0.0646260976791382,0.0731972381472588,0.138841465115547,0.101516418159008,0.206507861614227,0.0963260158896446,0.0230670385062695,9.9137487411499,0.0605240389704704,0.0718309357762337,0.157680332660675,0.110088877379894,0.260863572359085,0.165146559476852,0.0103530455380678,2012-01-08 13:46:31
