"diffSecs","N.samples","x.mean","x.absolute.deviation","x.standard.deviation","x.max.deviation","x.PSD.1","x.PSD.3","x.PSD.6","x.PSD.10","y.mean","y.absolute.deviation","y.standard.deviation","y.max.deviation","y.PSD.1","y.PSD.3","y.PSD.6","y.PSD.10","z.mean","z.absolute.deviation","z.standard.deviation","z.max.deviation","z.PSD.1","z.PSD.3","z.PSD.6","z.PSD.10","time"
4.01099967956543,9,-2.67503619194031,0.00508492067456245,0.00616385461762547,0.0119858849793673,2.74256677812446e-07,5.30072668425419e-07,2.37870358432701e-06,8.07654214440845e-06,1.60175275802612,0.0101698413491249,0.0113237239420414,0.0163443889468908,2.98346708405006e-06,8.38756841403665e-06,3.11997391690966e-05,5.0539292715257e-05,9.48194026947021,0.0210661012679338,0.026734720915556,0.047943539917469,2.67733958025929e-06,1.31840815811302e-05,6.42317900201306e-05,0.00014289807586465,2012-01-18 13:46:04
0.910000085830688,99,-2.94635343551636,0.1826171875,0.209937259554863,0.3879075050354,0.0501872226595879,7.36336088180542,15.8904438018799,0.685647070407867,1.48506355285645,0.106617420911789,0.144512474536896,0.416138768196106,2.46259808540344,2.21996665000916,0.127275004982948,0.251606166362762,9.3845682144165,0.0453160293400288,0.0546795874834061,0.118075825273991,1.43986463546753,0.875181376934052,0.355907440185547,0.0489735007286072,2012-01-18 13:46:04
1.00999999046326,88,-3.03994989395142,0.358965933322906,0.410240232944489,0.755000650882721,34.3029556274414,90.0257186889648,1.79206311702728,1.92347145080566,1.1932909488678,0.430114805698395,0.544505059719086,1.23251760005951,69.1777191162109,118.298065185547,8.17278861999512,0.964340806007385,9.31397724151611,0.168713971972466,0.193592458963394,0.414219170808792,3.6072986125946,21.8925933837891,1.75204312801361,1.56646800041199,2012-01-18 13:46:05
1.0149998664856,77,-2.98134899139404,0.133108451962471,0.179852575063705,0.402200132608414,5.43819570541382,11.0347833633423,4.05298185348511,1.85381019115448,1.61071038246155,0.0846623629331589,0.1022092923522,0.223133087158203,0.524862766265869,2.32145762443542,1.12730371952057,1.86938071250916,9.36051082611084,0.0645064935088158,0.082467719912529,0.250133723020554,0.836789309978485,2.12961935997009,1.3286634683609,1.13749957084656,2012-01-18 13:46:06
1.02500009536743,34,-2.78739595413208,0.14469051361084,0.165162891149521,0.325926840305328,1.34754145145416,2.56134295463562,1.92905533313751,0.408581167459488,1.65818905830383,0.0987281873822212,0.112929798662663,0.236224934458733,0.644396185874939,1.1936092376709,0.805202186107635,0.196764186024666,9.39852046966553,0.061791967600584,0.0685233101248741,0.141042456030846,0.132418483495712,0.2817762196064,0.1907689422369,0.00501427752897143,2012-01-18 13:46:07
1.18700003623962,46,-2.58724999427795,0.0924494788050652,0.111105963587761,0.276291817426682,1.91433417797089,3.48967432975769,0.927023530006409,0.288870275020599,1.54774510860443,0.0943032652139664,0.106905676424503,0.178225234150887,2.13449835777283,2.95137333869934,0.894091606140137,0.164956986904144,9.44742774963379,0.0547892339527607,0.0631039142608643,0.131110414862633,0.644178450107574,0.876621544361115,0.254371851682663,0.132126912474632,2012-01-18 13:46:09
1,49,-2.53712034225464,0.146384939551353,0.165561199188232,0.34043076634407,5.27563142776489,8.39665794372559,1.59017372131348,0.77754420042038,1.54544794559479,0.0778241977095604,0.093809649348259,0.162710323929787,1.66745924949646,3.09465503692627,0.601045191287994,0.154831036925316,9.4524097442627,0.0570099875330925,0.0683924332261086,0.155705317854881,0.348195344209671,1.08033227920532,0.29029107093811,0.00882185436785221,2012-01-18 13:46:10
1.02300000190735,31,-2.65633678436279,0.120251357555389,0.138479724526405,0.263514190912247,0.648456037044525,0.986022114753723,0.40854212641716,0.121038742363453,1.63549613952637,0.118843123316765,0.136901840567589,0.242951840162277,0.607477068901062,0.899279117584229,0.316153705120087,0.150636404752731,9.42007827758789,0.0293892845511436,0.0370945036411285,0.0923721566796303,0.0159569513052702,0.0205101482570171,0.00466155493631959,0.00625660549849272,2012-01-18 13:46:11
1.00499987602234,48,-2.52541661262512,0.161018058657646,0.182743340730667,0.318920403718948,4.99960422515869,6.9073748588562,1.22082340717316,0.131188258528709,1.54086983203888,0.0973514243960381,0.106256775557995,0.207165494561195,2.14323878288269,2.92813420295715,0.353894114494324,0.144058257341385,9.45401859283447,0.0670290142297745,0.0772423669695854,0.146690890192986,0.694299697875977,1.06554734706879,0.30108642578125,0.0551974549889565,2012-01-18 13:46:12
1.01200008392334,40,-2.76522994041443,0.117483668029308,0.140435323119164,0.2645343542099,1.20804798603058,1.74655747413635,0.530241906642914,0.0314020365476608,1.62912964820862,0.079433873295784,0.0983159467577934,0.214520409703255,0.199181452393532,0.401069968938828,0.286565989255905,0.114730209112167,9.36412525177002,0.0338941738009453,0.0433707982301712,0.12626039981842,0.101743154227734,0.159673318266869,0.0550840459764004,0.0764149501919746,2012-01-18 13:46:13
1.05099987983704,50,-2.61229538917542,0.15170493721962,0.164388105273247,0.278312683105469,6.66928672790527,9.52597999572754,1.19201517105103,0.0258999560028315,1.51257765293121,0.0904094725847244,0.0978418737649918,0.154552802443504,2.24936485290527,2.78508710861206,0.251966953277588,0.055638000369072,9.46282863616943,0.0492763705551624,0.056858517229557,0.128074631094933,0.721819996833801,0.881448745727539,0.134969890117645,0.128964513540268,2012-01-18 13:46:14
1.06700015068054,43,-2.75042319297791,0.133113726973534,0.168485835194588,0.357600659132004,2.32415294647217,3.07583332061768,0.712261199951172,0.183233842253685,1.65230643749237,0.0682912021875381,0.0877738073468208,0.18153703212738,0.225422099232674,0.543200790882111,0.341534346342087,0.0404358133673668,9.40799808502197,0.0640268623828888,0.0753375664353371,0.124065309762955,0.367184281349182,0.564316511154175,0.17108328640461,0.0169753264635801,2012-01-18 13:46:15
1.06499981880188,46,-2.56721043586731,0.117309041321278,0.136329039931297,0.233227655291557,2.66692113876343,3.50551247596741,0.593462288379669,0.132108747959137,1.53751218318939,0.0565226338803768,0.0615120455622673,0.110005080699921,0.625085294246674,0.821542382240295,0.100302085280418,0.0182921774685383,9.47045230865479,0.0470588617026806,0.055725235491991,0.130257666110992,0.0790204852819443,0.331068873405457,0.38230288028717,0.0639436617493629,2012-01-18 13:46:16
1.04500007629395,42,-2.60203099250793,0.103825956583023,0.124334245920181,0.271317422389984,0.0460306853055954,1.62627029418945,1.92020809650421,0.111908957362175,1.57093191146851,0.067712590098381,0.0903428718447685,0.25310492515564,0.0388586930930614,0.450029909610748,0.418812155723572,0.200727701187134,9.45174217224121,0.0466093048453331,0.0607256852090359,0.145231559872627,0.0305268783122301,0.339121520519257,0.246451213955879,0.103335358202457,2012-01-18 13:46:17
1.00300002098083,42,-2.51914143562317,0.0479769371449947,0.0550272800028324,0.109040632843971,0.252453118562698,0.310501128435135,0.0453629493713379,0.0661579743027687,1.5590238571167,0.0198801420629025,0.0243515148758888,0.0487997084856033,0.015337036922574,0.0163438990712166,0.0087701641023159,0.0328114107251167,9.48559856414795,0.0280523076653481,0.0335000976920128,0.0660780295729637,0.0183024555444717,0.0339737460017204,0.0214142501354218,0.0394647717475891,2012-01-18 13:46:18
1.00500011444092,36,-2.5589907169342,0.016435207799077,0.0201433841139078,0.0397715643048286,0.00193706329446286,0.00578559702262282,0.00515583483502269,0.00808111019432545,1.58268427848816,0.0288751386106014,0.0326297543942928,0.0626535564661026,0.00989808235317469,0.0175845101475716,0.00684457644820213,0.0279575679451227,9.45606231689453,0.0298285093158484,0.0451398156583309,0.120131254196167,0.0132854524999857,0.0269433297216892,0.0314011014997959,0.00518251117318869,2012-01-18 13:46:19
1.01300001144409,39,-2.56104421615601,0.0182593464851379,0.0244827829301357,0.0671379193663597,0.0104325711727142,0.033241406083107,0.069861501455307,0.0683466717600822,1.56001162528992,0.0455709286034107,0.0534086525440216,0.0988208428025246,0.0295525304973125,0.180173620581627,0.287582606077194,0.0520787015557289,9.47573852539062,0.0292458161711693,0.0379301160573959,0.115165077149868,0.0315645560622215,0.0415576584637165,0.0211852807551622,0.0194431208074093,2012-01-18 13:46:20
1,34,-2.53184628486633,0.0164575073868036,0.0214682351797819,0.0669160783290863,0.0138961328193545,0.0184561498463154,0.00831961631774902,0.00412631966173649,1.54512417316437,0.0252801049500704,0.0386594124138355,0.113353259861469,0.0353480353951454,0.0540950000286102,0.0349401496350765,0.0389451831579208,9.4585132598877,0.0239397212862968,0.028665104880929,0.0637431144714355,0.0045977788977325,0.00951188243925571,0.0200120359659195,0.00919897388666868,2012-01-18 13:46:21
1.00699996948242,34,-2.47531390190125,0.0259587615728378,0.0330527164041996,0.0824913010001183,0.00881438516080379,0.0125836497172713,0.0101385423913598,0.0258102342486382,1.6155012845993,0.0248220134526491,0.028670959174633,0.0562440566718578,1.71010651683901e-05,0.00873883720487356,0.0511514507234097,0.0160016063600779,9.47235870361328,0.0332712940871716,0.0433615520596504,0.108738251030445,0.0348308496177197,0.0602913983166218,0.043633658438921,0.0332711599767208,2012-01-18 13:46:22
1.00999999046326,40,-2.39919686317444,0.0204468350857496,0.0247654002159834,0.0652141124010086,0.00236408854834735,0.00812284648418427,0.0186273399740458,0.0561800822615623,1.64040732383728,0.0230701640248299,0.0280809011310339,0.0659496709704399,0.00287375482730567,0.00367506523616612,0.0526173375546932,0.0326383374631405,9.49528884887695,0.0361619591712952,0.0496059581637383,0.159357786178589,0.0396460555493832,0.0582607723772526,0.012670929543674,0.126630917191505,2012-01-18 13:46:23
1.01300001144409,40,-2.39355802536011,0.0247617661952972,0.0299373809248209,0.069381944835186,0.0441836416721344,0.0749160647392273,0.0255491901189089,0.0322830528020859,1.60976159572601,0.0297631621360779,0.036268025636673,0.0897308215498924,0.0494154840707779,0.0898231863975525,0.0443362928926945,0.0404861681163311,9.48915958404541,0.0366522893309593,0.0438394621014595,0.104195475578308,0.000334609329001978,0.0601530186831951,0.151658207178116,0.159394711256027,2012-01-18 13:46:24
1.00699996948242,36,-2.38791918754578,0.023971788585186,0.0291920527815819,0.0637433305382729,0.0155263356864452,0.0389007218182087,0.0347055308520794,0.0106359086930752,1.59930109977722,0.0172524191439152,0.0212320014834404,0.0498504936695099,0.00259774108417332,0.00622002827003598,0.00701748626306653,0.00855608563870192,9.50400543212891,0.0368505418300629,0.045656330883503,0.0967042967677116,0.0867975428700447,0.143069341778755,0.0455781184136868,0.00909316912293434,2012-01-18 13:46:25
1.00399994850159,33,-2.37796401977539,0.0191449970006943,0.0232971217483282,0.0442784354090691,0.00162812613416463,0.00167192390654236,0.00313577079214156,0.00642465148121119,1.61155939102173,0.027339743450284,0.0332486666738987,0.0719154328107834,0.00207716482691467,0.0113932499662042,0.0255272071808577,0.0246428940445185,9.49491691589355,0.0329589322209358,0.0403080023825169,0.0959861353039742,0.00832709763199091,0.0120608517900109,0.00589747354388237,0.024190079420805,2012-01-18 13:46:26
1.00999999046326,37,-2.35598134994507,0.0168911963701248,0.0226174611598253,0.0612254254519939,0.0107137802988291,0.00963983032852411,0.0180163383483887,0.00399037357419729,1.63585519790649,0.0149284712970257,0.0183590166270733,0.0410819128155708,0.00670584477484226,0.0130100818350911,0.00887769926339388,0.00850322283804417,9.50264358520508,0.0280946791172028,0.0388269312679768,0.0882596969604492,0.00282166013494134,0.00297114672139287,0.0237433649599552,0.0272728744894266,2012-01-18 13:46:27
1.00099992752075,38,-2.33966016769409,0.0243400204926729,0.0290417019277811,0.0629689171910286,0.00835343915969133,0.0298020076006651,0.0551524236798286,0.036802276968956,1.63512980937958,0.033304575830698,0.0401628129184246,0.0810339450836182,0.0680545791983604,0.0952693372964859,0.0650076270103455,0.0541685558855534,9.52380561828613,0.0536512471735477,0.0620032623410225,0.11613117903471,0.146662518382072,0.341379106044769,0.376669317483902,0.0944889113306999,2012-01-18 13:46:28
1.0090000629425,37,-2.36817336082458,0.0226935092359781,0.0279819332063198,0.0636105909943581,0.0230984687805176,0.0200102757662535,0.0119774434715509,0.011325434781611,1.61624193191528,0.0315904393792152,0.0372441820800304,0.0901151075959206,0.0578825324773788,0.103797733783722,0.0670634657144547,0.0104864249005914,9.52702808380127,0.0396133549511433,0.0478050298988819,0.083488903939724,0.014663833193481,0.0197942480444908,0.141795054078102,0.116746157407761,2012-01-18 13:46:29
1.01600003242493,37,-2.3506805896759,0.0201147086918354,0.0250659603625536,0.0617552883923054,0.00407915469259024,0.0259332675486803,0.0307646263390779,0.00336775346659124,1.63002419471741,0.0194413829594851,0.0260095112025738,0.0609602965414524,0.0220171790570021,0.0222746059298515,0.0145289022475481,0.0105153638869524,9.52570247650146,0.0335388295352459,0.0430319383740425,0.104427389800549,0.0178872998803854,0.0522951558232307,0.0583724044263363,0.0602477788925171,2012-01-18 13:46:30
1.15499997138977,41,-2.33398270606995,0.0243970565497875,0.0276527311652899,0.0490333512425423,0.0168680939823389,0.0527380891144276,0.0271585397422314,0.0108044734224677,1.65206170082092,0.0166147258132696,0.0216698329895735,0.0542952977120876,0.000545977207366377,0.00144467630889267,0.00347304670140147,0.00568778486922383,9.53899955749512,0.0442786104977131,0.0527545139193535,0.110743194818497,0.00832792278379202,0.0143911587074399,0.0979654416441917,0.168020665645599,2012-01-18 13:46:31
1.01500010490417,35,-2.31072688102722,0.0202697962522507,0.0253661405295134,0.0551975034177303,0.00821576546877623,0.0192332621663809,0.0326274298131466,0.0140889817848802,1.65143978595734,0.0339590348303318,0.0410877503454685,0.0921825394034386,0.0183833539485931,0.030324399471283,0.0185410007834435,0.0467061810195446,9.51777362823486,0.0337988622486591,0.0409632846713066,0.082936093211174,0.000517048174515367,0.0213631186634302,0.0654194578528404,0.0388438887894154,2012-01-18 13:46:32
1,39,-2.34906983375549,0.0159381963312626,0.0192126538604498,0.0445070266723633,5.76292541154544e-06,0.0029225368052721,0.0173080060631037,0.0247927661985159,1.65455782413483,0.0288332309573889,0.0385895743966103,0.105107195675373,0.0106903603300452,0.00648709200322628,0.0668066665530205,0.116256438195705,9.51219844818115,0.0319279730319977,0.0387513749301434,0.0880082473158836,0.0002794022730086,0.0017415089532733,0.00642357906326652,0.124135442078114,2012-01-18 13:46:33
1.00499987602234,37,-2.33822345733643,0.0223783273249865,0.0246134661138058,0.044792465865612,0.00168240838684142,0.0175569653511047,0.0424597002565861,0.0150079112499952,1.6464569568634,0.0476220734417439,0.0598813034594059,0.146039485931396,0.0185908433049917,0.0755420997738838,0.228754252195358,0.0291369277983904,9.50052356719971,0.0310603063553572,0.0367733798921108,0.0903800502419472,0.0248763468116522,0.027448907494545,0.00715990830212831,0.0170929525047541,2012-01-18 13:46:34
1.01200008392334,39,-2.30506563186646,0.0191491320729256,0.0231801103800535,0.0495362170040607,0.00199363706633449,0.0185980778187513,0.0211308989673853,0.00176206533797085,1.64625990390778,0.0204643942415714,0.0233106277883053,0.0502904802560806,0.00027608365053311,0.0148297697305679,0.0241866130381823,0.0191125962883234,9.53583526611328,0.0327661447227001,0.040011715143919,0.101838111877441,0.00674524484202266,0.0798468664288521,0.12264060229063,0.074128195643425,2012-01-18 13:46:35
1.0149998664856,37,-2.29051542282104,0.0247279964387417,0.0278814341872931,0.053274005651474,0.0346907004714012,0.0508052855730057,0.0120042730122805,0.0108726322650909,1.65679371356964,0.0290259774774313,0.0339671112596989,0.0789833217859268,0.00087595998775214,0.00205842056311667,0.045048214495182,0.0286848433315754,9.49442768096924,0.0227364879101515,0.0297723729163408,0.0866694301366806,7.34258428565226e-05,0.00896321702748537,0.0220883078873158,0.00640889443457127,2012-01-18 13:46:36
1.00500011444092,40,-2.30480790138245,0.0179829876869917,0.0236671660095453,0.0487881116569042,0.00478847045451403,0.0102862799540162,0.0260375645011663,0.00382796092890203,1.63305234909058,0.0355491116642952,0.0418358817696571,0.0836017057299614,0.000858568702824414,0.00490862410515547,0.0969474166631699,0.0327939242124557,9.51784420013428,0.0295179653912783,0.0365584902465343,0.0926726832985878,6.8733256739506e-06,0.016058798879385,0.0275343507528305,0.0710118412971497,2012-01-18 13:46:37
1.01300001144409,41,-2.30910730361938,0.026695603504777,0.032926220446825,0.0731911212205887,0.0286013539880514,0.0523995161056519,0.0134538291022182,0.01266866363585,1.64871311187744,0.0205933917313814,0.0246188025921583,0.0576439239084721,0.00606308132410049,0.00933697074651718,0.0137713486328721,0.0268488507717848,9.50790596008301,0.0305924937129021,0.0400606505572796,0.0829975977540016,0.000111279790871777,0.0260996595025063,0.0950123518705368,0.113395981490612,2012-01-18 13:46:38
1.03999996185303,40,-2.30971121788025,0.0264902524650097,0.0320774912834167,0.0733046680688858,0.00173802464269102,0.00283250538632274,0.0181431416422129,0.0683728978037834,1.62569737434387,0.0294444486498833,0.0353234969079494,0.0806596428155899,0.0200012717396021,0.0149253979325294,0.0693056881427765,0.112454831600189,9.50362396240234,0.0345193482935429,0.0417675077915192,0.0872790366411209,0.0821021795272827,0.187658846378326,0.144628316164017,0.0125827630981803,2012-01-18 13:46:39
1.29200005531311,40,-2.29107856750488,0.0194294881075621,0.0239900425076485,0.0649690553545952,0.00491590332239866,0.00780122447758913,0.0169566050171852,0.00435348507016897,1.64531064033508,0.0238424316048622,0.0296225324273109,0.0664400160312653,0.00381272099912167,0.052157174795866,0.0935315936803818,0.0103506343439221,9.52863121032715,0.0382703840732574,0.0451291613280773,0.094634011387825,9.46563886827789e-06,0.039485827088356,0.0552885197103024,0.0580574907362461,2012-01-18 13:46:41
1.00099992752075,37,-2.27673292160034,0.0186820719391108,0.0223990362137556,0.0474430993199348,0.000930070644244552,0.00211290922015905,0.0201248563826084,0.00883653666824102,1.64221620559692,0.0139256212860346,0.0166915189474821,0.0347208380699158,0.00359299848787487,0.0168882645666599,0.0218002051115036,0.00569057976827025,9.51907634735107,0.0394987389445305,0.0471718981862068,0.0914402231574059,0.0352901853621006,0.0478838235139847,0.0146106770262122,0.0538398213684559,2012-01-18 13:46:42
1.00200009346008,39,-2.30632281303406,0.021186538040638,0.026358226314187,0.0606000982224941,0.0148100759834051,0.0360293947160244,0.0250571388751268,0.00856981612741947,1.63921916484833,0.0216636266559362,0.0258544161915779,0.0573311448097229,0.000239680361119099,0.0145405782386661,0.0437786392867565,0.0256327670067549,9.54337882995605,0.0370988585054874,0.0422843508422375,0.0769443511962891,0.0168654769659042,0.0145918829366565,0.0210093408823013,0.0444388538599014,2012-01-18 13:46:43
1.00599980354309,37,-2.29025030136108,0.0262036640197039,0.0313941277563572,0.0731523260474205,0.00867831148207188,0.0545197203755379,0.082149975001812,0.00710818869993091,1.67402160167694,0.0260030142962933,0.0301499143242836,0.0617554076015949,1.99845126189757e-05,0.00348988245241344,0.0130275143310428,0.00110528559889644,9.52464199066162,0.0400861352682114,0.0475752390921116,0.0906450971961021,0.00164890184532851,0.00806365441530943,0.0636475086212158,0.0699201747775078,2012-01-18 13:46:44
1.00400018692017,38,-2.27565884590149,0.0361026078462601,0.043622188270092,0.0887759104371071,0.00155669311061502,0.0398463271558285,0.1773921251297,0.0612868256866932,1.69964718818665,0.0349345058202744,0.0419758297502995,0.0717434138059616,0.00269213668070734,0.00874072220176458,0.0494498088955879,0.058635238558054,9.49412727355957,0.0185266584157944,0.0240392610430717,0.0575494505465031,0.0181472599506378,0.031243622303009,0.0206549149006605,0.00945687759667635,2012-01-18 13:46:45
1.00899982452393,37,-2.28150391578674,0.0325073786079884,0.0396363772451878,0.0750075578689575,0.0870933830738068,0.163744255900383,0.106200337409973,0.0145506300032139,1.67349147796631,0.0395847633481026,0.0449233017861843,0.094620868563652,0.0786896720528603,0.130102679133415,0.0406083352863789,0.0337952077388763,9.54160499572754,0.0236390717327595,0.0287031903862953,0.0591048412024975,1.74154993146658e-05,0.000292810320388526,0.00442407792434096,0.0084904208779335,2012-01-18 13:46:46
1.01200008392334,39,-2.27866315841675,0.0204901602119207,0.0244775991886854,0.045513030141592,0.0312464255839586,0.055624071508646,0.0271754562854767,0.0068067335523665,1.70208239555359,0.0393684394657612,0.0482880547642708,0.12195447832346,0.0096674207597971,0.00984241813421249,0.0305405985563993,0.0530412308871746,9.5466480255127,0.0383238829672337,0.0445191003382206,0.093288742005825,0.00796735193580389,0.00852760951966047,0.082147903740406,0.182541087269783,2012-01-18 13:46:47
1.01699995994568,40,-2.30529808998108,0.0519507490098476,0.0586511455476284,0.146364375948906,0.363278597593307,0.625834405422211,0.24288547039032,0.0398691892623901,1.6990020275116,0.0392266064882278,0.0465557798743248,0.105421498417854,0.0583694912493229,0.0852279737591743,0.206183925271034,0.16707269847393,9.49259185791016,0.0424014292657375,0.0529688708484173,0.117924764752388,0.0916390344500542,0.112429656088352,0.0249421168118715,0.0482624657452106,2012-01-18 13:46:48
1.01200008392334,40,-2.6237690448761,0.0829152315855026,0.09490055590868,0.210352584719658,0.0510271154344082,0.130657374858856,0.241768598556519,0.243398547172546,1.68331146240234,0.0359413623809814,0.0457640737295151,0.111305512487888,0.000607405381742865,0.00217490014620125,0.0202010832726955,0.145705744624138,9.41977787017822,0.04037881270051,0.056460577994585,0.161319106817245,0.0300276204943657,0.136019110679626,0.110745616257191,0.113040789961815,2012-01-18 13:46:49
1.00099992752075,39,-2.64930415153503,0.109904102981091,0.139670982956886,0.266288280487061,0.491395860910416,0.662505090236664,0.415962606668472,0.253750860691071,1.61080503463745,0.0358996838331223,0.0471994653344154,0.124971948564053,0.0842506065964699,0.190419152379036,0.0628307014703751,0.133507236838341,9.41262340545654,0.0434045046567917,0.0578624084591866,0.12572605907917,0.00606469018384814,0.0159355960786343,0.122125327587128,0.0643684566020966,2012-01-18 13:46:50
1.01900005340576,37,-2.64673519134521,0.101261369884014,0.13290236890316,0.263719379901886,0.974040627479553,1.22019147872925,0.422185599803925,0.0427843071520329,1.59238791465759,0.105917543172836,0.131774351000786,0.22184231877327,1.30858886241913,1.81069242954254,0.600138902664185,0.187245726585388,9.43903255462646,0.0274069961160421,0.0349978730082512,0.083488903939724,0.017437070608139,0.0322521738708019,0.0216662324965,0.0249729920178652,2012-01-18 13:46:51
1.00699996948242,40,-2.98587965965271,0.0748492926359177,0.0924634635448456,0.161564603447914,0.791879296302795,0.959787309169769,0.195122241973877,0.0724935382604599,1.3932797908783,0.0464835055172443,0.0655061975121498,0.185590878129005,0.13171698153019,0.11280645430088,0.0862904191017151,0.0506231710314751,9.36338901519775,0.0259875766932964,0.0422482676804066,0.158867448568344,0.0140570150688291,0.00940639059990644,0.0204436965286732,0.0300302393734455,2012-01-18 13:46:52
1.01399993896484,39,-3.01969385147095,0.0526889860630035,0.0670431032776833,0.165958806872368,0.0132942460477352,0.0351888127624989,0.121551036834717,0.056627131998539,1.23513495922089,0.0376534201204777,0.0437411852180958,0.118182674050331,0.0102507025003433,0.0905467346310616,0.10579776763916,0.0483441241085529,9.36057281494141,0.0556934215128422,0.0617784671485424,0.093288742005825,0.00356419407762587,0.00993130914866924,0.0356123484671116,0.157800436019897,2012-01-18 13:46:53
1.01100015640259,39,-2.94601821899414,0.024036256596446,0.0288458671420813,0.0548167899250984,0.0128436554223299,0.0183808356523514,0.00435545388609171,0.0437537506222725,1.26254332065582,0.0454419814050198,0.0522101745009422,0.110387712717056,0.125519067049026,0.172670394182205,0.164498656988144,0.188884660601616,9.38571834564209,0.0374083407223225,0.0431414470076561,0.0890140533447266,0.00228215684182942,0.047283973544836,0.138820111751556,0.0529566742479801,2012-01-18 13:46:54
1.00899982452393,41,-2.95993399620056,0.0340111292898655,0.0418815389275551,0.109547473490238,0.0687832534313202,0.0645859614014626,0.0578429996967316,0.0247899517416954,1.32700717449188,0.0282356813549995,0.0338632874190807,0.0753437653183937,0.0111192334443331,0.0734519064426422,0.0700493305921555,0.00304527697153389,9.41725444793701,0.0403932929039001,0.0486366115510464,0.105002731084824,0.133467927575111,0.157568126916885,0.101969815790653,0.031304020434618,2012-01-18 13:46:55
1.00600004196167,38,-2.89915537834167,0.0147778624668717,0.0194084569811821,0.0624527670443058,3.76169591618236e-05,0.000499967020004988,0.00195015908684582,0.0123956296592951,1.30247795581818,0.0229682233184576,0.0287987869232893,0.0606464445590973,1.41928467201069e-06,0.0098704481497407,0.0128228524699807,0.0218939147889614,9.40483570098877,0.0471587665379047,0.0559510663151741,0.137550935149193,0.00149532302748412,0.0801913291215897,0.238791391253471,0.0741075128316879,2012-01-18 13:46:56
1.00100016593933,39,-2.89019584655762,0.0230949446558952,0.0272846333682537,0.061605803668499,0.000206276556127705,0.00629772944375873,0.0127145769074559,0.0467614568769932,1.30830764770508,0.0213412251323462,0.0267155822366476,0.0548167079687119,0.00718677090480924,0.0296069923788309,0.0667466893792152,0.0163937751203775,9.37239170074463,0.0323664024472237,0.041185986250639,0.091025672852993,0.0784894451498985,0.143554106354713,0.065902441740036,0.0261222701519728,2012-01-18 13:46:57
1.01099991798401,38,-2.84728336334229,0.0183229949325323,0.0236257556825876,0.0621947757899761,0.0109011447057128,0.0246970653533936,0.0111343394964933,0.0029499048832804,1.33705925941467,0.0389821007847786,0.051168791949749,0.114324919879436,0.137067764997482,0.264617115259171,0.302179634571075,0.0709447041153908,9.41128730773926,0.031484454870224,0.036975122988224,0.0717432647943497,0.0133953122422099,0.0122612183913589,0.0644949227571487,0.118362620472908,2012-01-18 13:46:58
1.0090000629425,39,-2.79338645935059,0.0204643346369267,0.0254700034856796,0.0671377182006836,0.0104927495121956,0.0254680048674345,0.0273457020521164,0.00854133348912001,1.3616156578064,0.028356121852994,0.0332773439586163,0.0603485628962517,0.0137642798945308,0.0477250963449478,0.0870062634348869,0.0329083874821663,9.45134735107422,0.02831737883389,0.0357716605067253,0.0709095001220703,0.020470317453146,0.122249707579613,0.188377320766449,0.0305567942559719,2012-01-18 13:46:59
1.00899982452393,37,-2.78720879554749,0.0417050942778587,0.0483733452856541,0.0903802514076233,0.105094611644745,0.198431774973869,0.172579929232597,0.0308005958795547,1.33874022960663,0.0282523147761822,0.0384652651846409,0.102837346494198,0.00371238589286804,0.0303188338875771,0.0964511260390282,0.062942810356617,9.43558788299561,0.0240688733756542,0.0287960413843393,0.0702366977930069,0.0209066495299339,0.0501360408961773,0.0252231191843748,0.0107958484441042,2012-01-18 13:47:00
1.00300002098083,38,-2.80805683135986,0.0493048913776875,0.0632860437035561,0.133938163518906,0.0126809515058994,0.0837877690792084,0.226551979780197,0.0845106542110443,1.39073777198792,0.0720965415239334,0.0775073394179344,0.115873351693153,0.157657817006111,0.308179289102554,0.169468075037003,0.0619650669395924,9.41283512115479,0.0476477406919003,0.0583008155226707,0.148647904396057,0.0101898843422532,0.0536346547305584,0.201560690999031,0.162763491272926,2012-01-18 13:47:01
1.0090000629425,39,-2.85725545883179,0.0193812754005194,0.0265089143067598,0.0721668675541878,0.0158945675939322,0.0431526899337769,0.0381444431841373,0.0182463899254799,1.39355003833771,0.0342749059200287,0.0442927777767181,0.108879007399082,0.048022985458374,0.0908966213464737,0.0600038506090641,0.0399360843002796,9.39401626586914,0.04352056235075,0.0504159964621067,0.0890140533447266,1.03313568615704e-05,0.0809402614831924,0.247100099921227,0.157815992832184,2012-01-18 13:47:02
1.0090000629425,39,-2.77930521965027,0.0411608517169952,0.0529604963958263,0.103849969804287,0.120728254318237,0.162157103419304,0.0295635517686605,0.0183359310030937,1.40536832809448,0.0233657341450453,0.0280163642019033,0.0656290948390961,0.0141590433195233,0.0259264763444662,0.0471998229622841,0.0127029931172729,9.4785041809082,0.0431723967194557,0.0557781793177128,0.142573356628418,0.00444494700059295,0.102488800883293,0.0663385018706322,0.0509502626955509,2012-01-18 13:47:03
1.01699995994568,36,-2.68538761138916,0.0365933142602444,0.0413807518780231,0.0800876915454865,0.0600583255290985,0.0972161367535591,0.0489679351449013,0.00644093193113804,1.39554071426392,0.0203094352036715,0.0253015942871571,0.0716430097818375,0.00483308080583811,0.0150676826015115,0.0309796910732985,0.0230536013841629,9.47376823425293,0.0258180797100067,0.037481389939785,0.0877148807048798,0.00491756992414594,0.0109133739024401,0.0287499148398638,0.0569921806454659,2012-01-18 13:47:04
1.00399994850159,39,-2.65735054016113,0.0339654088020325,0.0416349358856678,0.078704722225666,0.0767991691827774,0.0776475369930267,0.0931484699249268,0.0332878045737743,1.42649042606354,0.0307546015828848,0.0399643518030643,0.0935403630137444,0.0424633175134659,0.0516950115561485,0.0192187149077654,0.0178819596767426,9.49359130859375,0.0400389172136784,0.0478565655648708,0.0973119735717773,0.0412595383822918,0.0597370862960815,0.0184209961444139,0.0474944561719894,2012-01-18 13:47:05
1.00699996948242,37,-2.66184282302856,0.0287393797188997,0.0327670015394688,0.0630805045366287,0.0227174703031778,0.052954975515604,0.0574370510876179,0.0172183196991682,1.45032393932343,0.0350145474076271,0.0412789508700371,0.0795133858919144,0.0419138073921204,0.128664657473564,0.0871492549777031,0.0108837960287929,9.42684078216553,0.0216619856655598,0.028536282479763,0.0712968707084656,0.0238896999508142,0.0505041107535362,0.0530608221888542,0.0234344191849232,2012-01-18 13:47:06
1.01300001144409,41,-2.69037055969238,0.0326227284967899,0.0399148054420948,0.0818017274141312,0.137810006737709,0.247158408164978,0.146639928221703,0.0213112030178308,1.41311430931091,0.014421203173697,0.0191050115972757,0.0597966834902763,0.00344213796779513,0.0122397700324655,0.0102956984192133,0.0170030873268843,9.44260787963867,0.0399149209260941,0.0507119819521904,0.106677033007145,0.0453394539654255,0.161579594016075,0.356862306594849,0.103542342782021,2012-01-18 13:47:07
1.02699995040894,39,-2.66539716720581,0.0235978160053492,0.0280185826122761,0.0470215491950512,0.00139339966699481,0.0403466150164604,0.0800683349370956,0.00950547307729721,1.42372441291809,0.0272213630378246,0.032854750752449,0.0668863356113434,0.00502810999751091,0.0169049985706806,0.0615779981017113,0.0656021684408188,9.46266269683838,0.0283560622483492,0.0340715311467648,0.0792074203491211,0.00464622722938657,0.0386698581278324,0.0491076335310936,0.0115481484681368,2012-01-18 13:47:08
1.00200009346008,38,-2.64185976982117,0.0143975494429469,0.0180740654468536,0.0529042035341263,0.000159894058015198,0.000265945651335642,0.00292058894410729,0.00920458976179361,1.39409267902374,0.0401773899793625,0.0448002070188522,0.080001600086689,0.000767995894420892,0.0151292607188225,0.160708531737328,0.0231112111359835,9.4910306930542,0.0221260450780392,0.0262229386717081,0.0570333115756512,5.7119999837596e-05,0.00632511591538787,0.035354308784008,0.0214674714952707,2012-01-18 13:47:09
1.00099992752075,39,-2.65885925292969,0.0210317131131887,0.0250444300472736,0.057582538574934,0.0116263367235661,0.0251641925424337,0.0187848638743162,0.0298944432288408,1.43981730937958,0.025029206648469,0.0333020389080048,0.090020015835762,0.0261296145617962,0.0195129737257957,0.0277830772101879,0.00763747747987509,9.46014785766602,0.0375501848757267,0.0449853390455246,0.111141838133335,0.0264649707823992,0.0283718835562468,0.107498213648796,0.0515524819493294,2012-01-18 13:47:10
1.04299998283386,39,-2.65433311462402,0.0246423091739416,0.0301511976867914,0.0653775557875633,0.0305757988244295,0.0454321503639221,0.0330405458807945,0.0400380305945873,1.39204132556915,0.0221149194985628,0.0263653732836246,0.0593428201973438,0.00525065045803785,0.0263840351253748,0.054639670997858,0.01180225238204,9.45386219024658,0.0344940721988678,0.0401883125305176,0.0782016143202782,0.028711773455143,0.0425181351602077,0.0232810750603676,0.10939984023571,2012-01-18 13:47:11
1.00999999046326,39,-2.66212821006775,0.0192651022225618,0.0235909800976515,0.0543136596679688,0.0164522770792246,0.0368768982589245,0.0164550058543682,0.0447668880224228,1.40637421607971,0.034919660538435,0.0434453040361404,0.0940433070063591,0.0927611738443375,0.168790221214294,0.0432844646275043,0.0240887254476547,9.45486736297607,0.0312058534473181,0.0381544940173626,0.0895169600844383,0.0361713133752346,0.0311389230191708,0.0566357485949993,0.0430390574038029,2012-01-18 13:47:12
1.01100015640259,38,-2.64392447471619,0.0333996005356312,0.0370731614530087,0.0627108365297318,0.00140867498703301,0.0131838619709015,0.0760718137025833,0.0394896641373634,1.421706199646,0.0271380804479122,0.0339329838752747,0.0880018025636673,0.00932147726416588,0.017184192314744,0.0350275561213493,0.0620374158024788,9.4786434173584,0.0297322981059551,0.0356219746172428,0.0730336084961891,0.0218609925359488,0.081673227250576,0.118386708199978,0.0297289006412029,2012-01-18 13:47:13
1.01300001144409,39,-2.63824033737183,0.0199356414377689,0.0242752246558666,0.0492846183478832,0.00219692313112319,0.0016694109654054,0.0131206242367625,0.00999922212213278,1.42749619483948,0.020915724337101,0.0279847737401724,0.0839851945638657,0.00637653144076467,0.0144334128126502,0.00992898922413588,0.0197800118476152,9.47900676727295,0.0139781590551138,0.0170171987265348,0.0432497672736645,0.00378915900364518,0.00516525888815522,0.00207234988920391,0.00779714295640588,2012-01-18 13:47:14
1.07200002670288,41,-2.644446849823,0.0190648883581161,0.0224682278931141,0.0456845574080944,0.0196233615279198,0.0190649572759867,0.0277721956372261,0.0149684064090252,1.41000485420227,0.0256454609334469,0.0307464059442282,0.0664939060807228,0.0196080394089222,0.0232016947120428,0.0184358675032854,0.0220173932611942,9.47298431396484,0.0255754180252552,0.0313489027321339,0.0884988829493523,0.000218874556594528,0.0126461163163185,0.0876346006989479,0.0300236158072948,2012-01-18 13:47:15
1.00999999046326,38,-2.6093430519104,0.0247610956430435,0.0302998460829258,0.0776788964867592,0.0292584523558617,0.0452895313501358,0.0242698471993208,0.0160352382808924,1.42144811153412,0.0336305685341358,0.0403051748871803,0.0877437368035316,0.048873458057642,0.127171561121941,0.0819557756185532,0.04543312266469,9.4499979019165,0.0246388260275126,0.030552614480257,0.0918726697564125,0.00266007869504392,0.00599928200244904,0.018385486677289,0.0233294777572155,2012-01-18 13:47:16
1.01300001144409,40,-2.64509868621826,0.0278385989367962,0.0358973741531372,0.0855630934238434,0.0111286332830787,0.0772952809929848,0.194915905594826,0.0564738698303699,1.4565327167511,0.0220527015626431,0.0307769142091274,0.0929179787635803,0.000363924831617624,0.0316746458411217,0.121060006320477,0.0930594056844711,9.46905612945557,0.0380742512643337,0.0449336171150208,0.112040780484676,0.0337608307600021,0.0406336970627308,0.0821911692619324,0.0346294082701206,2012-01-18 13:47:17
1.0239999294281,40,-2.64215660095215,0.0272134132683277,0.0325166173279285,0.0630078464746475,0.0281950142234564,0.0727762877941132,0.0910238027572632,0.00893645733594894,1.43593871593475,0.0392633676528931,0.0448801480233669,0.0924277007579803,0.062086321413517,0.0744041949510574,0.0507815405726433,0.0592189058661461,9.44870758056641,0.0183874368667603,0.0235154796391726,0.0637431144714355,0.000992465764284134,0.00925338361412287,0.0267785228788853,0.0172024499624968,2012-01-18 13:47:18
1.00200009346008,37,-2.64143443107605,0.0241835080087185,0.0293948575854301,0.062285590916872,0.0188239756971598,0.039146076887846,0.043918564915657,0.00960894208401442,1.41401290893555,0.0278798211365938,0.0328697934746742,0.0765978321433067,0.000244043345446698,0.00253201671876013,0.0413750633597374,0.0527529865503311,9.44380378723145,0.0206734426319599,0.0276434812694788,0.0784530639648438,0.00971284974366426,0.0149698881432414,0.00801627058535814,0.0252593029290438,2012-01-18 13:47:19
1.06099987030029,58,-2.61431765556335,0.0225751046091318,0.0265794824808836,0.0628977417945862,1.08766462290077e-05,0.0138790309429169,0.0982665047049522,0.0494157373905182,1.45239865779877,0.0341891720890999,0.0403390005230904,0.108887657523155,0.134165823459625,0.103181049227715,0.0713826566934586,0.215343594551086,9.47136402130127,0.0412963032722473,0.0483334884047508,0.119539476931095,0.0237143561244011,0.543122410774231,0.624938011169434,0.193634882569313,2012-01-18 13:47:20
1.01300001144409,40,-2.60807847976685,0.0294935312122107,0.0364927537739277,0.0887501016259193,0.0294218603521585,0.1042760014534,0.0736155211925507,0.0200259108096361,1.44255816936493,0.0262327790260315,0.035683274269104,0.0892405733466148,0.0174266006797552,0.0191625878214836,0.0600119680166245,0.0202089436352253,9.45998477935791,0.0153718972578645,0.0190599672496319,0.0456008426845074,0.00249091698788106,0.00155026046559215,0.00441017281264067,0.00622800784185529,2012-01-18 13:47:21
1,38,-2.62714982032776,0.0263774115592241,0.0314802452921867,0.0676143765449524,0.0121583538129926,0.0471364445984364,0.0278693940490484,0.0188435427844524,1.39331841468811,0.0529450364410877,0.0633302256464958,0.118454039096832,0.204079300165176,0.365043669939041,0.181288838386536,0.0725320801138878,9.48328876495361,0.0214604996144772,0.0275989398360252,0.0689044967293739,0.0199324302375317,0.0265468955039978,0.00766774080693722,0.00444506527855992,2012-01-18 13:47:22
1.00099992752075,38,-2.64082765579224,0.0337391905486584,0.0416004694998264,0.0812920331954956,0.0888622999191284,0.147010892629623,0.0710462331771851,0.0260295663028955,1.41499638557434,0.028428427875042,0.0317299962043762,0.0658077448606491,0.0155725004151464,0.0587673410773277,0.0694795474410057,0.0128725757822394,9.43270683288574,0.0195589363574982,0.0266362018883228,0.0797434076666832,0.00612833676859736,0.0321865044534206,0.052262119948864,0.00625790096819401,2012-01-18 13:47:23
1.01600003242493,38,-2.60908508300781,0.0223569795489311,0.0304303597658873,0.06813033670187,0.00920653063803911,0.0165643561631441,0.013979921117425,0.013604898005724,1.40957689285278,0.0323809534311295,0.035904161632061,0.0614205710589886,0.0317435078322887,0.0623259507119656,0.0368518829345703,0.0214549880474806,9.4760627746582,0.0399328283965588,0.0530450120568275,0.134454101324081,0.0310224518179893,0.0420101769268513,0.0459697432816029,0.0782067030668259,2012-01-18 13:47:24
1.2020001411438,38,-2.59669756889343,0.030234944075346,0.0375223346054554,0.0903243497014046,0.0369105711579323,0.10966282337904,0.0691870898008347,0.0285861827433109,1.41964161396027,0.0310770235955715,0.0359569862484932,0.0611624829471111,9.47689404711127e-05,0.00197393330745399,0.0405052155256271,0.0444139912724495,9.49335289001465,0.0350702591240406,0.0447108298540115,0.0975501909852028,0.033051922917366,0.0854068771004677,0.133584812283516,0.0206810534000397,2012-01-18 13:47:25
1,38,-2.62534332275391,0.0387512110173702,0.0448217466473579,0.0756144747138023,0.000535500817932189,0.0170389581471682,0.195231944322586,0.103293180465698,1.45964241027832,0.0299360807985067,0.0359634794294834,0.0701949670910835,0.0559236593544483,0.104806885123253,0.0606754757463932,0.0491015911102295,9.46444892883301,0.030044699087739,0.0341042242944241,0.057807520031929,0.00010422811465105,0.035907618701458,0.0517134964466095,0.0116112837567925,2012-01-18 13:47:26
1.02799987792969,39,-2.69682860374451,0.118182718753815,0.140839487314224,0.264779508113861,1.76000094413757,3.28259682655334,1.81086373329163,0.430751442909241,1.50846385955811,0.0265379194170237,0.0307615976780653,0.060600008815527,0.00189149531070143,0.018596226349473,0.0613159313797951,0.0107164969667792,9.43173408508301,0.0240620337426662,0.0319096632301807,0.0807161331176758,0.0290581919252872,0.0920390412211418,0.0801649391651154,0.028266116976738,2012-01-18 13:47:27
1.02100014686584,39,-3.1564838886261,0.191955015063286,0.219846904277802,0.489075243473053,0.00771142356097698,3.28634023666382,4.08312177658081,1.04868304729462,1.07521116733551,0.339809119701385,0.394419342279434,0.722171723842621,14.8697633743286,26.2670612335205,14.4250116348267,2.67171478271484,9.28941249847412,0.064707063138485,0.0872543454170227,0.272071272134781,0.161726206541061,0.49665167927742,0.862374246120453,0.390268415212631,2012-01-18 13:47:28
1.01099991798401,38,-3.13477301597595,0.137754917144775,0.196407347917557,0.585044145584106,1.30251967906952,1.43864619731903,0.358266085386276,0.161734193563461,1.27718710899353,0.14052577316761,0.216967895627022,0.629948198795319,0.138308569788933,0.156101897358894,0.0894637033343315,0.288447141647339,9.3034143447876,0.122460849583149,0.161815300583839,0.418589204549789,0.0743778869509697,0.131376385688782,0.253716170787811,0.139563351869583,2012-01-18 13:47:29
1.05699992179871,40,-3.53725862503052,0.185198560357094,0.194572404026985,0.261837691068649,4.19563293457031,6.20119285583496,1.36310219764709,0.178757190704346,1.04440820217133,0.0387362539768219,0.0516131669282913,0.132389783859253,0.250654488801956,0.347982376813889,0.157481387257576,0.0494773872196674,9.19422435760498,0.0615125596523285,0.0746516734361649,0.142686992883682,0.555216372013092,0.858011364936829,0.386633157730103,0.0880776569247246,2012-01-18 13:47:30
1.00500011444092,39,-3.73130440711975,0.0675311014056206,0.0809247419238091,0.191104009747505,0.341084539890289,0.916167140007019,0.613323271274567,0.161978408694267,0.838342845439911,0.0428758785128593,0.0543463379144669,0.112650737166405,0.0412961505353451,0.0299147386103868,0.0872228965163231,0.0362819395959377,9.12395572662354,0.0381434410810471,0.0524410642683506,0.153135225176811,0.0692748948931694,0.262840121984482,0.246812030673027,0.102698251605034,2012-01-18 13:47:31
1.01999998092651,39,-3.44087672233582,0.0813803523778915,0.093725360929966,0.167970344424248,0.00372440880164504,0.459638327360153,0.965726912021637,0.244849503040314,0.729966759681702,0.0692590624094009,0.0767626687884331,0.141567781567574,0.135467439889908,0.212786227464676,0.45771387219429,0.12036158144474,9.31933498382568,0.0400389470160007,0.0492166392505169,0.130504578351974,0.0612057782709599,0.112617373466492,0.0441581048071384,0.0254569891840219,2012-01-18 13:47:32
1.0149998664856,40,-3.67136454582214,0.0744079872965813,0.0897907987236977,0.199810475111008,0.340851694345474,0.516041219234467,0.168833076953888,0.0348983891308308,0.680581510066986,0.0174558442085981,0.0216857828199863,0.0451105982065201,0.0169330816715956,0.0223907418549061,0.028310514986515,0.00935115199536085,9.22462558746338,0.0369468405842781,0.0404668673872948,0.0652147307991982,0.0893865302205086,0.116048850119114,0.0164155717939138,0.0328833647072315,2012-01-18 13:47:33
1.01500010490417,40,-3.53210997581482,0.0769086554646492,0.0864957496523857,0.188042506575584,0.703221321105957,0.950008451938629,0.293709635734558,0.182412400841713,0.76467353105545,0.0894979387521744,0.0988597720861435,0.166467890143394,1.1003258228302,1.56619501113892,0.365893334150314,0.0603359751403332,9.24399375915527,0.0397171229124069,0.0484756454825401,0.114002846181393,0.0760424882173538,0.161175549030304,0.151088356971741,0.0253073554486036,2012-01-18 13:47:34
1.01699995994568,38,-3.33271241188049,0.0449041202664375,0.0519175752997398,0.0996150076389313,0.158247008919716,0.341024726629257,0.160327270627022,0.0262137651443481,0.833307147026062,0.0281975083053112,0.035607073456049,0.0787112638354301,0.0489392280578613,0.100592575967312,0.0928926914930344,0.012277027592063,9.30599498748779,0.0237967055290937,0.028894541785121,0.0779369249939919,0.000420117226894945,0.00554412184283137,0.0318950600922108,0.0398194342851639,2012-01-18 13:47:36
1.01099991798401,38,-3.5851047039032,0.0648705661296844,0.0731316730380058,0.14297054708004,0.00857117213308811,0.281714737415314,0.412107408046722,0.161943882703781,0.793564438819885,0.026187289506197,0.0332469493150711,0.0678723230957985,0.000377613730961457,0.0474889017641544,0.092337541282177,0.0161859076470137,9.24767112731934,0.0196132957935333,0.0246453396975994,0.0686464533209801,0.0056664808653295,0.0275088008493185,0.0212919656187296,0.00525405118241906,2012-01-18 13:47:37
1.01800012588501,37,-3.38329410552979,0.0530089139938354,0.06915582716465,0.137293130159378,0.331016808748245,0.496825665235519,0.263312190771103,0.106300458312035,0.783471822738647,0.031246604397893,0.0403233766555786,0.0893200263381004,0.0636247992515564,0.100383915007114,0.0513060428202152,0.0276167634874582,9.30518531799316,0.026031631976366,0.0306879449635744,0.0673212110996246,0.0176865421235561,0.0496551729738712,0.0413602702319622,0.00733385281637311,2012-01-18 13:47:38
1.00999999046326,39,-3.31188154220581,0.0246036760509014,0.0316371060907841,0.0714124515652657,0.00778138218447566,0.0116385910660028,0.0172565747052431,0.0133247803896666,0.912018418312073,0.0573311857879162,0.0716176480054855,0.186326339840889,0.103854544460773,0.131526052951813,0.04499476775527,0.0359205044806004,9.3087739944458,0.0261897053569555,0.0308087859302759,0.0663833618164062,0.0209865011274815,0.0869543105363846,0.059426199644804,0.0123841604217887,2012-01-18 13:47:39
1.00999999046326,38,-3.32161545753479,0.0239868778735399,0.0332869738340378,0.10090533643961,0.0334647111594677,0.0767605155706406,0.0845687836408615,0.0561425536870956,0.900921404361725,0.0378683358430862,0.0453417561948299,0.0993568077683449,0.0769391059875488,0.157764956355095,0.171841248869896,0.025977211073041,9.33076953887939,0.0276541616767645,0.0373585931956768,0.112518213689327,0.0265745241194963,0.0305313561111689,0.0315007828176022,0.00362356542609632,2012-01-18 13:47:40
1.01699995994568,38,-3.28187274932861,0.0291755292564631,0.0364354215562344,0.0849049314856529,0.0775073021650314,0.119314178824425,0.0565633960068226,0.0275439564138651,0.940922260284424,0.0399328954517841,0.0510534718632698,0.107357002794743,8.87014539330266e-05,0.0124805057421327,0.0906712934374809,0.0213198848068714,9.31115627288818,0.0369718223810196,0.0454846657812595,0.0836144462227821,0.00542849116027355,0.0209246184676886,0.0245749931782484,0.0311591774225235,2012-01-18 13:47:41
1.01300001144409,39,-3.28195881843567,0.0157577823847532,0.019017593935132,0.0424955487251282,0.00955163966864347,0.0180849861353636,0.0439021736383438,0.018997373059392,0.914030075073242,0.0163508616387844,0.0197610352188349,0.041238222271204,1.91045146493707e-05,0.000375116622308269,0.00801821053028107,0.00647433334961534,9.34548568725586,0.0274147298187017,0.032371960580349,0.0590912513434887,0.000775765278376639,0.00346032599918544,0.01436897367239,0.0245897434651852,2012-01-18 13:47:42
1.01300001144409,39,-3.27542090415955,0.0150872338563204,0.0181778445839882,0.0392266921699047,0.0106119364500046,0.0116021418944001,0.00192366202827543,0.0016291041392833,0.88863331079483,0.0292071830481291,0.0361934490501881,0.0822249948978424,0.0178020149469376,0.0169762838631868,0.0650801882147789,0.0360128507018089,9.33668518066406,0.0249904729425907,0.0334138162434101,0.0694007873535156,0.0368432961404324,0.113563165068626,0.0833392590284348,0.0612643174827099,2012-01-18 13:47:43
1.01099991798401,38,-3.25374317169189,0.0195317845791578,0.0235055983066559,0.0510979406535625,0.00126386235933751,0.00824298523366451,0.0111595736816525,0.00499978382140398,0.91227650642395,0.0214876979589462,0.0269494503736496,0.0585818365216255,0.0121624926105142,0.0355481430888176,0.0230296049267054,0.0285667981952429,9.355544090271,0.0320005901157856,0.040182638913393,0.0980663299560547,0.00968081410974264,0.0152046140283346,0.0116997631266713,0.079750694334507,2012-01-18 13:47:44
1.07500004768372,39,-3.2123064994812,0.0405934453010559,0.0511642545461655,0.123211748898029,0.0896214246749878,0.201574981212616,0.302493840456009,0.138838946819305,0.946970343589783,0.0364154800772667,0.0452837981283665,0.0937918275594711,0.00475455960258842,0.0715716034173965,0.232296958565712,0.098256029188633,9.34598922729492,0.0500196851789951,0.0654463022947311,0.166965112090111,0.0848914980888367,0.14902475476265,0.107162080705166,0.0144503442570567,2012-01-18 13:47:45
1.00600004196167,37,-3.14051342010498,0.0604874864220619,0.0710615962743759,0.12510097026825,0.295362681150436,0.486990958452225,0.207032173871994,0.0417664051055908,1.02174687385559,0.0499430038034916,0.0614263378083706,0.148955047130585,0.00323197920806706,0.0616640597581863,0.0661428049206734,0.0111782634630799,9.35103797912598,0.026275185868144,0.0330083705484867,0.0731521844863892,0.00667811650782824,0.00639428244903684,0.00842783134430647,0.00354967615567148,2012-01-18 13:47:46
1.01500010490417,36,-3.15556192398071,0.0642274990677834,0.073789581656456,0.125307127833366,0.239966869354248,0.351375192403793,0.104646191000938,0.0072284983471036,1.04195654392242,0.0230183731764555,0.0306103434413671,0.10051815956831,0.001622598269023,0.0184308383613825,0.0365976914763451,0.0207179170101881,9.34873390197754,0.0213536415249109,0.0267388839274645,0.0716429054737091,0.0127149317413568,0.0257052667438984,0.0187494140118361,0.0262351091951132,2012-01-18 13:47:47
1.03199982643127,36,-3.26452469825745,0.0481857620179653,0.0578683614730835,0.0969768092036247,0.123141899704933,0.162247359752655,0.0396667867898941,0.0309311226010323,0.993195652961731,0.0407097041606903,0.0526387207210064,0.120403856039047,0.0156301073729992,0.0680064707994461,0.12229098379612,0.0470558851957321,9.30215263366699,0.0180393625050783,0.0211145766079426,0.0435850359499454,0.00136313249822706,0.00181101122871041,0.00184656004421413,0.00120605085976422,2012-01-18 13:47:48
1.01999998092651,40,-3.29969239234924,0.0399130769073963,0.0474376194179058,0.0934082791209221,0.0830946788191795,0.0728024169802666,0.0812148451805115,0.0342318415641785,0.989490926265717,0.0358923338353634,0.0436258129775524,0.0892404690384865,6.54397945254459e-06,0.0517532043159008,0.101471692323685,0.0540278591215611,9.3043041229248,0.0320063978433609,0.0382010526955128,0.0762465745210648,0.0164459031075239,0.00992273446172476,0.0415552780032158,0.0286843851208687,2012-01-18 13:47:49
1.00300002098083,39,-3.24449229240417,0.0222438760101795,0.0284863840788603,0.0701553449034691,0.00915954262018204,0.0307851657271385,0.0430300086736679,0.0169382411986589,0.989968717098236,0.0287558492273092,0.035319909453392,0.0887627005577087,0.0072121974080801,0.0313527509570122,0.0567439720034599,0.0159063134342432,9.34624004364014,0.0413542054593563,0.0557384938001633,0.185823127627373,0.00413620378822088,0.0170546378940344,0.0322887822985649,0.0248141568154097,2012-01-18 13:47:50
1.00200009346008,38,-3.21812963485718,0.0460993871092796,0.0544863417744637,0.109421633183956,0.0572160258889198,0.122319370508194,0.146657198667526,0.017212113365531,1.00389122962952,0.0351789854466915,0.0416316986083984,0.0918728336691856,0.00952864158898592,0.0373428761959076,0.153994247317314,0.017261691391468,9.35451221466064,0.0430024936795235,0.0523670837283134,0.106840685009956,0.0528522245585918,0.14769259095192,0.0569696053862572,0.0655384883284569,2012-01-18 13:47:51
1.01900005340576,37,-3.20359396934509,0.0218482334166765,0.0256997160613537,0.0522136949002743,0.003248346503824,0.0103336554020643,0.0363691188395023,0.0253525320440531,1.02042162418365,0.0207451228052378,0.0249705258756876,0.0583097636699677,0.0207961387932301,0.02541683614254,0.00845379661768675,0.0196553021669388,9.3470630645752,0.0371205657720566,0.0575519762933254,0.18765215575695,0.0296136066317558,0.0699116587638855,0.0345541536808014,0.0437204577028751,2012-01-18 13:47:52
1.00599980354309,39,-3.15321516990662,0.0169440899044275,0.0215135756880045,0.0535593815147877,0.012054156512022,0.0126004293560982,0.0111992955207825,0.0128179928287864,1.03422439098358,0.0336172692477703,0.0449587106704712,0.132012590765953,0.0142958620563149,0.0722123309969902,0.130877986550331,0.0329534746706486,9.36409378051758,0.0407094545662403,0.0494178608059883,0.136035606265068,0.0664407685399055,0.097179651260376,0.0161622371524572,0.0317624285817146,2012-01-18 13:47:53
1.00100016593933,38,-3.17890286445618,0.0197762846946716,0.0243899971246719,0.0505817867815495,0.00576896127313375,0.024613531306386,0.0488129854202271,0.0139473015442491,1.013955950737,0.0225471686571836,0.02823830768466,0.0745822116732597,0.00828921142965555,0.0154631342738867,0.0460197851061821,0.0176144931465387,9.35038280487061,0.0185809880495071,0.0283453613519669,0.0738078132271767,0.0362830869853497,0.0483880676329136,0.0337950550019741,0.0195254217833281,2012-01-18 13:47:54
1.09999990463257,41,-3.18883562088013,0.0190998967736959,0.0227063279598951,0.0507077015936375,0.00682548386976123,0.0132694970816374,0.0118357520550489,0.0105902776122093,1.00147426128387,0.0409884229302406,0.0498255044221878,0.0992624163627625,0.0811968818306923,0.0950555950403214,0.0414115637540817,0.180729731917381,9.37970161437988,0.0140361441299319,0.0193844120949507,0.0829975977540016,0.00249472702853382,0.00807935371994972,0.0191459730267525,0.0220668390393257,2012-01-18 13:47:55
1.01600003242493,40,-3.18201279640198,0.0237320568412542,0.029007388278842,0.0639882832765579,0.00298112467862666,0.00509204668924212,0.0329684391617775,0.01894561201334,0.995865285396576,0.0229475479573011,0.0272079259157181,0.0534462407231331,0.0335862040519714,0.070681132376194,0.0552014075219631,0.0169527567923069,9.37049961090088,0.0291256997734308,0.0362969636917114,0.0831112116575241,0.0486636124551296,0.0510991811752319,0.0202702190726995,0.00658707786351442,2012-01-18 13:47:56
1.01399993896484,39,-3.14064240455627,0.0229531824588776,0.0265303887426853,0.0563254095613956,0.0056332410313189,0.0223571043461561,0.0297678019851446,0.038335382938385,0.984688222408295,0.0326759293675423,0.0422365441918373,0.0940432175993919,0.0177756119519472,0.0255552977323532,0.0710318237543106,0.04096994176507,9.35026359558105,0.0278918445110321,0.0344645380973816,0.0829792022705078,7.95704909251072e-05,0.0282034687697887,0.117578007280827,0.0267168283462524,2012-01-18 13:47:57
1,40,-3.13494062423706,0.0344213731586933,0.0430481694638729,0.111060276627541,0.00737919425591826,0.039982620626688,0.0835652202367783,0.0564449355006218,0.994394302368164,0.024516623467207,0.0306055471301079,0.0627625361084938,0.00548086501657963,0.0271592922508717,0.0644560232758522,0.0052120047621429,9.35480880737305,0.0419601313769817,0.0514445304870605,0.138028353452682,0.0692838877439499,0.0526102259755135,0.126102671027184,0.0369590222835541,2012-01-18 13:47:58
1.00800013542175,41,-3.1508047580719,0.0279557090252638,0.0325065478682518,0.0755829364061356,7.41191470297053e-05,0.0431839749217033,0.0767887979745865,0.0128886345773935,1.0064971446991,0.0385148711502552,0.0494266226887703,0.123898662626743,0.0117832878604531,0.0653446316719055,0.105116114020348,0.0471024475991726,9.38520336151123,0.0375113934278488,0.0491281636059284,0.127725422382355,0.0498425923287868,0.0864330604672432,0.0383149087429047,0.0602196790277958,2012-01-18 13:47:59
