"diffSecs","N.samples","x.mean","x.absolute.deviation","x.standard.deviation","x.max.deviation","x.PSD.1","x.PSD.3","x.PSD.6","x.PSD.10","y.mean","y.absolute.deviation","y.standard.deviation","y.max.deviation","y.PSD.1","y.PSD.3","y.PSD.6","y.PSD.10","z.mean","z.absolute.deviation","z.standard.deviation","z.max.deviation","z.PSD.1","z.PSD.3","z.PSD.6","z.PSD.10","time"
6.46500015258789,36,-7.60396718978882,0.0154666341841221,0.0180940236896276,0.0354128405451775,0.000786487944424152,0.00549580715596676,0.0147509714588523,0.00315509317442775,2.86408662796021,0.0408005528151989,0.0468571856617928,0.0986112728714943,0.0162145439535379,0.115998864173889,0.151415258646011,0.098304457962513,5.39256763458252,0.0331125929951668,0.0415918752551079,0.108962997794151,0.066710539162159,0.117601424455643,0.0863103047013283,0.018936425447464,2012-01-17 12:20:06
0.308000087738037,99,-7.60144138336182,0.0188488271087408,0.0230575017631054,0.0601275376975536,0.000487927463836968,0.029190469533205,0.193553850054741,0.021433537825942,2.81827259063721,0.0174420271068811,0.023560157045722,0.0626039728522301,0.0715423747897148,0.141757249832153,0.0665366500616074,0.0274291280657053,5.38345432281494,0.0317262671887875,0.0397168397903442,0.0984629839658737,0.11470127850771,0.49057936668396,0.164147511124611,0.314510881900787,2012-01-17 12:20:06
0.166999816894531,99,-7.59569597244263,0.0250163786113262,0.0324583612382412,0.102524355053902,0.00809206627309322,0.194023460149765,0.448333263397217,0.106894165277481,2.8240180015564,0.0235395450145006,0.0309000853449106,0.0781559273600578,0.011330827139318,0.247454181313515,0.104869015514851,0.126264482736588,5.37344980239868,0.0234194528311491,0.0283545069396496,0.0680520907044411,0.0465956814587116,0.062434758991003,0.0964127480983734,0.0650084614753723,2012-01-17 12:20:06
1.01600003242493,75,-7.59845352172852,0.0168900731950998,0.0222114399075508,0.0703462436795235,0.00235611596144736,0.0375212021172047,0.104764960706234,0.0826258063316345,2.82366132736206,0.0211823452264071,0.0290176626294851,0.0777993127703667,0.0991965010762215,0.0733243227005005,0.04673046246171,0.183842778205872,5.38698863983154,0.0393730401992798,0.0488671809434891,0.140431061387062,0.20797061920166,0.175492808222771,0.265449374914169,0.181460618972778,2012-01-17 12:20:07
1.01500010490417,48,-7.58483076095581,0.0195621903985739,0.0259386710822582,0.0827434659004211,0.000211916965781711,0.0460111051797867,0.0721299573779106,0.0205029081553221,2.84229397773743,0.0245847515761852,0.02978097461164,0.0800876691937447,0.0479526855051517,0.0497974082827568,0.00481032580137253,0.0674247965216637,5.38630247116089,0.0300328452140093,0.0385308973491192,0.105421751737595,0.00856975838541985,0.1034786850214,0.0585574544966221,0.0104757780209184,2012-01-17 12:20:08
1.01900005340576,33,-7.59242677688599,0.0253225453197956,0.0320971868932247,0.0707266256213188,0.0219849962741137,0.0439346209168434,0.04536022990942,0.00842105504125357,2.7957866191864,0.0320404358208179,0.0412093959748745,0.0891514644026756,0.0179819725453854,0.0409235469996929,0.0329445004463196,0.0254974085837603,5.38058185577393,0.0285283997654915,0.0329846367239952,0.0621091388165951,4.8857950787351e-06,0.00245638540945947,0.0357056260108948,0.0158358830958605,2012-01-17 12:20:09
1.00399994850159,50,-7.60505676269531,0.0188287347555161,0.0228096470236778,0.073549747467041,0.0479159168899059,0.0854587405920029,0.0192079674452543,0.0332194268703461,2.8252956867218,0.0268702078610659,0.0328339710831642,0.079433761537075,1.14451413537608e-05,0.00347912427969277,0.025903606787324,0.128492012619972,5.38718509674072,0.0359080992639065,0.0434872321784496,0.0849258154630661,0.0495888628065586,0.328991264104843,0.272825837135315,0.0466457270085812,2012-01-17 12:20:10
1.01600003242493,31,-7.60996007919312,0.0234093815088272,0.0271723717451096,0.0588397979736328,0.0131144458428025,0.0173308476805687,0.00699408771470189,0.0103331347927451,2.83317279815674,0.0338181741535664,0.0391755737364292,0.0775041207671165,0.00796300917863846,0.0111583536490798,0.0080732898786664,0.0290862955152988,5.37910556793213,0.028940312564373,0.0345032140612602,0.0831986516714096,0.00865900982171297,0.013148594647646,0.0125214084982872,0.008494240231812,2012-01-17 12:20:12
1.00799989700317,44,-7.60371971130371,0.0258943736553192,0.030663350597024,0.0650803819298744,0.0315817929804325,0.0776119455695152,0.14074844121933,0.0223034825176001,2.77104711532593,0.0242329370230436,0.0293751507997513,0.0546053387224674,0.000827136333100498,0.0104868290945888,0.0723433271050453,0.0388509258627892,5.42040252685547,0.0337560810148716,0.040722880512476,0.100741155445576,0.0329094529151917,0.120028093457222,0.0719424486160278,0.0807600244879723,2012-01-17 12:20:13
1.01699995994568,41,-7.58484554290771,0.027045538648963,0.0341123417019844,0.0643410831689835,0.0327739529311657,0.0693560093641281,0.026746341958642,0.0165843274444342,2.82335829734802,0.0249453950673342,0.0299967043101788,0.0794100165367126,2.10879329642921e-06,0.0120998760685325,0.062282107770443,0.0262071788311005,5.38983011245728,0.0220985021442175,0.0292903836816549,0.0822804868221283,0.021843895316124,0.0325735174119473,0.0192737318575382,0.0372001752257347,2012-01-17 12:20:14
1.00399994850159,47,-7.59681510925293,0.0237152706831694,0.0280510559678078,0.0555013678967953,0.00925182830542326,0.00613705534487963,0.0438169352710247,0.0383855327963829,2.82160258293152,0.0256952531635761,0.0317096002399921,0.0659339725971222,0.087450236082077,0.0969401150941849,0.00518950261175632,0.0242514777928591,5.39094495773315,0.0318660587072372,0.0396263673901558,0.110585860908031,0.0184712074697018,0.0603647530078888,0.248911082744598,0.178997337818146,2012-01-17 12:20:15
1.12600016593933,44,-7.58254623413086,0.0196537896990776,0.0243447702378035,0.0608456991612911,0.0299615282565355,0.055778905749321,0.0256634559482336,0.0335958674550056,2.79890704154968,0.037625890225172,0.0448578149080276,0.113668002188206,0.228674903512001,0.322984397411346,0.0734901651740074,0.0310105141252279,5.38229036331177,0.0258437190204859,0.0318419300019741,0.086699552834034,0.0129048777744174,0.0502993501722813,0.0473401211202145,0.0245493948459625,2012-01-17 12:20:16
1.00499987602234,40,-7.59377908706665,0.0362845435738564,0.042040042579174,0.072078749537468,0.0138624999672174,0.0215244628489017,0.148253902792931,0.0599844828248024,2.78386259078979,0.0150164067745209,0.0203576236963272,0.0576139688491821,0.000408641761168838,0.00169936451129615,0.00504083232954144,0.0115079395473003,5.39145088195801,0.0395821146667004,0.0443737842142582,0.0806599408388138,0.0507452227175236,0.0638025104999542,0.0162133388221264,0.0894811525940895,2012-01-17 12:20:17
1.00999999046326,47,-7.62832164764404,0.0272046681493521,0.0317041352391243,0.0600921548902988,0.00620650127530098,0.0668035596609116,0.0264575555920601,0.0553814768791199,2.79865097999573,0.0172870215028524,0.0229365136474371,0.0724021643400192,0.0165625661611557,0.0376700535416603,0.0249064080417156,0.00710115907713771,5.36987113952637,0.0326384827494621,0.0397316291928291,0.0840866789221764,0.014876994304359,0.146668121218681,0.263474076986313,0.153703287243843,2012-01-17 12:20:18
1.02999997138977,35,-7.61136102676392,0.0326621159911156,0.0389554649591446,0.0770525634288788,0.0410768389701843,0.0599135123193264,0.0222760364413261,0.052464921027422,2.8086245059967,0.0236479956656694,0.0265426877886057,0.0451105125248432,9.87575986073352e-05,0.00537303742021322,0.0347324833273888,0.0256848409771919,5.39029502868652,0.0301484894007444,0.0353928543627262,0.0720091015100479,0.00419214135035872,0.0224849414080381,0.0290400311350822,0.0296023096889257,2012-01-17 12:20:19
1.00300002098083,49,-7.57433605194092,0.0216472949832678,0.025960573926568,0.062442235648632,0.00340292928740382,0.0173499751836061,0.0847447887063026,0.0535911656916142,2.82691693305969,0.027684073895216,0.0345881767570972,0.0908614993095398,0.0299563258886337,0.0717800408601761,0.246956303715706,0.146604552865028,5.41607236862183,0.0383117944002151,0.0444347374141216,0.0854580774903297,0.00535533158108592,0.0753257349133492,0.373186349868774,0.0862578824162483,2012-01-17 12:20:20
1.00500011444092,38,-7.54621696472168,0.0247746519744396,0.0307449251413345,0.0833563804626465,0.0129908435046673,0.0240720678120852,0.0229523219168186,0.0426621958613396,2.79721784591675,0.0235793832689524,0.0295430161058903,0.0565171726047993,0.024617513641715,0.029166828840971,0.0103121288120747,0.0114718116819859,5.44449710845947,0.0302893742918968,0.0368209928274155,0.0668401494622231,0.024673830717802,0.0249710250645876,0.0520902723073959,0.0156497247517109,2012-01-17 12:20:21
1.02300000190735,45,-7.59819221496582,0.0245819594711065,0.0309837181121111,0.0706077590584755,0.0122367721050978,0.00988239794969559,0.146800264716148,0.110426254570484,2.80600929260254,0.0225189402699471,0.0266849491745234,0.067339114844799,0.0272420085966587,0.0283195767551661,0.0425776690244675,0.0246672350913286,5.43288373947144,0.0183059498667717,0.0224581211805344,0.0490334294736385,0.000598545768298209,0.0130281019955873,0.0133724370971322,0.0160940755158663,2012-01-17 12:20:22
1.59999990463257,46,-7.58906745910645,0.0194093473255634,0.0251778159290552,0.057560671120882,8.97197423910256e-06,0.0158762522041798,0.0906610414385796,0.0211024731397629,2.80278301239014,0.0228945128619671,0.0285265725106001,0.0667277500033379,0.00353169487789273,0.0621115788817406,0.111921153962612,0.0543155036866665,5.40666198730469,0.0357322543859482,0.0421083830296993,0.104675501585007,0.132289946079254,0.109785459935665,0.0478923171758652,0.0357963517308235,2012-01-17 12:20:23
1.01300001144409,44,-7.61241149902344,0.0201704613864422,0.0249254964292049,0.0563881397247314,0.00321936956606805,0.0585065074265003,0.0679834559559822,0.00980682019144297,2.79288935661316,0.0419517457485199,0.0465442053973675,0.0862540081143379,0.0431602485477924,0.277444064617157,0.145378947257996,0.00349093414843082,5.40992736816406,0.0283157341182232,0.0359678268432617,0.104529902338982,0.041553758084774,0.0919487774372101,0.0355201214551926,0.00852750334888697,2012-01-17 12:20:24
1.00600004196167,50,-7.60760641098022,0.0224532764405012,0.0296517517417669,0.0859061181545258,0.0152986431494355,0.0585672222077847,0.0428027734160423,0.0325303748250008,2.77449727058411,0.0305653270334005,0.0366322323679924,0.0988511070609093,0.0236906427890062,0.0774640887975693,0.0818591043353081,0.0929849818348885,5.43111896514893,0.0216610431671143,0.0293342992663383,0.0802185535430908,4.09201902584755e-06,0.019271207973361,0.0326236933469772,0.0214883666485548,2012-01-17 12:20:25
1.01900005340576,48,-7.58789539337158,0.0236993636935949,0.0289738569408655,0.0760014057159424,0.0608020313084126,0.123419873416424,0.0418764539062977,0.0299172271043062,2.80470180511475,0.0192046761512756,0.0299598034471273,0.107873186469078,0.036587730050087,0.118557021021843,0.139643922448158,0.036508496850729,5.40019512176514,0.025061434134841,0.0327908433973789,0.0915290117263794,0.0085299052298069,0.0277293678373098,0.00387507909908891,0.0273960884660482,2012-01-17 12:20:26
1.01199984550476,30,-7.60244178771973,0.0184364691376686,0.024244848638773,0.0611280128359795,0.00441469019278884,0.00689782667905092,0.00579441199079156,0.0025274702347815,2.81189346313477,0.0231872666627169,0.030692707747221,0.0810683816671371,0.00985227711498737,0.0130962803959846,0.00660972343757749,0.0036964809987694,5.40836715698242,0.03040068782866,0.0366713739931583,0.0735501125454903,0.00175255292560905,0.00841550342738628,0.0163647476583719,0.0129661587998271,2012-01-17 12:20:27
1.02800011634827,49,-7.61996698379517,0.0210428256541491,0.026246028020978,0.0684467554092407,0.026422617956996,0.0372327901422977,0.044523686170578,0.0228994134813547,2.81590938568115,0.0233872607350349,0.0289830565452576,0.0700473934412003,0.000109077518573031,0.0138474255800247,0.023146390914917,0.10911601036787,5.40346384048462,0.0180122274905443,0.0217937082052231,0.0490336045622826,0.0134135568514466,0.00907212775200605,0.0168611034750938,0.0332912616431713,2012-01-17 12:20:28
1.00200009346008,33,-7.61174297332764,0.0374975837767124,0.0437538512051105,0.0900427624583244,0.00114087446127087,0.0297340508550406,0.0858012661337852,0.0314121767878532,2.7877631187439,0.0198834203183651,0.023316066712141,0.0463586300611496,0.00214127381332219,0.00162874790839851,0.00500111095607281,0.00306536280550063,5.36334562301636,0.026583269238472,0.0322426781058311,0.0775615498423576,0.000134906731545925,0.0123118991032243,0.037124153226614,0.0200900342315435,2012-01-17 12:20:29
1.00899982452393,48,-7.59382009506226,0.021043399348855,0.0262903124094009,0.0651732459664345,0.106572858989239,0.129577308893204,0.0242248363792896,0.0362551100552082,2.78774452209473,0.0220479033887386,0.0285727623850107,0.0811092630028725,0.0348659828305244,0.0915378406643867,0.0933301225304604,0.0348493270576,5.41020584106445,0.0318205878138542,0.0403424762189388,0.0913246497511864,0.00612145708873868,0.0141129065304995,0.031035128980875,0.0699340924620628,2012-01-17 12:20:30
1,37,-7.62029695510864,0.0291691813617945,0.0338136479258537,0.0593698844313622,0.00524466158822179,0.0130045814439654,0.0586423091590405,0.029345016926527,2.80814743041992,0.0279227830469608,0.0372705794870853,0.101512141525745,0.0261335987597704,0.0419880598783493,0.0132557041943073,0.0418554469943047,5.40478897094727,0.0365618877112865,0.0450935140252113,0.0967414826154709,0.0752685070037842,0.0872077122330666,0.0600499249994755,0.0167385507375002,2012-01-17 12:20:31
1.01300001144409,47,-7.60370063781738,0.0310935601592064,0.0401252247393131,0.0918067842721939,0.095573253929615,0.221362248063087,0.290014266967773,0.127941966056824,2.83662557601929,0.0270626228302717,0.0332693867385387,0.080956943333149,0.0631732866168022,0.0716116204857826,0.0433023273944855,0.0103419795632362,5.38781499862671,0.0200749635696411,0.0239067953079939,0.0431909151375294,0.000749387429095805,0.0240104608237743,0.0740084275603294,0.0135611798614264,2012-01-17 12:20:32
1.00800013542175,46,-7.58992052078247,0.0341100282967091,0.0399634502828121,0.0788794383406639,0.0231200512498617,0.129763200879097,0.143415540456772,0.0427653416991234,2.80619406700134,0.028057374060154,0.0339692085981369,0.0867675989866257,0.0646234750747681,0.136296898126602,0.157972678542137,0.0266793631017208,5.42456960678101,0.033340897411108,0.0419548451900482,0.119172126054764,0.0233892910182476,0.222823709249496,0.184354990720749,0.12925660610199,2012-01-17 12:20:33
1.00899982452393,30,-7.59753847122192,0.0328631326556206,0.0403491593897343,0.0856446102261543,0.0015245652757585,0.00497835827991366,0.0285648927092552,0.0197853427380323,2.80797076225281,0.0239717867225409,0.0320617109537125,0.0849910452961922,0.00013685216254089,0.000252792931860313,0.00294341100379825,0.020862378180027,5.39496469497681,0.0356961823999882,0.0409642048180103,0.0699540302157402,0.00317458854988217,0.0216093137860298,0.0490752942860126,0.00443261628970504,2012-01-17 12:20:34
1.00999999046326,43,-7.60083770751953,0.0190722830593586,0.0231097042560577,0.0399107150733471,7.35324210836552e-05,0.00543667795136571,0.00827693846076727,0.0105805527418852,2.80880689620972,0.0254474058747292,0.0299273673444986,0.0645415484905243,0.00213384232483804,0.00687377620488405,0.0593207962810993,0.0574598871171474,5.38681554794312,0.0468640178442001,0.0533176995813847,0.110837861895561,0.0112180719152093,0.0150501606985927,0.22275447845459,0.211338087916374,2012-01-17 12:20:35
1.01000022888184,48,-7.60199213027954,0.0193578992038965,0.0254513639956713,0.0766147896647453,0.010655908845365,0.0116028198972344,0.0369229763746262,0.0540869608521461,2.80592775344849,0.031514048576355,0.0382765494287014,0.0894857794046402,0.139163583517075,0.226281389594078,0.131846621632576,0.0978378057479858,5.39937782287598,0.0322802551090717,0.0388589054346085,0.0825395509600639,0.0016297132242471,0.0573738627135754,0.0821459516882896,0.0451040156185627,2012-01-17 12:20:36
1.53199982643127,44,-7.61530923843384,0.0257728304713964,0.0366606153547764,0.103415437042713,0.00676554627716541,0.0635274648666382,0.219228118658066,0.126001626253128,2.80202722549438,0.0261375140398741,0.0323472730815411,0.075778529047966,0.0132454186677933,0.0438889041543007,0.0211468655616045,0.0201997254043818,5.41928815841675,0.0291667617857456,0.0344959087669849,0.0746643096208572,0.0480842404067516,0.049447525292635,0.0449951402842999,0.0274757146835327,2012-01-17 12:20:38
1.00300002098083,44,-7.59725618362427,0.0214874669909477,0.0256561543792486,0.0617372132837772,0.0316264368593693,0.052317451685667,0.0208569820970297,0.00887744966894388,2.79177498817444,0.0208087079226971,0.02584233507514,0.0717669576406479,0.00886266771703959,0.017914179712534,0.00377498893067241,0.0728339627385139,5.39165115356445,0.0287513080984354,0.0349592566490173,0.0862538367509842,0.0223931446671486,0.0492680259048939,0.0517427772283554,0.0355107747018337,2012-01-17 12:20:39
1.00600004196167,44,-7.59458160400391,0.0142236705869436,0.0181546434760094,0.0434612147510052,0.00998441874980927,0.0194721613079309,0.0238229110836983,0.0157364271581173,2.81027364730835,0.0217407513409853,0.0265618115663528,0.0644117593765259,0.00996602885425091,0.0334200859069824,0.0240472052246332,0.012672008946538,5.41861963272095,0.023908831179142,0.0316707938909531,0.0829110145568848,0.0328021012246609,0.0647418946027756,0.112534992396832,0.0472922809422016,2012-01-17 12:20:40
1.00200009346008,34,-7.6047682762146,0.0231083631515503,0.0272471308708191,0.044418279081583,0.00666736578568816,0.00653413776308298,0.0081722429022193,0.0102911973372102,2.78624224662781,0.0168646946549416,0.0208389703184366,0.050186887383461,0.0011594935785979,0.00259250914677978,0.00276315771043301,0.00694673648104072,5.39134979248047,0.0276553947478533,0.0327898748219013,0.0761456340551376,0.0271509233862162,0.0452310666441917,0.0294696837663651,0.0244173537939787,2012-01-17 12:20:41
1.02199983596802,39,-7.61725234985352,0.0167892649769783,0.0230487119406462,0.0563252754509449,0.0152430720627308,0.0386348702013493,0.0232708510011435,0.0178706534206867,2.78810596466064,0.0243328437209129,0.0309439711272717,0.0754358619451523,0.000536139938049018,0.0279538445174694,0.0475447401404381,0.0246139336377382,5.38007879257202,0.0359770655632019,0.0485844239592552,0.131258428096771,0.0185359977185726,0.074151337146759,0.0464220456779003,0.16536583006382,2012-01-17 12:20:42
1.00999999046326,44,-7.60572528839111,0.0249927304685116,0.0308981612324715,0.0742183849215508,0.0206578318029642,0.0279692485928535,0.0219985246658325,0.0574606359004974,2.7951180934906,0.0296427775174379,0.033222284168005,0.0590626746416092,0.000197753557586111,0.0639505758881569,0.107482008635998,0.0347984358668327,5.39521741867065,0.0340092815458775,0.043654091656208,0.0996265709400177,0.00342216878198087,0.174296304583549,0.366466850042343,0.0850512385368347,2012-01-17 12:20:43
1.01500010490417,47,-7.60140514373779,0.027364457026124,0.0346638336777687,0.0993182435631752,0.00532953906804323,0.0724097937345505,0.277188330888748,0.0709503665566444,2.79510378837585,0.0310669206082821,0.0362718254327774,0.078244648873806,0.0327412523329258,0.118206806480885,0.0728920996189117,0.0155187649652362,5.38677167892456,0.0364475511014462,0.0456362366676331,0.114758878946304,0.109338134527206,0.438719511032104,0.430043876171112,0.0741241499781609,2012-01-17 12:20:44
1.0149998664856,31,-7.6045823097229,0.0238379761576653,0.028708890080452,0.0534619651734829,0.0169085059314966,0.0245555900037289,0.00674916291609406,0.0110095031559467,2.81419205665588,0.0338997580111027,0.0431063733994961,0.0977502465248108,0.0225717313587666,0.0302377436310053,0.0325632393360138,0.0484271533787251,5.38005447387695,0.0287362076342106,0.0339417345821857,0.0724430084228516,0.00252593797631562,0.00199871673248708,0.00984789337962866,0.0426796525716782,2012-01-17 12:20:45
1.03700017929077,47,-7.60286569595337,0.0285275802016258,0.033036895096302,0.081165537238121,0.0641443207859993,0.103437766432762,0.0298976451158524,0.102530233561993,2.78800964355469,0.0200483277440071,0.025259792804718,0.055918674916029,0.00113021384458989,0.019705118611455,0.0435641258955002,0.0374015532433987,5.42203378677368,0.0183525662869215,0.0228186789900064,0.0500767901539803,0.0401458851993084,0.0832891315221786,0.0131615092977881,0.0224162451922894,2012-01-17 12:20:46
1.00099992752075,46,-7.59674263000488,0.015794426202774,0.0206737089902163,0.0652354285120964,0.00394735625013709,0.0146026695147157,0.00880538672208786,0.0151793183758855,2.80427551269531,0.0196503512561321,0.0256995297968388,0.0592663995921612,0.07858756929636,0.0934891253709793,0.0447898954153061,0.0583295598626137,5.42478275299072,0.0238771438598633,0.0310319606214762,0.0703520551323891,0.00205062073655427,0.0304585583508015,0.136809110641479,0.0543841309845448,2012-01-17 12:20:47
1.01099991798401,49,-7.60195446014404,0.0195234101265669,0.0255782082676888,0.0704476460814476,0.0415784455835819,0.0555947050452232,0.0340801700949669,0.117616705596447,2.80069899559021,0.0323402471840382,0.0367955379188061,0.0726493746042252,0.00270538777112961,0.152008950710297,0.103693760931492,0.0467658378183842,5.40806722640991,0.0207079332321882,0.0270280130207539,0.0836570113897324,0.0380821079015732,0.0684553757309914,0.0500395186245441,0.021472891792655,2012-01-17 12:20:48
1.01500010490417,22,-7.61085176467896,0.023260360583663,0.0260986257344484,0.0481416545808315,0.000102622332633473,0.00037824540049769,0.00211347965523601,0.00253561255522072,2.8216404914856,0.0337153896689415,0.0460145175457001,0.100741073489189,0.00205495255067945,0.00487208273261786,0.0142522333189845,0.0214613191783428,5.40480136871338,0.0228551756590605,0.0273078475147486,0.0503704771399498,3.33559182763565e-05,0.000297207210678607,0.0023618780542165,0.00332172866910696,2012-01-17 12:20:49
1,51,-7.60630655288696,0.0270408187061548,0.0314317084848881,0.0649929791688919,0.00318980682641268,0.0175599232316017,0.0809614509344101,0.0600453168153763,2.74528503417969,0.0233233347535133,0.0299857351928949,0.0692233443260193,0.00575613277032971,0.041304137557745,0.151099905371666,0.104750871658325,5.40192556381226,0.0302079636603594,0.0378254391252995,0.0867214798927307,0.00194980797823519,0.106349483132362,0.442032933235168,0.144071936607361,2012-01-17 12:20:50
1.20499992370605,41,-7.59082508087158,0.0173264127224684,0.0239186175167561,0.0691248029470444,0.00128446193411946,0.00921493861824274,0.0635896399617195,0.0379607863724232,2.80422353744507,0.025027047842741,0.0327012352645397,0.0877815559506416,0.00582048762589693,0.0116421906277537,0.0254192762076855,0.0354008376598358,5.41087865829468,0.0242220740765333,0.0299948994070292,0.0808453112840652,0.0172371696680784,0.0291656460613012,0.0235660653561354,0.00261894427239895,2012-01-17 12:20:51
1.00800013542175,49,-7.59655094146729,0.0280924793332815,0.0350345782935619,0.0918626040220261,0.0644996091723442,0.20619210600853,0.102859131991863,0.0250592362135649,2.80530214309692,0.0278310794383287,0.0334124378859997,0.0888603404164314,0.00684492057189345,0.0556622706353664,0.143359050154686,0.0446471832692623,5.39665937423706,0.0318828597664833,0.0398325733840466,0.101068429648876,0.0327650047838688,0.149726435542107,0.132335409522057,0.0837771072983742,2012-01-17 12:20:52
1.19999980926514,43,-7.60585498809814,0.027568906545639,0.0341833531856537,0.0727519989013672,0.0343665853142738,0.0291208941489458,0.0269020721316338,0.0246498249471188,2.78326392173767,0.038611326366663,0.0452252291142941,0.0900844410061836,0.0276634451001883,0.18860936164856,0.147026255726814,0.0306171793490648,5.39616584777832,0.0291388481855392,0.0355220399796963,0.0955580919981003,0.00988396350294352,0.00534301856532693,0.131360366940498,0.142439812421799,2012-01-17 12:20:54
1.01200008392334,48,-7.587486743927,0.0189833268523216,0.0264020059257746,0.0853994265198708,0.0035665666218847,0.0286177806556225,0.0870079025626183,0.111326463520527,2.80143284797668,0.0299647338688374,0.037998553365469,0.09479770809412,0.0101344389840961,0.0853684619069099,0.253065705299377,0.0568449571728706,5.39815187454224,0.0274109374731779,0.0316482000052929,0.0641521587967873,0.103175632655621,0.160249263048172,0.0448202192783356,0.0275570880621672,2012-01-17 12:20:55
1.2739999294281,45,-7.59753847122192,0.0285046137869358,0.0357729345560074,0.0856445953249931,0.00198622490279377,0.0432562716305256,0.184315338730812,0.0510740429162979,2.80034327507019,0.017530869692564,0.0210385285317898,0.0446746610105038,0.00721385190263391,0.0138896396383643,0.00578431878238916,0.021606395021081,5.42176961898804,0.0375704579055309,0.045417595654726,0.0993741899728775,0.177533373236656,0.341419517993927,0.243200033903122,0.027643583714962,2012-01-17 12:20:56
1.14100003242493,50,-7.6240816116333,0.0286354068666697,0.0332363061606884,0.0643319487571716,0.107570387423038,0.208937764167786,0.0409257411956787,0.0553528554737568,2.78861904144287,0.0379399545490742,0.0468983575701714,0.0945361778140068,0.00982513278722763,0.0306067429482937,0.201563343405724,0.0725561752915382,5.41385889053345,0.0370456725358963,0.0477780885994434,0.108461506664753,0.0703440010547638,0.492463916540146,0.215511485934258,0.186033695936203,2012-01-17 12:20:57
1.00600004196167,48,-7.62753009796143,0.0259978268295527,0.033313661813736,0.105829954147339,0.00635803025215864,0.0353467352688313,0.119873270392418,0.0989418253302574,2.79469084739685,0.0223117992281914,0.0280597805976868,0.078248992562294,0.0630086734890938,0.0428924486041069,0.0167561881244183,0.0113542741164565,5.41531372070312,0.0309693347662687,0.0406295955181122,0.10010951012373,0.00053061789367348,0.112076707184315,0.159737110137939,0.0633778050541878,2012-01-17 12:20:58
1,34,-7.5903468132019,0.0184595435857773,0.0225640330463648,0.0588397979736328,0.00136921752709895,0.00266626663506031,0.00723061291500926,0.00367814116179943,2.807297706604,0.0359011255204678,0.0428986735641956,0.0908558219671249,0.0369886867702007,0.0666081234812737,0.0358928069472313,0.00818895362317562,5.44442129135132,0.0228031408041716,0.0281897392123938,0.0605706460773945,0.0150939421728253,0.0297004114836454,0.0311632547527552,0.0066102659329772,2012-01-17 12:20:59
1.01800012588501,31,-7.61312341690063,0.0241441149264574,0.0287680868059397,0.0521965958178043,0.000999227864667773,0.00163441977929324,0.00705980742350221,0.0108175296336412,2.77971076965332,0.0262054651975632,0.0334965586662292,0.0828820914030075,0.000609442649874836,0.000443284894572571,0.00622327486053109,0.0124410856515169,5.41548490524292,0.0260422695428133,0.0308821052312851,0.0566257648169994,0.0111481389030814,0.0243527758866549,0.0461286939680576,0.0189344566315413,2012-01-17 12:21:00
1.01999998092651,49,-7.59975337982178,0.0188862439244986,0.0230164378881454,0.0494334362447262,0.0134066995233297,0.0366950854659081,0.0364812090992928,0.0508363284170628,2.79709672927856,0.0343579612672329,0.0412396006286144,0.090461403131485,0.0468205213546753,0.0260827224701643,0.167843148112297,0.0610072202980518,5.4198751449585,0.0288850143551826,0.033820103853941,0.0718488991260529,0.0146606396883726,0.0147982258349657,0.0296631529927254,0.0929084792733192,2012-01-17 12:21:01
1.00599980354309,42,-7.60739183425903,0.0217146873474121,0.0260392483323812,0.0562713928520679,0.00302523141726851,0.0220944415777922,0.0111001767218113,0.0087289335206151,2.78742337226868,0.0205249935388565,0.0252127312123775,0.0611747093498707,0.0185731202363968,0.024752963334322,0.047763504087925,0.0174097456037998,5.41046857833862,0.0206140074878931,0.0278434008359909,0.0812553763389587,0.0099566001445055,0.021880779415369,0.026500778272748,0.03456661850214,2012-01-17 12:21:02
1.01600003242493,41,-7.59560871124268,0.0256221387535334,0.0349981784820557,0.0829980447888374,0.00946739967912436,0.0238657258450985,0.0171787496656179,0.0054973540827632,2.79441690444946,0.0382581315934658,0.0433699525892735,0.0789316594600677,0.0100760934874415,0.0172225665301085,0.0965935066342354,0.132826372981071,5.41016101837158,0.0220168568193913,0.027434665709734,0.0619496367871761,0.00091561209410429,0.00170946901198477,0.025803541764617,0.0856080204248428,2012-01-17 12:21:03
1.0090000629425,45,-7.58838558197021,0.0236230883747339,0.0309146661311388,0.086298368871212,0.0038225834723562,0.0480292104184628,0.090082474052906,0.115751229226589,2.77201294898987,0.033269926905632,0.0412449352443218,0.104604303836823,0.24271035194397,0.349038511514664,0.120101034641266,0.0334424190223217,5.43593502044678,0.0307131595909595,0.0400261022150517,0.11462889611721,0.0643281042575836,0.18705727159977,0.180317968130112,0.0269203260540962,2012-01-17 12:21:04
1,40,-7.60873413085938,0.0183874368667603,0.0218390319496393,0.0404523611068726,0.0105621824041009,0.0270654670894146,0.0344191789627075,0.00542506063356996,2.80396628379822,0.0331341773271561,0.0386329032480717,0.077717587351799,0.0179219916462898,0.111790098249912,0.180391132831573,0.0208196621388197,5.43386459350586,0.0260858796536922,0.0348654836416245,0.0970859304070473,0.00741817429661751,0.0177626106888056,0.0200660489499569,0.0113269230350852,2012-01-17 12:21:05
1.0090000629425,46,-7.61294460296631,0.0176482312381268,0.0224809404462576,0.07163105905056,0.00721630547195673,0.0142516642808914,0.0169973634183407,0.0179820414632559,2.79276323318481,0.025341534987092,0.0313407890498638,0.0805851668119431,0.0773916840553284,0.122343018651009,0.0445144176483154,0.0499519780278206,5.39067268371582,0.0300131738185883,0.0358790159225464,0.0814381167292595,0.00172273849602789,0.00699913362041116,0.140501752495766,0.0912469178438187,2012-01-17 12:21:06
1.01900005340576,42,-7.58567714691162,0.0315324403345585,0.0387707985937595,0.0835898742079735,0.0217652693390846,0.0645147562026978,0.0553702041506767,0.0245729573071003,2.77621579170227,0.0272628851234913,0.0322285629808903,0.0677124634385109,0.00936154648661613,0.0112920692190528,0.0534315966069698,0.0129884043708444,5.40696620941162,0.0308876447379589,0.0398533307015896,0.0917621552944183,0.069992758333683,0.0896681100130081,0.0243988465517759,0.0412531644105911,2012-01-17 12:21:07
1.15299987792969,40,-7.61020517349243,0.0198461730033159,0.0225219205021858,0.039471697062254,0.00946825835853815,0.0178726613521576,0.0176152437925339,0.00874958839267492,2.81132125854492,0.0348993912339211,0.0416861847043037,0.0816404223442078,0.0425316020846367,0.042174931615591,0.0591812953352928,0.0268227867782116,5.41768360137939,0.0297633018344641,0.0377875380218029,0.10346032679081,0.00376840098761022,0.00600158097222447,0.023769149556756,0.0720093697309494,2012-01-17 12:21:08
1.01900005340576,45,-7.58991098403931,0.0265384446829557,0.0305219758301973,0.0682105794548988,0.0418321751058102,0.111994400620461,0.08940689265728,0.0154297109693289,2.80165076255798,0.0278266351670027,0.0332605727016926,0.0815042406320572,0.0304810386151075,0.0787475407123566,0.0505258142948151,0.0296164359897375,5.41392421722412,0.0263254605233669,0.0340592600405216,0.079106941819191,0.0283509325236082,0.071514718234539,0.0970662906765938,0.0745450109243393,2012-01-17 12:21:09
1.0149998664856,49,-7.59414958953857,0.0242939926683903,0.0308091770857573,0.0942642241716385,0.0074860667809844,0.0103231212124228,0.0820594131946564,0.0541025698184967,2.79249358177185,0.0200543813407421,0.0250241253525019,0.0612414218485355,0.0030768858268857,0.0164400171488523,0.0143717927858233,0.0504276640713215,5.39625883102417,0.0189026426523924,0.0239210892468691,0.0562384650111198,0.043422918766737,0.0832879319787025,0.0780903398990631,0.0748630538582802,2012-01-17 12:21:10
1.02000021934509,34,-7.60880613327026,0.0180862825363874,0.0221547577530146,0.0478794425725937,0.000166141326189972,0.000457255227956921,0.0089288204908371,0.0125977722927928,2.80441331863403,0.0285885594785213,0.035156611353159,0.0689350813627243,0.00312103098258376,0.0325036235153675,0.0358228161931038,0.0194913502782583,5.40952110290527,0.0514934659004211,0.0590326674282551,0.0920095890760422,0.0312866233289242,0.0373060144484043,0.142610743641853,0.195699617266655,2012-01-17 12:21:11
1.0019998550415,49,-7.62276887893677,0.0186738558113575,0.0217218343168497,0.0520351938903332,0.0311218295246363,0.0454537905752659,0.0551588386297226,0.00994473695755005,2.80950498580933,0.0373477451503277,0.0492179095745087,0.122483104467392,0.26481893658638,0.349572032690048,0.170174822211266,0.171510934829712,5.43468523025513,0.0293833781033754,0.0365148894488811,0.0864587128162384,0.0111580202355981,0.0990205928683281,0.1070436835289,0.144650727510452,2012-01-17 12:21:12
1.05699992179871,31,-7.5726318359375,0.0128169935196638,0.0158361196517944,0.0373284742236137,7.76678425609134e-05,0.00159686896950006,0.00208324263803661,0.0028359058778733,2.81577372550964,0.0213888678699732,0.0256140176206827,0.0699118003249168,0.0124065913259983,0.0242439433932304,0.0207386948168278,0.00613369885832071,5.39334106445312,0.0426961965858936,0.0485873818397522,0.0983830541372299,0.000341752340318635,0.00715582957491279,0.0694315508008003,0.0429822616279125,2012-01-17 12:21:13
1.00100016593933,51,-7.59611558914185,0.0344306863844395,0.0410666950047016,0.0922981798648834,0.0584842301905155,0.278821676969528,0.311716318130493,0.053642563521862,2.78124284744263,0.0448368228971958,0.0506069697439671,0.113834083080292,0.00119404494762421,0.385493248701096,0.435107916593552,0.105839997529984,5.38788890838623,0.0345891304314137,0.0403254181146622,0.0824911817908287,0.0329649113118649,0.362829297780991,0.192205682396889,0.0599708817899227,2012-01-17 12:21:14
1.00699996948242,33,-7.57994604110718,0.0432969033718109,0.0514938309788704,0.108467750251293,0.0857977494597435,0.159588530659676,0.163036823272705,0.0587461739778519,2.7963809967041,0.0263131149113178,0.0312099978327751,0.0603256523609161,0.00466611003503203,0.0151093993335962,0.0269907210022211,0.0208888538181782,5.35977983474731,0.0543552972376347,0.0668219178915024,0.180977374315262,1.30854559756699e-05,0.0108405705541372,0.134652957320213,0.0652742385864258,2012-01-17 12:21:15
1.01699995994568,51,-7.58573198318481,0.0154960639774799,0.019742913544178,0.0542249120771885,5.07725917486823e-06,0.00976830534636974,0.0360583104193211,0.0151649918407202,2.79604887962341,0.0229613315314054,0.0304372906684875,0.0894136503338814,0.0305779427289963,0.209721237421036,0.125961467623711,0.0497123971581459,5.42269277572632,0.0334957614541054,0.0430303663015366,0.0976819023489952,0.00533989118412137,0.0972549244761467,0.172342717647552,0.0372282154858112,2012-01-17 12:21:16
1,30,-7.59132766723633,0.0167366545647383,0.0242007356137037,0.0696270912885666,0.00297006010077894,0.00743187544867396,0.0119578884914517,0.0166318453848362,2.80175971984863,0.0210515893995762,0.027171079069376,0.0715886428952217,1.05357157735853e-05,0.00330706615932286,0.0148111134767532,0.00459967274218798,5.40379095077515,0.0324273817241192,0.0394291020929813,0.0977398231625557,0.00228354521095753,0.00428807130083442,0.036923885345459,0.0418316461145878,2012-01-17 12:21:17
1.00600004196167,54,-7.61377382278442,0.0225391332060099,0.0278921257704496,0.0746398344635963,0.00154555961489677,0.068658821284771,0.124850198626518,0.0661125257611275,2.78218293190002,0.0256398525089025,0.0318403989076614,0.0853542536497116,0.0220636539161205,0.109424836933613,0.0915169194340706,0.126403480768204,5.40618801116943,0.0264941174536943,0.0327659621834755,0.0909838303923607,0.0279529690742493,0.0306350868195295,0.0607952512800694,0.0493644997477531,2012-01-17 12:21:18
1.00300002098083,27,-7.59906387329102,0.00863629393279552,0.0111120473593473,0.0283302739262581,3.94428498111665e-05,8.83658940438181e-05,0.000524990260601044,0.000735340232495219,2.77382898330688,0.0185371208935976,0.0298053119331598,0.0995194092392921,0.00466860737651587,0.00823692418634892,0.00461891712620854,0.00942822173237801,5.45031833648682,0.0226805359125137,0.0282885190099478,0.0664675310254097,0.00034998482442461,0.00109610531944782,0.00596143072471023,0.00604234170168638,2012-01-17 12:21:19
1.0090000629425,49,-7.61236190795898,0.0228644553571939,0.0280561204999685,0.0760519057512283,0.0029166538733989,0.0429977439343929,0.0527492202818394,0.0183937456458807,2.80990529060364,0.0338678173720837,0.0397781543433666,0.103270076215267,0.13973942399025,0.381407767534256,0.117123268544674,0.0486472733318806,5.4138708114624,0.0342110171914101,0.042465653270483,0.0986668616533279,0.00014177466800902,0.0869867280125618,0.109694704413414,0.261991649866104,2012-01-17 12:21:20
1.01399993896484,49,-7.62757205963135,0.0229379646480083,0.0269462782889605,0.0568384453654289,0.0550534650683403,0.0453629121184349,0.0751307979226112,0.0876909196376801,2.7674765586853,0.03118846565485,0.038924191147089,0.0902612581849098,0.000132481916807592,0.073581263422966,0.0402371101081371,0.105105541646481,5.37064170837402,0.0340638756752014,0.0464029870927334,0.114277325570583,0.16001857817173,0.304082244634628,0.101793497800827,0.0959858745336533,2012-01-17 12:21:21
1.01099991798401,32,-7.60229873657227,0.0272746980190277,0.0319407284259796,0.070791631937027,0.00122897617984563,0.00151751737575978,0.0123056462034583,0.0261201690882444,2.76823329925537,0.0300711393356323,0.034864854067564,0.065888337790966,0.000422884768340737,0.000917342549655586,0.0170349776744843,0.048337958753109,5.37680196762085,0.0378666743636131,0.0495353676378727,0.130244389176369,0.00328043522313237,0.0160953123122454,0.0253645367920399,0.00758586591109633,2012-01-17 12:21:22
1.00300002098083,50,-7.6021146774292,0.0268309582024813,0.0328778475522995,0.0764922052621841,0.00828689336776733,0.314702481031418,0.191697984933853,0.0530223920941353,2.77214384078979,0.019472049549222,0.0255304165184498,0.0619779191911221,0.0292147044092417,0.0572108030319214,0.0815382897853851,0.0347673110663891,5.39051914215088,0.0350215025246143,0.0424953177571297,0.0913982316851616,0.0968949645757675,0.0953203663229942,0.0923945605754852,0.176789104938507,2012-01-17 12:21:23
1.01200008392334,35,-7.59595060348511,0.0449103899300098,0.0557851828634739,0.103670135140419,0.168054491281509,0.2620969414711,0.143095433712006,0.0584247447550297,2.77556204795837,0.0243845134973526,0.0308768749237061,0.0689268410205841,0.000129053747514263,0.00141147419344634,0.00943607464432716,0.0387545041739941,5.43288421630859,0.039226770401001,0.0456977300345898,0.0784533098340034,0.0144427362829447,0.0674522891640663,0.170220747590065,0.0304004848003387,2012-01-17 12:21:24
1.00899982452393,48,-7.58891677856445,0.0230864491313696,0.0287300869822502,0.0770229324698448,0.0255349408835173,0.030598932877183,0.0308922436088324,0.033822126686573,2.80122852325439,0.0273172613233328,0.032183688133955,0.0651732459664345,0.00207036407664418,0.0151328817009926,0.121328935027122,0.0335751660168171,5.46250820159912,0.0427168682217598,0.0508975125849247,0.0884643420577049,0.335204482078552,0.738303661346436,0.161925852298737,0.0233831293880939,2012-01-17 12:21:25
1.17700004577637,37,-7.58027505874634,0.028395539149642,0.0322832018136978,0.0585747547447681,0.0148984659463167,0.0188886877149343,0.0555986166000366,0.0273269433528185,2.77501678466797,0.019412700086832,0.0236380323767662,0.0683816224336624,1.63601926033152e-05,0.00409110728651285,0.0216169003397226,0.0344544127583504,5.43553447723389,0.0303871855139732,0.0397956557571888,0.120330311357975,0.0355941727757454,0.0692524015903473,0.0671927407383919,0.08634402602911,2012-01-17 12:21:27
1.01800012588501,48,-7.5776801109314,0.0269001387059689,0.0319631025195122,0.061700064688921,0.126120910048485,0.123925425112247,0.0142478877678514,0.0432586446404457,2.82411074638367,0.0275811944156885,0.0324318073689938,0.0688509345054626,0.130610197782516,0.156023651361465,0.00925042107701302,0.0320375449955463,5.42042112350464,0.0268747340887785,0.034249734133482,0.0909160003066063,0.000904947984963655,0.0800089687108994,0.138790339231491,0.0705970600247383,2012-01-17 12:21:28
1.00399994850159,29,-7.57343864440918,0.0269594956189394,0.0322583839297295,0.0713517069816589,0.0132787404581904,0.0219906233251095,0.0152179794386029,0.00279746111482382,2.79252815246582,0.0274958964437246,0.032845064997673,0.0808204114437103,0.00253115547820926,0.00565804168581963,0.00990193337202072,0.00509235356003046,5.48090267181396,0.0260733515024185,0.0340049304068089,0.0774389952421188,0.0114571722224355,0.0178173817694187,0.00773115595802665,0.0077703669667244,2012-01-17 12:21:29
1.01200008392334,49,-7.56172752380371,0.0386138744652271,0.0515821501612663,0.16751329600811,0.000390623259590939,0.0179091710597277,0.151301592588425,0.061872772872448,2.78628945350647,0.0421019792556763,0.0490785352885723,0.0968657732009888,0.147839263081551,0.367571085691452,0.530235469341278,0.0823183879256248,5.48912239074707,0.0515696629881859,0.0627392828464508,0.139894723892212,0.0607533119618893,0.0686914920806885,0.197623789310455,0.459101498126984,2012-01-17 12:21:30
1.0019998550415,33,-7.56152105331421,0.0239357482641935,0.0289646163582802,0.0680520907044411,0.00954236648976803,0.0223826859146357,0.0131063247099519,0.00684817740693688,2.84006524085999,0.0301313996315002,0.0343923904001713,0.0745899379253387,0.0342617742717266,0.0623698346316814,0.0417183712124825,0.00569612765684724,5.44209623336792,0.0320406407117844,0.0495323687791824,0.167307361960411,0.0140944439917803,0.0191667415201664,0.0092755313962698,0.0114364195615053,2012-01-17 12:21:31
1.0090000629425,44,-7.59903907775879,0.0228146053850651,0.0271975118666887,0.0577254071831703,0.00128718977794051,0.0451441332697868,0.0884628593921661,0.0129080452024937,2.84682583808899,0.0443021692335606,0.0523356348276138,0.114782333374023,0.0171883944422007,0.292420536279678,0.393187910318375,0.0175325274467468,5.36646604537964,0.0448187850415707,0.0556267760694027,0.119908422231674,0.0728682056069374,0.0935112535953522,0.171178370714188,0.132569521665573,2012-01-17 12:21:32
1.01300001144409,49,-7.60715818405151,0.0434580370783806,0.0526056513190269,0.130288526415825,0.193397149443626,0.650448024272919,0.40782231092453,0.0375231429934502,2.77127909660339,0.0522803254425526,0.0558597184717655,0.0940637961030006,0.0172666665166616,0.490374475717545,0.219203904271126,0.0985589623451233,5.44589281082153,0.0517005026340485,0.0609498843550682,0.11107537150383,0.166395828127861,0.89730966091156,0.22078849375248,0.411346316337585,2012-01-17 12:21:33
1.00600004196167,32,-7.57471752166748,0.0296114347875118,0.034223198890686,0.0548558533191681,0.000507738150190562,0.00325150694698095,0.015831982716918,0.011299604550004,2.81512141227722,0.0442448519170284,0.0567038170993328,0.0986795276403427,0.0980487987399101,0.173075556755066,0.136419087648392,0.0386424474418163,5.41020584106445,0.0389968305826187,0.047819297760725,0.0950019210577011,0.000207796460017562,0.0200950093567371,0.0369183793663979,0.00750671839341521,2012-01-17 12:21:34
1.00899982452393,47,-7.58429574966431,0.0116045894101262,0.0139500517398119,0.0354707986116409,8.3652361354325e-05,0.000774743326473981,0.0133876018226147,0.0206015389412642,2.83245253562927,0.0202791970223188,0.0286317579448223,0.0899291262030602,0.0198420695960522,0.0222877226769924,0.0429575741291046,0.03355523198843,5.4524974822998,0.0321325585246086,0.0421922206878662,0.117679782211781,0.198767155408859,0.345859050750732,0.126345172524452,0.137858152389526,2012-01-17 12:21:35
1.00300002098083,33,-7.58945512771606,0.011886827647686,0.0157135594636202,0.0401180423796177,0.00458589103072882,0.00565991271287203,0.00110072549432516,0.000938668090384454,2.7847912311554,0.0389744117856026,0.0439551919698715,0.0879627466201782,0.0563615038990974,0.0985367968678474,0.0880426317453384,0.0173491314053535,5.43110084533691,0.03258091583848,0.0394825413823128,0.0962835773825645,0.0107884220778942,0.0219605639576912,0.0204176343977451,0.00617282092571259,2012-01-17 12:21:36
1.08300018310547,49,-7.58534336090088,0.0279127676039934,0.0341511182487011,0.0932635515928268,0.00836346577852964,0.0188477225601673,0.0106560047715902,0.082874208688736,2.7908923625946,0.0332143008708954,0.0391222424805164,0.0646437257528305,0.0157687123864889,0.0126638133078814,0.0162347983568907,0.194648966193199,5.42507886886597,0.0398312248289585,0.0489323660731316,0.100067868828773,0.0693740248680115,0.305804371833801,0.256854861974716,0.0130849936977029,2012-01-17 12:21:37
1.25399994850159,44,-7.57741975784302,0.0179315507411957,0.0260948184877634,0.0851394012570381,0.00226641306653619,0.0263546966016293,0.0344042256474495,0.0314023122191429,2.82476091384888,0.0405841395258904,0.0457091070711613,0.0887055322527885,4.1245930333389e-05,0.091462180018425,0.175617590546608,0.0130051951855421,5.40435552597046,0.0419012308120728,0.0512485541403294,0.118571273982525,0.00538391806185246,0.0379293896257877,0.0937626659870148,0.111815370619297,2012-01-17 12:21:38
1.0090000629425,38,-7.56144285202026,0.021188847720623,0.0275494251400232,0.0789692029356956,0.00248434580862522,0.0146616017445922,0.0145991034805775,0.0143871810287237,2.82328271865845,0.0256167948246002,0.0328955315053463,0.0676141828298569,0.0102887898683548,0.0224716253578663,0.0364804603159428,0.0308272428810596,5.46462678909302,0.0323538519442081,0.043184157460928,0.14477701485157,0.0139856263995171,0.0360720269382,0.155247002840042,0.115838095545769,2012-01-17 12:21:39
1.01199984550476,48,-7.57522821426392,0.0318375155329704,0.0401333197951317,0.103378720581532,0.00844658352434635,0.0628618374466896,0.141067624092102,0.131707176566124,2.81920742988586,0.0271215066313744,0.0315232984721661,0.0639476254582405,0.118434861302376,0.127235919237137,0.0314355976879597,0.0225473009049892,5.45086288452148,0.028262335807085,0.0368747860193253,0.109507612884045,0.0215981621295214,0.0951732099056244,0.197293400764465,0.0399155020713806,2012-01-17 12:21:40
1.01100015640259,46,-7.54579067230225,0.0243219323456287,0.0321178399026394,0.0829300060868263,0.0274395700544119,0.0201911404728889,0.0618321634829044,0.0133854551240802,2.83369541168213,0.0397456809878349,0.0509550869464874,0.136866807937622,0.118187099695206,0.133404597640038,0.020774694159627,0.0525878146290779,5.46550178527832,0.0291882269084454,0.036237608641386,0.104675218462944,0.00861161015927792,0.0491975471377373,0.0780515521764755,0.256934493780136,2012-01-17 12:21:41
1,34,-7.5418906211853,0.0185952764004469,0.0241318177431822,0.0680695697665215,0.00320932222530246,0.00537932105362415,0.00443727057427168,0.00742749404162169,2.82777619361877,0.0338312350213528,0.0407739654183388,0.0749920904636383,0.0565357804298401,0.100778847932816,0.0584778375923634,0.013669565320015,5.45884275436401,0.0248051527887583,0.029980281367898,0.0623011030256748,0.00933628622442484,0.0169141348451376,0.0107687516137958,0.00379220652393997,2012-01-17 12:21:42
1.00699996948242,48,-7.54478693008423,0.0266447588801384,0.0318079777061939,0.0749798789620399,0.00414432026445866,0.0354349352419376,0.0993564277887344,0.0842640325427055,2.81777739524841,0.0446747168898582,0.0518275089561939,0.10460426658392,0.00166682025883347,0.0911199524998665,0.331073403358459,0.212734341621399,5.48150873184204,0.0367409065365791,0.0451602637767792,0.11808829754591,0.000255209539318457,0.141631096601486,0.213110402226448,0.127586394548416,2012-01-17 12:21:43
1.24499988555908,41,-7.53700828552246,0.0193915814161301,0.0241234395653009,0.0643410831689835,0.0248392559587955,0.0447563752532005,0.0431176759302616,0.0281941257417202,2.84273242950439,0.028667414560914,0.0339847356081009,0.0674505904316902,0.0022403362672776,0.029986310750246,0.0563020221889019,0.00979878101497889,5.49028873443604,0.0232769399881363,0.0300557892769575,0.0700815841555595,0.000263223599176854,0.0278100445866585,0.019929576665163,0.0130417142063379,2012-01-17 12:21:44
1.00500011444092,51,-7.53131484985352,0.0252084378153086,0.0316427387297153,0.0880674123764038,0.130145892500877,0.198110178112984,0.0146988444030285,0.0440287217497826,2.78931879997253,0.0297479331493378,0.037114892154932,0.0924902334809303,0.0100759780034423,0.0983973518013954,0.232145488262177,0.150144547224045,5.5044150352478,0.0410136952996254,0.0499021224677563,0.124601952731609,0.0639228299260139,0.194756016135216,0.374096065759659,0.311395227909088,2012-01-17 12:21:45
1.00300002098083,31,-7.56598854064941,0.0175519343465567,0.0199069995433092,0.0344813875854015,0.00479154754430056,0.00610390957444906,0.00170606060419232,0.00629015127196908,2.8227334022522,0.0222052913159132,0.0271835010498762,0.0506150722503662,0.00814797822386026,0.0114009510725737,0.00369305722415447,0.00283038476482034,5.46420192718506,0.0362469367682934,0.0425221361219883,0.0863618105649948,0.0259983856230974,0.0411807671189308,0.0215013083070517,0.0153959868475795,2012-01-17 12:21:46
1.00699996948242,50,-7.53033018112183,0.0319617800414562,0.0375039279460907,0.0698232278227806,0.0313683301210403,0.129986509680748,0.0630469396710396,0.100857399404049,2.8154890537262,0.0263602789491415,0.0335295721888542,0.0794337689876556,0.107518956065178,0.145372956991196,0.0891761034727097,0.0144526418298483,5.4764256477356,0.0380969420075417,0.0450321547687054,0.093751534819603,0.18858340382576,0.33814749121666,0.055103711783886,0.0999450236558914,2012-01-17 12:21:47
1.01699995994568,49,-7.52230072021484,0.0226765628904104,0.0260145179927349,0.0582393929362297,0.00834992341697216,0.0452793464064598,0.0232583601027727,0.0108608528971672,2.80350089073181,0.0199400279670954,0.025955967605114,0.0600408390164375,0.0109727224335074,0.0571682155132294,0.0961594432592392,0.0444259606301785,5.49932909011841,0.0381809659302235,0.0493828393518925,0.119881123304367,0.0172120742499828,0.16640368103981,0.318934410810471,0.164740085601807,2012-01-17 12:21:48
1.01699995994568,26,-7.53905057907104,0.0152612095698714,0.0176912248134613,0.0369634628295898,0.000297584512736648,0.000414682872360572,0.000273544399533421,0.00396307138726115,2.8129997253418,0.0253579802811146,0.0308549273759127,0.0769443511962891,0.00380498426966369,0.00686214026063681,0.00745632918551564,0.0122244209051132,5.51548624038696,0.038646325469017,0.0508240908384323,0.13163560628891,0.013175024650991,0.0203569866716862,0.0104638393968344,0.00334424804896116,2012-01-17 12:21:49
1.01600003242493,50,-7.52052354812622,0.015737684443593,0.0201587732881308,0.0600165948271751,0.0258178655058146,0.0411301031708717,0.0307104308158159,0.0146210808306932,2.8252956867218,0.0165536142885685,0.0214180387556553,0.0578593574464321,0.00197235913947225,0.00809198897331953,0.0542263016104698,0.023742975667119,5.51898622512817,0.0384184867143631,0.0449520871043205,0.105715960264206,0.000829341006465256,0.06435377150774,0.13603550195694,0.185903012752533,2012-01-17 12:21:50
1.04299998283386,47,-7.51710987091064,0.0184323862195015,0.022422056645155,0.0536235049366951,0.00492827361449599,0.0157368741929531,0.0159796569496393,0.0217705238610506,2.78988742828369,0.0295397751033306,0.0351477824151516,0.0832522809505463,0.0147777823731303,0.0293645393103361,0.024638494476676,0.0475234240293503,5.50695562362671,0.0379479937255383,0.0457209460437298,0.112254656851292,0.139608219265938,0.175500884652138,0.173698917031288,0.0783994495868683,2012-01-17 12:21:51
1.16000008583069,41,-7.53916120529175,0.0150628946721554,0.018821382895112,0.0511858388781548,0.00357283931225538,0.00564935337752104,0.00742472056299448,0.0286581087857485,2.80326676368713,0.015891294926405,0.019799068570137,0.0475980490446091,0.000112169611384161,0.00583604024723172,0.00843028724193573,0.0188534595072269,5.50535774230957,0.0243853218853474,0.0303907655179501,0.0648194551467896,0.0605637729167938,0.0968601480126381,0.0354444608092308,0.00745633151382208,2012-01-17 12:21:53
1.03699994087219,40,-7.56411409378052,0.0144525254145265,0.0178668536245823,0.036039374768734,0.00408423086628318,0.00470910919830203,0.0104501042515039,0.00691232085227966,2.80960512161255,0.0193681009113789,0.0238202288746834,0.0637431144714355,0.020774070173502,0.0413342230021954,0.0259694755077362,0.0206604320555925,5.49049806594849,0.0316877327859402,0.0406229570508003,0.1189054697752,0.000688420608639717,0.00204501324333251,0.00593522936105728,0.0775139555335045,2012-01-17 12:21:54
1.00600004196167,48,-7.53355026245117,0.0291815437376499,0.033612959086895,0.066603384912014,0.0277977418154478,0.112199194729328,0.093159019947052,0.0418186448514462,2.81961607933044,0.0294454768300056,0.0352442786097527,0.0831522792577744,0.00602945266291499,0.0392266288399696,0.192165553569794,0.0247966218739748,5.52502584457397,0.0270959306508303,0.033058900386095,0.0725282207131386,0.0156363416463137,0.0888697728514671,0.06284049898386,0.0764956772327423,2012-01-17 12:21:55
1.01600003242493,35,-7.52786445617676,0.0256653595715761,0.0316328890621662,0.0748106017708778,0.00399172212928534,0.0106494920328259,0.00823694281280041,0.0579898580908775,2.83047938346863,0.0288996323943138,0.032742727547884,0.0624824240803719,0.0244757775217295,0.0494104437530041,0.0376080498099327,0.00285211228765547,5.50741481781006,0.0256653726100922,0.0326682552695274,0.0823757275938988,0.00108091393485665,0.000946923450101167,0.0269184503704309,0.0108678881078959,2012-01-17 12:21:56
1.01399993896484,49,-7.51269435882568,0.0206588711589575,0.026197100058198,0.069446973502636,0.0195874832570553,0.0485731810331345,0.0240989364683628,0.0465176925063133,2.79849767684937,0.0346438623964787,0.0397580228745937,0.0748508498072624,0.140473559498787,0.354268014431,0.106074184179306,0.0238404460251331,5.52754831314087,0.041619997471571,0.0506496876478195,0.10146863758564,0.17853732407093,0.309302866458893,0.0763851776719093,0.0655535832047462,2012-01-17 12:21:57
1.00499987602234,32,-7.55142688751221,0.0267383977770805,0.0357374399900436,0.0879532396793365,0.01024498231709,0.0208798982203007,0.0361432991921902,0.0299122780561447,2.81573438644409,0.0210689380764961,0.0252115838229656,0.050258994102478,0.00407044310122728,0.00472799921408296,0.00302772526629269,0.00566958449780941,5.47057819366455,0.0225629676133394,0.027857368811965,0.0671145766973495,0.00437302328646183,0.00537304440513253,0.00166724971495569,0.00214614532887936,2012-01-17 12:21:58
1.17499995231628,34,-7.49747228622437,0.021649245172739,0.0262962467968464,0.0542249120771885,0.00700194295495749,0.0126487920060754,0.0139063037931919,0.00425719376653433,2.80902814865112,0.0336276069283485,0.0424933768808842,0.112199641764164,0.0474298410117626,0.0904806330800056,0.0914160385727882,0.0456633940339088,5.50153064727783,0.0317273586988449,0.037980955094099,0.0784535259008408,0.00106770475395024,0.0054157986305654,0.00448394706472754,0.0149560822173953,2012-01-17 12:21:59
1.00100016593933,41,-7.54944610595703,0.0292273834347725,0.0353850051760674,0.0865853950381279,0.0133623443543911,0.097872257232666,0.0948226675391197,0.0797422900795937,2.83483934402466,0.0224368814378977,0.0289287492632866,0.0777356997132301,0.0125265046954155,0.0460996516048908,0.10014271736145,0.0195838138461113,5.49148464202881,0.0275472737848759,0.0324518904089928,0.0684076994657516,0.00383614399470389,0.0159328281879425,0.0928053483366966,0.0311965364962816,2012-01-17 12:22:00
