"diffSecs","level","azimuth.mean","azimuth.absolute.deviation","azimuth.standard.deviation","azimuth.max.deviation","pitch.mean","pitch.absolute.deviation","pitch.standard.deviation","pitch.max.deviation","roll.mean","roll.absolute.deviation","roll.standard.deviation","roll.max.deviation","time"
1.30099987983704,1,-24.6000003814697,0,0,0,-19.3999996185303,0,0,0,1.60000002384186,0,0,0,2012-03-04 09:48:45
1.00300002098083,44,-20.0750007629395,1.80795454978943,2.0580358505249,4.22500085830688,-22.9454555511475,1.07644641399384,1.33202767372131,3.14545369148254,11.0818185806274,1.5495867729187,2.18374919891357,7.68181800842285,2012-03-04 09:48:46
1.23099994659424,35,-22.4714279174805,1.16408145427704,1.42759954929352,3.07142925262451,-19.6742858886719,2.12228560447693,2.65290594100952,6.27428579330444,19.2771434783936,3.49959206581116,4.1015043258667,9.02285766601562,2012-03-04 09:48:47
1.01300001144409,46,-28.6478271484375,1.0400755405426,1.48744571208954,4.84782552719116,-3.46086955070496,1.91058599948883,2.79817318916321,9.33913040161133,31.6478271484375,0.577883005142212,0.752889931201935,2.44782590866089,2012-03-04 09:48:48
1.00999999046326,41,-28.1463413238525,2.06317663192749,2.45238542556763,5.04634141921997,-4.74146366119385,1.92456877231598,2.25117588043213,4.35853672027588,31.8585376739502,0.755145907402039,0.917572736740112,1.84146368503571,2012-03-04 09:48:49
1.01300001144409,43,-23.5511627197266,0.391779363155365,0.430452525615692,0.651163518428802,-17.5209312438965,3.26403450965881,3.76807641983032,7.9209303855896,19.9139537811279,8.13455963134766,9.0965518951416,13.8860454559326,2012-03-04 09:48:50
1.01400017738342,43,-27.2255821228027,0.911087036132812,1.12665224075317,2.52558088302612,-13.7674417495728,3.47993516921997,3.86160135269165,6.73255777359009,8.03023242950439,3.79329371452332,4.32405567169189,7.36976766586304,2012-03-04 09:48:51
1.00099992752075,43,-30.3255825042725,0.647052526473999,0.684748530387878,1.32558178901672,-1.48139536380768,2.9809627532959,3.36750936508179,6.21860504150391,-1.64883720874786,2.61287188529968,3.00715208053589,5.45116281509399,2012-03-04 09:48:52
1.01699995994568,49,-29.7040824890137,1.9995836019516,2.5331244468689,4.69591951370239,2.28163266181946,1.99466896057129,2.18610405921936,3.98163270950317,-14.4897966384888,4.25081253051758,4.82405757904053,7.48979616165161,2012-03-04 09:48:53
