"diffSecs","level","azimuth.mean","azimuth.absolute.deviation","azimuth.standard.deviation","azimuth.max.deviation","pitch.mean","pitch.absolute.deviation","pitch.standard.deviation","pitch.max.deviation","roll.mean","roll.absolute.deviation","roll.standard.deviation","roll.max.deviation","time"
6.67799997329712,17,-19.705883026123,0.205536246299744,0.233818709850311,0.405881553888321,-14.2529411315918,0.0733565613627434,0.0848366245627403,0.152940914034843,53.5705909729004,0.0782013982534409,0.089210607111454,0.170587658882141,2012-01-27 17:00:06
0.450999975204468,99,-19.2848491668701,0.351270258426666,0.397304952144623,0.715151131153107,-14.1090908050537,0.139210164546967,0.168828904628754,0.409091293811798,53.5949516296387,0.113498985767365,0.1438108086586,0.305051118135452,2012-01-27 17:00:07
0.950999975204468,99,-18.7141418457031,0.440546870231628,0.562463939189911,1.71414184570312,-13.7565660476685,0.233772128820419,0.282185465097427,0.656565487384796,53.6464653015137,0.0979485362768173,0.122526198625565,0.353534311056137,2012-01-27 17:00:08
0.64300012588501,99,-18.0828285217285,0.506989121437073,0.599670052528381,1.58282864093781,-13.7707071304321,0.15588216483593,0.190296232700348,0.4707071185112,53.8050498962402,0.131170675158501,0.168998032808304,0.405049711465836,2012-01-27 17:00:08
1.00099992752075,51,-19.5215682983398,0.967627882957458,1.15882194042206,2.62156939506531,-14.1372547149658,0.261053413152695,0.313087582588196,0.737254559993744,53.7803916931152,0.111726000905037,0.132871136069298,0.319609314203262,2012-01-27 17:00:09
1.0460000038147,38,-20.6184215545654,0.363434880971909,0.417924165725708,0.818420350551605,-14.1105260848999,0.18698063492775,0.226865991950035,0.489473879337311,53.8236846923828,0.11786738038063,0.152926206588745,0.376316159963608,2012-01-27 17:00:10
1.00499987602234,50,-20.4180011749268,0.268159955739975,0.327835261821747,0.681999981403351,-14.3540000915527,0.0835201814770699,0.100419245660305,0.253999888896942,53.7379989624023,0.10655951499939,0.126316756010056,0.261999219655991,2012-01-27 17:00:11
1.03400015830994,44,-20.3590908050537,0.420867770910263,0.467254161834717,0.840909421443939,-14.3204545974731,0.167768701910973,0.21060474216938,0.520454525947571,53.6522750854492,0.124999567866325,0.152983158826828,0.347726374864578,2012-01-27 17:00:12
1.00600004196167,39,-19.648717880249,0.270874381065369,0.330401122570038,0.848717212677002,-14.1717948913574,0.0984877124428749,0.119719162583351,0.271794438362122,53.6102561950684,0.131097584962845,0.164542555809021,0.389742642641068,2012-01-27 17:00:13
1.00699996948242,37,-19.9783782958984,0.186705589294434,0.232652366161346,0.621621489524841,-14.1540536880493,0.146091938018799,0.185406148433685,0.554053783416748,53.6459465026855,0.114535599946976,0.140644267201424,0.345947682857513,2012-01-27 17:00:14
1.0149998664856,34,-19.4823532104492,0.159861549735069,0.196245014667511,0.41764622926712,-13.9176473617554,0.161937639117241,0.188602536916733,0.317646861076355,53.6852951049805,0.100518584251404,0.126333430409431,0.314705222845078,2012-01-27 17:00:15
1.01999998092651,34,-19.2529411315918,0.208650454878807,0.239159345626831,0.452940315008163,-14.2000007629395,0.135294184088707,0.164495646953583,0.299999713897705,53.6411781311035,0.114532232284546,0.13957391679287,0.358822554349899,2012-01-27 17:00:16
1,36,-19.2194442749023,0.129320964217186,0.152423769235611,0.380555510520935,-14.3833332061768,0.135185286402702,0.160727575421333,0.383333504199982,53.6555557250977,0.131480887532234,0.158892571926117,0.355557322502136,2012-01-27 17:00:17
1.01100015640259,36,-19.2361106872559,0.177006125450134,0.21877533197403,0.63611102104187,-14.2416667938232,0.0717594102025032,0.0829157084226608,0.15833380818367,53.6416664123535,0.0708326026797295,0.0829150751233101,0.158331334590912,2012-01-27 17:00:18
1.00699996948242,31,-19.3516139984131,0.133818492293358,0.158360287547112,0.351613253355026,-14.2806453704834,0.102601662278175,0.122919879853725,0.319355100393295,53.7096786499023,0.115712076425552,0.139941498637199,0.390323638916016,2012-01-27 17:00:19
1.00300002098083,34,-19.4323539733887,0.161764651536942,0.192079290747643,0.432353347539902,-14.2764711380005,0.0937717705965042,0.116464748978615,0.27647078037262,53.5823554992676,0.0923879370093346,0.112382046878338,0.217645198106766,2012-01-27 17:00:20
1.01600003242493,35,-19.6885719299316,0.162285849452019,0.199673175811768,0.411428570747375,-14.2342863082886,0.0942041799426079,0.119386196136475,0.334285259246826,53.5714302062988,0.0669396221637726,0.0847567692399025,0.228569582104683,2012-01-27 17:00:21
1.00999999046326,35,-19.58571434021,0.16653074324131,0.220574393868446,0.585714638233185,-14.1599998474121,0.0674283504486084,0.0834949314594269,0.259999454021454,53.5542869567871,0.0875107645988464,0.102379910647869,0.245712608098984,2012-01-27 17:00:22
1.00300002098083,37,-19.6351356506348,0.185244992375374,0.24628746509552,0.735136032104492,-14.1729726791382,0.0920378640294075,0.134864628314972,0.472973197698593,53.6270294189453,0.152519732713699,0.182547330856323,0.372972339391708,2012-01-27 17:00:23
1.08799982070923,33,-19.5363636016846,0.208815440535545,0.254437148571014,0.563636183738708,-14.1303033828735,0.117906287312508,0.131390824913979,0.269697457551956,53.7121200561523,0.128373980522156,0.151272132992744,0.312120378017426,2012-01-27 17:00:24
1.00999999046326,35,-19.668571472168,0.169143155217171,0.21081006526947,0.531428873538971,-14.1742858886719,0.0994284600019455,0.122690938413143,0.27428525686264,53.668571472168,0.0891424566507339,0.108946532011032,0.231429293751717,2012-01-27 17:00:26
1.00200009346008,28,-19.7821426391602,0.189285680651665,0.233075022697449,0.582142531871796,-14.1785717010498,0.117346853017807,0.142320424318314,0.321428447961807,53.6357154846191,0.0831630155444145,0.0934049412608147,0.164284154772758,2012-01-27 17:00:27
1.0239999294281,35,-19.6599998474121,0.144000336527824,0.174356192350388,0.439999878406525,-14.1142854690552,0.0914283990859985,0.112485714256763,0.214285284280777,53.5314292907715,0.103021204471588,0.132603824138641,0.431427448987961,2012-01-27 17:00:28
1.01399993896484,35,-19.7142868041992,0.215510189533234,0.288981288671494,0.614285886287689,-14.2600002288818,0.0868573114275932,0.107437789440155,0.260000079870224,53.6399993896484,0.114285312592983,0.137736573815346,0.340001463890076,2012-01-27 17:00:29
1.01200008392334,36,-19.7527770996094,0.260647982358932,0.295790821313858,0.552777230739594,-14.216667175293,0.0703704729676247,0.0866025537252426,0.216666758060455,53.7000007629395,0.0777772590517998,0.102739699184895,0.200001075863838,2012-01-27 17:00:30
1.01900005340576,36,-19.3472232818604,0.208333179354668,0.232720792293549,0.447222977876663,-14.3000001907349,0.0611112602055073,0.0912872105836868,0.199999868869781,53.7083358764648,0.109721250832081,0.123321279883385,0.291665613651276,2012-01-27 17:00:31
1.0149998664856,28,-19.7535724639893,0.306887656450272,0.386820286512375,0.846428334712982,-14.1964282989502,0.118877455592155,0.152320489287376,0.303571254014969,53.6428565979004,0.103060699999332,0.132094502449036,0.342858999967575,2012-01-27 17:00:32
1.01500010490417,32,-19.7937507629395,0.182421892881393,0.220705613493919,0.406250476837158,-14.3249998092651,0.090625137090683,0.117260463535786,0.325000256299973,53.5375022888184,0.135156601667404,0.14947846531868,0.262498259544373,2012-01-27 17:00:33
1.00699996948242,34,-19.6617660522461,0.192041739821434,0.246164366602898,0.861763954162598,-14.2558822631836,0.093771755695343,0.114252559840679,0.255882501602173,53.6323547363281,0.075258880853653,0.0898379981517792,0.167645171284676,2012-01-27 17:00:34
1.00500011444092,34,-19.9441184997559,0.200346186757088,0.251104950904846,0.644116878509521,-14.2264709472656,0.138235375285149,0.157757923007011,0.273529231548309,53.5382347106934,0.0884088426828384,0.111182756721973,0.26176318526268,2012-01-27 17:00:35
1.00699996948242,35,-19.8771438598633,0.172081336379051,0.202957689762115,0.422857820987701,-14.2200002670288,0.076571561396122,0.0950188562273979,0.220000103116035,53.560001373291,0.0800007730722427,0.099139466881752,0.260001927614212,2012-01-27 17:00:36
1.01099991798401,35,-19.9285717010498,0.151020437479019,0.187573134899139,0.428571760654449,-14.248571395874,0.0899593681097031,0.110509149730206,0.251428455114365,53.5771446228027,0.113633163273335,0.153223767876625,0.422856152057648,2012-01-27 17:00:37
1.00500011444092,32,-20.1343746185303,0.14082059264183,0.165093675255775,0.365624606609344,-14.265625,0.103125184774399,0.12147381901741,0.265625149011612,53.625,0.0796870589256287,0.0935412794351578,0.17499828338623,2012-01-27 17:00:38
1.01600003242493,28,-19.8535709381104,0.149744525551796,0.176234573125839,0.353571742773056,-14.0749998092651,0.0964286178350449,0.129903793334961,0.32500034570694,53.7071418762207,0.0739790946245193,0.103262841701508,0.207143381237984,2012-01-27 17:00:39
1.00299978256226,33,-19.778787612915,0.152984336018562,0.187095120549202,0.378788501024246,-14.1939392089844,0.0808079093694687,0.112652242183685,0.306060492992401,53.6303024291992,0.0730940103530884,0.0869857743382454,0.16969507932663,2012-01-27 17:00:40
1.00500011444092,37,-19.9945945739746,0.163184776902199,0.201274260878563,0.494595050811768,-14.1675672531128,0.0873628705739975,0.111631743609905,0.332432299852371,53.6000022888184,0.0540545210242271,0.086991623044014,0.199999943375587,2012-01-27 17:00:41
1.01399993896484,31,-19.4806461334229,0.343808710575104,0.413809657096863,0.880645096302032,-14.0032262802124,0.0815817192196846,0.106206886470318,0.203225836157799,53.6709671020508,0.082621730864048,0.105321042239666,0.270967066287994,2012-01-27 17:00:42
1.01100015640259,34,-19.6117649078369,0.102076403796673,0.127797648310661,0.311764001846313,-14.1147060394287,0.0878890752792358,0.108823396265507,0.214705437421799,53.7323532104492,0.0949819758534431,0.113034017384052,0.267646342515945,2012-01-27 17:00:43
1.00399994850159,33,-19.457576751709,0.155372053384781,0.210382550954819,0.657574832439423,-14.1818180084229,0.0666664987802505,0.0868803933262825,0.218182325363159,53.7181816101074,0.100825697183609,0.119225524365902,0.281817227602005,2012-01-27 17:00:44
1.00399994850159,34,-19.2441177368164,0.303633183240891,0.349950522184372,0.644117772579193,-14.1117649078369,0.129411578178406,0.160449117422104,0.311764657497406,53.75,0.120587691664696,0.14602555334568,0.250000238418579,2012-01-27 17:00:45
1.0090000629425,35,-19.4914283752441,0.140244990587234,0.177878648042679,0.408570855855942,-14.1999998092651,0.108571484684944,0.137321278452873,0.299999833106995,53.7171440124512,0.133877277374268,0.162982434034348,0.382858723402023,2012-01-27 17:00:46
1.01099991798401,36,-19.5805568695068,0.152623668313026,0.192670628428459,0.480555683374405,-14.1638889312744,0.111882589757442,0.139747336506844,0.336110919713974,53.6527786254883,0.0998451411724091,0.125799730420113,0.352779507637024,2012-01-27 17:00:47
1.00200009346008,35,-19.3114280700684,0.138122022151947,0.168643921613693,0.41142925620079,-14.1057147979736,0.110367223620415,0.137202262878418,0.205713957548141,53.7514305114746,0.1015505194664,0.120407119393349,0.251429319381714,2012-01-27 17:00:48
1.09200000762939,35,-19.4028568267822,0.112653084099293,0.16121980547905,0.402857482433319,-14.1400003433228,0.0948569849133492,0.122357755899429,0.339999973773956,53.725715637207,0.148081317543983,0.181017264723778,0.374286979436874,2012-01-27 17:00:49
1.0149998664856,35,-19.5685710906982,0.131265684962273,0.15449757874012,0.368571043014526,-14.1000003814697,0.120000012218952,0.145405828952789,0.300000429153442,53.7114295959473,0.14448955655098,0.173652172088623,0.311427623033524,2012-01-27 17:00:50
1.00500011444092,35,-19.642858505249,0.119184128940105,0.135827541351318,0.242858067154884,-14.0514287948608,0.10432643443346,0.118010528385639,0.248571425676346,53.7657165527344,0.0866932943463326,0.104040414094925,0.234285190701485,2012-01-27 17:00:51
1.00600004196167,37,-19.6810817718506,0.158656150102615,0.191491842269897,0.481080740690231,-13.972972869873,0.114682197570801,0.136853978037834,0.272973358631134,53.6297302246094,0.102409906685352,0.124910145998001,0.329731285572052,2012-01-27 17:00:52
1,35,-19.5428581237793,0.144490018486977,0.182499781250954,0.542857527732849,-14.0057144165039,0.0706939324736595,0.101257376372814,0.305714666843414,53.7085723876953,0.0636728703975677,0.0874111652374268,0.208572164177895,2012-01-27 17:00:53
1.01099991798401,35,-19.5685710906982,0.16734716296196,0.196790739893913,0.468571573495865,-14.0228576660156,0.0946938991546631,0.117316864430904,0.222857117652893,53.6457138061523,0.109876945614815,0.135946750640869,0.354284763336182,2012-01-27 17:00:54
1.0149998664856,35,-19.4342861175537,0.290448993444443,0.328583836555481,0.634284973144531,-13.9857149124146,0.115101970732212,0.137618228793144,0.285714685916901,53.7228584289551,0.0700401738286018,0.0864721834659576,0.177143648266792,2012-01-27 17:00:55
1.00300002098083,36,-19.6305561065674,0.163426175713539,0.202511370182037,0.469444394111633,-14.0888891220093,0.103086411952972,0.134943932294846,0.31111153960228,53.7472229003906,0.0691352188587189,0.0798818320035934,0.152778834104538,2012-01-27 17:00:56
1.00699996948242,34,-19.5235290527344,0.182353019714355,0.223684072494507,0.423529386520386,-14.2117652893066,0.0871974006295204,0.113149419426918,0.211764842271805,53.6794128417969,0.0889265611767769,0.110557913780212,0.279411196708679,2012-01-27 17:00:57
1.0090000629425,35,-19.5514297485352,0.129796117544174,0.166255339980125,0.451428562402725,-14.1342859268188,0.0943671837449074,0.116968460381031,0.265714734792709,53.6142883300781,0.0824483409523964,0.107285231351852,0.214285284280777,2012-01-27 17:00:58
1.01999998092651,36,-19.6416664123535,0.121759504079819,0.149768486618996,0.358332902193069,-14.0888891220093,0.0648148879408836,0.0842541232705116,0.211111143231392,53.6916656494141,0.104165926575661,0.129903301596642,0.308332443237305,2012-01-27 17:00:59
1.01699995994568,36,-19.4333343505859,0.146296247839928,0.181046336889267,0.433333724737167,-14.0111112594604,0.0864197164773941,0.104821860790253,0.211111173033714,53.5972213745117,0.0978399589657784,0.118991404771805,0.297223716974258,2012-01-27 17:01:00
1.01400017738342,37,-19.3567562103271,0.132505059242249,0.173268258571625,0.456757366657257,-14.0864868164062,0.104747943580151,0.133885994553566,0.286486506462097,53.7162170410156,0.116580985486507,0.144284665584564,0.383785158395767,2012-01-27 17:01:01
1.00899982452393,35,-19.5400009155273,0.174857378005981,0.211390048265457,0.459999740123749,-14.0971431732178,0.0840815976262093,0.110803961753845,0.297142803668976,53.6771430969238,0.116244435310364,0.141594260931015,0.277142435312271,2012-01-27 17:01:02
1.01300001144409,36,-19.6750011444092,0.11527806520462,0.14409701526165,0.275000840425491,-14.1222229003906,0.0697529315948486,0.0946076512336731,0.277778148651123,53.7027778625488,0.0816352739930153,0.111768409609795,0.302777171134949,2012-01-27 17:01:03
1.01300001144409,36,-19.5111122131348,0.161728605628014,0.189704239368439,0.411111205816269,-14.1055555343628,0.0802467912435532,0.117720074951649,0.305555582046509,53.716667175293,0.0972217097878456,0.128018945455551,0.416668057441711,2012-01-27 17:01:04
1.00999999046326,35,-19.3742866516113,0.243754997849464,0.296014457941055,0.674285292625427,-14.0600004196167,0.150857135653496,0.185472324490547,0.459999799728394,53.6514282226562,0.115754745900631,0.142169713973999,0.251428216695786,2012-01-27 17:01:05
1.007000207901,32,-19.3218746185303,0.196874797344208,0.226017698645592,0.421875655651093,-14.046875,0.0976563096046448,0.12496092915535,0.346875429153442,53.7750015258789,0.0953121706843376,0.125000029802322,0.275000214576721,2012-01-27 17:01:06
1.01899981498718,35,-19.5171432495117,0.143347278237343,0.176450505852699,0.417142748832703,-14.0685720443726,0.112326554954052,0.136844858527184,0.268571406602859,53.6485710144043,0.095836415886879,0.115564204752445,0.251429200172424,2012-01-27 17:01:07
1.0090000629425,36,-19.5249996185303,0.234722301363945,0.289995163679123,0.575000047683716,-14.0833339691162,0.118518508970737,0.146249368786812,0.316667079925537,53.7388877868652,0.0953699573874474,0.120825089514256,0.338888049125671,2012-01-27 17:01:08
1.00200009346008,35,-19.3542861938477,0.173224210739136,0.214266717433929,0.445714950561523,-14.0628576278687,0.0824490040540695,0.0988091453909874,0.262857109308243,53.7571449279785,0.0889788866043091,0.102219760417938,0.157141223549843,2012-01-27 17:01:09
1.01799988746643,36,-19.4888896942139,0.16975311934948,0.218298733234406,0.688888192176819,-14.0944442749023,0.156481459736824,0.185508981347084,0.394444763660431,53.7361106872559,0.0956783294677734,0.118210218846798,0.263888359069824,2012-01-27 17:01:10
1.0090000629425,33,-19.3454551696777,0.154269531369209,0.210469514131546,0.745454370975494,-14.1212120056152,0.0850319713354111,0.106621831655502,0.321212023496628,53.6939392089844,0.08686812967062,0.109929010272026,0.206061512231827,2012-01-27 17:01:11
1.00399994850159,34,-19.279411315918,0.350172996520996,0.423417061567307,0.979410886764526,-14.0941181182861,0.124221414327621,0.157070875167847,0.405882179737091,53.6441192626953,0.109515354037285,0.133264869451523,0.344119131565094,2012-01-27 17:01:12
1.00500011444092,35,-19.5371437072754,0.123918682336807,0.164031118154526,0.437142789363861,-14.1199998855591,0.111999846994877,0.130493476986885,0.280000478029251,53.6771430969238,0.139101356267929,0.165763065218925,0.322856366634369,2012-01-27 17:01:13
1.10500001907349,34,-19.514705657959,0.221453204751015,0.263608664274216,0.514706313610077,-14.1470594406128,0.114532724022865,0.141909793019295,0.352941006422043,53.6529426574707,0.135293617844582,0.151919364929199,0.252940237522125,2012-01-27 17:01:14
1.03799986839294,36,-19.1972217559814,0.403395086526871,0.445649445056915,0.697222650051117,-14.0083332061768,0.105555571615696,0.142155975103378,0.308333665132523,53.8055572509766,0.0796302482485771,0.110414452850819,0.29444620013237,2012-01-27 17:01:15
1.00999999046326,35,-19.5057144165039,0.161796137690544,0.217706128954887,0.605714976787567,-14.0542860031128,0.0922449305653572,0.115493565797806,0.354286044836044,53.7371444702148,0.127509772777557,0.147523581981659,0.337142169475555,2012-01-27 17:01:16
1.01800012588501,35,-19.5057144165039,0.137959316372871,0.175569027662277,0.405714243650436,-13.9742860794067,0.0865304321050644,0.105133429169655,0.225713834166527,53.7799987792969,0.108570925891399,0.130493253469467,0.280000627040863,2012-01-27 17:01:17
1.01899981498718,34,-19.4117660522461,0.13667793571949,0.172804787755013,0.611764132976532,-14.0941181182861,0.0782007202506065,0.0998267605900764,0.205882415175438,53.7382354736328,0.0875426158308983,0.102940745651722,0.238235920667648,2012-01-27 17:01:18
1.01800012588501,37,-19.4864864349365,0.167421519756317,0.212020173668861,0.586487233638763,-14.1216220855713,0.102556429803371,0.135835915803909,0.378378242254257,53.6810836791992,0.0860477462410927,0.115869611501694,0.281080305576324,2012-01-27 17:01:19
1.01300001144409,32,-19.5718746185303,0.186132922768593,0.229448169469833,0.528124988079071,-14.0437498092651,0.102734357118607,0.122314795851707,0.256249964237213,53.671875,0.0996087044477463,0.117882996797562,0.228125214576721,2012-01-27 17:01:20
1.01099991798401,33,-19.3878784179688,0.348025679588318,0.385932624340057,0.687878549098969,-14.0090913772583,0.125619769096375,0.148453831672668,0.309091359376907,53.7181816101074,0.0848479643464088,0.111340053379536,0.281817466020584,2012-01-27 17:01:21
1.01200008392334,35,-19.6485710144043,0.155918583273888,0.188787817955017,0.351428061723709,-14.0685720443726,0.0741225257515907,0.0887095332145691,0.231428608298302,53.7342872619629,0.120978847146034,0.14130537211895,0.265713602304459,2012-01-27 17:01:22
1.01099991798401,33,-19.3787879943848,0.363819807767868,0.419781595468521,0.778788030147552,-13.8575763702393,0.130211293697357,0.157692298293114,0.357576012611389,53.6939392089844,0.127823114395142,0.15751713514328,0.306059509515762,2012-01-27 17:01:23
1.00300002098083,36,-19.7277774810791,0.134876504540443,0.153859734535217,0.327778488397598,-13.9833335876465,0.104629553854465,0.130170851945877,0.283333748579025,53.6361122131348,0.129012078046799,0.156618252396584,0.363888114690781,2012-01-27 17:01:24
1.01399993896484,36,-19.3666667938232,0.311110883951187,0.37712350487709,0.666666269302368,-13.9000005722046,0.133333370089531,0.161589309573174,0.299999803304672,53.7277793884277,0.129320621490479,0.153859674930573,0.327776908874512,2012-01-27 17:01:25
1.0090000629425,35,-19.6285724639893,0.191836923360825,0.231234520673752,0.528571546077728,-13.9628572463989,0.10889782756567,0.128920093178749,0.262857556343079,53.6857147216797,0.0604074597358704,0.0866607427597046,0.285713732242584,2012-01-27 17:01:26
1,34,-19.5882358551025,0.150519117712975,0.193671464920044,0.41176426410675,-13.9176473617554,0.093425527215004,0.114969581365585,0.217647552490234,53.6029434204102,0.0804493948817253,0.109773270785809,0.302942961454391,2012-01-27 17:01:27
1.11500000953674,36,-19.7194442749023,0.148302480578423,0.182299256324768,0.419443726539612,-13.9305553436279,0.107870258390903,0.135029733181,0.369444400072098,53.6027793884277,0.103703178465366,0.136394068598747,0.302779525518417,2012-01-27 17:01:28
1.02699995040894,36,-19.6472225189209,0.129938513040543,0.165808156132698,0.452777802944183,-13.9250001907349,0.105555459856987,0.118731692433357,0.274999588727951,53.716667175293,0.1027772128582,0.125830218195915,0.316665977239609,2012-01-27 17:01:29
1.02500009536743,35,-19.748571395874,0.22432641685009,0.265514433383942,0.548570930957794,-13.9200000762939,0.0891427174210548,0.10902164876461,0.220000371336937,53.6514282226562,0.107264921069145,0.125063180923462,0.248572111129761,2012-01-27 17:01:31
1.0090000629425,36,-19.7583332061768,0.144907340407372,0.175396338105202,0.441667020320892,-13.9333333969116,0.10370359569788,0.126929581165314,0.333333164453506,53.6138916015625,0.093981109559536,0.115836940705776,0.31389045715332,2012-01-27 17:01:32
1.00399994850159,33,-19.7515163421631,0.131864011287689,0.16352391242981,0.451514512300491,-13.9787883758545,0.104499414563179,0.12734480202198,0.278788268566132,53.7484855651855,0.131863564252853,0.149992033839226,0.251514315605164,2012-01-27 17:01:33
1.01900005340576,35,-19.6800003051758,0.122285954654217,0.148900911211967,0.319999545812607,-13.9942855834961,0.0932243764400482,0.119386151432991,0.305714219808578,53.6028594970703,0.0782036408782005,0.102777592837811,0.202856659889221,2012-01-27 17:01:34
1.01099991798401,34,-19.5852947235107,0.165225341916084,0.201658740639687,0.585294604301453,-13.970588684082,0.137024164199829,0.156297996640205,0.329411745071411,53.6794128417969,0.0948087722063065,0.110557653009892,0.279410868883133,2012-01-27 17:01:35
1.01699995994568,35,-19.3114280700684,0.291102200746536,0.316924333572388,0.488572359085083,-14,0.1142857670784,0.145405843853951,0.300000369548798,53.725715637207,0.126529932022095,0.157376065850258,0.474285781383514,2012-01-27 17:01:36
1.00699996948242,34,-19.7117652893066,0.115224920213223,0.143002882599831,0.288234829902649,-14.0617647171021,0.0861591920256615,0.105759650468826,0.261764734983444,53.6352958679199,0.112456284463406,0.13694629073143,0.36470502614975,2012-01-27 17:01:37
1.01200008392334,35,-19.7857151031494,0.155918478965759,0.205833271145821,0.485713690519333,-14.002857208252,0.100734621286392,0.120678201317787,0.202857211232185,53.5771446228027,0.0788577720522881,0.0988092496991158,0.222855269908905,2012-01-27 17:01:38
1.00799989700317,34,-19.6000003814697,0.14705915749073,0.181497305631638,0.5,-14.0382356643677,0.105190292000771,0.126059412956238,0.238235220313072,53.6147079467773,0.0904839262366295,0.116649977862835,0.285294592380524,2012-01-27 17:01:39
1.00699996948242,36,-19.9055557250977,0.172530725598335,0.209422945976257,0.6055548787117,-14.0500001907349,0.130555421113968,0.1462492197752,0.25,53.7000007629395,0.0833328515291214,0.115469671785831,0.299999117851257,2012-01-27 17:01:40
1.01600003242493,34,-19.6147060394287,0.150000289082527,0.188074558973312,0.514706015586853,-13.9264707565308,0.0998268723487854,0.124401703476906,0.326470375061035,53.4823532104492,0.11384105682373,0.136059671640396,0.317645579576492,2012-01-27 17:01:41
1.01500010490417,34,-19.6117649078369,0.200000151991844,0.254101306200027,0.511764943599701,-13.9264707565308,0.0871970951557159,0.106574475765228,0.273528903722763,53.6029434204102,0.109688006341457,0.146498784422874,0.302942961454391,2012-01-27 17:01:42
1,34,-19.5941181182861,0.154671505093575,0.20855425298214,0.505882263183594,-14.0588235855103,0.110726557672024,0.128606960177422,0.258823573589325,53.605884552002,0.148442879319191,0.183016136288643,0.394116908311844,2012-01-27 17:01:43
1.00499987602234,36,-19.661111831665,0.205555647611618,0.238371521234512,0.561110973358154,-14.0250005722046,0.10694445669651,0.132024765014648,0.27499994635582,53.5750007629395,0.095833845436573,0.11636871099472,0.275001734495163,2012-01-27 17:01:44
1.00999999046326,35,-19.7171440124512,0.209142863750458,0.255774110555649,0.517142534255981,-14.0971431732178,0.0726530700922012,0.0970586687326431,0.297142773866653,53.6285743713379,0.0791832506656647,0.100203864276409,0.328573286533356,2012-01-27 17:01:45
1.00300002098083,34,-19.2088241577148,0.315225034952164,0.371299684047699,0.808824181556702,-13.9499998092651,0.108823493123055,0.128909543156624,0.250000357627869,53.6147079467773,0.109688065946102,0.13313464820385,0.314707487821579,2012-01-27 17:01:46
1.01500010490417,33,-19.4969692230225,0.136639207601547,0.169642880558968,0.403029650449753,-14.0848484039307,0.0747474879026413,0.0957306101918221,0.215151533484459,53.6333351135254,0.109090380370617,0.131809130311012,0.33333483338356,2012-01-27 17:01:47
1.00300002098083,35,-19.7657146453857,0.193632617592812,0.246046140789986,0.465713649988174,-14.0457143783569,0.104163251817226,0.124997854232788,0.254285752773285,53.6028594970703,0.101060874760151,0.136247098445892,0.302858948707581,2012-01-27 17:01:48
1.01600003242493,35,-19.6971435546875,0.174204304814339,0.236021608114243,0.697143256664276,-13.9771432876587,0.104816175997257,0.131117582321167,0.322857052087784,53.6628570556641,0.093876801431179,0.119727052748203,0.262856721878052,2012-01-27 17:01:49
1.10999989509583,35,-19.7142868041992,0.15183687210083,0.177511230111122,0.314286470413208,-13.9485712051392,0.112979501485825,0.138091966509819,0.35142856836319,53.6314277648926,0.0894689783453941,0.103568732738495,0.231427878141403,2012-01-27 17:01:50
1.01300001144409,34,-19.7088241577148,0.167647019028664,0.210556104779243,0.491176784038544,-14.0382356643677,0.0861592292785645,0.108505055308342,0.261764705181122,53.5352935791016,0.10830495506525,0.136946529150009,0.364706605672836,2012-01-27 17:01:51
1.00799989700317,35,-19.9342861175537,0.119183704257011,0.151077717542648,0.365715175867081,-13.9857149124146,0.097142681479454,0.119863741099834,0.214285299181938,53.6542854309082,0.0896319970488548,0.10513299703598,0.254285007715225,2012-01-27 17:01:52
1.00600004196167,35,-19.4085712432861,0.311673521995544,0.382003277540207,0.808571398258209,-13.91428565979,0.102857045829296,0.126813411712646,0.285713881254196,53.725715637207,0.0879992693662643,0.112992040812969,0.325713455677032,2012-01-27 17:01:53
1.00399994850159,34,-18.9500007629395,0.267647087574005,0.316460222005844,0.649999976158142,-13.8882350921631,0.113148868083954,0.14504499733448,0.31176432967186,53.720588684082,0.125432059168816,0.152969107031822,0.320587605237961,2012-01-27 17:01:54
1.007000207901,34,-19.4294128417969,0.186505183577538,0.228201910853386,0.629411041736603,-14.0500001907349,0.0794117823243141,0.091555081307888,0.149999678134918,53.6970596313477,0.0927334427833557,0.133912339806557,0.29705798625946,2012-01-27 17:01:55
1.01699995994568,34,-19.1970596313477,0.297058999538422,0.356853395700455,0.897058010101318,-14.0941181182861,0.10795846581459,0.139201804995537,0.394117891788483,53.6411781311035,0.0871963948011398,0.106044963002205,0.241176038980484,2012-01-27 17:01:56
1.00099992752075,40,-19.0149993896484,0.332750141620636,0.388940870761871,0.814999520778656,-13.8900003433228,0.118000045418739,0.162480667233467,0.309999525547028,53.75,0.0749993026256561,0.0894422605633736,0.250000298023224,2012-01-27 17:01:57
1.00699996948242,34,-19.2823524475098,0.128719627857208,0.165334716439247,0.482352197170258,-13.9382352828979,0.0993078649044037,0.111182689666748,0.161764815449715,53.7676467895508,0.0832173153758049,0.102096915245056,0.232352539896965,2012-01-27 17:01:58
1.01500010490417,34,-19.4882354736328,0.132180094718933,0.172805234789848,0.488235533237457,-13.955883026123,0.0826987996697426,0.0945302918553352,0.155882492661476,53.7529411315918,0.12629696726799,0.155743181705475,0.352940052747726,2012-01-27 17:01:59
1.01099991798401,32,-19.5,0.175000131130219,0.213600128889084,0.500000476837158,-14.046875,0.109375,0.134592786431313,0.353125393390656,53.6625022888184,0.135155946016312,0.155623733997345,0.262499451637268,2012-01-27 17:02:00
1.00099992752075,33,-19.3515148162842,0.177226543426514,0.209068939089775,0.351515501737595,-14.0030307769775,0.107437998056412,0.146649062633514,0.29696974158287,53.6939392089844,0.0865005850791931,0.10426989197731,0.206061512231827,2012-01-27 17:02:01
1.01700019836426,33,-19.481819152832,0.217079788446426,0.259900361299515,0.681817591190338,-13.9848489761353,0.155922740697861,0.197132796049118,0.415151923894882,53.7121238708496,0.0835626423358917,0.117441207170486,0.312120497226715,2012-01-27 17:02:02
1.01300001144409,36,-19.4722232818604,0.139506250619888,0.181981652975082,0.372222095727921,-13.9138889312744,0.168672740459442,0.211019679903984,0.513888478279114,53.7333335876465,0.0814811289310455,0.0999997779726982,0.233334124088287,2012-01-27 17:02:03
1.01899981498718,34,-19.4794120788574,0.174740448594093,0.209732905030251,0.420587360858917,-13.2294120788574,0.121799416840076,0.1445671916008,0.329411387443542,53.8235282897949,0.0847756117582321,0.105882555246353,0.27647265791893,2012-01-27 17:02:04
1.0090000629425,35,-19.5085716247559,0.0955104306340218,0.129551917314529,0.408571243286133,-13.2800006866455,0.137142896652222,0.16177587211132,0.320000141859055,53.7485733032227,0.14399941265583,0.169657021760941,0.451428323984146,2012-01-27 17:02:05
1.00799989700317,35,-19.5171432495117,0.190041020512581,0.245514899492264,0.717142105102539,-13.457142829895,0.117550976574421,0.133707001805305,0.257143259048462,53.7542877197266,0.107264779508114,0.138032600283623,0.354284763336182,2012-01-27 17:02:06
1.02000021934509,33,-19.5454540252686,0.210468485951424,0.261801362037659,0.55454558134079,-13.3818187713623,0.103581413626671,0.13360857963562,0.318181395530701,53.8303031921387,0.0978883802890778,0.116735331714153,0.23030136525631,2012-01-27 17:02:07
1.01199984550476,37,-19.7648658752441,0.110153459012508,0.133995100855827,0.264865458011627,-13.7054052352905,0.136450082063675,0.164310157299042,0.305404990911484,53.6837844848633,0.102118000388145,0.132570058107376,0.316215515136719,2012-01-27 17:02:08
1.00200009346008,34,-19.8500003814697,0.155882000923157,0.188258200883865,0.450000762939453,-13.6941175460815,0.0896192714571953,0.108305625617504,0.205882772803307,53.8205909729004,0.158305019140244,0.189083844423294,0.320589184761047,2012-01-27 17:02:09
1.00099992752075,36,-19.8888893127441,0.195061519742012,0.227031350135803,0.488889753818512,-13.6444444656372,0.0753084570169449,0.0895805805921555,0.25555607676506,53.6833343505859,0.0620364509522915,0.0833328068256378,0.216667279601097,2012-01-27 17:02:10
1.00999999046326,33,-19.6848487854004,0.228649944067001,0.260676234960556,0.515151977539062,-13.6909093856812,0.0573002099990845,0.0865627825260162,0.190909042954445,53.6606063842773,0.137740582227707,0.165033236145973,0.439395219087601,2012-01-27 17:02:11
1.00600004196167,33,-19.6757583618164,0.155188426375389,0.184276342391968,0.375756740570068,-13.5787878036499,0.0707070901989937,0.087930902838707,0.178787484765053,53.6393966674805,0.0865006223320961,0.112651981413364,0.339395940303802,2012-01-27 17:02:12
1.1010000705719,33,-19.5939388275146,0.122497916221619,0.170452922582626,0.406060427427292,-13.7333335876465,0.111111201345921,0.129490092396736,0.26666647195816,53.7303047180176,0.0749304294586182,0.0936940163373947,0.269696325063705,2012-01-27 17:02:13
1.0019998550415,35,-19.8685722351074,0.224489599466324,0.272314339876175,0.768571496009827,-13.6942853927612,0.0760814920067787,0.0983952954411507,0.205714747309685,53.7000007629395,0.0914281383156776,0.121889539062977,0.29999902844429,2012-01-27 17:02:14
1.06800007820129,37,-19.9594593048096,0.103287078440189,0.128314316272736,0.359459280967712,-13.8027029037476,0.12242528796196,0.153317481279373,0.302702814340591,53.7243270874023,0.122132547199726,0.145945683121681,0.275674760341644,2012-01-27 17:02:15
1,34,-19.8411769866943,0.24705870449543,0.304976135492325,0.941177308559418,-13.8147058486938,0.0896194577217102,0.126333713531494,0.414705514907837,53.6794128417969,0.0889265984296799,0.105102740228176,0.220589026808739,2012-01-27 17:02:16
1.01099991798401,35,-19.6400012969971,0.268571555614471,0.34242832660675,0.939999580383301,-13.7171430587769,0.109061323106289,0.13413368165493,0.317142486572266,53.6285743713379,0.0987750068306923,0.123221851885319,0.271429002285004,2012-01-27 17:02:17
1,35,-19.9571437835693,0.0751020908355713,0.0871310830116272,0.157141759991646,-13.7657146453857,0.0924083516001701,0.106751799583435,0.234285548329353,53.6399993896484,0.108570955693722,0.131366372108459,0.340001583099365,2012-01-27 17:02:18
1.0310001373291,34,-19.9617652893066,0.200172945857048,0.270092159509659,0.761764168739319,-13.7676477432251,0.147923976182938,0.169290259480476,0.332353085279465,53.6676483154297,0.102940618991852,0.120587982237339,0.232353553175926,2012-01-27 17:02:19
1.01399993896484,35,-20.0085716247559,0.130285948514938,0.166255369782448,0.308571010828018,-13.6800003051758,0.0971427634358406,0.119043871760368,0.220000430941582,53.7114295959473,0.076570563018322,0.100771754980087,0.311427533626556,2012-01-27 17:02:20
1.00200009346008,32,-19.625,0.17343769967556,0.219374269247055,0.475000143051147,-13.796875,0.141601622104645,0.191187709569931,0.403124630451202,53.7312507629395,0.0851556956768036,0.104395285248756,0.231250524520874,2012-01-27 17:02:21
1.02699995040894,32,-19.3062496185303,0.114452704787254,0.161897867918015,0.406250894069672,-13.7937498092651,0.132421970367432,0.155999824404716,0.293750166893005,53.734375,0.0886712670326233,0.110705822706223,0.265624523162842,2012-01-27 17:02:22
1.00499987602234,35,-19.3657150268555,0.199183434247971,0.244882345199585,0.56571352481842,-13.791428565979,0.0736328363418579,0.0967219173908234,0.208571329712868,53.7457160949707,0.0953464135527611,0.11794114112854,0.345713466405869,2012-01-27 17:02:23
1.00699996948242,37,-19.3486480712891,0.209495827555656,0.237807184457779,0.451352149248123,-13.7594594955444,0.160555243492126,0.197907254099846,0.540540516376495,53.6594619750977,0.114097408950329,0.142296463251114,0.340539574623108,2012-01-27 17:02:24
1.00500011444092,33,-19.4606056213379,0.13755738735199,0.168665707111359,0.360606044530869,-13.8363637924194,0.126721933484077,0.155345633625984,0.363636016845703,53.7424240112305,0.11129405349493,0.137135520577431,0.357577353715897,2012-01-27 17:02:25
1,33,-19.5666675567627,0.246464729309082,0.300168246030807,0.766665995121002,-13.6878786087036,0.107070632278919,0.13653190433979,0.312121123075485,53.6545448303223,0.106886588037014,0.125748068094254,0.254544585943222,2012-01-27 17:02:26
1.00699996948242,36,-19.7472229003906,0.184104934334755,0.232720658183098,0.547221899032593,-13.6500005722046,0.111111007630825,0.132287576794624,0.250000417232513,53.7138900756836,0.133641511201859,0.161851406097412,0.313888341188431,2012-01-27 17:02:27
1.00099992752075,36,-19.9194450378418,0.123765453696251,0.161278605461121,0.419444710016251,-13.7472219467163,0.0995372012257576,0.123572193086147,0.352778047323227,53.658332824707,0.0986103117465973,0.127746909856796,0.341665685176849,2012-01-27 17:02:28
1.01800012588501,35,-19.6028575897217,0.180081889033318,0.215785324573517,0.402856767177582,-13.6371431350708,0.120326444506645,0.143598094582558,0.262857556343079,53.7142868041992,0.0971421599388123,0.129046201705933,0.314284831285477,2012-01-27 17:02:29
1.00600004196167,33,-19.3909091949463,0.198346838355064,0.251496881246567,0.50909024477005,-13.6454544067383,0.103581175208092,0.130479127168655,0.354545295238495,53.7363624572754,0.104682624340057,0.129843726754189,0.263635694980621,2012-01-27 17:02:30
1.01099991798401,36,-19.2055549621582,0.156172648072243,0.205405160784721,0.505555152893066,-13.7194442749023,0.108179114758968,0.13707147538662,0.280555456876755,53.7305564880371,0.0929004177451134,0.122063562273979,0.330554634332657,2012-01-27 17:02:31
1.01399993896484,34,-19.4294128417969,0.188927218317986,0.224302023649216,0.470587491989136,-13.8735294342041,0.110380664467812,0.133524194359779,0.326470196247101,53.7117652893066,0.069549560546875,0.099305048584938,0.288234710693359,2012-01-27 17:02:32
1.01100015640259,35,-19.4885711669922,0.140734508633614,0.186350390315056,0.411427855491638,-13.7971429824829,0.0891430675983429,0.113353505730629,0.302857369184494,53.6742858886719,0.0909384712576866,0.122690752148628,0.325713455677032,2012-01-27 17:02:33
1.11699986457825,36,-19.3166675567627,0.264814704656601,0.314907491207123,0.616666197776794,-13.7250003814697,0.0958334282040596,0.113956645131111,0.27499982714653,53.7111129760742,0.0962955877184868,0.119669824838638,0.311110287904739,2012-01-27 17:02:34
1.03400015830994,35,-19.5485725402832,0.144163608551025,0.167965263128281,0.351427882909775,-13.7457141876221,0.0958368480205536,0.112992748618126,0.254285544157028,53.6828575134277,0.090121865272522,0.120677940547466,0.317141950130463,2012-01-27 17:02:35
1.00699996948242,36,-19.466667175293,0.179629653692245,0.217306777834892,0.466667056083679,-13.7444448471069,0.106172986328602,0.12789860367775,0.255555391311646,53.7027778625488,0.12546244263649,0.144310608506203,0.297221392393112,2012-01-27 17:02:36
1.01399993896484,37,-19.3891887664795,0.347991198301315,0.413151353597641,0.889189660549164,-13.8108110427856,0.13601179420948,0.162387281656265,0.310811042785645,53.8027038574219,0.0901392921805382,0.128371134400368,0.302703142166138,2012-01-27 17:02:38
1.00300002098083,34,-19.7088241577148,0.162802845239639,0.203452035784721,0.408822894096375,-13.9029417037964,0.0745673403143883,0.0984745398163795,0.20294164121151,53.705883026123,0.10622763633728,0.123528987169266,0.205882802605629,2012-01-27 17:02:39
1.00699996948242,36,-19.6666679382324,0.129629850387573,0.159861117601395,0.366665959358215,-13.7861108779907,0.127314954996109,0.161851808428764,0.413888543844223,53.7666664123535,0.0833326950669289,0.102739803493023,0.233332946896553,2012-01-27 17:02:40
1.01900005340576,36,-19.5638885498047,0.13456803560257,0.165248572826385,0.336110442876816,-13.7916669845581,0.0986113473773003,0.116368860006332,0.291666865348816,53.7138900756836,0.0884251222014427,0.105810470879078,0.213889539241791,2012-01-27 17:02:41
1.00899982452393,35,-19.5657157897949,0.140244960784912,0.170617148280144,0.36571416258812,-13.7828569412231,0.0834287479519844,0.102777875959873,0.217142701148987,53.7828559875488,0.143510013818741,0.179659575223923,0.482858508825302,2012-01-27 17:02:42
1.02600002288818,35,-19.5114288330078,0.387591928243637,0.468292564153671,1.01142883300781,-13.708571434021,0.136489897966385,0.177878648042679,0.391428828239441,53.7600021362305,0.106285341084003,0.133523553609848,0.359998971223831,2012-01-27 17:02:43
1.01300001144409,35,-19.4857139587402,0.16734679043293,0.209956139326096,0.485714673995972,-13.791428565979,0.078857347369194,0.099632129073143,0.208571329712868,53.7714309692383,0.115101672708988,0.144561290740967,0.328573077917099,2012-01-27 17:02:44
1.01600003242493,34,-19.7735290527344,0.1354670971632,0.161443427205086,0.326470553874969,-13.8176469802856,0.104152344167233,0.148463860154152,0.417646765708923,53.779411315918,0.0806225538253784,0.0932404026389122,0.22058767080307,2012-01-27 17:02:45
1.01500010490417,35,-19.7371425628662,0.121796011924744,0.158719345927238,0.437142342329025,-13.8228569030762,0.068734884262085,0.083103284239769,0.177142634987831,53.7142868041992,0.0987750142812729,0.122223883867264,0.285713315010071,2012-01-27 17:02:46
1,34,-19.7323532104492,0.167820066213608,0.202514380216599,0.432352185249329,-13.8794116973877,0.111245818436146,0.138859733939171,0.320587813854218,53.7117652893066,0.0923868119716644,0.118233129382133,0.288234382867813,2012-01-27 17:02:47
1.01199984550476,35,-19.4571437835693,0.395101875066757,0.453737139701843,0.957143008708954,-13.7600002288818,0.130285814404488,0.145798340439796,0.340000092983246,53.7314300537109,0.100570894777775,0.123684629797935,0.368572771549225,2012-01-27 17:02:48
1.01300001144409,34,-19.6352939605713,0.205882579088211,0.248385846614838,0.464705854654312,-13.7676477432251,0.0968859270215034,0.113034665584564,0.232352703809738,53.7705879211426,0.131833732128143,0.156297996640205,0.329413145780563,2012-01-27 17:02:49
1.0460000038147,35,-19.4657154083252,0.261877566576004,0.310706853866577,0.565714836120605,-13.9485712051392,0.0928978100419044,0.110508985817432,0.251428127288818,53.7371444702148,0.103183247148991,0.119727373123169,0.237143710255623,2012-01-27 17:02:50
