"diffSecs","latitude","longitude","altitude","time"
283.804999828339,42.37412063,-70.99485229,-45.4000015258789,2011-12-16 07:24:20
0.981000185012817,42.37415327,-70.99484428,-31.2999992370605,2011-12-16 07:24:21
0.976999998092651,42.37421745,-70.99481371,-34,2011-12-16 07:24:22
1,42.37431391,-70.99481274,-31.8999996185303,2011-12-16 07:24:23
1,42.37443157,-70.99480705,-34.7000007629395,2011-12-16 07:24:24
1.09099984169006,42.37455717,-70.99479231,-33.4000015258789,2011-12-16 07:24:25
0.906000137329102,42.3746142,-70.99475541,-26.3999996185303,2011-12-16 07:24:26
1.00300002098083,42.37468034,-70.99474381,-25.1000003814697,2011-12-16 07:24:27
1.00300002098083,42.37481097,-70.9947488,-32.5,2011-12-16 07:24:28
1.00299978256226,42.37489338,-70.99477043,-31.5,2011-12-16 07:24:29
1.02500009536743,42.37503438,-70.99480031,-36.9000015258789,2011-12-16 07:24:30
0.970999956130981,42.37513933,-70.99482802,-39.9000015258789,2011-12-16 07:24:31
1.03400015830994,42.37523243,-70.99486745,-40.0999984741211,2011-12-16 07:24:32
0.96999979019165,42.37530642,-70.99488541,-40.5999984741211,2011-12-16 07:24:33
1.01200008392334,42.37536875,-70.99492167,-43.0999984741211,2011-12-16 07:24:34
0.982000112533569,42.37544038,-70.99495946,-44.5,2011-12-16 07:24:35
1.00300002098083,42.37549595,-70.99497881,-47.5,2011-12-16 07:24:36
35.6319999694824,42.37637978,-70.99254578,-57.0999984741211,2011-12-16 07:25:12
0.968999862670898,42.37642748,-70.99234516,-66.5999984741211,2011-12-16 07:25:13
1.00300002098083,42.37642356,-70.99231042,-63.5999984741211,2011-12-16 07:25:14
1.09700012207031,42.37642637,-70.99229398,-58.2000007629395,2011-12-16 07:25:15
0.907999992370605,42.37642687,-70.99229436,-57.2999992370605,2011-12-16 07:25:16
1.07099986076355,42.37642355,-70.99228883,-55.2999992370605,2011-12-16 07:25:17
0.930000066757202,42.3764251,-70.99228918,-56,2011-12-16 07:25:18
1.00200009346008,42.37645628,-70.9922708,-57.7000007629395,2011-12-16 07:25:19
1.0789999961853,42.37645126,-70.99224243,-50.2999992370605,2011-12-16 07:25:20
0.907999992370605,42.37648382,-70.99221546,-50.7999992370605,2011-12-16 07:25:21
1.00099992752075,42.3765047,-70.99218926,-48.7000007629395,2011-12-16 07:25:22
1.00099992752075,42.37653717,-70.99217035,-47.7000007629395,2011-12-16 07:25:23
1.00300002098083,42.3765801,-70.99216362,-47.5999984741211,2011-12-16 07:25:24
0.99399995803833,42.37663757,-70.99214984,-41.5999984741211,2011-12-16 07:25:25
1.00300002098083,42.37668656,-70.99213862,-38.2999992370605,2011-12-16 07:25:26
1.01200008392334,42.37681119,-70.99213175,-37.4000015258789,2011-12-16 07:25:27
1.01200008392334,42.37690693,-70.99212348,-35.7999992370605,2011-12-16 07:25:28
0.979999780654907,42.37707136,-70.99212488,-36.9000015258789,2011-12-16 07:25:29
0.996000051498413,42.37721535,-70.99210405,-35.2999992370605,2011-12-16 07:25:30
1.00300002098083,42.37735808,-70.99209932,-35.9000015258789,2011-12-16 07:25:31
0.995000123977661,42.37747911,-70.99209093,-33.4000015258789,2011-12-16 07:25:32
1.01399993896484,42.37762835,-70.99207753,-34.4000015258789,2011-12-16 07:25:33
0.986000061035156,42.37778541,-70.99207134,-33.5999984741211,2011-12-16 07:25:34
1.14699983596802,42.37791132,-70.99206641,-33.7000007629395,2011-12-16 07:25:35
0.851999998092651,42.37805013,-70.99204526,-34.0999984741211,2011-12-16 07:25:36
1.01600003242493,42.37818601,-70.99204396,-36.9000015258789,2011-12-16 07:25:37
0.985000133514404,42.37831182,-70.99202418,-36.0999984741211,2011-12-16 07:25:38
0.998999834060669,42.37844266,-70.9920147,-36.5,2011-12-16 07:25:39
1.00600004196167,42.37856646,-70.9920098,-37.2999992370605,2011-12-16 07:25:40
1.00800013542175,42.37868833,-70.99199455,-36.4000015258789,2011-12-16 07:25:41
0.984999895095825,42.3788038,-70.99198398,-37.4000015258789,2011-12-16 07:25:42
1.00600004196167,42.37892064,-70.99197836,-37.4000015258789,2011-12-16 07:25:43
0.996999979019165,42.37903438,-70.99196077,-36.0999984741211,2011-12-16 07:25:44
0.997999906539917,42.3791567,-70.99194893,-36.5,2011-12-16 07:25:45
1.00300002098083,42.37927685,-70.99192366,-35.2000007629395,2011-12-16 07:25:46
0.999000072479248,42.37939878,-70.99191227,-36,2011-12-16 07:25:47
1,42.37952097,-70.99190461,-36.9000015258789,2011-12-16 07:25:48
1.00399994850159,42.37964515,-70.99188633,-36.7000007629395,2011-12-16 07:25:49
0.995000123977661,42.3797663,-70.99187087,-36.2000007629395,2011-12-16 07:25:50
1.00499987602234,42.37988696,-70.99185496,-34.5,2011-12-16 07:25:51
0.996000051498413,42.38001085,-70.99184078,-34,2011-12-16 07:25:52
0.999000072479248,42.38013535,-70.99182786,-33.5999984741211,2011-12-16 07:25:53
1,42.38026311,-70.99181667,-33,2011-12-16 07:25:54
1.1399998664856,42.3803899,-70.9918148,-32.5999984741211,2011-12-16 07:25:55
0.867000102996826,42.38051895,-70.99181236,-32.2999992370605,2011-12-16 07:25:56
1.00699996948242,42.38063226,-70.99180368,-32.5,2011-12-16 07:25:57
0.990000009536743,42.38074791,-70.9917973,-32.2000007629395,2011-12-16 07:25:58
0.996000051498413,42.38087372,-70.99178178,-32.9000015258789,2011-12-16 07:25:59
1.00300002098083,42.3810033,-70.99177243,-32.9000015258789,2011-12-16 07:26:00
1.00299978256226,42.38111159,-70.9917597,-32.7000007629395,2011-12-16 07:26:01
1.0770001411438,42.38123443,-70.99173776,-32.2999992370605,2011-12-16 07:26:02
0.917999982833862,42.38136054,-70.99171968,-32.4000015258789,2011-12-16 07:26:03
1.00600004196167,42.38147145,-70.99170813,-33.2000007629395,2011-12-16 07:26:04
0.996000051498413,42.38158008,-70.9917057,-34.5,2011-12-16 07:26:05
0.997999906539917,42.38169112,-70.99169714,-34.7000007629395,2011-12-16 07:26:06
1.17899990081787,42.38178909,-70.9916911,-35.2999992370605,2011-12-16 07:26:07
0.821000099182129,42.38186638,-70.99168802,-35.4000015258789,2011-12-16 07:26:08
1.0090000629425,42.38193419,-70.99168004,-35.5,2011-12-16 07:26:09
1.17999982833862,42.38199394,-70.99166228,-35.5,2011-12-16 07:26:10
0.840000152587891,42.38204216,-70.99165461,-35.5999984741211,2011-12-16 07:26:11
1.14400005340576,42.38208809,-70.99165267,-35.7000007629395,2011-12-16 07:26:12
0.83299994468689,42.38212095,-70.99164463,-35.4000015258789,2011-12-16 07:26:13
0.996000051498413,42.38214129,-70.99163782,-35.5999984741211,2011-12-16 07:26:14
0.995999813079834,42.38214992,-70.99163364,-35.0999984741211,2011-12-16 07:26:15
0.999000072479248,42.38216862,-70.99163339,-35.0999984741211,2011-12-16 07:26:16
1.0239999294281,42.38216862,-70.99163339,-35.0999984741211,2011-12-16 07:26:17
0.988000154495239,42.38218676,-70.99163474,-35.2000007629395,2011-12-16 07:26:18
0.984999895095825,42.38221047,-70.99163718,-35.2000007629395,2011-12-16 07:26:19
1.0090000629425,42.38225159,-70.9916352,-35.0999984741211,2011-12-16 07:26:20
0.996000051498413,42.38228719,-70.99162889,-34.7000007629395,2011-12-16 07:26:21
0.998999834060669,42.38234646,-70.99161242,-35.5,2011-12-16 07:26:22
0.999000072479248,42.38239524,-70.99161914,-35.9000015258789,2011-12-16 07:26:23
1.00099992752075,42.38244684,-70.99164756,-35.0999984741211,2011-12-16 07:26:24
1.16100001335144,42.38249257,-70.99169375,-34.5999984741211,2011-12-16 07:26:25
0.83899998664856,42.3825246,-70.9917625,-34.5,2011-12-16 07:26:26
1.09400010108948,42.38253149,-70.99182387,-34.2999992370605,2011-12-16 07:26:27
0.905999898910522,42.38255359,-70.99189985,-35,2011-12-16 07:26:28
1.00699996948242,42.38257346,-70.99197966,-35.5,2011-12-16 07:26:29
0.994000196456909,42.38258727,-70.99207402,-35.7999992370605,2011-12-16 07:26:30
0.997999906539917,42.38260124,-70.99217965,-36,2011-12-16 07:26:31
1.02699995040894,42.38261597,-70.99227594,-35.7999992370605,2011-12-16 07:26:32
0.980000019073486,42.38261703,-70.99236767,-35.9000015258789,2011-12-16 07:26:33
0.995000123977661,42.38262925,-70.99244633,-35.7999992370605,2011-12-16 07:26:34
1,42.3826254,-70.99251764,-35.7999992370605,2011-12-16 07:26:35
1.00999999046326,42.38262856,-70.99259,-35.2000007629395,2011-12-16 07:26:36
0.98799991607666,42.38263233,-70.99263622,-35,2011-12-16 07:26:37
1,42.38264697,-70.99270611,-34.5999984741211,2011-12-16 07:26:38
1.01300001144409,42.38260678,-70.99274897,-33.2000007629395,2011-12-16 07:26:39
0.98799991607666,42.38261066,-70.99279509,-33,2011-12-16 07:26:40
1.00600004196167,42.38260487,-70.99284802,-32.0999984741211,2011-12-16 07:26:41
1.03699994087219,42.38260358,-70.99289822,-31.8999996185303,2011-12-16 07:26:42
0.956000089645386,42.38261155,-70.99295357,-31.7999992370605,2011-12-16 07:26:43
1.00300002098083,42.38261831,-70.99301192,-31.3999996185303,2011-12-16 07:26:44
1.16700005531311,42.38261678,-70.99307722,-31.2999992370605,2011-12-16 07:26:45
0.830999851226807,42.38262163,-70.99312953,-31.6000003814697,2011-12-16 07:26:46
1.03999996185303,42.38262821,-70.9931909,-31.7000007629395,2011-12-16 07:26:47
0.961000204086304,42.38262563,-70.99326138,-31.3999996185303,2011-12-16 07:26:48
1.00099992752075,42.38263019,-70.99332901,-30.5,2011-12-16 07:26:49
0.999000072479248,42.38263481,-70.99339043,-30.5,2011-12-16 07:26:50
1.00499987602234,42.38263464,-70.99344462,-30.1000003814697,2011-12-16 07:26:51
1.01200008392334,42.38262401,-70.99348736,-29.2000007629395,2011-12-16 07:26:52
1.00399994850159,42.38262196,-70.99350032,-28.8999996185303,2011-12-16 07:26:53
0.979000091552734,42.38261429,-70.99352066,-28.3999996185303,2011-12-16 07:26:54
0.998999834060669,42.38261665,-70.99355635,-28.2000007629395,2011-12-16 07:26:55
1.00600004196167,42.38260347,-70.99359383,-28.1000003814697,2011-12-16 07:26:56
0.996999979019165,42.38259686,-70.99363726,-27.7999992370605,2011-12-16 07:26:57
0.996999979019165,42.38260038,-70.99370116,-27.3999996185303,2011-12-16 07:26:58
1,42.38260915,-70.99376244,-27.2000007629395,2011-12-16 07:26:59
1.00100016593933,42.38262048,-70.99384999,-26.7999992370605,2011-12-16 07:27:00
0.998999834060669,42.38264001,-70.99393896,-26.5,2011-12-16 07:27:01
1.00600004196167,42.3826504,-70.99403879,-26.6000003814697,2011-12-16 07:27:02
1.00500011444092,42.38265913,-70.99413587,-26.2000007629395,2011-12-16 07:27:03
0.98799991607666,42.38266909,-70.99422974,-26,2011-12-16 07:27:04
1.00099992752075,42.38267587,-70.99433091,-25.6000003814697,2011-12-16 07:27:05
1.00200009346008,42.38268315,-70.99444289,-26.2000007629395,2011-12-16 07:27:06
1,42.38269349,-70.99455438,-25.8999996185303,2011-12-16 07:27:07
1.00300002098083,42.38270724,-70.99467537,-26.1000003814697,2011-12-16 07:27:08
0.994999885559082,42.38270447,-70.9947918,-25.8999996185303,2011-12-16 07:27:09
1.00300002098083,42.38273605,-70.99492281,-26.5,2011-12-16 07:27:10
0.995000123977661,42.38276673,-70.99506312,-26.8999996185303,2011-12-16 07:27:11
1.00399994850159,42.38278925,-70.99523073,-27.6000003814697,2011-12-16 07:27:12
1.00200009346008,42.38280768,-70.99535444,-28.7999992370605,2011-12-16 07:27:13
1.12299990653992,42.38281396,-70.995486,-29.5,2011-12-16 07:27:14
0.878999948501587,42.38283562,-70.99561947,-30.2000007629395,2011-12-16 07:27:15
1.00200009346008,42.38284916,-70.99575363,-29.7999992370605,2011-12-16 07:27:16
1.14800000190735,42.38288034,-70.99590042,-30.7000007629395,2011-12-16 07:27:17
0.861000061035156,42.3829009,-70.99602326,-29.7000007629395,2011-12-16 07:27:18
1.09099984169006,42.38292924,-70.99616867,-30.2000007629395,2011-12-16 07:27:19
0.894000053405762,42.38295914,-70.99630866,-30.5,2011-12-16 07:27:20
1.00099992752075,42.38299964,-70.99647847,-29.3999996185303,2011-12-16 07:27:21
0.999000072479248,42.38303443,-70.99662215,-29.3999996185303,2011-12-16 07:27:22
1.00399994850159,42.38307151,-70.99675054,-29.2000007629395,2011-12-16 07:27:23
1.01800012588501,42.38311347,-70.99688228,-29.2000007629395,2011-12-16 07:27:24
0.978999853134155,42.38314519,-70.99700328,-27.2999992370605,2011-12-16 07:27:25
1.00500011444092,42.38320193,-70.99713908,-29,2011-12-16 07:27:26
0.996999979019165,42.38324879,-70.9972603,-29.3999996185303,2011-12-16 07:27:27
1.00099992752075,42.3832935,-70.99736642,-29.7000007629395,2011-12-16 07:27:28
1.0090000629425,42.38332841,-70.99747946,-30.3999996185303,2011-12-16 07:27:29
0.993000030517578,42.38337078,-70.99759193,-31,2011-12-16 07:27:30
1.00999999046326,42.38340427,-70.99768753,-31.2000007629395,2011-12-16 07:27:31
1.01399993896484,42.38343585,-70.99778041,-31.6000003814697,2011-12-16 07:27:32
0.990000009536743,42.38347016,-70.99788462,-31.3999996185303,2011-12-16 07:27:33
0.989000082015991,42.38351932,-70.9980009,-31.3999996185303,2011-12-16 07:27:34
0.998999834060669,42.38354698,-70.99812308,-32.5999984741211,2011-12-16 07:27:35
0.996000051498413,42.38359067,-70.99824121,-33.2000007629395,2011-12-16 07:27:36
0.998000144958496,42.38363414,-70.99835566,-32.4000015258789,2011-12-16 07:27:37
1.00099992752075,42.38366516,-70.99844378,-31.1000003814697,2011-12-16 07:27:38
0.994999885559082,42.38369403,-70.99852911,-31.7999992370605,2011-12-16 07:27:39
1.00100016593933,42.38372111,-70.99859213,-31.5,2011-12-16 07:27:40
0.998999834060669,42.38374315,-70.99864122,-31.3999996185303,2011-12-16 07:27:41
0.999000072479248,42.38376033,-70.99868234,-31.3999996185303,2011-12-16 07:27:42
1.00099992752075,42.38378371,-70.99873264,-31.5,2011-12-16 07:27:43
1.17200016975403,42.3838079,-70.9987668,-31.6000003814697,2011-12-16 07:27:44
0.837999820709229,42.38381689,-70.99880763,-31.8999996185303,2011-12-16 07:27:45
1.1230001449585,42.38383796,-70.99886712,-31.7000007629395,2011-12-16 07:27:46
0.868000030517578,42.38387266,-70.99893289,-31.3999996185303,2011-12-16 07:27:47
0.997999906539917,42.38389578,-70.99900758,-31.5,2011-12-16 07:27:48
1.00200009346008,42.38392209,-70.99909513,-31.6000003814697,2011-12-16 07:27:49
1.00099992752075,42.38395467,-70.99919371,-31.3999996185303,2011-12-16 07:27:50
1.02300000190735,42.38397577,-70.99929507,-31.2999992370605,2011-12-16 07:27:51
0.980000019073486,42.38401479,-70.99940343,-31.2000007629395,2011-12-16 07:27:52
0.994999885559082,42.38405118,-70.99950604,-31.2000007629395,2011-12-16 07:27:53
0.999000072479248,42.38408114,-70.99959734,-30.7999992370605,2011-12-16 07:27:54
1.00099992752075,42.38412742,-70.99968828,-30.7000007629395,2011-12-16 07:27:55
0.999000072479248,42.38415529,-70.9997767,-30.6000003814697,2011-12-16 07:27:56
1.00200009346008,42.38418183,-70.99986661,-31,2011-12-16 07:27:57
0.997999906539917,42.38420957,-70.99995538,-31.2999992370605,2011-12-16 07:27:58
1.00099992752075,42.38422894,-71.00004566,-32,2011-12-16 07:27:59
1,42.38425403,-71.00011613,-32.0999984741211,2011-12-16 07:28:00
1.02500009536743,42.38429545,-71.00019576,-32.0999984741211,2011-12-16 07:28:01
0.976000070571899,42.38430943,-71.00026894,-32,2011-12-16 07:28:02
1.0149998664856,42.38433842,-71.00034193,-31.7999992370605,2011-12-16 07:28:03
0.990000009536743,42.38436906,-71.00043248,-32.2999992370605,2011-12-16 07:28:04
0.995000123977661,42.38440071,-71.00052115,-32.9000015258789,2011-12-16 07:28:05
1.11500000953674,42.38443294,-71.00061002,-32.7000007629395,2011-12-16 07:28:06
0.884999990463257,42.38448342,-71.00070725,-32.7999992370605,2011-12-16 07:28:07
0.998999834060669,42.38451481,-71.00080045,-33,2011-12-16 07:28:08
0.999000072479248,42.38455292,-71.00093203,-33.5999984741211,2011-12-16 07:28:09
1,42.38459496,-71.00105192,-33.7000007629395,2011-12-16 07:28:10
1.07200002670288,42.38463968,-71.00115899,-33.2999992370605,2011-12-16 07:28:11
0.930999994277954,42.38469699,-71.00128038,-33.4000015258789,2011-12-16 07:28:12
0.996999979019165,42.38473765,-71.00141024,-33.5999984741211,2011-12-16 07:28:13
1,42.38477863,-71.00153784,-33.5999984741211,2011-12-16 07:28:14
1.00600004196167,42.38482932,-71.00166389,-33.7999992370605,2011-12-16 07:28:15
1.04500007629395,42.38487561,-71.00177909,-33.4000015258789,2011-12-16 07:28:16
0.947999954223633,42.38492139,-71.00190262,-32.7000007629395,2011-12-16 07:28:17
1.0239999294281,42.38497608,-71.0020167,-32.2999992370605,2011-12-16 07:28:18
0.977999925613403,42.38502141,-71.00214669,-31.7000007629395,2011-12-16 07:28:19
1.00600004196167,42.3850635,-71.0022777,-31.7999992370605,2011-12-16 07:28:20
0.99399995803833,42.38512202,-71.00242323,-32.2000007629395,2011-12-16 07:28:21
1.00500011444092,42.38517031,-71.00257151,-31.8999996185303,2011-12-16 07:28:22
0.99399995803833,42.38522232,-71.00272283,-30.7999992370605,2011-12-16 07:28:23
1.00200009346008,42.38527714,-71.00286313,-30.2000007629395,2011-12-16 07:28:24
0.998999834060669,42.38533508,-71.00300266,-30.1000003814697,2011-12-16 07:28:25
1.00100016593933,42.38537516,-71.00313872,-30.3999996185303,2011-12-16 07:28:26
1.00599980354309,42.38542756,-71.00327608,-30.2999992370605,2011-12-16 07:28:27
0.993000030517578,42.385472,-71.00340407,-30.6000003814697,2011-12-16 07:28:28
1.00500011444092,42.3855133,-71.00352459,-30.8999996185303,2011-12-16 07:28:29
0.996999979019165,42.3855612,-71.00365619,-30.6000003814697,2011-12-16 07:28:30
0.996999979019165,42.38560146,-71.0037934,-30.5,2011-12-16 07:28:31
1.00699996948242,42.38566266,-71.00394201,-30.2999992370605,2011-12-16 07:28:32
1.02699995040894,42.38570877,-71.00407561,-31,2011-12-16 07:28:33
0.972000122070312,42.38575624,-71.00419449,-31.5,2011-12-16 07:28:34
0.994999885559082,42.38581058,-71.00432981,-31.3999996185303,2011-12-16 07:28:35
1.00100016593933,42.38585288,-71.00446313,-31.1000003814697,2011-12-16 07:28:36
1,42.38589918,-71.00459869,-31.2999992370605,2011-12-16 07:28:37
1.09299993515015,42.38595462,-71.00472017,-31.2000007629395,2011-12-16 07:28:38
0.904999971389771,42.38598931,-71.00484674,-31.2999992370605,2011-12-16 07:28:39
1.01099991798401,42.38603325,-71.00497549,-31.7999992370605,2011-12-16 07:28:40
0.990000009536743,42.38607831,-71.00509487,-32.0999984741211,2011-12-16 07:28:41
0.999000072479248,42.38612505,-71.00518444,-32.0999984741211,2011-12-16 07:28:42
1.04399991035461,42.38616715,-71.00529154,-32.4000015258789,2011-12-16 07:28:43
0.958000183105469,42.38619693,-71.0053841,-32.5,2011-12-16 07:28:44
0.998999834060669,42.38622459,-71.00545714,-32.7999992370605,2011-12-16 07:28:45
1.00200009346008,42.38623773,-71.0055081,-32.5,2011-12-16 07:28:46
1.00999999046326,42.38623904,-71.0055447,-31.7000007629395,2011-12-16 07:28:47
1.00999999046326,42.386239,-71.00556404,-31.5,2011-12-16 07:28:48
0.990000009536743,42.38623969,-71.00557632,-31.7000007629395,2011-12-16 07:28:49
0.994999885559082,42.38624413,-71.00557886,-31.7999992370605,2011-12-16 07:28:50
1.00400018692017,42.38624434,-71.00557688,-31.7000007629395,2011-12-16 07:28:51
1.00099992752075,42.38624217,-71.00557324,-31.5,2011-12-16 07:28:52
0.99399995803833,42.38624227,-71.00557403,-31.3999996185303,2011-12-16 07:28:53
1.00099992752075,42.38624244,-71.00557617,-31.6000003814697,2011-12-16 07:28:54
1.00300002098083,42.38624442,-71.00557523,-31.6000003814697,2011-12-16 07:28:55
1.01200008392334,42.38624542,-71.00557783,-31.7000007629395,2011-12-16 07:28:56
1.02500009536743,42.38624488,-71.00557622,-31.7000007629395,2011-12-16 07:28:57
0.960999965667725,42.38624531,-71.00557594,-31.3999996185303,2011-12-16 07:28:58
1,42.38624488,-71.00557579,-31.5,2011-12-16 07:28:59
1.0019998550415,42.38624473,-71.00557618,-31.3999996185303,2011-12-16 07:29:00
1.00100016593933,42.38624363,-71.00557682,-31.2999992370605,2011-12-16 07:29:01
0.994999885559082,42.38624344,-71.00557683,-31.2999992370605,2011-12-16 07:29:02
1.00800013542175,42.3862435,-71.0055768,-31.2999992370605,2011-12-16 07:29:03
1.00300002098083,42.3862432,-71.00557662,-31.2999992370605,2011-12-16 07:29:04
1.0479998588562,42.38624325,-71.00557662,-31.2999992370605,2011-12-16 07:29:05
0.940000057220459,42.38624291,-71.00557682,-31.2999992370605,2011-12-16 07:29:06
1.00099992752075,42.38624277,-71.00557686,-31.2999992370605,2011-12-16 07:29:07
1.0770001411438,42.38624248,-71.00557672,-31.2999992370605,2011-12-16 07:29:08
0.928999900817871,42.38624261,-71.00557665,-31.2999992370605,2011-12-16 07:29:09
1.09999990463257,42.38624265,-71.00557688,-31.2999992370605,2011-12-16 07:29:10
0.888000011444092,42.38624265,-71.00557688,-31.2999992370605,2011-12-16 07:29:11
1,42.38625892,-71.00561531,-31.2999992370605,2011-12-16 07:29:12
0.999000072479248,42.38627366,-71.0056601,-30.7999992370605,2011-12-16 07:29:13
1.00099992752075,42.38627272,-71.00572257,-29.5,2011-12-16 07:29:14
1,42.38629421,-71.0058024,-29.6000003814697,2011-12-16 07:29:15
1.00100016593933,42.38632806,-71.00589832,-29.1000003814697,2011-12-16 07:29:16
1.00699996948242,42.38636745,-71.00600167,-29,2011-12-16 07:29:17
0.996999979019165,42.38641278,-71.0061273,-29.6000003814697,2011-12-16 07:29:18
0.99399995803833,42.38644819,-71.00623627,-28,2011-12-16 07:29:19
1.01099991798401,42.38648188,-71.0063676,-26.6000003814697,2011-12-16 07:29:20
0.990000009536743,42.38651649,-71.00648135,-25.6000003814697,2011-12-16 07:29:21
1,42.38655305,-71.00661702,-25.2999992370605,2011-12-16 07:29:22
1.01200008392334,42.38657931,-71.00675118,-25.7000007629395,2011-12-16 07:29:23
0.997999906539917,42.38659747,-71.00688422,-25.7999992370605,2011-12-16 07:29:24
1.17000007629395,42.3865917,-71.0070253,-26.2000007629395,2011-12-16 07:29:25
0.821000099182129,42.3865892,-71.00716899,-27.1000003814697,2011-12-16 07:29:26
1.04999995231628,42.38653596,-71.00730476,-26.8999996185303,2011-12-16 07:29:27
0.948999881744385,42.38649525,-71.00741788,-27.1000003814697,2011-12-16 07:29:28
1.01600003242493,42.38644559,-71.00753357,-27.1000003814697,2011-12-16 07:29:29
0.985000133514404,42.38640141,-71.00765735,-27.3999996185303,2011-12-16 07:29:30
1,42.38635538,-71.00778251,-27.6000003814697,2011-12-16 07:29:31
1.02099990844727,42.38631387,-71.00791455,-27.6000003814697,2011-12-16 07:29:32
0.986999988555908,42.38627977,-71.0080354,-27.6000003814697,2011-12-16 07:29:33
1.00399994850159,42.38624285,-71.00813226,-27.7000007629395,2011-12-16 07:29:34
0.989000082015991,42.386216,-71.00821529,-27.3999996185303,2011-12-16 07:29:35
1.00300002098083,42.38619661,-71.00827807,-27,2011-12-16 07:29:36
1.0019998550415,42.38617991,-71.00832841,-26.7999992370605,2011-12-16 07:29:37
37.0130000114441,42.38495413,-71.01206663,-30.2999992370605,2011-12-16 07:30:14
1.09100008010864,42.38490745,-71.01220718,-30.3999996185303,2011-12-16 07:30:15
0.89300012588501,42.38487256,-71.01238751,-31.1000003814697,2011-12-16 07:30:16
0.983999967575073,42.38483216,-71.01250474,-31.1000003814697,2011-12-16 07:30:17
3.02900004386902,42.38472016,-71.01293159,-36.2999992370605,2011-12-16 07:30:20
0.983999967575073,42.38464135,-71.01305971,-29.7999992370605,2011-12-16 07:30:21
1.0019998550415,42.38458088,-71.01319655,-28.2999992370605,2011-12-16 07:30:22
1.00200009346008,42.38452103,-71.01333287,-28.5,2011-12-16 07:30:23
0.999000072479248,42.38450315,-71.0135068,-34.4000015258789,2011-12-16 07:30:24
1.01399993896484,42.38446275,-71.0136511,-36.7000007629395,2011-12-16 07:30:25
0.986999988555908,42.38442116,-71.0138001,-35.4000015258789,2011-12-16 07:30:26
0.999000072479248,42.38437331,-71.0139438,-35.2000007629395,2011-12-16 07:30:27
1.00599980354309,42.38430642,-71.01405921,-30.7999992370605,2011-12-16 07:30:28
0.995000123977661,42.38426676,-71.01421216,-30.5,2011-12-16 07:30:29
1.11100006103516,42.3842176,-71.01433934,-30,2011-12-16 07:30:30
0.916999816894531,42.38416767,-71.01447566,-31.3999996185303,2011-12-16 07:30:31
0.976999998092651,42.38412297,-71.01462121,-33.5,2011-12-16 07:30:32
0.988000154495239,42.3840691,-71.01475085,-33.0999984741211,2011-12-16 07:30:33
1.00099992752075,42.38401605,-71.01487105,-31.2999992370605,2011-12-16 07:30:34
1.12299990653992,42.38397801,-71.01499198,-32.5999984741211,2011-12-16 07:30:35
0.877000093460083,42.38394706,-71.01511384,-32.7000007629395,2011-12-16 07:30:36
1.06399989128113,42.38391858,-71.01524882,-35.5,2011-12-16 07:30:37
0.933000087738037,42.38388407,-71.01537188,-35.7000007629395,2011-12-16 07:30:38
1.0239999294281,42.3838375,-71.01547317,-35.5999984741211,2011-12-16 07:30:39
1.0220000743866,42.38378966,-71.01556614,-33.4000015258789,2011-12-16 07:30:40
0.956000089645386,42.38374182,-71.01568405,-33.4000015258789,2011-12-16 07:30:41
1.00099992752075,42.38368959,-71.01579086,-34,2011-12-16 07:30:42
1.36199998855591,42.3836505,-71.01588223,-34,2011-12-16 07:30:43
0.638999938964844,42.383615,-71.01596314,-32.2999992370605,2011-12-16 07:30:44
1.0090000629425,42.38358196,-71.01606511,-34,2011-12-16 07:30:45
0.999000072479248,42.38354401,-71.01616362,-33.5999984741211,2011-12-16 07:30:46
1.00099992752075,42.38351307,-71.01626928,-33.7000007629395,2011-12-16 07:30:47
0.990999937057495,42.38347588,-71.01637238,-33.2000007629395,2011-12-16 07:30:48
1.00100016593933,42.3834347,-71.01650755,-32.5999984741211,2011-12-16 07:30:49
0.998999834060669,42.38339149,-71.0166115,-33.7999992370605,2011-12-16 07:30:50
0.996999979019165,42.38334409,-71.01672883,-33.5,2011-12-16 07:30:51
1.00200009346008,42.38329912,-71.01684943,-32.5,2011-12-16 07:30:52
0.996999979019165,42.38325883,-71.01696593,-30.7999992370605,2011-12-16 07:30:53
1.00500011444092,42.38320643,-71.01708565,-29.2000007629395,2011-12-16 07:30:54
1.08999991416931,42.38315917,-71.01719824,-30.5,2011-12-16 07:30:55
0.921000003814697,42.38310573,-71.01731307,-29.7999992370605,2011-12-16 07:30:56
1.17899990081787,42.38304083,-71.01742711,-29.2999992370605,2011-12-16 07:30:57
0.809000015258789,42.38300168,-71.01752645,-29.1000003814697,2011-12-16 07:30:58
1,42.38295678,-71.01764626,-29.5,2011-12-16 07:30:59
1.00200009346008,42.382916,-71.0177426,-28.6000003814697,2011-12-16 07:31:00
1.01099991798401,42.38287827,-71.01784335,-28.5,2011-12-16 07:31:01
1.23000001907349,42.3828419,-71.01794728,-27.7999992370605,2011-12-16 07:31:02
0.763000011444092,42.38280166,-71.01804347,-27.1000003814697,2011-12-16 07:31:03
0.993000030517578,42.38276547,-71.01814657,-28.1000003814697,2011-12-16 07:31:04
1.00600004196167,42.38272258,-71.0182658,-27.5,2011-12-16 07:31:05
1.00999999046326,42.38269405,-71.01838362,-27,2011-12-16 07:31:06
0.984999895095825,42.38265398,-71.01850441,-28.2000007629395,2011-12-16 07:31:07
1.00200009346008,42.38262667,-71.01863317,-27.1000003814697,2011-12-16 07:31:08
1.03299999237061,42.38256588,-71.01875335,-28.2000007629395,2011-12-16 07:31:09
0.967000007629395,42.38250676,-71.01888839,-27.2000007629395,2011-12-16 07:31:10
0.999000072479248,42.38245638,-71.01902525,-27.8999996185303,2011-12-16 07:31:11
1.10999989509583,42.38239896,-71.01914959,-26.6000003814697,2011-12-16 07:31:12
0.894999980926514,42.38234211,-71.01928258,-26.3999996185303,2011-12-16 07:31:13
0.999000072479248,42.38228734,-71.01940869,-26.1000003814697,2011-12-16 07:31:14
1.00300002098083,42.38222469,-71.01954779,-26.2999992370605,2011-12-16 07:31:15
0.993000030517578,42.38217424,-71.01967995,-25.8999996185303,2011-12-16 07:31:16
1.00099992752075,42.38212201,-71.01980316,-26.5,2011-12-16 07:31:17
1,42.38207295,-71.01991235,-25.8999996185303,2011-12-16 07:31:18
1.00999999046326,42.38204905,-71.02002211,-24.7000007629395,2011-12-16 07:31:19
0.989000082015991,42.38200021,-71.02014407,-23.7000007629395,2011-12-16 07:31:20
1.00399994850159,42.38196364,-71.02025335,-23.2999992370605,2011-12-16 07:31:21
1,42.38192029,-71.02035308,-22.7000007629395,2011-12-16 07:31:22
0.994999885559082,42.38188227,-71.02045308,-22.2000007629395,2011-12-16 07:31:23
1.00999999046326,42.3818428,-71.02056186,-22.5,2011-12-16 07:31:24
0.991000175476074,42.38180419,-71.02064947,-22.2999992370605,2011-12-16 07:31:25
1.00099992752075,42.38176204,-71.02073809,-21.7999992370605,2011-12-16 07:31:26
1.1489999294281,42.381719,-71.02081311,-21.7999992370605,2011-12-16 07:31:27
0.878000020980835,42.38168505,-71.02089451,-21.2999992370605,2011-12-16 07:31:28
1.13599991798401,42.38166112,-71.02097115,-21.2999992370605,2011-12-16 07:31:29
0.836000204086304,42.38164102,-71.02104705,-21.7000007629395,2011-12-16 07:31:30
1.00999999046326,42.38162622,-71.02110876,-21.2999992370605,2011-12-16 07:31:31
1.2519998550415,42.38161801,-71.02114696,-20.7000007629395,2011-12-16 07:31:32
0.740000009536743,42.38159397,-71.02115338,-20.5,2011-12-16 07:31:33
1.08400011062622,42.38159876,-71.02117205,-21,2011-12-16 07:31:34
0.91700005531311,42.38160277,-71.0211874,-21.2000007629395,2011-12-16 07:31:35
1.00599980354309,42.38160711,-71.02118894,-21.2000007629395,2011-12-16 07:31:36
1.007000207901,42.38160464,-71.02118706,-21.2999992370605,2011-12-16 07:31:37
1.00599980354309,42.38160199,-71.02118904,-21.5,2011-12-16 07:31:38
0.986999988555908,42.38160361,-71.02118681,-21.7000007629395,2011-12-16 07:31:39
1.02100014686584,42.38160282,-71.02118846,-21.5,2011-12-16 07:31:40
0.990999937057495,42.38160279,-71.02119009,-21.2000007629395,2011-12-16 07:31:41
0.980999946594238,42.38160636,-71.02119186,-21,2011-12-16 07:31:42
0.996999979019165,42.38160636,-71.02119186,-21,2011-12-16 07:31:43
1.00500011444092,42.38161353,-71.02121826,-21.8999996185303,2011-12-16 07:31:44
0.994999885559082,42.38160849,-71.02123048,-22,2011-12-16 07:31:45
1,42.38159392,-71.02123678,-21.6000003814697,2011-12-16 07:31:46
1.03299999237061,42.38159337,-71.0212443,-21.6000003814697,2011-12-16 07:31:47
0.968000173568726,42.38159438,-71.02126012,-21.5,2011-12-16 07:31:48
1.06299996376038,42.38159438,-71.02126012,-21.5,2011-12-16 07:31:49
0.940999984741211,42.38158106,-71.02128216,-21.7000007629395,2011-12-16 07:31:50
0.996000051498413,42.38155923,-71.0213196,-22,2011-12-16 07:31:51
1.03699994087219,42.38153275,-71.02138074,-22.6000003814697,2011-12-16 07:31:52
0.963000059127808,42.38150327,-71.02144561,-22.7999992370605,2011-12-16 07:31:53
1,42.38147996,-71.02153163,-23,2011-12-16 07:31:54
0.996999979019165,42.38144151,-71.02162846,-23.1000003814697,2011-12-16 07:31:55
1.0019998550415,42.38139637,-71.02174923,-23.3999996185303,2011-12-16 07:31:56
0.996999979019165,42.38134666,-71.02185471,-23.7000007629395,2011-12-16 07:31:57
1.01700019836426,42.38131028,-71.02197631,-22.7999992370605,2011-12-16 07:31:58
1.02899980545044,42.38127306,-71.02208579,-22.5,2011-12-16 07:31:59
0.962000131607056,42.381231,-71.02219084,-22.6000003814697,2011-12-16 07:32:00
1.01900005340576,42.38120524,-71.02228059,-21.8999996185303,2011-12-16 07:32:01
0.976999998092651,42.38118208,-71.02237227,-21.6000003814697,2011-12-16 07:32:02
1.00300002098083,42.38115341,-71.02242984,-21.3999996185303,2011-12-16 07:32:03
0.997999906539917,42.38112713,-71.02248711,-21.2000007629395,2011-12-16 07:32:04
0.996999979019165,42.38110188,-71.02253215,-20.6000003814697,2011-12-16 07:32:05
1.01600003242493,42.38107991,-71.02257513,-20.7000007629395,2011-12-16 07:32:06
0.986000061035156,42.38105883,-71.02262109,-20.7999992370605,2011-12-16 07:32:07
1,42.38103772,-71.02267139,-20.2999992370605,2011-12-16 07:32:08
0.997999906539917,42.38103225,-71.02272044,-20.3999996185303,2011-12-16 07:32:09
1.02800011634827,42.38101696,-71.02276511,-19.7999992370605,2011-12-16 07:32:10
0.972999811172485,42.38099917,-71.02280675,-19.1000003814697,2011-12-16 07:32:11
0.999000072479248,42.38098945,-71.0228487,-18.8999996185303,2011-12-16 07:32:12
1.00200009346008,42.38097168,-71.02289392,-18.5,2011-12-16 07:32:13
1,42.38095001,-71.02291889,-18.7999992370605,2011-12-16 07:32:14
1,42.38094736,-71.02293981,-18.7000007629395,2011-12-16 07:32:15
1.00099992752075,42.3809341,-71.02296044,-18.6000003814697,2011-12-16 07:32:16
0.999000072479248,42.38093406,-71.02297556,-18,2011-12-16 07:32:17
1,42.38092263,-71.02296668,-17.6000003814697,2011-12-16 07:32:18
1.12199997901917,42.3809193,-71.02296387,-17.7000007629395,2011-12-16 07:32:19
0.876999855041504,42.38091937,-71.02296596,-17.5,2011-12-16 07:32:20
1.11600017547607,42.38091936,-71.02296823,-17.2999992370605,2011-12-16 07:32:21
0.882999897003174,42.38091767,-71.0229673,-17.1000003814697,2011-12-16 07:32:22
1.00099992752075,42.38091368,-71.02296724,-16.7000007629395,2011-12-16 07:32:23
1.19099998474121,42.3809106,-71.02296973,-16.6000003814697,2011-12-16 07:32:24
0.81000018119812,42.38091032,-71.02297051,-16.5,2011-12-16 07:32:25
1.00499987602234,42.38090865,-71.02297589,-15.8999996185303,2011-12-16 07:32:26
0.996000051498413,42.38090937,-71.02297776,-15.8000001907349,2011-12-16 07:32:27
0.999000072479248,42.38090799,-71.02297689,-15.6999998092651,2011-12-16 07:32:28
0.998999834060669,42.38090752,-71.02297631,-15.6000003814697,2011-12-16 07:32:29
1,42.38090724,-71.02297605,-15.6000003814697,2011-12-16 07:32:30
1.00100016593933,42.38090765,-71.02297615,-15.6000003814697,2011-12-16 07:32:31
1,42.38090758,-71.02297606,-15.6000003814697,2011-12-16 07:32:32
0.998999834060669,42.38090764,-71.0229758,-15.6000003814697,2011-12-16 07:32:33
1.15300011634827,42.38090784,-71.02297563,-15.6000003814697,2011-12-16 07:32:34
0.848000049591064,42.38090779,-71.02297552,-15.6000003814697,2011-12-16 07:32:35
1,42.3809081,-71.02297536,-15.5,2011-12-16 07:32:36
0.998999834060669,42.38090824,-71.02297498,-15.5,2011-12-16 07:32:37
1.00999999046326,42.38090823,-71.02297507,-15.6000003814697,2011-12-16 07:32:38
0.996000051498413,42.38090826,-71.02297494,-15.5,2011-12-16 07:32:39
0.995000123977661,42.38090819,-71.02297468,-15.6000003814697,2011-12-16 07:32:40
1.00300002098083,42.38090815,-71.02297469,-15.6000003814697,2011-12-16 07:32:41
0.998999834060669,42.38090833,-71.02297488,-15.6000003814697,2011-12-16 07:32:42
0.996999979019165,42.38090833,-71.02297499,-15.6000003814697,2011-12-16 07:32:43
1.09300017356873,42.38090828,-71.02297489,-15.6000003814697,2011-12-16 07:32:44
0.908999919891357,42.38090824,-71.02297475,-15.6000003814697,2011-12-16 07:32:45
1.00499987602234,42.38090839,-71.02297487,-15.6000003814697,2011-12-16 07:32:46
1.09200000762939,42.38090837,-71.02297509,-15.6000003814697,2011-12-16 07:32:47
0.91100001335144,42.38090855,-71.02297503,-15.6000003814697,2011-12-16 07:32:48
1.0310001373291,42.38090863,-71.02297501,-15.6000003814697,2011-12-16 07:32:49
0.99399995803833,42.3809087,-71.02297489,-15.6000003814697,2011-12-16 07:32:50
0.970000028610229,42.38090864,-71.02297495,-15.6000003814697,2011-12-16 07:32:51
1.0149998664856,42.3809085,-71.02297494,-15.6000003814697,2011-12-16 07:32:52
0.981000185012817,42.38090848,-71.02297499,-15.6000003814697,2011-12-16 07:32:53
1.01600003242493,42.3809085,-71.02297519,-15.6000003814697,2011-12-16 07:32:54
1.01599979400635,42.3809085,-71.02297519,-15.6000003814697,2011-12-16 07:32:55
0.967000007629395,42.38089744,-71.02297537,-14.8000001907349,2011-12-16 07:32:56
1.15300011634827,42.38089357,-71.02298855,-14.6000003814697,2011-12-16 07:32:57
0.848000049591064,42.38087836,-71.02301856,-14.1000003814697,2011-12-16 07:32:58
0.998999834060669,42.38087258,-71.02306784,-13.5,2011-12-16 07:32:59
0.999000072479248,42.38085625,-71.02312788,-11.6999998092651,2011-12-16 07:33:00
1,42.38084581,-71.02317749,-11.8000001907349,2011-12-16 07:33:01
1.24399995803833,42.38081686,-71.02323994,-12.1999998092651,2011-12-16 07:33:02
0.749000072479248,42.38079571,-71.02328836,-12.1999998092651,2011-12-16 07:33:03
1.00200009346008,42.38075469,-71.02336343,-12,2011-12-16 07:33:04
0.995999813079834,42.38072643,-71.02342269,-12,2011-12-16 07:33:05
3.01600003242493,42.38063789,-71.02368654,-12.3999996185303,2011-12-16 07:33:08
3.01500010490417,42.38054505,-71.02389546,-12.6000003814697,2011-12-16 07:33:11
0.986999988555908,42.38052292,-71.02394491,-12.8999996185303,2011-12-16 07:33:12
0.996999979019165,42.38050851,-71.02397343,-13.1000003814697,2011-12-16 07:33:13
1.0090000629425,42.38048935,-71.02401216,-13.1000003814697,2011-12-16 07:33:14
1.99199986457825,42.38047598,-71.02404948,-12.1999998092651,2011-12-16 07:33:16
1.01500010490417,42.3804281,-71.02409193,-12.1999998092651,2011-12-16 07:33:17
0.965999841690063,42.38040885,-71.02411903,-12.1999998092651,2011-12-16 07:33:18
1.03200006484985,42.38038964,-71.02414615,-12.1999998092651,2011-12-16 07:33:19
3.00200009346008,42.38036173,-71.02422045,-11.5,2011-12-16 07:33:22
0.990000009536743,42.38035881,-71.02423415,-11.5,2011-12-16 07:33:23
0.988999843597412,42.38035075,-71.02425073,-11.3999996185303,2011-12-16 07:33:24
1.00500011444092,42.38034936,-71.02428287,-11.3999996185303,2011-12-16 07:33:25
0.999000072479248,42.38036225,-71.02432225,-11.3999996185303,2011-12-16 07:33:26
1,42.38036525,-71.02436433,-11,2011-12-16 07:33:27
1.01799988746643,42.38037263,-71.02440256,-11.1999998092651,2011-12-16 07:33:28
1.10700011253357,42.38036603,-71.02442384,-11.1000003814697,2011-12-16 07:33:29
0.875999927520752,42.38037887,-71.02445974,-11.3000001907349,2011-12-16 07:33:30
0.996999979019165,42.38038302,-71.02447168,-11.5,2011-12-16 07:33:31
0.993000030517578,42.38037436,-71.02446934,-11.3000001907349,2011-12-16 07:33:32
1,42.38036014,-71.02444565,-11.5,2011-12-16 07:33:33
1.17599987983704,42.38035153,-71.02443665,-11.5,2011-12-16 07:33:34
0.832000017166138,42.38035652,-71.02441463,-11.3999996185303,2011-12-16 07:33:35
1.13800001144409,42.3803313,-71.0244305,-11.3999996185303,2011-12-16 07:33:36
0.868000030517578,42.3803274,-71.02444152,-11.5,2011-12-16 07:33:37
0.986000061035156,42.38032955,-71.02443183,-11.3000001907349,2011-12-16 07:33:38
1.06399989128113,42.3803336,-71.02443711,-11.3999996185303,2011-12-16 07:33:39
0.934000015258789,42.38033113,-71.02444028,-11.5,2011-12-16 07:33:40
1.06200003623962,42.38033953,-71.0244664,-11.6000003814697,2011-12-16 07:33:41
0.944999933242798,42.38033841,-71.02447306,-11.3999996185303,2011-12-16 07:33:42
0.994000196456909,42.38033376,-71.02448351,-11.5,2011-12-16 07:33:43
1.00099992752075,42.38031453,-71.0244874,-11.6999998092651,2011-12-16 07:33:44
0.996999979019165,42.38030971,-71.02448891,-12.1000003814697,2011-12-16 07:33:45
1.00499987602234,42.38029514,-71.02449379,-12.3000001907349,2011-12-16 07:33:46
1,42.38027799,-71.0245028,-12.6999998092651,2011-12-16 07:33:47
1.0090000629425,42.38026198,-71.02451,-12.1000003814697,2011-12-16 07:33:48
0.989000082015991,42.38023902,-71.02453283,-12.8999996185303,2011-12-16 07:33:49
0.996999979019165,42.38023511,-71.02452479,-12.8000001907349,2011-12-16 07:33:50
1,42.38023126,-71.02453513,-13.1000003814697,2011-12-16 07:33:51
1.00399994850159,42.38023856,-71.0245341,-12.8999996185303,2011-12-16 07:33:52
0.996000051498413,42.38022289,-71.02453671,-13.1000003814697,2011-12-16 07:33:53
1.05200004577637,42.38021832,-71.02453665,-13.1000003814697,2011-12-16 07:33:54
0.944999933242798,42.38021744,-71.02454442,-13.1999998092651,2011-12-16 07:33:55
1.00300002098083,42.38021338,-71.02455491,-13.3000001907349,2011-12-16 07:33:56
0.999000072479248,42.38019043,-71.02452779,-13.3999996185303,2011-12-16 07:33:57
1,42.38018676,-71.0245163,-13.3999996185303,2011-12-16 07:33:58
1.28099989891052,42.38017501,-71.02450967,-13.6000003814697,2011-12-16 07:33:59
0.723999977111816,42.38015715,-71.02449226,-13.6999998092651,2011-12-16 07:34:00
0.996000051498413,42.38015484,-71.02447517,-13.5,2011-12-16 07:34:01
1,42.38014629,-71.02446878,-13.6000003814697,2011-12-16 07:34:02
1.00499987602234,42.38015876,-71.02445653,-14.3999996185303,2011-12-16 07:34:03
1.18800020217896,42.38017928,-71.02448556,-14.3000001907349,2011-12-16 07:34:04
0.806999921798706,42.38018253,-71.02447964,-14.6000003814697,2011-12-16 07:34:05
1.00799989700317,42.38018569,-71.02449205,-14.5,2011-12-16 07:34:06
1.00300002098083,42.38022683,-71.0245698,-14.3000001907349,2011-12-16 07:34:07
0.989000082015991,42.3802968,-71.02469728,-13.6999998092651,2011-12-16 07:34:08
1.0149998664856,42.3803188,-71.02481517,-14.1999998092651,2011-12-16 07:34:09
0.995000123977661,42.38017365,-71.0249367,-14.5,2011-12-16 07:34:10
1.13899993896484,42.38017407,-71.02502676,-16.1000003814697,2011-12-16 07:34:11
0.858000040054321,42.38016939,-71.02512235,-17.7999992370605,2011-12-16 07:34:12
1,42.38014598,-71.02519009,-18.6000003814697,2011-12-16 07:34:13
1.01099991798401,42.38011307,-71.02525146,-18.1000003814697,2011-12-16 07:34:14
0.994000196456909,42.38008012,-71.02529586,-18.8999996185303,2011-12-16 07:34:15
0.995999813079834,42.38003249,-71.02531197,-18.7000007629395,2011-12-16 07:34:16
1,42.37998831,-71.02532391,-19.6000003814697,2011-12-16 07:34:17
1.13600015640259,42.37994645,-71.02533763,-20.2000007629395,2011-12-16 07:34:18
0.863999843597412,42.37990513,-71.02534036,-19.8999996185303,2011-12-16 07:34:19
1.00100016593933,42.37985772,-71.0253395,-20.1000003814697,2011-12-16 07:34:20
1,42.37980023,-71.02535,-20.7000007629395,2011-12-16 07:34:21
1.00399994850159,42.37973935,-71.02537806,-21.1000003814697,2011-12-16 07:34:22
0.996999979019165,42.37967263,-71.0254171,-21.2999992370605,2011-12-16 07:34:23
0.999000072479248,42.37960578,-71.02547114,-21.5,2011-12-16 07:34:24
1.00099992752075,42.37954064,-71.02552398,-21.6000003814697,2011-12-16 07:34:25
0.99399995803833,42.37945068,-71.02559525,-21.3999996185303,2011-12-16 07:34:26
1.00600004196167,42.37936428,-71.02568001,-21.2000007629395,2011-12-16 07:34:27
1.08399987220764,42.37925431,-71.02573584,-20.7999992370605,2011-12-16 07:34:28
0.915000200271606,42.37915219,-71.02580738,-21,2011-12-16 07:34:29
1.00499987602234,42.37905225,-71.0258879,-21.1000003814697,2011-12-16 07:34:30
0.99399995803833,42.37895901,-71.02596367,-21.1000003814697,2011-12-16 07:34:31
1.00100016593933,42.37888243,-71.02604935,-21.2000007629395,2011-12-16 07:34:32
1,42.37879708,-71.0261355,-21.2999992370605,2011-12-16 07:34:33
1,42.37870929,-71.02621651,-21.2000007629395,2011-12-16 07:34:34
1.01199984550476,42.37861563,-71.02629823,-21.2999992370605,2011-12-16 07:34:35
0.986000061035156,42.37851811,-71.0263722,-21.2000007629395,2011-12-16 07:34:36
0.996000051498413,42.37841365,-71.0264662,-21.1000003814697,2011-12-16 07:34:37
1.1729998588562,42.37831378,-71.02656665,-21,2011-12-16 07:34:38
34.8480000495911,42.37428375,-71.03122761,-37.9000015258789,2011-12-16 07:35:13
1.00100016593933,42.37421305,-71.03140829,-41.7000007629395,2011-12-16 07:35:14
0.98799991607666,42.37411626,-71.0315121,-42,2011-12-16 07:35:15
0.997999906539917,42.3740116,-71.03161402,-37.7999992370605,2011-12-16 07:35:16
1.00200009346008,42.37390258,-71.03174096,-37.9000015258789,2011-12-16 07:35:17
0.990999937057495,42.37379268,-71.03188822,-40.2000007629395,2011-12-16 07:35:18
1.02100014686584,42.37370298,-71.03202795,-40.0999984741211,2011-12-16 07:35:19
0.986999988555908,42.37357395,-71.03220527,-35.0999984741211,2011-12-16 07:35:20
1,42.37344011,-71.03235212,-27,2011-12-16 07:35:21
1.14199995994568,42.3733333,-71.03250664,-28,2011-12-16 07:35:22
0.858000040054321,42.37321654,-71.03263722,-26.2000007629395,2011-12-16 07:35:23
1,42.37310966,-71.03275928,-24.2000007629395,2011-12-16 07:35:24
1.01399993896484,42.37300052,-71.03286286,-24.1000003814697,2011-12-16 07:35:25
0.99399995803833,42.37292044,-71.03303684,-31,2011-12-16 07:35:26
0.997999906539917,42.37283541,-71.03317004,-32.0999984741211,2011-12-16 07:35:27
1,42.37276719,-71.03333565,-32.9000015258789,2011-12-16 07:35:28
0.989000082015991,42.37272189,-71.03351097,-34.2999992370605,2011-12-16 07:35:29
1.00300002098083,42.37267664,-71.03369849,-34.5,2011-12-16 07:35:30
0.996999979019165,42.37264908,-71.03388748,-34.7000007629395,2011-12-16 07:35:31
0.999000072479248,42.3726225,-71.03409308,-34.5,2011-12-16 07:35:32
1.00300002098083,42.37260477,-71.03428779,-32.7999992370605,2011-12-16 07:35:33
0.997999906539917,42.37263059,-71.0344756,-32.4000015258789,2011-12-16 07:35:34
1,42.37273281,-71.03466554,-34.0999984741211,2011-12-16 07:35:35
1.00200009346008,42.37279415,-71.03484316,-31.7000007629395,2011-12-16 07:35:36
1.06599998474121,42.37290062,-71.0350265,-32,2011-12-16 07:35:37
0.935999870300293,42.37297372,-71.03518717,-30,2011-12-16 07:35:38
0.995000123977661,42.37307167,-71.03534817,-28.7999992370605,2011-12-16 07:35:39
1.0019998550415,42.37316157,-71.03552801,-28.3999996185303,2011-12-16 07:35:40
0.996999979019165,42.37325029,-71.03569619,-28.6000003814697,2011-12-16 07:35:41
1.00400018692017,42.37333727,-71.03586092,-28.1000003814697,2011-12-16 07:35:42
1,42.37341841,-71.0360178,-27.8999996185303,2011-12-16 07:35:43
1.06900000572205,42.37350641,-71.03618812,-28.2000007629395,2011-12-16 07:35:44
0.930999994277954,42.37360568,-71.03634997,-28,2011-12-16 07:35:45
1,42.37367276,-71.03650936,-27.5,2011-12-16 07:35:46
0.998999834060669,42.37375232,-71.03665259,-27.3999996185303,2011-12-16 07:35:47
1,42.37382731,-71.03679316,-27.1000003814697,2011-12-16 07:35:48
0.999000072479248,42.37391177,-71.03694053,-26.7999992370605,2011-12-16 07:35:49
1,42.37397228,-71.03708785,-26.7999992370605,2011-12-16 07:35:50
1,42.37398928,-71.0371957,-26.3999996185303,2011-12-16 07:35:51
1,42.3740201,-71.03731612,-26.8999996185303,2011-12-16 07:35:52
0.999000072479248,42.37401954,-71.03742731,-26.5,2011-12-16 07:35:53
1.00799989700317,42.37400193,-71.0375246,-26,2011-12-16 07:35:54
0.99399995803833,42.37397172,-71.03759388,-26.2000007629395,2011-12-16 07:35:55
1.00100016593933,42.37393485,-71.03764843,-26.2000007629395,2011-12-16 07:35:56
1.00099992752075,42.37390349,-71.03769443,-25.5,2011-12-16 07:35:57
0.996000051498413,42.37384694,-71.03776591,-26,2011-12-16 07:35:58
1.00300002098083,42.37378722,-71.03783489,-26.7999992370605,2011-12-16 07:35:59
0.996999979019165,42.37372102,-71.03792453,-26.5,2011-12-16 07:36:00
1.1159999370575,42.37365076,-71.03802529,-26.6000003814697,2011-12-16 07:36:01
0.884000062942505,42.37357397,-71.03812736,-26.8999996185303,2011-12-16 07:36:02
1.00300002098083,42.37348699,-71.03823773,-26.7999992370605,2011-12-16 07:36:03
1.00599980354309,42.3734058,-71.03837644,-27.1000003814697,2011-12-16 07:36:04
1.00500011444092,42.37330293,-71.03850955,-26.6000003814697,2011-12-16 07:36:05
0.989000082015991,42.37319011,-71.03863387,-25.7000007629395,2011-12-16 07:36:06
0.998999834060669,42.37311021,-71.03878536,-26.7000007629395,2011-12-16 07:36:07
0.998000144958496,42.37302075,-71.03892754,-26.7000007629395,2011-12-16 07:36:08
101.032999992371,42.36311837,-71.05741494,-25.6000003814697,2011-12-16 07:37:49
0.973000049591064,42.36329673,-71.05765332,-25.2000007629395,2011-12-16 07:37:50
1.00799989700317,42.36342214,-71.05781686,-25.2999992370605,2011-12-16 07:37:51
0.990999937057495,42.3634961,-71.0579116,-24.1000003814697,2011-12-16 07:37:52
1.02100014686584,42.36359012,-71.05799005,-24.7000007629395,2011-12-16 07:37:53
0.974999904632568,42.36366053,-71.05802464,-24.6000003814697,2011-12-16 07:37:54
1.00099992752075,42.36372354,-71.0580917,-24.3999996185303,2011-12-16 07:37:55
1.01200008392334,42.36377843,-71.05817872,-24.1000003814697,2011-12-16 07:37:56
0.98799991607666,42.36381924,-71.0582466,-26.6000003814697,2011-12-16 07:37:57
1.16499996185303,42.36384232,-71.05830196,-26.3999996185303,2011-12-16 07:37:58
0.835000038146973,42.36386691,-71.05832127,-26.7000007629395,2011-12-16 07:37:59
1.04500007629395,42.36387847,-71.05833526,-27.2999992370605,2011-12-16 07:38:00
0.954999923706055,42.36388417,-71.05834004,-26.7000007629395,2011-12-16 07:38:01
0.996000051498413,42.36386904,-71.05832745,-25.3999996185303,2011-12-16 07:38:02
1.02999997138977,42.36387148,-71.05832347,-24.6000003814697,2011-12-16 07:38:03
0.980000019073486,42.36387358,-71.05832604,-24.1000003814697,2011-12-16 07:38:04
0.990000009536743,42.36388608,-71.05831216,-23.1000003814697,2011-12-16 07:38:05
1.00300002098083,42.36389514,-71.05831646,-22.2000007629395,2011-12-16 07:38:06
0.996999979019165,42.36391087,-71.05831735,-21.7999992370605,2011-12-16 07:38:07
1.00300002098083,42.36391908,-71.05831998,-21.6000003814697,2011-12-16 07:38:08
0.997999906539917,42.36392018,-71.05829981,-20.5,2011-12-16 07:38:09
1,42.36394363,-71.05830241,-20.7000007629395,2011-12-16 07:38:10
0.998000144958496,42.36395292,-71.05828869,-20.2999992370605,2011-12-16 07:38:11
1.0019998550415,42.36396241,-71.05828247,-20.3999996185303,2011-12-16 07:38:12
1,42.36395989,-71.05826513,-20.5,2011-12-16 07:38:13
0.996000051498413,42.36396759,-71.05827382,-20.7999992370605,2011-12-16 07:38:14
1.03999996185303,42.36395805,-71.05827393,-21.3999996185303,2011-12-16 07:38:15
0.963000059127808,42.36394962,-71.05826577,-21.1000003814697,2011-12-16 07:38:16
1.00200009346008,42.36397814,-71.0582715,-21.1000003814697,2011-12-16 07:38:17
1.00899982452393,42.36397216,-71.05828513,-20.8999996185303,2011-12-16 07:38:18
0.990000009536743,42.36396651,-71.0582774,-20.7999992370605,2011-12-16 07:38:19
0.992000102996826,42.36396651,-71.0582774,-20.7999992370605,2011-12-16 07:38:20
1.00099992752075,42.36396651,-71.0582774,-20.7999992370605,2011-12-16 07:38:21
1.21099996566772,42.36396466,-71.05827167,-20.6000003814697,2011-12-16 07:38:22
0.81000018119812,42.36396155,-71.0582752,-20.5,2011-12-16 07:38:23
0.990999937057495,42.36396271,-71.05827973,-20.6000003814697,2011-12-16 07:38:24
0.986999988555908,42.36396271,-71.05827973,-20.6000003814697,2011-12-16 07:38:25
1.00099992752075,42.36396271,-71.05827973,-20.6000003814697,2011-12-16 07:38:26
1.01100015640259,42.36396843,-71.05828551,-20.5,2011-12-16 07:38:27
1.00099992752075,42.36396799,-71.05828488,-20.5,2011-12-16 07:38:28
24.0269999504089,42.36396249,-71.05828237,-20.5,2011-12-16 07:38:52
0.976000070571899,42.36396252,-71.05828236,-20.5,2011-12-16 07:38:53
0.999000072479248,42.36396285,-71.05828224,-20.5,2011-12-16 07:38:54
1.05099987983704,42.3639612,-71.05828179,-20.5,2011-12-16 07:38:55
0.949000120162964,42.3639616,-71.05828202,-20.5,2011-12-16 07:38:56
0.99399995803833,42.36396179,-71.05828217,-20.5,2011-12-16 07:38:57
0.996999979019165,42.36396157,-71.05828191,-20.5,2011-12-16 07:38:58
1.0090000629425,42.36396262,-71.05828225,-20.5,2011-12-16 07:38:59
0.991999864578247,42.36396287,-71.05828223,-20.5,2011-12-16 07:39:00
1.00200009346008,42.36395885,-71.05828131,-20.5,2011-12-16 07:39:01
0.996999979019165,42.36395857,-71.0582812,-20.5,2011-12-16 07:39:02
1.0090000629425,42.36395907,-71.05828146,-20.5,2011-12-16 07:39:03
0.99399995803833,42.36395601,-71.05828103,-20.3999996185303,2011-12-16 07:39:04
1.00600004196167,42.36395626,-71.05828128,-20.3999996185303,2011-12-16 07:39:05
0.998999834060669,42.3639551,-71.0582813,-20.3999996185303,2011-12-16 07:39:06
1.09800004959106,42.3639549,-71.05828119,-20.3999996185303,2011-12-16 07:39:07
0.897000074386597,42.3639569,-71.05828169,-20.5,2011-12-16 07:39:08
1.00699996948242,42.36395682,-71.05828169,-20.5,2011-12-16 07:39:09
1.01200008392334,42.36395682,-71.05828169,-20.5,2011-12-16 07:39:10
0.980999946594238,42.36395539,-71.05833263,-20,2011-12-16 07:39:11
1.02999997138977,42.36392875,-71.05838644,-18.6000003814697,2011-12-16 07:39:12
0.968999862670898,42.36388275,-71.05842915,-18.8999996185303,2011-12-16 07:39:13
1.69400000572205,42.36382718,-71.05847381,-19.2999992370605,2011-12-16 07:39:15
0.31000018119812,42.36381559,-71.05856575,-20.5,2011-12-16 07:39:15
0.998999834060669,42.36378273,-71.05865677,-21,2011-12-16 07:39:16
1.00100016593933,42.36372862,-71.05872547,-21.5,2011-12-16 07:39:17
0.994999885559082,42.36367225,-71.05882398,-21.5,2011-12-16 07:39:18
1,42.36362073,-71.05894795,-22.3999996185303,2011-12-16 07:39:19
1.00800013542175,42.36356073,-71.0590522,-22.6000003814697,2011-12-16 07:39:20
1.00099992752075,42.36350665,-71.0591408,-22.7999992370605,2011-12-16 07:39:21
0.990999937057495,42.36345776,-71.05920802,-23,2011-12-16 07:39:22
1.00200009346008,42.36342193,-71.05927398,-22.8999996185303,2011-12-16 07:39:23
1.07799983024597,42.36338774,-71.05932736,-22.5,2011-12-16 07:39:24
0.921000003814697,42.36335699,-71.05938511,-22.3999996185303,2011-12-16 07:39:25
0.999000072479248,42.36332356,-71.05944614,-22.3999996185303,2011-12-16 07:39:26
0.999000072479248,42.36328815,-71.05951266,-22.3999996185303,2011-12-16 07:39:27
1.00099992752075,42.36321961,-71.05951243,-21.8999996185303,2011-12-16 07:39:28
1.00200009346008,42.36318496,-71.05955268,-22,2011-12-16 07:39:29
0.996999979019165,42.36315679,-71.05957977,-22.7000007629395,2011-12-16 07:39:30
1.00300002098083,42.36313413,-71.05958071,-23.6000003814697,2011-12-16 07:39:31
1,42.36312793,-71.05960889,-23.7000007629395,2011-12-16 07:39:32
1.0019998550415,42.36311109,-71.05962298,-24.2000007629395,2011-12-16 07:39:33
1.00600004196167,42.36311743,-71.05962669,-24.3999996185303,2011-12-16 07:39:34
0.995000123977661,42.36310547,-71.05961757,-24.7999992370605,2011-12-16 07:39:35
1.08200001716614,42.36308923,-71.05962149,-25.5,2011-12-16 07:39:36
0.914999961853027,42.36305634,-71.0596144,-25.5,2011-12-16 07:39:37
0.996999979019165,42.36305579,-71.05960995,-25.7000007629395,2011-12-16 07:39:38
1.00499987602234,42.36305067,-71.05960497,-25.8999996185303,2011-12-16 07:39:39
39.0520000457764,42.36295523,-71.05960771,-23.6000003814697,2011-12-16 07:40:18
0.970000028610229,42.36296655,-71.05960839,-23.2000007629395,2011-12-16 07:40:19
1,42.36296503,-71.05960812,-22.8999996185303,2011-12-16 07:40:20
1.00200009346008,42.36296683,-71.05960977,-22.8999996185303,2011-12-16 07:40:21
1.00099992752075,42.36297208,-71.05961041,-23,2011-12-16 07:40:22
1.01200008392334,42.36297169,-71.05960984,-23,2011-12-16 07:40:23
0.985999822616577,42.36297303,-71.05960992,-23,2011-12-16 07:40:24
1,42.36298006,-71.05961068,-23,2011-12-16 07:40:25
0.993000030517578,42.36298957,-71.05961147,-22.8999996185303,2011-12-16 07:40:26
1.00300002098083,42.36299542,-71.05961243,-22.8999996185303,2011-12-16 07:40:27
1,42.36300398,-71.05961346,-22.8999996185303,2011-12-16 07:40:28
1,42.36300623,-71.05961357,-22.8999996185303,2011-12-16 07:40:29
1.04200005531311,42.36300768,-71.05961376,-22.8999996185303,2011-12-16 07:40:30
0.95799994468689,42.36300995,-71.05961397,-22.8999996185303,2011-12-16 07:40:31
1,42.36301214,-71.05961425,-22.8999996185303,2011-12-16 07:40:32
1,42.36301544,-71.05961469,-22.8999996185303,2011-12-16 07:40:33
1,42.36301768,-71.05961503,-22.8999996185303,2011-12-16 07:40:34
1,42.36301872,-71.05961504,-22.8999996185303,2011-12-16 07:40:35
1.00399994850159,42.36302165,-71.05961527,-22.7999992370605,2011-12-16 07:40:36
1.00600004196167,42.36302421,-71.05961542,-22.7999992370605,2011-12-16 07:40:37
0.993000030517578,42.36302404,-71.0596155,-22.7999992370605,2011-12-16 07:40:38
1.03999996185303,42.36302511,-71.05961558,-22.7999992370605,2011-12-16 07:40:39
0.957000017166138,42.3630271,-71.05961581,-22.7999992370605,2011-12-16 07:40:40
1,42.3630291,-71.05961597,-22.7999992370605,2011-12-16 07:40:41
1.02600002288818,42.36303062,-71.05961618,-22.7999992370605,2011-12-16 07:40:42
0.980999946594238,42.36303007,-71.0596161,-22.7999992370605,2011-12-16 07:40:43
0.993000030517578,42.3630294,-71.05961605,-22.7999992370605,2011-12-16 07:40:44
1,42.36303047,-71.05961614,-22.7999992370605,2011-12-16 07:40:45
1.00200009346008,42.36303093,-71.05961634,-22.7999992370605,2011-12-16 07:40:46
0.997999906539917,42.36303207,-71.05961724,-22.7999992370605,2011-12-16 07:40:47
1.00099992752075,42.36326924,-71.05967317,-20.7000007629395,2011-12-16 07:40:48
1.17500019073486,42.36323399,-71.05972497,-22.3999996185303,2011-12-16 07:40:49
0.829999923706055,42.36321196,-71.05977377,-23.7999992370605,2011-12-16 07:40:50
0.994999885559082,42.36314846,-71.05982728,-24.6000003814697,2011-12-16 07:40:51
0.997000217437744,42.36311251,-71.05987415,-25.1000003814697,2011-12-16 07:40:52
0.998999834060669,42.363075,-71.05994047,-23.8999996185303,2011-12-16 07:40:53
1.10700011253357,42.36304865,-71.06002242,-22.7999992370605,2011-12-16 07:40:54
0.898000001907349,42.3630254,-71.06009432,-22.6000003814697,2011-12-16 07:40:55
0.991999864578247,42.36297957,-71.06018596,-21.7000007629395,2011-12-16 07:40:56
1.00200009346008,42.36293383,-71.06029528,-21.1000003814697,2011-12-16 07:40:57
0.997999906539917,42.36285962,-71.06045658,-20.7999992370605,2011-12-16 07:40:58
1,42.36280642,-71.06060669,-20.7999992370605,2011-12-16 07:40:59
0.999000072479248,42.36274675,-71.06073315,-20.7000007629395,2011-12-16 07:41:00
1.0090000629425,42.36269091,-71.06089515,-20.8999996185303,2011-12-16 07:41:01
0.991999864578247,42.36262872,-71.06104625,-20.6000003814697,2011-12-16 07:41:02
1.00200009346008,42.36259221,-71.06121549,-20,2011-12-16 07:41:03
1.00600004196167,42.36255682,-71.0613949,-20,2011-12-16 07:41:04
0.997999906539917,42.36252296,-71.06157535,-20.3999996185303,2011-12-16 07:41:05
1.05100011825562,42.36245399,-71.06170831,-20.8999996185303,2011-12-16 07:41:06
0.947999954223633,42.36240319,-71.06182575,-21.2000007629395,2011-12-16 07:41:07
1.00099992752075,42.36234484,-71.06194042,-19.3999996185303,2011-12-16 07:41:08
0.998000144958496,42.36230867,-71.06206925,-19.8999996185303,2011-12-16 07:41:09
1,42.36224724,-71.06219322,-19.2999992370605,2011-12-16 07:41:10
1.00099992752075,42.36215045,-71.06230917,-18.7999992370605,2011-12-16 07:41:11
1.00099992752075,42.36205475,-71.06240496,-18.1000003814697,2011-12-16 07:41:12
0.998000144958496,42.36195995,-71.06248867,-18,2011-12-16 07:41:13
0.997999906539917,42.36187462,-71.06257496,-18.2999992370605,2011-12-16 07:41:14
1.00099992752075,42.36180594,-71.06265956,-18.6000003814697,2011-12-16 07:41:15
1.0090000629425,42.36173473,-71.06274406,-18.7999992370605,2011-12-16 07:41:16
0.996000051498413,42.36166637,-71.06282195,-18.7999992370605,2011-12-16 07:41:17
1.00999999046326,42.36159791,-71.06289823,-18.8999996185303,2011-12-16 07:41:18
0.99399995803833,42.36150945,-71.06293491,-18.8999996185303,2011-12-16 07:41:19
0.990999937057495,42.36143371,-71.06294831,-19.2999992370605,2011-12-16 07:41:20
1.00500011444092,42.36136566,-71.06297269,-18.7999992370605,2011-12-16 07:41:21
0.996999979019165,42.36132516,-71.06301437,-18.3999996185303,2011-12-16 07:41:22
1,42.36129825,-71.06305184,-17.8999996185303,2011-12-16 07:41:23
1.0019998550415,42.36128243,-71.06305317,-17.5,2011-12-16 07:41:24
1.10400009155273,42.36127071,-71.06305578,-17.5,2011-12-16 07:41:25
0.897000074386597,42.36125192,-71.06305756,-18.3999996185303,2011-12-16 07:41:26
1,42.36125254,-71.06304956,-18.1000003814697,2011-12-16 07:41:27
1.00999999046326,42.36125253,-71.06304531,-17.7999992370605,2011-12-16 07:41:28
1.00600004196167,42.3612619,-71.06304346,-17.7999992370605,2011-12-16 07:41:29
0.978999853134155,42.36126509,-71.06303954,-17.7999992370605,2011-12-16 07:41:30
1.00300002098083,42.36126653,-71.06303648,-17.7999992370605,2011-12-16 07:41:31
1,42.36126709,-71.06303563,-18.1000003814697,2011-12-16 07:41:32
1.00200009346008,42.36126893,-71.06303548,-18.2000007629395,2011-12-16 07:41:33
1.99199986457825,42.36126893,-71.06303548,-18.2000007629395,2011-12-16 07:41:35
1.00600004196167,42.36127035,-71.06304085,-18.3999996185303,2011-12-16 07:41:36
1.00800013542175,42.36127435,-71.06304957,-18.7999992370605,2011-12-16 07:41:37
2.19599986076355,42.36127435,-71.06304957,-18.7999992370605,2011-12-16 07:41:39
0.799000024795532,42.36127547,-71.06305221,-18.8999996185303,2011-12-16 07:41:40
1.01099991798401,42.36127547,-71.06305221,-18.8999996185303,2011-12-16 07:41:41
0.991000175476074,42.3613313,-71.06317201,-18.8999996185303,2011-12-16 07:41:42
1.00099992752075,42.36133931,-71.06329116,-19.5,2011-12-16 07:41:43
1.01399993896484,42.36133652,-71.0634675,-19.2999992370605,2011-12-16 07:41:44
0.985000133514404,42.36132629,-71.06360284,-19.3999996185303,2011-12-16 07:41:45
0.98799991607666,42.36132502,-71.06367044,-19.3999996185303,2011-12-16 07:41:46
1,42.36132379,-71.06373803,-19.3999996185303,2011-12-16 07:41:47
1.00999999046326,42.36133812,-71.06388596,-22.1000003814697,2011-12-16 07:41:48
1.10999989509583,42.36133515,-71.06396928,-22.1000003814697,2011-12-16 07:41:49
0.88100004196167,42.36132487,-71.06402457,-21.2999992370605,2011-12-16 07:41:50
1.00800013542175,42.36132292,-71.06409912,-22.3999996185303,2011-12-16 07:41:51
1.00399994850159,42.3613314,-71.06419965,-24,2011-12-16 07:41:52
0.997999906539917,42.3613404,-71.06429144,-25.1000003814697,2011-12-16 07:41:53
0.999000072479248,42.36134836,-71.06438095,-25.5,2011-12-16 07:41:54
1.00099992752075,42.36136364,-71.0644832,-26.2000007629395,2011-12-16 07:41:55
1.0090000629425,42.36137762,-71.0645808,-26.2999992370605,2011-12-16 07:41:56
0.990999937057495,42.36138203,-71.06470741,-25.2000007629395,2011-12-16 07:41:57
1.00200009346008,42.3613628,-71.06483195,-23.1000003814697,2011-12-16 07:41:58
1.05599999427795,42.36136176,-71.06492037,-22.6000003814697,2011-12-16 07:41:59
0.934999942779541,42.36138622,-71.06499938,-22.3999996185303,2011-12-16 07:42:00
1.02300000190735,42.3613845,-71.06509036,-22.6000003814697,2011-12-16 07:42:01
0.985000133514404,42.36137391,-71.06517412,-22.2000007629395,2011-12-16 07:42:02
0.997999906539917,42.36137654,-71.06526544,-21.2999992370605,2011-12-16 07:42:03
1.00500011444092,42.36136568,-71.06535149,-20.8999996185303,2011-12-16 07:42:04
0.98799991607666,42.36136926,-71.06542892,-21.7000007629395,2011-12-16 07:42:05
1.20600008964539,42.36137559,-71.06550907,-21.6000003814697,2011-12-16 07:42:06
0.794999837875366,42.36137817,-71.06558324,-21.3999996185303,2011-12-16 07:42:07
1,42.36138958,-71.06564316,-21.7999992370605,2011-12-16 07:42:08
1.00100016593933,42.36137977,-71.06569135,-21.6000003814697,2011-12-16 07:42:09
0.998999834060669,42.36136502,-71.06575424,-21.7000007629395,2011-12-16 07:42:10
1.00100016593933,42.3613633,-71.06582024,-22.1000003814697,2011-12-16 07:42:11
1.0019998550415,42.36137669,-71.06588131,-22.6000003814697,2011-12-16 07:42:12
1.00699996948242,42.36138479,-71.065921,-22.3999996185303,2011-12-16 07:42:13
1.00600004196167,42.36137702,-71.06595865,-22.5,2011-12-16 07:42:14
0.986000061035156,42.36137047,-71.06599199,-23.2999992370605,2011-12-16 07:42:15
0.996999979019165,42.36135943,-71.06602335,-23.5,2011-12-16 07:42:16
1.00600004196167,42.36135274,-71.06603463,-23,2011-12-16 07:42:17
1.02900004386902,42.36135821,-71.06603153,-22.8999996185303,2011-12-16 07:42:18
0.96999979019165,42.36135605,-71.06602995,-22.7999992370605,2011-12-16 07:42:19
1.00100016593933,42.36135723,-71.0660264,-22.7999992370605,2011-12-16 07:42:20
0.998999834060669,42.36135592,-71.06602644,-23,2011-12-16 07:42:21
1.00100016593933,42.36135619,-71.06602226,-23.1000003814697,2011-12-16 07:42:22
0.997999906539917,42.36135355,-71.06602101,-23.1000003814697,2011-12-16 07:42:23
1,42.36135257,-71.066021,-22.8999996185303,2011-12-16 07:42:24
1.16499996185303,42.36135203,-71.06602043,-22.6000003814697,2011-12-16 07:42:25
0.835999965667725,42.36134919,-71.06602144,-22.3999996185303,2011-12-16 07:42:26
1.00100016593933,42.36134835,-71.0660208,-22.5,2011-12-16 07:42:27
1.00399994850159,42.36134709,-71.06601922,-22.5,2011-12-16 07:42:28
0.994999885559082,42.36134715,-71.06601935,-22.5,2011-12-16 07:42:29
1.00100016593933,42.36134714,-71.0660189,-22.5,2011-12-16 07:42:30
0.994999885559082,42.36134709,-71.06601882,-22.5,2011-12-16 07:42:31
1,42.36134706,-71.06601801,-22.5,2011-12-16 07:42:32
1.00300002098083,42.36134751,-71.0660171,-22.5,2011-12-16 07:42:33
1,42.36134771,-71.06601642,-22.3999996185303,2011-12-16 07:42:34
0.999000072479248,42.36134761,-71.06601696,-22.3999996185303,2011-12-16 07:42:35
1.0019998550415,42.36134805,-71.06601621,-22.3999996185303,2011-12-16 07:42:36
1.14499998092651,42.36134817,-71.06601586,-22.3999996185303,2011-12-16 07:42:37
0.856000185012817,42.36134797,-71.06601506,-22.3999996185303,2011-12-16 07:42:38
0.996999979019165,42.36134823,-71.06601525,-22.3999996185303,2011-12-16 07:42:39
1,42.36134823,-71.06601525,-22.3999996185303,2011-12-16 07:42:40
0.999000072479248,42.36134534,-71.06604279,-22.2000007629395,2011-12-16 07:42:41
1.00599980354309,42.36133278,-71.06607452,-22.1000003814697,2011-12-16 07:42:42
1.00100016593933,42.36133789,-71.0660904,-21.3999996185303,2011-12-16 07:42:43
1.00099992752075,42.3613378,-71.06611586,-21.5,2011-12-16 07:42:44
0.994999885559082,42.36133023,-71.06614409,-21.6000003814697,2011-12-16 07:42:45
0.998000144958496,42.36133949,-71.06618088,-21.7999992370605,2011-12-16 07:42:46
1.0019998550415,42.36131405,-71.06620641,-21.8999996185303,2011-12-16 07:42:47
1,42.36127939,-71.06624028,-21.5,2011-12-16 07:42:48
1.17400002479553,42.36128799,-71.06624971,-21.7000007629395,2011-12-16 07:42:49
0.824000120162964,42.36128588,-71.06625379,-21.7000007629395,2011-12-16 07:42:50
0.999000072479248,42.36127567,-71.0662786,-21.8999996185303,2011-12-16 07:42:51
1.00499987602234,42.3612674,-71.06629706,-21.6000003814697,2011-12-16 07:42:52
0.996999979019165,42.36126264,-71.06631294,-21.7000007629395,2011-12-16 07:42:53
1.07299995422363,42.36125509,-71.06631821,-21.2000007629395,2011-12-16 07:42:54
0.926000118255615,42.36125571,-71.06632152,-21.3999996185303,2011-12-16 07:42:55
0.996999979019165,42.36124768,-71.06631639,-21.3999996185303,2011-12-16 07:42:56
1.00499987602234,42.36124156,-71.06631397,-21.2999992370605,2011-12-16 07:42:57
1,42.36124306,-71.06632045,-21.2999992370605,2011-12-16 07:42:58
0.999000072479248,42.36124466,-71.06632496,-21.2999992370605,2011-12-16 07:42:59
1.00300002098083,42.36124455,-71.06632651,-21.5,2011-12-16 07:43:00
1.14100003242493,42.3612383,-71.06632246,-21.3999996185303,2011-12-16 07:43:01
0.858000040054321,42.36123698,-71.06631832,-21.2000007629395,2011-12-16 07:43:02
0.997999906539917,42.36123799,-71.06631722,-21.2000007629395,2011-12-16 07:43:03
1.00399994850159,42.3612349,-71.06631842,-21,2011-12-16 07:43:04
0.996000051498413,42.36123199,-71.06631461,-20.8999996185303,2011-12-16 07:43:05
1.0220000743866,42.36123384,-71.06631607,-20.8999996185303,2011-12-16 07:43:06
0.977999925613403,42.36123392,-71.06631696,-20.8999996185303,2011-12-16 07:43:07
1.00099992752075,42.36123462,-71.06631848,-21,2011-12-16 07:43:08
1.01800012588501,42.36123459,-71.06631868,-21,2011-12-16 07:43:09
0.980000019073486,42.36123466,-71.06632004,-21,2011-12-16 07:43:10
1.03799986839294,42.36123481,-71.06632244,-21,2011-12-16 07:43:11
1.00200009346008,42.36123563,-71.0663243,-21,2011-12-16 07:43:12
0.986999988555908,42.36123546,-71.06632578,-21,2011-12-16 07:43:13
0.983000040054321,42.36123603,-71.06632907,-21.1000003814697,2011-12-16 07:43:14
0.989000082015991,42.36123626,-71.06633134,-21.1000003814697,2011-12-16 07:43:15
1.00099992752075,42.36123685,-71.06633673,-21,2011-12-16 07:43:16
0.996999979019165,42.36123654,-71.06633894,-21,2011-12-16 07:43:17
1.00600004196167,42.36123654,-71.06633894,-21,2011-12-16 07:43:18
1,42.3612339,-71.06645823,-21.1000003814697,2011-12-16 07:43:19
0.99399995803833,42.36124533,-71.06658708,-21.6000003814697,2011-12-16 07:43:20
1.00399994850159,42.3612622,-71.06669606,-21.3999996185303,2011-12-16 07:43:21
0.996999979019165,42.36127656,-71.06679905,-22.2000007629395,2011-12-16 07:43:22
1.08700013160706,42.36127978,-71.06691827,-23.7000007629395,2011-12-16 07:43:23
0.914000034332275,42.36129519,-71.06705138,-25.1000003814697,2011-12-16 07:43:24
1,42.36128483,-71.06719814,-25.2000007629395,2011-12-16 07:43:25
1,42.36124766,-71.06735488,-25.5,2011-12-16 07:43:26
1,42.3612171,-71.06750193,-24,2011-12-16 07:43:27
0.998999834060669,42.36123384,-71.06761007,-24.5,2011-12-16 07:43:28
1.01100015640259,42.36121291,-71.06773725,-23.7999992370605,2011-12-16 07:43:29
0.990000009536743,42.3612004,-71.06785326,-23.2000007629395,2011-12-16 07:43:30
1.00299978256226,42.36118844,-71.06796721,-21.6000003814697,2011-12-16 07:43:31
1.00100016593933,42.36121814,-71.0680632,-21.7000007629395,2011-12-16 07:43:32
1,42.36123449,-71.0681503,-21.3999996185303,2011-12-16 07:43:33
0.998999834060669,42.36123512,-71.06822242,-21.8999996185303,2011-12-16 07:43:34
1.1010000705719,42.36123849,-71.06828294,-22.2999992370605,2011-12-16 07:43:35
0.894999980926514,42.36124378,-71.06831808,-22.6000003814697,2011-12-16 07:43:36
1.00100016593933,42.36126192,-71.06833214,-22.5,2011-12-16 07:43:37
0.998999834060669,42.36124739,-71.06832474,-22.6000003814697,2011-12-16 07:43:38
0.996999979019165,42.36125588,-71.06833444,-22.7000007629395,2011-12-16 07:43:39
1.00100016593933,42.36125378,-71.06833083,-22.8999996185303,2011-12-16 07:43:40
1.0019998550415,42.36125091,-71.0683399,-23.2999992370605,2011-12-16 07:43:41
1.02100014686584,42.3612486,-71.06832392,-23.7999992370605,2011-12-16 07:43:42
0.98199987411499,42.36124852,-71.0683216,-23.8999996185303,2011-12-16 07:43:43
0.998000144958496,42.36124645,-71.06832015,-24.2000007629395,2011-12-16 07:43:44
1.00099992752075,42.36124567,-71.06832154,-24.3999996185303,2011-12-16 07:43:45
0.996999979019165,42.36124241,-71.06832033,-24.6000003814697,2011-12-16 07:43:46
1.00399994850159,42.36124179,-71.06832081,-24.7999992370605,2011-12-16 07:43:47
0.996000051498413,42.36123762,-71.06831648,-24.7999992370605,2011-12-16 07:43:48
1,42.36124003,-71.06831702,-25.2000007629395,2011-12-16 07:43:49
1.00300002098083,42.36124279,-71.06831407,-25.6000003814697,2011-12-16 07:43:50
1.00099992752075,42.36124825,-71.06831218,-26,2011-12-16 07:43:51
1.00200009346008,42.36124367,-71.06831294,-26,2011-12-16 07:43:52
0.998999834060669,42.36124552,-71.06831272,-26,2011-12-16 07:43:53
0.995000123977661,42.36124554,-71.06831277,-26,2011-12-16 07:43:54
1.01099991798401,42.36124269,-71.06831393,-26,2011-12-16 07:43:55
0.995000123977661,42.36124398,-71.06831328,-26,2011-12-16 07:43:56
0.997999906539917,42.36124802,-71.06831102,-26,2011-12-16 07:43:57
1.00300002098083,42.36124873,-71.06831064,-26,2011-12-16 07:43:58
1.16199994087219,42.36124889,-71.06831046,-26,2011-12-16 07:43:59
0.835999965667725,42.36125115,-71.06830928,-26.1000003814697,2011-12-16 07:44:00
1,42.36125284,-71.06830833,-26.1000003814697,2011-12-16 07:44:01
0.998000144958496,42.36125219,-71.06830863,-26.1000003814697,2011-12-16 07:44:02
1.00300002098083,42.36125071,-71.06830939,-26.1000003814697,2011-12-16 07:44:03
0.996999979019165,42.36125147,-71.06830902,-26.1000003814697,2011-12-16 07:44:04
1,42.36125061,-71.06830942,-26.1000003814697,2011-12-16 07:44:05
1.00399994850159,42.36124875,-71.06831039,-26.1000003814697,2011-12-16 07:44:06
0.996000051498413,42.3612488,-71.06831038,-26.1000003814697,2011-12-16 07:44:07
1.00099992752075,42.36124838,-71.0683106,-26.1000003814697,2011-12-16 07:44:08
0.996999979019165,42.36124783,-71.06831089,-26.1000003814697,2011-12-16 07:44:09
1.00200009346008,42.36124761,-71.06831095,-26,2011-12-16 07:44:10
1.05399990081787,42.36124753,-71.06831105,-26,2011-12-16 07:44:11
0.947999954223633,42.36124793,-71.06831084,-26,2011-12-16 07:44:12
1.00100016593933,42.36124829,-71.06831067,-26.1000003814697,2011-12-16 07:44:13
1.00300002098083,42.36124892,-71.06831041,-26,2011-12-16 07:44:14
0.995999813079834,42.36124882,-71.06831049,-26,2011-12-16 07:44:15
1.01500010490417,42.36124865,-71.06831059,-26,2011-12-16 07:44:16
0.983999967575073,42.36124828,-71.06831082,-26,2011-12-16 07:44:17
0.999000072479248,42.36124836,-71.06831073,-26,2011-12-16 07:44:18
1.00099992752075,42.36124844,-71.06831104,-26.1000003814697,2011-12-16 07:44:19
1.00099992752075,42.36124814,-71.06831225,-26.1000003814697,2011-12-16 07:44:20
0.999000072479248,42.36124888,-71.06831317,-26.1000003814697,2011-12-16 07:44:21
1.00099992752075,42.36124906,-71.0683144,-26.1000003814697,2011-12-16 07:44:22
1.17200016975403,42.36124701,-71.06831634,-26,2011-12-16 07:44:23
0.827999830245972,42.3612447,-71.06831842,-25.8999996185303,2011-12-16 07:44:24
1,42.36124442,-71.06831994,-25.8999996185303,2011-12-16 07:44:25
0.999000072479248,42.36124409,-71.06832077,-25.8999996185303,2011-12-16 07:44:26
1.01099991798401,42.36124596,-71.06832085,-26,2011-12-16 07:44:27
1.00400018692017,42.36124596,-71.06832085,-26,2011-12-16 07:44:28
0.995999813079834,42.36128073,-71.06837279,-26,2011-12-16 07:44:29
1.00999999046326,42.36131276,-71.06841679,-24.7000007629395,2011-12-16 07:44:30
0.976000070571899,42.3613135,-71.06844731,-23.7999992370605,2011-12-16 07:44:31
1.01100015640259,42.36131762,-71.06846644,-20.1000003814697,2011-12-16 07:44:32
0.991999864578247,42.36138848,-71.06847811,-20,2011-12-16 07:44:33
0.998000144958496,42.36142429,-71.06846984,-19.6000003814697,2011-12-16 07:44:34
1.06799983978271,42.36150531,-71.06847024,-18.6000003814697,2011-12-16 07:44:35
0.933000087738037,42.36154591,-71.06846109,-18.6000003814697,2011-12-16 07:44:36
0.999000072479248,42.36159516,-71.06844964,-18,2011-12-16 07:44:37
1,42.36164237,-71.06844793,-17.5,2011-12-16 07:44:38
1.00399994850159,42.36169542,-71.06846462,-17.2000007629395,2011-12-16 07:44:39
0.99399995803833,42.36172805,-71.06846674,-17.1000003814697,2011-12-16 07:44:40
1.00999999046326,42.36177094,-71.06846965,-17.5,2011-12-16 07:44:41
1.08699989318848,42.36182211,-71.068499,-17.2000007629395,2011-12-16 07:44:42
0.903000116348267,42.36186735,-71.06850789,-17.2000007629395,2011-12-16 07:44:43
1.00200009346008,42.36192872,-71.0685269,-17,2011-12-16 07:44:44
1,42.36199181,-71.06854928,-15.8999996185303,2011-12-16 07:44:45
1.00399994850159,42.36205759,-71.06855493,-15.3000001907349,2011-12-16 07:44:46
0.998999834060669,42.36210504,-71.06857376,-13.6999998092651,2011-12-16 07:44:47
0.998000144958496,42.36211836,-71.06856654,-12.8999996185303,2011-12-16 07:44:48
1.0939998626709,42.36213285,-71.06856662,-13.6000003814697,2011-12-16 07:44:49
0.909000158309937,42.36212899,-71.06855211,-14.1000003814697,2011-12-16 07:44:50
0.996000051498413,42.36214594,-71.0685256,-14,2011-12-16 07:44:51
1.0019998550415,42.36216406,-71.0685158,-13.8999996185303,2011-12-16 07:44:52
0.999000072479248,42.36219031,-71.06851079,-12.8000001907349,2011-12-16 07:44:53
0.997999906539917,42.36220378,-71.06852336,-12.5,2011-12-16 07:44:54
1.00399994850159,42.36218208,-71.06853778,-12.6999998092651,2011-12-16 07:44:55
1.00600004196167,42.36216726,-71.06854538,-12.3999996185303,2011-12-16 07:44:56
0.989000082015991,42.36216466,-71.06855049,-12,2011-12-16 07:44:57
1.00200009346008,42.36215831,-71.0685567,-11.6999998092651,2011-12-16 07:44:58
1.00399994850159,42.36217286,-71.06857507,-11,2011-12-16 07:44:59
0.996999979019165,42.36217393,-71.06857839,-11,2011-12-16 07:45:00
1.00399994850159,42.36217344,-71.0685831,-10.6999998092651,2011-12-16 07:45:01
0.999000072479248,42.36217253,-71.06858972,-10.1000003814697,2011-12-16 07:45:02
1.00099992752075,42.36216687,-71.06859574,-9.69999980926514,2011-12-16 07:45:03
0.997999906539917,42.36217179,-71.06860414,-9.10000038146973,2011-12-16 07:45:04
1,42.36217543,-71.06861408,-8.80000019073486,2011-12-16 07:45:05
0.996000051498413,42.36217903,-71.06861455,-8.89999961853027,2011-12-16 07:45:06
1.00399994850159,42.36217431,-71.06860899,-8.80000019073486,2011-12-16 07:45:07
1.01500010490417,42.36217666,-71.06859804,-9.5,2011-12-16 07:45:08
0.997999906539917,42.36218031,-71.06859586,-9.60000038146973,2011-12-16 07:45:09
0.986999988555908,42.36218784,-71.06859887,-9.60000038146973,2011-12-16 07:45:10
0.999000072479248,42.36218893,-71.06859827,-9.60000038146973,2011-12-16 07:45:11
0.999000072479248,42.36218902,-71.06859867,-9.60000038146973,2011-12-16 07:45:12
0.99399995803833,42.36218902,-71.06859867,-9.60000038146973,2011-12-16 07:45:13
1,42.36218902,-71.06859867,-9.60000038146973,2011-12-16 07:45:14
1,42.36218902,-71.06859867,-9.60000038146973,2011-12-16 07:45:15
1.00200009346008,42.36218902,-71.06859867,-9.60000038146973,2011-12-16 07:45:16
0.996999979019165,42.36218902,-71.06859867,-9.60000038146973,2011-12-16 07:45:17
1.15299987792969,42.36218902,-71.06859867,-9.60000038146973,2011-12-16 07:45:18
128.884999990463,42.36305742,-71.06906011,-33.7000007629395,2011-12-16 07:47:27
0.972000122070312,42.36303079,-71.06904492,-35.4000015258789,2011-12-16 07:47:28
0.994999885559082,42.36306614,-71.06903779,-40.0999984741211,2011-12-16 07:47:29
1.00600004196167,42.36305363,-71.06907869,-39.0999984741211,2011-12-16 07:47:30
0.997999906539917,42.36299028,-71.06904298,-30.6000003814697,2011-12-16 07:47:31
1.00100016593933,42.36295541,-71.06901034,-32.5999984741211,2011-12-16 07:47:32
1.08999991416931,42.36289776,-71.0689786,-28.7000007629395,2011-12-16 07:47:33
0.908999919891357,42.36287502,-71.06896592,-27.6000003814697,2011-12-16 07:47:34
1.00100016593933,42.3628507,-71.06895184,-25,2011-12-16 07:47:35
1.00499987602234,42.36283072,-71.06894101,-23.3999996185303,2011-12-16 07:47:36
0.995000123977661,42.36283046,-71.06892467,-23.8999996185303,2011-12-16 07:47:37
0.998999834060669,42.36283046,-71.06892467,-23.8999996185303,2011-12-16 07:47:38
1.00200009346008,42.3627427,-71.06886578,-20.1000003814697,2011-12-16 07:47:39
0.995000123977661,42.36259437,-71.06879287,-13.8999996185303,2011-12-16 07:47:40
1.00399994850159,42.36252006,-71.06875731,-11.5,2011-12-16 07:47:41
0.994999885559082,42.36249149,-71.06870942,-9,2011-12-16 07:47:42
1.00300002098083,42.36244846,-71.06870818,-10.3999996185303,2011-12-16 07:47:43
0.999000072479248,42.36244933,-71.0687121,-10.3000001907349,2011-12-16 07:47:44
1.12800002098083,42.36245333,-71.06870187,-9.19999980926514,2011-12-16 07:47:45
0.873999834060669,42.36245949,-71.06871336,-8.39999961853027,2011-12-16 07:47:46
0.996000051498413,42.36245163,-71.06872773,-8.30000019073486,2011-12-16 07:47:47
1.00200009346008,42.36244866,-71.06874892,-8.69999980926514,2011-12-16 07:47:48
1,42.36244844,-71.06877397,-8.10000038146973,2011-12-16 07:47:49
1.03499984741211,42.36244795,-71.06879979,-7.90000009536743,2011-12-16 07:47:50
0.968000173568726,42.3624698,-71.06882949,-6.40000009536743,2011-12-16 07:47:51
1.01999998092651,42.36247381,-71.06884395,-5.59999990463257,2011-12-16 07:47:52
1.51799988746643,42.36245292,-71.06886944,-5.19999980926514,2011-12-16 07:47:53
1.00300002098083,42.36245308,-71.06889,-5.09999990463257,2011-12-16 07:47:54
1.00099992752075,42.36244578,-71.06889666,-2.40000009536743,2011-12-16 07:47:55
0.998000144958496,42.36244641,-71.06891139,-1.60000002384186,2011-12-16 07:47:56
1.72399997711182,42.36244641,-71.06891139,-1.60000002384186,2011-12-16 07:47:58
1.01300001144409,42.36244063,-71.06895245,-4,2011-12-16 07:47:59
0.986000061035156,42.3624434,-71.06895671,-3.59999990463257,2011-12-16 07:48:00
0.998999834060669,42.3624428,-71.06895657,-3,2011-12-16 07:48:01
1.07300019264221,42.3624428,-71.06895657,-3,2011-12-16 07:48:02
0.925999879837036,42.36245256,-71.06897647,-4.30000019073486,2011-12-16 07:48:03
0.999000072479248,42.36245479,-71.06898386,-4.90000009536743,2011-12-16 07:48:04
0.996999979019165,42.36245696,-71.06895586,-3.59999990463257,2011-12-16 07:48:05
1.00099992752075,42.36245877,-71.06894232,-2.5,2011-12-16 07:48:06
1.01300001144409,42.36245681,-71.06894249,-2,2011-12-16 07:48:07
0.995000123977661,42.36245895,-71.068941,-1.39999997615814,2011-12-16 07:48:08
0.997999906539917,42.36245956,-71.06894454,-1.10000002384186,2011-12-16 07:48:09
1,42.36246334,-71.0689373,0,2011-12-16 07:48:10
1.00200009346008,42.36246055,-71.06893097,0.800000011920929,2011-12-16 07:48:11
1.125,42.36246153,-71.06892973,1,2011-12-16 07:48:12
0.875999927520752,42.36245786,-71.06892471,1.39999997615814,2011-12-16 07:48:13
0.99399995803833,42.36245518,-71.06891682,2.40000009536743,2011-12-16 07:48:14
1.00999999046326,42.36245771,-71.06890445,3.79999995231628,2011-12-16 07:48:15
0.993000030517578,42.36246052,-71.06890638,3.90000009536743,2011-12-16 07:48:16
1.0460000038147,42.36246087,-71.06890243,4.40000009536743,2011-12-16 07:48:17
0.957000017166138,42.36246173,-71.06890111,4.5,2011-12-16 07:48:18
1.02099990844727,42.36246173,-71.06890111,4.5,2011-12-16 07:48:19
0.972000122070312,42.36245417,-71.06887368,5.40000009536743,2011-12-16 07:48:20
2.01300001144409,42.36245246,-71.06886619,5.40000009536743,2011-12-16 07:48:22
8.99300003051758,42.36244432,-71.06885071,5.69999980926514,2011-12-16 07:48:31
0.986999988555908,42.36244446,-71.06884914,5.69999980926514,2011-12-16 07:48:32
