"diffSecs","level","azimuth.mean","azimuth.absolute.deviation","azimuth.standard.deviation","azimuth.max.deviation","pitch.mean","pitch.absolute.deviation","pitch.standard.deviation","pitch.max.deviation","roll.mean","roll.absolute.deviation","roll.standard.deviation","roll.max.deviation","time"
0,32,8.625,0.910937488079071,1.0161200761795,1.57499969005585,6.75,0.800000011920929,1.0425329208374,2.54999971389771,-43.3031272888184,0.385351777076721,0.440514355897903,0.796876549720764,2011-12-26 21:01:15
1.01554834842682,41,9.96585369110107,0.184651970863342,0.22804556787014,0.565853357315063,3.75609755516052,0.339202880859375,0.391400784254074,0.756097614765167,-44.1853675842285,0.196192473173141,0.232233047485352,0.485365808010101,2011-12-26 21:01:16
1.01968502998352,49,9.4530611038208,0.294710487127304,0.354620814323425,0.653061330318451,3.02244901657104,0.118200778961182,0.148825764656067,0.377551078796387,-44.2693901062012,0.149604052305222,0.184284776449203,0.469389319419861,2011-12-26 21:01:17
1.01970994472504,35,9.14571475982666,0.381550967693329,0.447432547807693,0.854285538196564,2.7142858505249,0.142857104539871,0.172614917159081,0.385714381933212,-44.4371452331543,0.177469372749329,0.211235359311104,0.437143474817276,2011-12-26 21:01:18
2.11804008483887,32,9.97187519073486,0.37441411614418,0.465855717658997,0.971875131130219,3.171875,0.525585949420929,0.928451120853424,4.62812519073486,-44.3718757629395,0.203906685113907,0.35376051068306,1.67187488079071,2011-12-26 21:01:20
1.01265335083008,41,11.3658542633057,0.3942891061306,0.451884776353836,0.834145963191986,6.46341466903687,0.732778072357178,0.896539688110352,1.76341450214386,-43.324390411377,0.193337395787239,0.239695325493813,0.624390006065369,2011-12-26 21:01:21
1.00345170497894,37,10.3378381729126,0.159824773669243,0.19221518933773,0.362161785364151,3.01351356506348,0.963769197463989,1.09128296375275,1.78648662567139,-44.0567588806152,0.20584399998188,0.249908730387688,0.543244540691376,2011-12-26 21:01:22
1.0069500207901,45,10.228889465332,0.362271666526794,0.433908432722092,0.971110761165619,1.56444442272186,0.134123474359512,0.162146106362343,0.335555523633957,-44.4533348083496,0.161481335759163,0.206128284335136,0.646668016910553,2011-12-26 21:01:23
1.21822500228882,47,10.2361707687378,1.18813943862915,1.35888338088989,3.26382946968079,7.3297872543335,4.41167974472046,4.84385633468628,8.37021255493164,-42.819149017334,1.43675875663757,1.60804331302643,3.61914873123169,2011-12-26 21:01:24
1.01147162914276,49,16.2142868041992,0.455393731594086,0.686606705188751,2.71428608894348,19.5306129455566,0.840649783611298,0.945495069026947,1.66938817501068,-35.1061248779297,1.40141618251801,1.59289348125458,4.09387731552124,2011-12-26 21:01:25
1.01360666751862,40,12.0300006866455,1.18900001049042,1.53430759906769,3.26999998092651,14.7250003814697,2.1324999332428,2.4622905254364,4.77499961853027,-37.7700004577637,1.25099980831146,1.58053755760193,3.66999864578247,2011-12-26 21:01:26
1.01356172561646,37,10.964864730835,0.219868421554565,0.263260394334793,0.564864456653595,10.0540542602539,0.252739250659943,0.427180975675583,1.74594581127167,-39.9243240356445,0.139810174703598,0.177681162953377,0.424325078725815,2011-12-26 21:01:27
1.00048494338989,44,10.9590911865234,0.34814041852951,0.417959332466125,0.859090745449066,9.86818218231201,0.0725208222866058,0.0898806527256966,0.231818243861198,-40.0159111022949,0.177686154842377,0.23831170797348,0.684091210365295,2011-12-26 21:01:28
1.1019366979599,43,10.8697671890259,0.276041120290756,0.304642260074615,0.569767415523529,9.81860446929932,0.0867497697472572,0.106215812265873,0.218604505062103,-40.0627899169922,0.131638959050179,0.168472006917,0.437208205461502,2011-12-26 21:01:29
1.10245335102081,47,10.9744682312012,0.352557688951492,0.426498919725418,0.925532221794128,9.80851078033447,0.137437835335732,0.169893309473991,0.40851029753685,-40.1914901733398,0.10801213234663,0.135001391172409,0.291488885879517,2011-12-26 21:01:30
1.01792001724243,50,10.8860006332397,0.240880087018013,0.287756890058517,0.514000356197357,9.92199993133545,0.076639823615551,0.0900887846946716,0.222000420093536,-40.1360015869141,0.176319509744644,0.221594199538231,0.535998702049255,2011-12-26 21:01:31
1.01733005046844,38,10.9684209823608,0.212188333272934,0.258645534515381,0.531578779220581,9.86578941345215,0.111496046185493,0.130336403846741,0.234210714697838,-40.1236839294434,0.130193561315536,0.154637336730957,0.323685795068741,2011-12-26 21:01:32
1.17270338535309,38,10.7868423461914,0.233518093824387,0.28393018245697,0.613158285617828,9.89736843109131,0.113573424518108,0.140463158488274,0.302631199359894,-40.0157890319824,0.14459864795208,0.185708120465279,0.415788263082504,2011-12-26 21:01:33
1.08045995235443,38,10.855263710022,0.153462633490562,0.1901486068964,0.444736868143082,9.96842098236084,0.127977654337883,0.159117937088013,0.368420898914337,-40.1157913208008,0.103323720395565,0.128812909126282,0.284211009740829,2011-12-26 21:01:34
1.01073503494263,49,11.0673475265503,0.369346112012863,0.436305314302444,0.767346918582916,10.0142860412598,0.12419818341732,0.149829715490341,0.285714268684387,-40.1673469543457,0.147438243031502,0.180008634924889,0.367348194122314,2011-12-26 21:01:35
1.01818668842316,38,10.7552633285522,0.262880891561508,0.316807508468628,0.744736731052399,9.95263195037842,0.0842103436589241,0.101920545101166,0.252632051706314,-40.0552635192871,0.116066910326481,0.138976365327835,0.344737499952316,2011-12-26 21:01:36
1.00454163551331,40,11.0425004959106,0.204624995589256,0.263521820306778,0.657499611377716,9.85750007629395,0.103125192224979,0.128233313560486,0.35750025510788,-40.0424995422363,0.146750375628471,0.174481555819511,0.357500851154327,2011-12-26 21:01:37
1.00888001918793,38,11.0447368621826,0.179224357008934,0.209883883595467,0.444736540317535,9.9078950881958,0.118836514651775,0.132549077272415,0.292104959487915,-40.1394729614258,0.125761330127716,0.1531071215868,0.33947542309761,2011-12-26 21:01:38
1.0166050195694,46,10.8152179718018,0.187429144978523,0.234953656792641,0.584783017635345,9.8913049697876,0.106238260865211,0.139605134725571,0.30869522690773,-40.080436706543,0.101229533553123,0.148352965712547,0.519566476345062,2011-12-26 21:01:40
1.00298666954041,48,10.8812503814697,0.248958423733711,0.301148027181625,0.618749797344208,9.88958358764648,0.0730904266238213,0.100497975945473,0.210416734218597,-40.0270843505859,0.194879129528999,0.249783217906952,0.672916650772095,2011-12-26 21:01:41
1.00538837909698,25,10.8719997406006,0.138880178332329,0.180044561624527,0.528000354766846,9.77999973297119,0.0576002188026905,0.0692822933197021,0.120000459253788,-39.9880027770996,0.100479811429977,0.124322183430195,0.311998277902603,2011-12-26 21:01:42
1.04900336265564,36,10.7388887405396,0.218827217817307,0.271086066961288,0.66111147403717,9.93333339691162,0.0999998226761818,0.129099369049072,0.333333194255829,-39.9527778625488,0.119444638490677,0.1404088139534,0.252777844667435,2011-12-26 21:01:43
1.01063668727875,45,10.9488887786865,0.172246813774109,0.212521597743034,0.45111146569252,9.84444427490234,0.143703833222389,0.169385328888893,0.344444632530212,-40.1199989318848,0.130666300654411,0.16679972410202,0.420000046491623,2011-12-26 21:01:44
1.01626169681549,36,11.0083332061768,0.26388892531395,0.320914536714554,0.608332931995392,9.97777843475342,0.0981480553746223,0.110832989215851,0.177777901291847,-40.1055564880371,0.146604537963867,0.206753268837929,0.594444274902344,2011-12-26 21:01:45
1.00182497501373,42,10.880952835083,0.300000041723251,0.349991917610168,0.719047784805298,9.87380981445312,0.116893604397774,0.138115897774696,0.273809343576431,-40,0.185714572668076,0.217124044895172,0.400000333786011,2011-12-26 21:01:46
1.01865494251251,46,10.8152179718018,0.265028417110443,0.31413608789444,0.684782445430756,9.76304340362549,0.0999055877327919,0.118612878024578,0.263043701648712,-40.063045501709,0.164650350809097,0.196001842617989,0.463041871786118,2011-12-26 21:01:47
1.14670169353485,49,11.0938777923584,0.223073676228523,0.277310788631439,0.793877601623535,9.82040882110596,0.0797169357538223,0.102975435554981,0.279592007398605,-40.0897979736328,0.183507055044174,0.217823028564453,0.489794194698334,2011-12-26 21:01:48
1.00250828266144,47,10.7957448959351,0.221548199653625,0.257613688707352,0.495744675397873,9.88085174560547,0.0797647163271904,0.106468059122562,0.319148451089859,-39.9936180114746,0.181530222296715,0.222561776638031,0.506382584571838,2011-12-26 21:01:49
1.01012003421783,31,11.2193546295166,0.203121840953827,0.244183138012886,0.519355237483978,9.97741985321045,0.0936523079872131,0.123679250478745,0.377419233322144,-40.1645164489746,0.185015141963959,0.214849129319191,0.364517569541931,2011-12-26 21:01:50
1.00768995285034,41,10.9000005722046,0.214634209871292,0.258513569831848,0.500000417232513,9.84634208679199,0.0913742929697037,0.112829647958279,0.346341699361801,-40.0658531188965,0.114574804902077,0.131797268986702,0.234144821763039,2011-12-26 21:01:51
1.00563502311707,42,10.7357149124146,0.191496625542641,0.216928109526634,0.464285343885422,9.80000019073486,0.0904764011502266,0.121498763561249,0.300000190734863,-39.9833335876465,0.13333360850811,0.164630815386772,0.416667580604553,2011-12-26 21:01:52
1.00707161426544,49,11.0102043151855,0.276134967803955,0.324663043022156,0.689795613288879,9.78979587554932,0.106372483074665,0.137388095259666,0.410203695297241,-40.0612258911133,0.200333535671234,0.255403965711594,0.661223828792572,2011-12-26 21:01:53
1.02268171310425,41,10.7926836013794,0.155978694558144,0.206468895077705,0.507317066192627,9.90975666046143,0.123616822063923,0.146178781986237,0.290243566036224,-39.9804878234863,0.150743633508682,0.183754280209541,0.419513136148453,2011-12-26 21:01:54
1.00672662258148,42,10.9404764175415,0.242403566837311,0.288724213838577,0.740476548671722,9.86904811859131,0.0877552404999733,0.103482529520988,0.230952531099319,-40.1452407836914,0.185487106442451,0.214033991098404,0.44523811340332,2011-12-26 21:01:55
1.01301836967468,45,10.9311113357544,0.269037038087845,0.317505747079849,0.768888592720032,9.85111141204834,0.09886434674263,0.118551008403301,0.251110970973969,-39.9733352661133,0.123259425163269,0.159722298383713,0.473333984613419,2011-12-26 21:01:56
1.01842832565308,49,10.8877553939819,0.286963731050491,0.337839812040329,0.587755143642426,9.81020450592041,0.0982092320919037,0.121630012989044,0.289796084165573,-40.1020431518555,0.173677071928978,0.221764296293259,0.502039134502411,2011-12-26 21:01:57
1.01666164398193,38,10.8368425369263,0.247368454933167,0.302986055612564,0.563158214092255,9.90263175964355,0.108587190508842,0.140463277697563,0.302631467580795,-40.1710548400879,0.18988886475563,0.225841000676155,0.528947412967682,2011-12-26 21:01:58
1.00592172145844,39,11.0282049179077,0.295595109462738,0.360163003206253,0.871795296669006,9.88461589813232,0.078895591199398,0.100098632276058,0.215384677052498,-40.1384620666504,0.169624909758568,0.203325375914574,0.461540222167969,2011-12-26 21:01:59
1.00250494480133,42,10.8619050979614,0.245805025100708,0.299167394638062,0.838094830513,9.87380981445312,0.12018146365881,0.151279464364052,0.326190114021301,-40.0738105773926,0.15272156894207,0.194029465317726,0.426189690828323,2011-12-26 21:02:00
1.01792669296265,42,10.9476194381714,0.307256162166595,0.354721933603287,0.652381122112274,9.81904792785645,0.110204190015793,0.133163243532181,0.280952632427216,-40.1595230102539,0.18231263756752,0.216090247035027,0.459524065256119,2011-12-26 21:02:01
1.01050996780396,49,10.9836740493774,0.195585131645203,0.22977089881897,0.516326308250427,9.80408191680908,0.0828823074698448,0.114212930202484,0.30408188700676,-40.0795936584473,0.160433143377304,0.187332898378372,0.420407265424728,2011-12-26 21:02:02
1.0133650302887,37,10.9567565917969,0.224251270294189,0.270675450563431,0.643243372440338,9.84864902496338,0.10138800740242,0.115364655852318,0.248648434877396,-40.1108131408691,0.181738257408142,0.223949462175369,0.510809183120728,2011-12-26 21:02:03
1.00908505916595,43,10.9000005722046,0.218604758381844,0.277027487754822,0.500000298023224,9.92790699005127,0.14948607981205,0.182139128446579,0.427907139062881,-40.1186065673828,0.139967069029808,0.16879278421402,0.418604552745819,2011-12-26 21:02:04
1.01139497756958,44,10.8931818008423,0.220764547586441,0.307776212692261,0.806817770004272,9.84318161010742,0.114669546484947,0.142059192061424,0.343182027339935,-40.0954551696777,0.114463120698929,0.14917103946209,0.40454438328743,2011-12-26 21:02:05
1.00819003582001,50,10.9020004272461,0.378639996051788,0.458907425403595,0.998000264167786,9.92800045013428,0.0838398560881615,0.105905592441559,0.271999478340149,-40.1040000915527,0.176959663629532,0.23148213326931,0.595999836921692,2011-12-26 21:02:06
1.00739002227783,36,10.9333333969116,0.281481504440308,0.324893176555634,0.666666865348816,9.96388912200928,0.138117238879204,0.166921153664589,0.336111098527908,-40.1500015258789,0.166666477918625,0.204803586006165,0.450001507997513,2011-12-26 21:02:07
1.01474499702454,40,10.9375,0.224374949932098,0.263332039117813,0.462500363588333,9.86999988555908,0.100000120699406,0.120830520987511,0.329999625682831,-40.1725006103516,0.141624644398689,0.176050290465355,0.427501678466797,2011-12-26 21:02:08
1.0048416852951,40,10.9750003814697,0.303749978542328,0.344782590866089,0.625000178813934,9.88000011444092,0.0850000977516174,0.105356551706791,0.279999881982803,-40.1049995422363,0.116249464452267,0.148239448666573,0.305001825094223,2011-12-26 21:02:09
1.31810665130615,41,10.9341468811035,0.264128416776657,0.302517592906952,0.565853476524353,9.84146404266357,0.122546210885048,0.1464634090662,0.258536726236343,-40.1000022888184,0.131707534193993,0.163796201348305,0.399999380111694,2011-12-26 21:02:10
1.01689672470093,41,10.8756103515625,0.204283267259598,0.247702106833458,0.624390006065369,9.79756164550781,0.0717431604862213,0.0975001156330109,0.202438816428185,-40.117073059082,0.137061044573784,0.160642594099045,0.282927453517914,2011-12-26 21:02:11
1.02293336391449,50,10.8860006332397,0.234560027718544,0.259237349033356,0.514000415802002,9.82600021362305,0.0931201726198196,0.109197191894054,0.225999817252159,-40.1360015869141,0.119999542832375,0.151999741792679,0.435999900102615,2011-12-26 21:02:12
1.00258839130402,44,11.1068181991577,0.27499994635582,0.321500539779663,0.606818377971649,9.92045497894287,0.121487528085709,0.150120496749878,0.32045441865921,-40.2045478820801,0.141528397798538,0.178318500518799,0.404546827077866,2011-12-26 21:02:13
1.10670161247253,37,10.8729734420776,0.234623923897743,0.298327475786209,0.627026796340942,9.87297344207764,0.0886779949069023,0.105647750198841,0.227027177810669,-40.0486488342285,0.106647647917271,0.128655478358269,0.251349776983261,2011-12-26 21:02:14
1.00817835330963,41,10.9146347045898,0.367638230323792,0.443687945604324,0.785365402698517,9.91707324981689,0.0997024402022362,0.132338181138039,0.382926791906357,-40.1878051757812,0.179535686969757,0.218860790133476,0.512195110321045,2011-12-26 21:02:15
1.00834000110626,50,10.9720001220703,0.247519925236702,0.307922035455704,0.727999627590179,9.8120002746582,0.113920100033283,0.133626371622086,0.211999803781509,-40.1080017089844,0.154559701681137,0.199839919805527,0.492001563310623,2011-12-26 21:02:16
1.01907169818878,35,10.91428565979,0.191836714744568,0.215330764651299,0.385714381933212,9.86285781860352,0.0909389108419418,0.117316991090775,0.262857109308243,-40.060001373291,0.113143257796764,0.135646596550941,0.340000599622726,2011-12-26 21:02:17
1.0045382976532,41,11.1048784255981,0.282331943511963,0.341411173343658,0.804878115653992,9.88536643981934,0.110529623925686,0.15070728957653,0.414634078741074,-40.119514465332,0.135038062930107,0.16412265598774,0.380487114191055,2011-12-26 21:02:18
1.01474165916443,41,10.9146347045898,0.260321229696274,0.308861762285233,0.785365521907806,9.82682991027832,0.074360616505146,0.0937678068876266,0.226829081773758,-40.1024398803711,0.144437536597252,0.180091917514801,0.402439028024673,2011-12-26 21:02:19
1.00062668323517,41,11.1268291473389,0.265556126832962,0.325369834899902,0.626829504966736,9.87073230743408,0.119214877486229,0.136585459113121,0.27073147892952,-40.178050994873,0.103747300803661,0.142301827669144,0.421952396631241,2011-12-26 21:02:20
1.00099503993988,50,10.8839998245239,0.254720032215118,0.317716836929321,0.815999627113342,9.75800037384033,0.114640139043331,0.140128582715988,0.342000275850296,-40.1980018615723,0.146159812808037,0.191301003098488,0.501999735832214,2011-12-26 21:02:21
1.0112316608429,26,10.7923078536987,0.17159777879715,0.238461643457413,0.607692718505859,9.90000057220459,0.0692308023571968,0.083204947412014,0.10000005364418,-40.1884613037109,0.144082576036453,0.173929557204247,0.411539971828461,2011-12-26 21:02:23
1.01926004886627,41,11.0634145736694,0.187388479709625,0.232437908649445,0.563414812088013,9.88780498504639,0.0794766470789909,0.104052416980267,0.212195217609406,-40.0365867614746,0.158120200037956,0.181801244616508,0.336585074663162,2011-12-26 21:02:24
1.00528335571289,50,10.9499998092651,0.317999869585037,0.378021061420441,0.850000023841858,9.95600032806396,0.08351980894804,0.100319385528564,0.243999570608139,-40.1459999084473,0.129679635167122,0.149946540594101,0.254000693559647,2011-12-26 21:02:25
1.00608503818512,42,10.9404764175415,0.230952337384224,0.274347275495529,0.540475845336914,9.93095302581787,0.095464713871479,0.120491206645966,0.369047522544861,-40.1857147216797,0.148979231715202,0.189700871706009,0.414287120103836,2011-12-26 21:02:26
1.00512337684631,44,11.1068181991577,0.348966926336288,0.401925891637802,0.793182194232941,9.91590976715088,0.0831609964370728,0.104322843253613,0.284090489149094,-40.1568183898926,0.202892184257507,0.229027062654495,0.543181836605072,2011-12-26 21:02:27
1.01627004146576,38,10.9868421554565,0.271745085716248,0.30793970823288,0.613158106803894,9.97631645202637,0.116897396743298,0.142227008938789,0.37631568312645,-40.2105255126953,0.149029925465584,0.190275803208351,0.489473730325699,2011-12-26 21:02:28
1.15455663204193,46,11.1630439758301,0.38430991768837,0.429032564163208,0.936956703662872,9.8695650100708,0.0926277115941048,0.112035684287548,0.330434381961823,-40.1673927307129,0.145651772618294,0.180644050240517,0.432610213756561,2011-12-26 21:02:29
1.00668835639954,50,11.0159997940063,0.196479961276054,0.260276764631271,0.884000301361084,9.91400051116943,0.10479985922575,0.131163969635963,0.313999831676483,-40.1259994506836,0.152959704399109,0.185267269611359,0.425999909639359,2011-12-26 21:02:30
1.01886665821075,45,11.2044448852539,0.244740799069405,0.280440598726273,0.595555484294891,9.81777763366699,0.103407569229603,0.128735646605492,0.317778021097183,-40.2377777099609,0.171950295567513,0.209006920456886,0.537777781486511,2011-12-26 21:02:31
1.01200497150421,40,10.9099998474121,0.227500006556511,0.28178009390831,0.690000176429749,9.85500049591064,0.0882500931620598,0.102347508072853,0.245000198483467,-40.0750007629395,0.131250277161598,0.162403702735901,0.42499914765358,2011-12-26 21:02:32
1.00781166553497,43,11.0372095108032,0.292698740959167,0.351093471050262,0.862791061401367,9.89069843292236,0.0772310569882393,0.100727528333664,0.20930241048336,-40.1674423217773,0.16030265390873,0.200836658477783,0.467441827058792,2011-12-26 21:02:33
1.02075839042664,51,11.0156869888306,0.234140738844872,0.291966050863266,0.815686702728271,9.88823509216309,0.112341545522213,0.140931218862534,0.311764299869537,-40.205883026123,0.159630477428436,0.203317314386368,0.494117826223373,2011-12-26 21:02:34
1.0145366191864,34,11.3588237762451,0.438754320144653,0.548858523368835,1.05882346630096,9.93235301971436,0.138062164187431,0.167543783783913,0.367647051811218,-40.3294143676758,0.153979241847992,0.175782784819603,0.370588302612305,2011-12-26 21:02:35
1.01489996910095,44,11.0272731781006,0.402479320764542,0.451947093009949,0.872727572917938,9.80000019073486,0.0909092500805855,0.133143901824951,0.399999648332596,-40.2795448303223,0.160536915063858,0.194912061095238,0.37954443693161,2011-12-26 21:02:36
1.00234496593475,44,11.0795459747314,0.184194162487984,0.238917484879494,0.620454132556915,9.89318180084229,0.0690083801746368,0.10530848056078,0.306817650794983,-40.2363662719727,0.15165251493454,0.178492218255997,0.363637745380402,2011-12-26 21:02:37
1.01548337936401,50,11.0200004577637,0.322399973869324,0.392428308725357,0.880000472068787,9.86999988555908,0.106800131499767,0.134536311030388,0.370000272989273,-40.226001739502,0.171039700508118,0.208624139428139,0.526000201702118,2011-12-26 21:02:38
1.00867331027985,27,11.018518447876,0.237311393022537,0.270851910114288,0.481481313705444,9.93703746795654,0.127297565340996,0.156697764992714,0.33703687787056,-40.1000022888184,0.103704079985619,0.151535272598267,0.400000393390656,2011-12-26 21:02:39
1.00961494445801,35,11.0314283370972,0.232326552271843,0.282611727714539,0.668571054935455,9.89428615570068,0.0767347887158394,0.111976653337479,0.305713802576065,-40.2514305114746,0.175836622714996,0.214304968714714,0.448571443557739,2011-12-26 21:02:40
1.01012337207794,44,11.0250005722046,0.261363625526428,0.293199449777603,0.474999785423279,9.875,0.0806819498538971,0.102524995803833,0.274999916553497,-40.3636360168457,0.261570274829865,0.300068616867065,0.636362850666046,2011-12-26 21:02:41
1.007608294487,44,11.0454549789429,0.282231390476227,0.339421004056931,0.65454512834549,9.87045478820801,0.133574426174164,0.156058758497238,0.329545080661774,-40.1772727966309,0.155578330159187,0.178202837705612,0.37727415561676,2011-12-26 21:02:42
1.00933337211609,49,11.0163269042969,0.414494007825851,0.501567780971527,1.18367302417755,9.88775539398193,0.115035489201546,0.145170792937279,0.412244886159897,-40.2510223388672,0.144022971391678,0.1727594435215,0.448979437351227,2011-12-26 21:02:43
1.01008832454681,39,11.0487184524536,0.226824522018433,0.276305139064789,0.748717963695526,9.91794872283936,0.11347784101963,0.144775286316872,0.382051259279251,-40.1615409851074,0.136883214116096,0.16111034154892,0.338460683822632,2011-12-26 21:02:44
1.01047670841217,44,11.0613641738892,0.306095063686371,0.353692203760147,0.738636374473572,9.83409118652344,0.0780993551015854,0.0927931219339371,0.23409079015255,-40.1386375427246,0.132334381341934,0.164061829447746,0.361362904310226,2011-12-26 21:02:45
1.0098032951355,38,10.9447374343872,0.163988798856735,0.217276588082314,0.644736886024475,9.87105274200439,0.0846261829137802,0.102361403405666,0.22894749045372,-40.2078971862793,0.135872066020966,0.169179871678352,0.392106622457504,2011-12-26 21:02:46
1.00168335437775,47,11.0638303756714,0.301946520805359,0.34911772608757,0.73617023229599,9.88297939300537,0.129470407962799,0.158877909183502,0.382978916168213,-40.1212768554688,0.1156175583601,0.144304856657982,0.321278363466263,2011-12-26 21:02:47
1.01259827613831,40,11.0950002670288,0.324999988079071,0.382720500230789,0.805000483989716,9.87750053405762,0.0781251341104507,0.0961444899439812,0.222500115633011,-40.0974998474121,0.178000494837761,0.230746254324913,0.50250118970871,2011-12-26 21:02:48
1.00181996822357,45,11.0333337783813,0.290370315313339,0.357770830392838,0.76666671037674,9.92444515228271,0.0970863029360771,0.12320813536644,0.324444353580475,-40.1000022888184,0.124444887042046,0.160554781556129,0.500001430511475,2011-12-26 21:02:49
1.01838338375092,40,11.2325000762939,0.182500049471855,0.225152730941772,0.532500326633453,9.8725004196167,0.108000114560127,0.137817829847336,0.327499538660049,-40.3150024414062,0.148750334978104,0.187816351652145,0.385000139474869,2011-12-26 21:02:50
1.11887168884277,45,10.9755554199219,0.252938210964203,0.319134593009949,0.82444441318512,9.82444477081299,0.102716222405434,0.121391229331493,0.275555729866028,-40.2355575561523,0.12938217818737,0.166206613183022,0.435556620359421,2011-12-26 21:02:51
1.00050663948059,49,11.0040817260742,0.249562665820122,0.299631893634796,0.704081654548645,9.9265308380127,0.0904621556401253,0.108374804258347,0.273468971252441,-40.1244888305664,0.132111251354218,0.158475577831268,0.324491381645203,2011-12-26 21:02:52
1.02024829387665,42,11.1428575515747,0.25306111574173,0.310255467891693,0.657142877578735,9.87857151031494,0.100680463016033,0.128240436315536,0.321428120136261,-40.240478515625,0.148072004318237,0.192797958850861,0.640474677085876,2011-12-26 21:02:53
1.02573001384735,39,11.1897439956665,0.19263644516468,0.242629796266556,0.68974381685257,9.81538486480713,0.112426191568375,0.136885702610016,0.315384924411774,-40.1153869628906,0.100197032094002,0.116659618914127,0.284616231918335,2011-12-26 21:02:54
1.06000995635986,42,11.1214284896851,0.325850307941437,0.370672285556793,0.821428537368774,9.82619094848633,0.0943311974406242,0.119641475379467,0.326190650463104,-40.0785713195801,0.183673530817032,0.223111778497696,0.52142995595932,2011-12-26 21:02:55
1.01224339008331,53,11.1094341278076,0.237095028162003,0.274902492761612,0.509433805942535,9.85471725463867,0.110288456082344,0.133975595235825,0.354717195034027,-40.192455291748,0.0929863676428795,0.127158865332603,0.307546377182007,2011-12-26 21:02:56
1.0066967010498,36,11.0777778625488,0.238888949155807,0.298245936632156,0.622221827507019,9.86388874053955,0.0896606147289276,0.115837022662163,0.336110651493073,-40.1694450378418,0.115122899413109,0.141065925359726,0.36944580078125,2011-12-26 21:02:57
1.00556170940399,39,11.0025644302368,0.238658800721169,0.28955066204071,0.69743549823761,9.93846225738525,0.0998026207089424,0.123237058520317,0.261538028717041,-40.1589736938477,0.109664253890514,0.127536609768867,0.241026267409325,2011-12-26 21:02:58
1.00914669036865,40,11.0124998092651,0.149999931454659,0.184644877910614,0.487499803304672,9.86999988555908,0.0925001353025436,0.116619095206261,0.269999921321869,-40.1749992370605,0.147499606013298,0.185404896736145,0.474999904632568,2011-12-26 21:02:59
1.06972503662109,44,11.1454544067383,0.236776798963547,0.282404065132141,0.645454704761505,9.86363697052002,0.0867769718170166,0.106794029474258,0.263636261224747,-40.1749992370605,0.152272313833237,0.178535461425781,0.324999213218689,2011-12-26 21:03:00
1.16879165172577,42,11.042857170105,0.208843588829041,0.23918804526329,0.442856937646866,9.90476226806641,0.0911563411355019,0.109004996716976,0.204762279987335,-40.1142883300781,0.112924754619598,0.150509193539619,0.414286017417908,2011-12-26 21:03:01
1.01831161975861,48,11.0187501907349,0.225260406732559,0.272072464227676,0.681249678134918,9.92500019073486,0.0947915688157082,0.116368673741817,0.274999499320984,-40.1062507629395,0.115884877741337,0.147769719362259,0.306251615285873,2011-12-26 21:03:02
1.00182664394379,29,10.8241376876831,0.328418672084808,0.392740428447723,0.724137783050537,9.9034481048584,0.0599284768104553,0.0808691903948784,0.203448757529259,-39.9551734924316,0.119143918156624,0.145237728953362,0.355171322822571,2011-12-26 21:03:03
1.00656998157501,43,11.3395347595215,0.249756574630737,0.290260016918182,0.5395348072052,9.9348840713501,0.0791777595877647,0.0937182903289795,0.234884172677994,-40.2232551574707,0.166900426149368,0.203271955251694,0.376745700836182,2011-12-26 21:03:04
1.01153171062469,46,11.0760869979858,0.313138008117676,0.375432968139648,0.82391345500946,9.8869571685791,0.0854442939162254,0.103438042104244,0.286956369876862,-40.1347846984863,0.166918352246284,0.203467085957527,0.465218752622604,2011-12-26 21:03:05
1.01904332637787,37,10.9837837219238,0.175164252519608,0.21373575925827,0.483783900737762,9.80540561676025,0.0932068899273872,0.113770738244057,0.205405205488205,-40.1351356506348,0.110152631998062,0.139914989471436,0.435135304927826,2011-12-26 21:03:06
1.01672494411469,42,11.1857147216797,0.298639476299286,0.340567767620087,0.714286029338837,9.91904830932617,0.113151855766773,0.141821697354317,0.419047892093658,-40.2523803710938,0.154421329498291,0.182884261012077,0.447619289159775,2011-12-26 21:03:08
1.01964497566223,44,10.9840908050537,0.255165219306946,0.299198299646378,0.684090852737427,9.82499980926514,0.14886374771595,0.172053188085556,0.374999731779099,-40.1749992370605,0.126135841012001,0.153925716876984,0.425001323223114,2011-12-26 21:03:09
1.00375998020172,50,10.9840002059937,0.254720002412796,0.290075868368149,0.515999853610992,9.87800025939941,0.0841600969433784,0.110072679817677,0.3219995200634,-40.1240005493164,0.121759682893753,0.153048917651176,0.375999301671982,2011-12-26 21:03:10
1.00113332271576,38,11.1789474487305,0.178116232156754,0.24937592446804,0.62105268239975,9.89210510253906,0.0889197885990143,0.11557998508215,0.307894319295883,-40.1789474487305,0.134902507066727,0.170383051037788,0.421053946018219,2011-12-26 21:03:11
1.0050300359726,26,10.9730768203735,0.324852079153061,0.405308723449707,0.926923453807831,9.93461513519287,0.106212958693504,0.120710462331772,0.234615728259087,-40.1730766296387,0.117750875651836,0.13744230568409,0.273075848817825,2011-12-26 21:03:12
1.01129996776581,41,11.175609588623,0.216418772935867,0.255457997322083,0.524389863014221,9.8926830291748,0.0929210111498833,0.133234173059464,0.407317012548447,-40.0926856994629,0.13158854842186,0.177228182554245,0.592683911323547,2011-12-26 21:03:13
1.02032494544983,49,10.9653062820435,0.1402747631073,0.170893177390099,0.365305930376053,9.86530590057373,0.11420252174139,0.134848460555077,0.334693521261215,-40.2999992370605,0.110204592347145,0.142857253551483,0.300001502037048,2011-12-26 21:03:14
1.00727498531342,44,11.0863637924194,0.376652926206589,0.429900050163269,0.913636207580566,9.84772777557373,0.104442298412323,0.128785759210587,0.347727507352829,-40.3090896606445,0.134297758340836,0.167628034949303,0.390909373760223,2011-12-26 21:03:15
1.00672161579132,37,11.0918922424316,0.193864166736603,0.244262158870697,0.591892063617706,9.88648700714111,0.102556712925434,0.133886128664017,0.313513040542603,-40.1864852905273,0.142877578735352,0.178828045725822,0.513513624668121,2011-12-26 21:03:16
1.01536667346954,39,11.1205129623413,0.287836879491806,0.33981853723526,0.679487109184265,9.90000057220459,0.0820513665676117,0.103774920105934,0.200000450015068,-40.2051277160645,0.153977259993553,0.194736734032631,0.505128145217896,2011-12-26 21:03:17
1.00856328010559,47,10.9446811676025,0.218198224902153,0.260775029659271,0.644680857658386,9.8340425491333,0.116976171731949,0.144806057214737,0.334042847156525,-40.1063842773438,0.110275827348232,0.140522196888924,0.306384712457657,2011-12-26 21:03:18
1.01183998584747,42,11.1047620773315,0.253061175346375,0.313924729824066,0.695238053798676,9.90476226806641,0.120634838938713,0.160286039113998,0.495238423347473,-40.238094329834,0.138094857335091,0.173139542341232,0.361906409263611,2011-12-26 21:03:19
1.00734996795654,37,11.0810813903809,0.296420723199844,0.364534378051758,0.818919360637665,9.90540599822998,0.0823957771062851,0.103834465146065,0.205405831336975,-40.1756782531738,0.0802039131522179,0.102417282760143,0.275674968957901,2011-12-26 21:03:20
1.00863838195801,43,11.2139539718628,0.35846409201622,0.404958516359329,0.813953161239624,9.86046504974365,0.108382984995842,0.12964990735054,0.360465288162231,-40.2999992370605,0.172093033790588,0.202312022447586,0.400000005960464,2011-12-26 21:03:21
1.01717162132263,41,11.0292682647705,0.279595404863358,0.350778818130493,0.870732009410858,9.8756103515625,0.112671121954918,0.142761096358299,0.424390196800232,-40.2097587585449,0.131350174546242,0.172223225235939,0.390245109796524,2011-12-26 21:03:22
1.00382494926453,50,10.9020004272461,0.314320027828217,0.36303722858429,0.797999620437622,9.82400035858154,0.0867201834917068,0.11235672980547,0.276000142097473,-40.1520004272461,0.14991956949234,0.184650897979736,0.547999858856201,2011-12-26 21:03:23
1.00853168964386,24,10.9791669845581,0.223958358168602,0.285743534564972,0.920833647251129,9.90000057220459,0.0833334177732468,0.104083314538002,0.200000360608101,-40.1375007629395,0.168749675154686,0.20779076218605,0.562499821186066,2011-12-26 21:03:24
1.01904332637787,36,11.1694450378418,0.263425976037979,0.298904955387115,0.569444298744202,9.86388874053955,0.0936729982495308,0.110937476158142,0.236111268401146,-40.2277793884277,0.115740314126015,0.153859719634056,0.427779316902161,2011-12-26 21:03:25
1.0152850151062,48,10.8791666030884,0.263194561004639,0.332263946533203,0.820832967758179,9.91041660308838,0.120486065745354,0.146115884184837,0.310416489839554,-40.1354179382324,0.116319194436073,0.140667423605919,0.364582449197769,2011-12-26 21:03:26
1.00337672233582,37,11.0189189910889,0.23769174516201,0.288367122411728,0.68108069896698,9.79189205169678,0.100219391286373,0.121651850640774,0.308108419179916,-40.2918930053711,0.128998726606369,0.16337351500988,0.391891062259674,2011-12-26 21:03:27
1.01848995685577,41,11.1878051757812,0.253896445035934,0.309362173080444,0.612195134162903,9.84390258789062,0.0922072157263756,0.114867530763149,0.3560970723629,-40.2463417053223,0.140154227614403,0.176824957132339,0.453658491373062,2011-12-26 21:03:28
1.00637829303741,45,11.1777782440186,0.256790041923523,0.301026999950409,0.622222244739532,9.90222263336182,0.0917529985308647,0.114482246339321,0.202222660183907,-40.1288909912109,0.093036487698555,0.110799185931683,0.228888273239136,2011-12-26 21:03:29
1.00874495506287,48,10.9645833969116,0.196440920233727,0.238475739955902,0.535416483879089,9.85624980926514,0.113541811704636,0.138302654027939,0.356250256299973,-40.1124992370605,0.154686987400055,0.188883483409882,0.412499904632568,2011-12-26 21:03:30
1.00785338878632,28,10.9107141494751,0.170152962207794,0.211016714572906,0.410714447498322,9.81785774230957,0.0989797562360764,0.116660699248314,0.217856958508492,-40.2142868041992,0.113264709711075,0.13552588224411,0.28571429848671,2011-12-26 21:03:31
1.00354504585266,33,10.9272727966309,0.233057782053947,0.336895555257797,1.07272720336914,9.97575759887695,0.0611568167805672,0.0739790126681328,0.175757646560669,-40.2999992370605,0.12727302312851,0.159544765949249,0.30000177025795,2011-12-26 21:03:32
1.01365494728088,44,10.995454788208,0.199999868869781,0.254910409450531,0.504545271396637,9.872727394104,0.0892563536763191,0.111525945365429,0.272727161645889,-40.2181816101074,0.181404739618301,0.223883509635925,0.581816434860229,2011-12-26 21:03:33
1.24690496921539,40,11.0050001144409,0.206499949097633,0.266411304473877,0.694999635219574,9.94500064849854,0.0854998528957367,0.0998748913407326,0.245000407099724,-40.1474990844727,0.112249463796616,0.135991424322128,0.352499097585678,2011-12-26 21:03:34
1.00894999504089,49,11.1346940994263,0.213744193315506,0.282518595457077,0.765306532382965,9.87142848968506,0.132361650466919,0.167819187045097,0.428571432828903,-40.1673469543457,0.134027227759361,0.16584700345993,0.432654470205307,2011-12-26 21:03:35
1.0003616809845,41,11.2243900299072,0.245687127113342,0.288630455732346,0.575609743595123,9.84390258789062,0.101368367671967,0.11697156727314,0.243902251124382,-40.2585372924805,0.168470904231071,0.203596562147141,0.458537966012955,2011-12-26 21:03:36
1.00561332702637,39,11.0307693481445,0.185404285788536,0.234415590763092,0.569230973720551,9.82564163208008,0.13911908864975,0.162855833768845,0.374358534812927,-40.0743598937988,0.114924892783165,0.148008927702904,0.374359130859375,2011-12-26 21:03:37
1.38817167282104,44,10.9499998092651,0.170454427599907,0.207254752516747,0.450000196695328,9.87954521179199,0.111467026174068,0.13412943482399,0.320454180240631,-40.1659088134766,0.144627869129181,0.177025064826012,0.434092164039612,2011-12-26 21:03:38
1.00075662136078,40,11.0524997711182,0.239874988794327,0.279273599386215,0.547500193119049,9.82750034332275,0.0680001676082611,0.0865665599703789,0.227499917149544,-40.2425003051758,0.142499640583992,0.164145454764366,0.35750150680542,2011-12-26 21:03:39
1.00469827651978,48,10.9250001907349,0.206249892711639,0.261804550886154,0.774999618530273,9.86875057220459,0.0877605378627777,0.113937608897686,0.268749952316284,-40.1937522888184,0.102863855659962,0.12484322488308,0.293749570846558,2011-12-26 21:03:40
1.00960004329681,45,11.0822219848633,0.318024694919586,0.373743176460266,0.817778170108795,9.89777851104736,0.0654815435409546,0.0906491801142693,0.297777682542801,-40.1288909912109,0.146369829773903,0.173361584544182,0.371110528707504,2011-12-26 21:03:41
1.02019500732422,43,11.2186050415039,0.273120641708374,0.32368215918541,0.718604803085327,9.9348840713501,0.0949701145291328,0.11789570748806,0.265115767717361,-40.2023277282715,0.110004961490631,0.133796483278275,0.297673434019089,2011-12-26 21:03:42
1.01462996006012,39,10.9410257339478,0.225772440433502,0.279851526021957,0.758973956108093,9.807692527771,0.0871796533465385,0.116321094334126,0.392307341098785,-40.0589752197266,0.157002195715904,0.187723010778427,0.441024988889694,2011-12-26 21:03:43
1.00236666202545,40,11.1774997711182,0.17474989593029,0.206745579838753,0.422500133514404,9.91250038146973,0.08374984562397,0.0979476571083069,0.212500378489494,-40.2075004577637,0.223999828100204,0.284945338964462,0.592498600482941,2011-12-26 21:03:44
1.01740336418152,47,11.1042556762695,0.243005901575089,0.290236502885818,0.604255497455597,9.92127704620361,0.0876413062214851,0.121928036212921,0.378723293542862,-40.1787223815918,0.127478078007698,0.164944842457771,0.521276593208313,2011-12-26 21:03:45
1.00034332275391,45,11.0533332824707,0.410666644573212,0.488353222608566,0.946666419506073,9.85111141204834,0.0879013389348984,0.104609854519367,0.251110941171646,-40.1333351135254,0.17333297431469,0.190904065966606,0.333334684371948,2011-12-26 21:03:46
1.01747834682465,36,11.1055555343628,0.172530740499496,0.210745245218277,0.505555331707001,9.82499980926514,0.0833334401249886,0.113956697285175,0.325000196695328,-40.1055564880371,0.145061075687408,0.179419219493866,0.405555725097656,2011-12-26 21:03:48
1.0198450088501,43,11.0302324295044,0.227257996797562,0.279147297143936,0.569767653942108,9.87441921234131,0.0867497026920319,0.105858705937862,0.274418473243713,-40.181396484375,0.154785722494125,0.182049706578255,0.481395184993744,2011-12-26 21:03:49
1.00625669956207,48,11.0479173660278,0.185242995619774,0.213101625442505,0.452083081007004,9.88125038146973,0.110937632620335,0.133317112922668,0.318749636411667,-40.279167175293,0.110242784023285,0.141359955072403,0.379165560007095,2011-12-26 21:03:50
1.01815831661224,47,11.1212768554688,0.221729263663292,0.273617386817932,0.72127628326416,9.8361701965332,0.125124633312225,0.147929802536964,0.363829433917999,-40.2680854797363,0.170122087001801,0.207422479987144,0.431915044784546,2011-12-26 21:03:51
1.0185866355896,37,10.8675680160522,0.244265928864479,0.278076469898224,0.567567467689514,9.81621646881104,0.14273202419281,0.168480560183525,0.316216379404068,-40.19189453125,0.133966132998466,0.166649490594864,0.308107316493988,2011-12-26 21:03:52
1.01166164875031,46,11.2869567871094,0.322306245565414,0.35238853096962,0.686956405639648,9.84347820281982,0.0888470262289047,0.107647202908993,0.256521880626678,-40.3369560241699,0.154348284006119,0.188078224658966,0.436955839395523,2011-12-26 21:03:53
1.0101432800293,36,11.2333335876465,0.233333349227905,0.279880851507187,0.566666603088379,9.90555572509766,0.0746912583708763,0.0998455807566643,0.205556079745293,-40.1055564880371,0.106789775192738,0.137324571609497,0.305557131767273,2011-12-26 21:03:54
1.01241338253021,47,10.9936170578003,0.22435487806797,0.282394230365753,0.593616724014282,9.87659549713135,0.102489896118641,0.122409798204899,0.323403894901276,-40.1042556762695,0.145495250821114,0.177401229739189,0.395743846893311,2011-12-26 21:03:55
1.01874005794525,36,11.1861114501953,0.21388877928257,0.265782624483109,0.613888919353485,9.8972225189209,0.0813272595405579,0.104046262800694,0.202777892351151,-40.1416664123535,0.140740409493446,0.173805564641953,0.358332514762878,2011-12-26 21:03:56
1.00622665882111,40,11.2150001525879,0.150000050663948,0.178255453705788,0.385000139474869,9.93249988555908,0.0856248214840889,0.108137562870979,0.267499506473541,-40.1425018310547,0.139624446630478,0.168652534484863,0.357499212026596,2011-12-26 21:03:57
1.07387161254883,41,11.2658538818359,0.329208850860596,0.38420632481575,0.734146118164062,9.85365867614746,0.0958954989910126,0.123164810240269,0.35365879535675,-40.134147644043,0.160142496228218,0.193314760923386,0.434146136045456,2011-12-26 21:03:58
1.0111700296402,49,10.9612245559692,0.153186067938805,0.184961453080177,0.43877586722374,9.91020393371582,0.0831319019198418,0.111107423901558,0.289795458316803,-40.1489791870117,0.150103464722633,0.193909376859665,0.548978090286255,2011-12-26 21:03:59
1.00619494915009,38,11.1342105865479,0.33060947060585,0.381324857473373,0.765789806842804,9.94210529327393,0.129362776875496,0.153265446424484,0.257894426584244,-40.0552635192871,0.168144285678864,0.207360982894897,0.455261945724487,2011-12-26 21:04:00
1.01699995994568,42,10.9785718917847,0.186054334044456,0.238582849502563,0.621428787708282,9.81190490722656,0.094557985663414,0.119925431907177,0.311905026435852,-40.1833343505859,0.162697955965996,0.20807121694088,0.48333340883255,2011-12-26 21:04:01
1.01240336894989,42,11.1238098144531,0.211564585566521,0.254305332899094,0.476190537214279,9.84523868560791,0.109750740230083,0.13129834830761,0.254762023687363,-40.2904777526855,0.144217386841774,0.172942951321602,0.409523814916611,2011-12-26 21:04:02
1.00451004505157,38,11.0552635192871,0.271606653928757,0.339269638061523,0.744736790657043,9.84210586547852,0.117174580693245,0.144425481557846,0.357894390821457,-40.1684226989746,0.143766954541206,0.182245060801506,0.468421131372452,2011-12-26 21:04:03
1.00597167015076,47,11.0659580230713,0.263014912605286,0.312353163957596,0.634042143821716,9.84042549133301,0.0975103601813316,0.124899335205555,0.359574019908905,-40.0808525085449,0.154097005724907,0.185240671038628,0.419148147106171,2011-12-26 21:04:04
1.01273667812347,39,11.2820510864258,0.325180917978287,0.433750420808792,1.0179488658905,9.92051315307617,0.13083490729332,0.155546173453331,0.320512622594833,-40.1743583679199,0.131491959095001,0.158061698079109,0.374360412359238,2011-12-26 21:04:05
1.01322996616364,44,10.9659090042114,0.283884286880493,0.344398826360703,0.834090948104858,9.87045478820801,0.108161255717278,0.132424175739288,0.329545050859451,-40.134090423584,0.211466670036316,0.251308560371399,0.565909326076508,2011-12-26 21:04:06
1.13726663589478,43,11.0069770812988,0.170578703284264,0.226598039269447,0.706976771354675,9.82790756225586,0.108166724443436,0.131760254502296,0.272093206644058,-40.0860481262207,0.109248608350754,0.133958235383034,0.31395411491394,2011-12-26 21:04:07
1.1912100315094,51,10.9823532104492,0.190542012453079,0.230690240859985,0.517646849155426,9.86274528503418,0.123260423541069,0.14546862244606,0.36274528503418,-40.0470581054688,0.126182541251183,0.15885965526104,0.447057157754898,2011-12-26 21:04:08
1.00012171268463,49,11.1102046966553,0.212494790554047,0.255746155977249,0.589795470237732,9.92448997497559,0.0830485969781876,0.0980016589164734,0.175510287284851,-40.1612243652344,0.161099180579185,0.196724504232407,0.461224317550659,2011-12-26 21:04:09
1.01260995864868,41,11.3000001907349,0.258536607027054,0.308418422937393,0.600000381469727,9.84146404266357,0.124568812549114,0.152979582548141,0.358536213636398,-40.2195129394531,0.131112039089203,0.174215331673622,0.419513523578644,2011-12-26 21:04:10
1.00873494148254,38,10.9894742965698,0.29889190196991,0.374720543622971,1.01052606105804,9.83684253692627,0.0886427909135818,0.111026540398598,0.263158082962036,-40.063159942627,0.157895237207413,0.191147819161415,0.436841368675232,2011-12-26 21:04:11
1.00792837142944,46,11.1717395782471,0.230056673288345,0.293896704912186,0.728261291980743,9.92826080322266,0.115784384310246,0.136195212602615,0.271738737821579,-40.2260894775391,0.171833470463753,0.202629342675209,0.373914539813995,2011-12-26 21:04:12
1.00628662109375,43,11.027907371521,0.325473338365555,0.369365096092224,0.872093379497528,9.93023300170898,0.0988641381263733,0.121109001338482,0.330232471227646,-40.1674423217773,0.149593785405159,0.181365251541138,0.467441737651825,2011-12-26 21:04:13
1.00244998931885,48,11.0437498092651,0.169270873069763,0.220705583691597,0.64374965429306,9.79791641235352,0.102517500519753,0.134613081812859,0.302083551883698,-40.1458320617676,0.177603751420975,0.219808802008629,0.545831441879272,2011-12-26 21:04:14
1.00723505020142,36,11.0805559158325,0.256172865629196,0.303515940904617,0.619444072246552,9.86111164093018,0.103395231068134,0.123103030025959,0.238889053463936,-40.2472229003906,0.117129258811474,0.146222904324532,0.347221165895462,2011-12-26 21:04:15
1.30293333530426,45,11.0311117172241,0.199012354016304,0.252826035022736,0.768888890743256,9.88888931274414,0.101234629750252,0.11967034637928,0.288888722658157,-39.924446105957,0.144889116287231,0.174044355750084,0.324443221092224,2011-12-26 21:04:16
1.01750004291534,39,11.0538463592529,0.224063068628311,0.261010020971298,0.546154022216797,9.95641040802002,0.106245771050453,0.125667169690132,0.25641068816185,-40.1153869628906,0.0994078740477562,0.120975501835346,0.315386146306992,2011-12-26 21:04:17
1.00342833995819,50,11.3100004196167,0.414800047874451,0.469148188829422,0.790000081062317,9.90200042724609,0.118479914963245,0.147634670138359,0.301999866962433,-40.2019996643066,0.15439960360527,0.189198285341263,0.402001738548279,2011-12-26 21:04:18
1.01787161827087,36,10.9916667938232,0.149073988199234,0.196320310235023,0.508333206176758,9.90000057220459,0.0777779147028923,0.108012415468693,0.200000450015068,-40.0777778625488,0.155555620789528,0.179677188396454,0.422221601009369,2011-12-26 21:04:19
1.00920498371124,44,11.2204542160034,0.246900826692581,0.302699595689774,0.579545557498932,9.85000038146973,0.0931819900870323,0.113818146288395,0.349999606609344,-40.1727294921875,0.129751324653625,0.162876561284065,0.372728854417801,2011-12-26 21:04:21
1.01553332805634,42,10.8190479278564,0.14353746175766,0.18157784640789,0.419047236442566,9.83095264434814,0.130952477455139,0.156582728028297,0.330952644348145,-40.0428581237793,0.100681006908417,0.123718373477459,0.357143133878708,2011-12-26 21:04:22
1.00652670860291,41,11.0634145736694,0.214396223425865,0.303440451622009,0.936585187911987,9.81707382202148,0.102082252502441,0.128599375486374,0.317073434591293,-40.1804885864258,0.149672269821167,0.196579724550247,0.480487734079361,2011-12-26 21:04:23
1.01650667190552,47,11.0340423583984,0.227704852819443,0.261970162391663,0.565957725048065,9.85957527160645,0.0957900807261467,0.126591295003891,0.34042501449585,-40.1595764160156,0.104209654033184,0.124899201095104,0.240425914525986,2011-12-26 21:04:24
1.0031316280365,36,10.9638891220093,0.193672761321068,0.254026234149933,0.763889312744141,9.85277843475342,0.102777905762196,0.123572155833244,0.252777636051178,-40.1222229003906,0.133950188755989,0.165178537368774,0.322223871946335,2011-12-26 21:04:25
1.01556837558746,35,11.1171426773071,0.212897911667824,0.260204017162323,0.517142653465271,9.87142848968506,0.0881633460521698,0.111024886369705,0.328570991754532,-40.0457153320312,0.161306321620941,0.194705352187157,0.454284876585007,2011-12-26 21:04:26
1.00425338745117,48,10.9895839691162,0.284982621669769,0.334315001964569,0.689583361148834,9.83750057220459,0.123437620699406,0.148077994585037,0.437499642372131,-40.1500015258789,0.172916382551193,0.208166673779488,0.450001388788223,2011-12-26 21:04:27
1.00149500370026,36,11.0666666030884,0.175925970077515,0.2236068546772,0.566666841506958,9.96666717529297,0.111110955476761,0.137436792254448,0.333333283662796,-40.0499992370605,0.10833378136158,0.130170837044716,0.250001579523087,2011-12-26 21:04:28
1.00277495384216,37,10.8594598770142,0.230679422616959,0.291741758584976,0.740540742874146,9.8918924331665,0.144339039921761,0.174570366740227,0.391892105340958,-40.1270294189453,0.122570566833019,0.153602570295334,0.372972011566162,2011-12-26 21:04:29
1.00938832759857,44,10.9659090042114,0.264256209135056,0.318336069583893,0.634091079235077,9.85909080505371,0.102892749011517,0.121202781796455,0.259090751409531,-40.2454566955566,0.169007867574692,0.212618246674538,0.554543495178223,2011-12-26 21:04:30
1.01739168167114,50,11.0419998168945,0.232559993863106,0.292636275291443,0.741999924182892,9.95200061798096,0.0860798135399818,0.10628255456686,0.351999938488007,-40.1340026855469,0.123359836637974,0.146437749266624,0.266000598669052,2011-12-26 21:04:31
1.01598334312439,37,11.0189189910889,0.156610652804375,0.195680111646652,0.481080919504166,9.87297344207764,0.131921172142029,0.157082661986351,0.372973144054413,-40.124324798584,0.111321546137333,0.151399418711662,0.424324542284012,2011-12-26 21:04:32
1.00705504417419,46,11.0956525802612,0.343100190162659,0.406446158885956,0.804348170757294,9.86739158630371,0.119565360248089,0.147522151470184,0.367391526699066,-40.045654296875,0.19782629609108,0.235636427998543,0.454347103834152,2011-12-26 21:04:33
1.00285828113556,36,11.0083332061768,0.154629543423653,0.187638774514198,0.4083331823349,9.95555591583252,0.119752958416939,0.146143823862076,0.355555444955826,-40.288890838623,0.15740729868412,0.183753773570061,0.388888239860535,2011-12-26 21:04:34
1.00834500789642,45,11.039999961853,0.305777758359909,0.354902178049088,0.759999871253967,9.95111179351807,0.0833578258752823,0.100271120667458,0.248888432979584,-40.1800003051758,0.171555146574974,0.226666644215584,0.51999968290329,2011-12-26 21:04:35
1.00243663787842,47,10.9872341156006,0.228429079055786,0.287777274847031,0.612766087055206,9.91489410400391,0.135626882314682,0.163705363869667,0.314893454313278,-40.1468086242676,0.189949855208397,0.221071675419807,0.553191542625427,2011-12-26 21:04:36
1.00462329387665,38,10.9236841201782,0.176315814256668,0.203177720308304,0.423684358596802,9.80789470672607,0.0792245268821716,0.100999303162098,0.207894504070282,-40.0894737243652,0.144321754574776,0.181788712739944,0.389473855495453,2011-12-26 21:04:37
1.00360667705536,41,11.0121955871582,0.228911399841309,0.278668612241745,0.587805032730103,9.78536605834961,0.0861393436789513,0.109457664191723,0.214634016156197,-40.0341453552246,0.134206205606461,0.161713138222694,0.365854322910309,2011-12-26 21:04:38
1.0132817029953,40,11.0450000762939,0.216749921441078,0.271983355283737,0.654999613761902,9.82499980926514,0.0787501037120819,0.0968246981501579,0.174999862909317,-40.2000007629395,0.129999473690987,0.162788063287735,0.400001436471939,2011-12-26 21:04:39
1.00862669944763,50,11.1719999313354,0.257759928703308,0.29802006483078,0.827999711036682,9.88199996948242,0.0863201543688774,0.108977161347866,0.218000113964081,-40.1720008850098,0.156479820609093,0.196000128984451,0.471999973058701,2011-12-26 21:04:40
1.01508665084839,39,11.0564107894897,0.221959292888641,0.284465253353119,0.743589758872986,9.90000057220459,0.087179534137249,0.103774897754192,0.200000390410423,-40.1794891357422,0.188297033309937,0.226658716797829,0.479487001895905,2011-12-26 21:04:41
1.01090669631958,44,11.129545211792,0.327686011791229,0.364055216312408,0.670454561710358,9.91363620758057,0.0849172249436378,0.103552602231503,0.213636815547943,-40.1931838989258,0.158367410302162,0.208236992359161,0.493181675672531,2011-12-26 21:04:42
1.00207662582397,39,11.0051288604736,0.20552259683609,0.239602968096733,0.505128443241119,9.83846187591553,0.0907299295067787,0.107692390680313,0.238461390137672,-40.1487197875977,0.111504942178726,0.13936060667038,0.348719567060471,2011-12-26 21:04:43
1.05032503604889,36,11,0.199999988079071,0.250554949045181,0.600000202655792,9.88888931274414,0.0746914595365524,0.0936239063739777,0.211111202836037,-40.0499992370605,0.116667337715626,0.144337892532349,0.350000500679016,2011-12-26 21:04:44
1.01869332790375,47,11.1021280288696,0.121683850884438,0.163068071007729,0.402128010988235,9.80638313293457,0.0722500830888748,0.0976409837603569,0.306383192539215,-40.0978736877441,0.138796105980873,0.17563171684742,0.497870832681656,2011-12-26 21:04:45
1.01022005081177,44,11.2250003814697,0.279545456171036,0.322719246149063,0.675000369548798,9.85454559326172,0.11611583083868,0.135604023933411,0.345454216003418,-40.1613655090332,0.135846704244614,0.164061784744263,0.361365139484406,2011-12-26 21:04:46
1.00930333137512,38,11.1526317596436,0.221883520483971,0.272161602973938,0.647368371486664,9.96578979492188,0.0871190130710602,0.105820901691914,0.265789866447449,-40.0973701477051,0.134626358747482,0.169343575835228,0.397368282079697,2011-12-26 21:04:47
1.24902832508087,50,10.9040002822876,0.256799966096878,0.328000009059906,0.795999646186829,9.78999996185303,0.100800141692162,0.133041426539421,0.40999960899353,-40.1160011291504,0.202719777822495,0.235252976417542,0.515998244285583,2011-12-26 21:04:48
1.00645172595978,47,11.0361700057983,0.274060606956482,0.33670836687088,0.76382976770401,9.88297939300537,0.119601771235466,0.149209544062614,0.317020833492279,-40.1914901733398,0.112991876900196,0.15687058866024,0.491489499807358,2011-12-26 21:04:49
1.00206661224365,38,11.3789472579956,0.265651017427444,0.34728866815567,0.978947043418884,9.93947410583496,0.0878114774823189,0.103972278535366,0.260525822639465,-40.2342109680176,0.167589902877808,0.204265668988228,0.434211939573288,2011-12-26 21:04:50
1.01796662807465,39,10.9615383148193,0.198421984910965,0.245592251420021,0.561538100242615,9.9282054901123,0.109533071517944,0.133874595165253,0.328204900026321,-40.0769233703613,0.0966474711894989,0.116490468382835,0.276924610137939,2011-12-26 21:04:51
1.00930500030518,36,10.8027782440186,0.16404327750206,0.192189320921898,0.402777433395386,9.85277843475342,0.093981646001339,0.11422722786665,0.252777695655823,-40.0750007629395,0.112500257790089,0.13202466070652,0.275001734495163,2011-12-26 21:04:52
1.12322163581848,44,11.1750001907349,0.219318076968193,0.260353714227676,0.574999868869781,9.82045459747314,0.111467115581036,0.13747663795948,0.27954563498497,-40.106819152832,0.171073973178864,0.204936251044273,0.506816625595093,2011-12-26 21:04:53
1.01054668426514,51,11.1274509429932,0.203767716884613,0.263519525527954,0.67254900932312,9.84117698669434,0.0782008394598961,0.0911291390657425,0.158823311328888,-40.1294136047363,0.152710050344467,0.191274434328079,0.429411947727203,2011-12-26 21:04:54
1.01688838005066,39,11.1871795654297,0.261275410652161,0.318795442581177,0.712820887565613,9.89487171173096,0.0891519635915756,0.129987567663193,0.305127710103989,-40.0769233703613,0.14003998041153,0.176085218787193,0.376923203468323,2011-12-26 21:04:55
1.01886332035065,40,11.0050001144409,0.211249962449074,0.246931165456772,0.595000207424164,9.85000038146973,0.117500081658363,0.146628811955452,0.350000262260437,-40.0950012207031,0.171000063419342,0.206094518303871,0.404999077320099,2011-12-26 21:04:56
1.01489496231079,40,11.0799999237061,0.190000012516975,0.230434387922287,0.520000159740448,9.81750011444092,0.108625076711178,0.139440894126892,0.282500207424164,-40.0475006103516,0.160125344991684,0.199984297156334,0.452499210834503,2011-12-26 21:04:57
1.19954168796539,49,11.08571434021,0.233236193656921,0.276272624731064,0.514285922050476,9.85102081298828,0.0969597548246384,0.121424354612827,0.348979145288467,-40.1632652282715,0.135442987084389,0.162497863173485,0.336733609437943,2011-12-26 21:04:58
1.01632165908813,49,11.1693878173828,0.209579288959503,0.247604072093964,0.569387555122375,9.88775539398193,0.111453630030155,0.128781870007515,0.287754893302917,-40.1428565979004,0.13527649641037,0.165368974208832,0.457144200801849,2011-12-26 21:04:59
1.01548337936401,40,11.102499961853,0.20787501335144,0.249487042427063,0.602500259876251,9.87750053405762,0.0997501239180565,0.117233827710152,0.222500175237656,-40.2150001525879,0.14924943447113,0.183779552578926,0.415001302957535,2011-12-26 21:05:00
1.01490998268127,45,11.1111116409302,0.301234513521194,0.351645141839981,0.688888907432556,9.88444423675537,0.10241986811161,0.128158897161484,0.31555512547493,-40.2755546569824,0.181629315018654,0.219246566295624,0.524442732334137,2011-12-26 21:05:01
1.00216329097748,41,11,0.170731648802757,0.212992534041405,0.599999666213989,9.83414649963379,0.124449849128723,0.152395188808441,0.334146559238434,-40.075611114502,0.153123557567596,0.190993010997772,0.424389451742172,2011-12-26 21:05:02
1.01500165462494,45,11.0644445419312,0.291259318590164,0.338070094585419,0.664444088935852,9.80666732788086,0.0669631212949753,0.0928560495376587,0.206666529178619,-40.1599998474121,0.202666506171227,0.24349319934845,0.660000681877136,2011-12-26 21:05:04
1.00918161869049,50,10.9680004119873,0.155999884009361,0.202425271272659,0.53199976682663,9.91600036621094,0.0771198496222496,0.102683953940868,0.315999954938889,-40.0800018310547,0.144800290465355,0.180000007152557,0.380000293254852,2011-12-26 21:05:05
1.00189828872681,33,10.9060611724854,0.152800709009171,0.198386609554291,0.493939787149429,9.83030319213867,0.0870524346828461,0.111422963440418,0.330303192138672,-40.1181831359863,0.131129220128059,0.171366304159164,0.418182015419006,2011-12-26 21:05:06
1.00803005695343,44,11.0295457839966,0.329028934240341,0.365301609039307,0.629545152187347,9.89772796630859,0.111880242824554,0.14692085981369,0.302272260189056,-40.1386375427246,0.174689933657646,0.210211783647537,0.661361932754517,2011-12-26 21:05:07
1.17552995681763,43,10.9674425125122,0.219253659248352,0.253093391656876,0.467442065477371,9.87441921234131,0.115846551954746,0.146419391036034,0.274418532848358,-40.1465110778809,0.113033570349216,0.136992007493973,0.353487759828568,2011-12-26 21:05:08
1.0148116350174,52,11.0519227981567,0.37285503745079,0.414863467216492,0.751923024654388,9.82692337036133,0.122633196413517,0.152056932449341,0.373076587915421,-40.1519241333008,0.173002630472183,0.215272888541222,0.551921486854553,2011-12-26 21:05:09
1.01395165920258,37,11.1108112335205,0.280204445123672,0.336744159460068,0.689189195632935,9.81351375579834,0.0870710611343384,0.101774096488953,0.186486348509789,-40.1054077148438,0.13133630156517,0.167567446827888,0.394593715667725,2011-12-26 21:05:10
1.0093582868576,42,11.1190481185913,0.18480721116066,0.232213109731674,0.519047379493713,9.82857131958008,0.127891317009926,0.157790958881378,0.371428161859512,-40.1238098144531,0.0986388325691223,0.130583584308624,0.376189380884171,2011-12-26 21:05:11
1.0476883649826,47,11.0255317687988,0.271887809038162,0.320550203323364,0.725531935691833,9.82127666473389,0.0931644961237907,0.116575658321381,0.321276932954788,-40.1531944274902,0.118423834443092,0.149965584278107,0.353193312883377,2011-12-26 21:05:12
1.06216669082642,40,11.2075004577637,0.3386250436306,0.399617046117783,0.792499899864197,9.88500022888184,0.0965000838041306,0.121552459895611,0.314999550580978,-40.1324996948242,0.185749650001526,0.229551017284393,0.5324986577034,2011-12-26 21:05:13
1.00099670886993,52,11.0211544036865,0.28920117020607,0.35966682434082,0.878846526145935,9.9096155166626,0.138017699122429,0.163212493062019,0.390384614467621,-40.1038475036621,0.108431361615658,0.137227118015289,0.303847819566727,2011-12-26 21:05:14
1.00577998161316,38,11.1184215545654,0.278254836797714,0.33861580491066,0.681578934192657,9.81842136383057,0.0811635628342628,0.104768641293049,0.218420907855034,-40.1921081542969,0.151661425828934,0.214453369379044,0.507894515991211,2011-12-26 21:05:15
1.01709496974945,39,11.0846157073975,0.286390513181686,0.347547024488449,0.784615397453308,9.82820510864258,0.0765288174152374,0.0904370695352554,0.228205025196075,-40.0717964172363,0.122551329433918,0.161640167236328,0.471793740987778,2011-12-26 21:05:16
1.01672327518463,45,10.8266668319702,0.165037140250206,0.202649116516113,0.526666641235352,9.89111137390137,0.125827327370644,0.15466420352459,0.30888843536377,-40.0866661071777,0.118222519755363,0.145449340343475,0.313333988189697,2011-12-26 21:05:17
1.00698661804199,50,11.0740003585815,0.314000010490417,0.372456699609756,0.726000010967255,9.90999984741211,0.108399875462055,0.14456832408905,0.309999883174896,-40.1259994506836,0.121279671788216,0.158505544066429,0.474001228809357,2011-12-26 21:05:18
1.00010001659393,40,11.0425004959106,0.291000068187714,0.339770168066025,0.757500052452087,9.83750057220459,0.0981251448392868,0.119765490293503,0.262500166893005,-40.1399993896484,0.114999487996101,0.142828300595284,0.440000057220459,2011-12-26 21:05:19
1.01321160793304,40,11.1225004196167,0.169749945402145,0.209150090813637,0.422500312328339,9.8125,0.0806251615285873,0.102926060557365,0.212499856948853,-40.2675018310547,0.122374437749386,0.152294814586639,0.332501709461212,2011-12-26 21:05:20
1.00917494297028,45,11.0244445800781,0.220543161034584,0.260047435760498,0.62444394826889,9.84000015258789,0.0960001274943352,0.116237364709377,0.260000139474869,-40.2000007629395,0.0977771803736687,0.119256563484669,0.200000926852226,2011-12-26 21:05:21
1.010786652565,51,11.0823526382446,0.229065716266632,0.280549764633179,0.61764669418335,9.88823509216309,0.110496066510677,0.130830094218254,0.31176432967186,-40.105884552002,0.151556491851807,0.184083729982376,0.50588071346283,2011-12-26 21:05:22
1.02054500579834,38,10.997368812561,0.213711887598038,0.263065755367279,0.602631807327271,9.87894725799561,0.075069397687912,0.0950288698077202,0.221052721142769,-40.1131591796875,0.141550824046135,0.177957639098167,0.413158118724823,2011-12-26 21:05:23
1.00388669967651,39,10.8820514678955,0.233793646097183,0.280906826257706,0.582051336765289,9.89230823516846,0.102169722318649,0.136597141623497,0.392307907342911,-40.0641021728516,0.0936232656240463,0.112060718238354,0.264104396104813,2011-12-26 21:05:24
1.00032830238342,41,11.1365852355957,0.237953573465347,0.296940594911575,0.963414788246155,9.90487861633301,0.0842354521155357,0.108090378344059,0.204878479242325,-40.1219520568848,0.168232992291451,0.226868495345116,0.678047180175781,2011-12-26 21:05:25
1.10136497020721,46,11.0326089859009,0.210775032639503,0.246765479445457,0.467391133308411,9.8847827911377,0.10614375770092,0.128481790423393,0.284782439470291,-40.052173614502,0.130435109138489,0.155674025416374,0.347826570272446,2011-12-26 21:05:26
1.01224339008331,51,11.0960788726807,0.243214145302773,0.293699026107788,0.703921616077423,9.86078453063965,0.121491804718971,0.146967306733131,0.360784560441971,-40.1000022888184,0.129412084817886,0.164495661854744,0.400000095367432,2011-12-26 21:05:27
1.00232172012329,40,11.0725002288818,0.201625034213066,0.244936272501945,0.527500152587891,9.86999988555908,0.107000090181828,0.122882142663002,0.230000212788582,-40.25,0.129999577999115,0.16583114862442,0.450000107288361,2011-12-26 21:05:28
1.00487494468689,39,10.9307689666748,0.21262326836586,0.278414815664291,0.769230425357819,9.90512847900391,0.114792846143246,0.144911527633667,0.30512809753418,-40.1230773925781,0.12978284060955,0.167119920253754,0.376922130584717,2011-12-26 21:05:29
1.10987496376038,44,11.0522727966309,0.345351338386536,0.390505939722061,0.652272343635559,9.80681800842285,0.13016539812088,0.176323235034943,0.506818234920502,-40.1522750854492,0.156611427664757,0.187675565481186,0.352274030447006,2011-12-26 21:05:30
1.18952834606171,46,11.1282606124878,0.215217337012291,0.24730110168457,0.528260707855225,9.87826156616211,0.0548205450177193,0.0777763351798058,0.278260886669159,-40.1543502807617,0.12117125838995,0.144020095467567,0.254347085952759,2011-12-26 21:05:31
1.01351499557495,49,10.9244899749756,0.202498853206635,0.250330835580826,0.575509965419769,9.86530590057373,0.095377080142498,0.111668385565281,0.234694048762321,-40.2571449279785,0.131194770336151,0.159078702330589,0.35714191198349,2011-12-26 21:05:32
1.01661670207977,47,11.2191486358643,0.331009447574615,0.376793920993805,0.819148540496826,9.87021255493164,0.121502980589867,0.139779314398766,0.329786896705627,-40.1680870056152,0.177274435758591,0.212489202618599,0.431916326284409,2011-12-26 21:05:33
1.01134836673737,38,11.081579208374,0.242797747254372,0.274202436208725,0.518421173095703,9.86842155456543,0.115512564778328,0.145286053419113,0.368421286344528,-40.2131576538086,0.156647637486458,0.19080263376236,0.313157141208649,2011-12-26 21:05:34
1.02016830444336,39,11,0.246153891086578,0.293519794940948,0.599999606609344,9.90769290924072,0.126627132296562,0.155883952975273,0.307692110538483,-40.1076927185059,0.127415716648102,0.157520055770874,0.30769407749176,2011-12-26 21:05:35
1.00151669979095,41,11.0707321166992,0.164544865489006,0.201511204242706,0.429268032312393,9.90243911743164,0.115288428962231,0.147313892841339,0.297560632228851,-40.0951232910156,0.152052477002144,0.188642159104347,0.404877454042435,2011-12-26 21:05:36
1.01600503921509,50,11.1360006332397,0.174559950828552,0.211433231830597,0.535999774932861,9.91600036621094,0.111199907958508,0.140513390302658,0.315999865531921,-40.1060028076172,0.138959214091301,0.175965428352356,0.50599867105484,2011-12-26 21:05:37
1.01029670238495,45,11.1844444274902,0.314370304346085,0.365121304988861,0.684444546699524,9.85111141204834,0.103407517075539,0.129309713840485,0.351111352443695,-40.195556640625,0.147555202245712,0.177583083510399,0.39555698633194,2011-12-26 21:05:38
1.01969170570374,36,10.8944444656372,0.206172898411751,0.237982764840126,0.494444072246552,9.85000038146973,0.127777889370918,0.157233044505119,0.350000262260437,-40.0361137390137,0.10277833044529,0.120537832379341,0.263886988162994,2011-12-26 21:05:39
1.02230834960938,44,11.0454549789429,0.345041304826736,0.410351574420929,0.754545450210571,9.82954597473145,0.142665475606918,0.176557555794716,0.329545676708221,-40.0363655090332,0.143802344799042,0.175927668809891,0.363637059926987,2011-12-26 21:05:41
1.01233494281769,46,10.8804349899292,0.251701384782791,0.29163670539856,0.519565582275391,9.93043518066406,0.0956520587205887,0.108085229992867,0.23043517768383,-40.0956535339355,0.162760034203529,0.218648239970207,0.695651412010193,2011-12-26 21:05:42
1.01025497913361,37,10.9270277023315,0.172680675983429,0.213906541466713,0.472973316907883,9.92702770233154,0.0876550748944283,0.108175612986088,0.272972494363785,-40.1270294189453,0.0891154333949089,0.108175188302994,0.22702644765377,2011-12-26 21:05:43
1.00501501560211,40,10.8775005340576,0.225250035524368,0.262190282344818,0.522500455379486,9.86250019073486,0.0762501657009125,0.0913442373275757,0.237500101327896,-40.1474990844727,0.132499605417252,0.154898911714554,0.352499306201935,2011-12-26 21:05:44
1.01695334911346,43,11.1627912521362,0.292157918214798,0.338274210691452,0.737209677696228,9.88837242126465,0.130340814590454,0.155831351876259,0.288371950387955,-40.1744194030762,0.16105979681015,0.206963866949081,0.42558279633522,2011-12-26 21:05:45
1.00225496292114,40,11.0174999237061,0.309249997138977,0.354885548353195,0.78249990940094,9.92250061035156,0.0692498311400414,0.0879985392093658,0.222500517964363,-40.122501373291,0.12199954688549,0.158882707357407,0.377499103546143,2011-12-26 21:05:46
1.00233995914459,47,10.9553194046021,0.190764933824539,0.221991419792175,0.455319285392761,9.92340469360352,0.0959708690643311,0.120659053325653,0.323404133319855,-40.1765975952148,0.118243157863617,0.150478228926659,0.376597136259079,2011-12-26 21:05:47
1.00100994110107,36,11.0222225189209,0.211111143231392,0.265739172697067,0.577777981758118,9.86666679382324,0.0925926715135574,0.113038837909698,0.266666531562805,-40.1222229003906,0.112345278263092,0.135628238320351,0.322223782539368,2011-12-26 21:05:48
1.01514995098114,42,11.0571432113647,0.229931905865669,0.270926833152771,0.642856776714325,9.91428565979004,0.103401251137257,0.130149066448212,0.285713881254196,-40.0976181030273,0.122109279036522,0.165454760193825,0.402379989624023,2011-12-26 21:05:49
1.08989834785461,38,11.1105260848999,0.281163483858109,0.339341133832932,0.789474070072174,9.96842098236084,0.0997228845953941,0.11721608042717,0.268421500921249,-40.0894737243652,0.164820402860641,0.203637436032295,0.410525560379028,2011-12-26 21:05:50
1.0147533416748,49,11.0367345809937,0.191920071840286,0.227402329444885,0.463265061378479,9.88367366790771,0.0743858069181442,0.0955050364136696,0.216326609253883,-40.0857162475586,0.12011706829071,0.160356730222702,0.485712945461273,2011-12-26 21:05:51
1.00441336631775,36,10.9000005722046,0.233333334326744,0.290593206882477,0.599999964237213,9.88611125946045,0.0884260237216949,0.110937371850014,0.31388846039772,-40.1527786254883,0.139042854309082,0.173982873558998,0.447223782539368,2011-12-26 21:05:52
1.00178003311157,37,10.9918918609619,0.225858211517334,0.273494213819504,0.608108341693878,9.93243312835693,0.0764059349894524,0.0960124507546425,0.267567098140717,-40.1486511230469,0.1097147539258,0.132790252566338,0.34865003824234,2011-12-26 21:05:53
1.13438165187836,42,10.8833332061768,0.225396901369095,0.266294419765472,0.616666495800018,9.93571472167969,0.0996597558259964,0.119166612625122,0.264285236597061,-40.0095252990723,0.153741642832756,0.18874192237854,0.409522294998169,2011-12-26 21:05:54
1.01931667327881,45,11.0044441223145,0.177679046988487,0.207584619522095,0.404444217681885,9.93111133575439,0.127604886889458,0.150291904807091,0.331111013889313,-40.0311126708984,0.117630138993263,0.142707720398903,0.368889361619949,2011-12-26 21:05:55
1.0008533000946,38,11.0236845016479,0.214404374361038,0.25071918964386,0.52368438243866,9.87894725799561,0.0980611070990562,0.119556084275246,0.221052765846252,-40.0526313781738,0.104709729552269,0.125104129314423,0.252633541822433,2011-12-26 21:05:56
1.01099336147308,38,11.105263710022,0.173684120178223,0.202546089887619,0.405263513326645,9.82368469238281,0.0893354117870331,0.101136416196823,0.176315605640411,-40.0999984741211,0.14210569858551,0.177704781293869,0.399999618530273,2011-12-26 21:05:57
1.00117337703705,36,11.0138893127441,0.243209913372993,0.299214512109756,0.513889014720917,9.85833358764648,0.133796349167824,0.163935944437981,0.358333498239517,-40.1861114501953,0.14799328148365,0.173449710011482,0.486111104488373,2011-12-26 21:05:58
1.01067495346069,48,10.9458332061768,0.206076294183731,0.248292773962021,0.454167038202286,9.84583377838135,0.0769098773598671,0.0956520810723305,0.254166752099991,-40.0375022888184,0.141667053103447,0.176334127783775,0.437498569488525,2011-12-26 21:05:59
1.00769829750061,37,11.0216217041016,0.139225721359253,0.178787395358086,0.47837820649147,9.92702770233154,0.111322030425072,0.134864583611488,0.327026844024658,-40.2000007629395,0.0972969308495522,0.135566711425781,0.40000131726265,2011-12-26 21:06:00
1.00273501873016,43,10.9627904891968,0.228772237896919,0.260610401630402,0.462790906429291,9.88372135162354,0.101135842502117,0.117987520992756,0.216279253363609,-40.0534896850586,0.0990812331438065,0.12822388112545,0.353488475084305,2011-12-26 21:06:01
1.06820833683014,36,10.9138889312744,0.271759361028671,0.308358490467072,0.486111521720886,9.92500019073486,0.108333244919777,0.129903852939606,0.274999648332596,-40.0666656494141,0.137037515640259,0.166666820645332,0.366666585206985,2011-12-26 21:06:02
1.00852835178375,44,10.9659090042114,0.203822270035744,0.243033096194267,0.53409069776535,9.90909099578857,0.0714874342083931,0.0949118137359619,0.290908604860306,-40.143180847168,0.133470520377159,0.158684268593788,0.356817424297333,2011-12-26 21:06:03
1.01007497310638,35,10.9514284133911,0.289959192276001,0.328086614608765,0.551428139209747,9.83714294433594,0.107592009007931,0.124408893287182,0.237142786383629,-40.1514282226562,0.12146882712841,0.153755277395248,0.348570585250854,2011-12-26 21:06:04
1.00513827800751,38,11.163158416748,0.236842036247253,0.286007940769196,0.63684207201004,9.87894725799561,0.0991691052913666,0.121737264096737,0.278947234153748,-40.1105270385742,0.127423539757729,0.160245686769485,0.389472961425781,2011-12-26 21:06:05
1.00133168697357,37,10.9945945739746,0.28005838394165,0.354847460985184,0.80540543794632,9.81891918182373,0.0819578096270561,0.100909076631069,0.218918770551682,-40.0243263244629,0.180277734994888,0.2198346555233,0.52432519197464,2011-12-26 21:06:06
1.00660502910614,50,10.8480005264282,0.237760037183762,0.293421179056168,0.851999640464783,9.76000022888184,0.128000125288963,0.156205013394356,0.359999626874924,-40.0299987792969,0.174800336360931,0.20808669924736,0.469999313354492,2011-12-26 21:06:07
1.01985502243042,38,10.9947366714478,0.236010953783989,0.288322985172272,0.705262780189514,9.78157901763916,0.10886438190937,0.137372463941574,0.418420732021332,-40.1473693847656,0.13961161673069,0.165014579892159,0.352631121873856,2011-12-26 21:06:08
1.01001334190369,39,11.0410261154175,0.189875066280365,0.240424811840057,0.55897456407547,9.88974380493164,0.0957265868782997,0.127691268920898,0.310255944728851,-40.0846176147461,0.159369379281998,0.195512101054192,0.415383845567703,2011-12-26 21:06:09
1.01611495018005,42,11.1119050979614,0.210204020142555,0.275337398052216,0.91190505027771,9.84523868560791,0.108843699097633,0.129472285509109,0.25476211309433,-40.1000022888184,0.109524235129356,0.141421318054199,0.400000065565109,2011-12-26 21:06:10
1.00171661376953,48,10.9250001907349,0.223958313465118,0.27424144744873,0.574999809265137,9.83333396911621,0.127777934074402,0.162446647882462,0.466666609048843,-40.1104164123535,0.129253014922142,0.166131883859634,0.410416930913925,2011-12-26 21:06:11
1.00693500041962,39,10.9769229888916,0.177514687180519,0.230341494083405,0.623077094554901,9.89487171173096,0.0837607905268669,0.110821463167667,0.305127769708633,-40.1282043457031,0.144641399383545,0.167865455150604,0.328206688165665,2011-12-26 21:06:12
1.01875495910645,42,11.0309524536133,0.206802740693092,0.258648633956909,0.869047999382019,9.88095283508301,0.119954824447632,0.143490791320801,0.319047212600708,-40.2023811340332,0.12687049806118,0.158095955848694,0.397620439529419,2011-12-26 21:06:13
1.00771999359131,44,10.997727394104,0.256714791059494,0.320148110389709,0.802272796630859,9.90454578399658,0.128305673599243,0.163699448108673,0.304545313119888,-40.1840934753418,0.140082076191902,0.162289083003998,0.384092509746552,2011-12-26 21:06:14
1.01725661754608,44,11.0386362075806,0.259607404470444,0.300163507461548,0.6386359333992,9.875,0.0795456320047379,0.100283809006214,0.225000098347664,-40.1227264404297,0.123760037124157,0.150549963116646,0.322728842496872,2011-12-26 21:06:15
1.00637996196747,51,11.0039215087891,0.219992339611053,0.252796798944473,0.496078252792358,9.89607906341553,0.0875818207859993,0.111953809857368,0.20392170548439,-40.1117668151855,0.140253245830536,0.193671405315399,0.611765623092651,2011-12-26 21:06:16
1.18401002883911,34,11.0176467895508,0.309688568115234,0.365795344114304,0.617646634578705,9.88529396057129,0.0963669270277023,0.128640800714493,0.314705431461334,-40.1294136047363,0.137023851275444,0.1600172072649,0.329413026571274,2011-12-26 21:06:17
1.01281332969666,49,10.8693876266479,0.18067479133606,0.223336562514305,0.730612456798553,9.86122512817383,0.108954750001431,0.133731976151466,0.361224710941315,-40.134693145752,0.231486797332764,0.282518625259399,0.765306830406189,2011-12-26 21:06:18
1.00808000564575,32,10.8500003814697,0.209375068545341,0.257390797138214,0.550000369548798,9.859375,0.115625113248825,0.141110315918922,0.34062460064888,-40.0593757629395,0.141992419958115,0.172951027750969,0.459373593330383,2011-12-26 21:06:19
1.00442171096802,41,11.0024394989014,0.251516908407211,0.308013081550598,0.697560608386993,9.88780498504639,0.0892327651381493,0.13102813065052,0.412195056676865,-40.1268310546875,0.195002868771553,0.23271931707859,0.473172247409821,2011-12-26 21:06:20
1.01095831394196,49,10.9775514602661,0.240566447377205,0.283754229545593,0.622449159622192,9.8551025390625,0.0952104702591896,0.114395089447498,0.255101889371872,-40.1142883300781,0.184256628155708,0.222233921289444,0.485715746879578,2011-12-26 21:06:21
1.01293838024139,35,10.9657144546509,0.172408178448677,0.199918448925018,0.434286117553711,9.89428615570068,0.0986123457551003,0.124080330133438,0.294285595417023,-40.1599998474121,0.114285126328468,0.149666041135788,0.440001249313354,2011-12-26 21:06:22
1.11251831054688,39,10.8692312240601,0.220907360315323,0.268092840909958,0.569230794906616,9.90512847900391,0.103221446275711,0.129987612366676,0.305128037929535,-39.9589767456055,0.140434056520462,0.165975093841553,0.341023951768875,2011-12-26 21:06:23
1.01840829849243,38,11.2736845016479,0.255401760339737,0.308377981185913,0.62631618976593,9.94736862182617,0.115789338946342,0.142785847187042,0.352631539106369,-40.2105255126953,0.12853142619133,0.163497060537338,0.389475256204605,2011-12-26 21:06:24
1.01045668125153,40,11.0075006484985,0.164000064134598,0.212588265538216,0.507500171661377,9.81500053405762,0.080250158905983,0.103802852332592,0.285000205039978,-40.1975021362305,0.12799945473671,0.168058469891548,0.402501404285431,2011-12-26 21:06:25
1.01126837730408,48,11.0541667938232,0.257986098527908,0.340317457914352,0.945833146572113,9.85624980926514,0.0937501564621925,0.113479644060135,0.256249874830246,-40.1187515258789,0.163541376590729,0.202748000621796,0.481251388788223,2011-12-26 21:06:26
1.01275670528412,30,10.9033336639404,0.203555449843407,0.249644115567207,0.603333353996277,9.77666664123535,0.108000159263611,0.138283208012581,0.276666760444641,-40.1633338928223,0.152444079518318,0.185262322425842,0.536666989326477,2011-12-26 21:06:27
1.00912833213806,37,11.062162399292,0.211833417415619,0.259262233972549,0.662161827087402,9.84054088592529,0.090285062789917,0.107702076435089,0.259459584951401,-40.1000022888184,0.135135293006897,0.169258907437325,0.500001668930054,2011-12-26 21:06:28
1.00547504425049,48,10.9895839691162,0.167187422513962,0.217216804623604,0.689583361148834,9.85000038146973,0.0812502130866051,0.0978946834802628,0.250000089406967,-40.154167175293,0.137846648693085,0.159371376037598,0.354168266057968,2011-12-26 21:06:29
1.01275503635406,43,11.125581741333,0.353055745363235,0.412644952535629,0.825581431388855,9.83255863189697,0.109248362481594,0.135922282934189,0.332558393478394,-40.253490447998,0.206057190895081,0.236592903733253,0.446511298418045,2011-12-26 21:06:31
1.01641833782196,41,10.9829273223877,0.2061867415905,0.253658503293991,0.582926452159882,9.82439041137695,0.101844295859337,0.120528355240822,0.224390149116516,-40.0341453552246,0.135872006416321,0.164702147245407,0.365854412317276,2011-12-26 21:06:32
1.00717496871948,42,11.0666666030884,0.315873056650162,0.356348365545273,0.666666269302368,9.81190490722656,0.105782404541969,0.145081922411919,0.411904364824295,-40.045238494873,0.162131607532501,0.194204345345497,0.445236653089523,2011-12-26 21:06:33
1.01732838153839,49,11.0673475265503,0.206080809235573,0.241920724511147,0.567347168922424,9.79795932769775,0.076135128736496,0.107835628092289,0.302041053771973,-40.0408172607422,0.160766765475273,0.189433634281158,0.459182888269424,2011-12-26 21:06:34
1.00826668739319,30,10.9766664505005,0.185999944806099,0.255190581083298,0.776667058467865,9.98000049591064,0.0986665561795235,0.124899946153164,0.280000388622284,-40.1300010681152,0.129999414086342,0.153079181909561,0.330001205205917,2011-12-26 21:06:35
1.01277828216553,45,11.1377782821655,0.444740623235703,0.486387461423874,0.762222588062286,9.83777809143066,0.0875063538551331,0.106016665697098,0.262222319841385,-40.1933326721191,0.157629013061523,0.208059504628181,0.606664955615997,2011-12-26 21:06:36
1.00546336174011,38,10.9789476394653,0.168698072433472,0.202819511294365,0.478947520256042,9.94736862182617,0.123268589377403,0.148211851716042,0.352631509304047,-40.065788269043,0.160665407776833,0.188172116875648,0.334211349487305,2011-12-26 21:06:37
1.00614500045776,44,10.9250001907349,0.269318163394928,0.320599585771561,0.774999618530273,9.93636417388916,0.118594951927662,0.146304354071617,0.363636314868927,-40.1113662719727,0.195764154195786,0.250649899244308,0.588636219501495,2011-12-26 21:06:38
1.0046067237854,48,10.8187503814697,0.302864581346512,0.365522563457489,0.718749821186066,9.96458339691162,0.080034539103508,0.0946254506707191,0.235416188836098,-40.0770835876465,0.104948423802853,0.132664367556572,0.322917133569717,2011-12-26 21:06:39
1.00214004516602,38,11.1105260848999,0.191135585308075,0.235963195562363,0.589473247528076,9.93157958984375,0.152354493737221,0.180795401334763,0.368421077728271,-40.0315780639648,0.108310520648956,0.129990369081497,0.268419563770294,2011-12-26 21:06:40
1.01894998550415,41,11.0024394989014,0.178346201777458,0.220296621322632,0.497560799121857,9.79268264770508,0.0873291194438934,0.1112901866436,0.207316905260086,-40.0804901123047,0.172159641981125,0.201481729745865,0.419511556625366,2011-12-26 21:06:41
1.00744998455048,38,10.9421052932739,0.294736742973328,0.339218527078629,0.757894337177277,9.91315841674805,0.109972171485424,0.139870345592499,0.313157707452774,-40.1394729614258,0.14681401848793,0.172503814101219,0.360525518655777,2011-12-26 21:06:42
1.01367831230164,49,10.9693880081177,0.335193663835526,0.38555771112442,0.730611860752106,9.86122512817383,0.130945593118668,0.158843234181404,0.338775098323822,-40.1102066040039,0.19983321428299,0.233207330107689,0.489797472953796,2011-12-26 21:06:43
1.0078467130661,29,10.7551727294922,0.136742115020752,0.169352173805237,0.444827318191528,9.93793106079102,0.124613456428051,0.14951366186142,0.337930917739868,-40.1034507751465,0.142211273312569,0.171167626976967,0.396550804376602,2011-12-26 21:06:44
1.01900494098663,38,10.9473686218262,0.134071931242943,0.180258378386497,0.652631759643555,9.90526390075684,0.106648147106171,0.135622173547745,0.305263042449951,-40.1447372436523,0.100276716053486,0.127108186483383,0.355262160301208,2011-12-26 21:06:45
1.00767838954926,44,10.993182182312,0.322004109621048,0.370747268199921,0.693181812763214,9.91590976715088,0.0922519639134407,0.114699624478817,0.215909540653229,-40.0659103393555,0.135744333267212,0.169146656990051,0.365909218788147,2011-12-26 21:06:46
1.08796334266663,50,10.8819999694824,0.27400004863739,0.325385928153992,0.682000398635864,9.84600067138672,0.100160144269466,0.115256316959858,0.245999813079834,-40.0240020751953,0.13984040915966,0.171534404158592,0.376000761985779,2011-12-26 21:06:47
1.00389504432678,50,11.0340003967285,0.266080021858215,0.337407797574997,0.766000032424927,9.84600067138672,0.100160159170628,0.126822799444199,0.346000283956528,-40.1700019836426,0.151199609041214,0.20808644592762,0.730000674724579,2011-12-26 21:06:48
1.02030837535858,37,11.0648651123047,0.196347653865814,0.247382149100304,0.635134696960449,9.87837886810303,0.0905772224068642,0.116561464965343,0.321621179580688,-40.1594619750977,0.107523113489151,0.130403339862823,0.259459108114243,2011-12-26 21:06:49
1.00116169452667,39,9.85897445678711,0.971203148365021,1.19758689403534,3.35897445678711,10.0307693481445,0.192899376153946,0.251308172941208,0.669230401515961,-40.0923080444336,0.147140458226204,0.177424237132072,0.307693094015121,2011-12-26 21:06:50
1.01028668880463,46,-2.54130434989929,4.6221170425415,5.25239419937134,8.74130439758301,13.3217391967773,1.48695647716522,1.66666972637177,2.62173938751221,-34.9717407226562,2.800945520401,3.2155647277832,5.22826099395752,2011-12-26 21:06:51
1.00366163253784,37,-12.3324327468872,0.766837120056152,0.935213267803192,1.83243250846863,15.5405406951904,0.139956131577492,0.165152549743652,0.359459817409515,-29.4162158966064,0.35704892873764,0.438987523317337,1.08378338813782,2011-12-26 21:06:52
1.01933836936951,40,-15.2550001144409,0.959499955177307,1.05402791500092,1.85499978065491,15.7425003051758,0.0896251797676086,0.106975607573986,0.242500141263008,-28.0575008392334,0.477499961853027,0.540318191051483,1.05750036239624,2011-12-26 21:06:53
1.00746667385101,42,-18.6238098144531,0.722902595996857,0.912299454212189,2.0238094329834,16.5952377319336,0.299999952316284,0.33943384885788,0.604762196540833,-24.5738105773926,0.837755084037781,1.04221820831299,2.42619013786316,2011-12-26 21:06:54
1.01062834262848,49,-14.8979597091675,2.86755537986755,3.27242588996887,6.19795989990234,16.210205078125,0.821824431419373,0.884387493133545,1.41020429134369,-28.9306125640869,3.45164513587952,3.75468182563782,5.66938924789429,2011-12-26 21:06:55
1.01724171638489,25,-4.70800018310547,1.6515200138092,1.88359653949738,3.49199962615967,16.068000793457,0.256960213184357,0.314604669809341,0.568000376224518,-36.2120018005371,0.431679427623749,0.560941815376282,1.41200113296509,2011-12-26 21:06:56
1.01094830036163,36,-0.336111128330231,1.40679013729095,1.49650573730469,2.86388897895813,16.0083332061768,0.264351963996887,0.306752771139145,0.508333623409271,-37.7055549621582,0.571296334266663,0.632431209087372,1.10555410385132,2011-12-26 21:06:57
1.00476336479187,41,2.34634160995483,0.421891748905182,0.541946589946747,1.34634149074554,15.2414636611938,0.191314801573753,0.223034143447876,0.441463500261307,-38.941463470459,0.255443245172501,0.35542893409729,0.958537518978119,2011-12-26 21:06:58
1.19243502616882,41,2.92195129394531,0.413325428962708,0.508710622787476,1.02195131778717,14.5634145736694,0.221058964729309,0.267560064792633,0.536585628986359,-40.0243911743164,0.639619410037994,0.731113612651825,1.47560918331146,2011-12-26 21:06:59
1.0405867099762,44,1.74318182468414,0.214049607515335,0.278304725885391,0.656818270683289,13.6999998092651,0.145454600453377,0.190692499279976,0.499999731779099,-39.3545455932617,0.111157476902008,0.133917465806007,0.25454381108284,2011-12-26 21:07:00
1.01928496360779,49,1.72244906425476,0.300041645765305,0.367709577083588,0.777550995349884,13.9020414352417,0.0843813717365265,0.118648521602154,0.302040696144104,-39.2836761474609,0.181257456541061,0.216037631034851,0.483675211668015,2011-12-26 21:07:01
1.01849329471588,43,1.90000009536743,0.465116292238235,0.593766093254089,1.39999985694885,13.4395351409912,0.542996227741241,0.667915761470795,1.73953521251678,-39.6581382751465,0.519091367721558,0.705207407474518,2.14185905456543,2011-12-26 21:07:02
1.02926003932953,39,5.03589773178101,0.691387295722961,0.779377579689026,1.635897397995,8.63333320617676,1.10598289966583,1.30822515487671,3.0666663646698,-44.1589736938477,0.492702186107635,0.636786103248596,1.95897448062897,2011-12-26 21:07:03
1.01833498477936,40,17.0225009918213,3.99587512016296,5.17027473449707,11.8774995803833,1.07000005245209,4.12100028991699,4.90903282165527,11.0699996948242,-44.2675018310547,0.842249929904938,1.20714282989502,3.96750116348267,2011-12-26 21:07:04
1.02036666870117,49,26.0755100250244,2.64131617546082,2.97928428649902,4.97551012039185,-21.7918376922607,4.7770094871521,5.49009656906128,11.4918365478516,-36.9551010131836,0.651562035083771,0.910945177078247,3.04489731788635,2011-12-26 21:07:05
1.01991665363312,36,20.5222225189209,0.280246883630753,0.330917090177536,0.62222284078598,-23.658332824707,2.58148145675659,2.81211423873901,4.25833415985107,-38.9555549621582,1.44629609584808,1.5817437171936,2.25555562973022,2011-12-26 21:07:06
1.00473165512085,45,19.5377788543701,0.843061625957489,0.94898509979248,2.13777852058411,-17.5888900756836,0.524938344955444,0.639521539211273,1.71111190319061,-42.4377784729004,0.409086316823959,0.533036947250366,1.33777630329132,2011-12-26 21:07:07
1.20447838306427,40,16.9375,0.365000128746033,0.431096106767654,0.862500786781311,-19.0699996948242,0.457499980926514,0.598832190036774,2.23000073432922,-42.25,0.162499561905861,0.221359357237816,0.750000834465027,2011-12-26 21:07:08
1.01936662197113,41,17.5902442932129,0.445568084716797,0.499172389507294,0.890243530273438,-23.4804878234863,0.661867916584015,0.964041173458099,2.41951155662537,-40.2048797607422,0.448185414075851,0.57379823923111,1.50487840175629,2011-12-26 21:07:09
1.00631833076477,46,18.8195648193359,0.78913027048111,0.868686854839325,1.21956515312195,-30.1586952209473,1.47561419010162,1.75097179412842,3.8586950302124,-35.1913070678711,1.36880898475647,1.58454847335815,3.30869460105896,2011-12-26 21:07:10
1.01486337184906,36,17.8611106872559,0.707716107368469,0.832091689109802,1.63888847827911,-29.8277778625488,1.23734557628632,1.49063944816589,3.02777695655823,-35.8666687011719,1.25185167789459,1.49182951450348,2.56666827201843,2011-12-26 21:07:11
1.00792002677917,40,14.2575006484985,1.27812492847443,1.46063125133514,2.85749959945679,-23.7825012207031,1.37662482261658,1.60263633728027,2.91750049591064,-40.6525001525879,1.06012487411499,1.20041382312775,2.05249834060669,2011-12-26 21:07:12
1.00621497631073,41,11.0902442932129,0.6963711977005,0.838350534439087,1.80975651741028,-21.1487808227539,0.700892388820648,1.01815760135651,3.45121955871582,-42.382926940918,0.360737830400467,0.535064339637756,1.98292601108551,2011-12-26 21:07:13
1.00397169589996,49,13.3102045059204,0.40549772977829,0.458589196205139,0.910203695297241,-25.3489799499512,0.305289328098297,0.359774529933929,0.74897962808609,-40.018367767334,0.207663848996162,0.263162761926651,0.681632518768311,2011-12-26 21:07:14
1.01188170909882,41,15.9146347045898,0.737537205219269,0.907572746276855,2.1146342754364,-23.9463424682617,0.396073579788208,0.472201555967331,1.04634213447571,-40.6219520568848,0.283759534358978,0.343235999345779,0.82195246219635,2011-12-26 21:07:15
1.20776665210724,36,18.0750007629395,0.599999904632568,0.781158328056335,2.22500061988831,-22.1777782440186,0.345679104328156,0.415739685297012,0.822221577167511,-41.1861114501953,0.297993928194046,0.359902083873749,0.786110758781433,2011-12-26 21:07:17
1.01230502128601,44,20.7795467376709,3.8950412273407,4.04326486587524,5.27954578399658,0.268181800842285,8.72995853424072,9.98486995697021,19.8681831359863,-42.9590911865234,0.54938006401062,0.716785073280334,2.05909013748169,2011-12-26 21:07:18
1.00517332553864,41,14.0195121765137,1.13706135749817,1.22219705581665,1.88048827648163,6.98048782348633,0.537180304527283,0.632540225982666,1.31951236724854,-44.5268287658691,0.358477175235748,0.41615217924118,0.826829195022583,2011-12-26 21:07:19
1.00272333621979,49,13.2367343902588,0.693544447422028,0.831201255321503,1.73673486709595,5.05714273452759,0.532944619655609,0.638237416744232,1.25714302062988,-45.1489791870117,0.282881885766983,0.345302224159241,0.748978853225708,2011-12-26 21:07:20
1.01133167743683,43,12.3627910614014,0.718334317207336,0.841102123260498,1.53720963001251,5.03953504562378,1.28404545783997,1.44883906841278,2.86046504974365,-45.2000007629395,0.404651015996933,0.4605353474617,0.799999415874481,2011-12-26 21:07:21
1.01732838153839,44,10.995454788208,0.687396705150604,0.863121867179871,2.79545497894287,9.375,0.287500083446503,0.376662999391556,1.17500030994415,-44.1954536437988,0.174379706382751,0.206655472517014,0.495454281568527,2011-12-26 21:07:22
1.01925337314606,39,7.95128202438354,0.350164383649826,0.440787076950073,1.04871785640717,10.5615386962891,0.388165652751923,0.45269301533699,1.03846180438995,-43.5871810913086,0.147140383720398,0.179999321699142,0.387179344892502,2011-12-26 21:07:23
1.01155495643616,43,7.92790699005127,0.438399136066437,0.521324634552002,1.17209327220917,11.1046514511108,0.238182738423347,0.291709840297699,0.595348477363586,-43.2813949584961,0.131529897451401,0.163188517093658,0.381394416093826,2011-12-26 21:07:24
1.01375663280487,42,8.14761924743652,0.692517042160034,0.842964768409729,1.65238094329834,10.9619045257568,0.320861637592316,0.367716461420059,0.738094866275787,-43.6142883300781,0.260544180870056,0.311350047588348,0.714285016059875,2011-12-26 21:07:25
1.00816333293915,40,7.97250032424927,0.432500034570694,0.476438641548157,0.872500240802765,10.8000001907349,0.180000126361847,0.2167948782444,0.500000059604645,-43.4874992370605,0.123124800622463,0.153602465987206,0.387498676776886,2011-12-26 21:07:26
1.25252830982208,36,7.73888921737671,0.45987656712532,0.550392746925354,1.26111102104187,10.6055555343628,0.228703632950783,0.307267934083939,0.805555522441864,-43.5805549621582,0.189351961016655,0.239001646637917,0.48055437207222,2011-12-26 21:07:27
1.11715829372406,35,10.2457141876221,0.643918335437775,0.722037971019745,1.35428583621979,9.28285694122314,0.158693999052048,0.193443670868874,0.317143023014069,-44.2971420288086,0.0782036408782005,0.108194828033447,0.302858948707581,2011-12-26 21:07:28
1.07736170291901,46,11.5869569778442,0.793572783470154,0.939613401889801,2.18695616722107,8.17608737945557,0.961814761161804,1.09250116348267,1.87608683109283,-44.2347831726074,0.327788174152374,0.412425339221954,0.965217411518097,2011-12-26 21:07:29
1.0117449760437,49,8.06326580047607,0.397334456443787,0.50414365530014,1.33673512935638,5.65102052688599,0.315451890230179,0.360341340303421,0.648979663848877,-44.963264465332,0.187005758285522,0.224694073200226,0.463265955448151,2011-12-26 21:07:30
1.01921999454498,37,8.1162166595459,0.487801373004913,0.564974844455719,1.18378376960754,5.43243265151978,0.784660339355469,0.836031198501587,1.16756737232208,-44.9081077575684,0.256099373102188,0.300790309906006,0.70810854434967,2011-12-26 21:07:31
1.00351166725159,40,8.34749984741211,0.710375070571899,0.828850924968719,1.74750018119812,5.22000026702881,0.583000004291534,0.698283612728119,1.51999998092651,-45.0424995422363,0.232500463724136,0.276484876871109,0.65749990940094,2011-12-26 21:07:32
1.14995336532593,46,7.37826108932495,0.63327032327652,0.724692761898041,1.5782607793808,3.94130444526672,0.342533081769943,0.424046814441681,1.04130434989929,-45.3065223693848,0.141871497035027,0.164715796709061,0.306522458791733,2011-12-26 21:07:33
1.00443661212921,47,7.1702127456665,0.793390691280365,0.882432579994202,1.4702125787735,2.91914892196655,0.312358528375626,0.404568731784821,0.919148981571198,-45.6148948669434,0.192213445901871,0.230613231658936,0.48510816693306,2011-12-26 21:07:34
1.01238334178925,42,7.7142858505249,0.365306109189987,0.488716185092926,1.31428575515747,2.76666665077209,0.18253967165947,0.23059618473053,0.533333241939545,-45.5547637939453,0.178571432828903,0.208397746086121,0.454760402441025,2011-12-26 21:07:35
1.01514995098114,41,7.51951217651367,1.18096375465393,1.31579887866974,2.11951231956482,2.28048777580261,0.297085076570511,0.371036469936371,0.919512212276459,-45.678050994873,0.147649958729744,0.186772733926773,0.378050357103348,2011-12-26 21:07:36
1.00258505344391,42,6.60238122940063,0.592743754386902,0.672057330608368,1.20238101482391,1.79523813724518,0.372108846902847,0.421986430883408,0.704761922359467,-45.6285705566406,0.128571003675461,0.15929251909256,0.42857152223587,2011-12-26 21:07:37
1.0027916431427,40,6.84999990463257,0.902499973773956,0.981070876121521,1.75000023841858,2.20250010490417,0.108249969780445,0.147457614541054,0.397500097751617,-45.6124992370605,0.144374772906303,0.172028422355652,0.312501430511475,2011-12-26 21:07:38
1.01487338542938,49,9.24081611633301,1.89229500293732,2.14779615402222,3.4408164024353,5.61224508285522,1.38750529289246,1.61442899703979,2.9877552986145,-44.7551040649414,0.376009941101074,0.426691681146622,0.855101227760315,2011-12-26 21:07:39
1.01712167263031,44,11.9818181991577,0.674793362617493,0.863732039928436,2.0818178653717,8.82499980926514,0.281818211078644,0.311247497797012,0.524999916553497,-43.8318176269531,0.216322466731071,0.27367240190506,0.668181240558624,2011-12-26 21:07:41
1.00494170188904,43,9.95116329193115,0.375554323196411,0.412238389253616,0.748836755752563,9.77209281921387,0.409951359033585,0.442154169082642,0.672092854976654,-43.5790710449219,0.234396979212761,0.26108729839325,0.520931959152222,2011-12-26 21:07:42
1.01765501499176,36,10.2277784347534,0.48487651348114,0.566475927829742,1.0722222328186,10.341667175293,0.251388847827911,0.306752651929855,0.741666555404663,-43.3500022888184,0.122222431004047,0.14239989221096,0.250001490116119,2011-12-26 21:07:43
1.01237499713898,49,11.716326713562,0.572428166866302,0.660657346248627,1.18367385864258,10.5469388961792,0.38400673866272,0.448627054691315,1.05306148529053,-43.1061248779297,0.162598431110382,0.22443400323391,0.59387731552124,2011-12-26 21:07:44
1.01331830024719,39,11.1794872283936,0.425115048885345,0.477804571390152,0.920513033866882,11.0461540222168,0.39605525135994,0.457891553640366,0.94615364074707,-43.1256408691406,0.242998048663139,0.287087976932526,0.674357414245605,2011-12-26 21:07:45
1.00689828395844,43,11.320930480957,0.618496477603912,0.767526388168335,1.52093029022217,8.26046562194824,0.87030827999115,0.988336563110352,1.83953511714935,-44.3279075622559,0.44791767001152,0.4871965944767,0.927906036376953,2011-12-26 21:07:46
1.19611668586731,46,9.8739128112793,0.405481994152069,0.483391344547272,0.926086962223053,5.58913040161133,0.526370525360107,0.592793047428131,1.01086938381195,-44.8391304016113,0.206805244088173,0.25832062959671,0.660869240760803,2011-12-26 21:07:47
1.02888667583466,43,10.0906982421875,0.253542482852936,0.309398502111435,0.690697312355042,4.29069757461548,0.242509469389915,0.328360259532928,1.00930237770081,-45.1232566833496,0.171227291226387,0.211128905415535,0.576744139194489,2011-12-26 21:07:48
1.024578332901,47,10.5404253005981,0.328927159309387,0.398753225803375,0.840425908565521,4.11702156066895,0.162788689136505,0.202452182769775,0.417021334171295,-45.4872360229492,0.12956066429615,0.174571841955185,0.512765049934387,2011-12-26 21:07:49
1.07852327823639,14,11.8785715103149,0.410204112529755,0.447498798370361,0.678571879863739,5.05000019073486,0.342857092618942,0.60326486825943,2.04999995231628,-45.3071441650391,0.162245228886604,0.249182417988777,0.80714362859726,2011-12-26 21:07:50
1.01728332042694,34,14.6941175460815,0.237024232745171,0.299942344427109,0.794117331504822,7.82647085189819,0.261418730020523,0.304195076227188,0.726470828056335,-44.2676467895508,0.155882105231285,0.190541878342628,0.367646485567093,2011-12-26 21:07:51
1.00923669338226,48,15.2333335876465,0.150000095367432,0.197202682495117,0.566666781902313,8.26458358764648,0.18810772895813,0.222195118665695,0.464583277702332,-44.0104179382324,0.130121782422066,0.169852301478386,0.38958415389061,2011-12-26 21:07:52
