"diffSecs","latitude","longitude","altitude","time"
0.694000005722046,42.37206079,-70.99550306,82.4000015258789,2012-01-27 13:00:00
1.01600003242493,42.37201253,-70.9955131,82.0999984741211,2012-01-27 13:00:01
1.30699992179871,42.37201307,-70.99550808,82.0999984741211,2012-01-27 13:00:03
0.995000123977661,42.37206398,-70.9955093,82.6999969482422,2012-01-27 13:00:04
0.757999897003174,42.37207242,-70.99550157,82.6999969482422,2012-01-27 13:00:04
0.835999965667725,42.37204135,-70.99549666,82.4000015258789,2012-01-27 13:00:05
1.14800000190735,42.37203421,-70.9954982,82.4000015258789,2012-01-27 13:00:06
0.842999935150146,42.37203865,-70.99549542,82.4000015258789,2012-01-27 13:00:07
1.02800011634827,42.37207253,-70.99549433,82.5999984741211,2012-01-27 13:00:08
1.25499987602234,42.37209737,-70.99548268,82.6999969482422,2012-01-27 13:00:09
1.02300000190735,42.37207581,-70.99548661,82.6999969482422,2012-01-27 13:00:10
0.906000137329102,42.3720842599869,-70.9954816102982,58.2999992370605,2012-01-27 13:00:11
0.898000001907349,42.3721486330032,-70.9954869747162,58.2999992370605,2012-01-27 13:00:12
1.0019998550415,42.3721432685852,-70.9954977035522,58.2999992370605,2012-01-27 13:00:13
1.03900003433228,42.3721218109131,-70.9955137968063,58.2999992370605,2012-01-27 13:00:14
1.04100012779236,42.372111082077,-70.9955084323883,58.2999992370605,2012-01-27 13:00:15
0.971999883651733,42.3721164464951,-70.9955137968063,58.2999992370605,2012-01-27 13:00:16
1.01600003242493,42.372105717659,-70.9955298900604,58.2999992370605,2012-01-27 13:00:17
1.01099991798401,42.3720842599869,-70.9955406188965,58.2999992370605,2012-01-27 13:00:18
0.92900013923645,42.3720735311508,-70.9955459833145,58.2999992370605,2012-01-27 13:00:19
1.00099992752075,42.3720896244049,-70.9955352544785,58.2999992370605,2012-01-27 13:00:20
1.00600004196167,42.372111082077,-70.9955352544785,58.2999992370605,2012-01-27 13:00:21
1.01999998092651,42.3721164464951,-70.9955352544785,58.2999992370605,2012-01-27 13:00:22
0.723000049591064,42.3721164464951,-70.9955352544785,58.2999992370605,2012-01-27 13:00:23
0.956000089645386,42.3720467090607,-70.9955406188965,58.2999992370605,2012-01-27 13:00:24
0.936999797821045,42.3720467090607,-70.9955406188965,58.2999992370605,2012-01-27 13:00:25
1.03400015830994,42.3719877004623,-70.9955620765686,58.2000007629395,2012-01-27 13:00:26
1.0019998550415,42.3719662427902,-70.9955567121506,58.2000007629395,2012-01-27 13:00:27
0.993000030517578,42.3719447851181,-70.9955620765686,58.2000007629395,2012-01-27 13:00:28
1.00500011444092,42.3719608783722,-70.9955513477325,58.2000007629395,2012-01-27 13:00:29
1.01699995994568,42.3719930648804,-70.9955245256424,58.2000007629395,2012-01-27 13:00:30
0.990000009536743,42.3720091581345,-70.9955191612244,58.2999992370605,2012-01-27 13:00:31
0.988999843597412,42.3720574378967,-70.9955245256424,58.2999992370605,2012-01-27 13:00:32
1.01000022888184,42.3720520734787,-70.9955245256424,58.2999992370605,2012-01-27 13:00:33
1.09999990463257,42.3720735311508,-70.9955137968063,58.2999992370605,2012-01-27 13:00:34
0.891999959945679,42.3720091581345,-70.9954762458801,58.2000007629395,2012-01-27 13:00:35
0.996000051498413,42.3720037937164,-70.9954762458801,58.2000007629395,2012-01-27 13:00:36
1.01200008392334,42.3719716072083,-70.9954655170441,58.2000007629395,2012-01-27 13:00:37
0.984999895095825,42.3719769716263,-70.995460152626,58.2000007629395,2012-01-27 13:00:38
1.00399994850159,42.3720735311508,-70.9954440593719,58.2000007629395,2012-01-27 13:00:39
0.996999979019165,42.3720788955688,-70.9954065084457,58.2000007629395,2012-01-27 13:00:40
1.12000012397766,42.37192656,-70.99514418,80.6999969482422,2012-01-27 13:00:41
0.894000053405762,42.3720462,-70.99516016,78.9000015258789,2012-01-27 13:00:42
0.996999979019165,42.37204043,-70.99511638,78.8000030517578,2012-01-27 13:00:43
1.00399994850159,42.37200683,-70.99504994,77.8000030517578,2012-01-27 13:00:44
0.997999906539917,42.37196798,-70.99504212,77.5999984741211,2012-01-27 13:00:45
1.0220000743866,42.37203755,-70.99505203,77.6999969482422,2012-01-27 13:00:46
0.990000009536743,42.37200308,-70.99513376,77.8000030517578,2012-01-27 13:00:47
0.983000040054321,42.37205571,-70.99514547,78.0999984741211,2012-01-27 13:00:48
1.00699996948242,42.37208637,-70.99519126,78.4000015258789,2012-01-27 13:00:49
0.996000051498413,42.37198727,-70.99519431,78.3000030517578,2012-01-27 13:00:50
1.09200000762939,42.37190121,-70.99517738,78,2012-01-27 13:00:51
0.907999992370605,42.37189729,-70.99517746,78,2012-01-27 13:00:52
1.0019998550415,42.37193248,-70.99518818,78.1999969482422,2012-01-27 13:00:53
1.01200008392334,42.37190796,-70.99518414,78.0999984741211,2012-01-27 13:00:54
1.07999992370605,42.37191551,-70.99517784,75.8000030517578,2012-01-27 13:00:55
0.930000066757202,42.3719022,-70.99519181,75.8000030517578,2012-01-27 13:00:56
0.983000040054321,42.37190787,-70.99519161,75.8000030517578,2012-01-27 13:00:57
1.08200001716614,42.37190516,-70.99519812,75.9000015258789,2012-01-27 13:00:58
0.902999877929688,42.37190748,-70.99520749,76,2012-01-27 13:00:59
1.00699996948242,42.37191146,-70.99523226,76.0999984741211,2012-01-27 13:01:00
0.995000123977661,42.37205448,-70.99521522,68.4000015258789,2012-01-27 13:01:01
1.00499987602234,42.37204112,-70.99521636,68.4000015258789,2012-01-27 13:01:02
0.996000051498413,42.37202051,-70.99521362,68.0999984741211,2012-01-27 13:01:03
1.02600002288818,42.37213565,-70.99520834,61.4000015258789,2012-01-27 13:01:04
1.06100010871887,42.37211046,-70.99520036,60.9000015258789,2012-01-27 13:01:05
0.948999881744385,42.37216428,-70.99517253,57.4000015258789,2012-01-27 13:01:06
0.96399998664856,42.37229651,-70.99519388,51.2999992370605,2012-01-27 13:01:07
1.00699996948242,42.37232619,-70.99520231,51.9000015258789,2012-01-27 13:01:08
0.998000144958496,42.37236229,-70.99521032,48.4000015258789,2012-01-27 13:01:09
0.99399995803833,42.37239211,-70.99520553,45.5,2012-01-27 13:01:10
1.08899998664856,42.37240257,-70.99520927,42.7000007629395,2012-01-27 13:01:11
0.914999961853027,42.37240405,-70.99520601,42.0999984741211,2012-01-27 13:01:12
0.994999885559082,42.37242678,-70.99520322,40.4000015258789,2012-01-27 13:01:13
1.01100015640259,42.37243735,-70.9951997,39.5,2012-01-27 13:01:14
1.00600004196167,42.3724588,-70.99520228,39,2012-01-27 13:01:15
1.00799989700317,42.37245385,-70.99520888,38.9000015258789,2012-01-27 13:01:16
0.980000019073486,42.3724386,-70.99521716,39.2999992370605,2012-01-27 13:01:17
1.00600004196167,42.37244194,-70.99522608,39,2012-01-27 13:01:18
1.08500003814697,42.37245257,-70.99520906,38.7999992370605,2012-01-27 13:01:19
0.962999820709229,42.37245479,-70.99520732,38.7000007629395,2012-01-27 13:01:20
0.991000175476074,42.37243383,-70.9952189,37.7999992370605,2012-01-27 13:01:21
1.05699992179871,42.37243429,-70.99522583,38.0999984741211,2012-01-27 13:01:22
0.903000116348267,42.37242476,-70.99524814,35.9000015258789,2012-01-27 13:01:23
0.997999906539917,42.37242459,-70.99524764,35.9000015258789,2012-01-27 13:01:24
1.00799989700317,42.37242749,-70.99523974,36.4000015258789,2012-01-27 13:01:25
1.09700012207031,42.37241904,-70.99524184,35.5,2012-01-27 13:01:26
0.948999881744385,42.37240901,-70.99523329,35.0999984741211,2012-01-27 13:01:27
0.942000150680542,42.37238861,-70.99522682,35.5999984741211,2012-01-27 13:01:28
1.0019998550415,42.3723835,-70.99522834,34.7999992370605,2012-01-27 13:01:29
1.00699996948242,42.37238572,-70.99522325,34.7999992370605,2012-01-27 13:01:30
0.999000072479248,42.37238174,-70.9952311,33.5,2012-01-27 13:01:31
1.03399991989136,42.3723701,-70.99520148,32.7000007629395,2012-01-27 13:01:32
0.964000225067139,42.3723673,-70.99519768,32.7000007629395,2012-01-27 13:01:33
0.998999834060669,42.37237933,-70.9952213,31.7000007629395,2012-01-27 13:01:34
0.998000144958496,42.37240808,-70.9952256,31.8999996185303,2012-01-27 13:01:35
1.03499984741211,42.37241133,-70.99522661,31.8999996185303,2012-01-27 13:01:36
0.976000070571899,42.37242052,-70.99523073,32.0999984741211,2012-01-27 13:01:37
0.990000009536743,42.37243223,-70.99523964,32.5,2012-01-27 13:01:38
0.997999906539917,42.37243353,-70.99524003,32.5,2012-01-27 13:01:39
1.01500010490417,42.37242618,-70.99523895,32.2000007629395,2012-01-27 13:01:40
1.01099991798401,42.37241766,-70.99524828,32.4000015258789,2012-01-27 13:01:41
0.976999998092651,42.37235198,-70.99524461,32.7000007629395,2012-01-27 13:01:42
1.00699996948242,42.37233716,-70.99524382,32.2999992370605,2012-01-27 13:01:43
1.0090000629425,42.37230836,-70.99523324,31.6000003814697,2012-01-27 13:01:44
1.06900000572205,42.37229962,-70.99523305,31.5,2012-01-27 13:01:45
0.936000108718872,42.37230716,-70.99523511,31.2999992370605,2012-01-27 13:01:46
0.977999925613403,42.37227896,-70.99523947,31.8999996185303,2012-01-27 13:01:47
1.00200009346008,42.3722754,-70.99524093,31.7999992370605,2012-01-27 13:01:48
1.08599996566772,42.37225595,-70.99523667,31.5,2012-01-27 13:01:49
0.921999931335449,42.3722414,-70.99523456,31.2000007629395,2012-01-27 13:01:50
1.04299998283386,42.37222347,-70.99523125,30.8999996185303,2012-01-27 13:01:51
0.95799994468689,42.37223186,-70.9952396,31.2000007629395,2012-01-27 13:01:52
1.06100010871887,42.37220366,-70.9952331,30.7000007629395,2012-01-27 13:01:53
0.931999921798706,42.37216893,-70.99523329,30.2000007629395,2012-01-27 13:01:54
0.993000030517578,42.37216807,-70.99523814,30.2999992370605,2012-01-27 13:01:55
1.00600004196167,42.37215244,-70.99523784,30.1000003814697,2012-01-27 13:01:56
1.08099985122681,42.37212722,-70.99519269,31,2012-01-27 13:01:57
0.920000076293945,42.37212034,-70.9951919,31,2012-01-27 13:01:58
1.00600004196167,42.37210933,-70.9951915,31,2012-01-27 13:01:59
0.992000102996826,42.37210679,-70.99519291,31.1000003814697,2012-01-27 13:02:00
1.02099990844727,42.37209278,-70.99519016,31.2000007629395,2012-01-27 13:02:01
0.980000019073486,42.37215715,-70.99519513,30.2999992370605,2012-01-27 13:02:02
0.996999979019165,42.37213619,-70.99518779,30.2000007629395,2012-01-27 13:02:03
1.00999999046326,42.37213662,-70.99519034,30.2000007629395,2012-01-27 13:02:04
1.08100008964539,42.37210982,-70.9951801,30,2012-01-27 13:02:05
0.922999858856201,42.37210585,-70.99518119,30,2012-01-27 13:02:06
0.993000030517578,42.37210596,-70.99518411,30.1000003814697,2012-01-27 13:02:07
1.00200009346008,42.37212071,-70.99520493,29.2000007629395,2012-01-27 13:02:08
0.990000009536743,42.37212513,-70.99521018,29.2999992370605,2012-01-27 13:02:09
1.00099992752075,42.37212625,-70.99522232,29.1000003814697,2012-01-27 13:02:10
1,42.3721155,-70.99522029,29,2012-01-27 13:02:11
1.00600004196167,42.37210802,-70.99522218,29,2012-01-27 13:02:12
1.10500001907349,42.37210232,-70.99522436,28.7999992370605,2012-01-27 13:02:13
0.898000001907349,42.37209589,-70.9952301,28.8999996185303,2012-01-27 13:02:14
0.994999885559082,42.37208706,-70.99522709,28.8999996185303,2012-01-27 13:02:15
1.00300002098083,42.37208023,-70.99521975,29.1000003814697,2012-01-27 13:02:16
0.99399995803833,42.37206804,-70.99513353,28.2000007629395,2012-01-27 13:02:17
1.00800013542175,42.37209483,-70.99511403,28.1000003814697,2012-01-27 13:02:18
0.993000030517578,42.37209997,-70.99511721,28.2000007629395,2012-01-27 13:02:19
0.998999834060669,42.37210368,-70.99517455,28.8999996185303,2012-01-27 13:02:20
1.15100002288818,42.37209336,-70.99519009,28.8999996185303,2012-01-27 13:02:21
0.845000028610229,42.37207562,-70.9951892,28.8999996185303,2012-01-27 13:02:22
1.01600003242493,42.37206501,-70.99518815,28.8999996185303,2012-01-27 13:02:23
0.990000009536743,42.37206473,-70.99519252,28.8999996185303,2012-01-27 13:02:24
0.96399998664856,42.37206117,-70.99519434,29,2012-01-27 13:02:25
1.08299994468689,42.37206731,-70.99518308,29.8999996185303,2012-01-27 13:02:26
0.916000127792358,42.37205953,-70.99518375,29.8999996185303,2012-01-27 13:02:27
1.00399994850159,42.37205845,-70.99518519,29.8999996185303,2012-01-27 13:02:28
0.998999834060669,42.37198513,-70.99525675,27.7999992370605,2012-01-27 13:02:29
1.00400018692017,42.37201799,-70.99524004,27,2012-01-27 13:02:30
1.0149998664856,42.37202242,-70.99525021,27.2000007629395,2012-01-27 13:02:31
0.978000164031982,42.37199579,-70.99524915,27,2012-01-27 13:02:32
0.997999906539917,42.3720286,-70.99524237,26.2000007629395,2012-01-27 13:02:33
1.01699995994568,42.37204189,-70.99524991,26.3999996185303,2012-01-27 13:02:34
1.08200001716614,42.37205227,-70.99525772,26.5,2012-01-27 13:02:35
0.916000127792358,42.37203966,-70.99525312,27,2012-01-27 13:02:36
0.985999822616577,42.37203148,-70.99525716,26.8999996185303,2012-01-27 13:02:37
1.00300002098083,42.37203838,-70.9952623,27,2012-01-27 13:02:38
1.05200004577637,42.372037,-70.99526905,26.7999992370605,2012-01-27 13:02:39
0.947000026702881,42.37204065,-70.9952727,26.8999996185303,2012-01-27 13:02:40
1.00099992752075,42.37210556,-70.99527604,26.1000003814697,2012-01-27 13:02:41
1,42.37208727,-70.99528521,26,2012-01-27 13:02:42
1.03500008583069,42.37208878,-70.99527961,26.1000003814697,2012-01-27 13:02:43
0.960000038146973,42.37207574,-70.99528626,25.8999996185303,2012-01-27 13:02:44
1.00099992752075,42.37205884,-70.99529411,25.7999992370605,2012-01-27 13:02:45
1.01200008392334,42.37206192,-70.99529572,25.7999992370605,2012-01-27 13:02:46
1.02199983596802,42.37207186,-70.9952755,26.2999992370605,2012-01-27 13:02:47
0.960999965667725,42.3720788955688,-70.995277762413,52.7000007629395,2012-01-27 13:02:48
1.09400010108948,42.3720788955688,-70.9952831268311,52.5999984741211,2012-01-27 13:02:49
1.04800009727478,42.3721218109131,-70.9952884912491,52.5999984741211,2012-01-27 13:02:50
1.03600001335144,42.3721271753311,-70.9953045845032,52.5999984741211,2012-01-27 13:02:51
0.817999839782715,42.3721754550934,-70.9951972961426,52.7999992370605,2012-01-27 13:02:52
1.00500011444092,42.3721700906754,-70.9952509403229,52.7999992370605,2012-01-27 13:02:53
1.02199983596802,42.37216608,-70.99520332,26.6000003814697,2012-01-27 13:02:54
1.06600022315979,42.37214884,-70.99521793,26.2000007629395,2012-01-27 13:02:55
0.941999912261963,42.37215253,-70.99522374,26.2000007629395,2012-01-27 13:02:56
0.976000070571899,42.3721486330032,-70.9952080249786,52.5999984741211,2012-01-27 13:02:57
0.998999834060669,42.3721861839294,-70.9951972961426,52.7000007629395,2012-01-27 13:02:58
0.990000009536743,42.3721808195114,-70.9952026605606,52.7000007629395,2012-01-27 13:02:59
0.999000072479248,42.3721861839294,-70.9952187538147,52.7000007629395,2012-01-27 13:03:00
1.05399990081787,42.3722130060196,-70.9952187538147,52.7000007629395,2012-01-27 13:03:01
0.973999977111816,42.3722290992737,-70.9952509403229,52.7999992370605,2012-01-27 13:03:02
0.976999998092651,42.3722022771835,-70.9952563047409,52.7999992370605,2012-01-27 13:03:03
1,42.3721700906754,-70.9952509403229,52.7000007629395,2012-01-27 13:03:04
0.997000217437744,42.3721486330032,-70.995272397995,52.7000007629395,2012-01-27 13:03:05
1.06299996376038,42.3721379041672,-70.995277762413,52.7000007629395,2012-01-27 13:03:06
1.14999985694885,42.3721432685852,-70.995277762413,52.7000007629395,2012-01-27 13:03:07
0.794000148773193,42.3720842599869,-70.9952187538147,52.5999984741211,2012-01-27 13:03:08
1.02300000190735,42.3720842599869,-70.9952241182327,52.5999984741211,2012-01-27 13:03:09
0.972999811172485,42.3721164464951,-70.9952133893967,52.5999984741211,2012-01-27 13:03:10
1.03700017929077,42.3720949888229,-70.9952026605606,52.5999984741211,2012-01-27 13:03:11
0.958999872207642,42.3720949888229,-70.9952133893967,52.5999984741211,2012-01-27 13:03:12
1.04999995231628,42.372100353241,-70.9952080249786,52.5,2012-01-27 13:03:13
0.953000068664551,42.372105717659,-70.9952080249786,52.5,2012-01-27 13:03:14
0.999000072479248,42.3721164464951,-70.9951812028885,52.5,2012-01-27 13:03:15
1.06299996376038,42.372111082077,-70.9951919317245,52.5,2012-01-27 13:03:16
0.970999956130981,42.372111082077,-70.9951865673065,52.5,2012-01-27 13:03:17
0.976999998092651,42.3721218109131,-70.9951812028885,52.5,2012-01-27 13:03:18
0.998000144958496,42.3721379041672,-70.9951812028885,52.5,2012-01-27 13:03:19
1.0019998550415,42.37215733,-70.99523515,24.2999992370605,2012-01-27 13:03:20
1.01300001144409,42.37214866,-70.99523221,24.3999996185303,2012-01-27 13:03:21
1.07999992370605,42.3721409,-70.99523406,24.3999996185303,2012-01-27 13:03:22
0.909000158309937,42.37214081,-70.99522361,24.1000003814697,2012-01-27 13:03:23
1.00499987602234,42.37211517,-70.99521504,24,2012-01-27 13:03:24
1.00999999046326,42.37209469,-70.99520742,24,2012-01-27 13:03:25
1.09600019454956,42.37215362,-70.99520633,23.8999996185303,2012-01-27 13:03:26
0.893999814987183,42.37217249,-70.99527643,22.3999996185303,2012-01-27 13:03:27
0.991000175476074,42.37216974,-70.99527509,22.3999996185303,2012-01-27 13:03:28
1.01099991798401,42.37213196,-70.99526402,22.2000007629395,2012-01-27 13:03:29
1.1340000629425,42.3721327,-70.99525919,21.7999992370605,2012-01-27 13:03:30
0.868000030517578,42.37212293,-70.9952625,21.7999992370605,2012-01-27 13:03:31
0.997999906539917,42.37215791,-70.9952689,21.8999996185303,2012-01-27 13:03:32
1.0090000629425,42.37212982,-70.99526885,21.7000007629395,2012-01-27 13:03:33
1.08099985122681,42.3721123,-70.99526293,21.5,2012-01-27 13:03:34
0.901999950408936,42.37216364,-70.99525576,21.1000003814697,2012-01-27 13:03:35
1.01600003242493,42.37210342,-70.99526436,20.6000003814697,2012-01-27 13:03:36
0.995000123977661,42.37212744,-70.99526045,20.8999996185303,2012-01-27 13:03:37
1.0699999332428,42.37214063,-70.99525649,20.8999996185303,2012-01-27 13:03:38
0.921000003814697,42.37213393,-70.99525028,21.2000007629395,2012-01-27 13:03:39
1.00500011444092,42.37213042,-70.99525756,21.7000007629395,2012-01-27 13:03:40
1.0019998550415,42.37211965,-70.99524764,21.5,2012-01-27 13:03:41
1.05700016021729,42.37207512,-70.99523633,21.1000003814697,2012-01-27 13:03:42
0.941999912261963,42.37205925,-70.99522952,21.1000003814697,2012-01-27 13:03:43
0.99399995803833,42.37200632,-70.99518129,18.7999992370605,2012-01-27 13:03:44
1.00399994850159,42.37199299,-70.99518134,18.7999992370605,2012-01-27 13:03:45
1.0550000667572,42.37212631,-70.99522093,17.7000007629395,2012-01-27 13:03:46
0.937999963760376,42.37211628,-70.99521459,15.5,2012-01-27 13:03:47
1,42.37215387,-70.99524678,15.8999996185303,2012-01-27 13:03:48
1.00300002098083,42.37214166,-70.99524901,15.6000003814697,2012-01-27 13:03:49
1.01099991798401,42.37222322,-70.99528729,14.1999998092651,2012-01-27 13:03:50
0.980000019073486,42.37223791,-70.99528871,14.5,2012-01-27 13:03:51
1.00800013542175,42.37225482,-70.99529678,14.6999998092651,2012-01-27 13:03:52
0.997999906539917,42.37225731,-70.99530085,14.8000001907349,2012-01-27 13:03:53
1.04900002479553,42.37227479,-70.99527204,14.1000003814697,2012-01-27 13:03:54
0.953000068664551,42.37226855,-70.99527976,13.8999996185303,2012-01-27 13:03:55
1.02499985694885,42.37228663,-70.99528848,14.3999996185303,2012-01-27 13:03:56
0.971000194549561,42.37227284,-70.99527005,15.3000001907349,2012-01-27 13:03:57
1.05999994277954,42.37228379,-70.99520585,15.1999998092651,2012-01-27 13:03:58
0.941999912261963,42.37229759,-70.9951936,15.8999996185303,2012-01-27 13:03:59
1,42.37228252,-70.99519288,15.5,2012-01-27 13:04:00
1.00800013542175,42.37229738,-70.99523974,16.3999996185303,2012-01-27 13:04:01
0.984999895095825,42.37229209,-70.99523008,17.1000003814697,2012-01-27 13:04:02
1.00099992752075,42.37225861,-70.9952247,16.1000003814697,2012-01-27 13:04:03
1.00500011444092,42.37224719,-70.99522497,15.8999996185303,2012-01-27 13:04:04
1.00799989700317,42.37229767,-70.99524181,17.2000007629395,2012-01-27 13:04:05
1.10700011253357,42.37227999,-70.99525463,17,2012-01-27 13:04:06
0.884000062942505,42.37224815,-70.99525029,16,2012-01-27 13:04:07
0.995999813079834,42.37222073,-70.99524167,15.5,2012-01-27 13:04:08
1.00500011444092,42.37221505,-70.99524204,15.5,2012-01-27 13:04:09
1.01799988746643,42.37223969,-70.99520456,16,2012-01-27 13:04:10
0.988000154495239,42.37223398,-70.99520233,15.8000001907349,2012-01-27 13:04:11
0.995999813079834,42.37225271,-70.99520592,16,2012-01-27 13:04:12
1.00300002098083,42.37224767,-70.99520311,16,2012-01-27 13:04:13
0.998000144958496,42.37225662,-70.99519619,15.8999996185303,2012-01-27 13:04:14
1.11100006103516,42.37227122,-70.99517906,16,2012-01-27 13:04:15
0.898999929428101,42.37228974,-70.99517442,16.2000007629395,2012-01-27 13:04:16
0.988999843597412,42.37229239,-70.99516922,16.2000007629395,2012-01-27 13:04:17
1.04300022125244,42.37227394,-70.99514771,15.5,2012-01-27 13:04:18
0.949999809265137,42.37228181,-70.99514246,15.5,2012-01-27 13:04:19
1.00500011444092,42.37226979,-70.99513279,15.1999998092651,2012-01-27 13:04:20
1.03299999237061,42.37228115,-70.99513475,15.3000001907349,2012-01-27 13:04:21
1.01099991798401,42.37225377,-70.99513539,15,2012-01-27 13:04:22
0.949000120162964,42.37223862,-70.99513197,14.8999996185303,2012-01-27 13:04:23
1.00600004196167,42.3721843,-70.99509944,14.3999996185303,2012-01-27 13:04:24
1.00999999046326,42.37216959,-70.99512139,13.6999998092651,2012-01-27 13:04:25
0.985999822616577,42.3721593618393,-70.9951221942902,51.4000015258789,2012-01-27 13:04:26
0.995000123977661,42.3721486330032,-70.9951436519623,51.4000015258789,2012-01-27 13:04:27
1.01900005340576,42.3721271753311,-70.9951275587082,51.4000015258789,2012-01-27 13:04:28
1.07499980926514,42.3720735311508,-70.9950953722,51.2999992370605,2012-01-27 13:04:29
0.903000116348267,42.3720413446426,-70.9950685501099,51.2999992370605,2012-01-27 13:04:30
1.00499987602234,42.3720252513885,-70.9950524568558,51.2999992370605,2012-01-27 13:04:31
1.00300002098083,42.3720037937164,-70.9950363636017,51.2999992370605,2012-01-27 13:04:32
1.10400009155273,42.3719823360443,-70.9950041770935,51.2999992370605,2012-01-27 13:04:33
0.88700008392334,42.3719394207001,-70.9949719905853,51.2999992370605,2012-01-27 13:04:34
1.00300002098083,42.371923327446,-70.9949880838394,51.2999992370605,2012-01-27 13:04:35
1.00399994850159,42.3718804121017,-70.994918346405,51.2000007629395,2012-01-27 13:04:36
1.03999996185303,42.3718535900116,-70.9948968887329,51.2000007629395,2012-01-27 13:04:37
0.956000089645386,42.3718482255936,-70.994912981987,51.2000007629395,2012-01-27 13:04:38
1.00499987602234,42.3718321323395,-70.994907617569,51.2000007629395,2012-01-27 13:04:39
1.00300002098083,42.3718214035034,-70.994912981987,51.2000007629395,2012-01-27 13:04:40
1.08500003814697,42.3718160390854,-70.994918346405,51.2000007629395,2012-01-27 13:04:41
0.905999898910522,42.3717999458313,-70.994907617569,51.2000007629395,2012-01-27 13:04:42
1.00200009346008,42.3717892169952,-70.9949022531509,51.2000007629395,2012-01-27 13:04:43
5.76900005340576,42.372288107872,-70.9949558973312,49.9000015258789,2012-01-27 13:04:49
1.26399993896484,42.3722720146179,-70.9949505329132,49.7999992370605,2012-01-27 13:04:50
0.766000032424927,42.3722788,-70.99494435,-1.10000002384186,2012-01-27 13:04:51
1.0239999294281,42.3722773790359,-70.9949344396591,49.9000015258789,2012-01-27 13:04:52
16.0550000667572,42.3719501495361,-70.9949451684952,49.4000015258789,2012-01-27 13:05:08
0.895999908447266,42.3719394207001,-70.9949398040771,49.4000015258789,2012-01-27 13:05:09
0.999000072479248,42.3719447851181,-70.9949290752411,49.4000015258789,2012-01-27 13:05:10
1.00099992752075,42.3721486330032,-70.9951221942902,49.2999992370605,2012-01-27 13:05:11
1.00399994850159,42.3721486330032,-70.9951275587082,49.2999992370605,2012-01-27 13:05:12
0.988000154495239,42.3721539974213,-70.9951329231262,49.2999992370605,2012-01-27 13:05:13
4.0019998550415,42.3722559213638,-70.9951865673065,49.0999984741211,2012-01-27 13:05:17
1.00100016593933,42.3722720146179,-70.9951812028885,49.0999984741211,2012-01-27 13:05:18
0.99399995803833,42.3723202943802,-70.9952509403229,49.2000007629395,2012-01-27 13:05:19
1.11199998855591,42.3723202943802,-70.995267033577,49.2000007629395,2012-01-27 13:05:20
0.889999866485596,42.3723256587982,-70.995277762413,49.2000007629395,2012-01-27 13:05:21
2.08899998664856,42.3723256587982,-70.995277762413,49.2000007629395,2012-01-27 13:05:23
0.963000059127808,42.3723256587982,-70.995277762413,49.2000007629395,2012-01-27 13:05:24
1,42.3723256587982,-70.995277762413,49.2000007629395,2012-01-27 13:05:25
1.05299997329712,42.3723256587982,-70.995277762413,49.2000007629395,2012-01-27 13:05:26
0.948000192642212,42.3723256587982,-70.995277762413,49.2000007629395,2012-01-27 13:05:27
1.00099992752075,42.3723256587982,-70.995277762413,49.2000007629395,2012-01-27 13:05:28
1.01099991798401,42.3723256587982,-70.995277762413,49.2000007629395,2012-01-27 13:05:29
0.996000051498413,42.3723256587982,-70.995277762413,49.2000007629395,2012-01-27 13:05:30
0.99399995803833,42.3723256587982,-70.995277762413,49.2000007629395,2012-01-27 13:05:31
1,42.3723256587982,-70.995277762413,49.2000007629395,2012-01-27 13:05:32
1.10700011253357,42.3723256587982,-70.995277762413,49.2000007629395,2012-01-27 13:05:33
0.891000032424927,42.3723256587982,-70.995277762413,49.2000007629395,2012-01-27 13:05:34
1.0019998550415,42.3723256587982,-70.995277762413,49.2000007629395,2012-01-27 13:05:35
1,42.3723256587982,-70.995277762413,49.2000007629395,2012-01-27 13:05:36
1.1010000705719,42.3723256587982,-70.995277762413,49.2000007629395,2012-01-27 13:05:37
0.901000022888184,42.3723256587982,-70.995277762413,49.2000007629395,2012-01-27 13:05:38
1.0019998550415,42.3723256587982,-70.995277762413,49.2000007629395,2012-01-27 13:05:39
