"diffSecs","latitude","longitude","altitude","time"
2.65299987792969,44.2661100625992,-71.6769450902939,50,2012-02-10 08:40:58
0.860000133514404,44.2661100625992,-71.6769450902939,50,2012-02-10 08:40:59
1.0019998550415,44.2661100625992,-71.6769450902939,50,2012-02-10 08:41:00
1,44.2661100625992,-71.6769450902939,50,2012-02-10 08:41:01
1.11800003051758,44.2661100625992,-71.6769450902939,50,2012-02-10 08:41:02
0.999000072479248,44.2661100625992,-71.6769450902939,50,2012-02-10 08:41:03
0.885999917984009,44.2661100625992,-71.6769450902939,50,2012-02-10 08:41:04
1.28800010681152,44.2661100625992,-71.6769450902939,50,2012-02-10 08:41:05
0.721999883651733,44.2661100625992,-71.6769450902939,50,2012-02-10 08:41:06
1.07000017166138,44.2661100625992,-71.6769450902939,50,2012-02-10 08:41:07
1.03600001335144,44.2661100625992,-71.6769450902939,50,2012-02-10 08:41:08
0.894999980926514,44.2661100625992,-71.6769450902939,50,2012-02-10 08:41:09
0.993000030517578,44.2661100625992,-71.6769450902939,50,2012-02-10 08:41:10
1,44.2661100625992,-71.6769450902939,50,2012-02-10 08:41:11
1.02499985694885,44.2661100625992,-71.6769450902939,50,2012-02-10 08:41:12
1.01200008392334,44.2661100625992,-71.6769450902939,50,2012-02-10 08:41:13
1,44.2661100625992,-71.6769450902939,50,2012-02-10 08:41:14
1.01799988746643,44.2661100625992,-71.6769450902939,50,2012-02-10 08:41:15
0.947999954223633,44.2661100625992,-71.6769450902939,50,2012-02-10 08:41:16
0.583000183105469,44.2661100625992,-71.6769450902939,50,2012-02-10 08:41:17
1.03199982643127,44.2661100625992,-71.6769450902939,50,2012-02-10 08:41:18
0.988000154495239,44.2661100625992,-71.6769450902939,50,2012-02-10 08:41:19
0.980999946594238,44.2661100625992,-71.6769450902939,50,2012-02-10 08:41:20
1.00099992752075,44.2661100625992,-71.6769450902939,50,2012-02-10 08:41:21
1,44.2661100625992,-71.6769450902939,50,2012-02-10 08:41:22
1.02999997138977,44.2661100625992,-71.6769450902939,50,2012-02-10 08:41:23
1.04000020027161,44.2661100625992,-71.6769450902939,50,2012-02-10 08:41:24
3.992999792099,44.2661100625992,-71.6769450902939,50,2012-02-10 08:41:28
1.00400018692017,44.2661100625992,-71.6769450902939,50,2012-02-10 08:41:29
1.01399993896484,44.2661100625992,-71.6769450902939,50,2012-02-10 08:41:30
1.02699995040894,44.2661100625992,-71.6769450902939,50,2012-02-10 08:41:31
0.959000110626221,44.2661100625992,-71.6769450902939,50,2012-02-10 08:41:32
0.982999801635742,44.2661100625992,-71.6769450902939,50,2012-02-10 08:41:33
1.04400014877319,44.2661100625992,-71.6769450902939,50,2012-02-10 08:41:34
0.993000030517578,44.2661100625992,-71.6769450902939,50,2012-02-10 08:41:35
1.02099990844727,44.2661100625992,-71.6769450902939,50,2012-02-10 08:41:36
0.98799991607666,44.2661100625992,-71.6769450902939,50,2012-02-10 08:41:37
1.00100016593933,44.2661100625992,-71.6769450902939,50,2012-02-10 08:41:38
0.998999834060669,44.2661100625992,-71.6769450902939,50,2012-02-10 08:41:39
1.80900001525879,44.2661100625992,-71.6769450902939,50,2012-02-10 08:41:41
0.183000087738037,44.2661100625992,-71.6769450902939,50,2012-02-10 08:41:41
1,44.2661100625992,-71.6769450902939,50,2012-02-10 08:41:42
1.00200009346008,44.2661100625992,-71.6769450902939,50,2012-02-10 08:41:43
0.998999834060669,44.2661100625992,-71.6769450902939,50,2012-02-10 08:41:44
1.00200009346008,44.2661100625992,-71.6769450902939,50,2012-02-10 08:41:45
1.01300001144409,44.4539558887482,-71.6153454780579,50,2012-02-10 08:41:46
1.00399994850159,44.4539558887482,-71.6153454780579,50,2012-02-10 08:41:47
1.00999999046326,44.4539558887482,-71.6153454780579,50,2012-02-10 08:41:48
1,44.4539558887482,-71.6153454780579,50,2012-02-10 08:41:49
0.976000070571899,44.4539558887482,-71.6153454780579,50,2012-02-10 08:41:50
1.35399985313416,44.4539558887482,-71.6153454780579,50,2012-02-10 08:41:51
1.08000016212463,44.4539558887482,-71.6153454780579,50,2012-02-10 08:41:52
0.590999841690063,44.4539558887482,-71.6153454780579,50,2012-02-10 08:41:53
1.08900022506714,44.4539558887482,-71.6153454780579,50,2012-02-10 08:41:54
3.89999985694885,44.4539558887482,-71.6153454780579,50,2012-02-10 08:41:58
1.01200008392334,44.4539558887482,-71.6153454780579,50,2012-02-10 08:41:59
0.954999923706055,44.4539558887482,-71.6153454780579,50,2012-02-10 08:42:00
1.04200005531311,44.4539558887482,-71.6153454780579,50,2012-02-10 08:42:01
0.968999862670898,44.4539558887482,-71.6153454780579,50,2012-02-10 08:42:02
1.02600002288818,44.4539558887482,-71.6153454780579,50,2012-02-10 08:42:03
0.990000009536743,44.4539558887482,-71.6153454780579,50,2012-02-10 08:42:04
1.00800013542175,44.4539558887482,-71.6153454780579,50,2012-02-10 08:42:05
0.98199987411499,44.4539558887482,-71.6153454780579,50,2012-02-10 08:42:06
1.00999999046326,44.4539558887482,-71.6153454780579,50,2012-02-10 08:42:07
1.00699996948242,44.4539558887482,-71.6153454780579,50,2012-02-10 08:42:08
1.0990002155304,44.4539558887482,-71.6153454780579,50,2012-02-10 08:42:09
0.901999950408936,44.4539558887482,-71.6153454780579,50,2012-02-10 08:42:10
0.971999883651733,44.4539558887482,-71.6153454780579,50,2012-02-10 08:42:11
1.10599994659424,44.4539558887482,-71.6153454780579,50,2012-02-10 08:42:12
0.921000003814697,44.4539558887482,-71.6153454780579,50,2012-02-10 08:42:13
1,44.4539558887482,-71.6153454780579,50,2012-02-10 08:42:14
1.00200009346008,44.4539558887482,-71.6153454780579,50,2012-02-10 08:42:15
0.973999977111816,44.4539558887482,-71.6153454780579,50,2012-02-10 08:42:16
1.00999999046326,44.4539558887482,-71.6153454780579,50,2012-02-10 08:42:17
1.1029999256134,44.4539558887482,-71.6153454780579,50,2012-02-10 08:42:18
0.910000085830688,44.4539558887482,-71.6153454780579,50,2012-02-10 08:42:19
1.01300001144409,44.4539558887482,-71.6153454780579,50,2012-02-10 08:42:20
1.01900005340576,44.4539558887482,-71.6153454780579,50,2012-02-10 08:42:21
0.948999881744385,44.4539558887482,-71.6153454780579,50,2012-02-10 08:42:22
1.01200008392334,44.4539558887482,-71.6153454780579,50,2012-02-10 08:42:23
1.02300000190735,44.4539558887482,-71.6153454780579,50,2012-02-10 08:42:24
3.97900009155273,44.4539558887482,-71.6153454780579,50,2012-02-10 08:42:28
1.09499979019165,44.4539558887482,-71.6153454780579,50,2012-02-10 08:42:29
0.940000057220459,44.2661100625992,-71.6769450902939,50,2012-02-10 08:42:30
0.990999937057495,44.2661100625992,-71.6769450902939,50,2012-02-10 08:42:31
0.975000143051147,44.2661100625992,-71.6769450902939,50,2012-02-10 08:42:32
1.00099992752075,44.2661100625992,-71.6769450902939,50,2012-02-10 08:42:33
1.02699995040894,44.2661100625992,-71.6769450902939,50,2012-02-10 08:42:34
1.00100016593933,44.2661100625992,-71.6769450902939,50,2012-02-10 08:42:35
1.00600004196167,44.2661100625992,-71.6769450902939,50,2012-02-10 08:42:36
1.04899978637695,44.2661100625992,-71.6769450902939,50,2012-02-10 08:42:37
0.920000076293945,44.2661100625992,-71.6769450902939,50,2012-02-10 08:42:38
1.04500007629395,44.2661100625992,-71.6769450902939,50,2012-02-10 08:42:39
0.997999906539917,44.2661100625992,-71.6769450902939,50,2012-02-10 08:42:40
1.00300002098083,44.2661100625992,-71.6769450902939,50,2012-02-10 08:42:41
0.996999979019165,44.2661100625992,-71.6769450902939,50,2012-02-10 08:42:42
0.962000131607056,44.2661100625992,-71.6769450902939,50,2012-02-10 08:42:43
1.00799989700317,44.2661100625992,-71.6769450902939,50,2012-02-10 08:42:44
0.997999906539917,44.2661100625992,-71.6769450902939,50,2012-02-10 08:42:45
1.13900017738342,44.2661100625992,-71.6769450902939,50,2012-02-10 08:42:46
0.893999814987183,44.2661100625992,-71.6769450902939,50,2012-02-10 08:42:47
0.966000080108643,44.2661100625992,-71.6769450902939,50,2012-02-10 08:42:48
1.02900004386902,44.2661100625992,-71.6769450902939,50,2012-02-10 08:42:49
0.970999956130981,44.2661100625992,-71.6769450902939,50,2012-02-10 08:42:50
1.01200008392334,44.2661100625992,-71.6769450902939,50,2012-02-10 08:42:51
1.01699995994568,44.2661100625992,-71.6769450902939,50,2012-02-10 08:42:52
1.05200004577637,44.2661100625992,-71.6769450902939,50,2012-02-10 08:42:53
0.921999931335449,44.2661100625992,-71.6769450902939,50,2012-02-10 08:42:54
4.02900004386902,44.2661100625992,-71.6769450902939,50,2012-02-10 08:42:58
0.970999956130981,44.2661100625992,-71.6769450902939,50,2012-02-10 08:42:59
1,44.2661100625992,-71.6769450902939,50,2012-02-10 08:43:00
1.03699994087219,44.2661100625992,-71.6769450902939,50,2012-02-10 08:43:01
0.985000133514404,44.2661100625992,-71.6769450902939,50,2012-02-10 08:43:02
1.01300001144409,44.2661100625992,-71.6769450902939,50,2012-02-10 08:43:03
1.45499992370605,44.2661100625992,-71.6769450902939,50,2012-02-10 08:43:04
0.992000102996826,44.2661100625992,-71.6769450902939,50,2012-02-10 08:43:05
1.03099989891052,44.2661100625992,-71.6769450902939,50,2012-02-10 08:43:06
0.970999956130981,44.2661100625992,-71.6769450902939,50,2012-02-10 08:43:07
1.04400014877319,44.2661100625992,-71.6769450902939,50,2012-02-10 08:43:08
1.00899982452393,44.2661100625992,-71.6769450902939,50,2012-02-10 08:43:09
0.949000120162964,44.2661100625992,-71.6769450902939,50,2012-02-10 08:43:10
1,44.2661100625992,-71.6769450902939,50,2012-02-10 08:43:11
1.00099992752075,44.2661100625992,-71.6769450902939,50,2012-02-10 08:43:12
1.02999997138977,44.2661100625992,-71.6769450902939,50,2012-02-10 08:43:13
1.00300002098083,44.2661100625992,-71.6769450902939,50,2012-02-10 08:43:14
0.967999935150146,44.2661100625992,-71.6769450902939,50,2012-02-10 08:43:15
1.02600002288818,44.2661100625992,-71.6769450902939,50,2012-02-10 08:43:16
0.976999998092651,44.2661100625992,-71.6769450902939,50,2012-02-10 08:43:17
1.0460000038147,44.2661100625992,-71.6769450902939,50,2012-02-10 08:43:18
1.01200008392334,44.2661100625992,-71.6769450902939,50,2012-02-10 08:43:19
0.943000078201294,44.2661100625992,-71.6769450902939,50,2012-02-10 08:43:20
1,44.2661100625992,-71.6769450902939,50,2012-02-10 08:43:21
1.01799988746643,44.2661100625992,-71.6769450902939,50,2012-02-10 08:43:22
0.983999967575073,44.2661100625992,-71.6769450902939,50,2012-02-10 08:43:23
1.02500009536743,44.2661100625992,-71.6769450902939,50,2012-02-10 08:43:24
4.0019998550415,44.2661100625992,-71.6769450902939,50,2012-02-10 08:43:28
1.02000021934509,44.2661100625992,-71.6769450902939,50,2012-02-10 08:43:29
0.997999906539917,44.2661100625992,-71.6769450902939,50,2012-02-10 08:43:30
0.986999988555908,44.2661100625992,-71.6769450902939,50,2012-02-10 08:43:31
1,44.2661100625992,-71.6769450902939,50,2012-02-10 08:43:32
1.00600004196167,44.2661100625992,-71.6769450902939,50,2012-02-10 08:43:33
1.01699995994568,44.2661100625992,-71.6769450902939,50,2012-02-10 08:43:34
0.990000009536743,44.2661100625992,-71.6769450902939,50,2012-02-10 08:43:35
0.986999988555908,44.2661100625992,-71.6769450902939,50,2012-02-10 08:43:36
1.00699996948242,44.2661100625992,-71.6769450902939,50,2012-02-10 08:43:37
1.00600004196167,44.2661100625992,-71.6769450902939,50,2012-02-10 08:43:38
0.994999885559082,44.2661100625992,-71.6769450902939,50,2012-02-10 08:43:39
1.0090000629425,44.2661100625992,-71.6769450902939,50,2012-02-10 08:43:40
1.02800011634827,44.2661100625992,-71.6769450902939,50,2012-02-10 08:43:41
0.96399998664856,44.2661100625992,-71.6769450902939,50,2012-02-10 08:43:42
1.00399994850159,44.2661100625992,-71.6769450902939,50,2012-02-10 08:43:43
0.460000038146973,44.3552935123444,-71.9050991535187,50,2012-02-10 08:43:44
1.00600004196167,44.3552935123444,-71.9050937891006,50,2012-02-10 08:43:45
0.98199987411499,44.3552935123444,-71.9050937891006,50,2012-02-10 08:43:46
1.00699996948242,44.3552935123444,-71.9050937891006,50,2012-02-10 08:43:47
0.990999937057495,44.3552935123444,-71.9050937891006,50,2012-02-10 08:43:48
1,44.3552935123444,-71.9050937891006,50,2012-02-10 08:43:49
1.00200009346008,44.3552935123444,-71.9050937891006,50,2012-02-10 08:43:50
4.0770001411438,44.354864358902,-71.9059145450592,50,2012-02-10 08:43:54
3.48399996757507,44.354875087738,-71.9059091806412,50,2012-02-10 08:43:57
0.434000015258789,44.3550950288773,-71.9050186872482,50,2012-02-10 08:43:58
1.00099992752075,44.355052113533,-71.9050669670105,50,2012-02-10 08:43:59
1,44.3550360202789,-71.9052600860596,50,2012-02-10 08:44:00
1,44.3549931049347,-71.9054156541824,50,2012-02-10 08:44:01
0.999000072479248,44.3549662828445,-71.9053566455841,50,2012-02-10 08:44:02
1.00099992752075,44.3549340963364,-71.9054585695267,50,2012-02-10 08:44:03
0.999000072479248,44.3549448251724,-71.905517578125,50,2012-02-10 08:44:04
1,44.3549609184265,-71.9055604934692,50,2012-02-10 08:44:05
1.00099992752075,44.3550682067871,-71.9055014848709,50,2012-02-10 08:44:06
1.00099992752075,44.3550735712051,-71.90534055233,50,2012-02-10 08:44:07
0.998000144958496,44.3550628423691,-71.9052118062973,50,2012-02-10 08:44:08
1,44.3550306558609,-71.9053834676743,50,2012-02-10 08:44:09
1,44.3550252914429,-71.9053190946579,50,2012-02-10 08:44:10
1.0019998550415,44.3550896644592,-71.9051688909531,50,2012-02-10 08:44:11
0.998000144958496,44.3550091981888,-71.9052654504776,50,2012-02-10 08:44:12
1,44.3548482656479,-71.9056731462479,50,2012-02-10 08:44:13
0.998999834060669,44.3549448251724,-71.9053941965103,50,2012-02-10 08:44:14
1.00100016593933,44.3550306558609,-71.9052278995514,50,2012-02-10 08:44:15
1.09299993515015,44.3550199270248,-71.9052225351334,50,2012-02-10 08:44:16
0.905999898910522,44.355041384697,-71.9053834676743,50,2012-02-10 08:44:17
1.00300002098083,44.3549877405167,-71.905335187912,50,2012-02-10 08:44:18
1.0090000629425,44.3549877405167,-71.9053083658218,50,2012-02-10 08:44:19
0.989000082015991,44.3549984693527,-71.9053244590759,50,2012-02-10 08:44:20
1,44.3549609184265,-71.9053190946579,50,2012-02-10 08:44:21
1,44.3548321723938,-71.9055283069611,50,2012-02-10 08:44:22
1,44.3546766042709,-71.9059038162231,50,2012-02-10 08:44:23
1,44.3547570705414,-71.9058018922806,50,2012-02-10 08:44:24
1.00099992752075,44.3550038337708,-71.9053083658218,50,2012-02-10 08:44:25
1.00300002098083,44.3552559614182,-71.9048792123795,50,2012-02-10 08:44:26
0.996999979019165,44.3552613258362,-71.9047558307648,50,2012-02-10 08:44:27
0.999000072479248,44.3552505970001,-71.9049167633057,50,2012-02-10 08:44:28
1.00099992752075,44.3551272153854,-71.9050937891006,50,2012-02-10 08:44:29
1.01600003242493,44.355046749115,-71.9052815437317,50,2012-02-10 08:44:30
1.00099992752075,44.3549931049347,-71.9053834676743,50,2012-02-10 08:44:31
0.983999967575073,44.3549448251724,-71.9054532051086,50,2012-02-10 08:44:32
1,44.3549072742462,-71.9055444002151,50,2012-02-10 08:44:33
0.999000072479248,44.3549126386642,-71.905522942543,50,2012-02-10 08:44:34
1,44.3548911809921,-71.905329823494,50,2012-02-10 08:44:35
1.00300002098083,44.3549340963364,-71.9051957130432,50,2012-02-10 08:44:36
0.996000051498413,44.3549716472626,-71.9051420688629,50,2012-02-10 08:44:37
1.0019998550415,44.3549287319183,-71.905163526535,50,2012-02-10 08:44:38
1,44.3549823760986,-71.9051688909531,50,2012-02-10 08:44:39
1.00300002098083,44.3549287319183,-71.9052708148956,50,2012-02-10 08:44:40
3.99600005149841,44.3548911809921,-71.9054961204529,50,2012-02-10 08:44:44
1.00099992752075,44.3548965454102,-71.9054800271988,50,2012-02-10 08:44:45
0.999000072479248,44.3548911809921,-71.9055336713791,50,2012-02-10 08:44:46
1,44.3548804521561,-71.9055390357971,50,2012-02-10 08:44:47
1.00099992752075,44.354864358902,-71.9055068492889,50,2012-02-10 08:44:48
0.539999961853027,44.3549448251724,-71.9054371118546,50,2012-02-10 08:44:48
0.998000144958496,44.3549984693527,-71.9053620100021,50,2012-02-10 08:44:49
1.00099992752075,44.3550038337708,-71.9052010774612,50,2012-02-10 08:44:50
1,44.3549180030823,-71.9052654504776,50,2012-02-10 08:44:51
1.00099992752075,44.3549931049347,-71.9051152467728,50,2012-02-10 08:44:52
1,44.3549019098282,-71.9053620100021,50,2012-02-10 08:44:53
3.64499998092651,44.3549019098282,-71.9053673744202,50,2012-02-10 08:44:57
0.962000131607056,44.3549019098282,-71.9053673744202,50,2012-02-10 08:44:58
1.0220000743866,44.3549019098282,-71.9053673744202,50,2012-02-10 08:44:59
0.988999843597412,44.3549019098282,-71.9053673744202,50,2012-02-10 08:45:00
1.00100016593933,44.3549019098282,-71.9053673744202,50,2012-02-10 08:45:01
1,44.3549019098282,-71.9053673744202,50,2012-02-10 08:45:02
1.00099992752075,44.3549019098282,-71.9053673744202,50,2012-02-10 08:45:03
1.00099992752075,44.3549019098282,-71.9053673744202,50,2012-02-10 08:45:04
1,44.3549019098282,-71.9053673744202,50,2012-02-10 08:45:05
1.01699995994568,44.3549019098282,-71.9053673744202,50,2012-02-10 08:45:06
0.983999967575073,44.3549019098282,-71.9053673744202,50,2012-02-10 08:45:07
1,44.3549019098282,-71.9053673744202,50,2012-02-10 08:45:08
1.00100016593933,44.3549019098282,-71.9053673744202,50,2012-02-10 08:45:09
1.00099992752075,44.3549019098282,-71.9053673744202,50,2012-02-10 08:45:10
1.00099992752075,44.3549019098282,-71.9053673744202,50,2012-02-10 08:45:11
1,44.3549019098282,-71.9053673744202,50,2012-02-10 08:45:12
1.00200009346008,44.3549019098282,-71.9053673744202,50,2012-02-10 08:45:13
1.01200008392334,44.3549019098282,-71.9053673744202,50,2012-02-10 08:45:14
0.990999937057495,44.3549019098282,-71.9053673744202,50,2012-02-10 08:45:15
1,44.3549019098282,-71.9053673744202,50,2012-02-10 08:45:16
0.999000072479248,44.3549019098282,-71.9053673744202,50,2012-02-10 08:45:17
1,44.3549019098282,-71.9053673744202,50,2012-02-10 08:45:18
1.00099992752075,44.3549019098282,-71.9053673744202,50,2012-02-10 08:45:19
1.00099992752075,44.3549019098282,-71.9053673744202,50,2012-02-10 08:45:20
1,44.3549019098282,-71.9053673744202,50,2012-02-10 08:45:21
1.00099992752075,44.3549019098282,-71.9053673744202,50,2012-02-10 08:45:22
1.00100016593933,44.3549019098282,-71.9053673744202,50,2012-02-10 08:45:23
1,44.3549019098282,-71.9053673744202,50,2012-02-10 08:45:24
2.99000000953674,44.3549019098282,-71.9053673744202,50,2012-02-10 08:45:27
1.00099992752075,44.3549019098282,-71.9053673744202,50,2012-02-10 08:45:28
1.00099992752075,44.3549019098282,-71.9053673744202,50,2012-02-10 08:45:29
0.999000072479248,44.3549019098282,-71.9053673744202,50,2012-02-10 08:45:30
1.00300002098083,44.3549019098282,-71.9053673744202,50,2012-02-10 08:45:31
1,44.3549019098282,-71.9053673744202,50,2012-02-10 08:45:32
1.00200009346008,44.3549019098282,-71.9053673744202,50,2012-02-10 08:45:33
1,44.3549019098282,-71.9053673744202,50,2012-02-10 08:45:34
0.998999834060669,44.3549019098282,-71.9053673744202,50,2012-02-10 08:45:35
1.00100016593933,44.3549019098282,-71.9053673744202,50,2012-02-10 08:45:36
1,44.3549019098282,-71.9053673744202,50,2012-02-10 08:45:37
1.00099992752075,44.3549019098282,-71.9053673744202,50,2012-02-10 08:45:38
1,44.3549019098282,-71.9053673744202,50,2012-02-10 08:45:39
1.00099992752075,44.3549019098282,-71.9053673744202,50,2012-02-10 08:45:40
1,44.3549019098282,-71.9053673744202,50,2012-02-10 08:45:41
1.00200009346008,44.3549019098282,-71.9053673744202,50,2012-02-10 08:45:42
1.02999997138977,44.3549019098282,-71.9053673744202,50,2012-02-10 08:45:43
0.970999956130981,44.3549019098282,-71.9053673744202,50,2012-02-10 08:45:44
1.00099992752075,44.3549019098282,-71.9053673744202,50,2012-02-10 08:45:45
1,44.3549019098282,-71.9053673744202,50,2012-02-10 08:45:46
1.00100016593933,44.3549019098282,-71.9053673744202,50,2012-02-10 08:45:47
1.01099991798401,44.3549019098282,-71.9053673744202,50,2012-02-10 08:45:48
1.03600001335144,44.3549019098282,-71.9053673744202,50,2012-02-10 08:45:49
0.953000068664551,44.3549019098282,-71.9053673744202,50,2012-02-10 08:45:50
1.0019998550415,44.3549019098282,-71.9053673744202,50,2012-02-10 08:45:51
1.00100016593933,44.3549019098282,-71.9053673744202,50,2012-02-10 08:45:52
0.998999834060669,44.3549019098282,-71.9053673744202,50,2012-02-10 08:45:53
1.04900002479553,44.3549019098282,-71.9053673744202,50,2012-02-10 08:45:54
2.95000004768372,44.3549019098282,-71.9053673744202,50,2012-02-10 08:45:57
1,44.3549019098282,-71.9053673744202,50,2012-02-10 08:45:58
1,44.3549019098282,-71.9053673744202,50,2012-02-10 08:45:59
1.00200009346008,44.3549019098282,-71.9053673744202,50,2012-02-10 08:46:00
1,44.3549019098282,-71.9053673744202,50,2012-02-10 08:46:01
1.0019998550415,44.3549019098282,-71.9053673744202,50,2012-02-10 08:46:02
1,44.3549019098282,-71.9053673744202,50,2012-02-10 08:46:03
1.01200008392334,44.3549019098282,-71.9053673744202,50,2012-02-10 08:46:04
0.989000082015991,44.3549019098282,-71.9053673744202,50,2012-02-10 08:46:05
1,44.3549019098282,-71.9053673744202,50,2012-02-10 08:46:06
1.00499987602234,44.3549019098282,-71.9053673744202,50,2012-02-10 08:46:07
1,44.3549019098282,-71.9053673744202,50,2012-02-10 08:46:08
1.00099992752075,44.3549019098282,-71.9053673744202,50,2012-02-10 08:46:09
1,44.3549019098282,-71.9053673744202,50,2012-02-10 08:46:10
1.00100016593933,44.3549019098282,-71.9053673744202,50,2012-02-10 08:46:11
0.998999834060669,44.3549019098282,-71.9053673744202,50,2012-02-10 08:46:12
1,44.3549019098282,-71.9053673744202,50,2012-02-10 08:46:13
1.00100016593933,44.3549019098282,-71.9053673744202,50,2012-02-10 08:46:14
1,44.3549019098282,-71.9053673744202,50,2012-02-10 08:46:15
1.00099992752075,44.3549019098282,-71.9053673744202,50,2012-02-10 08:46:16
1.00099992752075,44.3549019098282,-71.9053673744202,50,2012-02-10 08:46:17
1.00200009346008,44.3549019098282,-71.9053673744202,50,2012-02-10 08:46:18
1.00099992752075,44.3549019098282,-71.9053673744202,50,2012-02-10 08:46:19
1,44.3549019098282,-71.9053673744202,50,2012-02-10 08:46:20
1.00099992752075,44.3549019098282,-71.9053673744202,50,2012-02-10 08:46:21
1.00100016593933,44.3549019098282,-71.9053673744202,50,2012-02-10 08:46:22
0.998999834060669,44.3549019098282,-71.9053673744202,50,2012-02-10 08:46:23
1,44.3549019098282,-71.9053673744202,50,2012-02-10 08:46:24
2.9980001449585,44.3549019098282,-71.9053673744202,50,2012-02-10 08:46:27
1.00099992752075,44.3549019098282,-71.9053673744202,50,2012-02-10 08:46:28
1,44.3549019098282,-71.9053673744202,50,2012-02-10 08:46:29
1.00099992752075,44.3549019098282,-71.9053673744202,50,2012-02-10 08:46:30
1.00100016593933,44.3549019098282,-71.9053673744202,50,2012-02-10 08:46:31
1,44.3549019098282,-71.9053673744202,50,2012-02-10 08:46:32
1.0149998664856,44.3549019098282,-71.9053673744202,50,2012-02-10 08:46:33
0.986000061035156,44.3549019098282,-71.9053673744202,50,2012-02-10 08:46:34
1.00099992752075,44.3549019098282,-71.9053673744202,50,2012-02-10 08:46:35
1.00100016593933,44.3549019098282,-71.9053673744202,50,2012-02-10 08:46:36
1.00899982452393,44.3549019098282,-71.9053673744202,50,2012-02-10 08:46:37
1.01600003242493,44.3549019098282,-71.9053673744202,50,2012-02-10 08:46:38
0.985000133514404,44.3549019098282,-71.9053673744202,50,2012-02-10 08:46:39
1.01300001144409,44.3549019098282,-71.9053673744202,50,2012-02-10 08:46:40
1.0019998550415,44.3549019098282,-71.9053673744202,50,2012-02-10 08:46:41
0.986999988555908,44.3549019098282,-71.9053673744202,50,2012-02-10 08:46:42
1.00100016593933,44.3549019098282,-71.9053673744202,50,2012-02-10 08:46:43
1,44.3549019098282,-71.9053673744202,50,2012-02-10 08:46:44
1.0019998550415,44.3549019098282,-71.9053673744202,50,2012-02-10 08:46:45
1,44.3549019098282,-71.9053673744202,50,2012-02-10 08:46:46
1.00100016593933,44.3549019098282,-71.9053673744202,50,2012-02-10 08:46:47
1,44.3549019098282,-71.9053673744202,50,2012-02-10 08:46:48
1.00099992752075,44.3549019098282,-71.9053673744202,50,2012-02-10 08:46:49
1.0019998550415,44.3549019098282,-71.9053673744202,50,2012-02-10 08:46:50
0.999000072479248,44.3549019098282,-71.9053673744202,50,2012-02-10 08:46:51
1.00099992752075,44.3549019098282,-71.9053673744202,50,2012-02-10 08:46:52
1,44.3549019098282,-71.9053673744202,50,2012-02-10 08:46:53
1,44.3549019098282,-71.9053673744202,50,2012-02-10 08:46:54
2.99300003051758,44.3549019098282,-71.9053673744202,50,2012-02-10 08:46:57
1.00100016593933,44.3549019098282,-71.9053673744202,50,2012-02-10 08:46:58
1.00099992752075,44.3549019098282,-71.9053673744202,50,2012-02-10 08:46:59
1,44.3549019098282,-71.9053673744202,50,2012-02-10 08:47:00
1.00099992752075,44.3549019098282,-71.9053673744202,50,2012-02-10 08:47:01
1.00100016593933,44.3549019098282,-71.9053673744202,50,2012-02-10 08:47:02
1,44.3549019098282,-71.9053673744202,50,2012-02-10 08:47:03
1.00099992752075,44.3549019098282,-71.9053673744202,50,2012-02-10 08:47:04
1,44.3549019098282,-71.9053673744202,50,2012-02-10 08:47:05
1.00099992752075,44.3549019098282,-71.9053673744202,50,2012-02-10 08:47:06
1.00099992752075,44.3549019098282,-71.9053673744202,50,2012-02-10 08:47:07
1.00100016593933,44.3549019098282,-71.9053673744202,50,2012-02-10 08:47:08
0.998999834060669,44.3549019098282,-71.9053673744202,50,2012-02-10 08:47:09
1.00100016593933,44.3549019098282,-71.9053673744202,50,2012-02-10 08:47:10
1.0019998550415,44.3549019098282,-71.9053673744202,50,2012-02-10 08:47:11
1,44.3549019098282,-71.9053673744202,50,2012-02-10 08:47:12
1,44.3549019098282,-71.9053673744202,50,2012-02-10 08:47:13
1.00100016593933,44.3549019098282,-71.9053673744202,50,2012-02-10 08:47:14
1.00300002098083,44.3549019098282,-71.9053673744202,50,2012-02-10 08:47:15
1.0019998550415,44.3549019098282,-71.9053673744202,50,2012-02-10 08:47:16
0.998000144958496,44.3549019098282,-71.9053673744202,50,2012-02-10 08:47:17
1,44.3549019098282,-71.9053673744202,50,2012-02-10 08:47:18
1.00099992752075,44.3549019098282,-71.9053673744202,50,2012-02-10 08:47:19
1.00099992752075,44.3549019098282,-71.9053673744202,50,2012-02-10 08:47:20
1,44.3549019098282,-71.9053673744202,50,2012-02-10 08:47:21
1.00100016593933,44.3549019098282,-71.9053673744202,50,2012-02-10 08:47:22
1.00099992752075,44.3549019098282,-71.9053673744202,50,2012-02-10 08:47:23
1,44.3549019098282,-71.9053673744202,50,2012-02-10 08:47:24
2.99799990653992,44.3549019098282,-71.9053673744202,50,2012-02-10 08:47:27
1.00200009346008,44.3549019098282,-71.9053673744202,50,2012-02-10 08:47:28
1,44.3549019098282,-71.9053673744202,50,2012-02-10 08:47:29
1.09800004959106,44.3549019098282,-71.9053673744202,50,2012-02-10 08:47:30
0.902999877929688,44.3549019098282,-71.9053673744202,50,2012-02-10 08:47:31
1,44.3549019098282,-71.9053673744202,50,2012-02-10 08:47:32
1.00099992752075,44.3549019098282,-71.9053673744202,50,2012-02-10 08:47:33
1.00100016593933,44.3549019098282,-71.9053673744202,50,2012-02-10 08:47:34
1.00099992752075,44.3549019098282,-71.9053673744202,50,2012-02-10 08:47:35
1,44.3549019098282,-71.9053673744202,50,2012-02-10 08:47:36
1,44.3549019098282,-71.9053673744202,50,2012-02-10 08:47:37
1.00099992752075,44.3549019098282,-71.9053673744202,50,2012-02-10 08:47:38
1,44.3549019098282,-71.9053673744202,50,2012-02-10 08:47:39
1.00200009346008,44.3549019098282,-71.9053673744202,50,2012-02-10 08:47:40
1.00499987602234,44.3549019098282,-71.9053673744202,50,2012-02-10 08:47:41
0.996000051498413,44.3549019098282,-71.9053673744202,50,2012-02-10 08:47:42
1.00100016593933,44.3549019098282,-71.9053673744202,50,2012-02-10 08:47:43
1,44.3549019098282,-71.9053673744202,50,2012-02-10 08:47:44
1.00099992752075,44.3549019098282,-71.9053673744202,50,2012-02-10 08:47:45
1.0019998550415,44.3549019098282,-71.9053673744202,50,2012-02-10 08:47:46
1,44.3549019098282,-71.9053673744202,50,2012-02-10 08:47:47
1,44.3549019098282,-71.9053673744202,50,2012-02-10 08:47:48
1.00200009346008,44.3549019098282,-71.9053673744202,50,2012-02-10 08:47:49
1,44.3549019098282,-71.9053673744202,50,2012-02-10 08:47:50
1.00099992752075,44.3549019098282,-71.9053673744202,50,2012-02-10 08:47:51
1.00100016593933,44.3549019098282,-71.9053673744202,50,2012-02-10 08:47:52
1,44.3549019098282,-71.9053673744202,50,2012-02-10 08:47:53
1.00099992752075,44.3549019098282,-71.9053673744202,50,2012-02-10 08:47:54
3.00200009346008,44.3549019098282,-71.9053673744202,50,2012-02-10 08:47:57
0.995999813079834,44.3549019098282,-71.9053673744202,50,2012-02-10 08:47:58
1.00100016593933,44.3549019098282,-71.9053673744202,50,2012-02-10 08:47:59
1.0019998550415,44.3549019098282,-71.9053673744202,50,2012-02-10 08:48:00
1,44.3549019098282,-71.9053673744202,50,2012-02-10 08:48:01
1.00100016593933,44.3549019098282,-71.9053673744202,50,2012-02-10 08:48:02
1.00099992752075,44.3549019098282,-71.9053673744202,50,2012-02-10 08:48:03
2.00099992752075,44.3549019098282,-71.9053673744202,50,2012-02-10 08:48:05
1.00099992752075,44.3549019098282,-71.9053673744202,50,2012-02-10 08:48:06
1,44.3549019098282,-71.9053673744202,50,2012-02-10 08:48:07
1,44.3549019098282,-71.9053673744202,50,2012-02-10 08:48:08
1.00100016593933,44.3549019098282,-71.9053673744202,50,2012-02-10 08:48:09
1.00099992752075,44.3549019098282,-71.9053673744202,50,2012-02-10 08:48:10
1.00500011444092,44.3549019098282,-71.9053673744202,50,2012-02-10 08:48:11
1,44.3549019098282,-71.9053673744202,50,2012-02-10 08:48:12
0.998999834060669,44.3549019098282,-71.9053673744202,50,2012-02-10 08:48:13
1,44.3549019098282,-71.9053673744202,50,2012-02-10 08:48:14
1,44.3549019098282,-71.9053673744202,50,2012-02-10 08:48:15
1.00100016593933,44.3549019098282,-71.9053673744202,50,2012-02-10 08:48:16
1.00099992752075,44.3549019098282,-71.9053673744202,50,2012-02-10 08:48:17
0.999000072479248,44.3549019098282,-71.9053673744202,50,2012-02-10 08:48:18
1.00599980354309,44.3549019098282,-71.9053673744202,50,2012-02-10 08:48:19
1.00100016593933,44.3549019098282,-71.9053673744202,50,2012-02-10 08:48:20
1.00300002098083,44.3549019098282,-71.9053673744202,50,2012-02-10 08:48:21
1,44.3549019098282,-71.9053673744202,50,2012-02-10 08:48:22
1,44.3549019098282,-71.9053673744202,50,2012-02-10 08:48:23
1,44.3549019098282,-71.9053673744202,50,2012-02-10 08:48:24
3.99199986457825,44.3549019098282,-71.9053673744202,50,2012-02-10 08:48:28
1.00100016593933,44.3549019098282,-71.9053673744202,50,2012-02-10 08:48:29
1.00099992752075,44.3549019098282,-71.9053673744202,50,2012-02-10 08:48:30
1.00099992752075,44.3549019098282,-71.9053673744202,50,2012-02-10 08:48:31
1.00099992752075,44.3549019098282,-71.9053673744202,50,2012-02-10 08:48:32
1.00100016593933,44.3549019098282,-71.9053673744202,50,2012-02-10 08:48:33
1.00099992752075,44.3549019098282,-71.9053673744202,50,2012-02-10 08:48:34
1.00200009346008,44.3549019098282,-71.9053673744202,50,2012-02-10 08:48:35
1,44.3549019098282,-71.9053673744202,50,2012-02-10 08:48:36
1.00099992752075,44.3549019098282,-71.9053673744202,50,2012-02-10 08:48:37
1,44.3549019098282,-71.9053673744202,50,2012-02-10 08:48:38
1.00200009346008,44.3549019098282,-71.9053673744202,50,2012-02-10 08:48:39
1,44.3549019098282,-71.9053673744202,50,2012-02-10 08:48:40
1.00099992752075,44.3549019098282,-71.9053673744202,50,2012-02-10 08:48:41
1.02499985694885,44.3549019098282,-71.9053673744202,50,2012-02-10 08:48:42
0.976000070571899,44.3549019098282,-71.9053673744202,50,2012-02-10 08:48:43
1,44.3549019098282,-71.9053673744202,50,2012-02-10 08:48:44
1.00099992752075,44.3549019098282,-71.9053673744202,50,2012-02-10 08:48:45
1.00100016593933,44.3549019098282,-71.9053673744202,50,2012-02-10 08:48:46
1,44.3549019098282,-71.9053673744202,50,2012-02-10 08:48:47
1,44.3549019098282,-71.9053673744202,50,2012-02-10 08:48:48
1.00099992752075,44.3549019098282,-71.9053673744202,50,2012-02-10 08:48:49
1.00099992752075,44.3549019098282,-71.9053673744202,50,2012-02-10 08:48:50
1,44.3549019098282,-71.9053673744202,50,2012-02-10 08:48:51
1.47800016403198,44.3549019098282,-71.9053673744202,50,2012-02-10 08:48:52
0.708999872207642,44.3549019098282,-71.9053673744202,50,2012-02-10 08:48:53
1,44.3549019098282,-71.9053673744202,50,2012-02-10 08:48:54
4.5090000629425,44.3549019098282,-71.9053673744202,50,2012-02-10 08:48:59
0.960000038146973,44.3549019098282,-71.9053673744202,50,2012-02-10 08:49:00
1,44.3549019098282,-71.9053673744202,50,2012-02-10 08:49:01
1.03999996185303,44.3549019098282,-71.9053673744202,50,2012-02-10 08:49:02
0.99399995803833,44.3549019098282,-71.9053673744202,50,2012-02-10 08:49:03
5.02999997138977,44.3549019098282,-71.9053673744202,50,2012-02-10 08:49:08
0.219000101089478,44.3549019098282,-71.9053673744202,50,2012-02-10 08:49:08
0.116999864578247,44.3549019098282,-71.9053673744202,50,2012-02-10 08:49:08
0.662000179290771,44.3549019098282,-71.9053673744202,50,2012-02-10 08:49:09
0.978999853134155,44.3549019098282,-71.9053673744202,50,2012-02-10 08:49:10
0.966000080108643,44.3549019098282,-71.9053673744202,50,2012-02-10 08:49:11
0.999000072479248,44.3549019098282,-71.9053673744202,50,2012-02-10 08:49:12
1.0019998550415,44.3549019098282,-71.9053673744202,50,2012-02-10 08:49:13
1.45300006866455,44.3549019098282,-71.9053673744202,50,2012-02-10 08:49:14
0.584000110626221,44.3549019098282,-71.9053673744202,50,2012-02-10 08:49:15
1.0149998664856,44.3549019098282,-71.9053673744202,50,2012-02-10 08:49:16
0.95799994468689,44.3549019098282,-71.9053673744202,50,2012-02-10 08:49:17
9.90400004386902,44.3549019098282,-71.9053673744202,50,2012-02-10 08:49:27
3.26900005340576,44.3549019098282,-71.9053673744202,50,2012-02-10 08:49:30
1.00099992752075,44.3549019098282,-71.9053673744202,50,2012-02-10 08:49:31
1.00099992752075,44.3549019098282,-71.9053673744202,50,2012-02-10 08:49:32
1,44.3549019098282,-71.9053673744202,50,2012-02-10 08:49:33
1.02600002288818,44.3549019098282,-71.9053673744202,50,2012-02-10 08:49:34
0.976000070571899,44.3549019098282,-71.9053673744202,50,2012-02-10 08:49:35
1.00200009346008,44.3549019098282,-71.9053673744202,50,2012-02-10 08:49:36
0.998999834060669,44.3549019098282,-71.9053673744202,50,2012-02-10 08:49:37
1,44.3549019098282,-71.9053673744202,50,2012-02-10 08:49:38
1.00100016593933,44.3549019098282,-71.9053673744202,50,2012-02-10 08:49:39
1.00099992752075,44.3549019098282,-71.9053673744202,50,2012-02-10 08:49:40
0.999000072479248,44.3549019098282,-71.9053673744202,50,2012-02-10 08:49:41
1.00099992752075,44.3549019098282,-71.9053673744202,50,2012-02-10 08:49:42
1.00099992752075,44.3549019098282,-71.9053673744202,50,2012-02-10 08:49:43
1,44.3549019098282,-71.9053673744202,50,2012-02-10 08:49:44
1.02100014686584,44.3549019098282,-71.9053673744202,50,2012-02-10 08:49:45
1.00099992752075,44.3549019098282,-71.9053673744202,50,2012-02-10 08:49:46
0.983999967575073,44.3549019098282,-71.9053673744202,50,2012-02-10 08:49:47
1,44.3549019098282,-71.9053673744202,50,2012-02-10 08:49:48
1.00099992752075,44.3549019098282,-71.9053673744202,50,2012-02-10 08:49:49
1,44.3549019098282,-71.9053673744202,50,2012-02-10 08:49:50
1.00100016593933,44.3549019098282,-71.9053673744202,50,2012-02-10 08:49:51
1,44.3549019098282,-71.9053673744202,50,2012-02-10 08:49:52
1,44.3549019098282,-71.9053673744202,50,2012-02-10 08:49:53
1,44.3549019098282,-71.9053673744202,50,2012-02-10 08:49:54
1.00099992752075,44.3549019098282,-71.9053673744202,50,2012-02-10 08:49:55
1,44.3549019098282,-71.9053673744202,50,2012-02-10 08:49:56
4.00300002098083,44.3549019098282,-71.9053673744202,50,2012-02-10 08:50:00
1.00099992752075,44.3549019098282,-71.9053673744202,50,2012-02-10 08:50:01
1.00100016593933,44.3549019098282,-71.9053673744202,50,2012-02-10 08:50:02
1,44.3549019098282,-71.9053673744202,50,2012-02-10 08:50:03
1.00299978256226,44.3549019098282,-71.9053673744202,50,2012-02-10 08:50:04
1.00100016593933,44.3549019098282,-71.9053673744202,50,2012-02-10 08:50:05
0.998999834060669,44.3549019098282,-71.9053673744202,50,2012-02-10 08:50:06
1.03800010681152,44.3549019098282,-71.9053673744202,50,2012-02-10 08:50:07
0.963000059127808,44.3549019098282,-71.9053673744202,50,2012-02-10 08:50:08
1.00099992752075,44.3549019098282,-71.9053673744202,50,2012-02-10 08:50:09
1.00099992752075,44.3549019098282,-71.9053673744202,50,2012-02-10 08:50:10
1,44.3549019098282,-71.9053673744202,50,2012-02-10 08:50:11
1.00100016593933,44.3549019098282,-71.9053673744202,50,2012-02-10 08:50:12
1.00099992752075,44.3549019098282,-71.9053673744202,50,2012-02-10 08:50:13
1,44.3549019098282,-71.9053673744202,50,2012-02-10 08:50:14
1.00099992752075,44.3549019098282,-71.9053673744202,50,2012-02-10 08:50:15
1.00100016593933,44.3549019098282,-71.9053673744202,50,2012-02-10 08:50:16
1,44.3549019098282,-71.9053673744202,50,2012-02-10 08:50:17
1.00799989700317,44.3549019098282,-71.9053673744202,50,2012-02-10 08:50:18
0.99399995803833,44.3549019098282,-71.9053673744202,50,2012-02-10 08:50:19
1.01800012588501,44.3549019098282,-71.9053673744202,50,2012-02-10 08:50:20
0.983000040054321,44.3549019098282,-71.9053673744202,50,2012-02-10 08:50:21
1.11499977111816,44.3549019098282,-71.9053673744202,50,2012-02-10 08:50:22
0.886000156402588,44.3549019098282,-71.9053673744202,50,2012-02-10 08:50:23
1.0019998550415,44.3549019098282,-71.9053673744202,50,2012-02-10 08:50:24
0.999000072479248,44.3549019098282,-71.9053673744202,50,2012-02-10 08:50:25
1.00099992752075,44.3549019098282,-71.9053673744202,50,2012-02-10 08:50:26
3.9980001449585,44.3549019098282,-71.9053673744202,50,2012-02-10 08:50:30
1.00099992752075,44.3549019098282,-71.9053673744202,50,2012-02-10 08:50:31
1.00099992752075,44.3549019098282,-71.9053673744202,50,2012-02-10 08:50:32
1,44.3549019098282,-71.9053673744202,50,2012-02-10 08:50:33
1.00100016593933,44.3549019098282,-71.9053673744202,50,2012-02-10 08:50:34
1.00600004196167,44.3549019098282,-71.9053673744202,50,2012-02-10 08:50:35
0.994999885559082,44.3549019098282,-71.9053673744202,50,2012-02-10 08:50:36
1,44.3549019098282,-71.9053673744202,50,2012-02-10 08:50:37
1.00099992752075,44.3549019098282,-71.9053673744202,50,2012-02-10 08:50:38
1.00200009346008,44.3549019098282,-71.9053673744202,50,2012-02-10 08:50:39
1,44.3549019098282,-71.9053673744202,50,2012-02-10 08:50:40
1,44.3549019098282,-71.9053673744202,50,2012-02-10 08:50:41
1.00099992752075,44.3549019098282,-71.9053673744202,50,2012-02-10 08:50:42
1.00100016593933,44.3549019098282,-71.9053673744202,50,2012-02-10 08:50:43
1.00099992752075,44.3549019098282,-71.9053673744202,50,2012-02-10 08:50:44
1,44.3549019098282,-71.9053673744202,50,2012-02-10 08:50:45
1.00099992752075,44.3549019098282,-71.9053673744202,50,2012-02-10 08:50:46
1.00099992752075,44.3549019098282,-71.9053673744202,50,2012-02-10 08:50:47
1,44.3549019098282,-71.9053673744202,50,2012-02-10 08:50:48
1.00100016593933,44.3549019098282,-71.9053673744202,50,2012-02-10 08:50:49
1,44.3549019098282,-71.9053673744202,50,2012-02-10 08:50:50
1.00099992752075,44.3549019098282,-71.9053673744202,50,2012-02-10 08:50:51
1,44.3549019098282,-71.9053673744202,50,2012-02-10 08:50:52
1.00099992752075,44.3549019098282,-71.9053673744202,50,2012-02-10 08:50:53
1.12100005149841,44.3549019098282,-71.9053673744202,50,2012-02-10 08:50:54
0.880000114440918,44.3549019098282,-71.9053673744202,50,2012-02-10 08:50:55
1.01099991798401,44.3549019098282,-71.9053673744202,50,2012-02-10 08:50:56
3.98799991607666,44.3549019098282,-71.9053673744202,50,2012-02-10 08:51:00
1,44.3549019098282,-71.9053673744202,50,2012-02-10 08:51:01
1.00200009346008,44.3549019098282,-71.9053673744202,50,2012-02-10 08:51:02
1,44.3549019098282,-71.9053673744202,50,2012-02-10 08:51:03
1,44.3549019098282,-71.9053673744202,50,2012-02-10 08:51:04
1.00099992752075,44.3549019098282,-71.9053673744202,50,2012-02-10 08:51:05
1.00200009346008,44.3549019098282,-71.9053673744202,50,2012-02-10 08:51:06
1,44.3549019098282,-71.9053673744202,50,2012-02-10 08:51:07
1,44.3549019098282,-71.9053673744202,50,2012-02-10 08:51:08
1.00200009346008,44.3549019098282,-71.9053673744202,50,2012-02-10 08:51:09
1.00399994850159,44.3549019098282,-71.9053673744202,50,2012-02-10 08:51:10
0.996999979019165,44.3549019098282,-71.9053673744202,50,2012-02-10 08:51:11
1.00300002098083,44.3549019098282,-71.9053673744202,50,2012-02-10 08:51:12
1,44.3549019098282,-71.9053673744202,50,2012-02-10 08:51:13
1.0019998550415,44.3549019098282,-71.9053673744202,50,2012-02-10 08:51:14
1.00100016593933,44.3549019098282,-71.9053673744202,50,2012-02-10 08:51:15
0.998999834060669,44.3549019098282,-71.9053673744202,50,2012-02-10 08:51:16
1.00100016593933,44.3549019098282,-71.9053673744202,50,2012-02-10 08:51:17
1,44.3549019098282,-71.9053673744202,50,2012-02-10 08:51:18
1,44.3549019098282,-71.9053673744202,50,2012-02-10 08:51:19
1.00099992752075,44.3549019098282,-71.9053673744202,50,2012-02-10 08:51:20
1.00099992752075,44.3549019098282,-71.9053673744202,50,2012-02-10 08:51:21
1.00200009346008,44.3549019098282,-71.9053673744202,50,2012-02-10 08:51:22
1.00099992752075,44.3549019098282,-71.9053673744202,50,2012-02-10 08:51:23
0.999000072479248,44.3549019098282,-71.9053673744202,50,2012-02-10 08:51:24
1.00099992752075,44.3549019098282,-71.9053673744202,50,2012-02-10 08:51:25
1.00200009346008,44.3549019098282,-71.9053673744202,50,2012-02-10 08:51:26
3.99799990653992,44.3549019098282,-71.9053673744202,50,2012-02-10 08:51:30
1.00099992752075,44.3549019098282,-71.9053673744202,50,2012-02-10 08:51:31
1.00100016593933,44.3549019098282,-71.9053673744202,50,2012-02-10 08:51:32
0.998999834060669,44.3549019098282,-71.9053673744202,50,2012-02-10 08:51:33
1.00600004196167,44.3549019098282,-71.9053673744202,50,2012-02-10 08:51:34
0.995000123977661,44.3549019098282,-71.9053673744202,50,2012-02-10 08:51:35
1.00300002098083,44.3549019098282,-71.9053673744202,50,2012-02-10 08:51:36
0.998999834060669,44.3549019098282,-71.9053673744202,50,2012-02-10 08:51:37
1.00100016593933,44.3549019098282,-71.9053673744202,50,2012-02-10 08:51:38
0.998999834060669,44.3549019098282,-71.9053673744202,50,2012-02-10 08:51:39
1.00200009346008,44.3549019098282,-71.9053673744202,50,2012-02-10 08:51:40
1.00099992752075,44.3549019098282,-71.9053673744202,50,2012-02-10 08:51:41
1.00200009346008,44.3549019098282,-71.9053673744202,50,2012-02-10 08:51:42
1.00099992752075,44.3549019098282,-71.9053673744202,50,2012-02-10 08:51:43
1.00100016593933,44.3549019098282,-71.9053673744202,50,2012-02-10 08:51:44
1.00099992752075,44.3549019098282,-71.9053673744202,50,2012-02-10 08:51:45
1.0019998550415,44.3549019098282,-71.9053673744202,50,2012-02-10 08:51:46
1,44.3549019098282,-71.9053673744202,50,2012-02-10 08:51:47
1.01200008392334,44.3549019098282,-71.9053673744202,50,2012-02-10 08:51:48
0.989000082015991,44.3549019098282,-71.9053673744202,50,2012-02-10 08:51:49
1,44.3549019098282,-71.9053673744202,50,2012-02-10 08:51:50
1.0019998550415,44.3549019098282,-71.9053673744202,50,2012-02-10 08:51:51
0.328999996185303,44.3545746803284,-71.9051259756088,50,2012-02-10 08:51:51
3.00100016593933,44.355057477951,-71.9051098823547,50,2012-02-10 08:51:54
1,44.3550306558609,-71.9051152467728,50,2012-02-10 08:51:55
3.66799998283386,44.3550091981888,-71.9051206111908,50,2012-02-10 08:51:59
0.998999834060669,44.3550091981888,-71.9051206111908,50,2012-02-10 08:52:00
1.00200009346008,44.3550091981888,-71.9051206111908,50,2012-02-10 08:52:01
1,44.3550091981888,-71.9051206111908,50,2012-02-10 08:52:02
1.00099992752075,44.3550091981888,-71.9051206111908,50,2012-02-10 08:52:03
1.00100016593933,44.3550091981888,-71.9051206111908,50,2012-02-10 08:52:04
1,44.3550091981888,-71.9051206111908,50,2012-02-10 08:52:05
0.325999975204468,44.3551325798035,-71.9049113988876,50,2012-02-10 08:52:05
23.6979999542236,44.3551379442215,-71.9049060344696,50,2012-02-10 08:52:29
0.990999937057495,44.3551379442215,-71.9049060344696,50,2012-02-10 08:52:30
1.00100016593933,44.3551379442215,-71.9049060344696,50,2012-02-10 08:52:31
1,44.3551379442215,-71.9049060344696,50,2012-02-10 08:52:32
1.12899994850159,44.3551379442215,-71.9049060344696,50,2012-02-10 08:52:33
0.871000051498413,44.3551379442215,-71.9049060344696,50,2012-02-10 08:52:34
1.00099992752075,44.3551379442215,-71.9049060344696,50,2012-02-10 08:52:35
1.00099992752075,44.3551379442215,-71.9049060344696,50,2012-02-10 08:52:36
1,44.3551379442215,-71.9049060344696,50,2012-02-10 08:52:37
1.00099992752075,44.3551379442215,-71.9049060344696,50,2012-02-10 08:52:38
1.00100016593933,44.3551379442215,-71.9049060344696,50,2012-02-10 08:52:39
1.00099992752075,44.3551379442215,-71.9049060344696,50,2012-02-10 08:52:40
1.00099992752075,44.3551379442215,-71.9049060344696,50,2012-02-10 08:52:41
1.00100016593933,44.3551379442215,-71.9049060344696,50,2012-02-10 08:52:42
1,44.3551379442215,-71.9049060344696,50,2012-02-10 08:52:43
1,44.3551379442215,-71.9049060344696,50,2012-02-10 08:52:44
1,44.3551379442215,-71.9049060344696,50,2012-02-10 08:52:45
1.00099992752075,44.3551379442215,-71.9049060344696,50,2012-02-10 08:52:46
1,44.3551379442215,-71.9049060344696,50,2012-02-10 08:52:47
1,44.3551379442215,-71.9049060344696,50,2012-02-10 08:52:48
1.00499987602234,44.3551379442215,-71.9049060344696,50,2012-02-10 08:52:49
0.997000217437744,44.3551379442215,-71.9049060344696,50,2012-02-10 08:52:50
1,44.3551379442215,-71.9049060344696,50,2012-02-10 08:52:51
1.0019998550415,44.3551379442215,-71.9049060344696,50,2012-02-10 08:52:52
1,44.3551379442215,-71.9049060344696,50,2012-02-10 08:52:53
1.01900005340576,44.3551379442215,-71.9049060344696,50,2012-02-10 08:52:54
0.983999967575073,44.3551379442215,-71.9049060344696,50,2012-02-10 08:52:55
1.00099992752075,44.3551379442215,-71.9049060344696,50,2012-02-10 08:52:56
3.1560001373291,44.3551379442215,-71.9049060344696,50,2012-02-10 08:52:59
0.845999956130981,44.3551379442215,-71.9049060344696,50,2012-02-10 08:53:00
1.00099992752075,44.3551379442215,-71.9049060344696,50,2012-02-10 08:53:01
1.00100016593933,44.3551379442215,-71.9049060344696,50,2012-02-10 08:53:02
1,44.3551379442215,-71.9049060344696,50,2012-02-10 08:53:03
1.0019998550415,44.3551379442215,-71.9049060344696,50,2012-02-10 08:53:04
0.999000072479248,44.3551379442215,-71.9049060344696,50,2012-02-10 08:53:05
1.00099992752075,44.3551379442215,-71.9049060344696,50,2012-02-10 08:53:06
0.999000072479248,44.3551379442215,-71.9049060344696,50,2012-02-10 08:53:07
1.00099992752075,44.3551379442215,-71.9049060344696,50,2012-02-10 08:53:08
1,44.3551379442215,-71.9049060344696,50,2012-02-10 08:53:09
1.01999998092651,44.3551379442215,-71.9049060344696,50,2012-02-10 08:53:10
0.980999946594238,44.3551379442215,-71.9049060344696,50,2012-02-10 08:53:11
1.00100016593933,44.3551379442215,-71.9049060344696,50,2012-02-10 08:53:12
1.00099992752075,44.3551379442215,-71.9049060344696,50,2012-02-10 08:53:13
1,44.3551379442215,-71.9049060344696,50,2012-02-10 08:53:14
1.00200009346008,44.3551379442215,-71.9049060344696,50,2012-02-10 08:53:15
1.00099992752075,44.3551379442215,-71.9049060344696,50,2012-02-10 08:53:16
1.00099992752075,44.3551379442215,-71.9049060344696,50,2012-02-10 08:53:17
1.00100016593933,44.3551379442215,-71.9049060344696,50,2012-02-10 08:53:18
1,44.3551379442215,-71.9049060344696,50,2012-02-10 08:53:19
1.00099992752075,44.3551379442215,-71.9049060344696,50,2012-02-10 08:53:20
1,44.3551379442215,-71.9049060344696,50,2012-02-10 08:53:21
1,44.3551379442215,-71.9049060344696,50,2012-02-10 08:53:22
1,44.3551379442215,-71.9049060344696,50,2012-02-10 08:53:23
1.00099992752075,44.3551379442215,-71.9049060344696,50,2012-02-10 08:53:24
1.00100016593933,44.3551379442215,-71.9049060344696,50,2012-02-10 08:53:25
1.00699996948242,44.3551379442215,-71.9049060344696,50,2012-02-10 08:53:26
3.02899980545044,44.3551379442215,-71.9049060344696,50,2012-02-10 08:53:29
0.962000131607056,44.3551379442215,-71.9049060344696,50,2012-02-10 08:53:30
1.00099992752075,44.3551379442215,-71.9049060344696,50,2012-02-10 08:53:31
1,44.3551379442215,-71.9049060344696,50,2012-02-10 08:53:32
1,44.3551379442215,-71.9049060344696,50,2012-02-10 08:53:33
1.00100016593933,44.3551379442215,-71.9049060344696,50,2012-02-10 08:53:34
1.0019998550415,44.3551379442215,-71.9049060344696,50,2012-02-10 08:53:35
1.00099992752075,44.3551379442215,-71.9049060344696,50,2012-02-10 08:53:36
1.08100008964539,44.3551379442215,-71.9049060344696,50,2012-02-10 08:53:37
0.918999910354614,44.3551379442215,-71.9049060344696,50,2012-02-10 08:53:38
1.00999999046326,44.3551379442215,-71.9049060344696,50,2012-02-10 08:53:39
0.991000175476074,44.3551379442215,-71.9049060344696,50,2012-02-10 08:53:40
1.0019998550415,44.3551379442215,-71.9049060344696,50,2012-02-10 08:53:41
1,44.3551379442215,-71.9049060344696,50,2012-02-10 08:53:42
1.00200009346008,44.3551379442215,-71.9049060344696,50,2012-02-10 08:53:43
0.999000072479248,44.3551379442215,-71.9049060344696,50,2012-02-10 08:53:44
1,44.3551379442215,-71.9049060344696,50,2012-02-10 08:53:45
1.00099992752075,44.3551379442215,-71.9049060344696,50,2012-02-10 08:53:46
1.01099991798401,44.3551379442215,-71.9049060344696,50,2012-02-10 08:53:47
0.990000009536743,44.3551379442215,-71.9049060344696,50,2012-02-10 08:53:48
1.2810001373291,44.3551379442215,-71.9049060344696,50,2012-02-10 08:53:49
1,44.3551379442215,-71.9049060344696,50,2012-02-10 08:53:50
1.00099992752075,44.3551379442215,-71.9049060344696,50,2012-02-10 08:53:51
1.00099992752075,44.3551379442215,-71.9049060344696,50,2012-02-10 08:53:52
1.00100016593933,44.3551379442215,-71.9049060344696,50,2012-02-10 08:53:53
1,44.3551379442215,-71.9049060344696,50,2012-02-10 08:53:54
1.00099992752075,44.3551379442215,-71.9049060344696,50,2012-02-10 08:53:55
1,44.3551379442215,-71.9049060344696,50,2012-02-10 08:53:56
3.04900002479553,44.3551379442215,-71.9049060344696,50,2012-02-10 08:53:59
0.948999881744385,44.3551379442215,-71.9049060344696,50,2012-02-10 08:54:00
1.00100016593933,44.3551379442215,-71.9049060344696,50,2012-02-10 08:54:01
1.13699984550476,44.3551379442215,-71.9049060344696,50,2012-02-10 08:54:02
0.865000009536743,44.3551379442215,-71.9049060344696,50,2012-02-10 08:54:03
1,44.3551379442215,-71.9049060344696,50,2012-02-10 08:54:04
1.00100016593933,44.3551379442215,-71.9049060344696,50,2012-02-10 08:54:05
1.01199984550476,44.3551379442215,-71.9049060344696,50,2012-02-10 08:54:06
0.989000082015991,44.3551379442215,-71.9049060344696,50,2012-02-10 08:54:07
1.00099992752075,44.3551379442215,-71.9049060344696,50,2012-02-10 08:54:08
1.00099992752075,44.3551379442215,-71.9049060344696,50,2012-02-10 08:54:09
1,44.3551379442215,-71.9049060344696,50,2012-02-10 08:54:10
1.00200009346008,44.3551379442215,-71.9049060344696,50,2012-02-10 08:54:11
1.00099992752075,44.3551379442215,-71.9049060344696,50,2012-02-10 08:54:12
1.00100016593933,44.3551379442215,-71.9049060344696,50,2012-02-10 08:54:13
1.01999998092651,44.3551379442215,-71.9049060344696,50,2012-02-10 08:54:14
0.980000019073486,44.3551379442215,-71.9049060344696,50,2012-02-10 08:54:15
1.00099992752075,44.3551379442215,-71.9049060344696,50,2012-02-10 08:54:16
1.00099992752075,44.3551379442215,-71.9049060344696,50,2012-02-10 08:54:17
1.00100016593933,44.3551379442215,-71.9049060344696,50,2012-02-10 08:54:18
1,44.3551379442215,-71.9049060344696,50,2012-02-10 08:54:19
1.0019998550415,44.3551379442215,-71.9049060344696,50,2012-02-10 08:54:20
1,44.3551379442215,-71.9049060344696,50,2012-02-10 08:54:21
1.00099992752075,44.3551379442215,-71.9049060344696,50,2012-02-10 08:54:22
1.00100016593933,44.3551379442215,-71.9049060344696,50,2012-02-10 08:54:23
1,44.3551379442215,-71.9049060344696,50,2012-02-10 08:54:24
1,44.3551379442215,-71.9049060344696,50,2012-02-10 08:54:25
1.00099992752075,44.3551379442215,-71.9049060344696,50,2012-02-10 08:54:26
4.01500010490417,44.3551379442215,-71.9049060344696,50,2012-02-10 08:54:30
0.984999895095825,44.3551379442215,-71.9049060344696,50,2012-02-10 08:54:31
0.999000072479248,44.3551379442215,-71.9049060344696,50,2012-02-10 08:54:32
1.0019998550415,44.3551379442215,-71.9049060344696,50,2012-02-10 08:54:33
1,44.3551379442215,-71.9049060344696,50,2012-02-10 08:54:34
1.00200009346008,44.3551379442215,-71.9049060344696,50,2012-02-10 08:54:35
1.01399993896484,44.3551379442215,-71.9049060344696,50,2012-02-10 08:54:36
1,44.3551379442215,-71.9049060344696,50,2012-02-10 08:54:37
1.00300002098083,44.3551379442215,-71.9049060344696,50,2012-02-10 08:54:38
0.229000091552734,44.3998289108276,-71.9516891241074,1233.69995117188,2012-02-10 08:54:39
1.0019998550415,44.3988901376724,-71.9506001472473,1206.19995117188,2012-02-10 08:54:40
0.995000123977661,44.3987131118774,-71.9506537914276,1203,2012-02-10 08:54:41
1.00099992752075,44.3987452983856,-71.9509273767471,1204.09997558594,2012-02-10 08:54:42
1.00200009346008,44.3988579511642,-71.9510722160339,1207.09997558594,2012-02-10 08:54:43
0.997999906539917,44.3991100788116,-71.9514852762222,1214.09997558594,2012-02-10 08:54:44
0.999000072479248,44.3991851806641,-71.9516086578369,1216.19995117188,2012-02-10 08:54:45
1.00099992752075,44.3984127044678,-71.9509327411652,1196.69995117188,2012-02-10 08:54:46
1.00099992752075,44.3555027246475,-71.9083338975906,85.0999984741211,2012-02-10 08:54:47
0.999000072479248,44.3554919958115,-71.9083660840988,85.0999984741211,2012-02-10 08:54:48
0.999000072479248,44.3554812669754,-71.908403635025,85,2012-02-10 08:54:49
1.00300002098083,44.3551540374756,-71.9079637527466,75.5999984741211,2012-02-10 08:54:50
0.998999834060669,44.3551594018936,-71.9079959392548,75.9000015258789,2012-02-10 08:54:51
1.01000022888184,44.3551647663116,-71.9080173969269,75.8000030517578,2012-02-10 08:54:52
0.986999988555908,44.3551701307297,-71.908033490181,76,2012-02-10 08:54:53
1.00399994850159,44.3551647663116,-71.9080764055252,76,2012-02-10 08:54:54
0.994999885559082,44.3551540374756,-71.9081139564514,76,2012-02-10 08:54:55
1.00200009346008,44.3551915884018,-71.9081515073776,76.8000030517578,2012-02-10 08:54:56
1.00099992752075,44.3551808595657,-71.9081890583038,76.8000030517578,2012-02-10 08:54:57
0.999000072479248,44.3551862239838,-71.908215880394,76.8000030517578,2012-02-10 08:54:58
1,44.3551862239838,-71.9083178043365,77.1999969482422,2012-02-10 08:54:59
1,44.3551862239838,-71.9083553552628,77.1999969482422,2012-02-10 08:55:00
0.999000072479248,44.3551325798035,-71.9079959392548,74.6999969482422,2012-02-10 08:55:01
1.00099992752075,44.3551218509674,-71.908044219017,74.6999969482422,2012-02-10 08:55:02
0.999000072479248,44.3551272153854,-71.9080656766891,74.6999969482422,2012-02-10 08:55:03
1.00099992752075,44.3551164865494,-71.9079530239105,73.9000015258789,2012-02-10 08:55:04
0.999000072479248,44.3550950288773,-71.9080013036728,74,2012-02-10 08:55:05
1.00399994850159,44.3551164865494,-71.908038854599,74.5,2012-02-10 08:55:06
0.996000051498413,44.3551003932953,-71.9080710411072,74.3000030517578,2012-02-10 08:55:07
1.0019998550415,44.3550789356232,-71.9081246852875,74.4000015258789,2012-02-10 08:55:08
0.998000144958496,44.3550950288773,-71.9081246852875,74.3000030517578,2012-02-10 08:55:09
1.00099992752075,44.3551003932953,-71.9081515073776,74.3000030517578,2012-02-10 08:55:10
1.0019998550415,44.3551111221313,-71.9081729650497,73.9000015258789,2012-02-10 08:55:11
1.01100015640259,44.3551111221313,-71.9081997871399,73.9000015258789,2012-02-10 08:55:12
0.996999979019165,44.3551057577133,-71.9082427024841,73.9000015258789,2012-02-10 08:55:13
0.990000009536743,44.3551003932953,-71.9079047441483,75,2012-02-10 08:55:14
1.00099992752075,44.355046749115,-71.9073897600174,74.1999969482422,2012-02-10 08:55:15
0.999000072479248,44.355041384697,-71.9074058532715,74.1999969482422,2012-02-10 08:55:16
0.999000072479248,44.355046749115,-71.907325387001,74.3000030517578,2012-02-10 08:55:17
1,44.3550360202789,-71.9073522090912,74.4000015258789,2012-02-10 08:55:18
1.0019998550415,44.355052113533,-71.9070839881897,72.9000015258789,2012-02-10 08:55:19
1,44.355041384697,-71.9075077772141,73.6999969482422,2012-02-10 08:55:20
1.00099992752075,44.3550252914429,-71.9076257944107,71.4000015258789,2012-02-10 08:55:21
1.00200009346008,44.3550199270248,-71.9076901674271,72.0999984741211,2012-02-10 08:55:22
0.995000123977661,44.3550145626068,-71.9076365232468,71.8000030517578,2012-02-10 08:55:23
1.00099992752075,44.3550252914429,-71.9075936079025,71.8000030517578,2012-02-10 08:55:24
1,44.3550199270248,-71.9076097011566,71.8000030517578,2012-02-10 08:55:25
1,44.3550038337708,-71.9075721502304,71.3000030517578,2012-02-10 08:55:26
1.02300000190735,44.3549984693527,-71.9073522090912,71,2012-02-10 08:55:27
0.977999925613403,44.3550038337708,-71.9073092937469,71.1999969482422,2012-02-10 08:55:28
1.00200009346008,44.3550091981888,-71.9072985649109,71.0999984741211,2012-02-10 08:55:29
1.01199984550476,44.3550145626068,-71.9073522090912,71,2012-02-10 08:55:30
0.986000061035156,44.3550306558609,-71.9073092937469,71.6999969482422,2012-02-10 08:55:31
1,44.3550038337708,-71.9072663784027,71.6999969482422,2012-02-10 08:55:32
1.00099992752075,44.3549931049347,-71.9072824716568,71.6999969482422,2012-02-10 08:55:33
1,44.3549770116806,-71.9072449207306,71,2012-02-10 08:55:34
1,44.3549555540085,-71.9072341918945,70.4000015258789,2012-02-10 08:55:35
0.998000144958496,44.3549448251724,-71.9071966409683,70,2012-02-10 08:55:36
1,44.3549501895905,-71.9072180986404,70.0999984741211,2012-02-10 08:55:37
1,44.3549501895905,-71.9072180986404,70.0999984741211,2012-02-10 08:55:38
1,44.3549448251724,-71.9072180986404,70,2012-02-10 08:55:39
1.02300000190735,44.35494818,-71.90724697,202.5,2012-02-10 08:55:40
0.983000040054321,44.3549483,-71.90723753,201.800003051758,2012-02-10 08:55:41
1,44.35494822,-71.90724354,202.300003051758,2012-02-10 08:55:42
1.01799988746643,44.35494751,-71.9072384,201.899993896484,2012-02-10 08:55:43
1.00399994850159,44.35494813,-71.90723887,201.899993896484,2012-02-10 08:55:44
0.978000164031982,44.35494864,-71.90724008,202,2012-02-10 08:55:45
1.00999999046326,44.35494862,-71.90724227,202.100006103516,2012-02-10 08:55:46
0.99399995803833,44.35494871,-71.90724329,202.199996948242,2012-02-10 08:55:47
0.999000072479248,44.35494876,-71.90724314,202.199996948242,2012-02-10 08:55:48
1.00099992752075,44.35494894,-71.90724204,202.100006103516,2012-02-10 08:55:49
0.996000051498413,44.35494893,-71.90724078,202,2012-02-10 08:55:50
1.25899982452393,44.354949,-71.90724032,202,2012-02-10 08:55:51
0.742000102996826,44.35494903,-71.9072401,202,2012-02-10 08:55:52
1.00999999046326,44.35494913,-71.90724022,202,2012-02-10 08:55:53
0.997999906539917,44.35494902,-71.90724157,202.100006103516,2012-02-10 08:55:54
1.00200009346008,44.35494915,-71.90724369,202.199996948242,2012-02-10 08:55:55
1,44.35494908,-71.90724311,202.199996948242,2012-02-10 08:55:56
0.999000072479248,44.35494907,-71.90724299,202.199996948242,2012-02-10 08:55:57
1.0019998550415,44.35494908,-71.90724269,202.199996948242,2012-02-10 08:55:58
0.986999988555908,44.35494933,-71.90724417,202.199996948242,2012-02-10 08:55:59
1.00200009346008,44.35494945,-71.90724422,202.199996948242,2012-02-10 08:56:00
1,44.35494945,-71.90724422,202.199996948242,2012-02-10 08:56:01
0.999000072479248,44.35495529,-71.90726728,202.199996948242,2012-02-10 08:56:02
0.997999906539917,44.35495416,-71.90723115,203.399993896484,2012-02-10 08:56:03
1.00099992752075,44.35495782,-71.90721441,203.300003051758,2012-02-10 08:56:04
1.00100016593933,44.35495415,-71.90723467,203.399993896484,2012-02-10 08:56:05
1.01899981498718,44.3549441,-71.90724925,203.399993896484,2012-02-10 08:56:06
0.980000019073486,44.3549575,-71.90721217,204.699996948242,2012-02-10 08:56:07
0.999000072479248,44.35496481,-71.90724014,203.800003051758,2012-02-10 08:56:08
1.00200009346008,44.35497396,-71.90727491,204.600006103516,2012-02-10 08:56:09
1.00099992752075,44.35496461,-71.9073544,206.899993896484,2012-02-10 08:56:10
1.00200009346008,44.35496691,-71.90739591,208.5,2012-02-10 08:56:11
0.998999834060669,44.35497278,-71.90743239,210.800003051758,2012-02-10 08:56:12
1.00400018692017,44.35497094,-71.90744253,211.100006103516,2012-02-10 08:56:13
1.00799989700317,44.35496982,-71.90745494,211.800003051758,2012-02-10 08:56:14
0.996000051498413,44.35497132,-71.90745479,211.899993896484,2012-02-10 08:56:15
0.993000030517578,44.35497949,-71.90745925,213.100006103516,2012-02-10 08:56:16
1.01199984550476,44.35498219,-71.90745689,213,2012-02-10 08:56:17
0.578000068664551,44.3549815,-71.90745661,213.399993896484,2012-02-10 08:56:17
0.992000102996826,44.35497875,-71.90744222,213.100006103516,2012-02-10 08:56:18
1.00799989700317,44.3549785,-71.90744816,212.5,2012-02-10 08:56:19
1.00200009346008,44.35497968,-71.90745119,212.5,2012-02-10 08:56:20
1.03299999237061,44.35497951,-71.90745266,212.5,2012-02-10 08:56:21
0.964999914169312,44.35497494,-71.9074484,211.899993896484,2012-02-10 08:56:22
0.999000072479248,44.35497494,-71.90744822,212,2012-02-10 08:56:23
1,44.3549748,-71.90744791,212,2012-02-10 08:56:24
1,44.35497476,-71.90744784,212.100006103516,2012-02-10 08:56:25
0.991999864578247,44.35497481,-71.90744778,212.100006103516,2012-02-10 08:56:26
1.00100016593933,44.35497505,-71.907448,212.199996948242,2012-02-10 08:56:27
1.00699996948242,44.3549751,-71.90744786,212.199996948242,2012-02-10 08:56:28
0.991999864578247,44.35497505,-71.90744745,212.199996948242,2012-02-10 08:56:29
1.00800013542175,44.35497505,-71.90744722,212.199996948242,2012-02-10 08:56:30
1,44.35497488,-71.90744695,212.300003051758,2012-02-10 08:56:31
1.04999995231628,44.3549751,-71.90744721,212.300003051758,2012-02-10 08:56:32
0.944000005722046,44.35497516,-71.90744733,212.199996948242,2012-02-10 08:56:33
1.01099991798401,44.35497489,-71.90744733,212.199996948242,2012-02-10 08:56:34
0.999000072479248,44.35497505,-71.90744707,212.300003051758,2012-02-10 08:56:35
1.0090000629425,44.35497504,-71.90744685,212.300003051758,2012-02-10 08:56:36
0.988999843597412,44.35497505,-71.90744654,212.399993896484,2012-02-10 08:56:37
1.00200009346008,44.3549755,-71.90744626,212.5,2012-02-10 08:56:38
0.98799991607666,44.35497572,-71.90744615,212.600006103516,2012-02-10 08:56:39
1.00200009346008,44.35497584,-71.90744607,212.600006103516,2012-02-10 08:56:40
1,44.35497587,-71.90744606,212.600006103516,2012-02-10 08:56:41
1,44.35497627,-71.90744586,212.800003051758,2012-02-10 08:56:42
1.00799989700317,44.35497664,-71.90744589,212.800003051758,2012-02-10 08:56:43
0.991000175476074,44.3549766,-71.90744577,212.800003051758,2012-02-10 08:56:44
1.00699996948242,44.3549766,-71.90744577,212.800003051758,2012-02-10 08:56:45
0.995999813079834,44.35496921,-71.90745833,212.399993896484,2012-02-10 08:56:46
1.00500011444092,44.35496938,-71.90739015,212,2012-02-10 08:56:47
0.990999937057495,44.35496552,-71.90744008,211.100006103516,2012-02-10 08:56:48
0.998000144958496,44.3549632,-71.90737883,212.600006103516,2012-02-10 08:56:49
1.01199984550476,44.35496262,-71.90739192,212.600006103516,2012-02-10 08:56:50
0.996999979019165,44.35495819,-71.90739783,212.699996948242,2012-02-10 08:56:51
0.991000175476074,44.35496414,-71.90743227,213.199996948242,2012-02-10 08:56:52
1.01199984550476,44.35496414,-71.90743227,213.199996948242,2012-02-10 08:56:53
1,44.35496228,-71.90742058,212.899993896484,2012-02-10 08:56:54
0.996999979019165,44.35496131,-71.90741148,213.300003051758,2012-02-10 08:56:55
1.00400018692017,44.35497918,-71.90741887,213.300003051758,2012-02-10 08:56:56
0.995999813079834,44.3549916,-71.90735819,213,2012-02-10 08:56:57
0.992000102996826,44.35499196,-71.90733775,212.800003051758,2012-02-10 08:56:58
1,44.35499896,-71.90731366,212.600006103516,2012-02-10 08:56:59
1.01200008392334,44.35499547,-71.90729921,212.5,2012-02-10 08:57:00
1.00999999046326,44.3549943,-71.90726433,212.5,2012-02-10 08:57:01
0.988999843597412,44.35499458,-71.90723477,212.5,2012-02-10 08:57:02
0.988000154495239,44.35500466,-71.90721566,212.399993896484,2012-02-10 08:57:03
1.01300001144409,44.35501705,-71.90718605,212.300003051758,2012-02-10 08:57:04
0.995999813079834,44.35502712,-71.90716382,212.300003051758,2012-02-10 08:57:05
1.00400018692017,44.35502182,-71.90715379,212.199996948242,2012-02-10 08:57:06
1,44.35502089,-71.90713183,212.300003051758,2012-02-10 08:57:07
0.995999813079834,44.35501831,-71.90714361,212.300003051758,2012-02-10 08:57:08
1.00300002098083,44.3550304,-71.90725032,213.300003051758,2012-02-10 08:57:09
0.995000123977661,44.35503613,-71.90727266,213.100006103516,2012-02-10 08:57:10
1.00499987602234,44.35502748,-71.90728667,212.899993896484,2012-02-10 08:57:11
0.996999979019165,44.35502755,-71.90725897,212.399993896484,2012-02-10 08:57:12
1.00300002098083,44.35502803,-71.90723936,212.300003051758,2012-02-10 08:57:13
1.00200009346008,44.35501978,-71.90722885,211.899993896484,2012-02-10 08:57:14
0.996000051498413,44.35502453,-71.90726263,211.600006103516,2012-02-10 08:57:15
0.990000009536743,44.35502142,-71.90726597,211.300003051758,2012-02-10 08:57:16
1.01699995994568,44.35502182,-71.90730012,210.600006103516,2012-02-10 08:57:17
0.983000040054321,44.35501718,-71.90730921,210.100006103516,2012-02-10 08:57:18
1.0019998550415,44.35501676,-71.90731359,210.100006103516,2012-02-10 08:57:19
1.00699996948242,44.35501482,-71.90731561,210.100006103516,2012-02-10 08:57:20
1.16300010681152,44.35501456,-71.90731298,210,2012-02-10 08:57:21
0.83899998664856,44.3550145,-71.90731305,210.100006103516,2012-02-10 08:57:22
0.989000082015991,44.35501422,-71.90731376,210,2012-02-10 08:57:23
1.00999999046326,44.35501404,-71.90731412,210,2012-02-10 08:57:24
0.990000009536743,44.35501423,-71.90731387,210,2012-02-10 08:57:25
1.00999999046326,44.3550142,-71.90731395,210,2012-02-10 08:57:26
0.990999937057495,44.35501413,-71.90731416,210,2012-02-10 08:57:27
1.00799989700317,44.35501421,-71.9073139,210,2012-02-10 08:57:28
0.992000102996826,44.35501425,-71.90731379,210,2012-02-10 08:57:29
1.0090000629425,44.35501395,-71.90731411,210,2012-02-10 08:57:30
1.22699999809265,44.35501379,-71.90731421,210,2012-02-10 08:57:31
0.773000001907349,44.35501379,-71.90731421,210,2012-02-10 08:57:32
0.991999864578247,44.35498962,-71.90723299,211.300003051758,2012-02-10 08:57:33
1.00699996948242,44.3549805,-71.90723394,212,2012-02-10 08:57:34
0.994000196456909,44.3549858,-71.90721735,212.800003051758,2012-02-10 08:57:35
0.998999834060669,44.35498696,-71.90722274,213.100006103516,2012-02-10 08:57:36
1.00699996948242,44.35498758,-71.90724596,213.300003051758,2012-02-10 08:57:37
1.00200009346008,44.3549853,-71.90724172,213,2012-02-10 08:57:38
0.996999979019165,44.35498438,-71.9072477,212.699996948242,2012-02-10 08:57:39
1.00200009346008,44.35498359,-71.90725492,212.699996948242,2012-02-10 08:57:40
1.00099992752075,44.35498476,-71.90724447,212.600006103516,2012-02-10 08:57:41
0.989000082015991,44.35498478,-71.90724585,212.800003051758,2012-02-10 08:57:42
1,44.35498494,-71.90723875,212.800003051758,2012-02-10 08:57:43
0.998999834060669,44.35498579,-71.90724964,213.100006103516,2012-02-10 08:57:44
1.01600003242493,44.35498576,-71.9072545,213.199996948242,2012-02-10 08:57:45
0.986000061035156,44.354986,-71.90725404,213.199996948242,2012-02-10 08:57:46
0.997999906539917,44.35498606,-71.90725327,213.100006103516,2012-02-10 08:57:47
1.00699996948242,44.35498603,-71.90725266,213.100006103516,2012-02-10 08:57:48
0.993000030517578,44.35498609,-71.90725443,213.100006103516,2012-02-10 08:57:49
1.01300001144409,44.3549861,-71.9072544,213.100006103516,2012-02-10 08:57:50
1.00399994850159,44.35498612,-71.90725386,213.100006103516,2012-02-10 08:57:51
1.1100001335144,44.35498612,-71.90725601,213.199996948242,2012-02-10 08:57:52
0.885999917984009,44.35498616,-71.90725611,213.199996948242,2012-02-10 08:57:53
0.996999979019165,44.35498616,-71.90725611,213.199996948242,2012-02-10 08:57:54
0.990000009536743,44.35496692,-71.9072347,211.899993896484,2012-02-10 08:57:55
1.44900012016296,44.35496219,-71.90728409,211.800003051758,2012-02-10 08:57:57
0.990999937057495,44.35496614,-71.90729401,212.5,2012-02-10 08:57:58
1,44.35497285,-71.90731379,213.100006103516,2012-02-10 08:57:59
1,44.35497103,-71.90731204,212.699996948242,2012-02-10 08:58:00
1,44.35497076,-71.90731105,212.600006103516,2012-02-10 08:58:01
1,44.35496948,-71.90730173,212.300003051758,2012-02-10 08:58:02
1.00099992752075,44.35496959,-71.90729689,212.199996948242,2012-02-10 08:58:03
1.0090000629425,44.35496281,-71.90730761,212.399993896484,2012-02-10 08:58:04
0.990000009536743,44.35496143,-71.90733445,212.100006103516,2012-02-10 08:58:05
1.0090000629425,44.35496312,-71.90733623,211.899993896484,2012-02-10 08:58:06
1,44.35496324,-71.90733432,211.899993896484,2012-02-10 08:58:07
0.990999937057495,44.3549631,-71.90733362,211.899993896484,2012-02-10 08:58:08
1,44.35496325,-71.9073352,211.899993896484,2012-02-10 08:58:09
1,44.35496325,-71.9073352,211.899993896484,2012-02-10 08:58:10
1.00699996948242,44.35496699,-71.90734551,211.899993896484,2012-02-10 08:58:11
1.00200009346008,44.35495975,-71.90737539,211.699996948242,2012-02-10 08:58:12
0.993000030517578,44.35496035,-71.90738613,211.699996948242,2012-02-10 08:58:13
1.01899981498718,44.35496047,-71.90741244,211.800003051758,2012-02-10 08:58:14
0.979000091552734,44.35495907,-71.90740537,211.899993896484,2012-02-10 08:58:15
1.00300002098083,44.35497474,-71.90741541,211.800003051758,2012-02-10 08:58:16
1.0090000629425,44.3549717,-71.90741637,211.899993896484,2012-02-10 08:58:17
0.990000009536743,44.35496155,-71.90741942,211.600006103516,2012-02-10 08:58:18
1.01199984550476,44.35494731,-71.90746543,211.100006103516,2012-02-10 08:58:19
0.995000123977661,44.3549458,-71.9074555,210.699996948242,2012-02-10 08:58:20
1.00099992752075,44.35494309,-71.90744179,210.199996948242,2012-02-10 08:58:21
0.990999937057495,44.35494295,-71.90745901,210.100006103516,2012-02-10 08:58:22
1,44.35494429,-71.90743429,211.199996948242,2012-02-10 08:58:23
1,44.35495135,-71.90741419,211.699996948242,2012-02-10 08:58:24
1.00200009346008,44.35494905,-71.90741981,211.300003051758,2012-02-10 08:58:25
0.999000072479248,44.35496366,-71.90741253,211.600006103516,2012-02-10 08:58:26
1.00899982452393,44.35495969,-71.9073918,211.800003051758,2012-02-10 08:58:27
1.00100016593933,44.35498375,-71.90733215,212.199996948242,2012-02-10 08:58:28
0.997999906539917,44.35497619,-71.90733839,212,2012-02-10 08:58:29
1.00099992752075,44.35497799,-71.90733412,212.300003051758,2012-02-10 08:58:30
0.999000072479248,44.35498728,-71.90732045,212.399993896484,2012-02-10 08:58:31
0.999000072479248,44.35498587,-71.9072838,211.699996948242,2012-02-10 08:58:32
1.00600004196167,44.35497983,-71.90724481,211.5,2012-02-10 08:58:33
0.986999988555908,44.3549831,-71.90727815,211.399993896484,2012-02-10 08:58:34
1.00899982452393,44.35498852,-71.90726541,211.399993896484,2012-02-10 08:58:35
0.994000196456909,44.35499466,-71.90724359,211.300003051758,2012-02-10 08:58:36
0.994999885559082,44.355004,-71.90724046,211.199996948242,2012-02-10 08:58:37
1.01300001144409,44.35499428,-71.90723377,211.199996948242,2012-02-10 08:58:38
1,44.35499341,-71.90722908,211.199996948242,2012-02-10 08:58:39
1,44.35499565,-71.90721182,211.199996948242,2012-02-10 08:58:40
0.990000009536743,44.35499797,-71.90720373,211.199996948242,2012-02-10 08:58:41
1.00999999046326,44.35500048,-71.90719259,211.100006103516,2012-02-10 08:58:42
1.05800008773804,44.35500861,-71.90718346,211.100006103516,2012-02-10 08:58:43
0.928999900817871,44.35501206,-71.90717637,211.100006103516,2012-02-10 08:58:44
0.999000072479248,44.3550155,-71.90716928,211.100006103516,2012-02-10 08:58:45
1.0090000629425,44.35502057,-71.90715996,211.100006103516,2012-02-10 08:58:46
0.995999813079834,44.35502418,-71.90715265,211.100006103516,2012-02-10 08:58:47
1.00999999046326,44.35505151,-71.90711336,211.199996948242,2012-02-10 08:58:48
0.983999967575073,44.35506373,-71.90707817,211.199996948242,2012-02-10 08:58:49
1.01000022888184,44.35506639,-71.90706101,211.100006103516,2012-02-10 08:58:50
0.991999864578247,44.35507377,-71.90704561,211.100006103516,2012-02-10 08:58:51
1.00399994850159,44.35508113,-71.90703023,211.100006103516,2012-02-10 08:58:52
2.25999999046326,44.3550789356232,-71.9070303440094,71.0999984741211,2012-02-10 08:58:54
1,44.3550789356232,-71.9070303440094,71.0999984741211,2012-02-10 08:58:55
1.00200009346008,44.3550789356232,-71.9070303440094,71.0999984741211,2012-02-10 08:58:56
1.01799988746643,44.3550789356232,-71.9070303440094,71.0999984741211,2012-02-10 08:58:57
0.723000049591064,44.3549572,-71.90689526,211.100006103516,2012-02-10 08:58:58
1.00399994850159,44.35495662,-71.90692833,211,2012-02-10 08:58:59
0.990000009536743,44.3549340963364,-71.9069230556488,71.0999984741211,2012-02-10 08:59:00
0.996000051498413,44.3549609184265,-71.906965970993,71.0999984741211,2012-02-10 08:59:01
1.01300001144409,44.354971,-71.90710234,211.5,2012-02-10 08:59:02
1.00200009346008,44.35495494,-71.90711583,211.300003051758,2012-02-10 08:59:03
0.991999864578247,44.35495287,-71.90711074,211.300003051758,2012-02-10 08:59:04
1.00800013542175,44.35495553,-71.90711365,211.300003051758,2012-02-10 08:59:05
0.991999864578247,44.35497546,-71.90710651,211.699996948242,2012-02-10 08:59:06
1.01800012588501,44.35497186,-71.9070714,211.5,2012-02-10 08:59:07
1.0460000038147,44.35497754,-71.90704368,211.600006103516,2012-02-10 08:59:08
0.944999933242798,44.35496795,-71.90704276,211.399993896484,2012-02-10 08:59:09
0.98799991607666,44.3549823760986,-71.9070571660995,71.1999969482422,2012-02-10 08:59:10
0.996999979019165,44.3549716472626,-71.9070410728455,71.0999984741211,2012-02-10 08:59:11
1.00100016593933,44.3549609184265,-71.9070571660995,71.0999984741211,2012-02-10 08:59:12
1,44.3549609184265,-71.9070678949356,71.0999984741211,2012-02-10 08:59:13
0.997999906539917,44.3549609184265,-71.9070625305176,71.0999984741211,2012-02-10 08:59:14
1.00099992752075,44.3549609184265,-71.9070678949356,71.0999984741211,2012-02-10 08:59:15
1,44.3549609184265,-71.9070678949356,71.0999984741211,2012-02-10 08:59:16
1,44.3549609184265,-71.9070678949356,71.0999984741211,2012-02-10 08:59:17
1.00100016593933,44.3549609184265,-71.9070678949356,71.0999984741211,2012-02-10 08:59:18
0.998999834060669,44.3549609184265,-71.9070678949356,71.0999984741211,2012-02-10 08:59:19
1.00100016593933,44.3549609184265,-71.9070678949356,71.0999984741211,2012-02-10 08:59:20
0.998999834060669,44.3549555540085,-71.9070893526077,71.0999984741211,2012-02-10 08:59:21
0.997000217437744,44.3549555540085,-71.9070947170258,71.0999984741211,2012-02-10 08:59:22
1.00099992752075,44.3549555540085,-71.9070947170258,71.0999984741211,2012-02-10 08:59:23
1,44.3549555540085,-71.9070947170258,71.0999984741211,2012-02-10 08:59:24
0.999000072479248,44.3549555540085,-71.9071161746979,71.0999984741211,2012-02-10 08:59:25
1,44.3549555540085,-71.9071108102798,71.0999984741211,2012-02-10 08:59:26
1.0019998550415,44.3549501895905,-71.9071483612061,71.0999984741211,2012-02-10 08:59:27
1.00999999046326,44.35495127,-71.9071796,210.399993896484,2012-02-10 08:59:28
1.00300002098083,44.35495444,-71.90717971,209.899993896484,2012-02-10 08:59:29
0.990000009536743,44.35495393,-71.90718072,209.899993896484,2012-02-10 08:59:30
1.0239999294281,44.35495562,-71.9071666,209.899993896484,2012-02-10 08:59:31
0.999000072479248,44.35495848,-71.90715404,209.600006103516,2012-02-10 08:59:32
0.986000061035156,44.35495893,-71.90715203,209.5,2012-02-10 08:59:33
0.991999864578247,44.35495837,-71.90714822,209.699996948242,2012-02-10 08:59:34
1.00800013542175,44.35495823,-71.9071452,209.699996948242,2012-02-10 08:59:35
0.991999864578247,44.35495806,-71.90714646,209.699996948242,2012-02-10 08:59:36
1.01200008392334,44.35495794,-71.90714668,209.699996948242,2012-02-10 08:59:37
0.98799991607666,44.35495838,-71.90714617,209.699996948242,2012-02-10 08:59:38
0.999000072479248,44.35495878,-71.9071455,209.699996948242,2012-02-10 08:59:39
1,44.35495877,-71.90714537,209.699996948242,2012-02-10 08:59:40
1,44.35495841,-71.90714653,209.699996948242,2012-02-10 08:59:41
1.01999998092651,44.35495819,-71.90714693,209.699996948242,2012-02-10 08:59:42
0.989000082015991,44.35495839,-71.9071461,209.699996948242,2012-02-10 08:59:43
0.993000030517578,44.35495851,-71.90714563,209.699996948242,2012-02-10 08:59:44
1.00799989700317,44.35495839,-71.90714545,209.699996948242,2012-02-10 08:59:45
0.995000123977661,44.35495897,-71.90714443,209.699996948242,2012-02-10 08:59:46
1.04499983787537,44.35495919,-71.90714369,209.699996948242,2012-02-10 08:59:47
0.960000038146973,44.35495897,-71.90714362,209.699996948242,2012-02-10 08:59:48
1,44.35495904,-71.90714355,209.699996948242,2012-02-10 08:59:49
0.999000072479248,44.35495904,-71.90714342,209.699996948242,2012-02-10 08:59:50
0.993000030517578,44.35495903,-71.90714321,209.699996948242,2012-02-10 08:59:51
1.00799989700317,44.35495902,-71.90714324,209.800003051758,2012-02-10 08:59:52
0.990999937057495,44.35495927,-71.90714284,209.699996948242,2012-02-10 08:59:53
0.999000072479248,44.35495959,-71.90714191,209.699996948242,2012-02-10 08:59:54
1.01399993896484,44.35495968,-71.90714115,209.699996948242,2012-02-10 08:59:55
0.986999988555908,44.35496004,-71.90713994,209.699996948242,2012-02-10 08:59:56
1.00100016593933,44.35496009,-71.90713925,209.699996948242,2012-02-10 08:59:57
1.01099991798401,44.35496002,-71.90713935,209.699996948242,2012-02-10 08:59:58
0.990000009536743,44.3549607,-71.90713681,209.699996948242,2012-02-10 08:59:59
0.996999979019165,44.35496088,-71.90713626,209.699996948242,2012-02-10 09:00:00
