"diffSecs","level","azimuth.mean","azimuth.absolute.deviation","azimuth.standard.deviation","azimuth.max.deviation","pitch.mean","pitch.absolute.deviation","pitch.standard.deviation","pitch.max.deviation","roll.mean","roll.absolute.deviation","roll.standard.deviation","roll.max.deviation","time"
7.79099988937378,24,34.1958351135254,0.287847638130188,0.334762990474701,0.704167664051056,-5.80833339691162,1.03541660308838,1.21891903877258,2.39166641235352,3.07916665077209,1.24236118793488,1.5473039150238,3.22083353996277,2012-02-12 15:00:07
0.325000047683716,99,31.1979808807373,3.4329559803009,4.24314022064209,8.59798049926758,3.22424244880676,7.53504753112793,8.21561813354492,13.4242420196533,14.4353542327881,8.69903087615967,10.7640476226807,16.9353542327881,2012-02-12 15:00:08
0.490999937057495,99,29.1131324768066,3.89397025108337,4.519690990448,7.21313238143921,14.1282835006714,5.41934490203857,6.63165140151978,15.6282835006714,17.2222232818604,9.1126823425293,10.5498199462891,21.2222232818604,2012-02-12 15:00:08
0.878000020980835,99,30.7323246002197,2.30792784690857,2.75684022903442,5.26767635345459,17.3727283477783,10.3568410873413,12.6709785461426,32.5727272033691,11.1070709228516,6.07525777816772,7.54854011535645,17.9070720672607,2012-02-12 15:00:09
1.01500010490417,47,33.2787246704102,1.13725686073303,1.38869869709015,3.42127633094788,-14.0808515548706,2.71643280982971,3.10700225830078,7.18085145950317,3.20851063728333,2.73635125160217,3.03762435913086,5.09148931503296,2012-02-12 15:00:10
1.00099992752075,31,34.2161293029785,0.626014649868011,0.883211612701416,2.18387150764465,-12.709677696228,1.37585854530334,1.68759334087372,3.70967745780945,-1.94838714599609,0.833714842796326,0.912943124771118,1.44838714599609,2012-02-12 15:00:11
1.01399993896484,49,32.7632675170898,0.551770150661469,0.609012007713318,1.03673279285431,-14.2653064727783,0.11845076084137,0.14645616710186,0.365305751562119,-1.47142863273621,0.562099158763885,0.641108751296997,1.12857151031494,2012-02-12 15:00:12
1.00600004196167,46,32.1173934936523,0.205860137939453,0.246985852718353,0.517391681671143,-14.2717390060425,0.0996220856904984,0.127965852618217,0.371738731861115,-1.23043477535248,0.374480158090591,0.452946662902832,0.869565308094025,2012-02-12 15:00:13
1.00999999046326,43,32.0930252075195,0.175554409623146,0.207302838563919,0.406976401805878,-14.3232555389404,0.241752356290817,0.310915529727936,0.676744043827057,-1.62558138370514,0.329799890518188,0.399472326040268,0.874418616294861,2012-02-12 15:00:14
1.00100016593933,41,32.3121948242188,0.281975477933884,0.340154469013214,0.71219539642334,-14.6878051757812,0.174657851457596,0.207417443394661,0.412195265293121,-1.40487802028656,0.23521713912487,0.281070441007614,0.504878044128418,2012-02-12 15:00:15
1.01399993896484,44,31.9409103393555,0.14731402695179,0.18255515396595,0.359089761972427,-14.6977272033691,0.229442045092583,0.294254511594772,0.602272868156433,-1.67954552173615,0.372417360544205,0.471255362033844,1.07954549789429,2012-02-12 15:00:16
1.0149998664856,48,32.1187515258789,0.203645497560501,0.240360960364342,0.481251746416092,-14.5458335876465,0.177256911993027,0.206113159656525,0.445833086967468,-1.50208342075348,0.347569435834885,0.399734079837799,0.802083373069763,2012-02-12 15:00:17
1.04400014877319,35,32.165714263916,0.16848960518837,0.186613261699677,0.334285348653793,-14.2114286422729,0.0734695568680763,0.103569075465202,0.211428612470627,-1.88285720348358,0.143510192632675,0.197824910283089,0.417142808437347,2012-02-12 15:00:18
1.08200001716614,47,32.2595748901367,0.186780944466591,0.232158705592155,0.640426337718964,-14.1446809768677,0.120325773954391,0.145585313439369,0.355318993330002,-1.12978720664978,0.265278398990631,0.310054838657379,0.770212709903717,2012-02-12 15:00:19
1.01600003242493,48,31.9812507629395,0.29635414481163,0.350984543561935,0.718750357627869,-14.9833335876465,0.302083373069763,0.343592196702957,0.616666853427887,-1.13750004768372,0.115104183554649,0.13938108086586,0.337500035762787,2012-02-12 15:00:20
1.14999985694885,36,32.7055549621582,0.666666746139526,0.738596439361572,1.69444513320923,-14.8611116409302,0.408950626850128,0.459636211395264,0.761110901832581,-1.23055553436279,0.257407397031784,0.323882222175598,0.669444382190704,2012-02-12 15:00:21
1.02800011634827,44,32.9386367797852,0.358574450016022,0.414627969264984,0.838634848594666,-14.3977270126343,0.0982438921928406,0.117722064256668,0.202272906899452,-1.37045454978943,0.383574396371841,0.431477159261703,0.770454525947571,2012-02-12 15:00:22
1.00499987602234,48,32.3979187011719,0.518837034702301,0.608786404132843,1.30208361148834,-15.1958332061768,0.238020792603493,0.285013377666473,0.795832991600037,-1.95833337306976,0.38055557012558,0.438193917274475,0.858333349227905,2012-02-12 15:00:23
1.00500011444092,35,32.7771453857422,0.501387536525726,0.725095212459564,2.52285552024841,-14.8371429443359,0.307591915130615,0.426337033510208,1.43714249134064,-1.96000003814697,0.228571429848671,0.259890079498291,0.539999961853027,2012-02-12 15:00:24
1,38,35.0131607055664,0.70720237493515,0.83765697479248,1.5868433713913,-13.8894739151001,0.627423822879791,0.704418182373047,1.58947372436523,-1.47894740104675,0.222437664866447,0.275449752807617,0.578947365283966,2012-02-12 15:00:25
1.03900003433228,24,34.6625022888184,0.973958134651184,1.0815931558609,1.73750078678131,-13.625,0.556249916553497,0.650800704956055,1.82500004768372,-1.0625,0.146875008940697,0.197510555386543,0.5625,2012-02-12 15:00:26
1.00399994850159,48,35.1145820617676,0.630642414093018,0.764850318431854,1.41458308696747,-12.9750003814697,0.746874988079071,0.907721519470215,2.57499957084656,-1.65208339691162,0.208246544003487,0.258996158838272,0.652083396911621,2012-02-12 15:00:27
1.00099992752075,30,34.4966659545898,0.890444040298462,1.04705369472504,1.80333197116852,-13.960000038147,0.453333258628845,0.595315039157867,1.76000034809113,-1.95333337783813,0.106222242116928,0.130979239940643,0.353333353996277,2012-02-12 15:00:28
1.01800012588501,49,35.1673469543457,0.527280211448669,0.638041496276855,1.83265221118927,-12.8469390869141,0.814327359199524,1.09527778625488,3.74693870544434,-1.70816326141357,0.203581854701042,0.270929425954819,0.808163285255432,2012-02-12 15:00:29
1.01799988746643,46,32.2000007629395,0.552173912525177,0.686199367046356,1.79999935626984,-15.0326089859009,0.602079391479492,0.699395477771759,1.16739189624786,-1.21739137172699,0.324763715267181,0.376080691814423,0.782608687877655,2012-02-12 15:00:30
1.00200009346008,48,32.5520820617676,0.589756727218628,0.711509168148041,1.45208346843719,-14.7750005722046,0.779166758060455,0.904041886329651,1.82500004768372,-1.18541669845581,0.159288197755814,0.198944702744484,0.414583325386047,2012-02-12 15:00:31
1,19,32.3947372436523,0.414404392242432,0.46393483877182,0.805263221263885,-14.3421049118042,0.154016718268394,0.18155999481678,0.342105358839035,-1.44736850261688,0.176731303334236,0.200967192649841,0.34736841917038,2012-02-12 15:00:32
1.00999999046326,48,32.8687515258789,0.467187702655792,0.528818011283875,0.768748700618744,-14.5833339691162,0.270833373069763,0.318416267633438,0.583333551883698,-2.00208330154419,0.169270858168602,0.211630180478096,0.502083361148834,2012-02-12 15:00:33
1.00699996948242,43,32.5627899169922,0.102542579174042,0.129441440105438,0.362791031599045,-15.1883726119995,0.138561353087425,0.16312263906002,0.311627686023712,-2.08139538764954,0.197512179613113,0.234526559710503,0.518604755401611,2012-02-12 15:00:34
1.00300002098083,38,32.5026321411133,0.140166565775871,0.166206955909729,0.397369295358658,-15.2973690032959,0.0927979350090027,0.115819469094276,0.202631399035454,-1.63947367668152,0.080470934510231,0.09330053627491,0.160526350140572,2012-02-12 15:00:35
1.03099989891052,35,32.4514312744141,0.112816125154495,0.144165426492691,0.351427227258682,-15.3257141113281,0.0880001857876778,0.107817083597183,0.274285882711411,-1.94000005722046,0.17028571665287,0.195959180593491,0.359999895095825,2012-02-12 15:00:37
1.01800012588501,41,32.8170738220215,0.105413980782032,0.137756451964378,0.31707364320755,-14.8658533096313,0.148721024394035,0.174760788679123,0.334146022796631,-1.5,0.0878048911690712,0.11476381868124,0.300000071525574,2012-02-12 15:00:38
1.00300002098083,40,32.7050018310547,0.135499626398087,0.168745175004005,0.304998964071274,-15.0799999237061,0.257999986410141,0.308382898569107,0.580000221729279,-1.61250007152557,0.12812502682209,0.150312200188637,0.387499988079071,2012-02-12 15:00:39
1.00099992752075,38,32.542106628418,0.129917338490486,0.1632429510355,0.457893878221512,-15.25,0.0973685681819916,0.114132978022099,0.250000178813934,-1.5868421792984,0.111357353627682,0.137976080179214,0.313157856464386,2012-02-12 15:00:40
1.00600004196167,37,32.567569732666,0.159386828541756,0.193200841546059,0.432431697845459,-15.1189193725586,0.113367296755314,0.137226998806,0.318918883800507,-1.69189190864563,0.124032154679298,0.1583331823349,0.30810809135437,2012-02-12 15:00:41
1.00099992752075,37,32.7189178466797,0.138056710362434,0.175280213356018,0.381082594394684,-14.7162160873413,0.170635595917702,0.196611195802689,0.383783936500549,-1.74324321746826,0.277574896812439,0.309786826372147,0.643243253231049,2012-02-12 15:00:42
1.01300001144409,40,33.0450019836426,0.431750297546387,0.510857403278351,1.55500161647797,-14.8625001907349,0.331250011920929,0.381894916296005,0.662500381469727,-1.64750003814697,0.162500023841858,0.185724943876266,0.352499961853027,2012-02-12 15:00:43
1.00699996948242,37,32.527027130127,0.0916004404425621,0.122250974178314,0.372973471879959,-14.9405403137207,0.124908588826656,0.153269693255424,0.359459400177002,-1.45135140419006,0.0934989079833031,0.108108103275299,0.248648688197136,2012-02-12 15:00:44
1,37,32.7108116149902,0.110736951231956,0.142910853028297,0.489189147949219,-14.8135137557983,0.190796285867691,0.22076304256916,0.413513213396072,-1.50810813903809,0.0875091478228569,0.123853415250778,0.308108061552048,2012-02-12 15:00:45
1.00699996948242,32,32.765625,0.261327862739563,0.305787175893784,0.63437557220459,-14.6500005722046,0.181250020861626,0.219374224543571,0.45000034570694,-2.27812504768372,0.2724609375,0.358586132526398,0.878125071525574,2012-02-12 15:00:46
