"diffSecs","level","azimuth.mean","azimuth.absolute.deviation","azimuth.standard.deviation","azimuth.max.deviation","pitch.mean","pitch.absolute.deviation","pitch.standard.deviation","pitch.max.deviation","roll.mean","roll.absolute.deviation","roll.standard.deviation","roll.max.deviation","time"
1.01699995994568,20,-17.5349998474121,1.95850014686584,2.36141395568848,4.96499967575073,-41.5750007629395,0.310000002384186,0.397334575653076,0.924999415874481,21.0699996948242,2.27900004386902,2.64709281921387,5.87000036239624,2012-01-13 17:01:37
1.01999998092651,41,-28.426830291748,1.99750137329102,2.42104840278625,5.42682981491089,-39.192684173584,0.975014925003052,1.16982185840607,2.50731706619263,3.3634147644043,5.16383123397827,5.88349294662476,10.8365850448608,2012-01-13 17:01:38
1.22900009155273,46,-21.8478260040283,5.1170129776001,5.54274845123291,8.55217266082764,-40.7478256225586,1.17221176624298,1.395916223526,2.54782581329346,12.8978261947632,8.07646560668945,9.0699577331543,16.0978260040283,2012-01-13 17:01:39
1.01399993896484,44,-26.6454544067383,2.15578532218933,2.71723914146423,8.14545440673828,-39.9977264404297,0.733884453773499,0.808615207672119,1.40227353572845,4.02500009536743,4.70454549789429,5.53579759597778,12.5750007629395,2012-01-13 17:01:40
1.01400017738342,38,-27.7526321411133,1.12853193283081,1.19025373458862,1.85263252258301,-39.8263168334961,0.704154908657074,0.749274611473083,1.27368569374084,2.97105264663696,3.00332403182983,3.08612418174744,4.3289475440979,2012-01-13 17:01:41
1.03799986839294,35,-25.5314292907715,0.710857331752777,0.79526162147522,1.53142917156219,-40.8142852783203,0.353469610214233,0.429712861776352,0.885714173316956,8.06285762786865,1.06187760829926,1.32666838169098,3.63714265823364,2012-01-13 17:01:42
1,49,-24.0387763977051,0.501707673072815,0.608382344245911,1.33877515792847,-40.7816314697266,0.125280901789665,0.162472650408745,0.381631642580032,11.1836738586426,0.567013740539551,0.59430867433548,0.916326761245728,2012-01-13 17:01:43
1.01900005340576,40,-24.7100009918213,0.617999911308289,0.729999899864197,1.28999972343445,-40.7924995422363,0.179374724626541,0.233867049217224,0.507498621940613,9.76000022888184,0.715000033378601,0.925688922405243,2.03999996185303,2012-01-13 17:01:44
1.01099991798401,32,-23.5406265258789,0.583203017711639,0.667953491210938,1.35937404632568,-41.1281242370605,0.428320348262787,0.488130748271942,0.828126192092896,11.6531248092651,0.311913996934891,0.383229970932007,0.75312465429306,2012-01-13 17:01:45
1.00699996948242,47,-23.4553203582764,0.402625620365143,0.452326536178589,0.844681441783905,-40.8085098266602,0.11724791675806,0.148509919643402,0.308511137962341,13.0234041213989,0.29877769947052,0.370860248804092,0.823404610157013,2012-01-13 17:01:46
1.00800013542175,35,-23.3485717773438,0.356081455945969,0.444246590137482,1.1485710144043,-40.4628562927246,0.199673667550087,0.223076894879341,0.437144041061401,13.3971433639526,0.158204138278961,0.200692668557167,0.497142493724823,2012-01-13 17:01:47
1.00300002098083,42,-22.9904766082764,0.249886676669121,0.336515367031097,0.890476107597351,-40.5523834228516,0.128344997763634,0.146771818399429,0.252382636070251,13.8333339691162,0.276190429925919,0.307576209306717,0.566666960716248,2012-01-13 17:01:48
1.11100006103516,37,-23.3567581176758,0.291453659534454,0.329242199659348,0.743243217468262,-40.4297294616699,0.147845476865768,0.18433989584446,0.470271229743958,13.8540544509888,0.182322889566422,0.221291735768318,0.454053670167923,2012-01-13 17:01:49
1.14599990844727,50,-24.0139999389648,0.356240034103394,0.432208240032196,1.21399927139282,-39.8660011291504,0.274160027503967,0.33082327246666,0.734001517295837,13.9460000991821,0.353999972343445,0.39810049533844,0.845999777317047,2012-01-13 17:01:50
1.06699991226196,46,-24.1695652008057,0.632703363895416,0.745965838432312,1.33043444156647,-40.1478271484375,0.14385586977005,0.169062539935112,0.34782749414444,12.6195650100708,1.0908317565918,1.20805621147156,1.91956555843353,2012-01-13 17:01:51
1.00200009346008,77,-25.253246307373,0.641625881195068,0.822347640991211,1.94675362110138,-39.9701309204102,0.170787781476974,0.210790231823921,0.670131146907806,11.3077926635742,0.913172483444214,1.145716547966,3.70779252052307,2012-01-13 17:01:52
1.00699996948242,36,-28.5777778625488,0.530247032642365,0.585050523281097,1.17777872085571,-39.1472244262695,0.175617083907127,0.214069098234177,0.547220349311829,2.95277786254883,1.60956799983978,1.91085886955261,4.34722232818604,2012-01-13 17:01:53
1.00600004196167,43,-28.5488376617432,0.849756598472595,0.959741175174713,1.45116245746613,-39.2976760864258,0.918982803821564,1.0889481306076,1.70232474803925,-1.66279077529907,5.14743089675903,5.78872299194336,11.2372102737427,2012-01-13 17:01:54
1.0090000629425,48,-27.1145839691162,1.04973971843719,1.21500861644745,2.58541703224182,-36.7895851135254,0.460850596427917,0.574905693531036,1.21041619777679,-19.3812503814697,1.78958344459534,2.28433585166931,5.98124980926514,2012-01-13 17:01:55
1.00499987602234,30,-16.6166667938232,6.60333347320557,7.3910346031189,11.716667175293,-44.783332824707,3.0155553817749,3.72308850288391,7.58333301544189,-15.3266668319702,2.66133332252502,3.03457117080688,5.32666683197021,2012-01-13 17:01:56
1.00200009346008,38,-8.53684234619141,2.64155125617981,2.96562957763672,5.03684234619141,-35.2315788269043,10.6756229400635,11.8073596954346,19.6315784454346,-39.5473670959473,16.0260391235352,17.798547744751,30.0526294708252,2012-01-13 17:01:57
1.01099991798401,43,3.99302339553833,3.29021096229553,3.71417117118835,6.29302310943604,-18.3534889221191,1.24542999267578,1.39022326469421,2.14651131629944,-73.5348815917969,1.21546840667725,1.42075788974762,3.16511964797974,2012-01-13 17:01:58
1.00999999046326,49,7.32244920730591,8.12528133392334,10.6016998291016,29.6224498748779,-19.5448989868164,2.84239912033081,3.70422053337097,10.1448974609375,-75.5918350219727,2.62965416908264,3.88628315925598,13.4918365478516,2012-01-13 17:01:59
1.01900005340576,44,-36.5545463562012,2.88388442993164,4.09564399719238,13.254545211792,-8.78409099578857,0.623140513896942,0.776045680046082,1.98409080505371,-39.4863662719727,6.44896650314331,8.01783752441406,21.8136348724365,2012-01-13 17:02:00
1.01199984550476,45,-38.1000022888184,0.448888927698135,0.525779783725739,0.999998390674591,-9.31777763366699,0.216592594981194,0.263555854558945,0.617778182029724,-34.1000022888184,0.462222069501877,0.553373277187347,1.19999825954437,2012-01-13 17:02:01
1.00500011444092,48,-38.533332824707,0.254166454076767,0.296741157770157,0.533333957195282,-9.62916660308838,0.116145737469196,0.139878407120705,0.329166620969772,-33.5750007629395,0.104167185723782,0.131497874855995,0.375000238418579,2012-01-13 17:02:02
1.00399994850159,35,-38.3857154846191,0.489796012639999,0.793956637382507,3.18571376800537,-9.77714347839355,0.244571506977081,0.35220593214035,0.977142930030823,-33.4914283752441,0.588244676589966,0.865652799606323,2.708571434021,2012-01-13 17:02:03
1.0090000629425,43,-41.0930252075195,5.37490558624268,6.03995990753174,10.3930225372314,-13.5837211608887,3.44456481933594,3.68472218513489,5.11627960205078,-27.3000011444092,7.83720970153809,8.58340740203857,12.6999998092651,2012-01-13 17:02:04
1.08500003814697,35,-47.6028594970703,0.393142998218536,0.545362770557404,1.49714469909668,-16.1714286804199,0.848163425922394,0.985776484012604,1.52857184410095,-21.7257137298584,2.39053058624268,2.65430569648743,4.22571468353271,2012-01-13 17:02:05
1.04099988937378,43,-46.9511642456055,0.226392805576324,0.302986860275269,1.05116236209869,-15.1488370895386,0.286965847015381,0.32733741402626,0.651162803173065,-24.2465114593506,0.302217423915863,0.40194234251976,1.04651117324829,2012-01-13 17:02:06
1.01600003242493,51,-46.7078437805176,0.338023781776428,0.40041309595108,0.807842433452606,-16.5274505615234,0.785236477851868,0.895101845264435,1.67254948616028,-21.705883026123,1.53402543067932,1.73695850372314,3.30588316917419,2012-01-13 17:02:07
1.04999995231628,38,-46.3447380065918,0.195014283061028,0.245697245001793,0.544738292694092,-16.2789478302002,0.324376732110977,0.404681712388992,0.82105278968811,-22.5631580352783,0.899722814559937,1.12960636615753,2.36315751075745,2012-01-13 17:02:08
1.21700000762939,43,-46.139533996582,0.175337895750999,0.205889597535133,0.439534842967987,-15.8744192123413,0.232990965247154,0.3096082508564,0.725581586360931,-24.6534881591797,0.680692255496979,0.87772136926651,2.15348863601685,2012-01-13 17:02:10
1.00800013542175,47,-46.138298034668,0.277048319578171,0.320606619119644,0.561702311038971,-15.9914894104004,0.268266141414642,0.329945027828217,0.708511114120483,-23.8829784393311,0.720235466957092,0.813011109828949,1.38297927379608,2012-01-13 17:02:11
1.00399994850159,49,-46.9693870544434,0.964431822299957,1.19338405132294,2.63061356544495,-15.4612245559692,1.19941687583923,1.36722815036774,2.86122441291809,-22.9632663726807,0.418992131948471,0.581235110759735,1.46326565742493,2012-01-13 17:02:12
1.00799989700317,36,-48.847225189209,0.725308835506439,0.83847963809967,1.44722187519073,-12.1500005722046,0.594444394111633,0.723609805107117,1.25000023841858,-23.8555564880371,2.36790108680725,2.59491419792175,4.24444437026978,2012-01-13 17:02:13
1.00300002098083,43,-47.1372108459473,0.489778190851212,0.566926836967468,1.06279051303864,-10.0883722305298,1.07074093818665,1.1566207408905,1.91162765026093,-30.2279071807861,2.19599795341492,2.36026477813721,3.07209181785583,2012-01-13 17:02:14
1.00800013542175,49,-46.4836730957031,0.665639340877533,0.783333122730255,1.78367328643799,-9.27142906188965,0.319533586502075,0.389138251543045,0.771428763866425,-32.0530624389648,1.03423595428467,1.27296900749207,2.44693827629089,2012-01-13 17:02:15
1.01899981498718,44,-45.2340927124023,0.226549178361893,0.314023047685623,1.03409087657928,-8.76363658905029,0.225206702947617,0.278870224952698,0.736363410949707,-33.5590934753418,0.607438266277313,0.705600559711456,1.45908939838409,2012-01-13 17:02:16
1.01100015640259,33,-44.7575759887695,0.848851442337036,0.93323427438736,1.35757493972778,-8.93333339691162,0.238383740186691,0.313017189502716,0.766666293144226,-34.3939399719238,1.03011953830719,1.16018295288086,2.30606055259705,2012-01-13 17:02:17
1.02699995040894,36,-43.283332824707,0.400925815105438,0.509084045886993,1.18333196640015,-9.39444446563721,0.225000113248825,0.321407109498978,0.79444432258606,-35.0833358764648,0.631481468677521,0.846397638320923,2.01666808128357,2012-01-13 17:02:18
1.00500011444092,51,-43.2137260437012,0.363552421331406,0.476926445960999,1.21372640132904,-9.98627471923828,0.284736573696136,0.398044049739838,1.48627471923828,-34.437255859375,0.615993738174438,0.841790854930878,2.76274538040161,2012-01-13 17:02:19
1,32,-43.1593742370605,0.166991770267487,0.202884376049042,0.440626502037048,-9.60000038146973,0.21875,0.26100766658783,0.599999666213989,-35.0125007629395,0.553905963897705,0.63134241104126,1.08750152587891,2012-01-13 17:02:20
