"diffSecs","latitude","longitude","altitude","time"
0.467999935150146,42.4379539489746,-71.6759794950485,55,2012-02-01 13:00:00
1.07300019264221,42.4379539489746,-71.6759794950485,55,2012-02-01 13:00:01
3.52099990844727,42.4379539489746,-71.6759794950485,55,2012-02-01 13:00:05
0.941999912261963,42.4379539489746,-71.6759794950485,55,2012-02-01 13:00:06
1.20900011062622,42.4379539489746,-71.6759794950485,55,2012-02-01 13:00:07
0.921999931335449,42.4379539489746,-71.6759794950485,55,2012-02-01 13:00:08
1.0770001411438,42.4379539489746,-71.6759794950485,55,2012-02-01 13:00:09
1.13099980354309,42.4379539489746,-71.6759794950485,55,2012-02-01 13:00:10
0.771000146865845,42.4379539489746,-71.6759794950485,55,2012-02-01 13:00:11
0.875999927520752,42.4379539489746,-71.6759794950485,55,2012-02-01 13:00:11
1.24000000953674,42.4379539489746,-71.6759794950485,55,2012-02-01 13:00:13
0.880000114440918,42.4379539489746,-71.6759794950485,55,2012-02-01 13:00:14
0.880999803543091,42.4379539489746,-71.6759794950485,55,2012-02-01 13:00:14
1.0090000629425,42.4379539489746,-71.6759794950485,55,2012-02-01 13:00:16
0.989000082015991,42.4379539489746,-71.6759794950485,55,2012-02-01 13:00:16
1.01699995994568,42.4379539489746,-71.6759794950485,55,2012-02-01 13:00:18
1.06699991226196,42.4379539489746,-71.6759794950485,55,2012-02-01 13:00:19
0.913000106811523,42.4379539489746,-71.6759794950485,55,2012-02-01 13:00:19
0.270999908447266,42.4388176202774,-71.6759741306305,55,2012-02-01 13:00:20
1.18099999427795,42.4388337135315,-71.6759741306305,55,2012-02-01 13:00:21
0.848000049591064,42.4388498067856,-71.6759741306305,55,2012-02-01 13:00:22
12.7300000190735,42.4388498067856,-71.6759741306305,55,2012-02-01 13:00:35
0.967000007629395,42.4388498067856,-71.6759741306305,55,2012-02-01 13:00:35
1.37599992752075,42.4388498067856,-71.6759741306305,55,2012-02-01 13:00:37
0.717000007629395,42.4388498067856,-71.6759741306305,55,2012-02-01 13:00:38
0.91100001335144,42.4388498067856,-71.6759741306305,55,2012-02-01 13:00:38
1.46500015258789,42.4388498067856,-71.6759741306305,55,2012-02-01 13:00:40
0.534999847412109,42.4388498067856,-71.6759741306305,55,2012-02-01 13:00:40
1.14199995994568,42.4388498067856,-71.6759741306305,55,2012-02-01 13:00:42
0.860000133514404,42.4388498067856,-71.6759741306305,55,2012-02-01 13:00:42
1.06200003623962,42.4388498067856,-71.6759741306305,55,2012-02-01 13:00:44
0.97599983215332,42.4388498067856,-71.6759741306305,55,2012-02-01 13:00:45
1.10800004005432,42.4388498067856,-71.6759741306305,55,2012-02-01 13:00:46
0.858000040054321,42.4388498067856,-71.6759741306305,55,2012-02-01 13:00:46
1.32800006866455,42.4388498067856,-71.6759741306305,55,2012-02-01 13:00:48
0.671000003814697,42.4388498067856,-71.6759741306305,55,2012-02-01 13:00:48
1.0699999332428,42.4388498067856,-71.6759741306305,55,2012-02-01 13:00:50
1.03299999237061,42.4388498067856,-71.6759741306305,55,2012-02-01 13:00:51
0.898999929428101,42.4388498067856,-71.6759741306305,55,2012-02-01 13:00:51
1.23699998855591,42.4388498067856,-71.6759741306305,55,2012-02-01 13:00:53
0.766000032424927,42.4388498067856,-71.6759741306305,55,2012-02-01 13:00:53
1.0090000629425,42.4388498067856,-71.6759741306305,55,2012-02-01 13:00:55
1.08299994468689,42.4388498067856,-71.6759741306305,55,2012-02-01 13:00:56
0.908999919891357,42.4388498067856,-71.6759741306305,55,2012-02-01 13:00:56
1.03000020980835,42.4388498067856,-71.6759741306305,55,2012-02-01 13:00:58
1.02899980545044,42.4388498067856,-71.6759741306305,55,2012-02-01 13:00:59
0.965000152587891,42.4388498067856,-71.6759741306305,55,2012-02-01 13:01:00
1.01399993896484,42.4388498067856,-71.6759741306305,55,2012-02-01 13:01:01
0.223999977111816,42.4392414093018,-71.6759526729584,55,2012-02-01 13:01:01
1.2739999294281,42.4389517307281,-71.6761296987534,55.0999984741211,2012-02-01 13:01:02
1.93400001525879,42.4389410018921,-71.6761404275894,55,2012-02-01 13:01:04
0.790000200271606,42.4389570951462,-71.6761457920074,55.0999984741211,2012-02-01 13:01:05
1.05799984931946,42.4389678239822,-71.6761511564255,55.0999984741211,2012-02-01 13:01:06
17.2690000534058,42.4388015270233,-71.6763067245483,55,2012-02-01 13:01:23
0.779999971389771,42.4388122558594,-71.6760331392288,55,2012-02-01 13:01:24
1.2039999961853,42.4388229846954,-71.6759580373764,55,2012-02-01 13:01:25
0.796000003814697,42.4388337135315,-71.675882935524,55,2012-02-01 13:01:26
1.01200008392334,42.4385976791382,-71.6760867834091,55,2012-02-01 13:01:27
1.10599994659424,42.4386030435562,-71.6760867834091,55,2012-02-01 13:01:28
0.888000011444092,42.4386084079742,-71.6760921478271,55,2012-02-01 13:01:29
5.73199987411499,42.4386084079742,-71.6760921478271,55,2012-02-01 13:01:35
1.3360002040863,42.4386084079742,-71.6760921478271,55,2012-02-01 13:01:36
0.666999816894531,42.4386084079742,-71.6760921478271,55,2012-02-01 13:01:37
1.05700016021729,42.4386084079742,-71.6760921478271,55,2012-02-01 13:01:38
1.04299998283386,42.4386084079742,-71.6760921478271,55,2012-02-01 13:01:39
0.904999971389771,42.4386084079742,-71.6760921478271,55,2012-02-01 13:01:40
1.05399990081787,42.4386084079742,-71.6760921478271,55,2012-02-01 13:01:41
0.946000099182129,42.4386084079742,-71.6760921478271,55,2012-02-01 13:01:42
1.06599998474121,42.4386084079742,-71.6760921478271,55,2012-02-01 13:01:43
0.935999870300293,42.4386084079742,-71.6760921478271,55,2012-02-01 13:01:44
1.03200006484985,42.4386084079742,-71.6760921478271,55,2012-02-01 13:01:45
0.348000049591064,42.4382543563843,-71.6762208938599,55,2012-02-01 13:01:45
0.86899995803833,42.43821144104,-71.676242351532,55,2012-02-01 13:01:46
1.19799995422363,42.43821144104,-71.67624771595,55,2012-02-01 13:01:47
0.802000045776367,42.43821144104,-71.67624771595,55,2012-02-01 13:01:48
16.2139999866486,42.4382865428925,-71.6763067245483,55,2012-02-01 13:02:04
0.788000106811523,42.4382811784744,-71.6763120889664,55,2012-02-01 13:02:05
1.1269998550415,42.4383026361465,-71.6763013601303,55,2012-02-01 13:02:06
1.00800013542175,42.4383026361465,-71.6763067245483,55,2012-02-01 13:02:07
0.882999897003174,42.4383294582367,-71.6763228178024,55,2012-02-01 13:02:08
1.08599996566772,42.438377737999,-71.6762852668762,55,2012-02-01 13:02:09
0.936000108718872,42.4383187294006,-71.6762101650238,55.0999984741211,2012-02-01 13:02:10
1.05699992179871,42.4383240938187,-71.6762101650238,55.0999984741211,2012-02-01 13:02:11
16.4360001087189,42.4383562803268,-71.6759526729584,55.0999984741211,2012-02-01 13:02:27
7.36100006103516,42.4383562803268,-71.6759526729584,55.0999984741211,2012-02-01 13:02:35
0.992999792098999,42.4383562803268,-71.6759526729584,55.0999984741211,2012-02-01 13:02:36
0.966000080108643,42.4383562803268,-71.6759526729584,55.0999984741211,2012-02-01 13:02:37
1.03200006484985,42.4383562803268,-71.6759526729584,55.0999984741211,2012-02-01 13:02:38
0.947000026702881,42.4383562803268,-71.6759526729584,55.0999984741211,2012-02-01 13:02:39
1.03600001335144,42.4383562803268,-71.6759526729584,55.0999984741211,2012-02-01 13:02:40
1.26899981498718,42.4383562803268,-71.6759526729584,55.0999984741211,2012-02-01 13:02:41
0.698000192642212,42.4383562803268,-71.6759526729584,55.0999984741211,2012-02-01 13:02:42
0.976999998092651,42.4383562803268,-71.6759526729584,55.0999984741211,2012-02-01 13:02:43
1.23199987411499,42.438200712204,-71.675705909729,55.0999984741211,2012-02-01 13:02:44
0.0130000114440918,42.438200712204,-71.675705909729,55.0999984741211,2012-02-01 13:02:44
1.08299994468689,42.4381738901138,-71.675711274147,55.0999984741211,2012-02-01 13:02:45
0.792999982833862,42.4382221698761,-71.675711274147,55.0999984741211,2012-02-01 13:02:46
1.1230001449585,42.438206076622,-71.6757220029831,55.0999984741211,2012-02-01 13:02:47
0.873999834060669,42.438200712204,-71.6757166385651,55,2012-02-01 13:02:48
1.21800017356873,42.4381363391876,-71.6758185625076,55,2012-02-01 13:02:49
0.78600001335144,42.438023686409,-71.6759741306305,55,2012-02-01 13:02:50
0.995999813079834,42.4379646778107,-71.6759955883026,54.9000015258789,2012-02-01 13:02:51
1.13500022888184,42.4379485845566,-71.6760116815567,54.9000015258789,2012-02-01 13:02:52
0.867999792098999,42.437852025032,-71.6759848594666,54.7999992370605,2012-02-01 13:02:53
0.996999979019165,42.4378788471222,-71.6759419441223,54.7999992370605,2012-02-01 13:02:54
1.18300008773804,42.4378788471222,-71.6759741306305,54.7999992370605,2012-02-01 13:02:55
0.819000005722046,42.4378788471222,-71.6759687662125,54.7999992370605,2012-02-01 13:02:56
1.01900005340576,42.4379056692123,-71.6759312152863,54.7999992370605,2012-02-01 13:02:57
1.21199989318848,42.4379056692123,-71.6759312152863,54.7999992370605,2012-02-01 13:02:58
0.766000032424927,42.4378895759583,-71.6759526729584,54.9000015258789,2012-02-01 13:02:59
1.25399994850159,42.4378949403763,-71.6759580373764,54.9000015258789,2012-02-01 13:03:00
0.75,42.4379056692123,-71.6759687662125,54.9000015258789,2012-02-01 13:03:01
0.994000196456909,42.4379003047943,-71.6759687662125,54.9000015258789,2012-02-01 13:03:02
1.00799989700317,42.4378895759583,-71.6759902238846,54.9000015258789,2012-02-01 13:03:03
1.03699994087219,42.4379646778107,-71.6760224103928,54.9000015258789,2012-02-01 13:03:04
1.04800009727478,42.4379861354828,-71.6759526729584,54.9000015258789,2012-02-01 13:03:05
0.912999868392944,42.4379914999008,-71.6759473085403,54.9000015258789,2012-02-01 13:03:06
1.01300001144409,42.4379968643188,-71.6759526729584,54.9000015258789,2012-02-01 13:03:07
1.02800011634827,42.4380129575729,-71.6759312152863,54.9000015258789,2012-02-01 13:03:08
0.955999851226807,42.438018321991,-71.6759312152863,54.9000015258789,2012-02-01 13:03:09
1.20700001716614,42.438029050827,-71.6759204864502,54.9000015258789,2012-02-01 13:03:10
0.960000038146973,42.4380397796631,-71.6759258508682,54.9000015258789,2012-02-01 13:03:11
0.841000080108643,42.4380451440811,-71.6759312152863,54.9000015258789,2012-02-01 13:03:12
0.991999864578247,42.4380505084991,-71.6759312152863,54.9000015258789,2012-02-01 13:03:13
1.20300006866455,42.4380666017532,-71.6759097576141,54.9000015258789,2012-02-01 13:03:14
0.807000160217285,42.4380558729172,-71.6759419441223,54.9000015258789,2012-02-01 13:03:15
1.00299978256226,42.4380451440811,-71.6759151220322,54.9000015258789,2012-02-01 13:03:16
1.36400008201599,42.4380505084991,-71.6759043931961,54.9000015258789,2012-02-01 13:03:17
0.622999906539917,42.4380558729172,-71.6759043931961,54.9000015258789,2012-02-01 13:03:18
0.996000051498413,42.4380612373352,-71.6759043931961,54.9000015258789,2012-02-01 13:03:19
16.1950001716614,42.4380612373352,-71.6759043931961,54.9000015258789,2012-02-01 13:03:35
0.671000003814697,42.4380612373352,-71.6759043931961,54.9000015258789,2012-02-01 13:03:36
0.209999799728394,42.4381256103516,-71.6758990287781,55,2012-02-01 13:03:36
0.93500018119812,42.4381202459335,-71.6759312152863,54.9000015258789,2012-02-01 13:03:37
1.18799996376038,42.4381202459335,-71.6759365797043,54.9000015258789,2012-02-01 13:03:38
0.809000015258789,42.4381256103516,-71.6759365797043,54.9000015258789,2012-02-01 13:03:39
1.06499981880188,42.4381202459335,-71.6759365797043,54.9000015258789,2012-02-01 13:03:40
0.946000099182129,42.4381041526794,-71.6759097576141,55,2012-02-01 13:03:41
1.15799999237061,42.4380934238434,-71.6759794950485,54.9000015258789,2012-02-01 13:03:42
0.829999923706055,42.4380934238434,-71.6759794950485,54.9000015258789,2012-02-01 13:03:43
1.21700000762939,42.4380719661713,-71.6760224103928,55,2012-02-01 13:03:44
0.784000158309937,42.4380612373352,-71.676070690155,55,2012-02-01 13:03:45
1.19199991226196,42.4380666017532,-71.6760760545731,55,2012-02-01 13:03:46
0.875999927520752,42.4380880594254,-71.6760492324829,54.9000015258789,2012-02-01 13:03:47
0.93500018119812,42.4380934238434,-71.6760545969009,54.9000015258789,2012-02-01 13:03:48
1.10500001907349,42.4380826950073,-71.6760438680649,54.9000015258789,2012-02-01 13:03:49
0.884999990463257,42.4380826950073,-71.6760492324829,54.9000015258789,2012-02-01 13:03:50
1.1029999256134,42.4380826950073,-71.6760492324829,54.9000015258789,2012-02-01 13:03:51
0.904999971389771,42.4380826950073,-71.6760492324829,54.9000015258789,2012-02-01 13:03:52
0.993000030517578,42.4380773305893,-71.6760438680649,54.9000015258789,2012-02-01 13:03:53
1.17899990081787,42.4380719661713,-71.6760438680649,54.9000015258789,2012-02-01 13:03:54
0.825999975204468,42.4380558729172,-71.6760224103928,54.9000015258789,2012-02-01 13:03:55
3.99699997901917,42.4380451440811,-71.6760438680649,54.9000015258789,2012-02-01 13:03:59
1.21500015258789,42.4380451440811,-71.6760438680649,54.9000015258789,2012-02-01 13:04:00
0.784999847412109,42.4380397796631,-71.6760438680649,54.9000015258789,2012-02-01 13:04:01
1.23000001907349,42.438029050827,-71.6761136054993,54.9000015258789,2012-02-01 13:04:02
0.773000001907349,42.438023686409,-71.6761136054993,54.9000015258789,2012-02-01 13:04:03
1.19200015068054,42.438023686409,-71.6761243343353,54.9000015258789,2012-02-01 13:04:04
0.806999921798706,42.438018321991,-71.6761296987534,54.9000015258789,2012-02-01 13:04:05
1.01699995994568,42.438018321991,-71.6761296987534,54.9000015258789,2012-02-01 13:04:06
1.18900012969971,42.438018321991,-71.6760975122452,54.9000015258789,2012-02-01 13:04:07
0.794999837875366,42.438018321991,-71.6760975122452,54.9000015258789,2012-02-01 13:04:08
1.12800002098083,42.438018321991,-71.6760975122452,54.9000015258789,2012-02-01 13:04:09
19.8400001525879,42.4380129575729,-71.6760975122452,55,2012-02-01 13:04:29
0.993000030517578,42.4379539489746,-71.6761082410812,55,2012-02-01 13:04:30
1.00399994850159,42.4379593133926,-71.6761136054993,55,2012-02-01 13:04:31
0.991999864578247,42.4379593133926,-71.6761136054993,55,2012-02-01 13:04:32
1.17600011825562,42.4379754066467,-71.6761082410812,55,2012-02-01 13:04:33
0.825000047683716,42.4379807710648,-71.6761082410812,55,2012-02-01 13:04:34
1.01399993896484,42.4379914999008,-71.6761136054993,55,2012-02-01 13:04:35
1.19700002670288,42.4379914999008,-71.6761136054993,55,2012-02-01 13:04:36
0.786999940872192,42.4379861354828,-71.6761136054993,55,2012-02-01 13:04:37
28.0260000228882,42.4379861354828,-71.6761136054993,55,2012-02-01 13:05:05
1.06900000572205,42.4379056692123,-71.6761189699173,55.0999984741211,2012-02-01 13:05:06
0.274999856948853,42.4379056692123,-71.6761189699173,55.0999984741211,2012-02-01 13:05:06
0.743000030517578,42.4379056692123,-71.6761189699173,55.0999984741211,2012-02-01 13:05:07
0.999000072479248,42.4379003047943,-71.6761189699173,55.0999984741211,2012-02-01 13:05:08
1.21300005912781,42.438023686409,-71.6760438680649,55.0999984741211,2012-02-01 13:05:09
0.787999868392944,42.438023686409,-71.6760438680649,55.0999984741211,2012-02-01 13:05:10
1.01300001144409,42.438029050827,-71.6760385036469,55.0999984741211,2012-02-01 13:05:11
23.0859999656677,42.438029050827,-71.6760385036469,55.0999984741211,2012-02-01 13:05:34
0.918000221252441,42.438029050827,-71.6760385036469,55.0999984741211,2012-02-01 13:05:35
1.00899982452393,42.438029050827,-71.6760385036469,55.0999984741211,2012-02-01 13:05:36
1.00600004196167,42.438029050827,-71.6760385036469,55.0999984741211,2012-02-01 13:05:37
1.03200006484985,42.438029050827,-71.6760385036469,55.0999984741211,2012-02-01 13:05:38
0.960000038146973,42.438029050827,-71.6760385036469,55.0999984741211,2012-02-01 13:05:39
0.994999885559082,42.438029050827,-71.6760385036469,55.0999984741211,2012-02-01 13:05:40
1.0220000743866,42.438029050827,-71.6760385036469,55.0999984741211,2012-02-01 13:05:41
1.05900001525879,42.438029050827,-71.6760385036469,55.0999984741211,2012-02-01 13:05:42
0.918999910354614,42.438029050827,-71.6760385036469,55.0999984741211,2012-02-01 13:05:43
1.0220000743866,42.438029050827,-71.6760385036469,55.0999984741211,2012-02-01 13:05:44
1.14999985694885,42.438029050827,-71.6760385036469,55.0999984741211,2012-02-01 13:05:45
0.896000146865845,42.438029050827,-71.6760385036469,55.0999984741211,2012-02-01 13:05:46
0.937999963760376,42.438029050827,-71.6760385036469,55.0999984741211,2012-02-01 13:05:47
1.74300003051758,42.438029050827,-71.6760385036469,55.0999984741211,2012-02-01 13:05:49
1.03499984741211,42.438029050827,-71.6760385036469,55.0999984741211,2012-02-01 13:05:50
0.734000205993652,42.438029050827,-71.6760385036469,55.0999984741211,2012-02-01 13:05:50
1.26099991798401,42.438029050827,-71.6760385036469,55.0999984741211,2012-02-01 13:05:52
0.819000005722046,42.438029050827,-71.6760385036469,55.0999984741211,2012-02-01 13:05:52
1.03399991989136,42.438029050827,-71.6760385036469,55.0999984741211,2012-02-01 13:05:54
0.886000156402588,42.438029050827,-71.6760385036469,55.0999984741211,2012-02-01 13:05:54
1.00099992752075,42.438029050827,-71.6760385036469,55.0999984741211,2012-02-01 13:05:55
1.08399987220764,42.438029050827,-71.6760385036469,55.0999984741211,2012-02-01 13:05:56
1.0530002117157,42.438029050827,-71.6760385036469,55.0999984741211,2012-02-01 13:05:58
0.870999813079834,42.438029050827,-71.6760385036469,55.0999984741211,2012-02-01 13:05:58
1.53700017929077,42.438029050827,-71.6760385036469,55.0999984741211,2012-02-01 13:06:00
0.613999843597412,42.438029050827,-71.6760385036469,55.0999984741211,2012-02-01 13:06:01
1,42.438029050827,-71.6760385036469,55.0999984741211,2012-02-01 13:06:02
3.02800011634827,42.438029050827,-71.6760385036469,55.0999984741211,2012-02-01 13:06:05
0.964999914169312,42.438029050827,-71.6760385036469,55.0999984741211,2012-02-01 13:06:06
0.380000114440918,42.438029050827,-71.6760385036469,55.0999984741211,2012-02-01 13:06:06
1.07200002670288,42.438029050827,-71.6760385036469,55.0999984741211,2012-02-01 13:06:07
0.931999921798706,42.438029050827,-71.6760385036469,55.0999984741211,2012-02-01 13:06:08
0.997999906539917,42.438029050827,-71.6760385036469,55.0999984741211,2012-02-01 13:06:09
1.25100016593933,42.438029050827,-71.6760385036469,55.0999984741211,2012-02-01 13:06:10
0.752999782562256,42.438029050827,-71.6760385036469,55.0999984741211,2012-02-01 13:06:11
1.00200009346008,42.438029050827,-71.6760385036469,55.0999984741211,2012-02-01 13:06:12
1.19799995422363,42.438029050827,-71.6760385036469,55.0999984741211,2012-02-01 13:06:13
0.801000118255615,42.438029050827,-71.6760385036469,55.0999984741211,2012-02-01 13:06:14
1.03600001335144,42.438029050827,-71.6760385036469,55.0999984741211,2012-02-01 13:06:15
1.01899981498718,42.438029050827,-71.6760385036469,55.0999984741211,2012-02-01 13:06:16
1.00800013542175,42.438029050827,-71.6760385036469,55.0999984741211,2012-02-01 13:06:17
0.940000057220459,42.438029050827,-71.6760385036469,55.0999984741211,2012-02-01 13:06:18
1.00300002098083,42.438029050827,-71.6760385036469,55.0999984741211,2012-02-01 13:06:19
0.997999906539917,42.438029050827,-71.6760385036469,55.0999984741211,2012-02-01 13:06:20
1.04299998283386,42.438029050827,-71.6760385036469,55.0999984741211,2012-02-01 13:06:21
1.75799989700317,42.438029050827,-71.6760385036469,55.0999984741211,2012-02-01 13:06:23
1.01700019836426,42.438029050827,-71.6760385036469,55.0999984741211,2012-02-01 13:06:24
1.21000003814697,42.438029050827,-71.6760385036469,55.0999984741211,2012-02-01 13:06:25
0.758999824523926,42.438029050827,-71.6760385036469,55.0999984741211,2012-02-01 13:06:26
1.38600015640259,42.438029050827,-71.6760385036469,55.0999984741211,2012-02-01 13:06:27
0.628999948501587,42.438029050827,-71.6760385036469,55.0999984741211,2012-02-01 13:06:28
1.1489999294281,42.438029050827,-71.6760385036469,55.0999984741211,2012-02-01 13:06:29
1.18400001525879,42.438029050827,-71.6760385036469,55.0999984741211,2012-02-01 13:06:30
0.655999898910522,42.438029050827,-71.6760385036469,55.0999984741211,2012-02-01 13:06:31
1.2960000038147,42.438029050827,-71.6760385036469,55.0999984741211,2012-02-01 13:06:32
2.87600016593933,42.438029050827,-71.6760385036469,55.0999984741211,2012-02-01 13:06:35
0.830999851226807,42.438029050827,-71.6760385036469,55.0999984741211,2012-02-01 13:06:36
1.00400018692017,42.438029050827,-71.6760385036469,55.0999984741211,2012-02-01 13:06:37
1.03699994087219,42.438029050827,-71.6760385036469,55.0999984741211,2012-02-01 13:06:38
0.980000019073486,42.438029050827,-71.6760385036469,55.0999984741211,2012-02-01 13:06:39
0.98199987411499,42.438029050827,-71.6760385036469,55.0999984741211,2012-02-01 13:06:40
1.01600003242493,42.438029050827,-71.6760385036469,55.0999984741211,2012-02-01 13:06:41
0.98799991607666,42.438029050827,-71.6760385036469,55.0999984741211,2012-02-01 13:06:42
1.22300004959106,42.438029050827,-71.6760385036469,55.0999984741211,2012-02-01 13:06:43
0.776999950408936,42.438029050827,-71.6760385036469,55.0999984741211,2012-02-01 13:06:44
1.02400016784668,42.438029050827,-71.6760385036469,55.0999984741211,2012-02-01 13:06:45
0.978999853134155,42.438029050827,-71.6760385036469,55.0999984741211,2012-02-01 13:06:46
1.00100016593933,42.438029050827,-71.6760385036469,55.0999984741211,2012-02-01 13:06:47
0.473000049591064,42.438029050827,-71.6760385036469,55.0999984741211,2012-02-01 13:06:47
0.785999774932861,42.438029050827,-71.6760385036469,55.0999984741211,2012-02-01 13:06:48
1.06300020217896,42.438029050827,-71.6760385036469,55.0999984741211,2012-02-01 13:06:49
1.02300000190735,42.438029050827,-71.6760385036469,55.0999984741211,2012-02-01 13:06:50
0.914999961853027,42.438029050827,-71.6760385036469,55.0999984741211,2012-02-01 13:06:51
1.18700003623962,42.438029050827,-71.6760385036469,55.0999984741211,2012-02-01 13:06:52
0.815999984741211,42.438029050827,-71.6760385036469,55.0999984741211,2012-02-01 13:06:53
1.0019998550415,42.438029050827,-71.6760385036469,55.0999984741211,2012-02-01 13:06:54
1.12700009346008,42.438029050827,-71.6760385036469,55.0999984741211,2012-02-01 13:06:55
0.871000051498413,42.438029050827,-71.6760385036469,55.0999984741211,2012-02-01 13:06:56
1.11800003051758,42.438029050827,-71.6760385036469,55.0999984741211,2012-02-01 13:06:57
1.625,42.438029050827,-71.6760385036469,55.0999984741211,2012-02-01 13:06:59
1.1399998664856,42.438029050827,-71.6760385036469,55.0999984741211,2012-02-01 13:07:00
0.86899995803833,42.438029050827,-71.6760385036469,55.0999984741211,2012-02-01 13:07:01
0.993000030517578,42.438029050827,-71.6760385036469,55.0999984741211,2012-02-01 13:07:02
2.44600009918213,42.438029050827,-71.6760385036469,55.0999984741211,2012-02-01 13:07:04
1.06499981880188,42.438029050827,-71.6760385036469,55.0999984741211,2012-02-01 13:07:05
0.934000015258789,42.438029050827,-71.6760385036469,55.0999984741211,2012-02-01 13:07:06
1.21700000762939,42.438029050827,-71.6760385036469,55.0999984741211,2012-02-01 13:07:07
0.80400013923645,42.438029050827,-71.6760385036469,55.0999984741211,2012-02-01 13:07:08
1.02099990844727,42.438029050827,-71.6760385036469,55.0999984741211,2012-02-01 13:07:09
0.96399998664856,42.438029050827,-71.6760385036469,55.0999984741211,2012-02-01 13:07:10
1.1010000705719,42.438029050827,-71.6760385036469,55.0999984741211,2012-02-01 13:07:11
0.902999877929688,42.438029050827,-71.6760385036469,55.0999984741211,2012-02-01 13:07:12
1.11100006103516,42.438029050827,-71.6760385036469,55.0999984741211,2012-02-01 13:07:13
0.933000087738037,42.438029050827,-71.6760385036469,55.0999984741211,2012-02-01 13:07:14
0.95799994468689,42.438029050827,-71.6760385036469,55.0999984741211,2012-02-01 13:07:15
1.15499997138977,42.438029050827,-71.6760385036469,55.0999984741211,2012-02-01 13:07:16
0.855000019073486,42.438029050827,-71.6760385036469,55.0999984741211,2012-02-01 13:07:17
1.21099996566772,42.438029050827,-71.6760385036469,55.0999984741211,2012-02-01 13:07:18
0.787000179290771,42.438029050827,-71.6760385036469,55.0999984741211,2012-02-01 13:07:19
1.1949999332428,42.438029050827,-71.6760385036469,55.0999984741211,2012-02-01 13:07:20
0.816999912261963,42.438029050827,-71.6760385036469,55.0999984741211,2012-02-01 13:07:21
1.00800013542175,42.438029050827,-71.6760385036469,55.0999984741211,2012-02-01 13:07:22
0.986999988555908,42.438029050827,-71.6760385036469,55.0999984741211,2012-02-01 13:07:23
1.01999998092651,42.438029050827,-71.6760385036469,55.0999984741211,2012-02-01 13:07:24
1.12099981307983,42.438029050827,-71.6760385036469,55.0999984741211,2012-02-01 13:07:25
0.867000102996826,42.438029050827,-71.6760385036469,55.0999984741211,2012-02-01 13:07:26
1.2739999294281,42.438029050827,-71.6760385036469,55.0999984741211,2012-02-01 13:07:28
0.572000026702881,42.438029050827,-71.6760385036469,55.0999984741211,2012-02-01 13:07:28
1.24600005149841,42.438029050827,-71.6760385036469,55.0999984741211,2012-02-01 13:07:29
0.756999969482422,42.438029050827,-71.6760385036469,55.0999984741211,2012-02-01 13:07:30
1.16900014877319,42.438029050827,-71.6760385036469,55.0999984741211,2012-02-01 13:07:31
2.80599999427795,42.438029050827,-71.6760385036469,55.0999984741211,2012-02-01 13:07:34
1.0460000038147,42.438029050827,-71.6760385036469,55.0999984741211,2012-02-01 13:07:35
1.01699995994568,42.438029050827,-71.6760385036469,55.0999984741211,2012-02-01 13:07:36
0.938999891281128,42.438029050827,-71.6760385036469,55.0999984741211,2012-02-01 13:07:37
1.09000015258789,42.438029050827,-71.6760385036469,55.0999984741211,2012-02-01 13:07:38
0.910999774932861,42.438029050827,-71.6760385036469,55.0999984741211,2012-02-01 13:07:39
1.19600009918213,42.438029050827,-71.6760385036469,55.0999984741211,2012-02-01 13:07:40
0.808000087738037,42.438029050827,-71.6760385036469,55.0999984741211,2012-02-01 13:07:41
1.00300002098083,42.438029050827,-71.6760385036469,55.0999984741211,2012-02-01 13:07:42
1.19899988174438,42.438029050827,-71.6760385036469,55.0999984741211,2012-02-01 13:07:43
0.801000118255615,42.438029050827,-71.6760385036469,55.0999984741211,2012-02-01 13:07:44
1.00799989700317,42.438029050827,-71.6760385036469,55.0999984741211,2012-02-01 13:07:45
1.08200001716614,42.438029050827,-71.6760385036469,55.0999984741211,2012-02-01 13:07:46
1.22300004959106,42.438029050827,-71.6760385036469,55.0999984741211,2012-02-01 13:07:47
0.717999935150146,42.438029050827,-71.6760385036469,55.0999984741211,2012-02-01 13:07:48
1.22200012207031,42.438029050827,-71.6760385036469,55.0999984741211,2012-02-01 13:07:49
0.761999845504761,42.438029050827,-71.6760385036469,55.0999984741211,2012-02-01 13:07:50
1.22000002861023,42.438029050827,-71.6760385036469,55.0999984741211,2012-02-01 13:07:51
0.776000022888184,42.438029050827,-71.6760385036469,55.0999984741211,2012-02-01 13:07:52
1.16199994087219,42.438029050827,-71.6760385036469,55.0999984741211,2012-02-01 13:07:53
0.838000059127808,42.438029050827,-71.6760385036469,55.0999984741211,2012-02-01 13:07:54
1.05200004577637,42.438029050827,-71.6760385036469,55.0999984741211,2012-02-01 13:07:55
0.947999954223633,42.438029050827,-71.6760385036469,55.0999984741211,2012-02-01 13:07:56
1.05900001525879,42.438029050827,-71.6760385036469,55.0999984741211,2012-02-01 13:07:57
0.950999975204468,42.438029050827,-71.6760385036469,55.0999984741211,2012-02-01 13:07:58
0.990000009536743,42.438029050827,-71.6760385036469,55.0999984741211,2012-02-01 13:07:59
1.00099992752075,42.438029050827,-71.6760385036469,55.0999984741211,2012-02-01 13:08:00
1.02600002288818,42.438029050827,-71.6760385036469,55.0999984741211,2012-02-01 13:08:01
3.1800000667572,42.438029050827,-71.6760385036469,55.0999984741211,2012-02-01 13:08:04
1.03099989891052,42.438029050827,-71.6760385036469,55.0999984741211,2012-02-01 13:08:05
0.766999959945679,42.438029050827,-71.6760385036469,55.0999984741211,2012-02-01 13:08:06
1.1560001373291,42.438029050827,-71.6760385036469,55.0999984741211,2012-02-01 13:08:07
0.858999967575073,42.438029050827,-71.6760385036469,55.0999984741211,2012-02-01 13:08:08
0.986000061035156,42.438029050827,-71.6760385036469,55.0999984741211,2012-02-01 13:08:09
1.12899994850159,42.438029050827,-71.6760385036469,55.0999984741211,2012-02-01 13:08:10
0.875,42.438029050827,-71.6760385036469,55.0999984741211,2012-02-01 13:08:11
1.19000005722046,42.438029050827,-71.6760385036469,55.0999984741211,2012-02-01 13:08:12
0.810999870300293,42.438029050827,-71.6760385036469,55.0999984741211,2012-02-01 13:08:13
0.998000144958496,42.438029050827,-71.6760385036469,55.0999984741211,2012-02-01 13:08:14
1.00300002098083,42.438029050827,-71.6760385036469,55.0999984741211,2012-02-01 13:08:15
1.21999979019165,42.438029050827,-71.6760385036469,55.0999984741211,2012-02-01 13:08:16
0.783000230789185,42.438029050827,-71.6760385036469,55.0999984741211,2012-02-01 13:08:17
1.13499999046326,42.438029050827,-71.6760385036469,55.0999984741211,2012-02-01 13:08:18
0.865999937057495,42.438029050827,-71.6760385036469,55.0999984741211,2012-02-01 13:08:19
1.00300002098083,42.438029050827,-71.6760385036469,55.0999984741211,2012-02-01 13:08:20
1.21099996566772,42.438029050827,-71.6760385036469,55.0999984741211,2012-02-01 13:08:21
0.789000034332275,42.438029050827,-71.6760385036469,55.0999984741211,2012-02-01 13:08:22
1.22499990463257,42.438029050827,-71.6760385036469,55.0999984741211,2012-02-01 13:08:23
0.950000047683716,42.438029050827,-71.6760385036469,55.0999984741211,2012-02-01 13:08:24
0.82699990272522,42.438029050827,-71.6760385036469,55.0999984741211,2012-02-01 13:08:25
1.09300017356873,42.438029050827,-71.6760385036469,55.0999984741211,2012-02-01 13:08:26
0.908999919891357,42.438029050827,-71.6760385036469,55.0999984741211,2012-02-01 13:08:27
1.00699996948242,42.438029050827,-71.6760385036469,55.0999984741211,2012-02-01 13:08:28
1.1800000667572,42.438029050827,-71.6760385036469,55.0999984741211,2012-02-01 13:08:29
0.813999891281128,42.438029050827,-71.6760385036469,55.0999984741211,2012-02-01 13:08:30
1.00600004196167,42.438029050827,-71.6760385036469,55.0999984741211,2012-02-01 13:08:31
3.65700006484985,42.438029050827,-71.6760385036469,55.0999984741211,2012-02-01 13:08:35
0.911999940872192,42.438029050827,-71.6760385036469,55.0999984741211,2012-02-01 13:08:36
0.969000101089478,42.438029050827,-71.6760385036469,55.0999984741211,2012-02-01 13:08:37
1.18400001525879,42.438029050827,-71.6760385036469,55.0999984741211,2012-02-01 13:08:38
0.642999887466431,42.438029050827,-71.6760385036469,55.0999984741211,2012-02-01 13:08:38
1.06800007820129,42.438029050827,-71.6760385036469,55.0999984741211,2012-02-01 13:08:40
0.935999870300293,42.438029050827,-71.6760385036469,55.0999984741211,2012-02-01 13:08:40
1.17499995231628,42.438029050827,-71.6760385036469,55.0999984741211,2012-02-01 13:08:42
0.850000143051147,42.438029050827,-71.6760385036469,55.0999984741211,2012-02-01 13:08:43
0.977999925613403,42.438029050827,-71.6760385036469,55.0999984741211,2012-02-01 13:08:43
1.00399994850159,42.438029050827,-71.6760385036469,55.0999984741211,2012-02-01 13:08:44
1.15200018882751,42.438029050827,-71.6760385036469,55.0999984741211,2012-02-01 13:08:46
0.861999988555908,42.438029050827,-71.6760385036469,55.0999984741211,2012-02-01 13:08:47
0.985999822616577,42.438029050827,-71.6760385036469,55.0999984741211,2012-02-01 13:08:47
1.09700012207031,42.438029050827,-71.6760385036469,55.0999984741211,2012-02-01 13:08:49
0.899999856948853,42.438029050827,-71.6760385036469,55.0999984741211,2012-02-01 13:08:49
0.807000160217285,42.438029050827,-71.6760385036469,55.0999984741211,2012-02-01 13:08:50
0.895999908447266,42.438029050827,-71.6760385036469,55.0999984741211,2012-02-01 13:08:51
1.24300003051758,42.438029050827,-71.6760385036469,55.0999984741211,2012-02-01 13:08:52
0.759000062942505,42.438029050827,-71.6760385036469,55.0999984741211,2012-02-01 13:08:53
1.26199984550476,42.438029050827,-71.6760385036469,55.0999984741211,2012-02-01 13:08:54
0.740000009536743,42.438029050827,-71.6760385036469,55.0999984741211,2012-02-01 13:08:55
1.2039999961853,42.438029050827,-71.6760385036469,55.0999984741211,2012-02-01 13:08:56
0.796000003814697,42.438029050827,-71.6760385036469,55.0999984741211,2012-02-01 13:08:57
1.00100016593933,42.438029050827,-71.6760385036469,55.0999984741211,2012-02-01 13:08:58
1.22199988365173,42.438029050827,-71.6760385036469,55.0999984741211,2012-02-01 13:08:59
1.77999997138977,42.438029050827,-71.6760385036469,55.0999984741211,2012-02-01 13:09:01
4.37000012397766,42.438029050827,-71.6760385036469,55.0999984741211,2012-02-01 13:09:06
1.15999984741211,42.438029050827,-71.6760385036469,55.0999984741211,2012-02-01 13:09:07
0.842000007629395,42.438029050827,-71.6760385036469,55.0999984741211,2012-02-01 13:09:08
1.00300002098083,42.438029050827,-71.6760385036469,55.0999984741211,2012-02-01 13:09:09
1.19900012016296,42.438029050827,-71.6760385036469,55.0999984741211,2012-02-01 13:09:10
0.799999952316284,42.438029050827,-71.6760385036469,55.0999984741211,2012-02-01 13:09:11
1.00200009346008,42.438029050827,-71.6760385036469,55.0999984741211,2012-02-01 13:09:12
1.17399978637695,42.438029050827,-71.6760385036469,55.0999984741211,2012-02-01 13:09:13
0.829000234603882,42.438029050827,-71.6760385036469,55.0999984741211,2012-02-01 13:09:14
1.15199995040894,42.438029050827,-71.6760385036469,55.0999984741211,2012-02-01 13:09:15
0.888999938964844,42.438029050827,-71.6760385036469,55.0999984741211,2012-02-01 13:09:16
0.966000080108643,42.438029050827,-71.6760385036469,55.0999984741211,2012-02-01 13:09:17
1.10500001907349,42.438029050827,-71.6760385036469,55.0999984741211,2012-02-01 13:09:18
0.891999959945679,42.438029050827,-71.6760385036469,55.0999984741211,2012-02-01 13:09:19
1.1949999332428,42.438029050827,-71.6760385036469,55.0999984741211,2012-02-01 13:09:20
0.974999904632568,42.438029050827,-71.6760385036469,55.0999984741211,2012-02-01 13:09:21
0.838000059127808,42.438029050827,-71.6760385036469,55.0999984741211,2012-02-01 13:09:22
1.00300002098083,42.438029050827,-71.6760385036469,55.0999984741211,2012-02-01 13:09:23
1.20099997520447,42.438029050827,-71.6760385036469,55.0999984741211,2012-02-01 13:09:24
0.79200005531311,42.438029050827,-71.6760385036469,55.0999984741211,2012-02-01 13:09:25
1.14100003242493,42.438029050827,-71.6760385036469,55.0999984741211,2012-02-01 13:09:26
0.948999881744385,42.438029050827,-71.6760385036469,55.0999984741211,2012-02-01 13:09:27
0.914999961853027,42.438029050827,-71.6760385036469,55.0999984741211,2012-02-01 13:09:28
1.1800000667572,42.438029050827,-71.6760385036469,55.0999984741211,2012-02-01 13:09:29
0.818000078201294,42.438029050827,-71.6760385036469,55.0999984741211,2012-02-01 13:09:30
1.02600002288818,42.438029050827,-71.6760385036469,55.0999984741211,2012-02-01 13:09:31
0.736999988555908,42.438029050827,-71.6760385036469,55.0999984741211,2012-02-01 13:09:31
3.95300006866455,42.438029050827,-71.6760385036469,55.0999984741211,2012-02-01 13:09:35
0.998999834060669,42.438029050827,-71.6760385036469,55.0999984741211,2012-02-01 13:09:36
1.22300004959106,42.438029050827,-71.6760385036469,55.0999984741211,2012-02-01 13:09:38
0.799999952316284,42.438029050827,-71.6760385036469,55.0999984741211,2012-02-01 13:09:38
0.980999946594238,42.438029050827,-71.6760385036469,55.0999984741211,2012-02-01 13:09:39
0.998000144958496,42.438029050827,-71.6760385036469,55.0999984741211,2012-02-01 13:09:40
1.00399994850159,42.438029050827,-71.6760385036469,55.0999984741211,2012-02-01 13:09:41
0.997999906539917,42.438029050827,-71.6760385036469,55.0999984741211,2012-02-01 13:09:42
1.00200009346008,42.438029050827,-71.6760385036469,55.0999984741211,2012-02-01 13:09:43
1.00099992752075,42.438029050827,-71.6760385036469,55.0999984741211,2012-02-01 13:09:44
1.00200009346008,42.438029050827,-71.6760385036469,55.0999984741211,2012-02-01 13:09:45
1.00200009346008,42.438029050827,-71.6760385036469,55.0999984741211,2012-02-01 13:09:46
0.995999813079834,42.438029050827,-71.6760385036469,55.0999984741211,2012-02-01 13:09:47
1.00300002098083,42.438029050827,-71.6760385036469,55.0999984741211,2012-02-01 13:09:48
1.02100014686584,42.438029050827,-71.6760385036469,55.0999984741211,2012-02-01 13:09:49
1.00699996948242,42.438029050827,-71.6760385036469,55.0999984741211,2012-02-01 13:09:50
1.0019998550415,42.438029050827,-71.6760385036469,55.0999984741211,2012-02-01 13:09:51
0.979000091552734,42.438029050827,-71.6760385036469,55.0999984741211,2012-02-01 13:09:52
1.0090000629425,42.438029050827,-71.6760385036469,55.0999984741211,2012-02-01 13:09:53
0.988999843597412,42.438029050827,-71.6760385036469,55.0999984741211,2012-02-01 13:09:54
0.96399998664856,42.4381363391876,-71.6763120889664,55.0999984741211,2012-02-01 13:09:55
0.805999994277954,42.4382704496384,-71.6762638092041,55.0999984741211,2012-02-01 13:09:56
1.21600008010864,42.4382168054581,-71.6762959957123,55.0999984741211,2012-02-01 13:09:57
0.786999940872192,42.4382328987122,-71.6762799024582,55.0999984741211,2012-02-01 13:09:58
1.01700019836426,42.4382275342941,-71.6762638092041,55.0999984741211,2012-02-01 13:09:59
1.20999979972839,42.4380987882614,-71.677331328392,55.0999984741211,2012-02-01 13:10:00
0.772000074386597,42.4381631612778,-71.6767734289169,55.0999984741211,2012-02-01 13:10:01
1.04299998283386,42.4381309747696,-71.6769987344742,55.0999984741211,2012-02-01 13:10:02
1.1230001449585,42.4381309747696,-71.6769987344742,55.0999984741211,2012-02-01 13:10:03
0.837999820709229,42.4381256103516,-71.6769987344742,55.0999984741211,2012-02-01 13:10:04
1.09300017356873,42.4381470680237,-71.6769289970398,55.0999984741211,2012-02-01 13:10:05
3.12899994850159,42.4381095170975,-71.6769182682037,55.0999984741211,2012-02-01 13:10:08
0.797999858856201,42.4380666017532,-71.6768109798431,55.0999984741211,2012-02-01 13:10:09
0.999000072479248,42.4380505084991,-71.6766607761383,55.0999984741211,2012-02-01 13:10:10
1.24300003051758,42.4380129575729,-71.6765159368515,55.0999984741211,2012-02-01 13:10:11
0.888000011444092,42.4379807710648,-71.6760170459747,55.0999984741211,2012-02-01 13:10:12
1.01900005340576,42.4379807710648,-71.6760116815567,55.0999984741211,2012-02-01 13:10:13
1.16799998283386,42.4379593133926,-71.6758185625076,55.0999984741211,2012-02-01 13:10:14
0.860999822616577,42.4379539489746,-71.6758131980896,55.0999984741211,2012-02-01 13:10:15
1.13900017738342,42.4380773305893,-71.6762262582779,55.0999984741211,2012-02-01 13:10:16
0.810999870300293,42.4380880594254,-71.6762101650238,55.0999984741211,2012-02-01 13:10:17
1.01200008392334,42.4380612373352,-71.6761779785156,55.0999984741211,2012-02-01 13:10:18
0.986999988555908,42.4380558729172,-71.6761189699173,55.0999984741211,2012-02-01 13:10:19
1.00300002098083,42.4380773305893,-71.6760921478271,55.0999984741211,2012-02-01 13:10:20
1.00099992752075,42.4380666017532,-71.6760170459747,55.0999984741211,2012-02-01 13:10:21
0.998000144958496,42.4380719661713,-71.6760545969009,55.0999984741211,2012-02-01 13:10:22
1.17499995231628,42.4380773305893,-71.6761243343353,55.0999984741211,2012-02-01 13:10:23
0.82699990272522,42.4380826950073,-71.6761618852615,55.0999984741211,2012-02-01 13:10:24
1.01900005340576,42.4380934238434,-71.6762262582779,55.0999984741211,2012-02-01 13:10:25
1.17899990081787,42.4381041526794,-71.6762745380402,55.0999984741211,2012-02-01 13:10:26
0.800000190734863,42.4381041526794,-71.6762691736221,55.2000007629395,2012-02-01 13:10:27
1.20899987220764,42.4380719661713,-71.6761887073517,55.2000007629395,2012-02-01 13:10:28
0.791000127792358,42.4380719661713,-71.6761887073517,55.2000007629395,2012-02-01 13:10:29
1,42.43806881,-71.67616986,51.7999992370605,2012-02-01 13:10:30
1,42.4380698,-71.67617116,51.9000015258789,2012-02-01 13:10:31
1.03299999237061,42.43798703,-71.67635757,52.2000007629395,2012-02-01 13:10:32
1.17999982833862,42.43800754,-71.67636866,52.0999984741211,2012-02-01 13:10:33
0.791000127792358,42.43800151,-71.67636329,52.0999984741211,2012-02-01 13:10:34
1.00999999046326,42.43799678,-71.67624325,53.0999984741211,2012-02-01 13:10:35
0.997999906539917,42.43800318,-71.67624388,53.0999984741211,2012-02-01 13:10:36
0.989000082015991,42.43799621,-71.6762451,53.9000015258789,2012-02-01 13:10:37
1,42.43798569,-71.67626851,54,2012-02-01 13:10:38
1.20700001716614,42.43797956,-71.6763195,54.2999992370605,2012-02-01 13:10:39
0.803999900817871,42.43798034,-71.67632914,54.0999984741211,2012-02-01 13:10:40
1.1010000705719,42.43798149,-71.67633101,54.2999992370605,2012-02-01 13:10:41
0.901000022888184,42.43798213,-71.67633795,54.2999992370605,2012-02-01 13:10:42
0.994999885559082,42.43798315,-71.67635418,54.2000007629395,2012-02-01 13:10:43
1.00200009346008,42.43798097,-71.67634864,54,2012-02-01 13:10:44
0.999000072479248,42.43797923,-71.67630909,54.5,2012-02-01 13:10:45
1.02099990844727,42.43797763,-71.67629003,55.0999984741211,2012-02-01 13:10:46
1.23200011253357,42.43802534,-71.67635381,51.2000007629395,2012-02-01 13:10:48
0.745999813079834,42.43801807,-71.67631064,52.2000007629395,2012-02-01 13:10:48
1.15799999237061,42.43797576,-71.67616659,62.7999992370605,2012-02-01 13:10:49
0.880000114440918,42.43801197,-71.67617559,60.2999992370605,2012-02-01 13:10:50
0.976999998092651,42.43801018,-71.67613054,62.0999984741211,2012-02-01 13:10:51
1.09699988365173,42.43803845,-71.67615982,59,2012-02-01 13:10:52
1.1230001449585,42.4380414,-71.67613978,58.2000007629395,2012-02-01 13:10:53
0.766000032424927,42.43803621,-71.67614443,58.2000007629395,2012-02-01 13:10:54
1.17400002479553,42.43802518,-71.67613855,57.7999992370605,2012-02-01 13:10:55
1.03399991989136,42.43802002,-71.67614478,57.9000015258789,2012-02-01 13:10:56
1.0019998550415,42.43802295,-71.67614468,58.2000007629395,2012-02-01 13:10:57
1.49100017547607,42.43803577,-71.67611861,58.2000007629395,2012-02-01 13:10:59
0.669999837875366,42.43804529,-71.6760524,57,2012-02-01 13:11:00
1.18500018119812,42.43806201,-71.67601647,56,2012-02-01 13:11:01
0.980999946594238,42.43807083,-71.6760263,55.5,2012-02-01 13:11:02
0.849999904632568,42.43807001,-71.67600663,54.5999984741211,2012-02-01 13:11:03
1.13100004196167,42.43805891,-71.67602618,54.9000015258789,2012-02-01 13:11:04
0.858999967575073,42.438069,-71.67603362,54.0999984741211,2012-02-01 13:11:05
1.00100016593933,42.43805578,-71.67604423,54.0999984741211,2012-02-01 13:11:06
1.2409999370575,42.43805185,-71.67604863,54,2012-02-01 13:11:07
0.759000062942505,42.4380638,-71.67603328,53.2000007629395,2012-02-01 13:11:08
1.01999998092651,42.43805273,-71.67603473,52.5,2012-02-01 13:11:09
1.32499980926514,42.43804203,-71.67603739,52.7999992370605,2012-02-01 13:11:10
0.659000158309937,42.43804884,-71.67602998,53.5999984741211,2012-02-01 13:11:11
1.21499991416931,42.438041,-71.67603335,55.2000007629395,2012-02-01 13:11:12
0.781000137329102,42.43803508,-71.67599715,57.2000007629395,2012-02-01 13:11:13
1.01899981498718,42.43803832,-71.67598999,55.7999992370605,2012-02-01 13:11:14
1.16600012779236,42.4380421,-71.67598025,55.5999984741211,2012-02-01 13:11:15
0.876999855041504,42.43804341,-71.67597144,54.5999984741211,2012-02-01 13:11:16
0.933000087738037,42.43804952,-71.6759688,54.7000007629395,2012-02-01 13:11:17
1.19600009918213,42.43804602,-71.67596801,55.4000015258789,2012-02-01 13:11:18
0.807999849319458,42.43805013,-71.67597112,55.4000015258789,2012-02-01 13:11:19
1.01999998092651,42.4380474,-71.67596765,54.4000015258789,2012-02-01 13:11:20
1.37199997901917,42.43803529,-71.67597766,53.5,2012-02-01 13:11:21
0.603000164031982,42.4380357,-71.67598004,54.0999984741211,2012-02-01 13:11:22
1.25,42.43802385,-71.67601695,53.5999984741211,2012-02-01 13:11:23
0.776999950408936,42.43802116,-71.67602075,54.0999984741211,2012-02-01 13:11:24
0.993000030517578,42.43801256,-71.67602203,53.0999984741211,2012-02-01 13:11:25
1.12100005149841,42.43802673,-71.67601178,53.7999992370605,2012-02-01 13:11:26
0.857999801635742,42.43800715,-71.67599569,55.2000007629395,2012-02-01 13:11:27
1.00500011444092,42.43801507,-71.67598656,55.4000015258789,2012-02-01 13:11:28
1.20700001716614,42.43802151,-71.67597123,55.4000015258789,2012-02-01 13:11:29
0.796999931335449,42.43804155,-71.675944,55.4000015258789,2012-02-01 13:11:30
1.01699995994568,42.43802343,-71.67601455,55.0999984741211,2012-02-01 13:11:31
1.33000016212463,42.43802715,-71.67600041,55.0999984741211,2012-02-01 13:11:32
0.645999908447266,42.43802128,-71.67601218,55.2000007629395,2012-02-01 13:11:33
1.1949999332428,42.43803969,-71.67595943,54.9000015258789,2012-02-01 13:11:34
0.51200008392334,42.43802095,-71.67601017,55.4000015258789,2012-02-01 13:11:34
1.01500010490417,42.43805209,-71.67597425,55.2999992370605,2012-02-01 13:11:35
1.25399994850159,42.43805542,-71.67596094,55,2012-02-01 13:11:37
0.726999998092651,42.43805503,-71.67594361,54.7000007629395,2012-02-01 13:11:37
1.05900001525879,42.43802941,-71.67597323,54.7999992370605,2012-02-01 13:11:38
1.05299997329712,42.43798897,-71.67603049,54.5,2012-02-01 13:11:39
0.891999959945679,42.43800936,-71.6760139,54.7999992370605,2012-02-01 13:11:40
1.00499987602234,42.43800144,-71.67601023,55.0999984741211,2012-02-01 13:11:41
0.987000226974487,42.43799822,-71.67600755,55.2000007629395,2012-02-01 13:11:42
1.00699996948242,42.43799442,-71.67599874,55,2012-02-01 13:11:43
1.20599985122681,42.43799192,-71.67597135,54.0999984741211,2012-02-01 13:11:45
0.795000076293945,42.43799671,-71.67597578,54.2000007629395,2012-02-01 13:11:45
1.01399993896484,42.43800867,-71.67596189,54.2000007629395,2012-02-01 13:11:46
1.16799998283386,42.43800248,-71.67595733,53.7999992370605,2012-02-01 13:11:48
0.817000150680542,42.43801967,-71.67594387,53.2999992370605,2012-02-01 13:11:48
1.02099990844727,42.43804422,-71.67593042,50.5,2012-02-01 13:11:49
0.973999977111816,42.43803583,-71.67593708,49.7999992370605,2012-02-01 13:11:50
1.1710000038147,42.43803544,-71.67593603,49.7999992370605,2012-02-01 13:11:52
0.841000080108643,42.43802746,-71.67593094,49.7000007629395,2012-02-01 13:11:52
0.993000030517578,42.43802111,-71.67591021,49.9000015258789,2012-02-01 13:11:53
1.01699995994568,42.43802637,-71.6759067,50.2000007629395,2012-02-01 13:11:54
1.18400001525879,42.43802852,-71.67591716,50.7000007629395,2012-02-01 13:11:56
0.802000045776367,42.43801238,-71.67594176,49.5,2012-02-01 13:11:56
1.00299978256226,42.43799457,-71.67596063,49.5999984741211,2012-02-01 13:11:57
1.16400003433228,42.43801,-71.67592749,50,2012-02-01 13:11:59
0.834000110626221,42.43798894,-71.675959,50.4000015258789,2012-02-01 13:11:59
1.01200008392334,42.43798903,-71.67597525,50.4000015258789,2012-02-01 13:12:00
0.979999780654907,42.43797462,-71.675992,49.7999992370605,2012-02-01 13:12:01
1.11600017547607,42.43796983,-71.67599783,49.4000015258789,2012-02-01 13:12:02
0.888999938964844,42.43797543,-71.67599781,49.2999992370605,2012-02-01 13:12:03
1.20700001716614,42.43796053,-71.67600653,49.4000015258789,2012-02-01 13:12:05
0.796000003814697,42.43795904,-71.67600785,49.4000015258789,2012-02-01 13:12:05
0.990999937057495,42.43795746,-71.67600866,49.2999992370605,2012-02-01 13:12:06
1.03800010681152,42.43795609,-71.67600879,49.2000007629395,2012-02-01 13:12:07
1,42.43795458,-71.67601247,49.2999992370605,2012-02-01 13:12:08
1.39299988746643,42.43795357,-71.67601344,49.2999992370605,2012-02-01 13:12:10
0.602999925613403,42.43795256,-71.67601438,49.2999992370605,2012-02-01 13:12:10
2.39200019836426,42.4379539489746,-71.6760116815567,54.9000015258789,2012-02-01 13:12:13
1.00399994850159,42.4379539489746,-71.6760116815567,54.9000015258789,2012-02-01 13:12:14
1.00399994850159,42.4379539489746,-71.6760116815567,54.9000015258789,2012-02-01 13:12:15
1.1470000743866,42.4379539489746,-71.6760116815567,54.9000015258789,2012-02-01 13:12:16
0.845000028610229,42.4379539489746,-71.6760116815567,54.9000015258789,2012-02-01 13:12:17
1.0019998550415,42.4379539489746,-71.6760116815567,54.9000015258789,2012-02-01 13:12:18
1.06900000572205,42.4379539489746,-71.6760116815567,54.9000015258789,2012-02-01 13:12:19
0.930999994277954,42.4379539489746,-71.6760116815567,54.9000015258789,2012-02-01 13:12:20
1.00200009346008,42.4379539489746,-71.6760116815567,54.9000015258789,2012-02-01 13:12:21
1.00399994850159,42.4379539489746,-71.6760116815567,54.9000015258789,2012-02-01 13:12:22
1.08700013160706,42.4379539489746,-71.6760116815567,54.9000015258789,2012-02-01 13:12:23
0.910999774932861,42.4379539489746,-71.6760116815567,54.9000015258789,2012-02-01 13:12:24
1.00200009346008,42.4379539489746,-71.6760116815567,54.9000015258789,2012-02-01 13:12:25
1,42.4379539489746,-71.6760116815567,54.9000015258789,2012-02-01 13:12:26
1.00699996948242,42.4379539489746,-71.6760116815567,54.9000015258789,2012-02-01 13:12:27
0.992000102996826,42.4379539489746,-71.6760116815567,54.9000015258789,2012-02-01 13:12:28
1.00099992752075,42.4379539489746,-71.6760116815567,54.9000015258789,2012-02-01 13:12:29
1.32699990272522,42.4379539489746,-71.6760116815567,54.9000015258789,2012-02-01 13:12:30
0.674000024795532,42.4379539489746,-71.6760116815567,54.9000015258789,2012-02-01 13:12:31
1.00600004196167,42.4379539489746,-71.6760116815567,54.9000015258789,2012-02-01 13:12:32
1.17499995231628,42.4379539489746,-71.6760116815567,54.9000015258789,2012-02-01 13:12:33
0.822000026702881,42.4379539489746,-71.6760116815567,54.9000015258789,2012-02-01 13:12:34
1.05800008773804,42.4379539489746,-71.6760116815567,54.9000015258789,2012-02-01 13:12:35
0.943000078201294,42.4379539489746,-71.6760116815567,54.9000015258789,2012-02-01 13:12:36
1.0019998550415,42.4379539489746,-71.6760116815567,54.9000015258789,2012-02-01 13:12:37
0.999000072479248,42.4379539489746,-71.6760116815567,54.9000015258789,2012-02-01 13:12:38
1.00399994850159,42.4379539489746,-71.6760116815567,54.9000015258789,2012-02-01 13:12:39
1.00800013542175,42.4379539489746,-71.6760116815567,54.9000015258789,2012-02-01 13:12:40
1.68699979782104,42.4380719661713,-71.6759419441223,54.9000015258789,2012-02-01 13:12:41
1.06500005722046,42.4380612373352,-71.6759312152863,54.9000015258789,2012-02-01 13:12:43
0.79200005531311,42.4379110336304,-71.6760009527206,54.9000015258789,2012-02-01 13:12:43
1.25499987602234,42.4378734827042,-71.6760116815567,54.9000015258789,2012-02-01 13:12:45
0.743000030517578,42.437852025032,-71.6760170459747,54.9000015258789,2012-02-01 13:12:45
1.1710000038147,42.437835931778,-71.6760170459747,54.9000015258789,2012-02-01 13:12:46
0.832000017166138,42.4378037452698,-71.6759687662125,54.9000015258789,2012-02-01 13:12:47
1.02900004386902,42.4379056692123,-71.6759794950485,54.9000015258789,2012-02-01 13:12:48
1.19900012016296,42.4379110336304,-71.6759794950485,54.9000015258789,2012-02-01 13:12:50
0.773000001907349,42.4379593133926,-71.6760009527206,54.9000015258789,2012-02-01 13:12:50
1,42.4379754066467,-71.6759473085403,54.9000015258789,2012-02-01 13:12:51
1.22599983215332,42.4379754066467,-71.6759473085403,54.9000015258789,2012-02-01 13:12:53
0.77400016784668,42.4379754066467,-71.6759473085403,54.9000015258789,2012-02-01 13:12:53
1.02199983596802,42.4379807710648,-71.6759473085403,54.9000015258789,2012-02-01 13:12:54
0.978000164031982,42.4379861354828,-71.6759473085403,54.9000015258789,2012-02-01 13:12:55
1.08999991416931,42.4379914999008,-71.6759473085403,54.9000015258789,2012-02-01 13:12:56
1.21399998664856,42.4379914999008,-71.6759473085403,54.9000015258789,2012-02-01 13:12:58
0.785000085830688,42.4379914999008,-71.6759473085403,54.9000015258789,2012-02-01 13:12:58
1,42.4379968643188,-71.6759473085403,54.9000015258789,2012-02-01 13:12:59
0.996999979019165,42.4379968643188,-71.6759473085403,54.9000015258789,2012-02-01 13:13:00
1.00099992752075,42.4379968643188,-71.6759419441223,54.9000015258789,2012-02-01 13:13:01
1.00099992752075,42.4379968643188,-71.6759419441223,54.9000015258789,2012-02-01 13:13:02
0.996000051498413,42.4380022287369,-71.6759312152863,54.9000015258789,2012-02-01 13:13:03
1.23099994659424,42.4380022287369,-71.6759312152863,54.9000015258789,2012-02-01 13:13:05
0.904000043869019,42.4380022287369,-71.6759312152863,54.9000015258789,2012-02-01 13:13:06
7.31900000572205,42.4380022287369,-71.6759312152863,54.9000015258789,2012-02-01 13:13:13
1.00399994850159,42.4380022287369,-71.6759312152863,54.9000015258789,2012-02-01 13:13:14
0.996000051498413,42.4380022287369,-71.6759312152863,54.9000015258789,2012-02-01 13:13:15
1.00999999046326,42.4380022287369,-71.6759312152863,54.9000015258789,2012-02-01 13:13:16
1.02099990844727,42.4380022287369,-71.6759312152863,54.9000015258789,2012-02-01 13:13:17
0.992000102996826,42.4380022287369,-71.6759312152863,54.9000015258789,2012-02-01 13:13:18
1.04100012779236,42.4380022287369,-71.6759312152863,54.9000015258789,2012-02-01 13:13:19
0.93999981880188,42.4380022287369,-71.6759312152863,54.9000015258789,2012-02-01 13:13:20
1.00699996948242,42.4380022287369,-71.6759312152863,54.9000015258789,2012-02-01 13:13:21
1.00100016593933,42.4380022287369,-71.6759312152863,54.9000015258789,2012-02-01 13:13:22
1.02600002288818,42.4380022287369,-71.6759312152863,54.9000015258789,2012-02-01 13:13:23
0.97599983215332,42.4380022287369,-71.6759312152863,54.9000015258789,2012-02-01 13:13:24
1.17500019073486,42.4380022287369,-71.6759312152863,54.9000015258789,2012-02-01 13:13:25
0.818999767303467,42.4380022287369,-71.6759312152863,54.9000015258789,2012-02-01 13:13:26
1.00100016593933,42.4380022287369,-71.6759312152863,54.9000015258789,2012-02-01 13:13:27
1.00300002098083,42.4380022287369,-71.6759312152863,54.9000015258789,2012-02-01 13:13:28
1.00999999046326,42.4380022287369,-71.6759312152863,54.9000015258789,2012-02-01 13:13:29
0.996000051498413,42.4380022287369,-71.6759312152863,54.9000015258789,2012-02-01 13:13:30
0.992999792098999,42.4380022287369,-71.6759312152863,54.9000015258789,2012-02-01 13:13:31
1.00100016593933,42.4380022287369,-71.6759312152863,54.9000015258789,2012-02-01 13:13:32
1.00499987602234,42.4380022287369,-71.6759312152863,54.9000015258789,2012-02-01 13:13:33
1.01100015640259,42.4380022287369,-71.6759312152863,54.9000015258789,2012-02-01 13:13:34
1.03600001335144,42.4380022287369,-71.6759312152863,54.9000015258789,2012-02-01 13:13:35
0.953999996185303,42.4380022287369,-71.6759312152863,54.9000015258789,2012-02-01 13:13:36
0.996999979019165,42.4380022287369,-71.6759312152863,54.9000015258789,2012-02-01 13:13:37
1.00399994850159,42.4380022287369,-71.6759312152863,54.9000015258789,2012-02-01 13:13:38
1.01699995994568,42.4380022287369,-71.6759312152863,54.9000015258789,2012-02-01 13:13:39
1.01300001144409,42.4380022287369,-71.6759312152863,54.9000015258789,2012-02-01 13:13:40
2.96900010108948,42.4380022287369,-71.6759312152863,54.9000015258789,2012-02-01 13:13:43
1.00699996948242,42.4380022287369,-71.6759312152863,54.9000015258789,2012-02-01 13:13:44
1,42.4380022287369,-71.6759312152863,54.9000015258789,2012-02-01 13:13:45
0.991999864578247,42.4380022287369,-71.6759312152863,54.9000015258789,2012-02-01 13:13:46
1.07800006866455,42.4380022287369,-71.6759312152863,54.9000015258789,2012-02-01 13:13:47
0.920000076293945,42.4380022287369,-71.6759312152863,54.9000015258789,2012-02-01 13:13:48
1.0019998550415,42.4380022287369,-71.6759312152863,54.9000015258789,2012-02-01 13:13:49
1.01600003242493,42.4380022287369,-71.6759312152863,54.9000015258789,2012-02-01 13:13:50
1.00399994850159,42.4380022287369,-71.6759312152863,54.9000015258789,2012-02-01 13:13:51
0.982000112533569,42.4380022287369,-71.6759312152863,54.9000015258789,2012-02-01 13:13:52
0.999000072479248,42.4380022287369,-71.6759312152863,54.9000015258789,2012-02-01 13:13:53
1.00299978256226,42.4380022287369,-71.6759312152863,54.9000015258789,2012-02-01 13:13:54
1.05900001525879,42.4380022287369,-71.6759312152863,54.9000015258789,2012-02-01 13:13:55
0.953000068664551,42.4380022287369,-71.6759312152863,54.9000015258789,2012-02-01 13:13:56
1.02800011634827,42.4380022287369,-71.6759312152863,54.9000015258789,2012-02-01 13:13:57
0.958999872207642,42.4380022287369,-71.6759312152863,54.9000015258789,2012-02-01 13:13:58
1.00300002098083,42.4380022287369,-71.6759312152863,54.9000015258789,2012-02-01 13:13:59
0.999000072479248,42.4380022287369,-71.6759312152863,54.9000015258789,2012-02-01 13:14:00
1.02099990844727,42.4380022287369,-71.6759312152863,54.9000015258789,2012-02-01 13:14:01
1.01300001144409,42.4380022287369,-71.6759312152863,54.9000015258789,2012-02-01 13:14:02
1.17900013923645,42.4380022287369,-71.6759312152863,54.9000015258789,2012-02-01 13:14:03
0.788999795913696,42.4380022287369,-71.6759312152863,54.9000015258789,2012-02-01 13:14:04
1.00200009346008,42.4380022287369,-71.6759312152863,54.9000015258789,2012-02-01 13:14:05
1.13899993896484,42.4380022287369,-71.6759312152863,54.9000015258789,2012-02-01 13:14:06
0.878000020980835,42.4380022287369,-71.6759312152863,54.9000015258789,2012-02-01 13:14:07
1.06100010871887,42.4380022287369,-71.6759312152863,54.9000015258789,2012-02-01 13:14:08
0.922999858856201,42.4380022287369,-71.6759312152863,54.9000015258789,2012-02-01 13:14:09
1.00200009346008,42.4380022287369,-71.6759312152863,54.9000015258789,2012-02-01 13:14:10
3.16400003433228,42.4380022287369,-71.6759312152863,54.9000015258789,2012-02-01 13:14:13
1.00499987602234,42.4380022287369,-71.6759312152863,54.9000015258789,2012-02-01 13:14:14
0.995000123977661,42.4380022287369,-71.6759312152863,54.9000015258789,2012-02-01 13:14:15
1.01799988746643,42.4380022287369,-71.6759312152863,54.9000015258789,2012-02-01 13:14:16
1.03699994087219,42.4380022287369,-71.6759312152863,54.9000015258789,2012-02-01 13:14:17
1.69500017166138,42.4380022287369,-71.6759312152863,54.9000015258789,2012-02-01 13:14:19
0.253999948501587,42.4380022287369,-71.6759312152863,54.9000015258789,2012-02-01 13:14:19
1.00200009346008,42.4380022287369,-71.6759312152863,54.9000015258789,2012-02-01 13:14:20
1.00299978256226,42.4380022287369,-71.6759312152863,54.9000015258789,2012-02-01 13:14:21
1.16100001335144,42.4380022287369,-71.6759312152863,54.9000015258789,2012-02-01 13:14:22
0.851999998092651,42.4380022287369,-71.6759312152863,54.9000015258789,2012-02-01 13:14:23
1.14600014686584,42.4380022287369,-71.6759312152863,54.9000015258789,2012-02-01 13:14:24
0.723000049591064,42.4380022287369,-71.6759312152863,54.9000015258789,2012-02-01 13:14:25
0.998999834060669,42.4380022287369,-71.6759312152863,54.9000015258789,2012-02-01 13:14:26
1.22399997711182,42.4380022287369,-71.6759312152863,54.9000015258789,2012-02-01 13:14:27
0.79200005531311,42.4380022287369,-71.6759312152863,54.9000015258789,2012-02-01 13:14:28
1.01800012588501,42.4380022287369,-71.6759312152863,54.9000015258789,2012-02-01 13:14:29
0.968999862670898,42.4380022287369,-71.6759312152863,54.9000015258789,2012-02-01 13:14:30
0.999000072479248,42.4380022287369,-71.6759312152863,54.9000015258789,2012-02-01 13:14:31
1.00399994850159,42.4380022287369,-71.6759312152863,54.9000015258789,2012-02-01 13:14:32
1.01399993896484,42.4380022287369,-71.6759312152863,54.9000015258789,2012-02-01 13:14:33
1.00500011444092,42.4380022287369,-71.6759312152863,54.9000015258789,2012-02-01 13:14:34
0.983000040054321,42.4380022287369,-71.6759312152863,54.9000015258789,2012-02-01 13:14:35
0.997999906539917,42.4380022287369,-71.6759312152863,54.9000015258789,2012-02-01 13:14:36
1.00099992752075,42.4380022287369,-71.6759312152863,54.9000015258789,2012-02-01 13:14:37
1.58100008964539,42.4380022287369,-71.6759312152863,54.9000015258789,2012-02-01 13:14:39
0.439000129699707,42.4380022287369,-71.6759312152863,54.9000015258789,2012-02-01 13:14:39
1.02999997138977,42.4380022287369,-71.6759312152863,54.9000015258789,2012-02-01 13:14:40
2.97699999809265,42.4380022287369,-71.6759312152863,54.9000015258789,2012-02-01 13:14:43
0.977999925613403,42.4380022287369,-71.6759312152863,54.9000015258789,2012-02-01 13:14:44
0.506999969482422,42.4380505084991,-71.6762262582779,55,2012-02-01 13:14:44
1.00300002098083,42.4380719661713,-71.6762101650238,55,2012-02-01 13:14:45
1.21600008010864,42.4380344152451,-71.6762799024582,55,2012-02-01 13:14:47
0.836999893188477,42.4379700422287,-71.6763818264008,55,2012-02-01 13:14:48
0.983999967575073,42.4379807710648,-71.6763710975647,55,2012-02-01 13:14:49
1.08100008964539,42.4379807710648,-71.6763764619827,55,2012-02-01 13:14:50
0.875999927520752,42.4379807710648,-71.6763764619827,55,2012-02-01 13:14:50
1.22300004959106,42.4379861354828,-71.6763710975647,55,2012-02-01 13:14:52
0.779999971389771,42.4379861354828,-71.6763710975647,55,2012-02-01 13:14:52
20.6440000534058,42.4379861354828,-71.6763710975647,55,2012-02-01 13:15:13
0.928999900817871,42.4379861354828,-71.6763710975647,55,2012-02-01 13:15:14
0.759999990463257,42.4379861354828,-71.6763710975647,55,2012-02-01 13:15:15
0.965000152587891,42.4379861354828,-71.6763710975647,55,2012-02-01 13:15:16
1.18400001525879,42.4379861354828,-71.6763710975647,55,2012-02-01 13:15:17
0.970999956130981,42.4379861354828,-71.6763710975647,55,2012-02-01 13:15:18
1.03600001335144,42.4379861354828,-71.6763710975647,55,2012-02-01 13:15:19
1.26600003242493,42.4379861354828,-71.6763710975647,55,2012-02-01 13:15:20
0.953999996185303,42.4379861354828,-71.6763710975647,55,2012-02-01 13:15:21
0.452999830245972,42.4379861354828,-71.6763710975647,55,2012-02-01 13:15:22
1.01800012588501,42.4379861354828,-71.6763710975647,55,2012-02-01 13:15:23
0.958999872207642,42.4379861354828,-71.6763710975647,55,2012-02-01 13:15:24
1.90700006484985,42.4379861354828,-71.6763710975647,55,2012-02-01 13:15:26
1.08999991416931,42.4379861354828,-71.6763710975647,55,2012-02-01 13:15:27
1.00200009346008,42.4379861354828,-71.6763710975647,55,2012-02-01 13:15:28
0.940999984741211,42.4379861354828,-71.6763710975647,55,2012-02-01 13:15:29
1.06500005722046,42.4379861354828,-71.6763710975647,55,2012-02-01 13:15:30
0.888999938964844,42.4379861354828,-71.6763710975647,55,2012-02-01 13:15:31
1.13800001144409,42.4379861354828,-71.6763710975647,55,2012-02-01 13:15:32
0.861999988555908,42.4379861354828,-71.6763710975647,55,2012-02-01 13:15:33
1.0460000038147,42.4379861354828,-71.6763710975647,55,2012-02-01 13:15:34
0.974999904632568,42.4379861354828,-71.6763710975647,55,2012-02-01 13:15:35
0.983000040054321,42.4379861354828,-71.6763710975647,55,2012-02-01 13:15:36
1.02300000190735,42.4379861354828,-71.6763710975647,55,2012-02-01 13:15:37
1.02400016784668,42.4379861354828,-71.6763710975647,55,2012-02-01 13:15:38
0.996999979019165,42.4379861354828,-71.6763710975647,55,2012-02-01 13:15:39
0.977999925613403,42.4379861354828,-71.6763710975647,55,2012-02-01 13:15:40
1.02900004386902,42.4379861354828,-71.6763710975647,55,2012-02-01 13:15:41
2.94199991226196,42.4379861354828,-71.6763710975647,55,2012-02-01 13:15:43
1.0460000038147,42.4379861354828,-71.6763710975647,55,2012-02-01 13:15:45
0.993000030517578,42.4379861354828,-71.6763710975647,55,2012-02-01 13:15:46
0.953000068664551,42.4379861354828,-71.6763710975647,55,2012-02-01 13:15:46
1.01999998092651,42.4379861354828,-71.6763710975647,55,2012-02-01 13:15:48
1.15400004386902,42.4379861354828,-71.6763710975647,55,2012-02-01 13:15:49
0.832000017166138,42.4379861354828,-71.6763710975647,55,2012-02-01 13:15:49
1.02799987792969,42.4379861354828,-71.6763710975647,55,2012-02-01 13:15:51
1.02900004386902,42.4379861354828,-71.6763710975647,55,2012-02-01 13:15:52
0.943000078201294,42.4379861354828,-71.6763710975647,55,2012-02-01 13:15:52
1.0149998664856,42.4379861354828,-71.6763710975647,55,2012-02-01 13:15:54
1.00399994850159,42.4379861354828,-71.6763710975647,55,2012-02-01 13:15:55
1.00600004196167,42.4379861354828,-71.6763710975647,55,2012-02-01 13:15:56
1.01200008392334,42.4379861354828,-71.6763710975647,55,2012-02-01 13:15:57
0.968999862670898,42.4379861354828,-71.6763710975647,55,2012-02-01 13:15:58
1.01600003242493,42.4379861354828,-71.6763710975647,55,2012-02-01 13:15:59
1.11400008201599,42.4379861354828,-71.6763710975647,55,2012-02-01 13:16:00
0.869999885559082,42.4379861354828,-71.6763710975647,55,2012-02-01 13:16:01
1.01300001144409,42.4379861354828,-71.6763710975647,55,2012-02-01 13:16:02
1.25300002098083,42.4379861354828,-71.6763710975647,55,2012-02-01 13:16:03
0.735000133514404,42.4379861354828,-71.6763710975647,55,2012-02-01 13:16:04
1.05099987983704,42.4379861354828,-71.6763710975647,55,2012-02-01 13:16:05
0.952000141143799,42.4379861354828,-71.6763710975647,55,2012-02-01 13:16:06
1.01999998092651,42.4379861354828,-71.6763710975647,55,2012-02-01 13:16:07
1.50999999046326,42.4379861354828,-71.6763710975647,55,2012-02-01 13:16:08
0.480000019073486,42.4379861354828,-71.6763710975647,55,2012-02-01 13:16:09
1.00399994850159,42.4379861354828,-71.6763710975647,55,2012-02-01 13:16:10
1.15199995040894,42.4379861354828,-71.6763710975647,55,2012-02-01 13:16:11
2.91700005531311,42.4379861354828,-71.6763710975647,55,2012-02-01 13:16:14
0.912999868392944,42.4379861354828,-71.6763710975647,55,2012-02-01 13:16:15
1.03700017929077,42.4379861354828,-71.6763710975647,55,2012-02-01 13:16:16
0.958999872207642,42.4379861354828,-71.6763710975647,55,2012-02-01 13:16:16
1.04699993133545,42.4379861354828,-71.6763710975647,55,2012-02-01 13:16:18
1.13700008392334,42.4379861354828,-71.6763710975647,55,2012-02-01 13:16:19
0.891999959945679,42.4379861354828,-71.6763710975647,55,2012-02-01 13:16:20
0.986999988555908,42.4379861354828,-71.6763710975647,55,2012-02-01 13:16:21
0.996999979019165,42.4379861354828,-71.6763710975647,55,2012-02-01 13:16:22
0.955000162124634,42.4379861354828,-71.6763710975647,55,2012-02-01 13:16:23
0.692999839782715,42.4379861354828,-71.6763710975647,55,2012-02-01 13:16:23
1.05800008773804,42.4379861354828,-71.6763710975647,55,2012-02-01 13:16:24
0.930999994277954,42.4379861354828,-71.6763710975647,55,2012-02-01 13:16:25
1.61299991607666,42.4379861354828,-71.6763710975647,55,2012-02-01 13:16:27
0.383000135421753,42.4379861354828,-71.6763710975647,55,2012-02-01 13:16:27
1.0220000743866,42.4379861354828,-71.6763710975647,55,2012-02-01 13:16:28
1.25999999046326,42.4379861354828,-71.6763710975647,55,2012-02-01 13:16:29
0.718999862670898,42.4379861354828,-71.6763710975647,55,2012-02-01 13:16:30
1.02900004386902,42.4379861354828,-71.6763710975647,55,2012-02-01 13:16:31
1.07100009918213,42.4379861354828,-71.6763710975647,55,2012-02-01 13:16:32
