"diffSecs","N.samples","x.mean","x.absolute.deviation","x.standard.deviation","x.max.deviation","x.PSD.1","x.PSD.3","x.PSD.6","x.PSD.10","y.mean","y.absolute.deviation","y.standard.deviation","y.max.deviation","y.PSD.1","y.PSD.3","y.PSD.6","y.PSD.10","z.mean","z.absolute.deviation","z.standard.deviation","z.max.deviation","z.PSD.1","z.PSD.3","z.PSD.6","z.PSD.10","time"
1.24200010299683,1,2.48108243942261,0,0,0,0,0,0,0,-9.13979721069336,0,0,0,0,0,0,0,0.774725317955017,0,0,0,0,0,0,0,2012-03-02 12:51:19
1.00399994850159,36,2.31763815879822,0.126941666007042,0.146353304386139,0.300737321376801,0.300969421863556,0.742128968238831,0.730143427848816,0.133728414773941,-9.2877140045166,0.198176115751266,0.233986511826515,0.499322444200516,1.88154649734497,3.97208762168884,1.98424911499023,0.154453054070473,0.790252506732941,0.134251222014427,0.171598851680756,0.309726655483246,0.191725105047226,1.11234486103058,2.68195629119873,0.734583497047424,2012-03-02 12:51:20
1.12700009346008,35,2.2916738986969,0.0999077558517456,0.11019841581583,0.238441631197929,0.253783315420151,0.415258049964905,0.151737064123154,0.0880173966288567,-9.45389080047607,0.167841628193855,0.205271109938622,0.490612745285034,0.106411218643188,0.129893973469734,0.42357337474823,0.382071048021317,0.910337269306183,0.0993313491344452,0.111578948795795,0.194451823830605,0.00188925315160304,0.278785765171051,0.415465027093887,0.0355353839695454,2012-03-02 12:51:21
1.01899981498718,41,2.33063411712646,0.063390277326107,0.0751738771796227,0.192784443497658,4.45691584900487e-05,0.034612312912941,0.040508434176445,0.0605682358145714,-9.32397174835205,0.160336658358574,0.215207606554031,0.531711995601654,0.0836863219738007,0.826572239398956,0.769073784351349,0.932981252670288,0.885468721389771,0.112032651901245,0.135075405240059,0.389395713806152,1.59865176677704,3.2430567741394,1.73227894306183,0.47192195057869,2012-03-02 12:51:22
1.0090000629425,49,2.30576348304749,0.107199244201183,0.138128742575645,0.302805364131927,0.555168509483337,3.4925422668457,4.84060096740723,0.434940904378891,-9.35054016113281,0.203043758869171,0.239288836717606,0.504942297935486,0.0307145919650793,8.40786457061768,13.0345020294189,1.75141096115112,0.928029298782349,0.0933367609977722,0.111491218209267,0.251370459794998,0.000134783869725652,0.0551632009446621,1.65127193927765,0.398313969373703,2012-03-02 12:51:23
1,38,2.4650821685791,0.0602524653077126,0.0706601962447166,0.140905976295471,0.0162425749003887,0.0606504082679749,0.230334579944611,0.0631134733557701,-9.45490074157715,0.246388584375381,0.307813107967377,0.734208166599274,1.68228626251221,1.94022750854492,2.43981790542603,2.26025891304016,0.950986921787262,0.0637296289205551,0.0804122164845467,0.205681592226028,0.139324069023132,0.28182327747345,0.100019797682762,0.0808635130524635,2012-03-02 12:51:24
1.00999999046326,40,2.38277077674866,0.10859639197588,0.134934797883034,0.382214277982712,0.336286008358002,1.30154132843018,2.11455392837524,0.311370491981506,-9.46170043945312,0.240655139088631,0.301950007677078,0.668568193912506,0.449366956949234,2.39345645904541,14.8479175567627,6.61530017852783,1.00223958492279,0.103852413594723,0.129362300038338,0.315774112939835,0.893781006336212,2.20596170425415,2.26529407501221,0.451029568910599,2012-03-02 12:51:25
1.00500011444092,49,2.57654714584351,0.137897580862045,0.167819246649742,0.414480924606323,0.540193617343903,1.64549779891968,4.36192893981934,0.585927188396454,-9.34493637084961,0.276432275772095,0.320317447185516,0.734698534011841,4.87385225296021,8.50283908843994,9.32248592376709,2.69572424888611,0.911618173122406,0.155297145247459,0.182284638285637,0.392666310071945,0.0616101063787937,1.28321075439453,6.89768218994141,0.342970758676529,2012-03-02 12:51:26
1.01600003242493,29,2.61803722381592,0.0984629914164543,0.110694736242294,0.26444137096405,0.258801430463791,0.457211792469025,0.298455536365509,0.0348585583269596,-9.63621711730957,0.191608652472496,0.212453559041023,0.319899469614029,0.110781729221344,0.377132833003998,1.19916522502899,0.482603222131729,1.05675101280212,0.125842288136482,0.159373641014099,0.340865582227707,0.188098192214966,0.282164424657822,0.0879464074969292,0.0422442965209484,2012-03-02 12:51:27
1.00399994850159,44,2.52833271026611,0.112006507813931,0.142146795988083,0.331642985343933,1.46867752075195,2.40911841392517,0.642651200294495,0.294110953807831,-9.31832313537598,0.128509730100632,0.141782134771347,0.315818816423416,0.39057058095932,0.286846041679382,0.788299858570099,1.50566804409027,1.12286138534546,0.066863514482975,0.0840094909071922,0.220649600028992,0.0462238155305386,0.043333113193512,0.145486995577812,0.176657229661942,2012-03-02 12:51:28
1.00999999046326,50,2.64269590377808,0.108704745769501,0.129064455628395,0.269486755132675,0.329395741224289,1.07903552055359,0.825115263462067,0.0613085478544235,-9.39692783355713,0.179241895675659,0.240830883383751,0.70392107963562,4.00081825256348,8.52174472808838,14.4295959472656,4.95772123336792,1.07186675071716,0.146629020571709,0.169462189078331,0.281450808048248,1.66509485244751,5.24484062194824,2.44502806663513,0.34772115945816,2012-03-02 12:51:29
1.01799988746643,42,2.64919638633728,0.0981999188661575,0.11537229269743,0.233958721160889,0.0442192703485489,0.393111765384674,0.415852308273315,0.208151742815971,-9.4265251159668,0.235959962010384,0.264942169189453,0.463247418403625,0.189618438482285,4.61691331863403,4.69915246963501,3.31998705863953,1.00775003433228,0.0659780725836754,0.0765567868947983,0.169047981500626,0.183135494589806,0.594661951065063,0.316694110631943,0.218591213226318,2012-03-02 12:51:30
1.01900005340576,36,2.44076609611511,0.151639863848686,0.187052935361862,0.403162181377411,1.18907380104065,1.5875152349472,0.351440966129303,0.18385437130928,-9.32339954376221,0.191835060715675,0.228793978691101,0.493056923151016,1.29234611988068,2.45425343513489,2.63992810249329,0.788031160831451,0.970858335494995,0.0958872362971306,0.111932404339314,0.21574629843235,8.00558118498884e-05,0.132618337869644,0.299245268106461,0.421799004077911,2012-03-02 12:51:31
1.01399993896484,43,2.40103268623352,0.0925611928105354,0.111149556934834,0.305602461099625,0.356877356767654,0.975879549980164,1.18159580230713,0.305680274963379,-9.12793827056885,0.171873614192009,0.208272829651833,0.458859533071518,1.64962220191956,5.35363912582397,1.40010499954224,1.21621680259705,0.960823595523834,0.0430665165185928,0.055171113461256,0.176747724413872,0.00343220867216587,0.204182744026184,0.293167173862457,0.21037632226944,2012-03-02 12:51:32
1.09599995613098,40,2.56002593040466,0.151144996285439,0.175768315792084,0.352549105882645,0.0214749816805124,0.153860494494438,1.52748799324036,1.03869366645813,-9.24350261688232,0.169900327920914,0.206451416015625,0.437131226062775,1.57018601894379,1.46743142604828,3.34560966491699,0.882586181163788,0.822042405605316,0.155043140053749,0.188403680920601,0.38074317574501,0.274576604366302,1.00573873519897,1.58782041072845,0.03101178817451,2012-03-02 12:51:33
1.00800013542175,44,2.49757528305054,0.121833421289921,0.144805103540421,0.340112537145615,3.45217013091315e-05,1.27551257610321,2.91322135925293,0.407210737466812,-9.38786125183105,0.147221267223358,0.209481418132782,0.654147982597351,3.19666981697083,5.94473028182983,5.28448581695557,2.31210350990295,0.891067862510681,0.0522143356502056,0.0669896975159645,0.21708357334137,0.150434523820877,0.216901928186417,0.288603514432907,0.206596821546555,2012-03-02 12:51:34
1.00699996948242,49,2.41243577003479,0.09406378865242,0.110701635479927,0.215746253728867,0.129139289259911,0.834783554077148,0.596905767917633,0.426349461078644,-9.29450225830078,0.160092294216156,0.19258114695549,0.439097672700882,2.91294431686401,8.29417610168457,6.78448963165283,0.678604185581207,0.949643969535828,0.0659385845065117,0.0815287157893181,0.194531887769699,0.288871020078659,0.507286548614502,0.38607919216156,0.202559664845467,2012-03-02 12:51:35
1.02699995040894,32,2.27943325042725,0.141660153865814,0.17154523730278,0.288683205842972,0.610046565532684,1.42887437343597,1.98570358753204,0.439884930849075,-9.31876850128174,0.198584616184235,0.246596232056618,0.620270192623138,0.0131188156083226,0.319523632526398,2.60793733596802,1.90598201751709,1.07566690444946,0.0995221734046936,0.130386903882027,0.379394739866257,0.101573266088963,0.281648606061935,0.612456619739532,0.184482783079147,2012-03-02 12:51:36
1.0090000629425,45,2.37364506721497,0.0898143723607063,0.11321771889925,0.225988909602165,0.225898534059525,0.418008297681808,0.745997905731201,0.769392073154449,-9.31174087524414,0.131510898470879,0.15583498775959,0.377228796482086,0.585526883602142,0.701288402080536,1.22450423240662,1.02457892894745,0.997663140296936,0.147230505943298,0.175358459353447,0.375267833471298,0.63511723279953,0.821124076843262,2.87097406387329,0.454511404037476,2012-03-02 12:51:37
1.01099991798401,46,2.26725482940674,0.080622173845768,0.0930255129933357,0.213827639818192,0.908786356449127,1.39796471595764,0.238906189799309,0.3088698387146,-9.2144136428833,0.185825929045677,0.232620865106583,0.506107985973358,7.92785978317261,9.99838733673096,1.9146181344986,2.06668210029602,1.01328277587891,0.0717146098613739,0.091402992606163,0.248364061117172,0.243139281868935,0.433393776416779,0.788677871227264,0.659296631813049,2012-03-02 12:51:38
