"diffSecs","level","azimuth.mean","azimuth.absolute.deviation","azimuth.standard.deviation","azimuth.max.deviation","pitch.mean","pitch.absolute.deviation","pitch.standard.deviation","pitch.max.deviation","roll.mean","roll.absolute.deviation","roll.standard.deviation","roll.max.deviation","time"
2.4539999961853,1,5.5625,0,0,0,18,0,0,0,-45.6875,0,0,0,2012-02-12 18:32:07
1.09200000762939,10,4.91249990463257,0.270000010728836,0.320156216621399,0.649999976158142,16.0499992370605,0.370000004768372,0.471699059009552,0.949999988079071,-45.6624984741211,0.239999994635582,0.453458935022354,1.02499997615814,2012-02-12 18:32:08
1.02900004386902,10,4.78749990463257,0.230000004172325,0.305163890123367,0.524999976158142,15.3374996185303,0.479999989271164,0.564025700092316,1.02499997615814,-45.3375015258789,0.189999997615814,0.229128777980804,0.400000005960464,2012-02-12 18:32:09
1.01300001144409,9,3.95138883590698,0.456790119409561,0.578685164451599,1.11111116409302,15.8611106872559,0.240740746259689,0.291335791349411,0.611111104488373,-45.5208320617676,0.296296298503876,0.353553384542465,0.583333313465118,2012-02-12 18:32:10
1.01099991798401,10,3.98749995231628,0.239999994635582,0.31721442937851,0.675000011920929,15.1937503814697,0.344999998807907,0.430706173181534,0.806249976158142,-45.9124984741211,0.185000002384186,0.235849529504776,0.474999994039536,2012-02-12 18:32:11
1.03299999237061,8,4.78125,0.2265625,0.291480600833893,0.53125,15.5625,0.140625,0.165359452366829,0.3125,-45.6875,0.125,0.176776692271233,0.25,2012-02-12 18:32:12
1.12700009346008,11,4.74431800842285,0.438016533851624,0.523221135139465,0.931818187236786,16.1136360168457,0.396694213151932,0.481045693159103,0.863636374473572,-45.3693199157715,0.438016533851624,0.477813541889191,0.931818187236786,2012-02-12 18:32:13
1.01500010490417,10,5.13749980926514,0.140000000596046,0.160078108310699,0.324999988079071,16.5249996185303,0.579999983310699,0.684196591377258,1.22500002384186,-44.9124984741211,0.230000004172325,0.28394541144371,0.524999976158142,2012-02-12 18:32:14
1.09999990463257,11,5.38068199157715,0.347107440233231,0.385694593191147,0.681818187236786,15.0284090042114,0.383264452219009,0.424200147390366,0.721590936183929,-45.3693199157715,0.371900826692581,0.440698176622391,0.681818187236786,2012-02-12 18:32:15
1.09999990463257,10,5.13749980926514,0.28999999165535,0.354436159133911,0.675000011920929,15.875,0.200000002980232,0.230488613247871,0.375,-44.8125,0.425000011920929,0.550567865371704,1.125,2012-02-12 18:32:16
1.12400007247925,11,8.28977298736572,4.1487603187561,5.17693138122559,12.5227270126343,14.6590909957886,1.23450410366058,1.43276488780975,2.84659099578857,-44.9602279663086,0.652892589569092,0.828844666481018,2.02272725105286,2012-02-12 18:32:18
