"diffSecs","N.samples","x.mean","x.absolute.deviation","x.standard.deviation","x.max.deviation","x.PSD.1","x.PSD.3","x.PSD.6","x.PSD.10","y.mean","y.absolute.deviation","y.standard.deviation","y.max.deviation","y.PSD.1","y.PSD.3","y.PSD.6","y.PSD.10","z.mean","z.absolute.deviation","z.standard.deviation","z.max.deviation","z.PSD.1","z.PSD.3","z.PSD.6","z.PSD.10","time"
1.26299977302551,33,-8.15110969543457,0.0191810168325901,0.0247919447720051,0.0606228224933147,0.000310976640321314,0.00180116703268141,0.00751249026507139,0.00178027770016342,3.12742972373962,0.042630560696125,0.0527476817369461,0.0971749052405357,0.00748992245644331,0.0481174886226654,0.0619144625961781,0.0516767092049122,4.23350095748901,0.0201175548136234,0.0275776963680983,0.0754813551902771,0.000592247874010354,0.00143086537718773,0.00428854953497648,0.0107048582285643,2012-01-25 20:06:01
1.46900010108948,13,-8.1191520690918,0.0278531592339277,0.0299090649932623,0.0399808883666992,0.0001871661079349,0.000441510288510472,0.00116671342402697,0.000809073564596474,3.12756681442261,0.0292459074407816,0.037186112254858,0.0890142172574997,3.01559502986493e-05,5.31143487023655e-05,0.000223477676627226,0.000523656257428229,4.19950914382935,0.0232109650969505,0.028566112741828,0.0611028671264648,7.04029080225155e-05,0.000151177009684034,0.000501908478327096,0.000849716598168015,2012-01-25 20:06:02
1.00099992752075,72,-8.13134765625,0.0262872856110334,0.0324016325175762,0.0800883919000626,0.082889012992382,0.327133059501648,0.0857733190059662,0.0720320343971252,3.12355399131775,0.0212742481380701,0.0273002479225397,0.0734137296676636,1.90012497114367e-06,0.034069899469614,0.22147174179554,0.0301739256829023,4.21685934066772,0.0354128405451775,0.0434588640928268,0.10787296295166,0.141903504729271,0.13259719312191,0.375433921813965,0.205860406160355,2012-01-25 20:06:03
1.01700019836426,43,-8.08227634429932,0.0314410515129566,0.0413328744471073,0.119276136159897,0.0244891233742237,0.0620971992611885,0.205682843923569,0.100070931017399,3.12832117080688,0.0296480525285006,0.0360164418816566,0.068646527826786,0.00172403652686626,0.031497772783041,0.153684079647064,0.0640742480754852,4.34502983093262,0.0446152836084366,0.0570801980793476,0.136608853936195,0.189594835042953,0.304718106985092,0.487516790628433,0.236503437161446,2012-01-25 20:06:04
1.00499987602234,48,-8.0800666809082,0.0455858670175076,0.0597659945487976,0.136680409312248,0.553972661495209,0.577762484550476,0.301111549139023,0.169190242886543,3.11892318725586,0.0237675346434116,0.0281645245850086,0.0584313683211803,0.0649266168475151,0.0695749893784523,0.0494651272892952,0.0228545870631933,4.30634498596191,0.0875448435544968,0.107903331518173,0.226778581738472,2.28539705276489,2.4387309551239,0.754219472408295,0.38545098900795,2012-01-25 20:06:05
1.02699995040894,29,-8.23149871826172,0.0396229960024357,0.0540463514626026,0.133573099970818,0.0367799624800682,0.0789583995938301,0.0989606902003288,0.0364048331975937,3.16112279891968,0.0251871217042208,0.0358960032463074,0.114298090338707,0.0162125155329704,0.0299436505883932,0.0327457003295422,0.0276889875531197,4.05285167694092,0.073182575404644,0.100402340292931,0.228258460760117,0.192953035235405,0.361266702413559,0.348086029291153,0.206097349524498,2012-01-25 20:06:06
1.00300002098083,45,-8.27528667449951,0.0598277263343334,0.0740227401256561,0.187851503491402,0.0469267070293427,0.202146098017693,0.981179594993591,0.210144653916359,3.16950917243958,0.0319914631545544,0.0427011698484421,0.0961050614714622,0.00452146120369434,0.0525248423218727,0.182208225131035,0.0687414333224297,3.91612219810486,0.0955966711044312,0.111602589488029,0.241897433996201,1.60587704181671,3.2892599105835,1.71015644073486,0.318886131048203,2012-01-25 20:06:07
1.00099992752075,47,-8.12950420379639,0.0548978820443153,0.0665886700153351,0.147308394312859,0.00111136690247804,0.561684429645538,0.633866727352142,0.07931137830019,3.11267232894897,0.0289182867854834,0.0378817059099674,0.102030754089355,0.0466876365244389,0.0415842682123184,0.0022940831258893,0.0329208374023438,4.24273204803467,0.054835494607687,0.0654083266854286,0.150647014379501,0.00030341709498316,0.429366707801819,0.513960659503937,0.0896534025669098,2012-01-25 20:06:08
1.0090000629425,43,-8.22344589233398,0.0567395128309727,0.067024402320385,0.151432663202286,0.0397698469460011,0.158666402101517,0.284825176000595,0.373695462942123,3.1826000213623,0.0406692139804363,0.0468809492886066,0.0836986526846886,0.00602162210270762,0.0722079947590828,0.114137522876263,0.146387279033661,3.95002722740173,0.0762786492705345,0.100822851061821,0.21779890358448,0.899683058261871,1.32504200935364,0.670404672622681,0.101189337670803,2012-01-25 20:06:09
1.02800011634827,37,-8.25083827972412,0.0505589582026005,0.0578245893120766,0.104427389800549,0.0965590551495552,0.242360293865204,0.128505170345306,0.0243946835398674,3.18451070785522,0.0287967044860125,0.037785317748785,0.0811035260558128,0.0306159984320402,0.0412717238068581,0.0276394989341497,0.0149941295385361,3.92769575119019,0.0335245132446289,0.0469270832836628,0.181290656328201,0.112284995615482,0.173581764101982,0.0668434575200081,0.0263998433947563,2012-01-25 20:06:10
1.03199982643127,47,-8.180832862854,0.0226675719022751,0.0276587568223476,0.066559910774231,0.00225009862333536,0.0146702341735363,0.0352258011698723,0.0257567185908556,3.14668273925781,0.0351423844695091,0.04677439853549,0.116427853703499,0.0590579435229301,0.0642950460314751,0.0318919867277145,0.0583646185696125,4.11169862747192,0.04591229185462,0.0555006340146065,0.124773785471916,0.0654134377837181,0.273247897624969,0.537355482578278,0.0677635371685028,2012-01-25 20:06:11
1.01300001144409,20,-8.17482376098633,0.0364806763827801,0.0430152490735054,0.0823757201433182,0.000370954861864448,0.000788046570960432,0.00246473937295377,0.00527437450364232,3.12145662307739,0.0411879532039165,0.0465273819863796,0.0755112171173096,0.000492036109790206,0.00115401670336723,0.00563231902197003,0.00866744294762611,4.15066432952881,0.0274585727602243,0.0349307544529438,0.0858080387115479,0.000213087783777155,0.000440029572928324,0.00205565802752972,0.00308121019043028,2012-01-25 20:06:12
1.00600004196167,48,-8.1632194519043,0.0303392708301544,0.0390644557774067,0.103786863386631,4.66616893390892e-06,0.0264485627412796,0.0146378045901656,0.0858307704329491,3.12770819664001,0.0211455933749676,0.0271833632141352,0.0680335685610771,0.0274762474000454,0.036716602742672,0.030215984210372,0.0375328585505486,4.15434217453003,0.0242612008005381,0.0278544779866934,0.0747755765914917,0.000795613101217896,0.0137931145727634,0.0276273377239704,0.0789340957999229,2012-01-25 20:06:13
1.02400016784668,43,-8.15890502929688,0.0312921777367592,0.038795992732048,0.0978391766548157,0.000692222209181637,0.00813267752528191,0.0336765311658382,0.096661664545536,3.11509370803833,0.0313027799129486,0.0388763137161732,0.101487442851067,0.0247669108211994,0.0928190648555756,0.174118518829346,0.151845172047615,4.14958143234253,0.0228379461914301,0.0265493057668209,0.0504015311598778,0.00434013456106186,0.0430388487875462,0.0435957871377468,0.0401074439287186,2012-01-25 20:06:14
1.01399993896484,44,-8.14598274230957,0.0238580796867609,0.0277328696101904,0.0456899963319302,0.0537139996886253,0.119322329759598,0.0572916343808174,0.0187425762414932,3.12765264511108,0.0174554474651814,0.0249494761228561,0.079121895134449,0.0186656191945076,0.0289479549974203,0.0103636244311929,0.00400175200775266,4.20549249649048,0.0292679369449615,0.0352309457957745,0.0898198410868645,0.136774688959122,0.184170365333557,0.0336158908903599,0.0372744463384151,2012-01-25 20:06:15
1.12800002098083,42,-8.18808555603027,0.0233713630586863,0.0291817374527454,0.0691134110093117,5.21671208844054e-05,0.0356215462088585,0.0389460884034634,0.0653849989175797,3.16474604606628,0.0276854522526264,0.0365860052406788,0.0910616517066956,0.000290141877485439,0.0218827612698078,0.0215840023010969,0.0683051347732544,4.09170770645142,0.0570609234273434,0.0690061971545219,0.120014846324921,0.328425228595734,0.338007390499115,0.0417956486344337,0.101209841668606,2012-01-25 20:06:17
1.00899982452393,48,-8.14605712890625,0.0365026071667671,0.0459247194230556,0.111141957342625,0.113652899861336,0.105168864130974,0.0540145933628082,0.129742696881294,3.13914942741394,0.03085015155375,0.0388797968626022,0.0872382894158363,0.0772116556763649,0.257209688425064,0.17182993888855,0.0151996519416571,4.20684862136841,0.0631217807531357,0.0824014022946358,0.17631559073925,0.205526918172836,0.481567531824112,0.223982781171799,0.0419685989618301,2012-01-25 20:06:18
1.0770001411438,9,-8.15041637420654,0.0186447091400623,0.0214077513664961,0.0305095240473747,2.97692395179183e-06,1.16625769805978e-05,5.57659186597448e-05,0.000130230473587289,3.14466571807861,0.022519052028656,0.0240213591605425,0.0326889082789421,1.41286809594021e-05,4.33054665336385e-05,0.000168230122653767,0.000276577600743622,4.09155225753784,0.0159811805933714,0.0215734913945198,0.0468539148569107,7.44765941362857e-07,3.37168307851243e-06,1.02727408375358e-05,4.7218413783412e-06,2012-01-25 20:06:19
1.02099990844727,51,-8.21508884429932,0.0371000654995441,0.0442117787897587,0.100950635969639,0.0136515200138092,0.0177309401333332,0.250402450561523,0.0845524445176125,3.2011981010437,0.0332619100809097,0.0426027998328209,0.0924902185797691,0.0546532049775124,0.434487968683243,0.288377165794373,0.135396748781204,3.98707604408264,0.0471668913960457,0.0546961612999439,0.123255990445614,0.00586587795987725,0.271085262298584,0.386191934347153,0.063170924782753,2012-01-25 20:06:20
1.01900005340576,36,-8.17711162567139,0.0342324115335941,0.0430884696543217,0.089894138276577,0.00835759099572897,0.0224963035434484,0.0814615413546562,0.0468300953507423,3.25035953521729,0.0392265915870667,0.0448471531271935,0.0937080085277557,0.0101867606863379,0.0462868846952915,0.0713407546281815,0.0187787115573883,4.05096340179443,0.0151641042903066,0.0202005431056023,0.0482161305844784,0.0040489356033504,0.00837006140500307,0.00911099743098021,0.00270346365869045,2012-01-25 20:06:21
1.02099990844727,24,-8.18038082122803,0.0190684534609318,0.0255830138921738,0.0604742355644703,0.00282968301326036,0.00554043333977461,0.00773491244763136,0.00486864754930139,3.23946332931519,0.0269682556390762,0.0309682246297598,0.0621086955070496,0.00257616140879691,0.00446316553279757,0.00421487493440509,0.00124683533795178,4.02031755447388,0.0364003702998161,0.0510730631649494,0.136884421110153,0.0044687888585031,0.00957136787474155,0.0144147910177708,0.00554077606648207,2012-01-25 20:06:22
1.24699997901917,49,-8.236985206604,0.0246043968945742,0.0299428198486567,0.0594402030110359,0.0545303747057915,0.174900352954865,0.0959677547216415,0.0258281473070383,3.23379278182983,0.0467827208340168,0.0630436912178993,0.169114589691162,0.160229608416557,0.787322700023651,1.06198728084564,0.121612101793289,3.92466115951538,0.0622462406754494,0.0692579001188278,0.154905214905739,0.631290674209595,1.07992351055145,0.273432791233063,0.175213694572449,2012-01-25 20:06:23
1.01500010490417,42,-8.2399206161499,0.0246388874948025,0.0294050704687834,0.0709813460707664,0.0833426341414452,0.117486342787743,0.0185585543513298,0.0250603277236223,3.2660813331604,0.0229266919195652,0.0323097296059132,0.0985333770513535,0.0042695440351963,0.0170000195503235,0.017014367505908,0.0395516380667686,3.89394044876099,0.0371251329779625,0.0430872403085232,0.0791537538170815,0.0136927766725421,0.134779214859009,0.100678622722626,0.0245749838650227,2012-01-25 20:06:24
1.06699991226196,34,-8.24104690551758,0.0284697748720646,0.0413935296237469,0.111334130167961,4.77142893942073e-05,0.010509024374187,0.0130934519693255,0.00913161877542734,3.23100256919861,0.0242620855569839,0.0268286764621735,0.0438414178788662,0.000625164480879903,0.00518052745610476,0.0394706130027771,0.0142554547637701,3.85170578956604,0.0323043093085289,0.0376112461090088,0.0859523862600327,0.0136873675510287,0.0372391417622566,0.0354894697666168,0.0110639482736588,2012-01-25 20:06:25
1.00300002098083,39,-8.26499462127686,0.021379878744483,0.0245471894741058,0.041238147765398,0.000132304965518415,0.000715154048521072,0.0382121540606022,0.0333230793476105,3.23594284057617,0.0208640974014997,0.0246782433241606,0.0590914711356163,0.000289412448182702,0.0176113396883011,0.0553145781159401,0.00522533338516951,3.89399433135986,0.0430176928639412,0.0503671206533909,0.0988209024071693,0.00859642680734396,0.0216517224907875,0.0551489368081093,0.142701581120491,2012-01-25 20:06:26
1.00999999046326,41,-8.25265502929688,0.0259254481643438,0.030407702550292,0.0641018971800804,0.0399420335888863,0.0665438622236252,0.0226988196372986,0.031300026923418,3.23164987564087,0.0189365446567535,0.0239329636096954,0.0641018971800804,0.0315897613763809,0.0326065272092819,0.00759517261758447,0.0124020576477051,3.85090398788452,0.0369981117546558,0.0425227992236614,0.0851504132151604,0.0719229802489281,0.128123492002487,0.0461596287786961,0.0382612459361553,2012-01-25 20:06:27
1.00600004196167,42,-8.23455047607422,0.0276409182697535,0.0323476009070873,0.0618751831352711,0.0162646733224392,0.100588753819466,0.126821756362915,0.0138910105451941,3.23199152946472,0.0166779477149248,0.0196299366652966,0.044830322265625,0.000327636982547119,0.0165520869195461,0.0134148951619864,0.00280523183755577,3.84770917892456,0.0265180114656687,0.0332092456519604,0.0917622372508049,0.00299768405966461,0.0555977448821068,0.0737054198980331,0.0193406324833632,2012-01-25 20:06:28
1.01999998092651,37,-8.25984954833984,0.0253726039081812,0.0333260707557201,0.0712968707084656,0.0233719646930695,0.0377361178398132,0.0264835581183434,0.0144878579303622,3.2568678855896,0.0248855575919151,0.0283659864217043,0.0697066709399223,0.00793956033885479,0.0207364913076162,0.0456884801387787,0.0118856988847256,3.80604028701782,0.0345417596399784,0.040258876979351,0.0795132964849472,0.0282648298889399,0.0603125989437103,0.071086049079895,0.0115536246448755,2012-01-25 20:06:29
1.01900005340576,45,-8.26439094543457,0.0346065163612366,0.0393570698797703,0.0810681656002998,0.0142959095537663,0.0631047189235687,0.229680687189102,0.0643333122134209,3.2481803894043,0.0275070331990719,0.0347110815346241,0.100245609879494,0.00952351931482553,0.0220446828752756,0.0363249257206917,0.0565183572471142,3.8614227771759,0.0633630678057671,0.078348383307457,0.164315745234489,0.323398739099503,1.18623650074005,0.692787706851959,0.0241546742618084,2012-01-25 20:06:30
1.07200002670288,29,-8.28695774078369,0.0139694958925247,0.0190092716366053,0.0486950054764748,3.37687597493641e-05,0.000674485752824694,0.00291480589658022,0.00748230796307325,3.21624302864075,0.0253969896584749,0.0345022939145565,0.0781151354312897,0.000120397955470253,0.000411644286941737,0.00400904705747962,0.00298965000547469,3.8570568561554,0.0214557219296694,0.025766883045435,0.0618834160268307,0.00347140803933144,0.00616642460227013,0.00538860494270921,0.00134458276443183,2012-01-25 20:06:31
1.06299996376038,33,-8.25185012817383,0.017830241471529,0.0254458636045456,0.0838021337985992,0.00353037542663515,0.00637896033003926,0.00313997897319496,0.00140234688296914,3.25610494613647,0.0307076871395111,0.0438888743519783,0.117382630705833,0.0325580537319183,0.0429404377937317,0.0190522857010365,0.0182628408074379,3.85490489006042,0.0515997372567654,0.0598399788141251,0.11678820848465,0.129323378205299,0.227548241615295,0.174309328198433,0.0277560111135244,2012-01-25 20:06:32
1.01200008392334,45,-8.28182506561279,0.0421515703201294,0.0474886931478977,0.0834653452038765,0.0315629206597805,0.0293021500110626,0.187580436468124,0.159404128789902,3.28784275054932,0.0481179915368557,0.0532095655798912,0.1006815508008,0.205502152442932,0.51498556137085,0.210073053836823,0.00958485808223486,3.76161289215088,0.0560310445725918,0.0735749453306198,0.191992312669754,0.593743205070496,1.05231869220734,0.509735703468323,0.205667212605476,2012-01-25 20:06:33
1.0019998550415,32,-8.36599159240723,0.0253210328519344,0.0329252667725086,0.0891790688037872,0.000254823506111279,0.0099439462646842,0.0398245342075825,0.0136904576793313,3.28430819511414,0.0333465002477169,0.0391007363796234,0.0873404368758202,0.027338158339262,0.0501202307641506,0.0515881776809692,0.0241396632045507,3.60976648330688,0.0414292439818382,0.050504207611084,0.11859916895628,0.00477866781875491,0.00916820298880339,0.00441806018352509,0.0313354209065437,2012-01-25 20:06:34
1.00600004196167,44,-8.3363208770752,0.0577558018267155,0.067341260612011,0.136624231934547,0.236771628260612,0.230828106403351,0.274843662977219,0.0894774869084358,3.27029490470886,0.0285588633269072,0.0362429618835449,0.0737727656960487,0.0350548177957535,0.100140407681465,0.135015696287155,0.0838388502597809,3.67838525772095,0.120435386896133,0.144896328449249,0.293307900428772,3.19010782241821,5.18985986709595,1.64050960540771,0.387348502874374,2012-01-25 20:06:35
1.01600003242493,29,-8.21628189086914,0.0462695844471455,0.053469892591238,0.0899504944682121,0.00705916387960315,0.0202415939420462,0.029008274897933,0.0111963050439954,3.21759557723999,0.024650689214468,0.032201636582613,0.0794677734375,0.00549454754218459,0.0160518921911716,0.0272342190146446,0.00638288166373968,3.93212842941284,0.062524639070034,0.0728639215230942,0.12782484292984,0.00669128261506557,0.0578533932566643,0.216685950756073,0.0776810720562935,2012-01-25 20:06:36
1.22399997711182,47,-8.27848148345947,0.0457968413829803,0.0539533272385597,0.0963971167802811,0.281782299280167,0.611060380935669,0.496173173189163,0.0297243222594261,3.27521228790283,0.0277640838176012,0.0368872210383415,0.108081765472889,0.0150120621547103,0.0474944114685059,0.136699020862579,0.0357174575328827,3.82250690460205,0.0838337540626526,0.0964875444769859,0.198219314217567,0.854957282543182,2.54679727554321,0.733609855175018,0.193444967269897,2012-01-25 20:06:37
1.01399993896484,49,-8.20896625518799,0.0735272988677025,0.0944126024842262,0.244365304708481,1.50110983848572,2.71223592758179,1.55701923370361,0.24317829310894,3.22898960113525,0.0444137752056122,0.0517698004841805,0.105271391570568,0.388855576515198,0.969708025455475,0.321442157030106,0.0702195018529892,4.00591659545898,0.128601536154747,0.139154955744743,0.24996954202652,3.24674439430237,7.11612033843994,1.59701681137085,0.0366834588348866,2012-01-25 20:06:38
1.00200009346008,24,-8.22001552581787,0.0821307525038719,0.0983106642961502,0.178563192486763,0.0635549277067184,0.122951187193394,0.170659899711609,0.0445067510008812,3.25213027000427,0.0412696488201618,0.0505472719669342,0.10174398869276,0.00832676887512207,0.0176649298518896,0.0336852520704269,0.0113415392115712,3.96515536308289,0.182512626051903,0.206147059798241,0.369384050369263,0.350911110639572,0.65089738368988,0.767004013061523,0.217101126909256,2012-01-25 20:06:39
1.16799998283386,41,-8.17778968811035,0.045037105679512,0.0552971996366978,0.116723708808422,0.190852478146553,0.200746789574623,0.00964319240301847,0.0691757127642632,3.22351741790771,0.0386198274791241,0.043168980628252,0.0813235267996788,0.116372488439083,0.179314091801643,0.0495125763118267,0.0375368930399418,4.05349493026733,0.0962347388267517,0.112369850277901,0.212397545576096,1.38029217720032,1.73467218875885,0.26176655292511,0.035616185516119,2012-01-25 20:06:41
1.01300001144409,50,-8.20090866088867,0.0554899610579014,0.0656624659895897,0.149650081992149,0.68745356798172,1.45748245716095,0.753979086875916,0.0467698276042938,3.2405092716217,0.0276782643049955,0.0354214049875736,0.102381497621536,0.101311974227428,0.169969260692596,0.16433484852314,0.0810349211096764,3.98738384246826,0.0695095658302307,0.0893428847193718,0.172597140073776,1.68570017814636,2.12127256393433,0.975683212280273,0.0938472151756287,2012-01-25 20:06:42
1.19700002670288,26,-8.20665740966797,0.0493233017623425,0.060494489967823,0.138801574707031,0.0460795722901821,0.0836644396185875,0.0850292071700096,0.0419036597013474,3.22940516471863,0.0276210699230433,0.0301365479826927,0.055822592228651,0.000556996907107532,0.00319404271431267,0.012054362334311,0.00384787679649889,3.93586111068726,0.0944106951355934,0.101329177618027,0.170107617974281,0.138879805803299,0.240137964487076,0.184756830334663,0.0308865588158369,2012-01-25 20:06:43
1.00300002098083,46,-8.24184989929199,0.0344066359102726,0.0433605089783669,0.0925234481692314,0.279326468706131,0.437556594610214,0.221579641103745,0.0269271153956652,3.23853945732117,0.0393378101289272,0.0457321777939796,0.0906048119068146,0.0623085461556911,0.164845630526543,0.0312325358390808,0.114172838628292,3.94333910942078,0.0875739231705666,0.102511525154114,0.22661879658699,1.78586709499359,2.12643480300903,0.332953572273254,0.0994250699877739,2012-01-25 20:06:44
1.00799989700317,42,-8.24832630157471,0.066911943256855,0.0812858641147614,0.185392081737518,0.637100636959076,1.11913704872131,0.50499039888382,0.104396089911461,3.23362588882446,0.0267736688256264,0.0338401347398758,0.0856912955641747,0.040968231856823,0.0616536177694798,0.0233691204339266,0.0542531870305538,3.93713641166687,0.126107737421989,0.145270869135857,0.249836206436157,2.74769592285156,4.15766429901123,1.20363914966583,0.0697290152311325,2012-01-25 20:06:45
1.56900000572205,34,-8.19057178497314,0.0404311828315258,0.0544339828193188,0.109892904758453,0.10602667927742,0.221752896904945,0.153090015053749,0.0740065202116966,3.22263813018799,0.0336615554988384,0.0398713126778603,0.0822028666734695,0.0142361558973789,0.0603197738528252,0.092340961098671,0.00708115054294467,3.99188327789307,0.0711915343999863,0.0925750881433487,0.205362796783447,0.405600041151047,0.719524443149567,0.531967461109161,0.258510321378708,2012-01-25 20:06:46
1.01100015640259,45,-8.18702697753906,0.0468589216470718,0.0641554370522499,0.138818472623825,0.365958631038666,0.785504162311554,0.602261424064636,0.161909133195877,3.22399044036865,0.0448248349130154,0.0531595312058926,0.125089287757874,0.164913088083267,0.454500198364258,0.364433348178864,0.261876881122589,3.94902896881104,0.10192134976387,0.126397579908371,0.248217195272446,2.78984880447388,3.69779992103577,1.08895552158356,0.362627774477005,2012-01-25 20:06:47
1,48,-8.16812229156494,0.0674888864159584,0.0954541191458702,0.216563314199448,1.5245715379715,1.9386500120163,1.02983379364014,0.592467188835144,3.21065616607666,0.0550431981682777,0.0608071349561214,0.111754968762398,0.517135858535767,0.463384956121445,0.171659588813782,0.0770576000213623,4.08283519744873,0.138655155897141,0.170378297567368,0.336694955825806,6.19557332992554,8.68480587005615,2.57736492156982,0.396564424037933,2012-01-25 20:06:48
1.0019998550415,32,-8.21919822692871,0.0586099773645401,0.0757142305374146,0.17529359459877,0.102167740464211,0.138578653335571,0.0585768818855286,0.0209808200597763,3.22362971305847,0.0563499256968498,0.0630432292819023,0.105115115642548,0.0803563892841339,0.134651958942413,0.135643616318703,0.102531999349594,4.0302267074585,0.130167976021767,0.15605141222477,0.284699141979218,0.734243988990784,1.15210843086243,0.555280268192291,0.0777431279420853,2012-01-25 20:06:49
1.01900005340576,30,-8.19476413726807,0.0355653874576092,0.0459611639380455,0.101662091910839,0.00307037075981498,0.0107274176552892,0.029035422950983,0.00370919634588063,3.24109768867493,0.0310543924570084,0.0372781790792942,0.083356574177742,0.00851352792233229,0.0186962820589542,0.0196754671633244,0.00173295079730451,4.00372838973999,0.0461130477488041,0.0550067126750946,0.134678110480309,0.0438708551228046,0.0666696280241013,0.0301634036004543,0.00936351250857115,2012-01-25 20:06:50
1.0220000743866,49,-8.20416355133057,0.0160189978778362,0.0209598205983639,0.0450304560363293,0.00116979144513607,0.0197160746902227,0.119451783597469,0.06634421646595,3.2175817489624,0.019719460979104,0.0243656076490879,0.0480324886739254,0.00136546918656677,0.0575967505574226,0.0529867000877857,0.0317679829895496,3.98810410499573,0.0283457338809967,0.0347925424575806,0.0816556289792061,0.0229206793010235,0.0706625282764435,0.076114222407341,0.105930581688881,2012-01-25 20:06:51
1.01699995994568,32,-8.2412633895874,0.0276577696204185,0.031372606754303,0.0551623106002808,0.000956582138314843,0.00322764948941767,0.00370067497715354,0.0257977675646544,3.21075844764709,0.0177170690149069,0.0240036696195602,0.0726306065917015,0.000692967791110277,0.00222803698852658,0.0108839720487595,0.0126627124845982,3.96433806419373,0.0183874927461147,0.0217908676713705,0.0465814620256424,0.00392730114981532,0.00516666891053319,0.00205588596872985,0.00569160515442491,2012-01-25 20:06:53
1.01699995994568,27,-8.22632694244385,0.0127257546409965,0.0161699242889881,0.0377736985683441,2.33062132792838e-06,0.000347280234564096,0.00203715288080275,0.000883939792402089,3.24999642372131,0.0330655090510845,0.0384247414767742,0.0744579434394836,0.010532159358263,0.0227218735963106,0.0358222723007202,0.0110765052959323,3.973872423172,0.020420478656888,0.025646785274148,0.0566604658961296,7.25200106899138e-06,8.65449255798012e-05,0.00250875647179782,0.00312779541127384,2012-01-25 20:06:54
1.06800007820129,52,-8.22004699707031,0.029789824038744,0.0379486046731472,0.105798482894897,4.86911449115723e-05,0.0951459482312202,0.0506578199565411,0.133409395813942,3.21714687347412,0.0259672794491053,0.0323775336146355,0.0876941606402397,0.0893460959196091,0.133248344063759,0.0631102249026299,0.171402364969254,3.97395610809326,0.0123599404469132,0.0158145781606436,0.0512963384389877,0.000177866211743094,0.0113024218007922,0.0271534118801355,0.0207881573587656,2012-01-25 20:06:55
1.0460000038147,22,-8.27324676513672,0.0308787375688553,0.0355488695204258,0.0525992140173912,1.96009023056831e-05,0.00077315594535321,0.00692236702889204,0.00528785912320018,3.21078634262085,0.0272316951304674,0.0424031838774681,0.113668009638786,0.000433750858064741,0.000858167186379433,0.00040910198003985,0.00143105641473085,3.96277785301208,0.0198564603924751,0.0278802830725908,0.069537989795208,0.000748012505937368,0.00124270759988576,0.000899932929314673,0.000505724514368922,2012-01-25 20:06:56
1.31099987030029,40,-8.22483730316162,0.0284392349421978,0.0361783690750599,0.0951243415474892,0.0147878797724843,0.0277898870408535,0.0168870557099581,0.0314400419592857,3.21560049057007,0.0203977972269058,0.027017230167985,0.0578591339290142,0.00407941872254014,0.0070533836260438,0.017192367464304,0.0566887445747852,3.93565368652344,0.03553681448102,0.0403378196060658,0.0654592514038086,1.69597078638617e-05,0.0199699159711599,0.0985771492123604,0.0452626571059227,2012-01-25 20:06:57
1.01999998092651,48,-8.21552085876465,0.0221670772880316,0.0292491503059864,0.0710980892181396,0.137550175189972,0.167547643184662,0.0869397148489952,0.0287126898765564,3.22025871276855,0.0264574941247702,0.0341256707906723,0.091937430202961,0.0943528264760971,0.127864852547646,0.129309475421906,0.0813121646642685,4.09999704360962,0.059997633099556,0.0785255283117294,0.22637015581131,0.891742050647736,1.05579364299774,0.442423969507217,0.295176476240158,2012-01-25 20:06:58
1.22000002861023,29,-8.10942268371582,0.0481356792151928,0.0542009919881821,0.0987429767847061,0.00582983298227191,0.030919261276722,0.0706711709499359,0.00391598744317889,3.21962451934814,0.0292683355510235,0.0381207205355167,0.0852164924144745,0.00704780174419284,0.01259929779917,0.0115661583840847,0.00881908647716045,4.16004848480225,0.0648567453026772,0.0782151892781258,0.217775329947472,0.002594452816993,0.0402725972235203,0.11378188431263,0.106322802603245,2012-01-25 20:06:59
1.19900012016296,36,-8.14333343505859,0.0217925440520048,0.0268842484802008,0.0626544132828712,0.00155585038010031,0.0102792205289006,0.015025656670332,0.00584181351587176,3.24681830406189,0.0232453886419535,0.027386050671339,0.0580227822065353,0.00493082450702786,0.0246684271842241,0.0524402260780334,0.00901294127106667,4.08801126480103,0.0283605977892876,0.0405758693814278,0.126124620437622,0.0354032665491104,0.0433018207550049,0.0096797626465559,0.0279395580291748,2012-01-25 20:07:00
1.00300002098083,51,-8.18009185791016,0.041300255805254,0.0542727410793304,0.128833130002022,0.369107872247696,0.768911778926849,0.159682631492615,0.0675922706723213,3.22754144668579,0.0390682071447372,0.0473565384745598,0.138446822762489,0.170353770256042,0.585392475128174,0.144894272089005,0.143400609493256,4.03707075119019,0.0653777793049812,0.0790677666664124,0.189595147967339,1.24005877971649,1.91601276397705,0.341358721256256,0.200950220227242,2012-01-25 20:07:01
1.00899982452393,31,-8.17969512939453,0.0574723780155182,0.0636690855026245,0.106923930346966,0.0842151194810867,0.173777207732201,0.190408408641815,0.0270323622971773,3.2112033367157,0.0424104444682598,0.0524176768958569,0.10249537974596,0.0771266147494316,0.121560446918011,0.0778978168964386,0.038353443145752,4.07545375823975,0.142068848013878,0.152041792869568,0.210051938891411,0.780631959438324,1.30053377151489,0.701779842376709,0.0707889273762703,2012-01-25 20:07:02
1.01699995994568,43,-8.16186904907227,0.0778592601418495,0.087823711335659,0.154169633984566,0.936077892780304,1.23133277893066,0.255431115627289,0.166436851024628,3.22980856895447,0.0243442226201296,0.0289898253977299,0.0554191060364246,0.022321505472064,0.0522583872079849,0.0240110158920288,0.0297562032938004,4.05356740951538,0.111898750066757,0.122226998209953,0.182905346155167,2.19493246078491,2.89423537254333,0.470302879810333,0.105510905385017,2012-01-25 20:07:03
1.02500009536743,33,-8.19152450561523,0.0421082451939583,0.0510702952742577,0.130458831787109,0.0482704639434814,0.0538431406021118,0.0222767014056444,0.0381926037371159,3.22490191459656,0.0248902980238199,0.0307395756244659,0.0573539435863495,0.00430792104452848,0.0106942756101489,0.00910972338169813,0.00918228551745415,4.11938714981079,0.057777252048254,0.0747218430042267,0.136698603630066,0.126555204391479,0.144092813134193,0.032943919301033,0.0725525915622711,2012-01-25 20:07:04
1.00799989700317,43,-8.18057060241699,0.0342516154050827,0.0407509095966816,0.0704709216952324,0.00200709491036832,0.0765315666794777,0.0759999603033066,0.0436162166297436,3.19149446487427,0.0338803678750992,0.0389003567397594,0.0925930812954903,0.00673593720421195,0.0127957602962852,0.0399535708129406,0.0415770635008812,4.11400365829468,0.0411571934819221,0.0515621528029442,0.122468970716,0.0568912588059902,0.0702284798026085,0.037537295371294,0.0378055088222027,2012-01-25 20:07:05
1.02600002288818,41,-8.21701622009277,0.0288656875491142,0.0349784716963768,0.0774963200092316,1.00924080470577e-06,0.00607795128598809,0.0247098039835691,0.0853406935930252,3.20510005950928,0.0214800853282213,0.0266067069023848,0.0605140998959541,0.0335076861083508,0.0366463027894497,0.011251013725996,0.00734918424859643,4.0778923034668,0.0358313210308552,0.0445940457284451,0.0997407138347626,0.0239074751734734,0.14677332341671,0.29526486992836,0.145221590995789,2012-01-25 20:07:06
1.00200009346008,29,-8.17807006835938,0.0731593444943428,0.086645781993866,0.166037201881409,0.0315912440419197,0.127334907650948,0.296058028936386,0.0485216751694679,3.19764423370361,0.0480420477688313,0.0530879124999046,0.0889362320303917,0.0051867887377739,0.0260439533740282,0.0912094265222549,0.0247227884829044,4.11202955245972,0.0539190769195557,0.0685790702700615,0.159949973225594,0.025980532169342,0.0671195611357689,0.128754273056984,0.145946457982063,2012-01-25 20:07:07
1.21000003814697,42,-8.13601684570312,0.060307715088129,0.0690730959177017,0.14079549908638,0.419306665658951,0.720705330371857,0.30247163772583,0.0482327230274677,3.18832850456238,0.0382814854383469,0.0482424311339855,0.0894273445010185,0.0311361327767372,0.103740639984608,0.0553423389792442,0.0607309937477112,4.10058069229126,0.0711815655231476,0.0942461863160133,0.236760541796684,1.00465154647827,1.18881261348724,0.357044756412506,0.107966721057892,2012-01-25 20:07:09
1.01099991798401,51,-8.15048027038574,0.057120680809021,0.0656745806336403,0.126332700252533,0.0325910411775112,0.33980929851532,1.03899562358856,0.0946524143218994,3.25080823898315,0.0395282320678234,0.0469054840505123,0.102873586118221,0.00416704080998898,0.194288536906242,0.652525722980499,0.169628024101257,4.08398914337158,0.0548508875072002,0.0685314908623695,0.131909191608429,0.311777472496033,0.967523574829102,0.53522002696991,0.101391419768333,2012-01-25 20:07:10
1.0789999961853,33,-8.15170383453369,0.0214683320373297,0.0268869698047638,0.061217162758112,0.00639310106635094,0.0225927270948887,0.0416250862181187,0.017462931573391,3.21568965911865,0.0289606489241123,0.0364031344652176,0.0775617882609367,0.0167977474629879,0.0283623449504375,0.0226729046553373,0.00626392243430018,4.17347240447998,0.0299331936985254,0.0369329489767551,0.0924200862646103,0.00151771493256092,0.0234993975609541,0.049510907381773,0.0457034595310688,2012-01-25 20:07:11
1.08299994468689,28,-8.14547348022461,0.0304706785827875,0.0350010432302952,0.0647947117686272,0.0197900738567114,0.035885501652956,0.0283598508685827,0.00841547735035419,3.1945161819458,0.0173367261886597,0.0197224114090204,0.0416781902313232,0.00319053395651281,0.00537019362673163,0.00356450723484159,0.00246162037365139,4.16257286071777,0.0171115733683109,0.0213701911270618,0.0437796115875244,5.39282737008762e-05,7.82237329985946e-05,0.00233599380590022,0.00887020397931337,2012-01-25 20:07:12
1.08700013160706,43,-8.14476490020752,0.0190192926675081,0.0241466220468283,0.0640861168503761,0.000347431807313114,0.00770224165171385,0.0160064976662397,0.00565195316448808,3.22251081466675,0.0208543576300144,0.0251261275261641,0.0725236982107162,2.55892500717891e-05,0.00272601400502026,0.0310731679201126,0.0439662300050259,4.14730072021484,0.0342728309333324,0.0449054837226868,0.0989785715937614,0.0236796159297228,0.0803186669945717,0.0527061745524406,0.0492683202028275,2012-01-25 20:07:13
1.0239999294281,48,-8.1523904800415,0.0300072748214006,0.0380945019423962,0.095001757144928,0.0432317815721035,0.167791962623596,0.236666396260262,0.243720218539238,3.21392512321472,0.0294028744101524,0.0336594954133034,0.0561838336288929,0.157072991132736,0.170447528362274,0.00793204363435507,0.0270191188901663,4.12308311462402,0.0539621226489544,0.0652623474597931,0.142809197306633,0.00163380813319236,0.666462302207947,0.279394745826721,0.152528390288353,2012-01-25 20:07:14
1.00399994850159,33,-8.15229797363281,0.0181544274091721,0.0212513413280249,0.052004873752594,0.00207609287463129,0.0027644787915051,0.00174518348649144,0.00964310485869646,3.24094915390015,0.0254306253045797,0.0299715809524059,0.0635945498943329,0.0126743456348777,0.0128506859764457,0.0137418648228049,0.0231590494513512,4.14999580383301,0.0420901775360107,0.0488518252968788,0.0962833091616631,0.0233112145215273,0.033288735896349,0.0262894630432129,0.0278213322162628,2012-01-25 20:07:15
1.00300002098083,41,-8.12445068359375,0.0228686314076185,0.0281652770936489,0.0542953535914421,0.000665436265990138,0.00699241785332561,0.0343850702047348,0.00514069385826588,3.23715114593506,0.0167663674801588,0.0215294118970633,0.059796541929245,0.00788667611777782,0.0189927592873573,0.0582603774964809,0.0203654393553734,4.14916944503784,0.0307791773229837,0.036488238722086,0.0774963200092316,0.00410313066095114,0.00633636489510536,0.0926030874252319,0.016880951821804,2012-01-25 20:07:16
1.01200008392334,42,-8.15656471252441,0.0272184871137142,0.0355560481548309,0.0856921821832657,0.0157052911818027,0.1086610481143,0.130366265773773,0.113669894635677,3.22685480117798,0.0237938705831766,0.0266384780406952,0.0396935157477856,0.00121118605602533,0.00148536963388324,0.0301794558763504,0.0701304525136948,4.14727878570557,0.0399604067206383,0.0527587719261646,0.136359333992004,0.135154590010643,0.296003252267838,0.214803129434586,0.110406652092934,2012-01-25 20:07:17
1.08399987220764,27,-8.12825965881348,0.0498539768159389,0.0549397207796574,0.0995194464921951,0.00722116604447365,0.020910682156682,0.0531416460871696,0.00840140506625175,3.19951033592224,0.0276845786720514,0.0318714454770088,0.0613824874162674,6.01320516580017e-06,0.000745598052162677,0.0121059529483318,0.0162219721823931,4.101722240448,0.0334959663450718,0.0415712408721447,0.100609213113785,0.0153256841003895,0.0287423990666866,0.0421336963772774,0.0282164961099625,2012-01-25 20:07:18
1.3600001335144,33,-8.13357639312744,0.0234675295650959,0.0277310982346535,0.0627039149403572,0.00705708237364888,0.0171881578862667,0.0173510164022446,0.00387780554592609,3.2320339679718,0.0238997284322977,0.027102880179882,0.0546794086694717,0.00997568294405937,0.0278997309505939,0.0346794873476028,0.00368497590534389,4.128005027771,0.0406133942306042,0.052558172494173,0.136698707938194,0.0704150944948196,0.0901800617575645,0.0128851886838675,0.010583040304482,2012-01-25 20:07:19
1.00699996948242,50,-8.13991165161133,0.0313970260322094,0.0373149178922176,0.0690395385026932,0.00727238273248076,0.00893777515739202,0.271215587854385,0.159738585352898,3.23364472389221,0.0246185846626759,0.0304360017180443,0.0810030102729797,0.00867070909589529,0.103715792298317,0.229690343141556,0.0531715601682663,4.14703607559204,0.046287328004837,0.0560487024486065,0.126309886574745,0.00900318194180727,0.131717547774315,0.59214836359024,0.143235936760902,2012-01-25 20:07:20
1.00999999046326,34,-8.10202312469482,0.051069512963295,0.0614028722047806,0.145369365811348,0.0606380589306355,0.0897810310125351,0.0812521204352379,0.043139286339283,3.20100593566895,0.033797275274992,0.0428200624883175,0.111911207437515,0.0142599940299988,0.0327929444611073,0.0808333903551102,0.0883625373244286,4.22897338867188,0.0406517647206783,0.0534523949027061,0.125179216265678,0.00928111001849174,0.0335218869149685,0.022988323122263,0.0177093744277954,2012-01-25 20:07:21
1.14800000190735,23,-8.16467571258545,0.0290676765143871,0.0335782431066036,0.0545760430395603,0.0066203442402184,0.0124020390212536,0.0169826541095972,0.00455001834779978,3.2455747127533,0.0278071202337742,0.0347594618797302,0.0690730065107346,2.89985600829823e-05,0.00102620769757777,0.0077831894159317,0.00398669810965657,4.11452913284302,0.040375892072916,0.046881902962923,0.112136714160442,0.00912311673164368,0.0166818220168352,0.0188312977552414,0.00328993075527251,2012-01-25 20:07:23
1.00200009346008,47,-8.11865425109863,0.0524029955267906,0.0633164420723915,0.136041149497032,0.0873966068029404,0.380109757184982,0.296431094408035,0.192400559782982,3.24328851699829,0.0452908277511597,0.0538540780544281,0.120392240583897,0.27403250336647,0.425602316856384,0.0868181735277176,0.298436522483826,4.1815972328186,0.077582947909832,0.084133006632328,0.151064351201057,0.807261765003204,1.55613994598389,0.237376824021339,0.155845165252686,2012-01-25 20:07:24
1.00300002098083,47,-8.11781978607178,0.0271071903407574,0.0328031145036221,0.0763673186302185,0.00124018604401499,0.00684136105701327,0.049878653138876,0.152029678225517,3.22409248352051,0.0245321206748486,0.0296079721301794,0.0663512647151947,0.000150579784531146,0.0409445613622665,0.0505726486444473,0.0241926554590464,4.19557666778564,0.0440654754638672,0.0508691109716892,0.0963971167802811,0.304868847131729,0.315920650959015,0.0918261110782623,0.144615978002548,2012-01-25 20:07:25
1.16499996185303,23,-8.13184452056885,0.0255455449223518,0.0328393988311291,0.080585815012455,6.84362748870626e-05,4.89492158521898e-05,0.0015377881936729,0.00984200648963451,3.21189093589783,0.0228388998657465,0.0300345327705145,0.0831434205174446,0.000267542694928125,0.000602984160650522,0.00196151412092149,0.00776920979842544,4.21941757202148,0.0297721214592457,0.0400928892195225,0.0810113176703453,0.00912110134959221,0.0152999181300402,0.00926176179200411,0.00735966069623828,2012-01-25 20:07:26
1.00999999046326,44,-8.14486885070801,0.0430763736367226,0.0533235222101212,0.122137308120728,0.023260310292244,0.056114599108696,0.0402310974895954,0.120745152235031,3.26048827171326,0.0361569747328758,0.0465399958193302,0.122360363602638,0.090813584625721,0.0623996406793594,0.0692390948534012,0.114753022789955,4.15935659408569,0.0447579585015774,0.0524194687604904,0.116342328488827,0.0294558592140675,0.135111764073372,0.236328020691872,0.107428081333637,2012-01-25 20:07:27
1.01199984550476,40,-8.10985469818115,0.0281943567097187,0.031965084373951,0.0590852499008179,0.0163943227380514,0.0217646490782499,0.0574360303580761,0.00672724656760693,3.25850462913513,0.0290399603545666,0.0342523008584976,0.0713433250784874,0.00784164294600487,0.0534415356814861,0.144589230418205,0.0229726135730743,4.09623765945435,0.0321658216416836,0.0406237170100212,0.101008377969265,0.00404271436855197,0.0133525552228093,0.0425897762179375,0.0549181662499905,2012-01-25 20:07:28
1.06300020217896,36,-8.14551258087158,0.0253640692681074,0.0327114686369896,0.0822667554020882,0.0201047342270613,0.0260785054415464,0.0208822172135115,0.0355374440550804,3.24763560295105,0.0331428311765194,0.0406644269824028,0.0800875499844551,0.000240393885178491,0.0033387306611985,0.0902603566646576,0.0623957514762878,4.10898637771606,0.0713705867528915,0.0817220583558083,0.137292966246605,0.27305993437767,0.462929725646973,0.159052550792694,0.0626422688364983,2012-01-25 20:07:29
1.01300001144409,39,-8.1231746673584,0.0442558005452156,0.0516221597790718,0.081722654402256,0.0120014203712344,0.061161145567894,0.0769344940781593,0.0218183863908052,3.2369487285614,0.0241007506847382,0.0302370972931385,0.0678922906517982,0.0372655279934406,0.0615165755152702,0.0818538814783096,0.0423706360161304,4.16480875015259,0.0612769983708858,0.0755437836050987,0.179537296295166,0.298284262418747,0.405714869499207,0.193652793765068,0.143048614263535,2012-01-25 20:07:30
1.00799989700317,32,-8.12971305847168,0.0459688268601894,0.0524107739329338,0.117680341005325,0.0721459239721298,0.138580530881882,0.118561796844006,0.0161385126411915,3.25059795379639,0.0404332727193832,0.0468379408121109,0.0928566157817841,0.0348177067935467,0.0570263601839542,0.0302195977419615,0.00809271354228258,4.1727294921875,0.0766143947839737,0.0934208631515503,0.22064970433712,0.243488654494286,0.501314461231232,0.42811644077301,0.111984372138977,2012-01-25 20:07:31
1.00300002098083,43,-8.17851829528809,0.0422390885651112,0.047503624111414,0.107645832002163,0.212784871459007,0.27160057425499,0.0289162676781416,0.00953195337206125,3.24600100517273,0.0278235115110874,0.0346878618001938,0.0784531012177467,0.0055674072355032,0.0469511337578297,0.0168016776442528,0.0128303207457066,4.1073899269104,0.0780395269393921,0.0921385958790779,0.158502727746964,0.204994022846222,0.322859257459641,0.0868133157491684,0.0785001367330551,2012-01-25 20:07:32
1.01399993896484,32,-8.05187225341797,0.0974920839071274,0.107116721570492,0.18693944811821,0.0194515325129032,0.231823340058327,0.448118031024933,0.100762017071247,3.22730708122253,0.0518488250672817,0.0684869885444641,0.136373728513718,0.00671247811987996,0.0187599789351225,0.0426485128700733,0.0107935909181833,4.25853776931763,0.118599161505699,0.136612832546234,0.247618108987808,0.0846052765846252,0.465367943048477,0.920328557491302,0.188070178031921,2012-01-25 20:07:33
1.01099991798401,44,-8.19323348999023,0.065283015370369,0.0772879496216774,0.171838983893394,0.00181700859684497,0.00492899492383003,0.581593930721283,0.337706208229065,3.24510955810547,0.0695785805583,0.0827068164944649,0.175628170371056,0.2018211632967,0.290569007396698,0.590555667877197,0.238555148243904,4.01649188995361,0.0527006722986698,0.0604667030274868,0.131721168756485,0.0710053592920303,0.138463959097862,0.395473837852478,0.301186889410019,2012-01-25 20:07:34
1.14100003242493,42,-8.05476188659668,0.0762851685285568,0.0914910584688187,0.219248786568642,0.839085280895233,1.50179934501648,0.784303665161133,0.119532145559788,3.21518015861511,0.0554375648498535,0.0614876970648766,0.106472223997116,0.331256151199341,0.663702130317688,0.306422382593155,0.0248242057859898,4.27663326263428,0.125751927495003,0.139654532074928,0.224618881940842,2.34172582626343,3.78083229064941,1.46632659435272,0.0601429082453251,2012-01-25 20:07:35
1.31700015068054,44,-8.17874622344971,0.0717669874429703,0.0794224813580513,0.147100225090981,0.557267367839813,0.791019082069397,0.160189405083656,0.0277471784502268,3.2707405090332,0.0621223039925098,0.0748748704791069,0.162032678723335,0.477866739034653,0.53372460603714,0.148131713271141,0.0766059160232544,4.1014084815979,0.0842480361461639,0.0963773280382156,0.16448412835598,0.368094503879547,0.761576890945435,0.604571282863617,0.138778328895569,2012-01-25 20:07:36
1.00799989700317,43,-8.06676769256592,0.083682969212532,0.0927991792559624,0.182221487164497,0.638345539569855,1.20074963569641,0.212540283799171,0.0730033740401268,3.22479128837585,0.0407858900725842,0.0499116405844688,0.116083435714245,0.000631937640719116,0.0161606539040804,0.0978041738271713,0.0164218712598085,4.2848219871521,0.092932440340519,0.11206066608429,0.215061902999878,0.926787674427032,2.26611828804016,0.83620411157608,0.270308524370193,2012-01-25 20:07:37
1.02300000190735,48,-8.13992786407471,0.0711153149604797,0.0861452296376228,0.206348642706871,1.0448796749115,1.16703021526337,0.591381371021271,0.358592391014099,3.26438856124878,0.0501569323241711,0.0636685192584991,0.126260712742805,0.292095392942429,0.530880689620972,0.277001589536667,0.135816097259521,4.05566263198853,0.0796279981732368,0.102010101079941,0.211455762386322,1.79325222969055,3.15356779098511,1.02288830280304,0.20511132478714,2012-01-25 20:07:38
1.00800013542175,34,-8.10779190063477,0.0714971497654915,0.0905086994171143,0.193825885653496,0.211312234401703,0.292302250862122,0.063225694000721,0.0133496392518282,3.29445743560791,0.0334240831434727,0.0424767881631851,0.107296243309975,0.0397876612842083,0.0670833215117455,0.103670097887516,0.0501873157918453,4.14590549468994,0.0951822027564049,0.107585906982422,0.198440670967102,0.537003636360168,0.783902645111084,0.231737419962883,0.0309428852051497,2012-01-25 20:07:39
1.06199979782104,32,-8.19774627685547,0.0183491297066212,0.0225948598235846,0.0496460795402527,0.000332104362314567,0.000790500722359866,0.00216501043178141,0.00873855780810118,3.28951811790466,0.0426359623670578,0.0514812730252743,0.112163513898849,0.00104396708775312,0.00912177376449108,0.0657652020454407,0.0178770460188389,4.03329133987427,0.0669419541954994,0.0794140249490738,0.173761516809464,0.0538433045148849,0.135934844613075,0.373752266168594,0.124499879777431,2012-01-25 20:07:40
1.0310001373291,49,-8.13831901550293,0.0260421633720398,0.0331900268793106,0.0894605666399002,0.00808321312069893,0.0153976874426007,0.126739144325256,0.157724246382713,3.23059058189392,0.0478038527071476,0.0564915053546429,0.102269433438778,0.000363596365787089,0.0178371332585812,0.59384298324585,0.298867613077164,4.08717155456543,0.0521006658673286,0.0638398751616478,0.154704988002777,0.110418640077114,0.867718636989594,0.343756318092346,0.0641099587082863,2012-01-25 20:07:42
1.01600003242493,35,-8.19976043701172,0.0645236596465111,0.078001506626606,0.155505210161209,0.0804024338722229,0.0720038190484047,0.0680857822299004,0.0435867868363857,3.29755592346191,0.0540206432342529,0.0661948546767235,0.154384762048721,0.0215205922722816,0.0148487770929933,0.0776505023241043,0.0232994612306356,3.96132612228394,0.0616897866129875,0.0743142440915108,0.185765907168388,0.181647598743439,0.224627181887627,0.0892414674162865,0.0797074511647224,2012-01-25 20:07:43
1.01300001144409,24,-8.18977832794189,0.0455599837005138,0.0511382855474949,0.096840500831604,0.00419179769232869,0.00647851033136249,0.00924101285636425,0.0418028980493546,3.25539898872375,0.0176723841577768,0.0245948191732168,0.0788618922233582,0.00223869225010276,0.00342559651471674,0.00176351913250983,0.00530853495001793,3.97455334663391,0.0406907387077808,0.0458645112812519,0.0813133493065834,0.00242660008370876,0.00348055316135287,0.00719044450670481,0.0285844709724188,2012-01-25 20:07:44
1.15399980545044,54,-8.21107196807861,0.0286800302565098,0.0348320677876472,0.0755473971366882,0.0130171990022063,0.145110487937927,0.100346602499485,0.0577008798718452,3.3091995716095,0.0318817012012005,0.0396181307733059,0.0937078893184662,0.00255292560905218,0.0684195458889008,0.311461418867111,0.0210505966097116,3.90232014656067,0.0586381033062935,0.0775134712457657,0.175793200731277,0.523710012435913,1.21081364154816,0.71039742231369,0.0722357332706451,2012-01-25 20:07:45
1.01200008392334,46,-8.16808700561523,0.0291047524660826,0.0353480353951454,0.0776003152132034,0.0542282499372959,0.0478667318820953,0.0790535137057304,0.0319901630282402,3.27286267280579,0.0278257243335247,0.0322950445115566,0.0515915527939796,0.0344176031649113,0.106190241873264,0.0941850990056992,0.0476300977170467,4.06443023681641,0.0445934571325779,0.0573904365301132,0.122156865894794,0.227836132049561,0.401159405708313,0.244906380772591,0.00765124382451177,2012-01-25 20:07:46
1.48099994659424,30,-8.21405029296875,0.0377882272005081,0.0449110940098763,0.0921823531389236,0.00195481278933585,0.00361534976400435,0.0141362883150578,0.00661259843036532,3.29307293891907,0.037526797503233,0.044610396027565,0.0961051732301712,0.0003554834111128,0.00249392120167613,0.0145211387425661,0.0125779779627919,3.91808342933655,0.0457207448780537,0.0559771507978439,0.132716670632362,0.0174346677958965,0.0260158590972424,0.0226272642612457,0.0125159854069352,2012-01-25 20:07:47
1.0220000743866,47,-8.16017627716064,0.0434795208275318,0.0547034852206707,0.106829762458801,0.305327296257019,0.368975400924683,0.0929169580340385,0.313903987407684,3.25434708595276,0.0329137779772282,0.0388586446642876,0.0769925862550735,0.0205619931221008,0.0198433231562376,0.258674085140228,0.141832590103149,4.0198917388916,0.0664046481251717,0.084210216999054,0.175684973597527,0.540509939193726,0.804380714893341,0.289137035608292,0.0605529323220253,2012-01-25 20:07:48
1.39199995994568,38,-8.20403671264648,0.0344182923436165,0.0431369580328465,0.103743851184845,0.0801750421524048,0.0999201610684395,0.0296372622251511,0.0213821288198233,3.2547755241394,0.033712062984705,0.0422573015093803,0.0970341265201569,0.0138051863759756,0.0604890137910843,0.112439922988415,0.0793460831046104,3.94020867347717,0.0707382708787918,0.0886078178882599,0.164648473262787,0.216883048415184,0.457890897989273,0.462849050760269,0.15397734940052,2012-01-25 20:07:50
1.04999995231628,35,-8.13615703582764,0.035224013030529,0.041137583553791,0.09470484405756,0.000249040691414848,0.0234927739948034,0.0919727981090546,0.0641878247261047,3.2779426574707,0.0271064527332783,0.0373862311244011,0.100588157773018,0.00396223925054073,0.0155202839523554,0.0712162703275681,0.0337923169136047,4.12047386169434,0.0767239928245544,0.0920985490083694,0.178200915455818,0.17463506758213,0.328057289123535,0.255690097808838,0.161857217550278,2012-01-25 20:07:51
1.00400018692017,45,-8.18245124816895,0.0373959615826607,0.0449771396815777,0.0919644236564636,0.15948574244976,0.159409120678902,0.02115174010396,0.0155157633125782,3.30593061447144,0.0339479669928551,0.0413082614541054,0.0893495082855225,0.147786676883698,0.133046805858612,0.0181758776307106,0.0179423037916422,3.94815707206726,0.0774943009018898,0.0937297642230988,0.202016919851303,0.493431329727173,0.896997034549713,0.294192969799042,0.208185717463493,2012-01-25 20:07:52
1.0019998550415,44,-8.17963790893555,0.0238276869058609,0.0294063873589039,0.0775615498423576,0.000660722085740417,0.0238935966044664,0.0674981474876404,0.0399096012115479,3.30840706825256,0.0205453298985958,0.0262050479650497,0.0552737824618816,0.0644089132547379,0.129862144589424,0.0524637959897518,0.0244784243404865,3.98484301567078,0.0624870471656322,0.0686447992920876,0.104530118405819,0.40287920832634,0.517973601818085,0.466745048761368,0.0715463384985924,2012-01-25 20:07:53
1.35899996757507,27,-8.19109535217285,0.0315049849450588,0.0360657200217247,0.0661039724946022,0.0142572736367583,0.0268829967826605,0.0280893389135599,0.0106529360637069,3.314284324646,0.0317471884191036,0.0413899309933186,0.0977033153176308,0.0116180703043938,0.0228519272059202,0.0348423607647419,0.0164716001600027,3.85365009307861,0.0416479930281639,0.0507454164326191,0.097703255712986,0.00158590765204281,0.00837536808103323,0.0460174418985844,0.0536241866648197,2012-01-25 20:07:54
1.01200008392334,53,-8.2094612121582,0.0229787323623896,0.0296372920274734,0.0771578475832939,0.00017524475697428,0.010420716367662,0.184645473957062,0.133912593126297,3.36331081390381,0.0288718026131392,0.0372312478721142,0.108243249356747,0.141776651144028,0.249977931380272,0.0938304215669632,0.0824813172221184,3.84087610244751,0.0408884361386299,0.0484541542828083,0.124155789613724,0.10379721224308,0.34600567817688,0.125379145145416,0.242513388395309,2012-01-25 20:07:55
1.01200008392334,50,-8.18266868591309,0.0323226638138294,0.0405288115143776,0.0843370407819748,0.072037547826767,0.124777808785439,0.176309138536453,0.212857037782669,3.32916140556335,0.0323540717363358,0.0386953912675381,0.0929670929908752,0.0562307052314281,0.290867775678635,0.139116898179054,0.0578076429665089,3.93678140640259,0.0360884331166744,0.0480088926851749,0.151414662599564,0.162032142281532,0.2603380382061,0.169681489467621,0.106839902698994,2012-01-25 20:07:56
1.13099980354309,35,-8.21376991271973,0.0385060459375381,0.0444963537156582,0.102269172668457,0.0217179730534554,0.0561708882451057,0.125704854726791,0.0785428136587143,3.32501459121704,0.0313332453370094,0.0381573140621185,0.0778927356004715,0.00523304473608732,0.0310506839305162,0.0777615159749985,0.0112079987302423,3.92322015762329,0.0413880050182343,0.046939916908741,0.0876993015408516,0.0439450480043888,0.0575794689357281,0.108720019459724,0.0798124372959137,2012-01-25 20:07:57
1.01400017738342,35,-8.21741199493408,0.0218387711793184,0.0271306801587343,0.0680860504508018,0.0185845792293549,0.036284826695919,0.0277095027267933,0.00678377272561193,3.33622217178345,0.0266740415245295,0.033873975276947,0.0764917358756065,0.003142163855955,0.00513003626838326,0.00960853230208158,0.00334305432625115,3.87726902961731,0.0268662013113499,0.033897191286087,0.0846172571182251,0.00286208651959896,0.00403047911822796,0.00920665636658669,0.0513272508978844,2012-01-25 20:07:58
1.01699995994568,43,-8.20930671691895,0.0213953256607056,0.0255733840167522,0.0501734726130962,0.00262012868188322,0.0410646237432957,0.0436773635447025,0.024177672341466,3.33699774742126,0.0244396906346083,0.0310347899794579,0.0757163390517235,0.0080949580296874,0.00428556930273771,0.0488421097397804,0.0188466478139162,3.83827710151672,0.0209393221884966,0.0263428948819637,0.082330234348774,0.00212050136178732,0.00338432216085494,0.0273199994117022,0.093928687274456,2012-01-25 20:07:59
