"diffSecs","latitude","longitude","altitude","time"
2569.67300009727,42.341444063299,-71.2630684640089,-2.18138551712036,2011-10-31 08:42:50
333.942999839783,42.3174541601133,-71.2310657670954,16.4028511047363,2011-10-31 08:48:24
91.058000087738,42.31720304347,-71.2310532894388,22.1614551544189,2011-10-31 08:49:55
