"diffSecs","latitude","longitude","altitude","time"
0.763000011444092,42.86899757,-71.52191848,38.2000007629395,2012-01-25 18:18:00
0.819000005722046,42.86909337,-71.52208312,38.5999984741211,2012-01-25 18:18:01
0.953000068664551,42.86916728,-71.52221687,38.2000007629395,2012-01-25 18:18:02
1.12800002098083,42.86924408,-71.52237316,38.2999992370605,2012-01-25 18:18:03
0.852999925613403,42.86932086,-71.52252944,38.2999992370605,2012-01-25 18:18:04
1.50300002098083,42.86934952,-71.52265171,38.5,2012-01-25 18:18:06
0.305999994277954,42.86938991,-71.52283939,38.7999992370605,2012-01-25 18:18:06
1.55900001525879,42.86946219,-71.52295771,38.5,2012-01-25 18:18:07
0.654000043869019,42.86953066,-71.52312667,38.4000015258789,2012-01-25 18:18:08
1.39800000190735,42.86957593,-71.52331947,38.5,2012-01-25 18:18:09
1.30599999427795,42.86962171,-71.52351873,37.2999992370605,2012-01-25 18:18:11
0.319000005722046,42.86968966,-71.52369103,37.5999984741211,2012-01-25 18:18:11
0.773000001907349,42.86976938,-71.52384888,38.0999984741211,2012-01-25 18:18:12
1.08299994468689,42.86982665,-71.52403505,38,2012-01-25 18:18:13
1.23200011253357,42.86989792,-71.52422749,36.2999992370605,2012-01-25 18:18:14
0.832000017166138,42.86996864,-71.52438207,36.4000015258789,2012-01-25 18:18:15
0.934000015258789,42.87003974,-71.52451347,36.7000007629395,2012-01-25 18:18:16
0.96999979019165,42.8700887,-71.52466502,36.4000015258789,2012-01-25 18:18:17
1.08700013160706,42.87011333,-71.524853,36.2999992370605,2012-01-25 18:18:18
1.0090000629425,42.87012714,-71.52501804,35,2012-01-25 18:18:19
1.51999998092651,42.87017174,-71.52517601,35,2012-01-25 18:18:21
0.441999912261963,42.87022543,-71.52529648,34.7000007629395,2012-01-25 18:18:21
0.888000011444092,42.87028281,-71.5253738,34.4000015258789,2012-01-25 18:18:22
1.52600002288818,42.87028913,-71.52545628,35.5999984741211,2012-01-25 18:18:23
0.79800009727478,42.87032166,-71.52557977,35.5999984741211,2012-01-25 18:18:24
0.783999919891357,42.87030681,-71.52572926,34.0999984741211,2012-01-25 18:18:25
1.55099987983704,42.87036116,-71.52589656,36.0999984741211,2012-01-25 18:18:26
0.358000040054321,42.87039111,-71.52603929,36.2999992370605,2012-01-25 18:18:27
0.982000112533569,42.87039378,-71.52620563,35.7999992370605,2012-01-25 18:18:28
1.07999992370605,42.87040606,-71.52636173,35,2012-01-25 18:18:29
1.37899994850159,42.87042019,-71.52651331,33.5999984741211,2012-01-25 18:18:30
0.815999984741211,42.87044831,-71.5266717,33.5999984741211,2012-01-25 18:18:31
0.858999967575073,42.87046036,-71.52684714,33.2999992370605,2012-01-25 18:18:32
1.04400014877319,42.87049726,-71.52702109,33.7000007629395,2012-01-25 18:18:33
1.27699995040894,42.87052019,-71.5272027,33.7000007629395,2012-01-25 18:18:34
0.644000053405762,42.87052913,-71.52739812,33.7000007629395,2012-01-25 18:18:35
1.28299999237061,42.87051934,-71.52757947,32.7000007629395,2012-01-25 18:18:36
1.22900009155273,42.87053686,-71.52776135,32.7000007629395,2012-01-25 18:18:37
0.380999803543091,42.87052141,-71.52796182,32.7000007629395,2012-01-25 18:18:38
1.37400007247925,42.87050221,-71.52819007,32.7000007629395,2012-01-25 18:18:39
1.05699992179871,42.87053495,-71.52839921,32.4000015258789,2012-01-25 18:18:40
0.703000068664551,42.87055018,-71.5285985,31.7999992370605,2012-01-25 18:18:41
1.2039999961853,42.87055969,-71.52882649,32.2000007629395,2012-01-25 18:18:42
0.894999980926514,42.87057109,-71.52903362,31.5,2012-01-25 18:18:43
1.00699996948242,42.87057435,-71.52924249,31.3999996185303,2012-01-25 18:18:44
1.00100016593933,42.87059138,-71.52946988,31.1000003814697,2012-01-25 18:18:45
1.08899998664856,42.87059403,-71.52968385,31,2012-01-25 18:18:46
0.937999963760376,42.87059102,-71.52992128,30.7999992370605,2012-01-25 18:18:47
1.27099990844727,42.8705952,-71.53014237,30.7999992370605,2012-01-25 18:18:48
0.542999982833862,42.87059721,-71.53037125,31,2012-01-25 18:18:49
1.35000014305115,42.87059666,-71.53060593,30.6000003814697,2012-01-25 18:18:50
1.02300000190735,42.87061521,-71.53081245,30.5,2012-01-25 18:18:51
1.73199987411499,42.87062431,-71.53128058,29.6000003814697,2012-01-25 18:18:53
1.01699995994568,42.87062514,-71.53151885,29.3999996185303,2012-01-25 18:18:54
1.00400018692017,42.87061988,-71.53176678,29.2000007629395,2012-01-25 18:18:55
1.67499995231628,42.87063755,-71.53197055,29,2012-01-25 18:18:57
0.358000040054321,42.87059546,-71.53216503,29.8999996185303,2012-01-25 18:18:57
1.24599981307983,42.87058517,-71.53238556,29.8999996185303,2012-01-25 18:18:58
1.00400018692017,42.87056848,-71.53258981,29.3999996185303,2012-01-25 18:18:59
0.638000011444092,42.87056674,-71.53278961,29,2012-01-25 18:19:00
1.50299978256226,42.87054111,-71.53299718,28.7999992370605,2012-01-25 18:19:01
0.600000143051147,42.87051444,-71.53320135,29.2000007629395,2012-01-25 18:19:02
1.1949999332428,42.87048716,-71.53340797,29.2999992370605,2012-01-25 18:19:03
1.2720000743866,42.87043948,-71.53360759,28.7000007629395,2012-01-25 18:19:05
0.430000066757202,42.8704078,-71.53382578,29.2000007629395,2012-01-25 18:19:05
1.26099991798401,42.87037977,-71.5340408,29.5,2012-01-25 18:19:06
0.921000003814697,42.87035645,-71.53423064,29.3999996185303,2012-01-25 18:19:07
1.03299999237061,42.8703344,-71.53436748,29.2000007629395,2012-01-25 18:19:08
1.08100008964539,42.87031238,-71.53449895,29.2999992370605,2012-01-25 18:19:09
1.13299989700317,42.87029596,-71.5346317,29.6000003814697,2012-01-25 18:19:10
0.644000053405762,42.87026834,-71.53476461,30.7999992370605,2012-01-25 18:19:11
1.5019998550415,42.87026022,-71.53487364,32,2012-01-25 18:19:13
0.535000085830688,42.87026346,-71.53501768,31,2012-01-25 18:19:13
1.22300004959106,42.87025519,-71.53512784,31,2012-01-25 18:19:14
1.00499987602234,42.87026241,-71.53517469,30.7999992370605,2012-01-25 18:19:15
0.654999971389771,42.87027419,-71.53513809,31,2012-01-25 18:19:16
1.14800000190735,42.87027948,-71.53514894,30.7000007629395,2012-01-25 18:19:17
1.03299999237061,42.87028889,-71.53514122,31.1000003814697,2012-01-25 18:19:18
1.04900002479553,42.87029294,-71.53515989,31,2012-01-25 18:19:19
1.03500008583069,42.87025489,-71.5351443,31.7999992370605,2012-01-25 18:19:20
0.865999937057495,42.87023185,-71.53509724,33,2012-01-25 18:19:21
0.945000171661377,42.87022676,-71.53507515,33.5,2012-01-25 18:19:22
1.53499984741211,42.87023469,-71.5350581,33.5999984741211,2012-01-25 18:19:24
0.521000146865845,42.87021755,-71.53503564,34.2000007629395,2012-01-25 18:19:24
1.2189998626709,42.87021193,-71.53502387,34.4000015258789,2012-01-25 18:19:25
0.89300012588501,42.87021081,-71.53502305,34.2999992370605,2012-01-25 18:19:26
0.898999929428101,42.87020897,-71.53501691,34.5,2012-01-25 18:19:27
1.24000000953674,42.87020828,-71.53501727,34.4000015258789,2012-01-25 18:19:28
0.884000062942505,42.87021811,-71.53501505,34,2012-01-25 18:19:29
1.02099990844727,42.87022751,-71.53502542,35.0999984741211,2012-01-25 18:19:30
0.884999990463257,42.87022721,-71.53504718,35,2012-01-25 18:19:31
1.08500003814697,42.87025881,-71.53511542,35.9000015258789,2012-01-25 18:19:32
0.932999849319458,42.87026611,-71.53516161,35.9000015258789,2012-01-25 18:19:33
1.38700008392334,42.87033454,-71.53526241,37.2000007629395,2012-01-25 18:19:35
0.763999938964844,42.87042067,-71.53535515,37,2012-01-25 18:19:35
1.14900016784668,42.87046691,-71.53542529,36.9000015258789,2012-01-25 18:19:36
0.511999845504761,42.87053935,-71.5355345,36.2999992370605,2012-01-25 18:19:37
1.25800013542175,42.87062774,-71.53564122,36.5,2012-01-25 18:19:38
1.20000004768372,42.87069497,-71.53576638,36.7000007629395,2012-01-25 18:19:39
0.748999834060669,42.87078164,-71.53587695,37.0999984741211,2012-01-25 18:19:40
1.36800003051758,42.87088982,-71.53598024,37.0999984741211,2012-01-25 18:19:42
0.427999973297119,42.87102022,-71.53612396,38.7999992370605,2012-01-25 18:19:42
1.17300009727478,42.87112259,-71.53626756,39.2000007629395,2012-01-25 18:19:43
1.17199993133545,42.87123118,-71.53641072,39.2999992370605,2012-01-25 18:19:44
1.34299993515015,42.87133432,-71.5365425,39,2012-01-25 18:19:46
0.445000171661377,42.871444,-71.53669061,38.5999984741211,2012-01-25 18:19:46
1.00399994850159,42.87156207,-71.53683392,38.2999992370605,2012-01-25 18:19:47
1.1949999332428,42.87168481,-71.53696004,37.9000015258789,2012-01-25 18:19:48
0.883000135421753,42.87180351,-71.53706849,37.5,2012-01-25 18:19:49
1.26199984550476,42.87193237,-71.53719219,37,2012-01-25 18:19:50
0.569000005722046,42.8720598,-71.53728419,36.5,2012-01-25 18:19:51
1.24500012397766,42.8722245,-71.53733218,38,2012-01-25 18:19:52
0.760999917984009,42.87235325,-71.53741071,38.4000015258789,2012-01-25 18:19:53
1.10599994659424,42.87249551,-71.53747404,37.5,2012-01-25 18:19:54
1.18799996376038,42.87263264,-71.53752308,37.4000015258789,2012-01-25 18:19:55
0.844000101089478,42.87277265,-71.53757182,37.7000007629395,2012-01-25 18:19:56
1.51900005340576,42.87292482,-71.53765161,38.2000007629395,2012-01-25 18:19:58
0.300999879837036,42.87307766,-71.53772788,38.4000015258789,2012-01-25 18:19:58
1.15300011634827,42.87322895,-71.53779593,38.7000007629395,2012-01-25 18:19:59
