"diffSecs","latitude","longitude","altitude","time"
40.2980000972748,42.31768652,-71.23003659,15.8000001907349,2012-02-02 11:00:40
360.148999929428,42.3176721,-71.2299785,15.6999998092651,2012-02-02 11:06:40
30.0150001049042,42.31767767,-71.22998765,15.6999998092651,2012-02-02 11:07:10
