"diffSecs","level","azimuth.mean","azimuth.absolute.deviation","azimuth.standard.deviation","azimuth.max.deviation","pitch.mean","pitch.absolute.deviation","pitch.standard.deviation","pitch.max.deviation","roll.mean","roll.absolute.deviation","roll.standard.deviation","roll.max.deviation","time"
1.01199984550476,33,-10.7787885665894,1.39504134654999,1.67508614063263,3.62121248245239,-41.1242446899414,0.591919183731079,0.708404064178467,1.5242406129837,-15.5727272033691,4.28374671936035,5.05144882202148,9.72727394104004,2012-01-13 14:19:33
1.00600004196167,26,-11.307692527771,2.85443782806396,2.99125933647156,3.89230728149414,-40.0499992370605,1.10384654998779,1.23171257972717,2.14999938011169,-16.0192317962646,4.03757429122925,4.51757431030273,7.18076944351196,2012-01-13 14:19:34
1.01500010490417,47,-10.7148933410645,2.14096879959106,2.45330691337585,4.21489381790161,-42.7404251098633,1.94576716423035,2.43220043182373,5.6404242515564,-15.8063831329346,3.51453161239624,4.4398775100708,10.5936164855957,2012-01-13 14:19:35
1.01699995994568,44,-14.0431823730469,3.70557856559753,4.15945816040039,6.75681924819946,-45.0250015258789,1.15795505046844,1.31756103038788,2.72500157356262,-11.4159097671509,7.4891529083252,8.20556735992432,13.1840906143188,2012-01-13 14:19:36
1.02999997138977,38,-13.9631576538086,2.45623278617859,3.09680843353271,6.63684225082397,-46.4684219360352,0.13130196928978,0.162392184138298,0.368419736623764,-9.07105255126953,3.8980610370636,4.32385730743408,6.12894725799561,2012-01-13 14:19:37
1.00999999046326,43,-15.8930234909058,3.04402375221252,3.41183948516846,6.19302368164062,-45.8953514099121,0.302217572927475,0.362775802612305,0.804651200771332,-0.325581401586533,1.708815574646,2.17459893226624,6.17441844940186,2012-01-13 14:19:38
