"diffSecs","level","azimuth.mean","azimuth.absolute.deviation","azimuth.standard.deviation","azimuth.max.deviation","pitch.mean","pitch.absolute.deviation","pitch.standard.deviation","pitch.max.deviation","roll.mean","roll.absolute.deviation","roll.standard.deviation","roll.max.deviation","time"
1.01500010490417,24,-7.39583349227905,0.879166722297668,1.00061619281769,1.69583320617676,8.66666698455811,2.48333334922791,2.7517671585083,4.03333282470703,13.3625001907349,3.32083344459534,3.73126578330994,6.0625,2012-01-18 12:05:16
1.01799988746643,43,-12.3418607711792,4.43007040023804,5.12005805969238,9.85813999176025,8.45348834991455,3.64726877212524,4.05911827087402,5.54651165008545,7.19069766998291,4.99426698684692,5.6011962890625,8.40930271148682,2012-01-18 12:05:17
1.0090000629425,40,-19.1300010681152,9.03750038146973,10.1112613677979,17.4700012207031,8.77000045776367,1.73000001907349,2.04856061935425,4.26999998092651,8.85500049591064,8.05175018310547,8.95092010498047,14.9549999237061,2012-01-18 12:05:18
1.00099992752075,41,5.6365852355957,4.73599052429199,5.85927486419678,11.8365859985352,8.32682991027832,3.48637723922729,4.03176593780518,7.17317056655884,23.0487804412842,1.8650803565979,2.18778443336487,5.24877977371216,2012-01-18 12:05:19
1.00800013542175,49,11.6755104064941,3.25755929946899,3.90402889251709,7.27551031112671,9.14285755157471,1.1172012090683,1.47924411296844,5.05714273452759,20.7367343902588,2.63965010643005,3.37346744537354,8.23673534393311,2012-01-18 12:05:20
1,44,9.57954597473145,3.4303719997406,3.72757411003113,5.57954549789429,7.90909099578857,1.77231407165527,1.86606276035309,2.59090900421143,17.4090919494629,2.9541323184967,3.28016209602356,4.80909109115601,2012-01-18 12:05:21
1.0019998550415,40,-5.0774998664856,9.86250019073486,10.2450838088989,14.3224992752075,8.78999996185303,1.79949998855591,2.15357851982117,4.21000003814697,8.85249996185303,5.12774991989136,6.09733486175537,13.5525007247925,2012-01-18 12:05:22
1.06599998474121,42,-5.86428594589233,1.65272116661072,1.96817803382874,5.03571462631226,11.7285718917847,2.42653059959412,2.73062753677368,4.62857151031494,8.78095245361328,5.4514741897583,5.97527599334717,8.91904830932617,2012-01-18 12:05:23
1.00600004196167,50,-2.12199997901917,5.51575994491577,5.92146253585815,9.17800045013428,13.7320003509521,3.07840013504028,3.58114171028137,7.9680004119873,15.952000617981,3.66176009178162,4.6532244682312,12.5520000457764,2012-01-18 12:05:24
1.00200009346008,41,20.0390243530273,13.2700777053833,13.7808790206909,21.4609756469727,23.3439025878906,0.923616766929626,1.01861894130707,1.75609767436981,15.1926832199097,4.20297431945801,4.73252296447754,8.29268264770508,2012-01-18 12:05:25
1.01600003242493,38,42.6868438720703,1.44819939136505,2.00567245483398,5.186842918396,28.4105262756348,1.98365640640259,2.12079787254333,3.48947262763977,8.66578960418701,2.81301951408386,3.41985511779785,7.63421154022217,2012-01-18 12:05:26
1.00899982452393,45,39.0755577087402,2.43397545814514,2.7258563041687,5.42444372177124,30.7555561065674,0.392592549324036,0.470723122358322,1.05555510520935,-3.00444459915161,1.86982715129852,2.31708216667175,5.80444431304932,2012-01-18 12:05:27
1.00699996948242,18,37.4500007629395,0.344444423913956,0.433653831481934,0.750000238418579,31.1888885498047,0.186419948935509,0.218298822641373,0.411111205816269,-4.66111135482788,0.743209898471832,0.834758043289185,1.46111106872559,2012-01-18 12:05:28
1.02000021934509,48,38.810417175293,0.40711835026741,0.488722890615463,1.08958399295807,31.0145835876465,0.147396102547646,0.182562455534935,0.414583295583725,-2.89166665077209,0.210069462656975,0.242240712046623,0.491666615009308,2012-01-18 12:05:29
1.00399994850159,48,38.2958335876465,0.220833137631416,0.256546288728714,0.50416499376297,30.8374996185303,0.0999994277954102,0.125207871198654,0.337500333786011,-2.05416679382324,0.423958331346512,0.485179662704468,0.95416671037674,2012-01-18 12:05:30
1.01300001144409,35,37.9885711669922,0.283591955900192,0.353570729494095,0.788571298122406,30.9057140350342,0.0928979068994522,0.124080076813698,0.305714100599289,-0.805714309215546,0.223346948623657,0.268267303705215,0.594285666942596,2012-01-18 12:05:31
1.00999999046326,43,37.890697479248,0.367225587368011,0.411358445882797,0.809302151203156,30.9627914428711,0.178150206804276,0.208006322383881,0.462791264057159,-0.893023252487183,0.244672819972038,0.287244617938995,0.693023264408112,2012-01-18 12:05:32
1.27300000190735,46,37.1956520080566,0.269754201173782,0.310649245977402,0.595650792121887,30.8956527709961,0.0930052176117897,0.128463163971901,0.495652735233307,-0.367391318082809,0.155860111117363,0.202220663428307,0.5326087474823,2012-01-18 12:05:33
1.02699995040894,51,36.8725509643555,0.198385417461395,0.28838837146759,0.927449643611908,30.9784317016602,0.0898116230964661,0.110814645886421,0.278430789709091,-0.345098048448563,0.145790085196495,0.176361620426178,0.354901939630508,2012-01-18 12:05:34
1.13499999046326,40,37.6550025939941,0.412750154733658,0.45384481549263,0.75499951839447,31.1350002288818,0.165250271558762,0.191768243908882,0.434999614953995,0.0625,0.15625,0.185320675373077,0.362500011920929,2012-01-18 12:05:35
1.02099990844727,43,38.430233001709,0.55467814207077,0.644668698310852,1.36976587772369,30.9674415588379,0.127961128950119,0.153594091534615,0.332558959722519,0.788372099399567,0.29486209154129,0.379846543073654,1.01162791252136,2012-01-18 12:05:36
1.00500011444092,48,39.8791656494141,0.355902761220932,0.401537746191025,0.779165208339691,31.0541667938232,0.100000344216824,0.120689943432808,0.254165768623352,0.554166674613953,0.577604174613953,0.643220543861389,1.14583337306976,2012-01-18 12:05:37
1.00499987602234,39,39.230770111084,0.27061128616333,0.343551695346832,0.869232356548309,30.9794864654541,0.110322244465351,0.141746506094933,0.320513755083084,0.0589743591845036,0.173307031393051,0.208434894680977,0.458974361419678,2012-01-18 12:05:38
1.00300002098083,48,38.46875,0.192187488079071,0.22281913459301,0.468750715255737,30.810417175293,0.104252956807613,0.127866148948669,0.289583295583725,-0.118750005960464,0.164583340287209,0.182181522250175,0.318749994039536,2012-01-18 12:05:39
1.24699997901917,40,38.7325019836426,0.334124684333801,0.373756021261215,0.667501091957092,30.9925003051758,0.123625084757805,0.145580783486366,0.292499542236328,0.067500002682209,0.085875004529953,0.103410594165325,0.232500016689301,2012-01-18 12:05:40
1.03400015830994,45,38.0311126708984,0.171753406524658,0.234589338302612,0.768887341022491,31.0155563354492,0.106864422559738,0.128158986568451,0.284445315599442,0.946666717529297,0.578962981700897,0.652720808982849,1.34666669368744,2012-01-18 12:05:41
1.01900005340576,39,38.033332824707,0.374359101057053,0.422649383544922,0.76666533946991,31.297435760498,0.152531087398529,0.214221283793449,0.697435796260834,2.51538467407227,0.413017749786377,0.461623936891556,1.08461546897888,2012-01-18 12:05:42
1.02099990844727,36,39.8333358764648,1.25555562973022,1.3751767873764,2.46666502952576,30.7777786254883,0.164814919233322,0.20153734087944,0.377778589725494,2.63055562973022,0.396759241819382,0.489795565605164,0.869444370269775,2012-01-18 12:05:43
1.01500010490417,52,42.0788459777832,2.60251474380493,2.92300796508789,4.82115459442139,30.0326919555664,0.859763264656067,0.997250199317932,2.03269267082214,4.9153847694397,0.958284020423889,1.10216295719147,2.5846152305603,2012-01-18 12:05:45
1.00699996948242,36,33.8500022888184,3.07222247123718,3.48444962501526,4.85000038146973,28.9916667938232,1.42222225666046,1.53774285316467,2.60833358764648,8.82499980926514,1.65694451332092,1.89990866184235,3.42499995231628,2012-01-18 12:05:46
1.01899981498718,37,29.7918930053711,0.770051121711731,0.89423930644989,1.9081084728241,30.4243240356445,0.350620746612549,0.420684963464737,0.824324369430542,6.60810804367065,1.58802056312561,1.93842780590057,4.69189214706421,2012-01-18 12:05:47
1.01300001144409,48,27.6416664123535,0.414930522441864,0.475584357976913,0.958333373069763,29.627082824707,0.183506995439529,0.226144731044769,0.472916632890701,11.3374996185303,0.258333384990692,0.312666654586792,0.637500286102295,2012-01-18 12:05:48
1.00800013542175,31,26.9483871459961,0.382101893424988,0.416491448879242,0.651612997055054,31.0161304473877,0.838085353374481,0.929827213287354,1.58387279510498,8.07096767425537,1.48345482349396,1.76839530467987,3.47096800804138,2012-01-18 12:05:49
1.0019998550415,43,29.55348777771,2.20573306083679,2.37274742126465,3.2534875869751,31.9790706634521,0.844889163970947,0.959786415100098,1.77906954288483,1.94651162624359,1.55889678001404,1.70244002342224,2.45348834991455,2012-01-18 12:05:50
1.01300001144409,49,17.9346942901611,7.11045408248901,7.98556232452393,13.7653064727783,24.1755104064941,7.03515195846558,7.58802843093872,12.1755104064941,20.7755107879639,11.1678466796875,12.1707162857056,18.2755107879639,2012-01-18 12:05:51
1.00999999046326,43,7.80000019073486,0.525581419467926,0.741149365901947,1.80000019073486,30.8860473632812,1.82671713829041,2.49134135246277,8.28604602813721,16.751163482666,3.51811790466309,4.46991872787476,11.9488372802734,2012-01-18 12:05:52
1,37,6.54324340820312,4.20964193344116,4.44032764434814,5.84324359893799,27.5162162780762,4.72490882873535,5.64338970184326,13.4162158966064,21.097297668457,5.78056955337524,6.63074254989624,13.2027015686035,2012-01-18 12:05:53
1.17900013923645,44,9.11818218231201,3.60165309906006,4.06125116348267,7.38181781768799,10.2681818008423,0.521487593650818,0.805315434932709,3.031818151474,35.7909088134766,0.881818056106567,1.02198970317841,2.2909095287323,2012-01-18 12:05:54
1.00099992752075,42,19.0785713195801,4.36904764175415,4.93908309936523,8.7214298248291,20.283332824707,1.47698438167572,1.67728781700134,3.28333377838135,20.1000003814697,0.852380931377411,1.09718251228333,2.99999976158142,2012-01-18 12:05:55
1.00600004196167,43,5.49534893035889,2.47387790679932,2.85004734992981,5.10465145111084,22.7697677612305,0.231909111142159,0.303878009319305,0.769767761230469,19.8465118408203,0.610059440135956,0.748750567436218,1.953488945961,2012-01-18 12:05:56
1.00399994850159,43,27.9511642456055,10.8428344726562,11.9500780105591,21.1511631011963,21.7046508789062,0.497998952865601,0.598429560661316,1.7953485250473,10.9883718490601,9.65321826934814,10.361180305481,13.3883724212646,2012-01-18 12:05:57
1.00399994850159,49,37.9265327453613,0.745439291000366,0.830975592136383,1.27346920967102,25.451021194458,0.539691865444183,0.627311289310455,1.75101983547211,-9.11836719512939,4.63390254974365,5.47602081298828,11.7183675765991,2012-01-18 12:05:58
1.01600003242493,27,37.4851875305176,0.468312919139862,0.578442275524139,1.11481654644012,25.5629634857178,0.39780530333519,0.466784298419952,0.937036573886871,-7.75185203552246,3.29108381271362,4.08886194229126,6.85185194015503,2012-01-18 12:05:59
