"diffSecs","latitude","longitude","altitude","time"
1.78299999237061,42.389931678772,-71.0418033599854,50,2012-01-26 07:53:11
1.22099995613098,42.389931678772,-71.0418033599854,50,2012-01-26 07:53:13
0.766000032424927,42.389931678772,-71.0418033599854,50,2012-01-26 07:53:13
1,42.389931678772,-71.0418033599854,50,2012-01-26 07:53:14
1.34299993515015,42.389931678772,-71.0418033599854,50,2012-01-26 07:53:16
0.677000045776367,42.389931678772,-71.0418033599854,50,2012-01-26 07:53:16
0.992000102996826,42.389931678772,-71.0418033599854,50,2012-01-26 07:53:17
1.02999997138977,42.389931678772,-71.0418033599854,50,2012-01-26 07:53:18
1.06500005722046,42.389931678772,-71.0418033599854,50,2012-01-26 07:53:19
1.26599979400635,42.389931678772,-71.0418033599854,50,2012-01-26 07:53:21
0.634000062942505,42.389931678772,-71.0418033599854,50,2012-01-26 07:53:21
1.00099992752075,42.389931678772,-71.0418033599854,50,2012-01-26 07:53:22
1.00100016593933,42.389931678772,-71.0418033599854,50,2012-01-26 07:53:23
1.03199982643127,42.389931678772,-71.0418033599854,50,2012-01-26 07:53:24
0.995000123977661,42.389931678772,-71.0418033599854,50,2012-01-26 07:53:25
0.979000091552734,42.389931678772,-71.0418033599854,50,2012-01-26 07:53:26
1.10999989509583,42.389931678772,-71.0418033599854,50,2012-01-26 07:53:27
0.888000011444092,42.389931678772,-71.0418033599854,50,2012-01-26 07:53:28
1.00300002098083,42.3863911628723,-71.0135436058044,50,2012-01-26 07:53:29
1.05999994277954,42.3863911628723,-71.0135436058044,50,2012-01-26 07:53:30
1.00200009346008,42.3863911628723,-71.0135436058044,50,2012-01-26 07:53:31
0.961999893188477,42.3863911628723,-71.0135436058044,50,2012-01-26 07:53:32
0.976999998092651,42.3863911628723,-71.0135436058044,50,2012-01-26 07:53:33
1.06200003623962,42.3863911628723,-71.0135436058044,50,2012-01-26 07:53:34
0.938999891281128,42.3863911628723,-71.0135436058044,50,2012-01-26 07:53:35
1.00100016593933,42.3863911628723,-71.0135436058044,50,2012-01-26 07:53:36
1.08800005912781,42.3863911628723,-71.0135436058044,50,2012-01-26 07:53:37
0.912999868392944,42.3863911628723,-71.0135436058044,50,2012-01-26 07:53:38
2.99500012397766,42.389931678772,-71.0418033599854,50,2012-01-26 07:53:41
1.11299991607666,42.389931678772,-71.0418033599854,50,2012-01-26 07:53:42
0.888999938964844,42.389931678772,-71.0418033599854,50,2012-01-26 07:53:43
1.00099992752075,42.389931678772,-71.0418033599854,50,2012-01-26 07:53:44
0.999000072479248,42.389931678772,-71.0418033599854,50,2012-01-26 07:53:45
1.15799999237061,42.389931678772,-71.0418033599854,50,2012-01-26 07:53:46
1.01500010490417,42.389931678772,-71.0418033599854,50,2012-01-26 07:53:47
0.83299994468689,42.389931678772,-71.0418033599854,50,2012-01-26 07:53:48
1.00699996948242,42.389931678772,-71.0418033599854,50,2012-01-26 07:53:49
0.995000123977661,42.389931678772,-71.0418033599854,50,2012-01-26 07:53:50
1.04099988937378,42.389931678772,-71.0418033599854,50,2012-01-26 07:53:51
1.03399991989136,42.389931678772,-71.0418033599854,50,2012-01-26 07:53:52
0.932000160217285,42.389931678772,-71.0418033599854,50,2012-01-26 07:53:53
1.07299995422363,42.389931678772,-71.0418033599854,50,2012-01-26 07:53:54
1,42.389931678772,-71.0418033599854,50,2012-01-26 07:53:55
0.922999858856201,42.389931678772,-71.0418033599854,50,2012-01-26 07:53:56
1.06500005722046,42.389931678772,-71.0418033599854,50,2012-01-26 07:53:57
0.936000108718872,42.389931678772,-71.0418033599854,50,2012-01-26 07:53:58
1.06900000572205,42.389931678772,-71.0418033599854,50,2012-01-26 07:53:59
0.998999834060669,42.389931678772,-71.0418033599854,50,2012-01-26 07:54:00
1.01800012588501,42.389931678772,-71.0418033599854,50,2012-01-26 07:54:01
1.00499987602234,42.389931678772,-71.0418033599854,50,2012-01-26 07:54:02
0.916000127792358,42.389931678772,-71.0418033599854,50,2012-01-26 07:54:03
1.08500003814697,42.389931678772,-71.0418033599854,50,2012-01-26 07:54:04
0.973999977111816,42.389931678772,-71.0418033599854,50,2012-01-26 07:54:05
1.01300001144409,42.389931678772,-71.0418033599854,50,2012-01-26 07:54:06
0.997999906539917,42.389931678772,-71.0418033599854,50,2012-01-26 07:54:07
0.940000057220459,42.389931678772,-71.0418033599854,50,2012-01-26 07:54:08
3.03099989891052,42.389931678772,-71.0418033599854,50,2012-01-26 07:54:11
1.02800011634827,42.389931678772,-71.0418033599854,50,2012-01-26 07:54:12
0.940999984741211,42.389931678772,-71.0418033599854,50,2012-01-26 07:54:13
0.999000072479248,42.389931678772,-71.0418033599854,50,2012-01-26 07:54:14
1,42.389931678772,-71.0418033599854,50,2012-01-26 07:54:15
1.06299996376038,42.389931678772,-71.0418033599854,50,2012-01-26 07:54:16
1.00300002098083,42.389931678772,-71.0418033599854,50,2012-01-26 07:54:17
0.934000015258789,42.389931678772,-71.0418033599854,50,2012-01-26 07:54:18
1.07999992370605,42.389931678772,-71.0418033599854,50,2012-01-26 07:54:19
0.986999988555908,42.389931678772,-71.0418033599854,50,2012-01-26 07:54:20
0.995000123977661,42.389931678772,-71.0418033599854,50,2012-01-26 07:54:21
1.04499983787537,42.389931678772,-71.0418033599854,50,2012-01-26 07:54:22
0.420000076293945,42.3942446708679,-70.9755635261536,62.5,2012-01-26 07:54:23
0.743000030517578,42.3939442634583,-70.976550579071,62.5,2012-01-26 07:54:24
1.05999994277954,42.3938155174255,-70.9767061471939,62.5,2012-01-26 07:54:25
0.957000017166138,42.3925495147705,-70.9782242774963,62.5,2012-01-26 07:54:26
0.994999885559082,42.3932844400406,-70.9774571657181,62.5,2012-01-26 07:54:27
1.27400016784668,42.3932844400406,-70.9774518013,62.5,2012-01-26 07:54:28
0.71399998664856,42.3980265855789,-70.9726721048355,62.7000007629395,2012-01-26 07:54:29
1.09800004959106,42.3977422714233,-70.9729564189911,62.7000007629395,2012-01-26 07:54:30
0.914999961853027,42.3982787132263,-70.9724199771881,62.7000007629395,2012-01-26 07:54:31
1.07499980926514,42.4009984731674,-70.9697645902634,62.7000007629395,2012-01-26 07:54:32
1.15900015830994,42.3996359109879,-70.9710520505905,62.7000007629395,2012-01-26 07:54:33
0.753000020980835,42.3720842599869,-70.9956961870193,48.2999992370605,2012-01-26 07:54:34
0.994999885559082,42.3720949888229,-70.9956425428391,48.0999984741211,2012-01-26 07:54:35
1.04500007629395,42.3720949888229,-70.995631814003,48.0999984741211,2012-01-26 07:54:36
1.74499988555908,42.3720896244049,-70.9956210851669,48.0999984741211,2012-01-26 07:54:37
1.00400018692017,42.3721164464951,-70.9956049919128,48,2012-01-26 07:54:38
1.02699995040894,42.3720788955688,-70.9955996274948,48.2000007629395,2012-01-26 07:54:39
0.997999906539917,42.3720681667328,-70.9955835342407,48.2000007629395,2012-01-26 07:54:40
1.03800010681152,42.3720681667328,-70.9955567121506,48.2000007629395,2012-01-26 07:54:41
0.973999977111816,42.3720628023148,-70.9955406188965,48.2000007629395,2012-01-26 07:54:42
1.2739999294281,42.3720520734787,-70.9955191612244,48.0999984741211,2012-01-26 07:54:44
0.684999942779541,42.3720628023148,-70.9955406188965,47.4000015258789,2012-01-26 07:54:44
1.00200009346008,42.3720842599869,-70.9955459833145,47.2999992370605,2012-01-26 07:54:45
0.996999979019165,42.372105717659,-70.9954923391342,47.0999984741211,2012-01-26 07:54:46
0.999000072479248,42.3722559213638,-70.9952831268311,48.2000007629395,2012-01-26 07:54:47
1.32399988174438,42.37229347229,-70.9952402114868,48.7999992370605,2012-01-26 07:54:49
0.677000045776367,42.3722559213638,-70.9952509403229,48.7999992370605,2012-01-26 07:54:49
0.996999979019165,42.3722451925278,-70.9952616691589,49.2000007629395,2012-01-26 07:54:50
1.00500011444092,42.3722022771835,-70.9953099489212,49.7000007629395,2012-01-26 07:54:51
1.0019998550415,42.3722076416016,-70.9952563047409,49.5999984741211,2012-01-26 07:54:52
1.02900004386902,42.3722076416016,-70.9952455759048,49.5999984741211,2012-01-26 07:54:53
0.967999935150146,42.3722130060196,-70.9952348470688,49.5999984741211,2012-01-26 07:54:54
0.998000144958496,42.3722130060196,-70.9952187538147,49.5,2012-01-26 07:54:55
1.02099990844727,42.3722130060196,-70.9952133893967,49.5,2012-01-26 07:54:56
1.02800011634827,42.3722130060196,-70.9951972961426,49.5,2012-01-26 07:54:57
1.04299998283386,42.3722183704376,-70.9951812028885,49.5,2012-01-26 07:54:58
13.7579998970032,42.3722130060196,-70.9951865673065,49.5,2012-01-26 07:55:12
1.11199998855591,42.3722130060196,-70.9951865673065,49.5,2012-01-26 07:55:13
0.814000129699707,42.3722130060196,-70.9951865673065,49.5,2012-01-26 07:55:14
1.07099986076355,42.3722130060196,-70.9951865673065,49.5,2012-01-26 07:55:15
1.00100016593933,42.3722130060196,-70.9951865673065,49.5,2012-01-26 07:55:16
1.00099992752075,42.3722130060196,-70.9951865673065,49.5,2012-01-26 07:55:17
1.04299998283386,42.3722130060196,-70.9951865673065,49.5,2012-01-26 07:55:18
0.91700005531311,42.3722130060196,-70.9951865673065,49.5,2012-01-26 07:55:19
0.970999956130981,42.3722130060196,-70.9951865673065,49.5,2012-01-26 07:55:20
1.07800006866455,42.3722130060196,-70.9951865673065,49.5,2012-01-26 07:55:21
1.00099992752075,42.3722130060196,-70.9951865673065,49.5,2012-01-26 07:55:22
1.05999994277954,42.3722130060196,-70.9951865673065,49.5,2012-01-26 07:55:23
0.865000009536743,42.3722130060196,-70.9951865673065,49.5,2012-01-26 07:55:24
1.00300002098083,42.3722130060196,-70.9951865673065,49.5,2012-01-26 07:55:25
0.21399998664856,42.3725402355194,-70.9951275587082,49.2000007629395,2012-01-26 07:55:25
0.999000072479248,42.3725187778473,-70.9950524568558,49.2999992370605,2012-01-26 07:55:26
0.997999906539917,42.372459769249,-70.9949988126755,49.2000007629395,2012-01-26 07:55:27
1.11800003051758,42.372465133667,-70.9949988126755,49.2000007629395,2012-01-26 07:55:28
0.884000062942505,42.3724758625031,-70.9949773550034,49.2000007629395,2012-01-26 07:55:29
1.03799986839294,42.3724812269211,-70.9949719905853,49.2000007629395,2012-01-26 07:55:30
0.962000131607056,42.3724865913391,-70.9949666261673,49.2000007629395,2012-01-26 07:55:31
0.996000051498413,42.3724919557571,-70.9949451684952,49.2000007629395,2012-01-26 07:55:32
1,42.3724168539047,-70.994907617569,49.2000007629395,2012-01-26 07:55:33
1.00399994850159,42.3724222183228,-70.9949022531509,49.2000007629395,2012-01-26 07:55:34
0.997999906539917,42.3724222183228,-70.9948915243149,49.2000007629395,2012-01-26 07:55:35
1,42.3722612857819,-70.9949505329132,49.4000015258789,2012-01-26 07:55:36
0.999000072479248,42.3722398281097,-70.9949344396591,49.4000015258789,2012-01-26 07:55:37
1.07200002670288,42.3721969127655,-70.9949666261673,49.2999992370605,2012-01-26 07:55:38
0.930999994277954,42.3722559213638,-70.9949719905853,49.2999992370605,2012-01-26 07:55:39
0.997999906539917,42.3722344636917,-70.9949988126755,49.2000007629395,2012-01-26 07:55:40
1.02100014686584,42.3722559213638,-70.9951061010361,49.4000015258789,2012-01-26 07:55:41
0.980999946594238,42.3722559213638,-70.9951114654541,49.4000015258789,2012-01-26 07:55:42
1.03999996185303,42.3722559213638,-70.9951114654541,49.4000015258789,2012-01-26 07:55:43
0.964999914169312,42.3722559213638,-70.9951168298721,49.4000015258789,2012-01-26 07:55:44
0.996000051498413,42.3722559213638,-70.9951221942902,49.4000015258789,2012-01-26 07:55:45
1.01399993896484,42.3722559213638,-70.995100736618,49.2999992370605,2012-01-26 07:55:46
0.983999967575073,42.3722451925278,-70.9950524568558,49.2000007629395,2012-01-26 07:55:47
1.11900019645691,42.3722451925278,-70.9950470924377,49.2000007629395,2012-01-26 07:55:48
0.882999897003174,42.3722398281097,-70.9950524568558,49.2000007629395,2012-01-26 07:55:49
1.00399994850159,42.3722720146179,-70.9950578212738,48.9000015258789,2012-01-26 07:55:50
1.0220000743866,42.37238725,-70.99503771,-12.6000003814697,2012-01-26 07:55:51
0.983999967575073,42.37240772,-70.9950453,-11.1999998092651,2012-01-26 07:55:52
1.0460000038147,42.37240089,-70.99504866,-12.6000003814697,2012-01-26 07:55:53
0.960000038146973,42.37239946,-70.99505904,-12.6000003814697,2012-01-26 07:55:54
0.996999979019165,42.37239233,-70.99511142,-19.8999996185303,2012-01-26 07:55:55
0.997999906539917,42.37240208,-70.99512025,-20.2000007629395,2012-01-26 07:55:56
1.00400018692017,42.37241308,-70.99514795,-20.8999996185303,2012-01-26 07:55:57
1.1159999370575,42.37238507,-70.99514957,-21.1000003814697,2012-01-26 07:55:59
0.877000093460083,42.37235998,-70.99511796,-19.3999996185303,2012-01-26 07:55:59
1.0019998550415,42.37232906,-70.99511967,-19,2012-01-26 07:56:00
1.00600004196167,42.37233017,-70.99511604,-17.8999996185303,2012-01-26 07:56:01
1.01399993896484,42.37232455,-70.99513274,-20.3999996185303,2012-01-26 07:56:02
1.09299993515015,42.37229308,-70.99514046,-20.1000003814697,2012-01-26 07:56:03
0.894000053405762,42.37229,-70.99514709,-20.2000007629395,2012-01-26 07:56:04
0.992000102996826,42.37229017,-70.99514841,-20.2000007629395,2012-01-26 07:56:05
1.02499985694885,42.37227799,-70.99518978,-17.6000003814697,2012-01-26 07:56:06
1.00400018692017,42.37228072,-70.9951871,-17.3999996185303,2012-01-26 07:56:07
1.10699987411499,42.37227905,-70.99519031,-17.3999996185303,2012-01-26 07:56:09
0.870000123977661,42.37228134,-70.99519317,-17.3999996185303,2012-01-26 07:56:09
1.00999999046326,42.37228236,-70.99519719,-17.6000003814697,2012-01-26 07:56:10
1.00300002098083,42.37227944,-70.99520409,-17.7000007629395,2012-01-26 07:56:11
1.00799989700317,42.37229085,-70.99518964,-17.7000007629395,2012-01-26 07:56:12
0.967999935150146,42.37229713,-70.99518761,-17.5,2012-01-26 07:56:13
1.01600003242493,42.3722999,-70.99518897,-17.3999996185303,2012-01-26 07:56:14
1.00500011444092,42.37230983,-70.99517668,-17.2999992370605,2012-01-26 07:56:15
1.00300002098083,42.37232915,-70.99514651,-17.6000003814697,2012-01-26 07:56:16
1.18599987030029,42.37232773,-70.9951502,-17.7000007629395,2012-01-26 07:56:18
0.789999961853027,42.37233042,-70.99516643,-16.7000007629395,2012-01-26 07:56:18
1.01999998092651,42.37233254,-70.99516673,-16.7000007629395,2012-01-26 07:56:19
0.991000175476074,42.37232506,-70.99517701,-16.8999996185303,2012-01-26 07:56:20
0.991999864578247,42.37232973,-70.99518266,-16.6000003814697,2012-01-26 07:56:21
1.05100011825562,42.37236827,-70.99519125,-16.7000007629395,2012-01-26 07:56:22
0.941999912261963,42.3724225,-70.99519247,-16.3999996185303,2012-01-26 07:56:23
1.01999998092651,42.37245319,-70.99523253,-15.1000003814697,2012-01-26 07:56:24
0.995000123977661,42.37246305,-70.99522463,-15.6999998092651,2012-01-26 07:56:25
1.00599980354309,42.37246853,-70.99520091,-18.2999992370605,2012-01-26 07:56:26
1.03299999237061,42.37243781,-70.9952003,-18.2999992370605,2012-01-26 07:56:27
0.951000213623047,42.37241124,-70.99522011,-17.7000007629395,2012-01-26 07:56:28
1.00099992752075,42.37240845,-70.99522533,-17.6000003814697,2012-01-26 07:56:29
0.453999996185303,42.37239376,-70.9952165,-20.3999996185303,2012-01-26 07:56:30
0.993000030517578,42.37241291,-70.99522243,-20.2999992370605,2012-01-26 07:56:31
1.00600004196167,42.37241489,-70.99522877,-21.3999996185303,2012-01-26 07:56:32
1,42.37241162,-70.99523156,-22,2012-01-26 07:56:33
0.997999906539917,42.37240419,-70.99524543,-25,2012-01-26 07:56:34
1.05100011825562,42.37239668,-70.99523908,-23.3999996185303,2012-01-26 07:56:35
0.954999923706055,42.37236959,-70.99523512,-24.2000007629395,2012-01-26 07:56:36
1.19799995422363,42.37232392,-70.99522719,-25,2012-01-26 07:56:37
0.799000024795532,42.37231784,-70.99519605,-17.2999992370605,2012-01-26 07:56:38
1.01699995994568,42.37226987,-70.99521468,-16.5,2012-01-26 07:56:39
1.02699995040894,42.37229804,-70.99520465,-16.3999996185303,2012-01-26 07:56:40
0.960999965667725,42.37228734,-70.99518907,-15.8000001907349,2012-01-26 07:56:41
1.1560001373291,42.37228206,-70.99517567,-15.6999998092651,2012-01-26 07:56:42
0.839999914169312,42.37228387,-70.99516103,-14.8000001907349,2012-01-26 07:56:43
1.06200003623962,42.37228645,-70.99518508,-15,2012-01-26 07:56:44
0.940000057220459,42.37230606,-70.99515675,-15.5,2012-01-26 07:56:45
1.02099990844727,42.37230548,-70.99515467,-19.5,2012-01-26 07:56:46
1.05599999427795,42.37223228,-70.99515483,-20.3999996185303,2012-01-26 07:56:47
0.927999973297119,42.37220864,-70.99517993,-22.1000003814697,2012-01-26 07:56:48
1.04000020027161,42.37220719,-70.99518667,-21.1000003814697,2012-01-26 07:56:49
0.966999769210815,42.37217936,-70.99522014,-25.2999992370605,2012-01-26 07:56:50
1.01400017738342,42.37220584,-70.99524086,-24.8999996185303,2012-01-26 07:56:51
1,42.37218298,-70.99526737,-28.2999992370605,2012-01-26 07:56:52
0.973000049591064,42.37217633,-70.99526485,-28.1000003814697,2012-01-26 07:56:53
1.01599979400635,42.37215423,-70.99528233,-27.8999996185303,2012-01-26 07:56:54
0.978000164031982,42.37218445,-70.99526541,-27.8999996185303,2012-01-26 07:56:55
1.02199983596802,42.37216535,-70.99523196,-28.7999992370605,2012-01-26 07:56:56
1.19800019264221,42.37218663,-70.9952451,-28.5,2012-01-26 07:56:57
0.779999971389771,42.37223199,-70.9952505,-30,2012-01-26 07:56:58
1.13399982452393,42.37226136,-70.99525191,-30.7000007629395,2012-01-26 07:56:59
0.874000072479248,42.37226345,-70.99524814,-32.2999992370605,2012-01-26 07:57:00
1.01399993896484,42.37229418,-70.99525132,-33.0999984741211,2012-01-26 07:57:01
1.17500019073486,42.37228787,-70.99522227,-32.9000015258789,2012-01-26 07:57:02
0.809999942779541,42.37222992,-70.99525817,-32.5,2012-01-26 07:57:03
1.01399993896484,42.3722319,-70.99526045,-33.5,2012-01-26 07:57:04
0.990000009536743,42.37224489,-70.99525208,-31.7999992370605,2012-01-26 07:57:05
1.03999996185303,42.37225324,-70.99525609,-31.8999996185303,2012-01-26 07:57:06
0.982000112533569,42.37228127,-70.99524415,-29.6000003814697,2012-01-26 07:57:07
0.977999925613403,42.37228644,-70.99525573,-30.2999992370605,2012-01-26 07:57:08
0.992000102996826,42.37226604,-70.99527584,-29.5,2012-01-26 07:57:09
1,42.37228051,-70.99526821,-30.2999992370605,2012-01-26 07:57:10
1,42.37227299,-70.99527547,-29.7999992370605,2012-01-26 07:57:11
0.99399995803833,42.37226901,-70.99527357,-29.5,2012-01-26 07:57:12
1.00799989700317,42.37227526,-70.9952815,-29.5,2012-01-26 07:57:13
0.998000144958496,42.37225736,-70.99527838,-29.6000003814697,2012-01-26 07:57:14
0.992999792098999,42.37229702,-70.99526687,-30.7000007629395,2012-01-26 07:57:15
1.01100015640259,42.37230062,-70.99526565,-30.7000007629395,2012-01-26 07:57:16
0.996999979019165,42.37230479,-70.99526783,-30.8999996185303,2012-01-26 07:57:17
1.00499987602234,42.37231435,-70.99528996,-30.5,2012-01-26 07:57:18
1.01600003242493,42.37232733,-70.99526996,-31,2012-01-26 07:57:19
0.989000082015991,42.37232337,-70.99528696,-30.7000007629395,2012-01-26 07:57:20
1.02600002288818,42.37232174,-70.99529202,-30.6000003814697,2012-01-26 07:57:21
1.01699995994568,42.3723365,-70.99527456,-30.1000003814697,2012-01-26 07:57:22
0.95199990272522,42.37234329,-70.99527981,-30.5,2012-01-26 07:57:23
1.01500010490417,42.37232378,-70.9952584,-31.3999996185303,2012-01-26 07:57:24
1.00600004196167,42.37231817,-70.99525352,-30.8999996185303,2012-01-26 07:57:25
1.01199984550476,42.37231721,-70.99524676,-31.5,2012-01-26 07:57:26
0.964000225067139,42.37228053,-70.9952464,-30.5,2012-01-26 07:57:27
1.01699995994568,42.37224871,-70.99524827,-29.2999992370605,2012-01-26 07:57:28
1.01899981498718,42.37224421,-70.99523777,-28.6000003814697,2012-01-26 07:57:29
0.968000173568726,42.37223413,-70.99523895,-26.7999992370605,2012-01-26 07:57:30
1.10899996757507,42.37221127,-70.99522683,-25.7000007629395,2012-01-26 07:57:31
1.02799987792969,42.37221995,-70.99523583,-26.2000007629395,2012-01-26 07:57:32
0.855000019073486,42.37218366,-70.99524383,-26.1000003814697,2012-01-26 07:57:33
1.00200009346008,42.37217736,-70.99525359,-25.8999996185303,2012-01-26 07:57:34
1.01699995994568,42.37214279,-70.99523988,-24.6000003814697,2012-01-26 07:57:35
0.980999946594238,42.37213659,-70.99525016,-23.7999992370605,2012-01-26 07:57:36
1.09400010108948,42.3721216,-70.99524334,-23.8999996185303,2012-01-26 07:57:37
0.91100001335144,42.37210338,-70.99523894,-23.5,2012-01-26 07:57:38
1.04500007629395,42.37208939,-70.99524181,-23.2000007629395,2012-01-26 07:57:39
0.990999937057495,42.37210894,-70.99523434,-22.8999996185303,2012-01-26 07:57:40
0.978999853134155,42.37212281,-70.99522936,-23,2012-01-26 07:57:41
1.27300000190735,42.37210571,-70.99521506,-22.6000003814697,2012-01-26 07:57:42
0.710000038146973,42.37210003,-70.99521219,-22.6000003814697,2012-01-26 07:57:43
0.998000144958496,42.37207868,-70.99522488,-22.2999992370605,2012-01-26 07:57:44
1.00099992752075,42.37208108,-70.9952269,-22.3999996185303,2012-01-26 07:57:45
0.997999906539917,42.37209469,-70.99524514,-21.7999992370605,2012-01-26 07:57:46
1.00100016593933,42.37208677,-70.99526046,-22.7000007629395,2012-01-26 07:57:47
1,42.37206777,-70.9952391,-23.3999996185303,2012-01-26 07:57:48
1.06799983978271,42.37207,-70.99525489,-23.6000003814697,2012-01-26 07:57:49
0.932000160217285,42.37206404,-70.99526299,-23.5,2012-01-26 07:57:50
0.998999834060669,42.37202087,-70.99525734,-23.2999992370605,2012-01-26 07:57:51
0.999000072479248,42.37202339,-70.99528603,-23.7000007629395,2012-01-26 07:57:52
1.00200009346008,42.37202122,-70.99529387,-23.7000007629395,2012-01-26 07:57:53
1,42.37202187,-70.99530199,-23.7999992370605,2012-01-26 07:57:54
0.99399995803833,42.3720247,-70.9952996,-23.8999996185303,2012-01-26 07:57:55
1.06599998474121,42.37202683,-70.99529682,-23.7999992370605,2012-01-26 07:57:56
0.940000057220459,42.37202205,-70.99530058,-23.7999992370605,2012-01-26 07:57:57
0.998999834060669,42.37201897,-70.99530315,-23.7000007629395,2012-01-26 07:57:58
0.998000144958496,42.37201695,-70.99530598,-23.7000007629395,2012-01-26 07:57:59
1.00099992752075,42.37201328,-70.99530976,-23.7000007629395,2012-01-26 07:58:00
1.00200009346008,42.37200963,-70.99531353,-23.7000007629395,2012-01-26 07:58:01
1.01899981498718,42.37204318,-70.99523085,-24.3999996185303,2012-01-26 07:58:02
0.983000040054321,42.37204299,-70.99522644,-24.3999996185303,2012-01-26 07:58:03
1.00100016593933,42.37204236,-70.99522493,-24.5,2012-01-26 07:58:04
1.01399993896484,42.3720422,-70.99522062,-24.5,2012-01-26 07:58:05
1.19099998474121,42.3720504,-70.99518504,-25.3999996185303,2012-01-26 07:58:06
0.78600001335144,42.37204923,-70.99517776,-25.5,2012-01-26 07:58:07
1.00300002098083,42.37205693,-70.99518371,-26,2012-01-26 07:58:08
1.02099990844727,42.37210988,-70.99513172,-27.5,2012-01-26 07:58:09
1.00300002098083,42.37211711,-70.99513307,-27.7999992370605,2012-01-26 07:58:10
1.2279999256134,42.37212356,-70.99513266,-27.8999996185303,2012-01-26 07:58:11
0.753000020980835,42.37214922,-70.99513277,-27.7999992370605,2012-01-26 07:58:12
1.49900007247925,42.37210327,-70.99509299,-28.5,2012-01-26 07:58:13
1.00099992752075,42.37216013,-70.99509591,-27.5,2012-01-26 07:58:14
1.00399994850159,42.3722037,-70.99510701,-26.7000007629395,2012-01-26 07:58:15
1.08400011062622,42.37219838,-70.99511534,-26.5,2012-01-26 07:58:16
0.915999889373779,42.37219617,-70.99511156,-26.7999992370605,2012-01-26 07:58:17
1.14200019836426,42.37219667,-70.99509136,-26.6000003814697,2012-01-26 07:58:18
0.86299991607666,42.37220028,-70.99510082,-26.6000003814697,2012-01-26 07:58:19
1.03900003433228,42.37221737,-70.99507114,-26.6000003814697,2012-01-26 07:58:20
1.19000005722046,42.3722261,-70.99507184,-26.5,2012-01-26 07:58:22
0.776999950408936,42.37224207,-70.99506236,-26.5,2012-01-26 07:58:22
0.990000009536743,42.37224796,-70.99506008,-26.5,2012-01-26 07:58:23
1.0019998550415,42.37225055,-70.99506154,-26.5,2012-01-26 07:58:24
0.998000144958496,42.37226306,-70.99506211,-26.8999996185303,2012-01-26 07:58:25
0.998999834060669,42.37227485,-70.99506516,-27,2012-01-26 07:58:26
1.03299999237061,42.37228059,-70.99506486,-27,2012-01-26 07:58:27
0.969000101089478,42.37229431,-70.99506496,-26.8999996185303,2012-01-26 07:58:28
0.999000072479248,42.37229146,-70.99506331,-27,2012-01-26 07:58:29
1.00099992752075,42.372273,-70.99503564,-26.7999992370605,2012-01-26 07:58:30
0.997999906539917,42.37224983,-70.99502756,-26,2012-01-26 07:58:31
1.00100016593933,42.3722529,-70.99502357,-26,2012-01-26 07:58:32
1.05200004577637,42.37226034,-70.99503209,-25.2999992370605,2012-01-26 07:58:33
0.97599983215332,42.3722636,-70.99502887,-25.2999992370605,2012-01-26 07:58:34
1.00100016593933,42.37228588,-70.99501096,-25.1000003814697,2012-01-26 07:58:35
1.2649998664856,42.37229055,-70.99500706,-25.1000003814697,2012-01-26 07:58:37
0.703000068664551,42.37227068,-70.99500141,-24.7999992370605,2012-01-26 07:58:37
1.0220000743866,42.37227394,-70.9949968,-24.7999992370605,2012-01-26 07:58:38
1.00099992752075,42.37224012,-70.99494638,-24.7000007629395,2012-01-26 07:58:39
0.997999906539917,42.37225213,-70.9949434,-24.7000007629395,2012-01-26 07:58:40
1.27999997138977,42.37224412,-70.99493528,-24.5,2012-01-26 07:58:42
0.703000068664551,42.37221274,-70.99495265,-24.5,2012-01-26 07:58:42
1.04100012779236,42.37214792,-70.99488212,-24.2000007629395,2012-01-26 07:58:43
0.977999925613403,42.37214476,-70.99487333,-24.2000007629395,2012-01-26 07:58:44
1.00600004196167,42.37213812,-70.99487619,-24.2000007629395,2012-01-26 07:58:45
1.27600002288818,42.37213485,-70.99486923,-24.2000007629395,2012-01-26 07:58:47
0.699999809265137,42.37218179,-70.99491536,-24.5,2012-01-26 07:58:47
1.01900005340576,42.3721749,-70.99491463,-24.3999996185303,2012-01-26 07:58:48
0.976000070571899,42.37217388,-70.9949098,-24.3999996185303,2012-01-26 07:58:49
1.0019998550415,42.37215083,-70.99490893,-24.6000003814697,2012-01-26 07:58:50
1.29100012779236,42.3721486330032,-70.9949022531509,47.5,2012-01-26 07:58:52
0.706000089645386,42.3721218109131,-70.9948807954788,47.5999984741211,2012-01-26 07:58:52
1.02199983596802,42.372105717659,-70.9948539733887,47.5999984741211,2012-01-26 07:58:53
1.03900003433228,42.37208433,-70.99486939,-24.2999992370605,2012-01-26 07:58:54
0.963000059127808,42.37208003,-70.99486362,-24.2999992370605,2012-01-26 07:58:55
1,42.37202542,-70.99489718,-24.2999992370605,2012-01-26 07:58:56
0.986000061035156,42.37215332,-70.99479977,-24.2999992370605,2012-01-26 07:58:57
1.00899982452393,42.37216235,-70.99477042,-24.2000007629395,2012-01-26 07:58:58
0.985000133514404,42.3721611,-70.99476824,-24,2012-01-26 07:58:59
1.00099992752075,42.37217119,-70.99473178,-24.2999992370605,2012-01-26 07:59:00
0.999000072479248,42.37213982,-70.99476917,-24.6000003814697,2012-01-26 07:59:01
0.997999906539917,42.37213493,-70.99476327,-24.7999992370605,2012-01-26 07:59:02
1.00200009346008,42.37210002,-70.99477905,-24.7000007629395,2012-01-26 07:59:03
1,42.37219157,-70.99480394,-23.2999992370605,2012-01-26 07:59:04
0.998999834060669,42.37218685,-70.99479504,-23.5,2012-01-26 07:59:05
1.0460000038147,42.37219491,-70.99482229,-22.7000007629395,2012-01-26 07:59:06
0.957000017166138,42.37218588,-70.99482363,-22.6000003814697,2012-01-26 07:59:07
0.996999979019165,42.37221646,-70.99482392,-22.3999996185303,2012-01-26 07:59:08
1,42.37222925,-70.9948726,-21.5,2012-01-26 07:59:09
1,42.37220249,-70.99486058,-22,2012-01-26 07:59:10
1.00200009346008,42.37218198,-70.99488447,-22,2012-01-26 07:59:11
0.997999906539917,42.37216772,-70.99489084,-21.7000007629395,2012-01-26 07:59:12
1.00200009346008,42.37216082,-70.99491842,-21.5,2012-01-26 07:59:13
1.03800010681152,42.37216184,-70.99492409,-21.5,2012-01-26 07:59:14
0.960999965667725,42.3721669,-70.99491971,-21.5,2012-01-26 07:59:15
1.02300000190735,42.37217063,-70.99491581,-21.5,2012-01-26 07:59:16
0.976999998092651,42.37217515,-70.99492546,-21.3999996185303,2012-01-26 07:59:17
1,42.37217688,-70.99492965,-21.5,2012-01-26 07:59:18
0.998999834060669,42.37217132,-70.99495225,-21.3999996185303,2012-01-26 07:59:19
1.00100016593933,42.37216991,-70.99497765,-21.2000007629395,2012-01-26 07:59:20
1,42.37218294,-70.99495949,-21.2000007629395,2012-01-26 07:59:21
0.998999834060669,42.37218252,-70.99496813,-21.1000003814697,2012-01-26 07:59:22
1.00200009346008,42.37219993,-70.99497207,-20.8999996185303,2012-01-26 07:59:23
1.00300002098083,42.37219954,-70.99497619,-20.8999996185303,2012-01-26 07:59:24
0.999000072479248,42.37220015,-70.99497274,-20.8999996185303,2012-01-26 07:59:25
1.00699996948242,42.37226098,-70.99499402,-20.5,2012-01-26 07:59:26
0.990999937057495,42.37226253,-70.99499467,-20.5,2012-01-26 07:59:27
0.999000072479248,42.37227219,-70.99499061,-20.5,2012-01-26 07:59:28
1,42.37234131,-70.99497025,-20.3999996185303,2012-01-26 07:59:29
1.0019998550415,42.3723256,-70.99492974,-20.2000007629395,2012-01-26 07:59:30
0.996999979019165,42.37232669,-70.99491756,-20.2000007629395,2012-01-26 07:59:31
1.02500009536743,42.37236178,-70.99488389,-20.2000007629395,2012-01-26 07:59:32
0.977999925613403,42.37223484,-70.99486849,-20.1000003814697,2012-01-26 07:59:33
0.996999979019165,42.37225847,-70.99488802,-20,2012-01-26 07:59:34
1.00300002098083,42.37219815,-70.9948734,-19.8999996185303,2012-01-26 07:59:35
1,42.37220992,-70.99482036,-19.8999996185303,2012-01-26 07:59:36
1.26600003242493,42.37219989,-70.99479502,-19.7999992370605,2012-01-26 07:59:38
0.730999946594238,42.37218372,-70.99487724,-19.8999996185303,2012-01-26 07:59:38
1.44100022315979,42.372192,-70.99482775,-19.8999996185303,2012-01-26 07:59:40
0.560999870300293,42.37219898,-70.99487451,-20,2012-01-26 07:59:40
0.433000087738037,42.37220221,-70.99484206,-20,2012-01-26 07:59:41
1.20899987220764,42.37219518,-70.9948246,-20,2012-01-26 07:59:42
0.788000106811523,42.37219229,-70.99479455,-19.8999996185303,2012-01-26 07:59:43
1.12299990653992,42.37223637,-70.99481406,-19.8999996185303,2012-01-26 07:59:44
0.999000072479248,42.37223851,-70.99478041,-19.7999992370605,2012-01-26 07:59:45
1.09699988365173,42.37221892,-70.99476961,-19.7999992370605,2012-01-26 07:59:46
1,42.37224838,-70.99480048,-19.8999996185303,2012-01-26 07:59:47
0.996000051498413,42.37217672,-70.99478223,-19.8999996185303,2012-01-26 07:59:48
1.00699996948242,42.37216962,-70.99474739,-19.8999996185303,2012-01-26 07:59:49
0.998000144958496,42.37216024,-70.99471582,-19.8999996185303,2012-01-26 07:59:50
1.0019998550415,42.37213729,-70.99469208,-19.8999996185303,2012-01-26 07:59:51
1,42.37221517,-70.99478537,-19.7000007629395,2012-01-26 07:59:52
0.996999979019165,42.37220981,-70.99475935,-19.7000007629395,2012-01-26 07:59:53
1.00100016593933,42.37220629,-70.99472554,-19.7000007629395,2012-01-26 07:59:54
0.797999858856201,42.37220898,-70.9947784,-19.6000003814697,2012-01-26 07:59:55
1,42.37219714,-70.99477908,-19.6000003814697,2012-01-26 07:59:56
1.00100016593933,42.37225461,-70.99482306,-19.5,2012-01-26 07:59:57
1.0019998550415,42.37224209,-70.9948374,-19.5,2012-01-26 07:59:58
0.999000072479248,42.37219794,-70.99479586,-19.5,2012-01-26 07:59:59
