"diffSecs","latitude","longitude","altitude","time"
2.81699991226196,42.2901481389999,-71.2903100252151,48,2012-01-19 15:25:38
2.1230001449585,42.2901374101639,-71.2902939319611,47.7000007629395,2012-01-19 15:25:40
0.531999826431274,42.290153503418,-71.2903046607971,47.9000015258789,2012-01-19 15:25:41
0.880000114440918,42.290158867836,-71.2903100252151,48,2012-01-19 15:25:42
0.971999883651733,42.290164232254,-71.2903100252151,48,2012-01-19 15:25:43
1.23300004005432,42.29016134,-71.29031906,-19.5,2012-01-19 15:25:44
1.04999995231628,42.29030583,-71.29038011,-6.09999990463257,2012-01-19 15:25:45
1.47100019454956,42.29026808,-71.2903768,-9.69999980926514,2012-01-19 15:25:47
2.22899985313416,42.29025837,-71.29037158,-11.6000003814697,2012-01-19 15:25:49
2.02900004386902,42.29026026,-71.29037159,-11.3000001907349,2012-01-19 15:25:51
1.85000014305115,42.29026109,-71.2903668,-12,2012-01-19 15:25:53
2.49499988555908,42.29026321,-71.29036768,-12.1000003814697,2012-01-19 15:25:55
0.53600001335144,42.29026046,-71.29036723,-11.8999996185303,2012-01-19 15:25:56
2.52799987792969,42.29025907,-71.2903646,-12.1999998092651,2012-01-19 15:25:58
0.993000030517578,42.29025973,-71.29036597,-12,2012-01-19 15:25:59
0.703000068664551,42.2902596,-71.29036623,-12,2012-01-19 15:26:00
1.46300005912781,42.29025926,-71.29036555,-12.1000003814697,2012-01-19 15:26:01
0.473999977111816,42.29026036,-71.29036787,-11.8000001907349,2012-01-19 15:26:02
1.48900008201599,42.29026086,-71.29036885,-11.6999998092651,2012-01-19 15:26:03
1.42599987983704,42.29026105,-71.29036922,-11.6999998092651,2012-01-19 15:26:05
1.98300004005432,42.29026142,-71.29036996,-11.6000003814697,2012-01-19 15:26:07
0.971999883651733,42.29026324,-71.29037387,-11.1999998092651,2012-01-19 15:26:08
2.19200015068054,42.2902633,-71.29037393,-11.1999998092651,2012-01-19 15:26:10
1.76600003242493,42.29026277,-71.29036861,-11.8000001907349,2012-01-19 15:26:12
2.52099990844727,42.29026193,-71.29036713,-11.8999996185303,2012-01-19 15:26:14
2.01399993896484,42.29026306,-71.2903681,-11.8000001907349,2012-01-19 15:26:16
1.38000011444092,42.29026293,-71.29036674,-12,2012-01-19 15:26:18
2.67700004577637,42.29026201,-71.29036868,-11.6999998092651,2012-01-19 15:26:20
1.12799978256226,42.29026305,-71.29037207,-11.3000001907349,2012-01-19 15:26:21
0.315000057220459,42.29026255,-71.29037112,-11.3999996185303,2012-01-19 15:26:22
0.917999982833862,42.29026261,-71.29037108,-11.3999996185303,2012-01-19 15:26:23
1.02900004386902,42.29026444,-71.29037233,-11.3000001907349,2012-01-19 15:26:24
0.957000017166138,42.29026594,-71.29037453,-11.1000003814697,2012-01-19 15:26:25
1.20300006866455,42.29026584,-71.29037437,-11.1000003814697,2012-01-19 15:26:26
