"diffSecs","level","azimuth.mean","azimuth.absolute.deviation","azimuth.standard.deviation","azimuth.max.deviation","pitch.mean","pitch.absolute.deviation","pitch.standard.deviation","pitch.max.deviation","roll.mean","roll.absolute.deviation","roll.standard.deviation","roll.max.deviation","time"
0,48,7.32708358764648,1.28984379768372,2.19789099693298,10.7729167938232,-21.3916664123535,4.29861116409302,7.9551305770874,40.6083335876465,-44.5499992370605,8.81041622161865,16.2240943908691,82.8499984741211,2012-01-01 13:58:57
1.02013671398163,37,7.01891899108887,0.579254925251007,0.708572149276733,1.48108088970184,-18.7918930053711,0.19751638174057,0.243153184652328,0.508108854293823,-49.6783790588379,0.295982331037521,0.355752140283585,0.72162276506424,2012-01-01 13:58:58
1.00714671611786,43,5.30000019073486,0.441860437393188,0.522071003913879,1.10000002384186,-17.7581405639648,0.276906251907349,0.355836540460587,0.841860294342041,-50.7116279602051,0.231584325432777,0.298218846321106,0.711628675460815,2012-01-01 13:58:59
1.01368832588196,40,4.82500028610229,0.473749995231628,0.538864552974701,0.975000083446503,-17.75,0.187499850988388,0.222485929727554,0.450000613927841,-50.2924995422363,0.0943745598196983,0.119137391448021,0.307501614093781,2012-01-01 13:59:00
1.00437998771667,49,4.84489822387695,0.552353203296661,0.60913497209549,1.05510210990906,-17.9918365478516,0.156934648752213,0.197780326008797,0.491837084293365,-50.1632652282715,0.182923465967178,0.228297799825668,0.636733055114746,2012-01-01 13:59:01
1.02128338813782,36,4.18888902664185,0.184567973017693,0.22457093000412,0.411110937595367,-17.9944438934326,0.112345784902573,0.141312286257744,0.305556446313858,-50.1472244262695,0.130864128470421,0.149974331259727,0.347223401069641,2012-01-01 13:59:02
1.00241494178772,44,4.94772720336914,0.458780974149704,0.567085325717926,1.452272772789,-17.9454555511475,0.2768594622612,0.343414962291718,0.74545431137085,-50.1227264404297,0.161569803953171,0.204342946410179,0.522725701332092,2012-01-01 13:59:03
1.0067366361618,48,4.48958349227905,0.730381965637207,0.822151601314545,1.51041650772095,-17.904167175293,0.175520807504654,0.213071167469025,0.404167085886002,-50.2958335876465,0.196353733539581,0.251626431941986,0.604167759418488,2012-01-01 13:59:04
1.01483333110809,43,3.76976752281189,0.44250950217247,0.512420117855072,1.13023257255554,-17.7790699005127,0.181503623723984,0.22676508128643,0.620929479598999,-50.4558143615723,0.109789192676544,0.133473336696625,0.344184786081314,2012-01-01 13:59:05
1.00068330764771,42,2.730952501297,0.449999988079071,0.524399042129517,1.03095233440399,-16.0214290618896,0.745578289031982,0.913271427154541,1.57857167720795,-51.0142860412598,0.302041113376617,0.391317367553711,0.814286112785339,2012-01-01 13:59:06
1.00248336791992,43,3.26744198799133,0.30773389339447,0.353534251451492,0.83255797624588,-16.5651168823242,0.184748694300652,0.226072415709496,0.534883618354797,-50.7883720397949,0.193293437361717,0.215891093015671,0.411627560853958,2012-01-01 13:59:07
1.0155383348465,39,3.68974351882935,0.273635745048523,0.314434677362442,0.689743638038635,-16.9769229888916,0.351084679365158,0.449764221906662,1.12307703495026,-50.702564239502,0.192373052239418,0.250626981258392,0.602562546730042,2012-01-01 13:59:08
1.00411665439606,49,3.50204086303711,0.255476862192154,0.306720495223999,0.697959423065186,-19.1061229705811,0.658808946609497,0.741044104099274,1.40612196922302,-49.9306144714355,0.240649536252022,0.276423096656799,0.469388604164124,2012-01-01 13:59:09
1.00381505489349,36,3.96666669845581,0.225925922393799,0.303681135177612,0.866666555404663,-20.25,0.305555582046509,0.395460367202759,0.949999272823334,-49.5138893127441,0.155093163251877,0.197418034076691,0.413887441158295,2012-01-01 13:59:10
1.00437831878662,41,4.49024391174316,0.312433063983917,0.388119220733643,0.909756124019623,-20.8999996185303,0.180487751960754,0.208361759781837,0.400000691413879,-49.5878067016602,0.132540449500084,0.176959335803986,0.487803399562836,2012-01-01 13:59:11
1.14636170864105,45,4.05555582046509,0.200000047683716,0.231474131345749,0.455555498600006,-20.533332824707,0.204444617033005,0.245854571461678,0.633334040641785,-49.5666656494141,0.404444575309753,0.467618077993393,0.8333340883255,2012-01-01 13:59:12
1.01612329483032,49,4.11224508285522,0.198750615119934,0.256851196289062,0.61224502325058,-19.7244911193848,0.336276590824127,0.386259257793427,0.824490606784821,-49.7244911193848,0.155601635575294,0.192227214574814,0.424491107463837,2012-01-01 13:59:13
1.01782834529877,40,3.83750009536743,0.309375017881393,0.377284705638885,0.862500190734863,-18.0900001525879,1.13750016689301,1.35606062412262,3.59000039100647,-50.185001373291,0.289249867200851,0.358155220746994,0.915001571178436,2012-01-01 13:59:14
1.01579833030701,45,4.65333318710327,0.179555639624596,0.224697351455688,0.553333461284637,-14.722222328186,0.705185234546661,0.837957561016083,1.77777755260468,-51.0111122131348,0.19555589556694,0.25924876332283,0.711112916469574,2012-01-01 13:59:15
1.02020001411438,49,4.41836738586426,0.333444386720657,0.394178807735443,0.781632840633392,-17.8224487304688,0.637401163578033,0.72485488653183,1.32244944572449,-50.2510223388672,0.360266625881195,0.418511778116226,0.751021087169647,2012-01-01 13:59:16
1.02027332782745,41,6.26829290390015,1.21296846866608,1.29321658611298,1.76829278469086,-22.595121383667,2.91766810417175,3.11338210105896,4.19512271881104,-47.3780479431152,1.88863790035248,1.98733973503113,2.62195062637329,2012-01-01 13:59:17
1.07934498786926,40,6.55749988555908,0.541000008583069,0.644549250602722,1.35749983787537,-24.7425003051758,0.337374866008759,0.419456362724304,0.957500338554382,-46.2574996948242,0.250999808311462,0.310553997755051,0.65749853849411,2012-01-01 13:59:18
1.01147329807281,49,1.41224491596222,2.15785098075867,2.4164092540741,3.88775515556335,-27.3530616760254,2.28729701042175,2.82280111312866,6.44693756103516,-45.3163261413574,1.31470239162445,1.60221135616302,3.81632709503174,2012-01-01 13:59:19
1.01880168914795,35,-3.09428572654724,0.610938787460327,0.708294868469238,1.50571417808533,-30.0457153320312,0.851755201816559,1.02854776382446,2.14571499824524,-43.894287109375,0.566857397556305,0.676944196224213,1.3057142496109,2012-01-01 13:59:20
1.04459667205811,45,1.53111112117767,2.54123449325562,2.95671153068542,5.86888885498047,-25.8800010681152,0.916444301605225,1.07281541824341,2.17999958992004,-45.9488906860352,0.794469237327576,0.910341322422028,1.45111191272736,2012-01-01 13:59:21
1.00731837749481,48,3.67916679382324,2.91059041023254,3.20214509963989,5.72083377838135,-18.40625,4.41953134536743,4.72023153305054,6.89375066757202,-49.1124992370605,2.45624995231628,2.6595447063446,4.21249914169312,2012-01-01 13:59:22
1.00072169303894,44,5.11590909957886,2.96900844573975,3.26405668258667,4.81590938568115,-16.9613647460938,2.54318189620972,2.83334183692932,4.86136341094971,-49.8886375427246,0.337706655263901,0.411325871944427,0.788634717464447,2012-01-01 13:59:23
1.14909338951111,44,3.85681819915771,4.3373966217041,4.69493913650513,7.25681829452515,-10.7204551696777,1.13853311538696,1.2507416009903,2.22045469284058,-51.7022743225098,1.03006196022034,1.14504647254944,1.89772856235504,2012-01-01 13:59:24
1.01337003707886,45,-0.588888883590698,1.92000007629395,2.42021322250366,5.38888931274414,-12.9177780151367,1.73451852798462,2.07934713363647,5.21777772903442,-52.3133354187012,0.495407581329346,0.587121307849884,1.08666741847992,2012-01-01 13:59:25
1.00684666633606,47,2.5148937702179,2.20887279510498,2.73837804794312,6.91489362716675,-8.01702117919922,1.71163427829742,2.18537878990173,4.61702108383179,-52.9127655029297,0.147668525576591,0.181737422943115,0.387232840061188,2012-01-01 13:59:26
1.01535665988922,44,1.10454547405243,3.36322331428528,3.63036155700684,5.70454549789429,-12.3795461654663,0.730578541755676,0.90518194437027,1.97954511642456,-52.3113632202148,0.230062365531921,0.280596911907196,0.588637113571167,2012-01-01 13:59:27
1.00196170806885,43,5.51162815093994,0.548188209533691,0.694231808185577,1.81162798404694,-12.3953485488892,0.391238510608673,0.526486098766327,1.49534845352173,-51.8279075622559,0.168091088533401,0.198043465614319,0.372093111276627,2012-01-01 13:59:28
1.00366163253784,38,4.46578979492188,0.957202196121216,1.14805936813354,2.234210729599,-9.53157901763916,2.29695296287537,2.72359156608582,4.53157901763916,-52.4815788269043,0.461911797523499,0.570252239704132,1.11842238903046,2012-01-01 13:59:29
1.00370669364929,39,7.31282043457031,0.22590397298336,0.276590466499329,0.612820327281952,-9.18461513519287,0.394082903862,0.537104606628418,1.88461542129517,-52.202564239502,0.177909031510353,0.25868234038353,0.797435104846954,2012-01-01 13:59:30
1.00870168209076,49,6.75102043151855,0.27063724398613,0.328336834907532,0.848979413509369,-9.14693927764893,0.431070417165756,0.493675172328949,0.853061020374298,-52.1938781738281,0.174093335866928,0.200415566563606,0.393879175186157,2012-01-01 13:59:31
1.01423001289368,36,6.05555582046509,0.220987632870674,0.271256744861603,0.74444454908371,-9.97777843475342,0.228395059704781,0.280981570482254,0.622222244739532,-52.1861114501953,0.0955242142081261,0.122820258140564,0.286110460758209,2012-01-01 13:59:32
1.00385165214539,36,6.58055591583252,0.366203665733337,0.414205640554428,0.780555486679077,-10.1138887405396,0.327160447835922,0.447928994894028,1.08611083030701,-52.2111129760742,0.12283880263567,0.150513187050819,0.411112576723099,2012-01-01 13:59:33
1.00444161891937,49,5.44285726547241,1.06997084617615,1.23271727561951,2.45714282989502,-13.2183675765991,1.03173685073853,1.16543304920197,2.18163299560547,-51.6653060913086,0.375426858663559,0.444260895252228,0.8346928358078,2012-01-01 13:59:34
1.0016633272171,36,3.3027777671814,2.49722218513489,2.85311603546143,3.90277791023254,-12.4694442749023,1.94799399375916,2.25804996490479,3.76944470405579,-52.1333351135254,0.320370346307755,0.425571769475937,1.06666684150696,2012-01-01 13:59:35
1.01026499271393,43,7.31162786483765,0.312601357698441,0.39954000711441,1.01162779331207,-10.5302324295044,0.159329369664192,0.201776847243309,0.530232787132263,-51.5767440795898,0.154029473662376,0.185318320989609,0.376744031906128,2012-01-01 13:59:36
1.00037169456482,46,6.27608680725098,0.200945183634758,0.236077323555946,0.47608682513237,-10.9260873794556,0.121739037334919,0.148081615567207,0.326086819171906,-51.7543487548828,0.108884140849113,0.129725962877274,0.254348516464233,2012-01-01 13:59:37
1.01182162761688,38,5.32368421554565,0.297091364860535,0.355730652809143,0.776315629482269,-11.4026317596436,0.161218747496605,0.201946869492531,0.402631759643555,-51.7552642822266,0.107894599437714,0.129162147641182,0.255263775587082,2012-01-01 13:59:38
1.01063001155853,45,4.82666683197021,0.27051854133606,0.359876573085785,0.873333513736725,-11.4755554199219,0.112592495977879,0.150783956050873,0.475555688142776,-51.9599990844727,0.130666926503181,0.152607440948486,0.260000109672546,2012-01-01 13:59:39
1.00758337974548,39,5.05641031265259,0.983431935310364,1.45139980316162,4.95641040802002,-8.35384654998779,0.907297909259796,1.222407579422,2.94615387916565,-52.3794898986816,0.403418719768524,0.47887647151947,1.22051417827606,2012-01-01 13:59:40
1.00287663936615,41,0.614634156227112,1.05603814125061,1.22445833683014,2.28536581993103,-5.23658561706543,1.02510404586792,1.14673578739166,2.36341452598572,-53.4756088256836,0.120047681033611,0.147797882556915,0.324388831853867,2012-01-01 13:59:41
1.02815496921539,49,4.93877553939819,0.713952541351318,0.767932891845703,1.63877558708191,-9.86938762664795,2.17342782020569,2.46487188339233,5.26938819885254,-52.0795936584473,0.557850897312164,0.655270516872406,1.32040894031525,2012-01-01 13:59:42
1.05782830715179,25,4.8600001335144,0.222399994730949,0.271293222904205,0.63999992609024,-10.5920000076294,0.28768002986908,0.339316993951797,0.708000004291534,-51.7880020141602,0.143359407782555,0.175088241696358,0.387999266386032,2012-01-01 13:59:43
1.01614999771118,43,5.79069757461548,0.335100024938583,0.412487596273422,0.909302532672882,-9.62790679931641,0.181287094950676,0.290409237146378,1.27209341526031,-52.072093963623,0.147431522607803,0.179567560553551,0.372092843055725,2012-01-01 13:59:44
1.00211501121521,49,4.57755088806152,0.406580597162247,0.474778294563293,0.877551078796387,-10.7571430206299,0.289796024560928,0.383325964212418,0.95714282989502,-52.0040817260742,0.13152888417244,0.16407972574234,0.395918786525726,2012-01-01 13:59:45
1.00109505653381,32,3.78437519073486,0.254101544618607,0.303221642971039,0.684374928474426,-10.7625007629395,0.163281291723251,0.204251676797867,0.462500095367432,-52.2718772888184,0.128124713897705,0.158576548099518,0.328126430511475,2012-01-01 13:59:46
1.00580668449402,39,3.20769238471985,0.203944772481918,0.255588442087173,0.507692337036133,-11.192307472229,0.414595663547516,0.47791463136673,0.907692492008209,-52.1564102172852,0.105587869882584,0.127690896391869,0.256409585475922,2012-01-01 13:59:47
1.00714337825775,40,1.86500000953674,0.847000002861023,1.10827565193176,3.16500020027161,-7.26500034332275,2.76325011253357,3.08970475196838,5.03499984741211,-52.8800010681152,0.376000076532364,0.468614995479584,1.08000159263611,2012-01-01 13:59:48
1.01205003261566,47,-1.02553188800812,1.64409232139587,1.90189921855927,3.32553195953369,-10.6297874450684,0.865278422832489,0.975424587726593,1.87021267414093,-52.6361694335938,0.302670836448669,0.349117755889893,0.663828074932098,2012-01-01 13:59:49
1.01721167564392,26,-0.542307674884796,2.98076915740967,3.08634376525879,4.15769243240356,-11.557692527771,1.56538462638855,1.59015560150146,2.24230766296387,-52.1423072814941,0.169822305440903,0.198403432965279,0.442307680845261,2012-01-01 13:59:50
1.01916337013245,38,-0.90263158082962,2.6450138092041,2.83720469474792,4.29736852645874,-10.5026321411133,1.96620500087738,2.14972305297852,3.39736866950989,-52.2421073913574,0.278947323560715,0.311728328466415,0.5578932762146,2012-01-01 13:59:51
1.00005662441254,48,1.21458339691162,0.193750008940697,0.239782527089119,0.514583349227905,-9.33958339691162,0.201215445995331,0.259598791599274,0.760416805744171,-52.3125,0.146875202655792,0.183285757899284,0.412499189376831,2012-01-01 13:59:52
