"diffSecs","N.samples","x.mean","x.absolute.deviation","x.standard.deviation","x.max.deviation","x.PSD.1","x.PSD.3","x.PSD.6","x.PSD.10","y.mean","y.absolute.deviation","y.standard.deviation","y.max.deviation","y.PSD.1","y.PSD.3","y.PSD.6","y.PSD.10","z.mean","z.absolute.deviation","z.standard.deviation","z.max.deviation","z.PSD.1","z.PSD.3","z.PSD.6","z.PSD.10","time"
6.72100019454956,28,3.32375383377075,0.0315213613212109,0.0420926623046398,0.108573697507381,0.000873116310685873,0.00139920366927981,0.00442636758089066,0.0135199576616287,-1.60023510456085,0.0189378280192614,0.024871788918972,0.0605910904705524,0.00136191688943654,0.00294257956556976,0.00570884440094233,0.0050740959122777,-8.95417213439941,0.0254171919077635,0.0321989431977272,0.0791535377502441,0.0116383582353592,0.0207250006496906,0.0230536740273237,0.00981217529624701,2012-02-24 15:00:06
0.288999795913696,99,3.34129405021667,0.0338794887065887,0.0415836647152901,0.100840173661709,0.0416018217802048,0.252507358789444,0.205154821276665,0.157893046736717,-1.62651705741882,0.0245781578123569,0.0307916197925806,0.0770664140582085,0.0269335508346558,0.042803917080164,0.198006674647331,0.105156004428864,-8.9570369720459,0.0353182852268219,0.0462174490094185,0.150665536522865,0.00108893541619182,0.37674742937088,0.189314007759094,0.180636167526245,2012-02-24 15:00:07
0.452000141143799,99,3.34149217605591,0.0304415095597506,0.0387678854167461,0.100642040371895,0.130058094859123,0.122475102543831,0.20629258453846,0.245660588145256,-1.5877857208252,0.0287265554070473,0.0362158939242363,0.10698164999485,0.135232791304588,0.180208519101143,0.676280736923218,0.0290078055113554,-8.95584869384766,0.0333071313798428,0.0403277166187763,0.100443698465824,0.0794541537761688,0.146827578544617,0.731136739253998,0.133794769644737,2012-02-24 15:00:07
0.499000072479248,99,3.36427521705627,0.0398629531264305,0.0509056970477104,0.137887462973595,0.212255030870438,0.747966945171356,0.284131944179535,0.0976469442248344,-1.60026693344116,0.0234494991600513,0.0285779200494289,0.0766701772809029,0.000660676741972566,0.12388314306736,0.211024522781372,0.0328872725367546,-8.96436786651611,0.033613309264183,0.0396670624613762,0.0871700718998909,0.00977076776325703,0.340670973062515,0.137056142091751,0.383720338344574,2012-02-24 15:00:07
1.01699995994568,36,3.34542965888977,0.0383336767554283,0.0486038252711296,0.119041845202446,0.0498821176588535,0.0883333459496498,0.0291297361254692,0.0651853159070015,-1.58023262023926,0.0126366643235087,0.0158722512423992,0.0378645434975624,5.61484193895012e-05,0.000752847816329449,0.00269736396148801,0.0018460473511368,-8.95891952514648,0.0261510219424963,0.0316460840404034,0.0740945637226105,5.48471871297807e-05,0.00489931367337704,0.0335818715393543,0.0139876212924719,2012-02-24 15:00:08
1,46,3.37689852714539,0.0234506540000439,0.0291498750448227,0.0720574408769608,8.42254448798485e-05,0.0205004625022411,0.0135774901136756,0.0361989215016365,-1.57801783084869,0.0195762496441603,0.0231188759207726,0.0498859770596027,0.00100430194288492,0.0104690799489617,0.0668745338916779,0.0237396564334631,-8.97969341278076,0.0255176369100809,0.0322054550051689,0.0816508755087852,0.0242012962698936,0.0269407257437706,0.0316476486623287,0.0806040167808533,2012-02-24 15:00:09
