"diffSecs","N.samples","x.mean","x.absolute.deviation","x.standard.deviation","x.max.deviation","x.PSD.1","x.PSD.3","x.PSD.6","x.PSD.10","y.mean","y.absolute.deviation","y.standard.deviation","y.max.deviation","y.PSD.1","y.PSD.3","y.PSD.6","y.PSD.10","z.mean","z.absolute.deviation","z.standard.deviation","z.max.deviation","z.PSD.1","z.PSD.3","z.PSD.6","z.PSD.10","time"
1.01699995994568,35,-3.47407579421997,0.38334795832634,0.47974094748497,1.0812531709671,2.0011043548584,2.14156699180603,2.20102882385254,8.74667930603027,-8.65927219390869,0.413000077009201,0.51445734500885,1.2650580406189,0.0384909026324749,4.53090381622314,4.42052745819092,1.66065776348114,1.54160535335541,1.14978766441345,1.25360572338104,2.07116436958313,2.24553608894348,31.701343536377,57.4527702331543,56.1682472229004,2012-02-08 12:46:28
1.00600004196167,49,-3.8394033908844,0.341121107339859,0.477422386407852,1.14237475395203,22.5075035095215,33.0083351135254,13.8790979385376,3.12465286254883,-9.28449535369873,0.682095170021057,0.877707183361053,2.18448162078857,59.1606941223145,261.773498535156,143.272857666016,30.5906543731689,0.191930145025253,0.537221431732178,0.694125115871429,1.7217675447464,65.7685241699219,120.984878540039,26.7399463653564,10.2263479232788,2012-02-08 12:46:29
1.0090000629425,37,-3.73951411247253,0.729173481464386,1.19932556152344,3.78854727745056,10.189019203186,7.97834300994873,9.42319202423096,7.40756177902222,-9.62005805969238,0.759316980838776,0.986785650253296,2.40236401557922,0.196775987744331,2.89129662513733,13.7215547561646,10.2452516555786,0.78082138299942,1.08181166648865,1.19821608066559,2.3376932144165,36.7267837524414,52.2235908508301,23.7326583862305,13.0850229263306,2012-02-08 12:46:30
1.01799988746643,35,-3.64555191993713,0.741046488285065,0.98452216386795,2.51778721809387,7.90144491195679,17.5653800964355,22.8981285095215,7.96009683609009,-9.01119041442871,0.89415830373764,1.12693190574646,2.54104328155518,7.39266300201416,17.6854209899902,25.5042552947998,15.3361806869507,0.609133064746857,0.993585765361786,1.15011501312256,2.05071067810059,0.174294784665108,29.6280918121338,63.1466102600098,11.6335306167603,2012-02-08 12:46:31
1,41,-4.02287912368774,0.559194922447205,0.668810307979584,1.63555765151978,7.97374677658081,14.1382703781128,15.5889291763306,29.2648010253906,-9.25580310821533,1.07430946826935,1.30393445491791,2.64946937561035,4.01391458511353,22.8091869354248,121.042251586914,91.7477035522461,0.784292817115784,1.21574449539185,1.45719945430756,3.04030060768127,0.729379236698151,62.3784828186035,293.741394042969,117.904731750488,2012-02-08 12:46:32
1.01800012588501,41,-3.93270564079285,0.601583421230316,0.762912034988403,1.77476418018341,27.0414638519287,43.0712661743164,28.9786548614502,37.2203140258789,-9.40696907043457,0.474604547023773,0.658465921878815,2.1304349899292,0.14366115629673,20.6689300537109,52.1916809082031,32.8015480041504,0.254255354404449,0.964855313301086,1.21985971927643,3.79589128494263,61.7477989196777,87.5232543945312,23.2948780059814,134.876022338867,2012-02-08 12:46:33
1.00399994850159,49,-4.05615043640137,0.84149307012558,1.11972069740295,3.19316530227661,53.1218643188477,107.474975585938,59.1369934082031,25.4827613830566,-9.41178226470947,0.945776045322418,1.2756644487381,4.09657764434814,0.543145596981049,20.7931079864502,76.530632019043,70.1222152709961,0.806346774101257,1.1641036272049,1.37657046318054,3.29283285140991,213.22151184082,244.624053955078,33.9253234863281,23.5517120361328,2012-02-08 12:46:34
1.01699995994568,20,-4.01042938232422,0.625173926353455,0.727911531925201,1.12825489044189,0.279461890459061,0.704936146736145,2.17487668991089,1.25471234321594,-8.31162643432617,0.338476479053497,0.425957292318344,1.16159760951996,0.348088324069977,0.696479737758636,1.53116059303284,1.06832838058472,0.81199061870575,0.53661984205246,0.575121343135834,0.83160388469696,0.0236213356256485,0.16965839266777,1.46274840831757,1.16832947731018,2012-02-08 12:46:35
1.01699995994568,44,-4.06396484375,0.612652242183685,0.715822279453278,1.41616940498352,5.61316061019897,29.7940807342529,56.2358131408691,10.9791393280029,-8.9577054977417,0.587659418582916,0.674155354499817,1.28890597820282,6.19200944900513,33.5118751525879,64.664306640625,8.16395473480225,0.638769507408142,0.640937507152557,0.911166310310364,3.08062529563904,0.0813761353492737,29.8029518127441,38.1392059326172,32.6357650756836,2012-02-08 12:46:36
1.17300009727478,44,-4.8676643371582,0.82501482963562,0.967186510562897,1.72240447998047,135.488296508789,236.463333129883,71.3212661743164,13.2959156036377,-8.85830211639404,0.516905725002289,0.666686952114105,1.64461982250214,29.2940883636475,89.8581161499023,40.5075416564941,9.96391105651855,0.0702066943049431,0.200884357094765,0.245370700955391,0.567225515842438,0.258076369762421,2.98692393302917,6.36221933364868,1.25636088848114,2012-02-08 12:46:37
1.00600004196167,49,-5.96244287490845,0.417883396148682,0.464186161756516,0.853178679943085,9.12248229980469,63.660099029541,20.352725982666,4.99390316009521,-7.99021816253662,0.233015209436417,0.319196969270706,0.963253080844879,4.33926248550415,24.9093990325928,21.4031028747559,8.91784191131592,-0.0472320280969143,0.156922727823257,0.193165272474289,0.419884711503983,0.829679787158966,6.52019786834717,1.67321157455444,0.73602569103241,2012-02-08 12:46:38
1.0090000629425,44,-4.03967094421387,0.695927739143372,0.928158700466156,2.12871146202087,34.4494361877441,47.8045082092285,12.4366579055786,3.25907707214355,-9.3250093460083,0.310966044664383,0.370719313621521,0.812837779521942,6.93760108947754,5.7165732383728,11.1712493896484,5.55170917510986,-0.33030578494072,0.417471498250961,0.522619962692261,1.09522449970245,13.184473991394,13.402063369751,2.92285919189453,0.176703825592995,2012-02-08 12:46:39
1.01799988746643,37,-4.57519960403442,0.731222212314606,0.903770685195923,2.14235544204712,19.8995094299316,46.4759330749512,21.5516910552979,15.6891002655029,-8.7300386428833,0.394558191299438,0.550685524940491,1.24756491184235,0.00904564559459686,3.01678085327148,3.18760108947754,4.30773210525513,0.672418117523193,0.825076639652252,0.963041603565216,2.08325052261353,31.6235027313232,69.9966812133789,36.2333946228027,17.3082618713379,2012-02-08 12:46:40
1.01099991798401,38,-4.09659910202026,0.267197251319885,0.317832976579666,0.640012979507446,6.81748962402344,12.1175632476807,7.10442495346069,1.3933744430542,-9.1041841506958,0.155928507447243,0.20246222615242,0.457299470901489,1.48664140701294,2.20833468437195,3.18226528167725,1.01027846336365,-0.807758271694183,0.165110290050507,0.244695290923119,0.582205295562744,3.20365738868713,3.86948704719543,3.05151915550232,2.69103336334229,2012-02-08 12:46:41
1.00400018692017,40,-4.83639430999756,0.175379648804665,0.201691657304764,0.400356590747833,0.537210166454315,1.59083127975464,2.4112389087677,0.675151646137238,-8.73380184173584,0.10806941986084,0.125045508146286,0.202017277479172,0.240743473172188,0.463043391704559,0.240938812494278,0.578518152236938,0.331955105066299,0.269977062940598,0.307345390319824,0.714414417743683,9.64859390258789,12.1871109008789,2.15278625488281,0.512970328330994,2012-02-08 12:46:42
1.00999999046326,49,-4.98598098754883,0.396783322095871,0.557782173156738,1.75118744373322,9.05340099334717,43.5975112915039,85.9515151977539,34.9865913391113,-8.50616836547852,0.296168088912964,0.354602545499802,0.71968799829483,0.00993690732866526,11.7348432540894,5.69999217987061,17.6973857879639,1.31529188156128,0.604736566543579,0.791623830795288,2.31557011604309,40.6598854064941,169.175201416016,54.1519813537598,41.4433135986328,2012-02-08 12:46:43
1.0019998550415,37,-4.42465448379517,0.269242346286774,0.34543189406395,0.988616168498993,3.36439228057861,3.98741936683655,0.448921203613281,0.370466142892838,-8.97043418884277,0.175860524177551,0.248704344034195,0.821107625961304,0.593779146671295,1.13081014156342,0.475110113620758,0.125209480524063,-0.202759101986885,0.400303304195404,0.491550475358963,1.5070436000824,14.0256261825562,18.2747859954834,3.12633037567139,2.21041989326477,2012-02-08 12:46:44
1.0090000629425,42,-4.96123075485229,0.303205609321594,0.363544642925262,0.773791372776031,2.34862875938416,11.8509483337402,7.52756452560425,2.75427389144897,-8.70853805541992,0.165590167045593,0.205009087920189,0.578359246253967,0.209739521145821,1.25875616073608,4.09972476959229,2.28153800964355,0.541467189788818,0.326287925243378,0.399688154459,0.855279982089996,17.8072662353516,23.6851272583008,6.1592845916748,0.587618172168732,2012-02-08 12:46:45
1.01600003242493,36,-3.89323997497559,0.376466393470764,0.479596585035324,1.010085105896,10.6468276977539,15.1113233566284,8.05262470245361,0.789423584938049,-8.95946407318115,0.24731519818306,0.325358837842941,0.663038313388824,0.609407603740692,1.5805332660675,2.91806721687317,1.05040144920349,1.04577028751373,0.196405410766602,0.234747618436813,0.447564601898193,2.14123630523682,3.30128741264343,1.92292487621307,0.54640531539917,2012-02-08 12:46:46
1.00699996948242,45,-2.90298628807068,0.506255567073822,0.614029884338379,1.25546908378601,52.7115592956543,67.8217544555664,24.1442890167236,2.03760266304016,-9.46886539459229,0.438902050256729,0.533950090408325,1.32825589179993,7.05086278915405,6.61186933517456,11.4402532577515,14.8090648651123,-0.727653384208679,0.643490552902222,0.784051299095154,1.65928518772125,81.5340347290039,74.6912307739258,17.2167892456055,12.1677722930908,2012-02-08 12:46:47
1.00200009346008,30,-2.57097673416138,0.338983178138733,0.441285312175751,1.10978591442108,0.326818346977234,0.442590475082397,0.342520087957382,0.761275172233582,-9.65137767791748,0.510599613189697,0.649153232574463,1.67530238628387,1.83852434158325,2.49117922782898,0.640956044197083,1.99866020679474,-1.38012254238129,0.309410691261292,0.378304004669189,0.821143448352814,0.0635350719094276,0.996181607246399,2.70898985862732,0.771099805831909,2012-02-08 12:46:48
1.00399994850159,41,-3.86405920982361,0.72309023141861,0.777674674987793,1.37269186973572,73.6478652954102,123.607032775879,38.9446640014648,13.6233930587769,-9.07019424438477,0.26356029510498,0.301568299531937,0.540322244167328,10.2188806533813,15.4531364440918,4.03898000717163,0.529695153236389,-0.91345351934433,0.348559021949768,0.431180238723755,1.10671615600586,0.63803243637085,10.1617956161499,10.1769971847534,0.478643327951431,2012-02-08 12:46:49
1.03399991989136,35,-6.73380613327026,0.798477470874786,0.889689803123474,1.45782852172852,32.8769340515137,42.4415054321289,7.94047546386719,2.89414048194885,-7.38580799102783,0.505062460899353,0.63041752576828,1.11655688285828,13.0624952316284,22.4598140716553,29.2682838439941,7.69806814193726,-2.25805115699768,0.529062747955322,0.595424115657806,1.19388961791992,6.08977460861206,9.87289047241211,3.79845929145813,7.47548818588257,2012-02-08 12:46:50
1.09299993515015,50,-6.72010469436646,0.225458800792694,0.269215762615204,0.664302229881287,0.732104182243347,4.56631565093994,3.52999472618103,0.787513673305511,-6.92859411239624,0.24089840054512,0.334435492753983,0.857885777950287,0.0348810851573944,19.4905605316162,36.934211730957,2.35762000083923,-2.22061777114868,0.320010602474213,0.371360957622528,0.661360502243042,24.8951587677002,25.3593864440918,1.03587675094604,4.70677614212036,2012-02-08 12:46:51
1.01300001144409,31,-7.3758659362793,0.427022933959961,0.584132552146912,1.37419605255127,0.155494600534439,0.623019337654114,0.938847541809082,0.150789052248001,-6.42778444290161,0.766673803329468,0.998461782932281,2.54435110092163,0.173455104231834,1.97936153411865,2.38007426261902,11.6393508911133,-2.88884925842285,0.417859226465225,0.520702242851257,1.10245728492737,0.00248135719448328,0.994642853736877,6.29286432266235,8.89911937713623,2012-02-08 12:46:52
1.00600004196167,45,-6.58963298797607,0.598588168621063,0.734339773654938,1.37249493598938,52.8752212524414,142.215072631836,88.6083221435547,10.2721843719482,-7.37634420394897,0.547622680664062,0.585607647895813,0.910275161266327,57.8957061767578,99.3271636962891,20.2878265380859,4.62387609481812,-2.23242926597595,0.689245223999023,0.883380591869354,2.18339610099792,105.614273071289,197.819854736328,114.465255737305,24.7639198303223,2012-02-08 12:46:53
1.00500011444092,37,-3.67192769050598,0.835391879081726,1.0173157453537,2.00612235069275,58.5264892578125,78.03857421875,19.6507873535156,1.5667976140976,-9.27073001861572,0.411148548126221,0.481108009815216,1.08217680454254,13.0216407775879,18.0933246612549,5.52266836166382,1.35190427303314,-0.0376363322138786,0.335403174161911,0.44279870390892,1.06070852279663,0.631510555744171,1.95177412033081,2.89061903953552,2.32783937454224,2012-02-08 12:46:54
1.01199984550476,44,-2.91859269142151,0.5879026055336,0.699576795101166,1.44536662101746,10.0690774917603,17.0816059112549,20.1029090881348,23.6215038299561,-8.85429000854492,0.659254014492035,0.765621900558472,1.41104304790497,1.42429447174072,1.35196793079376,34.2702751159668,20.7721424102783,1.32077741622925,0.745143294334412,0.919212698936462,1.98406362533569,3.75941872596741,54.9952430725098,60.9876441955566,45.2822151184082,2012-02-08 12:46:55
