"diffSecs","N.samples","x.mean","x.absolute.deviation","x.standard.deviation","x.max.deviation","x.PSD.1","x.PSD.3","x.PSD.6","x.PSD.10","y.mean","y.absolute.deviation","y.standard.deviation","y.max.deviation","y.PSD.1","y.PSD.3","y.PSD.6","y.PSD.10","z.mean","z.absolute.deviation","z.standard.deviation","z.max.deviation","z.PSD.1","z.PSD.3","z.PSD.6","z.PSD.10","time"
3.74300003051758,24,-5.9505934715271,0.0811772346496582,0.0961676463484764,0.174476504325867,0.0846368670463562,0.149785920977592,0.140304565429688,0.0628736615180969,0.556935966014862,0.0699064284563065,0.0791133493185043,0.145056679844856,0.0461134761571884,0.0846783518791199,0.099035769701004,0.049334853887558,7.88046026229858,0.06612678617239,0.0788564756512642,0.16099214553833,0.0309166479855776,0.0619797520339489,0.103694088757038,0.0662085115909576,2012-01-17 17:06:03
0.472000122070312,99,-5.92727756500244,0.107668027281761,0.129778534173965,0.24922776222229,15.6726694107056,12.6175394058228,0.334390848875046,0.0717760920524597,0.553035616874695,0.0872242525219917,0.10336945950985,0.251109659671783,8.17253589630127,8.52221870422363,0.652189016342163,0.589968919754028,7.86057472229004,0.104362025856972,0.12475760281086,0.23100121319294,14.5127658843994,11.9531478881836,0.210622489452362,0.062763586640358,2012-01-17 17:06:04
0.754999876022339,99,-5.79166889190674,0.0302393864840269,0.038501963019371,0.102127678692341,0.0509722530841827,0.63161039352417,0.211532384157181,0.203026220202446,0.56571489572525,0.0264292266219854,0.0350034646689892,0.101137258112431,0.0419447869062424,0.10606786608696,0.231823027133942,0.192149236798286,7.97013187408447,0.0384521409869194,0.0480590499937534,0.105198621749878,0.0398228205740452,0.206709772348404,0.12904816865921,0.425122618675232,2012-01-17 17:06:04
1.00099992752075,35,-5.74949884414673,0.0102469306439161,0.0129616046324372,0.0364246368408203,0.000104695638583507,0.000132246510474943,0.00150868343189359,0.00435210391879082,0.578312158584595,0.0244005508720875,0.0308768879622221,0.0885400325059891,0.00638846214860678,0.0196931026875973,0.0484161861240864,0.0704888701438904,7.97560787200928,0.0352237932384014,0.0413789637386799,0.0812550932168961,0.00111317192204297,0.0169314425438643,0.0686328113079071,0.0659853890538216,2012-01-17 17:06:05
1.06200003623962,50,-5.74198961257935,0.0249325092881918,0.0282350871711969,0.0635471269488335,0.099394902586937,0.182349890470505,0.0439866781234741,0.012514740228653,0.604285776615143,0.0180520750582218,0.0244096945971251,0.0747266784310341,0.00499026104807854,0.00432478357106447,0.0305724628269672,0.149785161018372,7.97241401672363,0.0263446029275656,0.0315011665225029,0.0682544261217117,0.0801378488540649,0.182275667786598,0.0596184991300106,0.0505055636167526,2012-01-17 17:06:07
1.00100016593933,49,-5.76550960540771,0.0364410541951656,0.0425315871834755,0.0874595567584038,0.330470710992813,0.533440232276917,0.102736130356789,0.0466204695403576,0.589599788188934,0.0238937474787235,0.0322299264371395,0.0796539857983589,0.0168841984122992,0.0222043376415968,0.16070893406868,0.103731408715248,8.0320463180542,0.037315096706152,0.0467573143541813,0.117280058562756,0.167014330625534,0.100078053772449,0.139387905597687,0.0736290886998177,2012-01-17 17:06:08
1.00499987602234,42,-5.77938556671143,0.0155660845339298,0.0184915643185377,0.0424954108893871,0.000221945927478373,0.00510149449110031,0.00276889279484749,0.0104760583490133,0.586764574050903,0.025917574763298,0.0343677215278149,0.0800876319408417,3.14568060275633e-05,0.070993535220623,0.0840862840414047,0.0343735665082932,7.98237943649292,0.0385037511587143,0.0462200157344341,0.098299615085125,0.0747417658567429,0.0689831525087357,0.0275028757750988,0.0649414882063866,2012-01-17 17:06:09
1.00999999046326,40,-5.75699377059937,0.0172351785004139,0.0229934174567461,0.0681561231613159,0.0107596106827259,0.0230965074151754,0.0107947485521436,0.00260483147576451,0.589134514331818,0.0220404397696257,0.0278574042022228,0.0679110586643219,0.0117490952834487,0.0187197122722864,0.026203628629446,0.0353285297751427,7.98310327529907,0.0377799533307552,0.0420056693255901,0.0789435282349586,0.0590931437909603,0.13250295817852,0.0576893836259842,0.0599714368581772,2012-01-17 17:06:10
1.01099991798401,49,-5.75510263442993,0.0185268875211477,0.0245866309851408,0.0574392676353455,0.00349079235456884,0.0482714921236038,0.0711379423737526,0.0458663776516914,0.582194805145264,0.0358038656413555,0.0417799800634384,0.0748507678508759,1.99865753529593e-05,0.144003763794899,0.227671176195145,0.0780579522252083,8.01883697509766,0.0280025750398636,0.0377062857151031,0.0950644463300705,0.0955167189240456,0.161201894283295,0.153505608439445,0.103282101452351,2012-01-17 17:06:11
1.00400018692017,29,-5.76597213745117,0.0267263147979975,0.0304156430065632,0.0585020817816257,0.000626266002655029,0.000917751807719469,0.00254617398604751,0.0272880494594574,0.563375115394592,0.0172345191240311,0.0253101289272308,0.073042631149292,0.00298082968220115,0.00366208399645984,0.00281078252010047,0.00304771983064711,7.98126029968262,0.0280555803328753,0.037913091480732,0.0967139676213264,0.0170253813266754,0.0307954587042332,0.0318586453795433,0.0115588344633579,2012-01-17 17:06:12
1.00599980354309,47,-5.79969453811646,0.038107804954052,0.0474277883768082,0.103908576071262,0.138439267873764,0.182447955012321,0.0659256502985954,0.0480762533843517,0.6080122590065,0.0296286102384329,0.0369709022343159,0.0882598385214806,0.0308989174664021,0.0903460383415222,0.0470895357429981,0.0485020987689495,7.96237373352051,0.0390579365193844,0.0465017668902874,0.0986921116709709,0.135356158018112,0.110155932605267,0.0706982314586639,0.12718003988266,2012-01-17 17:06:13
1.01000022888184,45,-5.74277400970459,0.0284176170825958,0.0336807258427143,0.0823758840560913,0.0153064448386431,0.0482247732579708,0.208296522498131,0.0217582993209362,0.589052736759186,0.0185381956398487,0.0228728428483009,0.0594936832785606,0.00326874549500644,0.00182641751598567,0.00278474390506744,0.025153087452054,8.0000467300415,0.0246495585888624,0.0316853262484074,0.0708255022764206,0.00214269035495818,0.0860579460859299,0.101291455328465,0.0142552405595779,2012-01-17 17:06:14
1.01899981498718,34,-5.74323558807373,0.0323383174836636,0.0387830846011639,0.0847988575696945,0.059400137513876,0.101837575435638,0.0479233674705029,0.00583909312263131,0.596475064754486,0.0349171049892902,0.0436284467577934,0.0801837593317032,0.0305767469108105,0.0503102950751781,0.0836580023169518,0.0607955828309059,7.99645757675171,0.0264336299151182,0.0353676937520504,0.0940290093421936,0.0195284150540829,0.0244852639734745,0.019965996965766,0.0101514542475343,2012-01-17 17:06:15
1.00999999046326,44,-5.72552347183228,0.0252563711255789,0.0300771743059158,0.0670865327119827,0.0953653901815414,0.111139208078384,0.0605507381260395,0.0349532291293144,0.642112672328949,0.0378792062401772,0.046351745724678,0.103192679584026,0.00617034500464797,0.115239031612873,0.220230281352997,0.024993259459734,8.03454303741455,0.0281738433986902,0.035701647400856,0.0755564272403717,0.000167789752595127,0.0371890142560005,0.192312777042389,0.131719410419464,2012-01-17 17:06:16
1.00600004196167,45,-5.7403769493103,0.0200007632374763,0.0264885649085045,0.0623269937932491,0.0645689517259598,0.0974025800824165,0.0829558968544006,0.0240788571536541,0.620216131210327,0.0361175276339054,0.0439615845680237,0.090657040476799,0.000218819011934102,0.0801430866122246,0.222152993083,0.160198450088501,8.01944255828857,0.040369339287281,0.0469697713851929,0.100464291870594,0.00411311350762844,0.125862255692482,0.209201261401176,0.107369475066662,2012-01-17 17:06:17
1.04800009727478,49,-5.73148632049561,0.0226440709084272,0.0264377649873495,0.0544370338320732,0.00478264130651951,0.00943386647850275,0.0202075038105249,0.0482138320803642,0.625624239444733,0.0320707261562347,0.0402138344943523,0.0804545432329178,0.0172683391720057,0.236417919397354,0.13912358880043,0.128020539879799,8.0250415802002,0.0383524484932423,0.0459710881114006,0.104671508073807,0.0156618840992451,0.263267368078232,0.268796056509018,0.0616202279925346,2012-01-17 17:06:18
1.04200005531311,39,-5.7376446723938,0.0185301713645458,0.0238549876958132,0.0497878864407539,9.94689435174223e-06,0.0145756397396326,0.0387595705688,0.0556745864450932,0.629134297370911,0.0253386814147234,0.0329796150326729,0.0897685885429382,0.000151835367432795,0.00283807585947216,0.00493646133691072,0.0393197499215603,8.02561092376709,0.0357448570430279,0.0414049401879311,0.0746819898486137,0.000221697584493086,0.0876927226781845,0.156905189156532,0.0265415962785482,2012-01-17 17:06:19
1.01399993896484,47,-5.68326616287231,0.036935843527317,0.0473929531872272,0.122895948588848,0.10296093672514,0.23829373717308,0.34150817990303,0.0649301409721375,0.639936089515686,0.021859647706151,0.0263348463922739,0.0563360713422298,0.0331769436597824,0.0590819455683231,0.0390678383409977,0.0378000736236572,8.06899452209473,0.0360570698976517,0.0451733320951462,0.109751515090466,0.000123226243886165,0.0183432642370462,0.162327527999878,0.0552418529987335,2012-01-17 17:06:20
1.26600003242493,48,-5.68295335769653,0.0294200070202351,0.0344980359077454,0.0637432113289833,0.0065813004039228,0.0338995046913624,0.232746794819832,0.0942506790161133,0.612915635108948,0.0375921614468098,0.0443563498556614,0.10296980291605,0.0235017612576485,0.0349800661206245,0.272211939096451,0.161618798971176,8.05698013305664,0.0427339971065521,0.0513422265648842,0.131572976708412,0.0131766507402062,0.197137236595154,0.168174982070923,0.0702119320631027,2012-01-17 17:06:21
1.0149998664856,49,-5.6860556602478,0.024220509454608,0.031180128455162,0.0864585340023041,0.00828977581113577,0.0229118932038546,0.182440921664238,0.148790538311005,0.631228029727936,0.0447160340845585,0.0510412715375423,0.121282212436199,0.011336762458086,0.0778742358088493,0.49493744969368,0.0594339556992054,8.04525470733643,0.0298978351056576,0.0383572168648243,0.0844579041004181,0.0190684217959642,0.149256348609924,0.293460339307785,0.0993813574314117,2012-01-17 17:06:22
1.00500011444092,49,-5.67404747009277,0.0336309559643269,0.0398677252233028,0.0824562013149261,0.00195813598111272,0.10849978774786,0.0814823806285858,0.11846873909235,0.641034662723541,0.0248495042324066,0.0306736920028925,0.0918622761964798,0.00113727711141109,0.0469419583678246,0.0720922574400902,0.0819934085011482,8.04805660247803,0.0263525880873203,0.0364456810057163,0.120882585644722,1.5378747775685e-05,0.160707667469978,0.119161695241928,0.0781231746077538,2012-01-17 17:06:23
1.03799986839294,40,-5.65573978424072,0.0236952770501375,0.0285057332366705,0.0659496039152145,8.45000831759535e-05,0.00457659317180514,0.00997193157672882,0.0342489406466484,0.620025455951691,0.0323374308645725,0.0381381288170815,0.0860533341765404,0.0233752280473709,0.0200358182191849,0.0485998280346394,0.0420948192477226,8.04758167266846,0.0388589575886726,0.0494089126586914,0.131164446473122,0.0977103188633919,0.102934449911118,0.0714084580540657,0.0289438683539629,2012-01-17 17:06:24
1.00699996948242,52,-5.71425914764404,0.01656698808074,0.0197579897940159,0.0460159219801426,0.00314404699020088,0.00864398665726185,0.0221386272460222,0.0545866936445236,0.638940930366516,0.041431650519371,0.0496846362948418,0.109381876885891,0.0408270619809628,0.195350036025047,0.248818621039391,0.102294519543648,8.04899597167969,0.0245167016983032,0.030507318675518,0.0859963223338127,8.64636433561827e-08,0.0129313673824072,0.0556050464510918,0.0349207930266857,2012-01-17 17:06:25
1.01500010490417,49,-5.67724943161011,0.0204955041408539,0.0252821147441864,0.058039266616106,0.00918975751847029,0.0400699302554131,0.026820957660675,0.0528830476105213,0.652842700481415,0.0178978461772203,0.0214304104447365,0.0448304265737534,0.000670827459543943,0.0062158708460629,0.0296623148024082,0.0123105589300394,8.03604888916016,0.0279047098010778,0.038522981107235,0.12308407574892,0.00573385320603848,0.0353533774614334,0.0310542304068804,0.125808492302895,2012-01-17 17:06:26
1.02300000190735,36,-5.69657373428345,0.0293595176190138,0.0343450084328651,0.0697363913059235,0.0171841606497765,0.0517441481351852,0.0320846401154995,0.00657430710271001,0.647783696651459,0.0211872030049562,0.0252090506255627,0.0593847036361694,0.0022374982945621,0.00675782281905413,0.021468261256814,0.00791307259351015,8.03110122680664,0.0349285490810871,0.0448769144713879,0.0986118465662003,3.2986677979352e-05,0.00567064015194774,0.0558837540447712,0.0186832696199417,2012-01-17 17:06:27
1.00300002098083,50,-5.69511365890503,0.0241400804370642,0.0294075962156057,0.0562901608645916,0.0570981614291668,0.0442799367010593,0.0928573757410049,0.0222114194184542,0.646258234977722,0.0243989508599043,0.0315188840031624,0.079433873295784,0.00676220655441284,0.00396762089803815,0.062176775187254,0.136542096734047,8.05459308624268,0.023081049323082,0.0271495599299669,0.055506344884634,0.000100076504168101,0.0171435382217169,0.0569589994847775,0.0685562416911125,2012-01-17 17:06:28
1.01999998092651,40,-5.6721658706665,0.0213784594088793,0.0244969613850117,0.0627624541521072,0.00585445668548346,0.00481080543249846,0.00282258563674986,0.0156888253986835,0.616838276386261,0.0411879345774651,0.0495114475488663,0.116699151694775,0.0183033123612404,0.12183440476656,0.254557877779007,0.0159518979489803,8.03752994537354,0.0420704372227192,0.0519289299845695,0.133370399475098,0.0392592400312424,0.090882197022438,0.110334627330303,0.0245414823293686,2012-01-17 17:06:29
1.01200008392334,36,-5.67941236495972,0.0261057130992413,0.0322903543710709,0.0672847926616669,0.0323988534510136,0.0561312548816204,0.0232503414154053,0.00384147395379841,0.630349636077881,0.0308122541755438,0.0385819040238857,0.105149075388908,0.0384971685707569,0.0524524599313736,0.0111267399042845,0.0299714654684067,8.05262088775635,0.0264235213398933,0.0339046344161034,0.0770918130874634,0.0317806527018547,0.0573184564709663,0.0232850033789873,0.0409273207187653,2012-01-17 17:06:30
1,49,-5.64722919464111,0.0306493025273085,0.0359909944236279,0.0700473785400391,0.0321074463427067,0.165387883782387,0.158866614103317,0.0120440758764744,0.65764594078064,0.0243266969919205,0.0286019053310156,0.0582395158708096,0.00959332846105099,0.153254747390747,0.0915661379694939,0.0154157904908061,8.09088611602783,0.0360819660127163,0.0431786477565765,0.0878599137067795,0.0344603545963764,0.362075328826904,0.139120206236839,0.0482223518192768,2012-01-17 17:06:31
1.00099992752075,43,-5.66892766952515,0.0280037969350815,0.0317521505057812,0.059523981064558,0.0252271946519613,0.169143944978714,0.111106649041176,0.0199220925569534,0.670957326889038,0.024269999936223,0.0295513663440943,0.0629450380802155,0.0162194296717644,0.0629207268357277,0.0255435779690742,0.0258012767881155,8.07885456085205,0.0250128339976072,0.0311021078377962,0.0766290202736855,0.00784347485750914,0.00998520851135254,0.0370674729347229,0.070811353623867,2012-01-17 17:06:32
1.26799988746643,43,-5.63449048995972,0.0162931196391582,0.0199862848967314,0.0447000004351139,0.0214211158454418,0.0715458318591118,0.0356613658368587,0.0129310041666031,0.666167974472046,0.022625831887126,0.0263645555824041,0.0581557378172874,0.000563157198484987,0.0117038646712899,0.00934448279440403,0.0197620484977961,8.03415489196777,0.0183085426688194,0.0217843241989613,0.046524491161108,0.00339306890964508,0.00460535055026412,0.00556374015286565,0.0244539678096771,2012-01-17 17:06:33
1.01800012588501,51,-5.63863134384155,0.0178864542394876,0.0212283376604319,0.0488408766686916,0.0133446082472801,0.0533039011061192,0.0355501733720303,0.0251950938254595,0.663198709487915,0.0265130158513784,0.0326673351228237,0.0723000019788742,0.0358943790197372,0.139594942331314,0.114493370056152,0.0803958475589752,8.06856536865234,0.0527322255074978,0.0588910058140755,0.105565525591373,0.69708251953125,0.713508903980255,0.108532018959522,0.0570909008383751,2012-01-17 17:06:34
1.02499985694885,47,-5.64007520675659,0.0179174151271582,0.0222172494977713,0.0502850748598576,0.00432817777618766,0.0339409336447716,0.0473335608839989,0.0173118598759174,0.676032900810242,0.0199418123811483,0.0264074802398682,0.0778272449970245,0.000587910297326744,0.0404591672122478,0.0193595252931118,0.0766259431838989,8.09570217132568,0.021300483494997,0.0315253287553787,0.113089539110661,0.0486930198967457,0.101187460124493,0.122017972171307,0.0857022404670715,2012-01-17 17:06:35
1.0460000038147,46,-5.61046934127808,0.0205865148454905,0.0283507537096739,0.069712370634079,5.98543665546458e-05,0.0383648127317429,0.0789462551474571,0.052011352032423,0.654700458049774,0.0414697043597698,0.050428319722414,0.120024852454662,0.0370972566306591,0.0554701499640942,0.0689684301614761,0.152697876095772,8.08494281768799,0.0266767423599958,0.0340116582810879,0.0827173143625259,0.0223020073026419,0.0454797223210335,0.0305916629731655,0.0655300319194794,2012-01-17 17:06:36
1.01400017738342,31,-5.6271185874939,0.0319404378533363,0.0382186323404312,0.0765550062060356,0.000843105488456786,0.00567414192482829,0.0274864211678505,0.0162996184080839,0.666219472885132,0.0324099063873291,0.0386638641357422,0.0778205022215843,0.00381830218248069,0.00984316412359476,0.0369127206504345,0.0445522777736187,8.08067989349365,0.0468192100524902,0.0546297766268253,0.107873007655144,0.0383067801594734,0.0664552077651024,0.0512774586677551,0.00447256257757545,2012-01-17 17:06:37
1.01699995994568,48,-5.60940361022949,0.0236993636935949,0.0280961897224188,0.0588397979736328,0.0726890489459038,0.0780016034841537,0.0165193062275648,0.0441502071917057,0.684218108654022,0.0210434403270483,0.0253396090120077,0.051280602812767,0.0117829628288746,0.0381851829588413,0.0538019202649593,0.022442189976573,8.10540008544922,0.0380265191197395,0.046774547547102,0.103174589574337,0.207972839474678,0.266036629676819,0.1525819003582,0.049017421901226,2012-01-17 17:06:39
1.00600004196167,44,-5.58399534225464,0.0312029235064983,0.0348175130784512,0.0628516003489494,0.0147737413644791,0.0205437019467354,0.066722184419632,0.130131006240845,0.701398313045502,0.0387707129120827,0.0445728972554207,0.0929403081536293,0.183373108506203,0.376925587654114,0.0996154621243477,0.0675516352057457,8.10475063323975,0.0258135236799717,0.0322861075401306,0.0829113647341728,0.015132344327867,0.018003948032856,0.0165684055536985,0.11701688170433,2012-01-17 17:06:40
1.01600003242493,48,-5.58836030960083,0.0275215655565262,0.0330134145915508,0.060269933193922,0.0384569689631462,0.0830905064940453,0.0160723589360714,0.125827714800835,0.639270961284637,0.0180810168385506,0.0228812713176012,0.0570011511445045,0.00653699040412903,0.0498932860791683,0.082741305232048,0.05677754804492,8.13155174255371,0.033020868897438,0.0413480699062347,0.0864210948348045,0.000768889382015914,0.259462952613831,0.430109947919846,0.0278018694370985,2012-01-17 17:06:41
1.00799989700317,46,-5.60044956207275,0.0380586348474026,0.0427865050733089,0.0874069482088089,0.244320273399353,0.361758887767792,0.0438765585422516,0.00562307192012668,0.696272134780884,0.0311254523694515,0.0426482670009136,0.137293100357056,0.00296127796173096,0.0127022778615355,0.114496909081936,0.0567425303161144,8.1032772064209,0.0477173142135143,0.0563674531877041,0.110857665538788,0.0940646827220917,0.537734687328339,0.302279561758041,0.103188589215279,2012-01-17 17:06:42
1.03699994087219,35,-5.54299879074097,0.0258895102888346,0.0316328890621662,0.0708879455924034,0.0129792476072907,0.024228623136878,0.0346221402287483,0.0218482576310635,0.68422394990921,0.0234719254076481,0.029287563636899,0.0664050132036209,0.0153472572565079,0.0218376088887453,0.0132826743647456,0.0116201173514128,8.1064567565918,0.0218710880726576,0.0304831024259329,0.0846179947257042,0.000688744417857379,0.0125856203958392,0.0177994277328253,0.0108627760782838,2012-01-17 17:06:43
1.01300001144409,50,-5.50682640075684,0.0286510679870844,0.0349320136010647,0.0837491154670715,0.0239758100360632,0.0793919488787651,0.170635312795639,0.142777189612389,0.71804291009903,0.0273880045861006,0.0352652296423912,0.0806106775999069,2.27855725825066e-05,0.143581315875053,0.0779569372534752,0.0326588042080402,8.17050838470459,0.0336720757186413,0.0405933484435081,0.0996363237500191,0.00609716307371855,0.0644722282886505,0.278883367776871,0.208258077502251,2012-01-17 17:06:44
1.01399993896484,47,-5.55807542800903,0.0247807260602713,0.0304259788244963,0.0709415972232819,0.000771595980040729,0.0128158275038004,0.100615710020065,0.032417319715023,0.692099094390869,0.0315020270645618,0.0367346256971359,0.0742801427841187,0.12260577827692,0.196949332952499,0.024055128917098,0.021029019728303,8.16038513183594,0.0456193387508392,0.0531240291893482,0.0968144983053207,0.000301581283565611,0.0398266315460205,0.0971917435526848,0.164199486374855,2012-01-17 17:06:45
1.01900005340576,48,-5.5622091293335,0.0238270536065102,0.0307945087552071,0.0900984406471252,0.0140111530199647,0.0387521125376225,0.0909991562366486,0.0463137999176979,0.707100331783295,0.0445044822990894,0.0533103458583355,0.097044974565506,0.171716839075089,0.455697685480118,0.299380749464035,0.0239780694246292,8.11357307434082,0.0395503602921963,0.0443336069583893,0.0819268822669983,0.169467493891716,0.240234583616257,0.0656959637999535,0.0645742192864418,2012-01-17 17:06:46
1.01999998092651,35,-5.55644798278809,0.015578537248075,0.0215108189731836,0.0745304077863693,0.00156003294978291,0.00426972331479192,0.0138261923566461,0.0187882538884878,0.724851489067078,0.025617366656661,0.0312207564711571,0.0596804395318031,0.0035895355977118,0.0199514664709568,0.0311538632959127,0.00503671262413263,8.13167476654053,0.0249929837882519,0.0298189576715231,0.0706086307764053,0.0239014476537704,0.0410873182117939,0.0264534298330545,0.0165712162852287,2012-01-17 17:06:47
1.00999999046326,44,-5.54142570495605,0.026613662019372,0.0307563599199057,0.0581711642444134,0.0102458503097296,0.029133228585124,0.0307166669517756,0.0950973033905029,0.702958464622498,0.0362886525690556,0.0480322316288948,0.130606755614281,0.218283697962761,0.179957509040833,0.0978162810206413,0.0618305206298828,8.14598274230957,0.0304026678204536,0.0380927361547947,0.11433731764555,0.0113572012633085,0.0636293664574623,0.0283337458968163,0.0830068737268448,2012-01-17 17:06:48
1.23300004005432,47,-5.5626654624939,0.0347693748772144,0.0429711192846298,0.105577796697617,0.0121379308402538,0.0144551629200578,0.0843571424484253,0.0776314288377762,0.68625682592392,0.0231914687901735,0.0307788401842117,0.0782445669174194,0.00270205945707858,0.0152363087981939,0.0452052056789398,0.0195517148822546,8.13430309295654,0.0370692312717438,0.0442679412662983,0.0934762135148048,0.00351190147921443,0.216877117753029,0.223973378539085,0.0117698991671205,2012-01-17 17:06:49
1.00699996948242,42,-5.53258514404297,0.0222594998776913,0.0270618293434381,0.0604742355644703,0.0243373494595289,0.0406112596392632,0.0272454489022493,0.0124032963067293,0.713550508022308,0.0251948684453964,0.0346261113882065,0.12515152990818,0.00708255637437105,0.0274778828024864,0.0264450013637543,0.0556467026472092,8.15819931030273,0.0341342464089394,0.0408737361431122,0.0873266384005547,0.0354190766811371,0.0740530267357826,0.0301657803356647,0.0222104769200087,2012-01-17 17:06:50
1.01100015640259,48,-5.53605794906616,0.0198175702244043,0.0243517328053713,0.0537321753799915,0.0244816113263369,0.0675431191921234,0.0575251281261444,0.0110236061736941,0.701788365840912,0.0247720088809729,0.031390618532896,0.0827435776591301,0.00252224295400083,0.0389334745705128,0.136020928621292,0.112151451408863,8.1301212310791,0.0220820065587759,0.0275896191596985,0.0788625702261925,0.000891253410372883,0.00790205225348473,0.0274193901568651,0.0177777502685785,2012-01-17 17:06:51
1.00599980354309,37,-5.59906721115112,0.0735534429550171,0.0902242437005043,0.186856508255005,0.625571310520172,1.07375061511993,0.597524225711823,0.220347553491592,0.659165918827057,0.0341692604124546,0.0415520295500755,0.109993495047092,0.0543260909616947,0.0960450693964958,0.0672862529754639,0.0202780328691006,8.12653255462646,0.0576938353478909,0.0740581825375557,0.20275953412056,0.401991724967957,0.628852188587189,0.286998927593231,0.139797776937485,2012-01-17 17:06:52
1.01900005340576,51,-6.13184785842896,0.103292100131512,0.131384611129761,0.326311320066452,2.65209150314331,2.93028998374939,0.240385815501213,0.0567721389234066,0.626087307929993,0.039520688354969,0.0499806329607964,0.106334842741489,0.421264588832855,0.47664600610733,0.216565415263176,0.040340531617403,7.70225811004639,0.103427924215794,0.115841545164585,0.201901480555534,2.38035011291504,3.03195309638977,0.44842940568924,0.145037978887558,2012-01-17 17:06:53
1.01100015640259,37,-5.92003583908081,0.0836967825889587,0.104782149195671,0.238540098071098,0.283411473035812,0.307729750871658,0.089808464050293,0.0278850756585598,0.569845855236053,0.07077407091856,0.0868133306503296,0.197193190455437,0.0320573858916759,0.260745644569397,0.557316839694977,0.0558165274560452,7.87155914306641,0.065802626311779,0.0806440860033035,0.232179164886475,0.120790906250477,0.177539244294167,0.0648637339472771,0.0177095420658588,2012-01-17 17:06:54
1.01699995994568,45,-5.81752252578735,0.0911897122859955,0.11516285687685,0.306185245513916,1.84246432781219,2.99135541915894,1.14254355430603,0.30573907494545,0.604961335659027,0.0470331758260727,0.0637833476066589,0.189377322793007,0.0740103423595428,0.273555010557175,0.719612836837769,0.223264500498772,7.95515441894531,0.0883034244179726,0.109096512198448,0.253011882305145,1.60450112819672,2.08501958847046,0.589071393013,0.673929214477539,2012-01-17 17:06:55
1.01099991798401,48,-5.65802812576294,0.0424954779446125,0.05000264570117,0.107464425265789,0.390359044075012,0.722424447536469,0.221222087740898,0.0592719912528992,0.637227952480316,0.0459856949746609,0.0591621436178684,0.108077429234982,0.342779666185379,0.628035306930542,0.732471168041229,0.0979137048125267,8.03920555114746,0.0505570098757744,0.0682731941342354,0.159154191613197,0.609344899654388,0.612330496311188,0.303480386734009,0.117829740047455,2012-01-17 17:06:56
1.04999995231628,46,-5.64287424087524,0.0240160543471575,0.0291755720973015,0.0744024962186813,7.78124740463682e-05,0.0158217716962099,0.0846030414104462,0.0816736370325089,0.619524419307709,0.0347589254379272,0.0438235029578209,0.106167659163475,0.000714715686626732,0.0775980725884438,0.388172805309296,0.171792209148407,8.1105260848999,0.0294015668332577,0.0392777435481548,0.137719511985779,0.00474861543625593,0.03318702429533,0.146882057189941,0.092299796640873,2012-01-17 17:06:57
1.00500011444092,51,-5.60844230651855,0.0150134610012174,0.0227516945451498,0.0598012320697308,0.0349720790982246,0.0270020067691803,0.0170671474188566,0.0164871942251921,0.649546325206757,0.0478229708969593,0.0557659566402435,0.0905672982335091,0.235776230692863,0.584368944168091,0.251921445131302,0.121342018246651,8.10586929321289,0.0245827827602625,0.0293402932584286,0.0546101965010166,0.0199673995375633,0.114593751728535,0.102530620992184,0.0708380565047264,2012-01-17 17:06:58
1.01099991798401,34,-5.57623434066772,0.0278420150279999,0.0327860489487648,0.0747034698724747,0.00489539932459593,0.027364157140255,0.0351025089621544,0.0144332684576511,0.640316545963287,0.0215814225375652,0.0265419129282236,0.0617241859436035,2.44788916461403e-05,0.00034366876934655,0.00380329438485205,0.0259217619895935,8.09250545501709,0.0339672975242138,0.0412499345839024,0.100085496902466,0.0150652220472693,0.0335825197398663,0.0518638752400875,0.00764492247253656,2012-01-17 17:06:59
1,43,-5.58500099182129,0.0201648566871881,0.0240558665245771,0.0638571456074715,0.0317679084837437,0.0729055926203728,0.0436026863753796,0.0116590578109026,0.658185839653015,0.0223076026886702,0.0265179853886366,0.0576996169984341,0.0061917994171381,0.0118998382240534,0.0545864105224609,0.014262730255723,8.14909839630127,0.0435863621532917,0.0546007826924324,0.13706561923027,0.0081379059702158,0.112533144652843,0.407473593950272,0.155758500099182,2012-01-17 17:07:00
1.01500010490417,42,-5.56270551681519,0.0195020791143179,0.0269679874181747,0.0709813460707664,0.0581435821950436,0.094290018081665,0.0681777149438858,0.0178957358002663,0.669420599937439,0.0244165547192097,0.0309418309479952,0.0712149664759636,4.2225332435919e-05,0.0112586179748178,0.068851962685585,0.0626169368624687,8.11570358276367,0.0310879107564688,0.0362629145383835,0.0644443184137344,0.0110859256237745,0.061145231127739,0.0565214566886425,0.0974189564585686,2012-01-17 17:07:01
1.01699995994568,48,-5.57303714752197,0.0220138486474752,0.0262497942894697,0.061700064688921,0.000170694140251726,0.0381014794111252,0.0550751574337482,0.0238305907696486,0.694433391094208,0.0183108523488045,0.0252141114324331,0.0668078064918518,0.0119337756186724,0.0241560582071543,0.0161584597080946,0.0210421588271856,8.10458374023438,0.0233930721879005,0.0305498372763395,0.072937585413456,0.0193039458245039,0.0568653233349323,0.0518028810620308,0.0195289682596922,2012-01-17 17:07:02
1.02300000190735,50,-5.53801155090332,0.0271761417388916,0.03328712657094,0.0811989232897758,5.60985654374235e-06,0.0448884144425392,0.0599207244813442,0.073809340596199,0.691761076450348,0.020052645355463,0.022466441616416,0.0437376536428928,0.00214065564796329,0.0406598411500454,0.0425472594797611,0.0666023716330528,8.10970687866211,0.0208373479545116,0.0249607972800732,0.04942562058568,0.0199396423995495,0.0791730210185051,0.0572643280029297,0.0198422819375992,2012-01-17 17:07:03
1.05099987983704,43,-5.53026628494263,0.0294358097016811,0.0345841906964779,0.0693306177854538,0.00135866226628423,0.00159739679656923,0.0424887724220753,0.0161671042442322,0.673009872436523,0.0310375951230526,0.040018156170845,0.09190883487463,0.02788295596838,0.103567488491535,0.0450344458222389,0.0981695801019669,8.1611852645874,0.0208225212991238,0.0269652865827084,0.0608923472464085,0.0205527301877737,0.0406617596745491,0.0456270277500153,0.0110771749168634,2012-01-17 17:07:04
1.00200009346008,40,-5.47946548461914,0.0190003737807274,0.0244920998811722,0.0514848455786705,0.0115228081122041,0.0224885400384665,0.0138976909220219,0.00274487771093845,0.690388143062592,0.02177076600492,0.0299705099314451,0.094143807888031,0.00740935280919075,0.00760935852304101,0.0213120561093092,0.0914945676922798,8.19590759277344,0.033832885324955,0.0416493378579617,0.100517988204956,0.0394737683236599,0.0594660453498363,0.0867885425686836,0.104229919612408,2012-01-17 17:07:05
1,47,-5.46689414978027,0.0266098622232676,0.0326726324856281,0.0836694613099098,0.1539316624403,0.268492966890335,0.0601150840520859,0.00826065987348557,0.698984622955322,0.018929636105895,0.0237387139350176,0.0615523979067802,0.00504329986870289,0.00446662958711386,0.0442807450890541,0.0628646537661552,8.16873073577881,0.0349203981459141,0.0470306649804115,0.166505008935928,0.0227146036922932,0.0682276263833046,0.0375744290649891,0.0632821470499039,2012-01-17 17:07:06
1,44,-5.50242233276367,0.0151962283998728,0.0183248575776815,0.0401180423796177,0.00809166021645069,0.00776896625757217,0.00971997529268265,0.00734055461362004,0.696717858314514,0.024982638657093,0.0316361673176289,0.0788989365100861,0.00797218177467585,0.0568019151687622,0.0735679194331169,0.036773320287466,8.20125675201416,0.0157736856490374,0.0209683086723089,0.0559423826634884,0.0021043864544481,0.00274050864391029,0.0107169160619378,0.00699202250689268,2012-01-17 17:07:07
1.00099992752075,43,-5.51316165924072,0.0293191280215979,0.0343805626034737,0.0704709216952324,0.076289176940918,0.112180978059769,0.110077597200871,0.0151059068739414,0.678027212619781,0.0384098254144192,0.0478831678628922,0.109241537749767,0.0736197903752327,0.0496919304132462,0.139839664101601,0.0287793669849634,8.16460609436035,0.0388977006077766,0.0441768206655979,0.0827862247824669,0.155646726489067,0.303726196289062,0.119602687656879,0.0777711868286133,2012-01-17 17:07:08
1.00500011444092,48,-5.48947668075562,0.022992817685008,0.0272446721792221,0.0663995444774628,0.0104056764394045,0.0703447014093399,0.0402101315557957,0.00903533305972815,0.683196604251862,0.0251976456493139,0.0326683931052685,0.0947976037859917,0.0347058661282063,0.026528887450695,0.062016062438488,0.133710011839867,8.17465972900391,0.0244144294410944,0.0337245389819145,0.0743669643998146,0.0110681178048253,0.0596104599535465,0.10868763178587,0.0677949860692024,2012-01-17 17:07:09
1.08999991416931,45,-5.46971368789673,0.0145380552858114,0.017803343012929,0.04162373021245,0.00144369737245142,0.00608423305675387,0.01323570497334,0.011897929944098,0.736152529716492,0.0373088531196117,0.0438274219632149,0.0974127277731895,0.136183455586433,0.149242892861366,0.0161781255155802,0.0403973683714867,8.19814109802246,0.0411927029490471,0.0509562939405441,0.0978484079241753,0.155872821807861,0.349069267511368,0.212204277515411,0.019756305962801,2012-01-17 17:07:10
1.01099991798401,49,-5.46430540084839,0.0233546085655689,0.0335631892085075,0.105871677398682,0.051150918006897,0.14621989428997,0.276578515768051,0.0976634174585342,0.685264647006989,0.0324464961886406,0.0424759462475777,0.109073974192142,0.0665205270051956,0.129152983427048,0.149901866912842,0.0713696852326393,8.20016098022461,0.0382626131176949,0.0454681813716888,0.109674178063869,0.00295377732254565,0.03671994805336,0.39822843670845,0.115518875420094,2012-01-17 17:07:11
1.01400017738342,47,-5.44728088378906,0.0247187837958336,0.0300634279847145,0.0738629400730133,0.0912390202283859,0.111636884510517,0.0216611679643393,0.0481711365282536,0.725900709629059,0.025260217487812,0.0322716757655144,0.0786618292331696,0.00570120057091117,0.0140887079760432,0.083003543317318,0.0225700885057449,8.16414070129395,0.0501564592123032,0.058974489569664,0.13249471783638,0.407650232315063,0.511744320392609,0.115227274596691,0.0773179903626442,2012-01-17 17:07:12
1.01900005340576,41,-5.43527603149414,0.0242105424404144,0.0310704596340656,0.0858681052923203,0.0232017412781715,0.033581480383873,0.00971602648496628,0.0176306292414665,0.705600440502167,0.0229502450674772,0.02704818546772,0.0593182742595673,0.000698116142302752,0.00583707960322499,0.039225522428751,0.0251724012196064,8.21031856536865,0.0223434884101152,0.0281996335834265,0.0566871240735054,0.0281100906431675,0.0595340728759766,0.058484174311161,0.0331632681190968,2012-01-17 17:07:13
1.05899977684021,41,-5.44508266448975,0.0149930343031883,0.0186044964939356,0.0466415025293827,0.0027517918497324,0.0121771618723869,0.0239140316843987,0.00656065251678228,0.692684352397919,0.0277223084121943,0.0351758822798729,0.101654306054115,0.0379411280155182,0.0364193208515644,0.0194496586918831,0.0200415048748255,8.1770715713501,0.0207683593034744,0.02580108307302,0.0605140998959541,0.00109664641786367,0.00639830622822046,0.063881553709507,0.035313755273819,2012-01-17 17:07:14
1.01600003242493,51,-5.46538066864014,0.0240020100027323,0.0327555425465107,0.114603102207184,0.0312722735106945,0.0976001769304276,0.0853644534945488,0.0596283935010433,0.684542596340179,0.0404934361577034,0.0482782684266567,0.115756943821907,0.042153175920248,0.35437336564064,0.26737642288208,0.264852672815323,8.18316841125488,0.0318140611052513,0.0397192351520061,0.103450365364552,0.00819784123450518,0.115658111870289,0.341813385486603,0.169927924871445,2012-01-17 17:07:15
1.10000014305115,44,-5.5189151763916,0.0144262863323092,0.0193737298250198,0.0512619465589523,0.00038041258812882,0.0134820407256484,0.0130269108340144,0.0107684703543782,0.704518616199493,0.0248813312500715,0.0312180928885937,0.0702066794037819,0.00858980789780617,0.13864803314209,0.0988631695508957,0.0233795270323753,8.1696081161499,0.0395405888557434,0.0484230406582355,0.0791217014193535,0.160419151186943,0.135259747505188,0.0929518416523933,0.0522610358893871,2012-01-17 17:07:16
1.01900005340576,32,-5.46843338012695,0.0128712058067322,0.0148623883724213,0.0257424116134644,0.00105584703851491,0.00138948066160083,0.00186509860213846,0.00763675989583135,0.696578621864319,0.0377709269523621,0.0434078872203827,0.0689530074596405,4.08424930355977e-05,0.0213093515485525,0.0365467630326748,0.0462617985904217,8.18824672698975,0.0182150546461344,0.0265735760331154,0.0683399736881256,0.000324799970258027,0.00243219081312418,0.00707843247801065,0.00583465816453099,2012-01-17 17:07:17
1.00499987602234,48,-5.46312141418457,0.0244485773146152,0.0308711379766464,0.0694640353322029,0.0251566451042891,0.0704096853733063,0.101158015429974,0.0238545201718807,0.728552341461182,0.0281941127032042,0.0329508222639561,0.06578628718853,0.0138327097520232,0.021300857886672,0.0935433655977249,0.0587730519473553,8.1550464630127,0.032859094440937,0.0402269065380096,0.0841744914650917,0.0872849225997925,0.0701423585414886,0.0598450303077698,0.272488832473755,2012-01-17 17:07:18
1.04200005531311,28,-5.46685695648193,0.0312713049352169,0.0369248539209366,0.0731998682022095,0.0189589094370604,0.0299306958913803,0.0136590218171477,0.00455576181411743,0.732346594333649,0.0396018549799919,0.0486149378120899,0.101218640804291,8.31128709251061e-05,0.0104222213849425,0.0509223714470863,0.0211244337260723,8.13986968994141,0.0382759608328342,0.0484329871833324,0.107522830367088,0.0160152520984411,0.0314432978630066,0.0484161898493767,0.0221306774765253,2012-01-17 17:07:20
1.01900005340576,44,-5.4772367477417,0.0204946920275688,0.02721949480474,0.0733269155025482,0.00121992093045264,0.0292722787708044,0.0954794213175774,0.0422245375812054,0.678441882133484,0.0259349420666695,0.0301734860986471,0.0606229119002819,0.0371355377137661,0.0436287894845009,0.0599188208580017,0.0357735380530357,8.18899822235107,0.0321349576115608,0.0428459458053112,0.0985120832920074,0.000224185016122647,0.0241342149674892,0.163771316409111,0.13552425801754,2012-01-17 17:07:21
1.01799988746643,44,-5.45316600799561,0.0244154259562492,0.0296714380383492,0.058171346783638,0.0606412962079048,0.058701179921627,0.0751655250787735,0.0277850423008204,0.700506806373596,0.0393279045820236,0.0463474541902542,0.103638455271721,0.0290002003312111,0.111527740955353,0.345661699771881,0.188189044594765,8.19746780395508,0.0282447244971991,0.0345971025526524,0.0695379450917244,0.0308201052248478,0.0859732925891876,0.0570442825555801,0.0230991840362549,2012-01-17 17:07:22
1.01099991798401,51,-5.43057632446289,0.022328058257699,0.0306806284934282,0.0957590714097023,0.0639940202236176,0.0928763449192047,0.0942011550068855,0.0332579873502254,0.709155380725861,0.0347926840186119,0.0420788489282131,0.10114312171936,6.74864713801071e-05,0.0700446739792824,0.319740206003189,0.0525211617350578,8.17509269714355,0.0466994531452656,0.0605134628713131,0.131139799952507,0.287853598594666,0.197319641709328,0.272755175828934,0.0407599993050098,2012-01-17 17:07:23
1.00200009346008,40,-5.44832944869995,0.0249703023582697,0.0311574656516314,0.0630077719688416,0.00145328626967967,0.0233888812363148,0.0652031227946281,0.0494964085519314,0.727653384208679,0.0243204850703478,0.030002573505044,0.0764918625354767,0.0207074247300625,0.0347072519361973,0.0796231999993324,0.0320213250815868,8.21405029296875,0.0116698928177357,0.0156292002648115,0.0529558174312115,0.00789250526577234,0.0147871067747474,0.0101159606128931,0.00147686467971653,2012-01-17 17:07:24
1.06200003623962,37,-5.47635126113892,0.0185960922390223,0.0230878125876188,0.0447924844920635,0.000821088498923928,0.00758275156840682,0.00768469832837582,0.0100664105266333,0.704753577709198,0.0494558848440647,0.0589794181287289,0.109198346734047,0.199140831828117,0.243813723325729,0.0377955213189125,0.0216790121048689,8.20127487182617,0.0213897787034512,0.0286468453705311,0.081368550658226,0.00846587028354406,0.0183957610279322,0.00964379217475653,0.0131425447762012,2012-01-17 17:07:25
1.01600003242493,51,-5.44249820709229,0.0256535355001688,0.0340539701282978,0.0880677476525307,0.127185896039009,0.214517906308174,0.135474145412445,0.208149001002312,0.728576421737671,0.0198621302843094,0.0318094454705715,0.100950807332993,0.0248873271048069,0.0117508405819535,0.0324970856308937,0.0381904654204845,8.19605159759521,0.0311052370816469,0.0361018367111683,0.0807605087757111,0.0838849022984505,0.0903005823493004,0.123195424675941,0.0784223824739456,2012-01-17 17:07:26
1.03900003433228,39,-5.39315414428711,0.0220375657081604,0.0280862879008055,0.0789564102888107,0.0118821589276195,0.0289123728871346,0.0451075695455074,0.0159533824771643,0.757375121116638,0.0372536517679691,0.043826375156641,0.105610072612762,0.0623550564050674,0.13088946044445,0.15831346809864,0.0341572873294353,8.20313739776611,0.026060787960887,0.0394692681729794,0.151878014206886,0.00794877111911774,0.008071169257164,0.0175159461796284,0.0029462908860296,2012-01-17 17:07:27
1.01699995994568,50,-5.40660190582275,0.0281019899994135,0.0364533923566341,0.0851219594478607,0.0928093492984772,0.118132159113884,0.0705855935811996,0.0660410076379776,0.71804291009903,0.0172361619770527,0.0208759568631649,0.051190722733736,0.0279483087360859,0.0229485929012299,0.0357971638441086,0.0502727776765823,8.23072147369385,0.0251834336668253,0.0354805029928684,0.130428224802017,0.00113793881610036,0.0149660622701049,0.104662626981735,0.0322391279041767,2012-01-17 17:07:28
1.00099992752075,48,-5.41735649108887,0.0222012270241976,0.0277976021170616,0.072732649743557,0.00198445608839393,0.00521854357793927,0.0798555389046669,0.0186828896403313,0.697293639183044,0.0320333540439606,0.0374090597033501,0.0696680769324303,0.0137229580432177,0.0165675804018974,0.0698207393288612,0.0960318967700005,8.21695137023926,0.0245676580816507,0.0310912784188986,0.0774315372109413,1.98189736693166e-05,0.00361221912316978,0.0366197004914284,0.0294524263590574,2012-01-17 17:07:29
1.00399994850159,42,-5.36377048492432,0.015944117680192,0.0215014908462763,0.0593067817389965,0.00312904105521739,0.00216523441486061,0.00690142950043082,0.0143397683277726,0.76281726360321,0.0244499091058969,0.0296166427433491,0.0763517469167709,0.0218600388616323,0.027437487617135,0.0333762802183628,0.0318283028900623,8.2427225112915,0.0336227416992188,0.0406167432665825,0.092929519712925,0.115227028727531,0.169251024723053,0.158606246113777,0.0256646852940321,2012-01-17 17:07:30
1.00999999046326,47,-5.35276126861572,0.0287584289908409,0.033505342900753,0.0801222771406174,0.000515964871738106,0.074039526283741,0.126094624400139,0.0345651358366013,0.779941618442535,0.0266098007559776,0.0364048592746258,0.113089457154274,0.00423238845542073,0.0264668725430965,0.0841313078999519,0.0172020513564348,8.24321937561035,0.0315641276538372,0.0414949543774128,0.112045995891094,0.245850652456284,0.343338698148727,0.0556661933660507,0.0141006940975785,2012-01-17 17:07:31
1.05100011825562,42,-5.36517143249512,0.0384705066680908,0.0456378981471062,0.0873261764645576,0.0203008875250816,0.068349301815033,0.137597158551216,0.0338817313313484,0.78943532705307,0.0310543961822987,0.0346552319824696,0.0637432038784027,0.0563957653939724,0.10870985686779,0.113035134971142,0.0237735938280821,8.24459075927734,0.0264178682118654,0.0319772213697433,0.0616416931152344,0.00378807145170867,0.00394407473504543,0.0977647379040718,0.0977663099765778,2012-01-17 17:07:32
1.00099992752075,48,-5.37097930908203,0.0541664250195026,0.0660633221268654,0.130551189184189,0.187459051609039,0.857215166091919,1.21995222568512,0.201991558074951,0.772682249546051,0.0257424581795931,0.0285179670900106,0.0510763302445412,0.116103164851665,0.175401017069817,0.0283620357513428,0.0134304948151112,8.24044609069824,0.0378985516726971,0.0482488311827183,0.124625958502293,0.0545676462352276,0.0350741259753704,0.058795340359211,0.133880779147148,2012-01-17 17:07:33
1.05800008773804,48,-5.38691520690918,0.0342721678316593,0.0396915040910244,0.0950022041797638,0.000825977884232998,0.132025569677353,0.285231441259384,0.0934116095304489,0.796177387237549,0.0279642716050148,0.0384869985282421,0.0962277799844742,0.0102274985983968,0.102204866707325,0.23406209051609,0.0741031616926193,8.21041393280029,0.0279897656291723,0.0360451899468899,0.0860123410820961,0.0173940695822239,0.00948395580053329,0.121302351355553,0.0222925879061222,2012-01-17 17:07:34
1.00499987602234,17,-5.40923261642456,0.036308441311121,0.0433454178273678,0.0824914574623108,0.0017859204672277,0.0036763537209481,0.00598252424970269,0.00116153026465327,0.771840989589691,0.0129624148830771,0.0167389288544655,0.0363422892987728,5.21727524755988e-05,0.000103863036201801,0.000123490972328,0.000505404954310507,8.23239421844482,0.0082796486094594,0.0101566817611456,0.0248050130903721,8.54971915487113e-08,3.36992548000126e-06,3.85480270779226e-05,1.71742722159252e-05,2012-01-17 17:07:35
1.01300001144409,44,-5.37850141525269,0.0261780377477407,0.0322180166840553,0.0829106271266937,0.00553367054089904,0.0370356887578964,0.0221045427024364,0.038808211684227,0.765364408493042,0.0353160873055458,0.0442018993198872,0.117234021425247,0.0350309237837791,0.218765437602997,0.155462846159935,0.0238231047987938,8.25653076171875,0.0146998185664415,0.018863171339035,0.0385578982532024,0.00407048454508185,0.0125300781801343,0.0638837069272995,0.0386970490217209,2012-01-17 17:07:36
1.01100015640259,42,-5.35232925415039,0.0249835643917322,0.0300006736069918,0.0665450096130371,0.000452507607406005,0.00210570497438312,0.0202238615602255,0.0341497734189034,0.788267850875854,0.031576968729496,0.0396303460001945,0.101802341639996,0.0949498265981674,0.121863223612309,0.06623874604702,0.0273137222975492,8.23805332183838,0.0265735294669867,0.0344365984201431,0.0887266770005226,0.0225623175501823,0.029606781899929,0.0161940604448318,0.0201811473816633,2012-01-17 17:07:37
1.01799988746643,52,-5.36536884307861,0.0172341428697109,0.0218144692480564,0.0501646995544434,0.0017133338842541,0.0305747576057911,0.041695736348629,0.0745146945118904,0.774536728858948,0.0303701441735029,0.0354362465441227,0.0684579759836197,0.11088965088129,0.152844354510307,0.0956940203905106,0.0364050939679146,8.24305534362793,0.0280635077506304,0.0361555367708206,0.102403879165649,0.014368905685842,0.0264799948781729,0.141748622059822,0.116077490150928,2012-01-17 17:07:38
1.32699990272522,35,-5.33705902099609,0.0157546568661928,0.0189122725278139,0.041468046605587,0.00183773506432772,0.00254623033106327,0.00849367305636406,0.00400904472917318,0.778087615966797,0.0294119417667389,0.0359321124851704,0.0818154737353325,0.032581515610218,0.0394616834819317,0.00970857962965965,0.00626989966258407,8.25691890716553,0.0339269489049911,0.0414396412670612,0.0787332504987717,0.00247594923712313,0.0112063698470592,0.0257315412163734,0.0434778034687042,2012-01-17 17:07:39
1.00300002098083,50,-5.36972904205322,0.0182011108845472,0.024821437895298,0.0741381421685219,0.0353844799101353,0.117358349263668,0.147360131144524,0.0589911676943302,0.756877243518829,0.0173459965735674,0.0235922764986753,0.0606050975620747,0.0042119319550693,0.0658936500549316,0.0609777234494686,0.0518809780478477,8.21503067016602,0.0217707250267267,0.0275459922850132,0.0813950523734093,0.00844158791005611,0.00814107526093721,0.0306016895920038,0.108116298913956,2012-01-17 17:07:40
1.01200008392334,50,-5.34835052490234,0.0197544824331999,0.0251088105142117,0.0723729506134987,0.0126537773758173,0.0136211328208447,0.011929371394217,0.0215258002281189,0.771979451179504,0.0268466807901859,0.0321107506752014,0.0757073312997818,0.000223968309001066,0.0886814892292023,0.107406109571457,0.0224051494151354,8.2417049407959,0.0276547055691481,0.0335776582360268,0.0939475446939468,0.086492046713829,0.131530418992043,0.181519567966461,0.114207208156586,2012-01-17 17:07:41
1.00799989700317,32,-5.38109254837036,0.0155335534363985,0.0216849651187658,0.0462750494480133,0.00350278429687023,0.00673844153061509,0.00621189177036285,0.00423902785405517,0.774725317955017,0.0312586948275566,0.0351879745721817,0.0588399022817612,0.0110395438969135,0.0282333847135305,0.0396899878978729,0.00566188571974635,8.23544120788574,0.0343615226447582,0.0432864800095558,0.0904048979282379,0.00654960004612803,0.0133417258039117,0.00880812015384436,0.0243450328707695,2012-01-17 17:07:42
1.01400017738342,47,-5.43434429168701,0.0337041281163692,0.0483812876045704,0.135832622647285,0.0659441873431206,0.152357950806618,0.498769164085388,0.446064531803131,0.748226523399353,0.0358260087668896,0.0411568582057953,0.10098759829998,0.00227908068336546,0.156680479645729,0.254019141197205,0.042743194848299,8.21192169189453,0.0525624863803387,0.0633786395192146,0.153150394558907,0.203227400779724,0.569656789302826,0.578752756118774,0.411382585763931,2012-01-17 17:07:43
1.00599980354309,48,-6.02128314971924,0.214111849665642,0.281553566455841,0.71588534116745,12.149974822998,22.2881202697754,11.2213668823242,3.25582194328308,0.442729383707047,0.223186418414116,0.255286931991577,0.472149312496185,12.917441368103,18.2821712493896,6.08163595199585,0.831816077232361,7.8028244972229,0.156225323677063,0.200530707836151,0.555710136890411,3.222984790802,7.94940853118896,5.18935632705688,5.21576023101807,2012-01-17 17:07:44
1.01900005340576,31,-6.95291471481323,0.18600994348526,0.235820442438126,0.500139236450195,0.10201096534729,0.242996782064438,0.196738973259926,0.739396750926971,0.705129742622375,0.140987172722816,0.179989188909531,0.391316950321198,0.584037661552429,0.867310225963593,0.478076756000519,0.270358353853226,6.97474241256714,0.0489617474377155,0.0630007609724998,0.164498820900917,0.0196949038654566,0.0455146841704845,0.0746061429381371,0.179822936654091,2012-01-17 17:07:45
1.15900015830994,41,-7.02969360351562,0.278366506099701,0.353682637214661,0.87111759185791,2.33259558677673,4.50174808502197,10.6592950820923,4.30029153823853,0.495833784341812,0.412824362516403,0.510713577270508,1.7510849237442,24.2516593933105,44.361011505127,15.9587078094482,14.1331806182861,7.15120029449463,0.135087952017784,0.189868077635765,0.468566328287125,1.27797162532806,2.44212222099304,0.998908638954163,1.8775726556778,2012-01-17 17:07:46
1,42,-6.88543558120728,0.808248102664948,1.00486254692078,3.5119481086731,105.008316040039,191.437530517578,62.1631927490234,35.5340995788574,-4.35882234573364,1.12711977958679,1.34226667881012,2.80937170982361,124.935646057129,157.835723876953,23.6887664794922,0.836048424243927,5.42120933532715,1.23219108581543,1.42360293865204,2.46333694458008,175.260589599609,250.901306152344,94.6967697143555,47.9765930175781,2012-01-17 17:07:47
1.01799988746643,42,-3.81945657730103,1.28122437000275,1.54605281352997,2.92705154418945,265.830871582031,478.83837890625,237.30778503418,47.3523139953613,-9.73193264007568,1.19867956638336,1.58487343788147,4.37750196456909,46.0894050598145,45.6111335754395,109.763229370117,10.1113996505737,1.02269351482391,0.585263550281525,0.877890884876251,2.87054657936096,7.2266993522644,4.90797996520996,9.99855899810791,4.1406044960022,2012-01-17 17:07:48
1.00300002098083,48,-1.37395250797272,0.171837702393532,0.230553954839706,0.597184062004089,1.3222439289093,1.75843477249146,1.01451778411865,0.965663075447083,-10.0001268386841,0.184521526098251,0.226322010159492,0.556322932243347,7.0303430557251,9.66987419128418,2.58327269554138,0.371090292930603,0.594323813915253,0.173055022954941,0.232677608728409,0.700154006481171,3.23781514167786,3.00128030776978,1.72046053409576,0.592076182365417,2012-01-17 17:07:49
1.01200008392334,48,-2.29271292686462,1.26861608028412,1.70163381099701,3.92470288276672,380.856658935547,868.233032226562,574.865112304688,206.023986816406,-9.43461036682129,1.39499592781067,1.74865865707397,4.87451791763306,306.737609863281,816.841247558594,455.508087158203,102.938873291016,1.0625913143158,0.513563692569733,0.603097319602966,1.06545162200928,58.9900779724121,90.8923492431641,25.3731002807617,2.60722088813782,2012-01-17 17:07:50
1.00899982452393,42,-5.1828145980835,0.353039413690567,0.4417724609375,1.12286162376404,17.4835052490234,18.42262840271,2.31121706962585,1.9226256608963,-8.76130771636963,0.225497350096703,0.269460409879684,0.572754740715027,2.69632720947266,1.71360325813293,3.92578077316284,1.35567140579224,0.618519425392151,0.261744141578674,0.315736085176468,0.549872875213623,10.3915119171143,11.7253122329712,1.23583745956421,5.74628591537476,2012-01-17 17:07:51
1.01800012588501,46,-3.79282832145691,0.85507869720459,1.01371335983276,1.85111165046692,154.778991699219,293.196685791016,120.330154418945,15.4765062332153,-9.37537002563477,0.380512833595276,0.421822220087051,0.774938941001892,26.9196243286133,37.1585998535156,2.99168372154236,1.1758975982666,0.526574432849884,0.425690174102783,0.507079660892487,0.826743185520172,33.1754722595215,75.3293991088867,21.6530723571777,3.33681702613831,2012-01-17 17:07:52
1.00099992752075,48,-2.04877257347107,0.222454309463501,0.262124121189117,0.549989700317383,14.0968952178955,22.4868297576904,6.03285980224609,2.24285674095154,-9.86651134490967,0.0693020597100258,0.0823224186897278,0.128508552908897,0.859792828559875,1.64652216434479,0.639449775218964,0.118965111672878,1.34187662601471,0.10548958927393,0.121982358396053,0.24680070579052,1.73437786102295,4.96047067642212,1.46487498283386,0.726859331130981,2012-01-17 17:07:53
1.03299999237061,27,-2.93763637542725,0.205172881484032,0.237563848495483,0.4162378013134,0.971517324447632,1.74982523918152,1.60800111293793,0.558341503143311,-9.6515588760376,0.123383447527885,0.13819907605648,0.272770464420319,0.0278503373265266,0.0993480235338211,0.386723905801773,0.240557447075844,1.477898478508,0.0562570802867413,0.0617818832397461,0.124580830335617,0.00388285587541759,0.0201953072100878,0.0681967958807945,0.0261933524161577,2012-01-17 17:07:55
1.01600003242493,53,-3.77167439460754,0.426493257284164,0.535102725028992,1.54352962970734,32.3090705871582,63.2108726501465,5.24248600006104,4.86046600341797,-9.53187847137451,0.186315789818764,0.240224108099937,0.666667103767395,0.162291288375854,10.7665500640869,6.97062969207764,3.45565104484558,0.960126519203186,0.90826541185379,0.999264180660248,1.68766891956329,171.998580932617,474.278106689453,78.5793609619141,2.10328125953674,2012-01-17 17:07:56
1.01200008392334,46,-3.94014120101929,0.584468901157379,0.749085247516632,1.62022912502289,63.0807800292969,87.2024078369141,10.9516191482544,4.5705394744873,-9.3148250579834,0.423929005861282,0.465295910835266,0.714393496513367,34.7971611022949,40.0732078552246,4.29716157913208,0.713876128196716,0.565801024436951,1.03314626216888,1.15918624401093,1.70934164524078,267.184326171875,348.691802978516,50.4120025634766,10.9693269729614,2012-01-17 17:07:57
1.00999999046326,31,-4.03084945678711,0.720263242721558,0.813357055187225,1.39286053180695,11.4237585067749,14.0161437988281,3.49577260017395,7.31902980804443,-9.11480617523193,0.476209491491318,0.544063806533813,0.945866882801056,3.92868137359619,6.4314079284668,4.33929443359375,0.309385776519775,-0.444146335124969,0.442105412483215,0.507935464382172,1.05627119541168,4.10922431945801,6.65733337402344,3.04965758323669,0.950790166854858,2012-01-17 17:07:58
1.01900005340576,49,-4.52706956863403,0.535701990127563,0.643445491790771,1.87667262554169,6.47631072998047,23.0085887908936,55.1112365722656,10.0673446655273,-8.77675151824951,0.584976255893707,0.691168308258057,1.69675064086914,2.38179683685303,15.8592853546143,34.3186569213867,44.0395889282227,-0.0120081463828683,0.602604508399963,0.726546943187714,1.68454217910767,0.512568235397339,7.52524375915527,24.0978622436523,24.8933219909668,2012-01-17 17:07:59
1.00699996948242,47,-4.86055135726929,0.604052305221558,0.756779193878174,2.0531370639801,49.5620498657227,174.327453613281,82.1720809936523,24.7330627441406,-8.06336116790771,0.985512912273407,1.34381973743439,3.4640429019928,188.106887817383,487.569976806641,156.063537597656,66.7894134521484,2.54534721374512,1.39475512504578,1.73341226577759,3.04548645019531,553.294677734375,559.163879394531,136.263809204102,47.5573348999023,2012-01-17 17:08:00
