"diffSecs","latitude","longitude","altitude","time"
31.9809999465942,42.37230888,-70.99498517,1.29999995231628,2011-12-13 19:59:51
0.868000030517578,42.37231895,-70.9949891,4.40000009536743,2011-12-13 19:59:52
1,42.37232729,-70.99499274,5,2011-12-13 19:59:53
1.02800011634827,42.37234146,-70.99500162,5.30000019073486,2011-12-13 19:59:54
0.967999935150146,42.37234573,-70.99501069,7.80000019073486,2011-12-13 19:59:55
1.00300002098083,42.3723458,-70.99501404,7.30000019073486,2011-12-13 19:59:56
0.997999906539917,42.37234624,-70.9950202,5.40000009536743,2011-12-13 19:59:57
1.00300002098083,42.37234675,-70.99502861,3.40000009536743,2011-12-13 19:59:58
