"diffSecs","N.samples","x.mean","x.absolute.deviation","x.standard.deviation","x.max.deviation","x.PSD.1","x.PSD.3","x.PSD.6","x.PSD.10","y.mean","y.absolute.deviation","y.standard.deviation","y.max.deviation","y.PSD.1","y.PSD.3","y.PSD.6","y.PSD.10","z.mean","z.absolute.deviation","z.standard.deviation","z.max.deviation","z.PSD.1","z.PSD.3","z.PSD.6","z.PSD.10","time"
1.01100015640259,40,-1.67105317115784,1.240443110466,1.70490348339081,5.49760818481445,0.349181801080704,86.8846893310547,281.569061279297,228.844528198242,-9.99297618865967,1.66075599193573,2.12374544143677,5.54075717926025,142.854537963867,273.243988037109,305.193572998047,19.2595481872559,-1.00934946537018,2.19124674797058,2.88631582260132,6.70848417282104,90.9410171508789,154.639892578125,81.5286102294922,71.3135681152344,2012-01-21 12:47:25
1,37,-2.36260747909546,1.67873513698578,2.32646727561951,7.16945600509644,15.4291906356812,76.6367492675781,260.609405517578,93.6940841674805,-10.6123847961426,2.86023211479187,3.45489597320557,6.97411823272705,197.424392700195,226.339324951172,177.894058227539,242.244445800781,-2.14924669265747,2.42253613471985,3.016357421875,7.36320352554321,111.422164916992,336.748596191406,282.671264648438,136.726669311523,2012-01-21 12:47:26
1.01099991798401,41,-2.49399852752686,1.45658791065216,1.82518541812897,5.90049362182617,82.046760559082,91.2417602539062,132.000274658203,29.7470359802246,-8.98121643066406,1.83762955665588,2.7759895324707,8.06274032592773,12.1066875457764,7.63372802734375,71.6139221191406,68.6184005737305,-1.34566366672516,2.4056453704834,3.31198477745056,9.17687129974365,81.3141403198242,461.904357910156,433.907806396484,263.702178955078,2012-01-21 12:47:27
1.0090000629425,35,-1.40235090255737,1.04454827308655,1.27935898303986,2.9027681350708,11.6602210998535,15.4667253494263,53.2444076538086,22.7397060394287,-10.358344078064,1.94920969009399,2.37429070472717,5.79320812225342,89.3973083496094,147.905258178711,103.58472442627,74.5492477416992,-1.45586717128754,2.38113451004028,2.91379070281982,7.10533761978149,0.695850074291229,24.453426361084,428.197418212891,530.498474121094,2012-01-21 12:47:28
1,44,-2.066974401474,1.29407250881195,1.54079747200012,3.03248333930969,41.1455154418945,49.4358406066895,188.58381652832,158.387115478516,-9.35532093048096,2.90122842788696,3.49166893959045,6.57023239135742,215.283813476562,285.733459472656,690.173522949219,1064.46923828125,-0.858081877231598,1.81556749343872,2.52701377868652,8.14442253112793,31.5317077636719,316.309692382812,1236.41394042969,583.387634277344,2012-01-21 12:47:29
1.01999998092651,49,-2.21230006217957,1.42863404750824,1.69984471797943,3.94627594947815,227.098236083984,212.722686767578,284.051727294922,202.686752319336,-9.46701908111572,2.01423931121826,2.44100379943848,5.17170715332031,41.6047821044922,278.8388671875,709.475952148438,650.449768066406,-0.727493286132812,1.53182232379913,2.19563817977905,6.89227342605591,7.4149374961853,214.018844604492,1313.28100585938,715.176147460938,2012-01-21 12:47:30
