"diffSecs","latitude","longitude","altitude","time"
0.53600001335144,42.85489208,-71.49116789,18.2999992370605,2012-01-18 14:44:00
0.730000019073486,42.85489208,-71.49116789,18.2999992370605,2012-01-18 14:44:01
0.977999925613403,42.85489208,-71.49116786,18.2999992370605,2012-01-18 14:44:02
1.10600018501282,42.85489207,-71.49116782,18.2999992370605,2012-01-18 14:44:03
1.06499981880188,42.85489206,-71.49116783,18.2999992370605,2012-01-18 14:44:04
1.03700017929077,42.85489205,-71.49116776,18.2999992370605,2012-01-18 14:44:05
1.73699998855591,42.85489205,-71.49116776,18.2999992370605,2012-01-18 14:44:07
0.918999910354614,42.85489202,-71.49116771,18.2999992370605,2012-01-18 14:44:08
0.315000057220459,42.85489202,-71.49116771,18.2999992370605,2012-01-18 14:44:08
0.708999872207642,42.85489204,-71.49116779,18.2999992370605,2012-01-18 14:44:09
1.00800013542175,42.85489204,-71.49116778,18.2999992370605,2012-01-18 14:44:10
1.25499987602234,42.85489203,-71.49116775,18.2999992370605,2012-01-18 14:44:11
0.742000102996826,42.85489203,-71.49116775,18.2999992370605,2012-01-18 14:44:12
0.999000072479248,42.85489215,-71.4911682,18.2999992370605,2012-01-18 14:44:13
1.07699990272522,42.85489216,-71.49116822,18.2999992370605,2012-01-18 14:44:14
0.931999921798706,42.85489229,-71.49116867,18.2000007629395,2012-01-18 14:44:15
1.12700009346008,42.85489229,-71.49116867,18.2000007629395,2012-01-18 14:44:16
1.04800009727478,42.85489223,-71.49116844,18.2000007629395,2012-01-18 14:44:17
0.96999979019165,42.85489222,-71.4911685,18.2000007629395,2012-01-18 14:44:18
1.09400010108948,42.85489221,-71.49116838,18.2000007629395,2012-01-18 14:44:19
1.36700010299683,42.85489222,-71.49116838,18.2000007629395,2012-01-18 14:44:20
0.515999794006348,42.85489222,-71.49116838,18.2000007629395,2012-01-18 14:44:21
1.1340000629425,42.85489219,-71.49116827,18.2000007629395,2012-01-18 14:44:22
0.953999996185303,42.85489216,-71.49116817,18.2999992370605,2012-01-18 14:44:23
0.837000131607056,42.85489215,-71.49116812,18.2999992370605,2012-01-18 14:44:24
0.994999885559082,42.85489215,-71.49116812,18.2999992370605,2012-01-18 14:44:25
0.937000036239624,42.85489217,-71.49116815,18.2999992370605,2012-01-18 14:44:26
1.00600004196167,42.85489216,-71.49116811,18.2999992370605,2012-01-18 14:44:27
1.09899997711182,42.85489216,-71.49116809,18.2999992370605,2012-01-18 14:44:28
0.894999980926514,42.85489216,-71.49116808,18.2999992370605,2012-01-18 14:44:29
0.994999885559082,42.85489216,-71.49116805,18.2999992370605,2012-01-18 14:44:30
1.00500011444092,42.85489217,-71.49116808,18.2999992370605,2012-01-18 14:44:31
1.03099989891052,42.85489217,-71.49116808,18.2999992370605,2012-01-18 14:44:32
0.969000101089478,42.8548922,-71.49116818,18.2000007629395,2012-01-18 14:44:33
1.04500007629395,42.85489221,-71.49116819,18.2000007629395,2012-01-18 14:44:34
0.955999851226807,42.85489222,-71.49116819,18.2000007629395,2012-01-18 14:44:35
1.00500011444092,42.85489221,-71.49116816,18.2000007629395,2012-01-18 14:44:36
0.986999988555908,42.8548922,-71.49116805,18.2999992370605,2012-01-18 14:44:37
1.01399993896484,42.85489222,-71.49116811,18.2000007629395,2012-01-18 14:44:38
0.989000082015991,42.8548921,-71.49116781,18.2999992370605,2012-01-18 14:44:39
1.00699996948242,42.85489218,-71.49116799,18.2999992370605,2012-01-18 14:44:40
1.06200003623962,42.85489218,-71.49116799,18.2999992370605,2012-01-18 14:44:41
1.08899998664856,42.85489216,-71.4911679,18.2999992370605,2012-01-18 14:44:42
0.845999956130981,42.85489223,-71.4911682,18.2000007629395,2012-01-18 14:44:43
1.00200009346008,42.85489223,-71.4911682,18.2000007629395,2012-01-18 14:44:44
1,42.85489234,-71.4911685,18.2000007629395,2012-01-18 14:44:45
1.00299978256226,42.85489233,-71.49116845,18.2000007629395,2012-01-18 14:44:46
1.04000020027161,42.85489245,-71.49116893,18.2000007629395,2012-01-18 14:44:47
1.02799987792969,42.85489243,-71.49116885,18.2000007629395,2012-01-18 14:44:48
0.926000118255615,42.85489238,-71.4911687,18.2000007629395,2012-01-18 14:44:49
1.00300002098083,42.85489251,-71.49116895,18.1000003814697,2012-01-18 14:44:50
1.00399994850159,42.85489258,-71.49116905,18.1000003814697,2012-01-18 14:44:51
0.994999885559082,42.85489263,-71.4911692,18.1000003814697,2012-01-18 14:44:52
1.00699996948242,42.85489275,-71.4911694,18.1000003814697,2012-01-18 14:44:53
0.986999988555908,42.85489273,-71.49116938,18.1000003814697,2012-01-18 14:44:54
1.08100008964539,42.85489269,-71.49116915,18.1000003814697,2012-01-18 14:44:55
0.924000024795532,42.8548928,-71.4911693,18.1000003814697,2012-01-18 14:44:56
0.999000072479248,42.85489286,-71.49116944,18,2012-01-18 14:44:57
1.00399994850159,42.85489283,-71.49116939,18,2012-01-18 14:44:58
1.00399994850159,42.85489287,-71.4911694,18,2012-01-18 14:44:59
0.999000072479248,42.8548929,-71.49116957,18,2012-01-18 14:45:00
0.996000051498413,42.85489285,-71.49116948,18,2012-01-18 14:45:01
1.06900000572205,42.85489301,-71.49116979,18,2012-01-18 14:45:02
0.938999891281128,42.85489297,-71.49116969,18,2012-01-18 14:45:03
0.996000051498413,42.85489305,-71.49116965,18,2012-01-18 14:45:04
1,42.85489303,-71.4911696,18,2012-01-18 14:45:05
1.00600004196167,42.85489306,-71.49116964,18,2012-01-18 14:45:06
1.00399994850159,42.85489306,-71.49116964,18,2012-01-18 14:45:07
1.03399991989136,42.85489308,-71.49116975,18,2012-01-18 14:45:08
1.01999998092651,42.85489306,-71.49116966,18,2012-01-18 14:45:09
1.09000015258789,42.85489311,-71.49116976,18,2012-01-18 14:45:10
0.84499979019165,42.85489312,-71.49116971,18,2012-01-18 14:45:11
1,42.85489317,-71.49116984,17.8999996185303,2012-01-18 14:45:12
1.007000207901,42.85489318,-71.49116976,17.8999996185303,2012-01-18 14:45:13
1.00999999046326,42.85489315,-71.49116961,18,2012-01-18 14:45:14
0.980999946594238,42.85489309,-71.49116945,18,2012-01-18 14:45:15
1.04999995231628,42.85489307,-71.49116939,18,2012-01-18 14:45:16
0.954999923706055,42.85489302,-71.4911693,18,2012-01-18 14:45:17
0.999000072479248,42.85489293,-71.49116896,18,2012-01-18 14:45:18
1.01200008392334,42.85489286,-71.49116879,18,2012-01-18 14:45:19
0.990999937057495,42.85489281,-71.49116862,18,2012-01-18 14:45:20
0.996999979019165,42.85489272,-71.49116834,18,2012-01-18 14:45:21
1.02500009536743,42.85489266,-71.49116811,18,2012-01-18 14:45:22
1.05299997329712,42.85489263,-71.49116796,18,2012-01-18 14:45:23
0.924000024795532,42.85489264,-71.49116806,18,2012-01-18 14:45:24
0.997999906539917,42.8548927,-71.49116821,18,2012-01-18 14:45:25
1.00200009346008,42.85489263,-71.49116796,18,2012-01-18 14:45:26
1.0019998550415,42.85489255,-71.49116773,18,2012-01-18 14:45:27
1.00699996948242,42.85489249,-71.49116754,18.1000003814697,2012-01-18 14:45:28
0.994000196456909,42.85489258,-71.49116764,18,2012-01-18 14:45:29
1.01699995994568,42.8548925,-71.49116751,18.1000003814697,2012-01-18 14:45:30
1.07599997520447,42.85489259,-71.49116768,18,2012-01-18 14:45:31
0.899999856948853,42.85489264,-71.49116785,18,2012-01-18 14:45:32
1.00100016593933,42.85489249,-71.49116763,18,2012-01-18 14:45:33
0.998999834060669,42.85489262,-71.49116776,18,2012-01-18 14:45:34
1.00500011444092,42.85489267,-71.4911679,18,2012-01-18 14:45:35
1.00099992752075,42.85489261,-71.49116767,18,2012-01-18 14:45:36
1.05400013923645,42.85489258,-71.49116767,18,2012-01-18 14:45:37
0.937999963760376,42.85489249,-71.49116747,18.1000003814697,2012-01-18 14:45:38
1.01300001144409,42.85489248,-71.49116746,18,2012-01-18 14:45:39
0.993000030517578,42.85489243,-71.49116739,18,2012-01-18 14:45:40
0.998999834060669,42.85489237,-71.49116723,18.1000003814697,2012-01-18 14:45:41
1.00600004196167,42.85489234,-71.49116727,18,2012-01-18 14:45:42
0.990999937057495,42.85489242,-71.49116734,18,2012-01-18 14:45:43
1.08200001716614,42.85489255,-71.49116757,18,2012-01-18 14:45:44
0.912000179290771,42.85489254,-71.49116744,18,2012-01-18 14:45:45
1.00099992752075,42.85489256,-71.49116746,18,2012-01-18 14:45:46
1,42.85489271,-71.49116768,18,2012-01-18 14:45:47
0.997999906539917,42.85489263,-71.49116762,18,2012-01-18 14:45:48
1.00100016593933,42.85489273,-71.49116771,18,2012-01-18 14:45:49
1.01699995994568,42.85489264,-71.49116747,18,2012-01-18 14:45:50
1.02900004386902,42.85489261,-71.49116733,18,2012-01-18 14:45:51
0.953999996185303,42.8548925,-71.49116727,18,2012-01-18 14:45:52
0.994999885559082,42.85489252,-71.49116729,18,2012-01-18 14:45:53
1.00200009346008,42.8548924,-71.49116707,18,2012-01-18 14:45:54
1.00600004196167,42.8548924,-71.49116703,18,2012-01-18 14:45:55
1.00699996948242,42.85489231,-71.49116676,18.1000003814697,2012-01-18 14:45:56
0.990000009536743,42.8548923,-71.49116676,18.1000003814697,2012-01-18 14:45:57
1.06399989128113,42.85489224,-71.49116668,18.1000003814697,2012-01-18 14:45:58
0.937000036239624,42.8548921,-71.4911665,18.1000003814697,2012-01-18 14:45:59
