"diffSecs","latitude","longitude","altitude","time"
1.54900002479553,42.37216432,-70.99491767,-8.89999961853027,2012-01-05 07:53:44
0.640000104904175,42.37216455,-70.99491816,-9,2012-01-05 07:53:45
1.35399985313416,42.37216479,-70.99491863,-9,2012-01-05 07:53:46
0.684999942779541,42.37216511,-70.9949194,-9.10000038146973,2012-01-05 07:53:47
0.823000192642212,42.37216538,-70.99491999,-9.19999980926514,2012-01-05 07:53:48
0.962999820709229,42.37216545,-70.99492015,-9.19999980926514,2012-01-05 07:53:49
1.74399995803833,42.37216549,-70.99492022,-9.19999980926514,2012-01-05 07:53:50
1.4060001373291,42.37216551,-70.99492029,-9.19999980926514,2012-01-05 07:53:52
0.275000095367432,42.37216553,-70.99492044,-9.19999980926514,2012-01-05 07:53:52
1.02199983596802,42.37216453,-70.99491725,-8.89999961853027,2012-01-05 07:53:53
0.953000068664551,42.37216459,-70.99491735,-8.89999961853027,2012-01-05 07:53:54
0.970000028610229,42.37216436,-70.99491696,-8.80000019073486,2012-01-05 07:53:55
0.111000061035156,42.37216429,-70.99491677,-8.80000019073486,2012-01-05 07:53:55
0.974999904632568,42.37216425,-70.99491672,-8.80000019073486,2012-01-05 07:53:56
1.00699996948242,42.37216419,-70.99491661,-8.80000019073486,2012-01-05 07:53:57
1.09599995613098,42.37216413,-70.99491652,-8.80000019073486,2012-01-05 07:53:58
0.936000108718872,42.37216416,-70.99491653,-8.80000019073486,2012-01-05 07:53:59
0.976999998092651,42.37216415,-70.99491637,-8.80000019073486,2012-01-05 07:54:00
1.22499990463257,42.37216414,-70.99491631,-8.80000019073486,2012-01-05 07:54:01
0.934999942779541,42.37216414,-70.99491616,-8.80000019073486,2012-01-05 07:54:02
0.967000007629395,42.37216415,-70.9949161,-8.80000019073486,2012-01-05 07:54:03
1.0310001373291,42.37216418,-70.99491615,-8.80000019073486,2012-01-05 07:54:04
0.848000049591064,42.3721642,-70.99491618,-8.80000019073486,2012-01-05 07:54:05
1.08499979972839,42.3721642,-70.99491618,-8.80000019073486,2012-01-05 07:54:06
1.01500010490417,42.37216419,-70.99491626,-8.80000019073486,2012-01-05 07:54:07
1.03699994087219,42.37216407,-70.99491613,-8.80000019073486,2012-01-05 07:54:08
1.11899995803833,42.37216402,-70.99491618,-8.80000019073486,2012-01-05 07:54:09
0.855000019073486,42.372164,-70.99491614,-8.80000019073486,2012-01-05 07:54:10
1.2110002040863,42.37216403,-70.99491623,-8.80000019073486,2012-01-05 07:54:11
1.07099986076355,42.37216421,-70.99491678,-8.89999961853027,2012-01-05 07:54:12
0.989000082015991,42.3721642,-70.99491693,-8.89999961853027,2012-01-05 07:54:13
1.06399989128113,42.37216414,-70.99491725,-8.89999961853027,2012-01-05 07:54:14
0.851000070571899,42.37216421,-70.99491745,-9,2012-01-05 07:54:15
1,42.37216321,-70.99491714,-9,2012-01-05 07:54:16
1.09800004959106,42.37216604,-70.99491924,-9,2012-01-05 07:54:17
0.961999893188477,42.3721645,-70.99491865,-9.10000038146973,2012-01-05 07:54:18
1.11800003051758,42.37216469,-70.99491896,-9.10000038146973,2012-01-05 07:54:19
0.947000026702881,42.37216603,-70.99492064,-9.19999980926514,2012-01-05 07:54:20
0.94599986076355,42.37216603,-70.99492064,-9.19999980926514,2012-01-05 07:54:21
1.00100016593933,42.3721669,-70.99492185,-9.30000019073486,2012-01-05 07:54:22
0.94599986076355,42.37216756,-70.99492278,-9.30000019073486,2012-01-05 07:54:23
1.05599999427795,42.37216838,-70.99492389,-9.39999961853027,2012-01-05 07:54:24
0.992000102996826,42.37216838,-70.99492389,-9.39999961853027,2012-01-05 07:54:25
1.06399989128113,42.37216871,-70.99492441,-9.5,2012-01-05 07:54:26
0.919000148773193,42.37216864,-70.99492432,-9.5,2012-01-05 07:54:27
0.986999988555908,42.37216863,-70.99492433,-9.5,2012-01-05 07:54:28
1.04399991035461,42.37216855,-70.99492421,-9.5,2012-01-05 07:54:29
1.04999995231628,42.37216854,-70.9949242,-9.5,2012-01-05 07:54:30
0.967000007629395,42.37216858,-70.99492427,-9.5,2012-01-05 07:54:31
0.915000200271606,42.37216857,-70.99492426,-9.5,2012-01-05 07:54:32
1.03199982643127,42.37216859,-70.99492429,-9.5,2012-01-05 07:54:33
1.03600001335144,42.3721686,-70.99492432,-9.5,2012-01-05 07:54:34
1.06500005722046,42.3721686,-70.99492431,-9.5,2012-01-05 07:54:35
1.13499999046326,42.3721686,-70.99492429,-9.5,2012-01-05 07:54:37
0.76800012588501,42.37216865,-70.99492429,-9.5,2012-01-05 07:54:37
0.986999988555908,42.37216866,-70.99492431,-9.5,2012-01-05 07:54:38
0.965999841690063,42.37216867,-70.99492425,-9.5,2012-01-05 07:54:39
1.03999996185303,42.37216864,-70.99492422,-9.5,2012-01-05 07:54:40
1.01300001144409,42.37216863,-70.99492416,-9.5,2012-01-05 07:54:41
1.48900008201599,42.37216866,-70.99492423,-9.5,2012-01-05 07:54:43
0.993000030517578,42.3721686,-70.99492419,-9.5,2012-01-05 07:54:44
1.05200004577637,42.37216866,-70.99492419,-9.5,2012-01-05 07:54:45
1.02999997138977,42.37216875,-70.99492427,-9.5,2012-01-05 07:54:46
0.899999856948853,42.37216875,-70.99492427,-9.5,2012-01-05 07:54:47
1.04200005531311,42.37216879,-70.99492435,-9.5,2012-01-05 07:54:48
1.00300002098083,42.37216882,-70.99492443,-9.5,2012-01-05 07:54:49
1.02099990844727,42.37216893,-70.99492478,-9.60000038146973,2012-01-05 07:54:50
0.955000162124634,42.37216904,-70.99492492,-9.60000038146973,2012-01-05 07:54:51
1.0090000629425,42.37216908,-70.99492506,-9.60000038146973,2012-01-05 07:54:52
1.06699991226196,42.37216908,-70.99492506,-9.60000038146973,2012-01-05 07:54:53
0.997999906539917,42.37216909,-70.99492523,-9.60000038146973,2012-01-05 07:54:54
0.96399998664856,42.37216917,-70.99492538,-9.60000038146973,2012-01-05 07:54:55
1.07800006866455,42.37216926,-70.99492575,-9.69999980926514,2012-01-05 07:54:56
0.868000030517578,42.37216944,-70.99492622,-9.69999980926514,2012-01-05 07:54:57
0.680000066757202,42.37216977,-70.99492787,-9.89999961853027,2012-01-05 07:54:57
0.930999994277954,42.37216977,-70.99492787,-9.89999961853027,2012-01-05 07:54:58
1.08699989318848,42.37216958,-70.9949278,-9.89999961853027,2012-01-05 07:55:00
0.91100001335144,42.37216979,-70.99492844,-10,2012-01-05 07:55:00
1.09899997711182,42.37216979,-70.99492844,-10,2012-01-05 07:55:02
0.525000095367432,42.37217007,-70.99492876,-10.1000003814697,2012-01-05 07:55:02
1.02999997138977,42.37217007,-70.99492876,-10.1000003814697,2012-01-05 07:55:03
0.973000049591064,42.3721701,-70.99492883,-10.1000003814697,2012-01-05 07:55:04
0.997999906539917,42.3721702,-70.99492897,-10.1999998092651,2012-01-05 07:55:05
1.08800005912781,42.37217024,-70.99492926,-10.1999998092651,2012-01-05 07:55:06
1.00699996948242,42.37217022,-70.99492924,-10.1999998092651,2012-01-05 07:55:07
1.05399990081787,42.37217012,-70.99492924,-10.1000003814697,2012-01-05 07:55:08
0.889000177383423,42.3721701,-70.99492953,-10.1999998092651,2012-01-05 07:55:09
0.985999822616577,42.3721701,-70.99492953,-10.1999998092651,2012-01-05 07:55:10
0.969000101089478,42.3721701,-70.99492951,-10.1000003814697,2012-01-05 07:55:11
1.09100008010864,42.37217012,-70.99492953,-10.1000003814697,2012-01-05 07:55:12
1.00099992752075,42.37217016,-70.99492955,-10.1000003814697,2012-01-05 07:55:13
0.967999935150146,42.3721701,-70.99492958,-10.1000003814697,2012-01-05 07:55:14
0.957000017166138,42.37217009,-70.99492961,-10.1000003814697,2012-01-05 07:55:15
1.01399993896484,42.37217012,-70.9949296,-10.1000003814697,2012-01-05 07:55:16
0.983000040054321,42.37217012,-70.9949296,-10.1000003814697,2012-01-05 07:55:17
1.07299995422363,42.37217015,-70.99492965,-10.1000003814697,2012-01-05 07:55:18
0.924000024795532,42.37217019,-70.99492967,-10.1000003814697,2012-01-05 07:55:19
1.0550000667572,42.37217031,-70.99492974,-10.1000003814697,2012-01-05 07:55:20
1.00799989700317,42.37217031,-70.99492974,-10.1000003814697,2012-01-05 07:55:21
0.971000194549561,42.37217031,-70.99492972,-10.1000003814697,2012-01-05 07:55:22
0.98799991607666,42.37217031,-70.99492972,-10.1000003814697,2012-01-05 07:55:23
1.10800004005432,42.37217031,-70.99492973,-10.1000003814697,2012-01-05 07:55:24
0.91700005531311,42.37217031,-70.99492974,-10.1000003814697,2012-01-05 07:55:25
1.01899981498718,42.37217031,-70.99492974,-10.1000003814697,2012-01-05 07:55:26
0.971000194549561,42.37217031,-70.99492975,-10.1000003814697,2012-01-05 07:55:27
0.960999965667725,42.37217032,-70.99492976,-10.1000003814697,2012-01-05 07:55:28
1.02199983596802,42.37217032,-70.99492976,-10.1000003814697,2012-01-05 07:55:29
0.953999996185303,42.37217032,-70.99492976,-10.1000003814697,2012-01-05 07:55:30
1.10500001907349,42.37217032,-70.99492976,-10.1000003814697,2012-01-05 07:55:31
0.991000175476074,42.37217032,-70.99492977,-10.1000003814697,2012-01-05 07:55:32
0.896999835968018,42.37217032,-70.99492978,-10.1000003814697,2012-01-05 07:55:33
1.14199995994568,42.37217032,-70.99492977,-10.1000003814697,2012-01-05 07:55:34
0.894000053405762,42.37217032,-70.99492976,-10.1000003814697,2012-01-05 07:55:35
0.969000101089478,42.37217032,-70.99492978,-10.1999998092651,2012-01-05 07:55:36
1.07500004768372,42.37217032,-70.99492978,-10.1999998092651,2012-01-05 07:55:37
1.03199982643127,42.37217032,-70.99492978,-10.1999998092651,2012-01-05 07:55:38
0.917999982833862,42.37217032,-70.99492978,-10.1999998092651,2012-01-05 07:55:39
1.07200002670288,42.37217032,-70.99492976,-10.1000003814697,2012-01-05 07:55:40
0.92300009727478,42.37217032,-70.99492976,-10.1000003814697,2012-01-05 07:55:41
0.98199987411499,42.37217032,-70.99492976,-10.1000003814697,2012-01-05 07:55:42
1.08599996566772,42.37217032,-70.99492977,-10.1000003814697,2012-01-05 07:55:43
1.04200005531311,42.37217032,-70.99492977,-10.1000003814697,2012-01-05 07:55:44
0.966000080108643,42.37217032,-70.99492974,-10.1000003814697,2012-01-05 07:55:45
0.920000076293945,42.37217032,-70.99492974,-10.1000003814697,2012-01-05 07:55:46
0.98799991607666,42.37217032,-70.99492976,-10.1000003814697,2012-01-05 07:55:47
1.07699990272522,42.37217032,-70.99492976,-10.1000003814697,2012-01-05 07:55:48
0.932000160217285,42.37217032,-70.99492976,-10.1000003814697,2012-01-05 07:55:49
1.09599995613098,42.37217032,-70.99492976,-10.1000003814697,2012-01-05 07:55:50
0.94599986076355,42.37217034,-70.99492977,-10.1000003814697,2012-01-05 07:55:51
1.00100016593933,42.37217034,-70.99492977,-10.1000003814697,2012-01-05 07:55:52
0.991999864578247,42.37217034,-70.9949298,-10.1999998092651,2012-01-05 07:55:53
0.998000144958496,42.37217035,-70.99492983,-10.1999998092651,2012-01-05 07:55:54
0.894000053405762,42.37217038,-70.99492987,-10.1999998092651,2012-01-05 07:55:55
1.00999999046326,42.37217038,-70.99492991,-10.1999998092651,2012-01-05 07:55:56
0.955999851226807,42.37217038,-70.99492991,-10.1999998092651,2012-01-05 07:55:57
1.01200008392334,42.37217041,-70.99492998,-10.1999998092651,2012-01-05 07:55:58
0.938999891281128,42.37217041,-70.99492998,-10.1999998092651,2012-01-05 07:55:59
1.0090000629425,42.37217038,-70.99493002,-10.1999998092651,2012-01-05 07:56:00
1.08599996566772,42.37217037,-70.99493001,-10.1999998092651,2012-01-05 07:56:01
0.960000038146973,42.37217036,-70.99493003,-10.1999998092651,2012-01-05 07:56:02
1.00699996948242,42.37217037,-70.99493005,-10.1999998092651,2012-01-05 07:56:03
0.983999967575073,42.37217036,-70.99493005,-10.1999998092651,2012-01-05 07:56:04
1.07599997520447,42.37217033,-70.99493014,-10.1999998092651,2012-01-05 07:56:05
0.921000003814697,42.37217032,-70.99493016,-10.1999998092651,2012-01-05 07:56:06
0.939000129699707,42.37217031,-70.99493019,-10.1999998092651,2012-01-05 07:56:07
1.07500004768372,42.37217033,-70.99493018,-10.1999998092651,2012-01-05 07:56:08
1.0019998550415,42.37217033,-70.99493016,-10.1999998092651,2012-01-05 07:56:09
1.05299997329712,42.37217033,-70.99493014,-10.1999998092651,2012-01-05 07:56:10
1,42.37217033,-70.99493013,-10.1999998092651,2012-01-05 07:56:11
0.927999973297119,42.37217031,-70.99493025,-10.1999998092651,2012-01-05 07:56:12
0.943000078201294,42.37217031,-70.99493036,-10.1999998092651,2012-01-05 07:56:13
1.13100004196167,42.37217031,-70.99493036,-10.1999998092651,2012-01-05 07:56:14
0.960000038146973,42.37217031,-70.99493036,-10.1999998092651,2012-01-05 07:56:15
1.01699995994568,42.37217032,-70.99493041,-10.1999998092651,2012-01-05 07:56:16
0.980999946594238,42.37217032,-70.99493041,-10.1999998092651,2012-01-05 07:56:17
0.921999931335449,42.37217032,-70.9949304,-10.1999998092651,2012-01-05 07:56:18
1.02000021934509,42.37217031,-70.99493041,-10.1999998092651,2012-01-05 07:56:19
1.56299996376038,42.37217031,-70.99493041,-10.1999998092651,2012-01-05 07:56:20
1.00099992752075,42.37217031,-70.99493041,-10.1999998092651,2012-01-05 07:56:21
0.948999881744385,42.37217031,-70.99493041,-10.1999998092651,2012-01-05 07:56:22
1.02400016784668,42.37217031,-70.99493041,-10.1999998092651,2012-01-05 07:56:23
0.736999988555908,42.37217031,-70.99493042,-10.1999998092651,2012-01-05 07:56:24
0.940999984741211,42.3721703,-70.99493042,-10.1999998092651,2012-01-05 07:56:25
1.08500003814697,42.37217029,-70.99493044,-10.1999998092651,2012-01-05 07:56:26
1.01300001144409,42.37217029,-70.99493044,-10.1999998092651,2012-01-05 07:56:27
0.886999845504761,42.37217029,-70.99493043,-10.1999998092651,2012-01-05 07:56:28
1.08700013160706,42.3721703,-70.99493044,-10.1999998092651,2012-01-05 07:56:29
0.960999965667725,42.3721703,-70.99493044,-10.1999998092651,2012-01-05 07:56:30
0.961999893188477,42.37217031,-70.99493045,-10.1999998092651,2012-01-05 07:56:31
1.11500000953674,42.37217033,-70.99493047,-10.1999998092651,2012-01-05 07:56:32
0.986999988555908,42.37217033,-70.99493047,-10.1999998092651,2012-01-05 07:56:33
0.933000087738037,42.37217034,-70.9949305,-10.1999998092651,2012-01-05 07:56:34
1.02900004386902,42.37217034,-70.9949305,-10.1999998092651,2012-01-05 07:56:35
0.967999935150146,42.37217034,-70.9949305,-10.1999998092651,2012-01-05 07:56:36
0.972000122070312,42.37217034,-70.9949305,-10.1999998092651,2012-01-05 07:56:37
1.05900001525879,42.37217034,-70.9949305,-10.1999998092651,2012-01-05 07:56:38
0.997999906539917,42.37217034,-70.9949305,-10.1999998092651,2012-01-05 07:56:39
1.01300001144409,42.37217034,-70.9949305,-10.1999998092651,2012-01-05 07:56:40
2.51200008392334,42.3721700906754,-70.9949290752411,49,2012-01-05 07:56:43
0.952999830245972,42.3721700906754,-70.9949290752411,49,2012-01-05 07:56:44
0.498000144958496,42.3721700906754,-70.9949290752411,49,2012-01-05 07:56:44
1.00999999046326,42.3721700906754,-70.9949290752411,49,2012-01-05 07:56:45
1,42.3721700906754,-70.9949290752411,49,2012-01-05 07:56:46
0.944000005722046,42.3721700906754,-70.9949290752411,49,2012-01-05 07:56:47
1.09500002861023,42.3721700906754,-70.9949290752411,49,2012-01-05 07:56:48
0.980999946594238,42.3721700906754,-70.9949290752411,49,2012-01-05 07:56:49
0.990000009536743,42.3721700906754,-70.9949290752411,49,2012-01-05 07:56:50
0.990000009536743,42.3721700906754,-70.9949290752411,49,2012-01-05 07:56:51
0.994999885559082,42.3721700906754,-70.9949290752411,49,2012-01-05 07:56:52
20.5880000591278,42.3721700906754,-70.9949290752411,49,2012-01-05 07:57:13
0.935999870300293,42.3721700906754,-70.9949290752411,49,2012-01-05 07:57:14
1.01300001144409,42.3721700906754,-70.9949290752411,49,2012-01-05 07:57:15
0.967000007629395,42.3721700906754,-70.9949290752411,49,2012-01-05 07:57:16
0.999000072479248,42.3721700906754,-70.9949290752411,49,2012-01-05 07:57:17
0.953000068664551,42.3721700906754,-70.9949290752411,49,2012-01-05 07:57:18
0.919999837875366,42.3721700906754,-70.9949290752411,49,2012-01-05 07:57:19
0.976999998092651,42.3721700906754,-70.9949290752411,49,2012-01-05 07:57:19
1.00500011444092,42.3721700906754,-70.9949290752411,49,2012-01-05 07:57:21
0.999000072479248,42.3721700906754,-70.9949290752411,49,2012-01-05 07:57:22
1.0019998550415,42.3721700906754,-70.9949290752411,49,2012-01-05 07:57:23
1.0770001411438,42.3721700906754,-70.9949290752411,49,2012-01-05 07:57:24
0.940999984741211,42.3721700906754,-70.9949290752411,49,2012-01-05 07:57:25
0.983999967575073,42.3721700906754,-70.9949290752411,49,2012-01-05 07:57:26
1.00300002098083,42.3721700906754,-70.9949290752411,49,2012-01-05 07:57:27
0.994999885559082,42.3721700906754,-70.9949290752411,49,2012-01-05 07:57:28
1.10000014305115,42.3721700906754,-70.9949290752411,49,2012-01-05 07:57:29
0.957000017166138,42.3721700906754,-70.9949290752411,49,2012-01-05 07:57:30
0.94599986076355,42.3721700906754,-70.9949290752411,49,2012-01-05 07:57:31
0.996999979019165,42.3721700906754,-70.9949290752411,49,2012-01-05 07:57:32
1.00100016593933,42.3721700906754,-70.9949290752411,49,2012-01-05 07:57:33
1.00099992752075,42.3721700906754,-70.9949290752411,49,2012-01-05 07:57:34
1.00300002098083,42.3721700906754,-70.9949290752411,49,2012-01-05 07:57:35
1.02900004386902,42.3721700906754,-70.9949290752411,49,2012-01-05 07:57:36
0.96999979019165,42.3721700906754,-70.9949290752411,49,2012-01-05 07:57:37
1.00200009346008,42.3721700906754,-70.9949290752411,49,2012-01-05 07:57:38
1.00099992752075,42.3721700906754,-70.9949290752411,49,2012-01-05 07:57:39
0.998000144958496,42.3721700906754,-70.9949290752411,49,2012-01-05 07:57:40
2.99600005149841,42.3721700906754,-70.9949290752411,49,2012-01-05 07:57:43
1.00799989700317,42.3721700906754,-70.9949290752411,49,2012-01-05 07:57:44
0.989000082015991,42.3721700906754,-70.9949290752411,49,2012-01-05 07:57:45
1.00099992752075,42.3721700906754,-70.9949290752411,49,2012-01-05 07:57:46
1.0239999294281,42.3721700906754,-70.9949290752411,49,2012-01-05 07:57:47
0.976000070571899,42.3721700906754,-70.9949290752411,49,2012-01-05 07:57:48
1.00399994850159,42.3721700906754,-70.9949290752411,49,2012-01-05 07:57:49
0.999000072479248,42.3721700906754,-70.9949290752411,49,2012-01-05 07:57:50
1,42.3721700906754,-70.9949290752411,49,2012-01-05 07:57:51
1.11999988555908,42.3721700906754,-70.9949290752411,49,2012-01-05 07:57:52
0.330000162124634,42.3721700906754,-70.9949290752411,49,2012-01-05 07:57:52
1.05799984931946,42.3721700906754,-70.9949290752411,49,2012-01-05 07:57:53
0.962000131607056,42.3721700906754,-70.9949290752411,49,2012-01-05 07:57:54
1.02600002288818,42.3721700906754,-70.9949290752411,49,2012-01-05 07:57:55
0.998999834060669,42.3721700906754,-70.9949290752411,49,2012-01-05 07:57:56
0.956000089645386,42.3721700906754,-70.9949290752411,49,2012-01-05 07:57:57
1.08699989318848,42.3721700906754,-70.9949290752411,49,2012-01-05 07:57:58
0.919000148773193,42.3721700906754,-70.9949290752411,49,2012-01-05 07:57:59
1.02699995040894,42.3721700906754,-70.9949290752411,49,2012-01-05 07:58:00
0.934999942779541,42.3721700906754,-70.9949290752411,49,2012-01-05 07:58:01
1.06900000572205,42.3721700906754,-70.9949290752411,49,2012-01-05 07:58:02
0.996999979019165,42.3721700906754,-70.9949290752411,49,2012-01-05 07:58:03
1.10300016403198,42.3721700906754,-70.9949290752411,49,2012-01-05 07:58:04
0.902999877929688,42.3721700906754,-70.9949290752411,49,2012-01-05 07:58:05
1.00600004196167,42.3721700906754,-70.9949290752411,49,2012-01-05 07:58:06
1.00399994850159,42.37217024,-70.99493069,-10.3000001907349,2012-01-05 07:58:07
0.980000019073486,42.37217022,-70.99493067,-10.3000001907349,2012-01-05 07:58:08
1.00200009346008,42.37217022,-70.99493067,-10.3000001907349,2012-01-05 07:58:09
0.952999830245972,42.37217022,-70.99493068,-10.3000001907349,2012-01-05 07:58:10
1.06000018119812,42.3721702,-70.99493073,-10.3000001907349,2012-01-05 07:58:11
1.05099987983704,42.3721702,-70.99493077,-10.3000001907349,2012-01-05 07:58:12
0.975000143051147,42.37217016,-70.99493075,-10.3000001907349,2012-01-05 07:58:13
1.04899978637695,42.37217017,-70.99493079,-10.3000001907349,2012-01-05 07:58:14
0.894000053405762,42.37217017,-70.9949308,-10.3000001907349,2012-01-05 07:58:15
0.973000049591064,42.37217017,-70.9949308,-10.3000001907349,2012-01-05 07:58:16
1.00399994850159,42.37217017,-70.99493079,-10.3000001907349,2012-01-05 07:58:17
1.08700013160706,42.37217017,-70.99493079,-10.3000001907349,2012-01-05 07:58:18
1.01899981498718,42.37217018,-70.99493077,-10.3000001907349,2012-01-05 07:58:19
0.938000202178955,42.37217017,-70.99493077,-10.3000001907349,2012-01-05 07:58:20
1.02199983596802,42.37217018,-70.99493078,-10.3000001907349,2012-01-05 07:58:21
0.965000152587891,42.37217018,-70.99493077,-10.3000001907349,2012-01-05 07:58:22
0.988999843597412,42.37217017,-70.99493079,-10.3000001907349,2012-01-05 07:58:23
1.09500002861023,42.37217018,-70.99493079,-10.3000001907349,2012-01-05 07:58:24
0.972000122070312,42.37217018,-70.99493079,-10.3000001907349,2012-01-05 07:58:25
0.953999996185303,42.37217018,-70.99493079,-10.3000001907349,2012-01-05 07:58:26
0.97599983215332,42.37217018,-70.99493079,-10.3000001907349,2012-01-05 07:58:27
0.983000040054321,42.37217018,-70.99493079,-10.3000001907349,2012-01-05 07:58:28
1.08599996566772,42.37217018,-70.99493079,-10.3000001907349,2012-01-05 07:58:29
0.967000007629395,42.37217018,-70.99493079,-10.3000001907349,2012-01-05 07:58:30
0.994000196456909,42.37217018,-70.99493079,-10.3000001907349,2012-01-05 07:58:31
1.00399994850159,42.37217018,-70.99493079,-10.3000001907349,2012-01-05 07:58:32
2.11199998855591,42.3721700906754,-70.9949290752411,49,2012-01-05 07:58:34
0.976999998092651,42.3721700906754,-70.9949290752411,49,2012-01-05 07:58:35
1,42.3721700906754,-70.9949290752411,49,2012-01-05 07:58:36
0.999000072479248,42.3721700906754,-70.9949290752411,49,2012-01-05 07:58:37
1.00399994850159,42.3721700906754,-70.9949290752411,49,2012-01-05 07:58:38
1.07699990272522,42.3721700906754,-70.9949290752411,49,2012-01-05 07:58:39
0.924999952316284,42.3721700906754,-70.9949290752411,49,2012-01-05 07:58:40
0.932000160217285,42.3721702,-70.99493097,-10.3000001907349,2012-01-05 07:58:41
0.970000028610229,42.37217023,-70.99493104,-10.3000001907349,2012-01-05 07:58:42
1.01199984550476,42.37217029,-70.99493122,-10.3000001907349,2012-01-05 07:58:43
0.99399995803833,42.37217029,-70.99493123,-10.3000001907349,2012-01-05 07:58:44
0.967000007629395,42.37217029,-70.99493123,-10.3000001907349,2012-01-05 07:58:45
1.06900000572205,42.37217029,-70.99493123,-10.3000001907349,2012-01-05 07:58:46
0.917999982833862,42.37217029,-70.99493123,-10.3000001907349,2012-01-05 07:58:47
0.984000205993652,42.37217029,-70.99493123,-10.3000001907349,2012-01-05 07:58:48
1.08899998664856,42.37217029,-70.99493123,-10.3000001907349,2012-01-05 07:58:49
1.00299978256226,42.3721703,-70.99493123,-10.3000001907349,2012-01-05 07:58:50
0.916000127792358,42.3721703,-70.99493122,-10.3000001907349,2012-01-05 07:58:51
1.05900001525879,42.37217031,-70.99493124,-10.3000001907349,2012-01-05 07:58:52
0.934000015258789,42.3721700906754,-70.9949290752411,49,2012-01-05 07:58:53
1.10399985313416,42.37217031,-70.99493126,-10.3000001907349,2012-01-05 07:58:54
0.971000194549561,42.37217031,-70.99493127,-10.3000001907349,2012-01-05 07:58:55
1.02699995040894,42.37217031,-70.99493127,-10.3000001907349,2012-01-05 07:58:56
1.01600003242493,42.37217031,-70.99493127,-10.3000001907349,2012-01-05 07:58:57
0.914999961853027,42.37217031,-70.99493127,-10.3000001907349,2012-01-05 07:58:58
0.963000059127808,42.37217032,-70.99493128,-10.3000001907349,2012-01-05 07:58:59
1.90299987792969,42.37217032,-70.99493129,-10.3000001907349,2012-01-05 07:59:01
0.908999919891357,42.37217032,-70.99493129,-10.3000001907349,2012-01-05 07:59:02
1.08200001716614,42.37217033,-70.9949313,-10.3000001907349,2012-01-05 07:59:03
0.927000045776367,42.37217034,-70.99493129,-10.3000001907349,2012-01-05 07:59:04
0.980000019073486,42.37217037,-70.99493133,-10.3000001907349,2012-01-05 07:59:05
1.07299995422363,42.37217036,-70.99493133,-10.3000001907349,2012-01-05 07:59:06
1.01800012588501,42.37217039,-70.99493145,-10.3000001907349,2012-01-05 07:59:07
0.971999883651733,42.37217039,-70.99493145,-10.3000001907349,2012-01-05 07:59:08
0.993000030517578,42.3721704,-70.99493145,-10.3000001907349,2012-01-05 07:59:09
1,42.37217039,-70.99493147,-10.3000001907349,2012-01-05 07:59:10
0.936000108718872,42.3721704,-70.99493147,-10.3000001907349,2012-01-05 07:59:11
1.06399989128113,42.3721704,-70.99493147,-10.3000001907349,2012-01-05 07:59:12
1.04100012779236,42.37217041,-70.99493151,-10.3000001907349,2012-01-05 07:59:13
1.00499987602234,42.3721704,-70.9949315,-10.3000001907349,2012-01-05 07:59:14
1.00600004196167,42.3721704,-70.99493149,-10.3000001907349,2012-01-05 07:59:15
0.91100001335144,42.3721704,-70.9949315,-10.3000001907349,2012-01-05 07:59:16
1.06500005722046,42.37217039,-70.99493149,-10.3000001907349,2012-01-05 07:59:17
1.03299999237061,42.37217038,-70.99493148,-10.3000001907349,2012-01-05 07:59:18
0.955999851226807,42.37217038,-70.99493148,-10.3000001907349,2012-01-05 07:59:19
0.966000080108643,42.37217038,-70.99493149,-10.3000001907349,2012-01-05 07:59:20
0.779999971389771,42.37217038,-70.99493149,-10.3000001907349,2012-01-05 07:59:21
1.3989999294281,42.37217038,-70.99493149,-10.3000001907349,2012-01-05 07:59:22
0.493000030517578,42.37217038,-70.99493149,-10.3000001907349,2012-01-05 07:59:22
0.896000146865845,42.37217038,-70.99493149,-10.3000001907349,2012-01-05 07:59:23
1.08699989318848,42.37217038,-70.9949315,-10.3000001907349,2012-01-05 07:59:24
0.924000024795532,42.37217038,-70.9949315,-10.3000001907349,2012-01-05 07:59:25
2.5550000667572,42.3721700906754,-70.9949290752411,49,2012-01-05 07:59:28
1,42.3721700906754,-70.9949290752411,49,2012-01-05 07:59:29
0.470999956130981,42.37217038,-70.9949315,-10.3000001907349,2012-01-05 07:59:29
1.10500001907349,42.37217038,-70.99493149,-10.3000001907349,2012-01-05 07:59:30
0.889999866485596,42.37217038,-70.99493149,-10.3000001907349,2012-01-05 07:59:31
0.959000110626221,42.37217038,-70.99493149,-10.3000001907349,2012-01-05 07:59:32
0.983000040054321,42.37217037,-70.99493156,-10.3000001907349,2012-01-05 07:59:33
1.0699999332428,42.37217037,-70.9949316,-10.3000001907349,2012-01-05 07:59:34
0.957000017166138,42.37217037,-70.99493159,-10.3000001907349,2012-01-05 07:59:35
1.00399994850159,42.37217037,-70.99493161,-10.3000001907349,2012-01-05 07:59:36
1.01099991798401,42.37217037,-70.99493161,-10.3000001907349,2012-01-05 07:59:37
0.973000049591064,42.3721700906754,-70.9949290752411,49,2012-01-05 07:59:38
1.02400016784668,42.3721700906754,-70.9949290752411,49,2012-01-05 07:59:39
1.04299998283386,42.3721700906754,-70.9949290752411,49,2012-01-05 07:59:40
0.940999984741211,42.3721700906754,-70.9949290752411,49,2012-01-05 07:59:41
1.02900004386902,42.3721700906754,-70.9949290752411,49,2012-01-05 07:59:42
0.952999830245972,42.3721700906754,-70.9949290752411,49,2012-01-05 07:59:43
1.04400014877319,42.3721700906754,-70.9949290752411,49,2012-01-05 07:59:44
0.972999811172485,42.3721700906754,-70.9949344396591,49,2012-01-05 07:59:45
0.951000213623047,42.3721700906754,-70.9949344396591,49,2012-01-05 07:59:46
1.15299987792969,42.3721700906754,-70.9949344396591,49,2012-01-05 07:59:47
0.941999912261963,42.3721700906754,-70.9949344396591,49,2012-01-05 07:59:48
1.00200009346008,42.3721700906754,-70.9949344396591,49,2012-01-05 07:59:49
1.36999988555908,42.3721700906754,-70.9949344396591,49,2012-01-05 07:59:51
0.581000089645386,42.3721700906754,-70.9949344396591,49,2012-01-05 07:59:51
0.990999937057495,42.3721700906754,-70.9949344396591,49,2012-01-05 07:59:52
0.959000110626221,42.3721700906754,-70.9949344396591,49,2012-01-05 07:59:53
3.00099992752075,42.3721700906754,-70.9949344396591,49,2012-01-05 07:59:56
1.05999994277954,42.3721700906754,-70.9949344396591,49,2012-01-05 07:59:57
0.946000099182129,42.3721700906754,-70.9949344396591,49,2012-01-05 07:59:58
1.29299998283386,42.3721700906754,-70.9949344396591,49,2012-01-05 08:00:00
