"diffSecs","N.samples","x.mean","x.absolute.deviation","x.standard.deviation","x.max.deviation","x.PSD.1","x.PSD.3","x.PSD.6","x.PSD.10","y.mean","y.absolute.deviation","y.standard.deviation","y.max.deviation","y.PSD.1","y.PSD.3","y.PSD.6","y.PSD.10","z.mean","z.absolute.deviation","z.standard.deviation","z.max.deviation","z.PSD.1","z.PSD.3","z.PSD.6","z.PSD.10","time"
1.01399993896484,42,-2.45072841644287,1.61507296562195,1.92530024051666,4.34527969360352,133.148178100586,118.31810760498,128.909210205078,55.8399963378906,-9.91195487976074,2.23425936698914,3.04830002784729,7.88711404800415,419.55810546875,754.427185058594,768.008544921875,213.303924560547,-1.43527328968048,2.69916367530823,3.28681635856628,7.62607097625732,4.50387620925903,808.882019042969,965.274230957031,361.138702392578,2012-01-21 12:27:06
1.07500004768372,45,-1.64381241798401,1.55594968795776,1.99578773975372,4.67166996002197,42.6606712341309,24.2755966186523,127.650756835938,239.922836303711,-9.93740463256836,1.96539783477783,2.41262006759644,6.30240774154663,6.32025480270386,353.737457275391,779.107116699219,171.416381835938,-0.378318756818771,0.750293433666229,0.976264953613281,2.2988965511322,27.4420738220215,47.9108047485352,83.3727493286133,78.6855621337891,2012-01-21 12:27:07
1.00499987602234,42,-2.04328560829163,1.34241020679474,1.7308863401413,4.33103704452515,124.643814086914,266.017333984375,379.889068603516,187.372421264648,-10.3892116546631,1.86911189556122,2.47301340103149,6.32131958007812,25.7899112701416,169.858062744141,514.832702636719,156.681228637695,-1.21882653236389,1.73450946807861,2.19708275794983,5.96944808959961,301.936737060547,259.838439941406,90.1117706298828,43.6451110839844,2012-01-21 12:27:08
1.09000015258789,46,-1.63408637046814,1.02806687355042,1.31903338432312,3.96551060676575,3.75877737998962,85.1461410522461,110.856658935547,112.556610107422,-9.26152801513672,2.05228710174561,2.58046054840088,5.59384107589722,571.356811523438,872.621459960938,540.728332519531,76.4036026000977,-0.93440318107605,1.68847703933716,2.46117067337036,6.31271123886108,114.410354614258,66.4140319824219,206.0087890625,45.308464050293,2012-01-21 12:27:09
