"diffSecs","N.samples","x.mean","x.absolute.deviation","x.standard.deviation","x.max.deviation","x.PSD.1","x.PSD.3","x.PSD.6","x.PSD.10","y.mean","y.absolute.deviation","y.standard.deviation","y.max.deviation","y.PSD.1","y.PSD.3","y.PSD.6","y.PSD.10","z.mean","z.absolute.deviation","z.standard.deviation","z.max.deviation","z.PSD.1","z.PSD.3","z.PSD.6","z.PSD.10","time"
6.70899963378906,20,-7.81688070297241,0.0122582912445068,0.0154746063053608,0.0284392349421978,3.43120882462244e-05,0.000144063422339968,0.000903402804397047,0.00112616876140237,4.53116226196289,0.00848273746669292,0.0129636861383915,0.039716862142086,9.90545595414005e-05,0.000203534771571867,0.000294721394311637,0.000370313558960333,3.17539310455322,0.0213784817606211,0.026056906208396,0.0608011484146118,0.00173641159199178,0.00331490649841726,0.00575664127245545,0.0021495190449059,2012-01-18 15:28:06
0.692000150680542,99,-7.84353685379028,0.0228010974824429,0.0273977853357792,0.0606228224933147,0.130294531583786,0.13425250351429,0.155387908220291,0.0597576163709164,4.54176664352417,0.0277019329369068,0.0337602868676186,0.0869724154472351,4.83020776300691e-05,0.0892354026436806,0.570078015327454,0.129956603050232,3.18270349502563,0.0319503955543041,0.0368851609528065,0.0739957019686699,0.440861850976944,0.58274233341217,0.113410949707031,0.101136401295662,2012-01-18 15:28:07
0.891000032424927,99,-7.83521604537964,0.027291676029563,0.0332034230232239,0.0983635038137436,0.0732432380318642,0.218152478337288,0.343801826238632,0.062311377376318,4.53879451751709,0.0258768759667873,0.0326900109648705,0.0899441242218018,0.00792360492050648,0.206852525472641,0.230794355273247,0.0685976520180702,3.19568014144897,0.0300532802939415,0.0363912768661976,0.0993543192744255,0.00184913980774581,0.0602858178317547,0.123279266059399,0.240716308355331,2012-01-18 15:28:08
0.715999841690063,99,-7.81193780899048,0.0204837657511234,0.0261480193585157,0.102028608322144,0.000159917035489343,0.0757808089256287,0.0550247542560101,0.047562338411808,4.52175712585449,0.0262951049953699,0.0335131622850895,0.0989578440785408,0.106092721223831,0.0776076540350914,0.212985470890999,0.177057430148125,3.20657634735107,0.0338914915919304,0.0420930534601212,0.107675075531006,0.102864339947701,0.22079698741436,0.38700532913208,0.325307279825211,2012-01-18 15:28:09
1,69,-7.84105587005615,0.021009799093008,0.025401858612895,0.0545760430395603,0.00952282082289457,0.0266872774809599,0.117325514554977,0.105431742966175,4.50466299057007,0.0317000783979893,0.0374013260006905,0.0818640664219856,0.0401300862431526,0.071834608912468,0.20809006690979,0.0699407085776329,3.19199347496033,0.0272097699344158,0.0349269807338715,0.0932343304157257,0.00441556749865413,0.062359344214201,0.162407442927361,0.27151545882225,2012-01-18 15:28:10
1.01100015640259,40,-7.83428716659546,0.0279489047825336,0.0344062969088554,0.0870338678359985,0.0142970466986299,0.0128837767988443,0.0175441578030586,0.0269397534430027,4.51400089263916,0.0169654749333858,0.0202406626194715,0.0421685203909874,0.00188160920515656,0.0026400990318507,0.017324535176158,0.0181992687284946,3.19525170326233,0.0226533301174641,0.0278141796588898,0.0571238696575165,5.2429336427906e-09,0.00201190123334527,0.0222698356956244,0.0503812953829765,2012-01-18 15:28:11
1.00099992752075,46,-7.84062957763672,0.0164061821997166,0.0202157683670521,0.0541496686637402,0.00140822620596737,0.00798215996474028,0.0113872634246945,0.0445510074496269,4.53749418258667,0.0264352913945913,0.0344521291553974,0.0912447795271873,0.00216799532063305,0.0717847943305969,0.179600566625595,0.182727515697479,3.17756772041321,0.030504422262311,0.0373420119285583,0.0786664411425591,0.150005742907524,0.17960487306118,0.0405228845775127,0.10178205370903,2012-01-18 15:28:12
1.00300002098083,32,-7.8223352432251,0.0256274901330471,0.0319289676845074,0.0720174610614777,0.00148933264426887,0.00441435724496841,0.00523122819140553,0.00976868439465761,4.52454280853271,0.020532637834549,0.0258007179945707,0.0747755765914917,0.00865762121975422,0.0121356919407845,0.0030463591683656,0.00778964115306735,3.24263000488281,0.0219691693782806,0.0260164272040129,0.0554687827825546,0.00278275576420128,0.00273040705360472,0.0064517161808908,0.0208159424364567,2012-01-18 15:28:13
1.0149998664856,37,-7.84134387969971,0.0207307487726212,0.0246048904955387,0.0548641346395016,0.00864173006266356,0.0197264049202204,0.0236411336809397,0.0340681187808514,4.53676795959473,0.0238253194838762,0.0296707414090633,0.0649358108639717,0.00269078370183706,0.0298563092947006,0.0456325449049473,0.0346596539020538,3.21949648857117,0.0328941456973553,0.040649551898241,0.100982062518597,0.0324495732784271,0.0487667508423328,0.0320778116583824,0.00998231954872608,2012-01-18 15:28:14
1.00200009346008,42,-7.81730079650879,0.0259508863091469,0.0319260358810425,0.0672454833984375,0.00374869559891522,0.065028190612793,0.0696604549884796,0.0330454744398594,4.51292657852173,0.0361355505883694,0.0444394648075104,0.086391769349575,0.0907349660992622,0.219016000628471,0.152722358703613,0.0319382101297379,3.22171783447266,0.0272851306945086,0.0333753935992718,0.083123117685318,0.00384060828946531,0.0466596037149429,0.0694425776600838,0.0258019790053368,2012-01-18 15:28:15
1.01699995994568,43,-7.83437299728394,0.031270906329155,0.0356549508869648,0.0697867348790169,0.0945089310407639,0.172514662146568,0.0809734016656876,0.0119120301678777,4.52770709991455,0.0304435603320599,0.0404910668730736,0.110838204622269,0.0563791953027248,0.256236016750336,0.191468834877014,0.0952619090676308,3.23687863349915,0.0376460440456867,0.0455769300460815,0.116995625197887,0.0252554826438427,0.0176340285688639,0.133765250444412,0.0619634725153446,2012-01-18 15:28:16
1.00200009346008,41,-7.83646965026855,0.0233235694468021,0.0279735364019871,0.0696031749248505,0.00917303841561079,0.0401277206838131,0.0337824560701847,0.00380196934565902,4.5191912651062,0.0273722633719444,0.038739375770092,0.129160985350609,0.013855803757906,0.00763281248509884,0.0267717465758324,0.0353400781750679,3.21729874610901,0.0260888058692217,0.0343413650989532,0.0777357295155525,0.00349214137531817,0.00345004629343748,0.00621559470891953,0.0920898765325546,2012-01-18 15:28:17
1.03999996185303,39,-7.81313371658325,0.0187106169760227,0.0243220645934343,0.0658804550766945,6.47446404400398e-06,0.00455282256007195,0.0243453029543161,0.00983276963233948,4.53293514251709,0.0168666504323483,0.0239659454673529,0.0761904567480087,0.0047383070923388,0.0143899722024798,0.0186328738927841,0.0108087863773108,3.22865080833435,0.0234817676246166,0.0299977418035269,0.0905229970812798,0.00653790822252631,0.0129449935629964,0.00656904187053442,0.0212330315262079,2012-01-18 15:28:18
1.0019998550415,43,-7.80176019668579,0.0266248229891062,0.03216552734375,0.0839265361428261,0.0582877323031425,0.0954947173595428,0.0970502346754074,0.11582588404417,4.52314615249634,0.0238774809986353,0.0301955137401819,0.0709270462393761,0.0581818260252476,0.140205249190331,0.0747649967670441,0.0321633107960224,3.22023010253906,0.0215226151049137,0.0245756488293409,0.0526821464300156,0.0195002034306526,0.0264904759824276,0.00851271487772465,0.0291076581925154,2012-01-18 15:28:19
1.01900005340576,38,-7.81770610809326,0.0158916357904673,0.0225939620286226,0.0570333115756512,0.00900358613580465,0.0150434691458941,0.0192042365670204,0.0234181880950928,4.52602672576904,0.0291754119098186,0.0331214629113674,0.0732916817069054,2.27443542826222e-05,0.00986220687627792,0.0353347733616829,0.0106463935226202,3.20858097076416,0.0352604351937771,0.0408606417477131,0.080259770154953,0.0639375299215317,0.122803933918476,0.0782761052250862,0.00745320273563266,2012-01-18 15:28:20
1.02800011634827,38,-7.82390022277832,0.021650655195117,0.0249367579817772,0.0606462843716145,0.0197389498353004,0.0323637425899506,0.0144213819876313,0.0221581980586052,4.51338148117065,0.0302891843020916,0.0381427817046642,0.080775685608387,0.000260404834989458,0.0389115773141384,0.0433999001979828,0.0186847876757383,3.21967792510986,0.0359938964247704,0.0420360341668129,0.0913567468523979,0.0126163410022855,0.0285032037645578,0.0267791803926229,0.0488859005272388,2012-01-18 15:28:21
1.01399993896484,39,-7.82520341873169,0.0271955151110888,0.0341123342514038,0.088762603700161,0.00474757328629494,0.0178286787122488,0.0537660792469978,0.0510725043714046,4.49144554138184,0.0296713504940271,0.0358087606728077,0.0784530639648438,0.00158724305219948,0.00141463696490973,0.0358087867498398,0.0844628661870956,3.2283992767334,0.0236880984157324,0.031498871743679,0.0764416679739952,0.0177065525203943,0.0302349273115396,0.0276831723749638,0.00988631136715412,2012-01-18 15:28:22
1.09599995613098,33,-7.83462142944336,0.0242059044539928,0.0277755260467529,0.0499246753752232,0.000369053945178166,0.00208265497349203,0.0135101033374667,0.0254361797124147,4.52591753005981,0.0173979941755533,0.0214745663106441,0.0537878945469856,0.002040313789621,0.004780069924891,0.011519331485033,0.0111761139705777,3.23946332931519,0.0190189331769943,0.0223451964557171,0.0457645170390606,0.00429375562816858,0.00592975737527013,0.00146006024442613,0.000905463413801044,2012-01-18 15:28:23
1.05900001525879,40,-7.83428716659546,0.0161196533590555,0.0203576236963272,0.0478073358535767,0.00422076135873795,0.00549505092203617,0.00820364058017731,0.00500991055741906,4.54562711715698,0.0262082275003195,0.0337572954595089,0.10321481525898,0.000791020051110536,0.0130964973941445,0.0540460012853146,0.0685453340411186,3.2187876701355,0.0210597570985556,0.0279521606862545,0.0806597918272018,0.0100130829960108,0.0120513159781694,0.0147022884339094,0.0121394032612443,2012-01-18 15:28:24
1.00399994850159,40,-7.82399034500122,0.0233765617012978,0.0284972973167896,0.0507493242621422,0.000234090068261139,0.00602257670834661,0.00675157969817519,0.0144549431279302,4.52944612503052,0.0316263921558857,0.0381821654736996,0.0870338678359985,0.0308592431247234,0.0453146249055862,0.0148760173469782,0.0468944609165192,3.21045207977295,0.0399007871747017,0.0478765144944191,0.0943890810012817,0.101177237927914,0.244219034910202,0.104857176542282,0.067009910941124,2012-01-18 15:28:25
1.00100016593933,36,-7.82053089141846,0.0149823557585478,0.01812475733459,0.0438574403524399,0.000239357876125723,0.00156577071174979,0.00580372521653771,0.00774232391268015,4.53176164627075,0.0359576679766178,0.0454584509134293,0.118769235908985,0.0350006744265556,0.0502294860780239,0.0455064103007317,0.0376370400190353,3.22502565383911,0.0249403510242701,0.0357455611228943,0.0994285866618156,0.00812383927404881,0.0194843336939812,0.0193172805011272,0.0185610167682171,2012-01-18 15:28:26
1.00899982452393,33,-7.81233358383179,0.036741103976965,0.0408866256475449,0.0846936479210854,0.0631947815418243,0.101685725152493,0.0476431101560593,0.00742605747655034,4.55355405807495,0.0204057358205318,0.0243426486849785,0.0555713810026646,0.0110150203108788,0.018562575802207,0.0215428732335567,0.00879588350653648,3.23530292510986,0.0289606470614672,0.0328693054616451,0.0579482987523079,0.0107138371095061,0.0184933207929134,0.0155477151274681,0.0102751730009913,2012-01-18 15:28:27
1.07000017166138,37,-7.82067060470581,0.0276792030781507,0.0357328243553638,0.083223856985569,0.00104661181103438,0.0113536240532994,0.0815924927592278,0.0780624225735664,4.53067207336426,0.0243840608745813,0.0301615092903376,0.0588397979736328,0.0244749151170254,0.0421502180397511,0.0337867103517056,0.0242066662758589,3.27091526985168,0.0298282634466887,0.0403756201267242,0.092765636742115,0.0455163195729256,0.0863699018955231,0.114558346569538,0.0643713921308517,2012-01-18 15:28:28
1.00799989700317,42,-7.82010269165039,0.0252170562744141,0.0311691164970398,0.0742502212524414,0.0545801781117916,0.0879179388284683,0.0450244098901749,0.0233109798282385,4.51993131637573,0.0247500743716955,0.0316550768911839,0.0793870314955711,0.00064669077983126,0.0275798588991165,0.0167316030710936,0.0394419208168983,3.23922967910767,0.0212810654193163,0.0240677390247583,0.0520685575902462,0.0388511568307877,0.0598092339932919,0.0229568332433701,0.0265766978263855,2012-01-18 15:28:29
1.01099991798401,37,-7.84187412261963,0.0270488280802965,0.031029412522912,0.0553942248225212,0.0106884371489286,0.0240689888596535,0.0697419568896294,0.0255076102912426,4.50708293914795,0.0202006604522467,0.0242859125137329,0.0548641346395016,0.000219350346014835,0.000229754965403117,0.0152407605201006,0.012163395062089,3.23248386383057,0.0272637438029051,0.0331464372575283,0.0747424587607384,0.000451866391813383,0.0196267906576395,0.033700916916132,0.01018653716892,2012-01-18 15:28:30
1.01300001144409,34,-7.8320517539978,0.044045016169548,0.0490840375423431,0.0847985297441483,0.0294252093881369,0.0333323068916798,0.0229445490986109,0.0410540513694286,4.51423168182373,0.0312522798776627,0.0381829962134361,0.081625796854496,0.0136233009397984,0.0259800776839256,0.0304814632982016,0.0280133560299873,3.25350022315979,0.0300985891371965,0.0405078418552876,0.110180601477623,0.0338278114795685,0.0531880408525467,0.0265592820942402,0.00894876848906279,2012-01-18 15:28:31
1.00999999046326,36,-7.82107543945312,0.0201126784086227,0.0244058556854725,0.0444022566080093,0.00207341415807605,0.0149182425811887,0.0581811666488647,0.0172437764704227,4.52004814147949,0.0372742861509323,0.0409181378781796,0.0694636479020119,0.012729711830616,0.0178998578339815,0.124544404447079,0.0669698715209961,3.2530837059021,0.031296543776989,0.0373147986829281,0.0811773091554642,0.00240937550552189,0.0247785747051239,0.0915199369192123,0.0440282486379147,2012-01-18 15:28:32
1.01700019836426,29,-7.83246946334839,0.0238577537238598,0.0283409357070923,0.0557963587343693,0.00160756602417678,0.00479951919987798,0.0153834540396929,0.00847546104341745,4.52458524703979,0.0270061381161213,0.030298812314868,0.052752923220396,0.00301137799397111,0.00826496817171574,0.0191716868430376,0.00392762804403901,3.2182719707489,0.0239510387182236,0.0298194792121649,0.0703372284770012,0.00133826560340822,0.003857362549752,0.00929179321974516,0.00372706726193428,2012-01-18 15:28:33
1.00099992752075,38,-7.85177135467529,0.0255624428391457,0.0320764668285847,0.0849047973752022,0.0130521729588509,0.023658936843276,0.0251733586192131,0.0709690973162651,4.52938175201416,0.0250327214598656,0.0288264658302069,0.0699367746710777,0.0509105511009693,0.078997790813446,0.0309089850634336,0.001583511242643,3.22483921051025,0.0262144058942795,0.0327981598675251,0.0670980140566826,0.00169740489218384,0.0153292827308178,0.0310672838240862,0.0287179294973612,2012-01-18 15:28:34
1.02999997138977,37,-7.80794858932495,0.014197769574821,0.0173396393656731,0.0373712219297886,5.41356996563991e-07,0.00148443330544978,0.0113317240029573,0.012119316495955,4.54657459259033,0.0221634209156036,0.026720866560936,0.0527437813580036,0.0128962881863117,0.0190342124551535,0.004587072879076,0.00492393271997571,3.25713300704956,0.0349715761840343,0.0411767289042473,0.0771280154585838,0.00110095285344869,0.0334402397274971,0.0503993295133114,0.0207317173480988,2012-01-18 15:28:35
1.02099990844727,37,-7.83286285400391,0.0261892266571522,0.0319727174937725,0.0758026242256165,0.00428744172677398,0.011691371910274,0.0331400260329247,0.0187820848077536,4.51635980606079,0.0338253639638424,0.0428126268088818,0.0739473104476929,0.0859399363398552,0.199786499142647,0.155150353908539,0.0240797307342291,3.23380899429321,0.0341119132936001,0.040938850492239,0.105487808585167,0.000345606880728155,0.0275214239954948,0.0414799004793167,0.0334750600159168,2012-01-18 15:28:36
1,35,-7.81505918502808,0.0194051247090101,0.0238342322409153,0.0596803650259972,7.60491529945284e-05,0.00219608726911247,0.00320982118137181,0.0117821171879768,4.51778316497803,0.022959528490901,0.0282060541212559,0.0655643492937088,0.0208564475178719,0.0249469615519047,0.00528951454907656,0.0241660885512829,3.2185423374176,0.0359763540327549,0.0421832203865051,0.0862985849380493,0.0784190967679024,0.0981625020503998,0.0344526991248131,0.0403234399855137,2012-01-18 15:28:37
1.00200009346008,36,-7.8088173866272,0.0302068516612053,0.0389264933764935,0.110597029328346,0.00356879620812833,0.0275245308876038,0.0335450433194637,0.0140118319541216,4.52113771438599,0.0259845871478319,0.0356957092881203,0.0879877433180809,0.0043222950771451,0.0292943380773067,0.075394794344902,0.017807113006711,3.23319792747498,0.0362755171954632,0.0425469614565372,0.0814497247338295,0.00325922598131001,0.0299852266907692,0.0412654019892216,0.0703901574015617,2012-01-18 15:28:38
1.01399993896484,36,-7.81481027603149,0.0214293096214533,0.0274252574890852,0.0697360560297966,0.000144858699059114,0.0105239981785417,0.0273422319442034,0.00320895435288548,4.51487255096436,0.0375921055674553,0.0450748614966869,0.0942531004548073,0.000811674573924392,0.0241737831383944,0.137577444314957,0.0273635052144527,3.23619437217712,0.0348680727183819,0.0472576916217804,0.0980665981769562,0.0133246034383774,0.0480844676494598,0.175211697816849,0.148812711238861,2012-01-18 15:28:39
1.00999999046326,36,-7.82843065261841,0.0208542291074991,0.0263150855898857,0.0561157315969467,0.0221175570040941,0.0322823412716389,0.00623144768178463,0.0104518309235573,4.52713060379028,0.0167681314051151,0.0197696536779404,0.052574448287487,0.00199941056780517,0.00234200712293386,0.000903442036360502,0.00197878247126937,3.25635242462158,0.0326888486742973,0.0410856232047081,0.108417846262455,0.02362110465765,0.0381165035068989,0.0199032127857208,0.0132377790287137,2012-01-18 15:28:40
1.01100015640259,37,-7.82014036178589,0.0263181664049625,0.0319639258086681,0.0728871375322342,0.00228187814354897,0.00473946146667004,0.0628690347075462,0.0340284965932369,4.52033519744873,0.0291118752211332,0.0337366946041584,0.0691765174269676,0.0059878071770072,0.0241530574858189,0.0321182981133461,0.00918238516896963,3.25898814201355,0.0124356159940362,0.0170702133327723,0.0458528473973274,0.00265828636474907,0.00973364058881998,0.0105685796588659,0.000282650027656928,2012-01-18 15:28:41
1.01099991798401,40,-7.83085489273071,0.0215133018791676,0.0254772007465363,0.0541816465556622,0.0281064733862877,0.0328699052333832,0.0253247264772654,0.0160460025072098,4.51400089263916,0.0339799821376801,0.0392387881875038,0.0853177085518837,0.111346058547497,0.17560225725174,0.0341689214110374,0.0192220602184534,3.21094226837158,0.0260243583470583,0.0325904749333858,0.072814479470253,0.000103575293906033,0.00214680237695575,0.00938742607831955,0.0571882203221321,2012-01-18 15:28:42
1.00200009346008,38,-7.82957744598389,0.0256439372897148,0.0301455426961184,0.0843886584043503,0.0179317649453878,0.0159297063946724,0.0340091176331043,0.0238443911075592,4.50641345977783,0.0260785799473524,0.0294832158833742,0.0536784119904041,0.0133560355752707,0.0331907048821449,0.0219679120928049,0.00696891779080033,3.23103308677673,0.0192601438611746,0.0264996327459812,0.0738080367445946,0.000847297778818756,0.0232363436371088,0.022474430501461,0.00635497039183974,2012-01-18 15:28:43
1.01999998092651,38,-7.80635118484497,0.0215148292481899,0.0285898372530937,0.0781949982047081,0.00152457295916975,0.00232347846031189,0.0131824687123299,0.0274493414908648,4.53660774230957,0.0167745035141706,0.0209290850907564,0.0549687594175339,0.000392262765672058,0.000456538546131924,0.00691670412197709,0.000931277114432305,3.21761345863342,0.0252908021211624,0.0324306264519691,0.0892921984195709,0.0186258833855391,0.0680894181132317,0.107437931001186,0.0267836041748524,2012-01-18 15:28:44
1,35,-7.80469226837158,0.0250569488853216,0.0300339106470346,0.0798540115356445,0.0154047030955553,0.0275890864431858,0.0101845255121589,0.0263567715883255,4.51245975494385,0.0272184107452631,0.0328312292695045,0.057438850402832,0.0267171487212181,0.0422914512455463,0.0236174017190933,0.0120518570765853,3.24460005760193,0.0388263165950775,0.046540230512619,0.126085564494133,0.000937801145482808,0.00576705764979124,0.00948067288845778,0.0392209812998772,2012-01-18 15:28:45
1.01199984550476,37,-7.83047723770142,0.0165903307497501,0.0220608450472355,0.0636105909943581,0.000582772481720895,0.00758896302431822,0.0279607120901346,0.00442929938435555,4.50125217437744,0.0286247674375772,0.035905409604311,0.0882596969604492,0.000198872061446309,0.0323181375861168,0.0408247783780098,0.017172759398818,3.21313548088074,0.0362179614603519,0.0452691167593002,0.114234276115894,0.000229310157010332,0.0104322582483292,0.0421668253839016,0.0658881738781929,2012-01-18 15:28:46
1.05700016021729,39,-7.83878183364868,0.0197809003293514,0.0243610274046659,0.0555709190666676,0.00221152394078672,0.0337962247431278,0.0761814787983894,0.0129928616806865,4.48264455795288,0.0361833162605762,0.0440134592354298,0.108878768980503,0.0231382865458727,0.0770045965909958,0.0820283740758896,0.00482784723863006,3.21834135055542,0.0334367081522942,0.0405782163143158,0.115919649600983,0.0219893380999565,0.123676456511021,0.161333620548248,0.0711954683065414,2012-01-18 15:28:47
1.0460000038147,41,-7.81972694396973,0.0244086571037769,0.028887115418911,0.074626088142395,0.00562898768112063,0.0182684436440468,0.0264735892415047,0.0322906449437141,4.52349662780762,0.0257854368537664,0.0306326430290937,0.0614708475768566,0.00774179492145777,0.0198353584855795,0.0481265522539616,0.0289030373096466,3.26394009590149,0.0307442415505648,0.0389808267354965,0.0963921174407005,0.00183482782449573,0.0969850942492485,0.128156870603561,0.0315748862922192,2012-01-18 15:28:48
1.07399988174438,39,-7.81313371658325,0.0246036238968372,0.0316370353102684,0.091025672852993,0.0411964021623135,0.0892643928527832,0.0680136159062386,0.0245395321398973,4.51231622695923,0.0244875680655241,0.0304641276597977,0.0771958008408546,0.0185044407844543,0.0257566589862108,0.0238298438489437,0.0133139276877046,3.25505328178406,0.0276597626507282,0.0371197015047073,0.107118651270866,0.00285976496525109,0.0143928835168481,0.0638337805867195,0.049452967941761,2012-01-18 15:28:49
1.01300001144409,41,-7.83025121688843,0.0163930039852858,0.0200973320752382,0.0542952604591846,0.00190790649503469,0.00772120570763946,0.00934863742440939,0.0233620498329401,4.51153707504272,0.0196249336004257,0.0238203480839729,0.0583614259958267,0.00995420385152102,0.0186038333922625,0.0211460590362549,0.0522195659577847,3.23380255699158,0.0367763787508011,0.0451106131076813,0.0906517505645752,0.000545468763448298,0.0395067036151886,0.241087213158607,0.115404106676579,2012-01-18 15:28:50
1.00500011444092,38,-7.82235145568848,0.0181463453918695,0.020775780081749,0.0523880645632744,0.00681327655911446,0.0145333325490355,0.0108624128624797,0.00314375548623502,4.51234912872314,0.0340108163654804,0.0413724593818188,0.0895500406622887,0.00682824105024338,0.0625392943620682,0.165886446833611,0.0206088442355394,3.23851704597473,0.0308325290679932,0.0380764231085777,0.08077572286129,0.0214080400764942,0.044611182063818,0.0297201331704855,0.0375771634280682,2012-01-18 15:28:51
1.01999998092651,38,-7.8391261100769,0.0254809465259314,0.031770832836628,0.0624527670443058,0.0201591495424509,0.028991686180234,0.0076443268917501,0.00959434174001217,4.52241373062134,0.0322722643613815,0.0399633198976517,0.0965183675289154,0.0722331553697586,0.156797230243683,0.0937493443489075,0.0141388671472669,3.23129105567932,0.0139357419684529,0.0183809846639633,0.0539364814758301,0.0195003282278776,0.0294153764843941,0.0146220298483968,0.0122751574963331,2012-01-18 15:28:52
1.00099992752075,37,-7.80768346786499,0.0315760672092438,0.0365165024995804,0.0702366977930069,2.89065992546966e-05,0.038679376244545,0.0593863800168037,0.00992850866168737,4.51927518844604,0.0331806913018227,0.0406910292804241,0.109463676810265,0.0726087316870689,0.17579410970211,0.152348279953003,0.028030700981617,3.24229049682617,0.0350861623883247,0.0409988947212696,0.0821638703346252,0.0444023311138153,0.0725416392087936,0.0896834060549736,0.0998280867934227,2012-01-18 15:28:53
1.01200008392334,38,-7.80841588973999,0.0170189905911684,0.0210370011627674,0.0467105396091938,0.00229312223382294,0.00598466349765658,0.0115938037633896,0.0138079505413771,4.53893041610718,0.0483541041612625,0.0526436902582645,0.0769047141075134,0.0820046737790108,0.165641009807587,0.11955663561821,0.048497524112463,3.24754953384399,0.0451757945120335,0.051476988941431,0.0996148437261581,0.00163254037033767,0.0594344548881054,0.182475954294205,0.0934525206685066,2012-01-18 15:28:54
1.01699995994568,36,-7.81290340423584,0.0200521424412727,0.0233237855136395,0.0460366941988468,0.0016578990034759,0.00522622372955084,0.00942840613424778,0.027888560667634,4.50397634506226,0.0208542291074991,0.0262133739888668,0.0615638643503189,0.000230418590945192,0.0106328027322888,0.0378734469413757,0.0293275639414787,3.24300456047058,0.0288902390748262,0.0357206128537655,0.0950698852539062,0.0215222630649805,0.0514840185642242,0.101173341274261,0.0718141943216324,2012-01-18 15:28:55
1.05099987983704,40,-7.81344795227051,0.0237810853868723,0.0271016377955675,0.0514848232269287,0.0331393368542194,0.0344427227973938,0.00228695082478225,0.00978453271090984,4.49978113174438,0.0357942096889019,0.0419828146696091,0.0897306948900223,0.0576382912695408,0.0745542272925377,0.113930746912956,0.11382170766592,3.20677447319031,0.0196132734417915,0.0273005273193121,0.0784532949328423,0.000739116687327623,0.00872092135250568,0.0127380127087235,0.00602717604488134,2012-01-18 15:28:56
1.08100008964539,41,-7.85416984558105,0.0255170799791813,0.0308448169380426,0.0774963200092316,5.37385749339592e-05,0.00845226552337408,0.0349176712334156,0.0199070759117603,4.52134370803833,0.0173030775040388,0.020881924778223,0.0387481600046158,0.028296984732151,0.0423966497182846,0.0236408859491348,0.00780828483402729,3.2409782409668,0.0398216284811497,0.0463083870708942,0.0932827964425087,0.00560059864073992,0.114608824253082,0.12738923728466,0.0189474448561668,2012-01-18 15:28:57
1.13700008392334,40,-7.82693243026733,0.0151389893144369,0.0201200358569622,0.050258994102478,6.71439693178399e-06,0.00193438236601651,0.00811692886054516,0.00781385414302349,4.53116226196289,0.0279734209179878,0.0361617505550385,0.0985566601157188,0.025488680228591,0.0463998690247536,0.0113412030041218,0.0157470367848873,3.26120138168335,0.0457725450396538,0.0540679134428501,0.10346008092165,0.206558853387833,0.339776813983917,0.0677611902356148,0.0175868272781372,2012-01-18 15:28:59
1.04499983787537,39,-7.80609321594238,0.0362091064453125,0.0423112586140633,0.0784530639648438,0.138189613819122,0.199427276849747,0.0365135036408901,0.00182631867937744,4.53620386123657,0.0288073867559433,0.0344608686864376,0.0937916412949562,0.0133775724098086,0.0424940511584282,0.0606763325631618,0.017667805776,3.21557521820068,0.0352807119488716,0.0440695323050022,0.0990723744034767,0.00127746677026153,0.0559872500598431,0.123447947204113,0.0305194370448589,2012-01-18 15:29:00
1.01999998092651,43,-7.81019830703735,0.0227106548845768,0.0275944676250219,0.0629448965191841,0.0374442525207996,0.0612824447453022,0.0245790965855122,0.0156404078006744,4.53044414520264,0.0175766255706549,0.0217221584171057,0.0492612272500992,0.00113965582568198,0.00493722734972835,0.0281284302473068,0.0265045464038849,3.29389405250549,0.0292873736470938,0.0351496413350105,0.0697868168354034,0.0184413753449917,0.0643610954284668,0.0544397942721844,0.0942970961332321,2012-01-18 15:29:01
1.00100016593933,36,-7.7938346862793,0.020566688850522,0.0262911058962345,0.0661947727203369,0.0032530736643821,0.0186735931783915,0.0516130514442921,0.025869607925415,4.52522373199463,0.0133176501840353,0.015582031570375,0.0348680280148983,0.000198411871679127,0.00130601518321782,0.00929975602775812,0.0104108769446611,3.25471806526184,0.0240928865969181,0.0300291031599045,0.0577502250671387,0.00468050595372915,0.0139761781319976,0.028640054166317,0.0385519601404667,2012-01-18 15:29:02
1.01999998092651,39,-7.8287239074707,0.0189943071454763,0.0228807628154755,0.0656290054321289,0.0161329861730337,0.0166345257312059,0.00687950244173408,0.0125386081635952,4.5525484085083,0.0215088743716478,0.0289094336330891,0.0761904343962669,0.002019107574597,0.00854599662125111,0.00677540898323059,0.00962764117866755,3.28799366950989,0.0470925904810429,0.0602458566427231,0.154140502214432,0.0869683548808098,0.209452256560326,0.19784964621067,0.02109962888062,2012-01-18 15:29:03
1.00399994850159,28,-7.81449890136719,0.0176119115203619,0.020755784586072,0.0406274795532227,0.00186322152148932,0.00302178948186338,0.00152034545317292,0.000938107201363891,4.52366733551025,0.018112251535058,0.0228272788226604,0.0462312698364258,0.00535760447382927,0.00847946759313345,0.00699398154392838,0.00667898030951619,3.25265550613403,0.0234408881515265,0.0329502522945404,0.0949142426252365,0.00134681304916739,0.00660732388496399,0.0238916538655758,0.00837742537260056,2012-01-18 15:29:04
1,43,-7.82228565216064,0.0269006174057722,0.0328930392861366,0.0652255117893219,0.0226496439427137,0.0175894796848297,0.109437078237534,0.077472560107708,4.5169882774353,0.0144686289131641,0.0177125930786133,0.0431035719811916,2.36802734434605e-05,0.00453612674027681,0.0249138083308935,0.00221749418415129,3.24850964546204,0.0243548639118671,0.0301404092460871,0.0661379545927048,0.000973140995483845,0.0107607906684279,0.121032066643238,0.0808247104287148,2012-01-18 15:29:05
1.00399994850159,37,-7.8190803527832,0.0216190051287413,0.0264964606612921,0.0556592680513859,0.00954542309045792,0.0235253907740116,0.0347545556724072,0.00864282622933388,4.53650283813477,0.0346133559942245,0.0405596010386944,0.0824291780591011,0.00983301736414433,0.0456033907830715,0.0405418165028095,0.0553613230586052,3.25633788108826,0.0376793295145035,0.0463320463895798,0.107343032956123,0.0651192888617516,0.118713960051537,0.0984653607010841,0.107482627034187,2012-01-18 15:29:06
1.01600003242493,38,-7.7921576499939,0.0301533583551645,0.0348269268870354,0.0743239521980286,0.00524390023201704,0.0538111478090286,0.0845678150653839,0.0089801624417305,4.55415630340576,0.0281431451439857,0.0332589372992516,0.0647758543491364,0.000582485808990896,0.00316382315941155,0.0152869103476405,0.0254429318010807,3.25709795951843,0.0308461543172598,0.0381917282938957,0.0797434821724892,0.00020489284361247,0.00957618560642004,0.0970758050680161,0.0272521637380123,2012-01-18 15:29:07
1.01399993896484,37,-7.80715322494507,0.0305875260382891,0.036321684718132,0.0773928910493851,0.000546482857316732,0.00624132482334971,0.0509308390319347,0.0659804865717888,4.50893831253052,0.0227364879101515,0.0268938187509775,0.0707667842507362,0.0134185189381242,0.0344259850680828,0.0313847996294498,0.00809292774647474,3.24679613113403,0.0301434695720673,0.035642359405756,0.0694416239857674,0.00155231228563935,0.00938835646957159,0.0531678311526775,0.0656388327479362,2012-01-18 15:29:08
1.01900005340576,40,-7.82570648193359,0.0235359184443951,0.0301464255899191,0.0686464309692383,0.0439247600734234,0.0650967955589294,0.0680138468742371,0.066486619412899,4.53876256942749,0.024124326184392,0.0324426107108593,0.0801696926355362,0.0148330107331276,0.018532520160079,0.0293619092553854,0.0222654230892658,3.22001338005066,0.0459196195006371,0.0551945455372334,0.10444088280201,0.0297776870429516,0.308764159679413,0.436074584722519,0.0759168341755867,2012-01-18 15:29:09
1,38,-7.82751274108887,0.0222618710249662,0.0264152549207211,0.050839651376009,0.0265495087951422,0.0380676127970219,0.0271000061184168,0.00578906899318099,4.56009197235107,0.0304522216320038,0.0358559153974056,0.0784531161189079,0.00324908969923854,0.0442606955766678,0.0710464790463448,0.0364877916872501,3.19464516639709,0.0225742720067501,0.0259882304817438,0.0513557903468609,0.000466544326627627,0.00295071629807353,0.00996102578938007,0.0263634379953146,2012-01-18 15:29:10
1.04399991035461,35,-7.86213111877441,0.0159307755529881,0.0194120984524488,0.0462312698364258,9.25718122744001e-05,0.00127081829123199,0.0078652473166585,0.00882084667682648,4.53879737854004,0.0252650883048773,0.0313186198472977,0.0865785628557205,0.00293690129183233,0.0117674982175231,0.0593382008373737,0.0285077858716249,3.18183755874634,0.0357362143695354,0.0412973687052727,0.0829362943768501,2.43198974203551e-06,0.00097565253963694,0.0134403659030795,0.104168616235256,2012-01-18 15:29:11
1.02000021934509,38,-7.91138553619385,0.0670981258153915,0.0758180171251297,0.159486711025238,0.00209464016370475,0.0330896116793156,0.0911166965961456,0.271163254976273,4.53015613555908,0.0356679260730743,0.0489271804690361,0.117163494229317,0.00483450712636113,0.0439735613763332,0.168996557593346,0.148200437426567,3.01838350296021,0.0750303938984871,0.103909537196159,0.315877377986908,0.451078116893768,0.821038544178009,0.368754804134369,0.547208786010742,2012-01-18 15:29:12
1.12799978256226,44,-7.87206506729126,0.0541796498000622,0.0687852799892426,0.154231622815132,0.00746718887239695,0.0913345515727997,0.172929510474205,0.164032831788063,4.5279974937439,0.0341206192970276,0.0406152456998825,0.0909346863627434,0.00328368856571615,0.0445808358490467,0.18130749464035,0.139322459697723,3.12497806549072,0.101105749607086,0.116577759385109,0.238702744245529,0.198152080178261,0.777370989322662,1.10301637649536,0.880781173706055,2012-01-18 15:29:13
1.10800004005432,42,-7.87824201583862,0.0285860132426023,0.0325123779475689,0.0847577899694443,0.0146689983084798,0.0854632630944252,0.107743352651596,0.0182829964905977,4.53861093521118,0.0253060050308704,0.0303574558347464,0.0607077293097973,0.023271344602108,0.0203885901719332,0.0417789667844772,0.0359559021890163,3.05920767784119,0.0368249528110027,0.0479448847472668,0.127953454852104,0.0134782521054149,0.197549790143967,0.175730288028717,0.144810110330582,2012-01-18 15:29:14
1.09300017356873,39,-7.87649965286255,0.0252096876502037,0.0310805402696133,0.066886268556118,0.0135658532381058,0.0276826024055481,0.103268317878246,0.0783561170101166,4.550537109375,0.0480984188616276,0.0569006241858006,0.107621878385544,0.0878803953528404,0.14940619468689,0.154251709580421,0.0528538264334202,2.98423886299133,0.0792655870318413,0.0899110734462738,0.179537177085876,0.714423418045044,1.26810216903687,0.502603948116302,0.063031829893589,2012-01-18 15:29:15
1.10099983215332,41,-7.9359712600708,0.018108306452632,0.021417697891593,0.0564482733607292,0.00688732136040926,0.00858877599239349,0.00753097422420979,0.019809927791357,4.58377170562744,0.0200684126466513,0.0258986093103886,0.0645806491374969,0.000823675654828548,0.0159781742841005,0.0615752376616001,0.0128312082961202,2.81929230690002,0.0362629927694798,0.0415000654757023,0.0734302029013634,0.152460351586342,0.179300874471664,0.0399451665580273,0.0194971486926079,2012-01-18 15:29:16
1.09599995613098,42,-7.93264579772949,0.0157885812222958,0.0182603225111961,0.0303542278707027,0.00286481576040387,0.0292920954525471,0.0431261956691742,0.0161555241793394,4.56476163864136,0.0231267753988504,0.0269194673746824,0.0541704259812832,0.00287519418634474,0.0077740759588778,0.0200866404920816,0.0373376160860062,2.86494278907776,0.018212404102087,0.0250087324529886,0.0700475350022316,0.00220635160803795,0.0104218730702996,0.0541821084916592,0.0364673919975758,2012-01-18 15:29:17
1.12000012397766,42,-7.91910314559937,0.0378257222473621,0.0447988584637642,0.103203274309635,0.131766960024834,0.23818738758564,0.0943113565444946,0.0379952453076839,4.55075216293335,0.0248168110847473,0.0308597907423973,0.0779865384101868,0.0204477813094854,0.0183076113462448,0.0101286694407463,0.0488673150539398,2.86611008644104,0.10739504545927,0.11715442687273,0.228121340274811,1.48364055156708,1.82079863548279,0.288135945796967,0.282004445791245,2012-01-18 15:29:18
1.07699990272522,43,-7.90051078796387,0.0293934270739555,0.0362653993070126,0.0846107602119446,0.00792465824633837,0.0351698584854603,0.0927242785692215,0.0522705242037773,4.56191635131836,0.0267521776258945,0.0319530889391899,0.0606643445789814,0.0340070314705372,0.0366266034543514,0.0196661502122879,0.0693867355585098,2.96708178520203,0.0445197410881519,0.0527172684669495,0.0937332436442375,0.00814134906977415,0.092370018362999,0.267622500658035,0.0509267970919609,2012-01-18 15:29:20
1.10199999809265,39,-7.90516519546509,0.027285847812891,0.0334441736340523,0.079458937048912,0.0153948478400707,0.0171923860907555,0.0996512323617935,0.0800262093544006,4.57844829559326,0.0276985131204128,0.0335461609065533,0.0673892945051193,0.0023585541639477,0.0276003275066614,0.0269478186964989,0.0256322789937258,2.96990609169006,0.0298648234456778,0.0358458943665028,0.0769444033503532,0.0245291199535131,0.0613337904214859,0.0896022915840149,0.0803415402770042,2012-01-18 15:29:21
1.16499996185303,42,-7.91279888153076,0.0145209496840835,0.0191648360341787,0.0502010770142078,0.0148527659475803,0.0179781764745712,0.0356231853365898,0.0277536492794752,4.55402135848999,0.0339785888791084,0.0409377068281174,0.104137532413006,0.0872228890657425,0.103330940008163,0.160505831241608,0.145909294486046,2.98425698280334,0.0289307702332735,0.0366611927747726,0.101101838052273,0.00503075774759054,0.0129096368327737,0.0891810581088066,0.0928556695580482,2012-01-18 15:29:22
1.0530002117157,36,-7.90198040008545,0.0261510480195284,0.0306745301932096,0.0708261355757713,0.00961160100996494,0.0156119810417295,0.0304619465023279,0.0330357402563095,4.55328178405762,0.0143467411398888,0.0177273619920015,0.0362300612032413,0.000536891689989716,0.00132849789224565,0.0069327550008893,0.00413904478773475,3.01282072067261,0.0354129001498222,0.0483811870217323,0.119859024882317,0.0670807510614395,0.102914407849312,0.0436793342232704,0.0520085357129574,2012-01-18 15:29:23
1.04999995231628,40,-7.88675260543823,0.0304250791668892,0.0347746796905994,0.0708529204130173,0.00531130330637097,0.0313233137130737,0.057586882263422,0.0293716453015804,4.54145956039429,0.0228494554758072,0.0274585727602243,0.0578591339290142,0.0342025607824326,0.111464455723763,0.100419521331787,0.0146372634917498,2.99617671966553,0.0245289597660303,0.0326715968549252,0.0836016610264778,0.030640097334981,0.0433701127767563,0.0346416085958481,0.0300095472484827,2012-01-18 15:29:24
1.12800002098083,39,-7.90315389633179,0.034829419106245,0.0415346585214138,0.0794592648744583,0.108125738799572,0.138653621077538,0.021021006628871,0.0790511667728424,4.54198741912842,0.0302903242409229,0.0398216545581818,0.109381690621376,0.00155129819177091,0.0164097305387259,0.101127356290817,0.134287595748901,2.99982905387878,0.0302517432719469,0.0391507931053638,0.0892656147480011,0.00872636679559946,0.018507182598114,0.088157631456852,0.119919449090958,2012-01-18 15:29:25
1.10599994659424,40,-7.92107582092285,0.0211578607559204,0.0274750851094723,0.0659496784210205,0.0257085841149092,0.0449370034039021,0.0421931184828281,0.0173651222139597,4.59220886230469,0.0306459181010723,0.0364953279495239,0.0757565274834633,0.0427956618368626,0.051824864000082,0.00428916607052088,0.0886058658361435,2.95155644416809,0.0409795008599758,0.0555824637413025,0.147344872355461,0.193841859698296,0.24842843413353,0.239627078175545,0.0635716915130615,2012-01-18 15:29:26
1.03200006484985,38,-7.941321849823,0.0206457059830427,0.0249676443636417,0.05109803378582,0.0228537023067474,0.0570900924503803,0.0278511866927147,0.00522681325674057,4.55776929855347,0.0279801748692989,0.0328681990504265,0.066323846578598,0.00704673025757074,0.00538239302113652,0.0877510607242584,0.0654430761933327,2.86096096038818,0.0291755292564631,0.036740317940712,0.0954857692122459,0.0365031287074089,0.0541185066103935,0.016530267894268,0.0427646152675152,2012-01-18 15:29:27
1.06799983978271,41,-7.92281627655029,0.0197766609489918,0.0259735714644194,0.0696035921573639,0.00507227284833789,0.0110962083563209,0.0396299958229065,0.0083141727373004,4.57874870300293,0.0298691932111979,0.0386122241616249,0.0892167985439301,0.00635031517595053,0.0370851755142212,0.069566436111927,0.0670578479766846,2.83172988891602,0.0270922649651766,0.0327607244253159,0.0710384771227837,6.55803633620167e-09,0.0194920562207699,0.08200453966856,0.0454664416611195,2012-01-18 15:29:28
1.14600014686584,43,-7.93175506591797,0.0168342143297195,0.0203142650425434,0.0410513877868652,4.32374811509817e-08,0.00094500306295231,0.0149117894470692,0.0170772336423397,4.59612607955933,0.0268052853643894,0.0345407240092754,0.104680329561234,0.0959548652172089,0.198779791593552,0.0781734958291054,0.00679328478872776,2.84871768951416,0.0368293449282646,0.0428440608084202,0.103083811700344,0.00965532846748829,0.0483305789530277,0.141930997371674,0.101050160825253,2012-01-18 15:29:29
1.09299993515015,41,-7.8711519241333,0.0301141478121281,0.0379967913031578,0.0918479412794113,0.00157118448987603,0.00209858804009855,0.0181835442781448,0.0372104160487652,4.55602598190308,0.0240586530417204,0.0276506319642067,0.062906414270401,0.0094241127371788,0.0493160076439381,0.0499715469777584,0.00660804705694318,3.07019901275635,0.0448503606021404,0.0547679513692856,0.146382167935371,0.0676115602254868,0.123983398079872,0.135036125779152,0.043810710310936,2012-01-18 15:29:30
1.15100002288818,41,-7.88693809509277,0.013336087577045,0.0183504279702902,0.0612316578626633,0.000946066924370825,0.0107400845736265,0.0212426781654358,0.00400704704225063,4.58855533599854,0.0221219267696142,0.028554629534483,0.0676898285746574,0.024517472833395,0.0267450958490372,0.0324531830847263,0.0265534650534391,3.02068734169006,0.0199049971997738,0.026035126298666,0.0684072971343994,0.000434522546129301,0.00605949573218822,0.0516828000545502,0.0412687137722969,2012-01-18 15:29:32
1.16299986839294,42,-7.88197803497314,0.0163555070757866,0.0185401476919651,0.0319883041083813,0.0201633907854557,0.0341976471245289,0.0135974837467074,0.00597712025046349,4.55892467498779,0.0165779031813145,0.0215281546115875,0.0600077100098133,0.0131109058856964,0.0277632251381874,0.0381754599511623,0.0340137854218483,3.02278304100037,0.0345790311694145,0.0386272072792053,0.0709815099835396,0.132740452885628,0.256673902273178,0.1984523832798,0.0147033128887415,2012-01-18 15:29:33
1.04400014877319,39,-7.89460420608521,0.0208640787750483,0.0259446930140257,0.0590912513434887,0.000577413244172931,0.0297771263867617,0.0625541284680367,0.0494634099304676,4.54425048828125,0.0314508900046349,0.0417608022689819,0.11164478212595,0.00288140284828842,0.019202372059226,0.0569327957928181,0.00857621990144253,3.0377984046936,0.0377565510571003,0.0437700748443604,0.0859968215227127,0.014224411919713,0.038474764674902,0.0707376524806023,0.017471507191658,2012-01-18 15:29:34
1.05099987983704,39,-7.87750577926636,0.0279176328331232,0.0319472886621952,0.0616057701408863,0.00121784943621606,0.0115084210410714,0.0545472390949726,0.0177266448736191,4.5691442489624,0.0326114445924759,0.0412719212472439,0.107118658721447,0.118562236428261,0.233392998576164,0.153160482645035,0.0567110925912857,3.02874612808228,0.0317990742623806,0.0388817563652992,0.0965578034520149,0.0111362989991903,0.0248191822320223,0.0251000244170427,0.0368802174925804,2012-01-18 15:29:35
1.09200000762939,43,-7.86995029449463,0.018138824030757,0.0229130610823631,0.0538224503397942,0.00836161896586418,0.0281105786561966,0.0505569390952587,0.0166910737752914,4.55781126022339,0.0437348335981369,0.0498178265988827,0.0905406773090363,0.119834490120411,0.208811745047569,0.0778591558337212,0.0926062166690826,3.04599094390869,0.0262323506176472,0.0313797779381275,0.0725234746932983,0.0484381020069122,0.117876790463924,0.0964376106858253,0.057777963578701,2012-01-18 15:29:36
1.06900000572205,40,-7.88822364807129,0.0239649713039398,0.031218983232975,0.0723239332437515,0.0543431900441647,0.107379138469696,0.0451373010873795,0.0372114814817905,4.52086544036865,0.025006914511323,0.029986497014761,0.0686464309692383,0.0127144111320376,0.0369713008403778,0.0371975339949131,0.00979854725301266,3.05526185035706,0.0296895876526833,0.0388539656996727,0.102479547262192,0.0251243337988853,0.119641959667206,0.254992336034775,0.0790976509451866,2012-01-18 15:29:37
1.00399994850159,33,-7.86463594436646,0.0152727728709579,0.0209752842783928,0.0487359948456287,0.00015314735355787,0.000557827122975141,0.00158629915677011,0.00291642989031971,4.56217193603516,0.0168756935745478,0.0211513731628656,0.0413067266345024,8.88806898728944e-05,0.00112183624878526,0.00416158558800817,0.00471448944881558,3.03827834129333,0.0301493443548679,0.0369664505124092,0.0900427475571632,0.0293855294585228,0.0418642908334732,0.0207604710012674,0.0126431975513697,2012-01-18 15:29:38
1.01700019836426,39,-7.87448835372925,0.0234301798045635,0.0285683255642653,0.0688978806138039,0.0327446088194847,0.0536629073321819,0.0388256423175335,0.0218311492353678,4.56486940383911,0.0214830935001373,0.0270051527768373,0.0540626347064972,0.00100372417364269,0.000835324754007161,0.0482419095933437,0.0550042651593685,3.07048726081848,0.0438816696405411,0.0521665513515472,0.0990723744034767,0.000493282219395041,0.00759242614731193,0.16531728208065,0.0816720873117447,2012-01-18 15:29:39
1.00099992752075,32,-7.8771915435791,0.0263553261756897,0.0298257097601891,0.0514848232269287,0.00367131712846458,0.0108619276434183,0.0114700561389327,0.00947968102991581,4.54905939102173,0.0390734225511551,0.0465009361505508,0.0772273391485214,0.0158873349428177,0.0175970010459423,0.0127575322985649,0.00480540283024311,3.02627086639404,0.0335379987955093,0.0400499664247036,0.0744692906737328,0.0142123932018876,0.0323576740920544,0.0567125529050827,0.0196512695401907,2012-01-18 15:29:40
1.0220000743866,39,-7.90692567825317,0.0173437632620335,0.0205884147435427,0.0462676547467709,0.0193560868501663,0.0202197227627039,0.00212529231794178,0.00304857664741576,4.56160068511963,0.0313735567033291,0.0362563282251358,0.086751401424408,0.000312378047965467,0.0346520841121674,0.0324552245438099,0.0151229463517666,2.99882316589355,0.0298262089490891,0.0340567864477634,0.0608515255153179,0.000498731853440404,0.0322942733764648,0.0601282566785812,0.00711749214679003,2012-01-18 15:29:41
1.0389997959137,40,-7.86297178268433,0.0220649242401123,0.0294362381100655,0.0764917358756065,0.00285808416083455,0.0169317163527012,0.0685815215110779,0.0445309914648533,4.57357597351074,0.0213907733559608,0.0275362711399794,0.0845826417207718,0.00110444927122444,0.0149295320734382,0.0297699216753244,0.0485723353922367,3.08835911750793,0.0401827432215214,0.0528280809521675,0.108608692884445,0.0507681332528591,0.0560057088732719,0.0249108523130417,0.0287589319050312,2012-01-18 15:29:42
1.07500004768372,41,-7.87234783172607,0.0188198685646057,0.0256988815963268,0.0760612040758133,8.87785208760761e-05,0.000606358633376658,0.00379229872487485,0.0623575672507286,4.55243825912476,0.0270805526524782,0.0319436937570572,0.0664942190051079,0.0152019578963518,0.0821535140275955,0.0478248484432697,0.00721890153363347,3.03073310852051,0.0372314527630806,0.0441206991672516,0.10835150629282,0.0704823434352875,0.119199812412262,0.124077200889587,0.0486361272633076,2012-01-18 15:29:43
1.13499999046326,42,-7.87824201583862,0.0181789621710777,0.0240994207561016,0.0651440620422363,0.000427339429734275,0.0137936947867274,0.06118518486619,0.0417820289731026,4.54398107528687,0.0270182974636555,0.0339591838419437,0.0749511495232582,0.000244611117523164,0.00551868183538318,0.055926039814949,0.0860267728567123,3.05080199241638,0.0303538925945759,0.039679829031229,0.0891938731074333,0.0306744314730167,0.0733794867992401,0.232653588056564,0.0644296333193779,2012-01-18 15:29:44
1.12400007247925,42,-7.8738055229187,0.0171226933598518,0.0229297447949648,0.0677124634385109,0.0107523696497083,0.0102296238765121,0.00819509662687778,0.0270739626139402,4.58507585525513,0.0204028096050024,0.0248831436038017,0.063276506960392,0.0347266830503941,0.0692723989486694,0.0434972792863846,0.0414568930864334,3.04916763305664,0.0307541768997908,0.0376414321362972,0.0875594243407249,0.0439209453761578,0.0509080961346626,0.0325219109654427,0.0246058031916618,2012-01-18 15:29:45
1.09200000762939,41,-7.9003324508667,0.0352595485746861,0.04537483304739,0.113852627575397,0.022986950352788,0.0847388133406639,0.0518255569040775,0.0275147967040539,4.53665161132812,0.0182714890688658,0.021968699991703,0.0430535115301609,0.00612500589340925,0.0316426530480385,0.0390479192137718,0.00241505540907383,2.98648357391357,0.0678006410598755,0.0774934887886047,0.152361929416656,0.665193259716034,0.93690824508667,0.367977648973465,0.0939389988780022,2012-01-18 15:29:47
1.08400011062622,40,-7.93357944488525,0.0563882403075695,0.0694473832845688,0.166713640093803,0.266993403434753,0.485883951187134,0.646187543869019,0.270146727561951,4.60593795776367,0.0308175794780254,0.0362574011087418,0.0816404819488525,0.00302930269390345,0.0589620396494865,0.101401098072529,0.0663174837827682,2.70393848419189,0.15452829003334,0.178267911076546,0.320922613143921,3.44024991989136,5.96762704849243,2.934565782547,0.453761100769043,2012-01-18 15:29:48
1.13399982452393,42,-8.07204055786133,0.0313548780977726,0.0366436056792736,0.0796204656362534,0.00800408609211445,0.0377523340284824,0.174214079976082,0.0840257629752159,4.65792512893677,0.0222372766584158,0.0279420111328363,0.0688799321651459,0.0159651506692171,0.0279180761426687,0.0161485876888037,0.0236223489046097,2.22774386405945,0.0504341758787632,0.0634431689977646,0.135658651590347,0.0500748381018639,0.229254007339478,0.363546252250671,0.324281692504883,2012-01-18 15:29:49
1.05100011825562,39,-8.25342750549316,0.0369441211223602,0.0491895899176598,0.162940979003906,0.0586181543767452,0.0810515508055687,0.0465313605964184,0.0544499754905701,4.29103803634644,0.0716834217309952,0.0882122814655304,0.347507625818253,0.472616374492645,0.521503627300262,0.065925307571888,0.0588905699551105,2.39558863639832,0.0723796337842941,0.0870911926031113,0.169479012489319,0.454725712537766,0.998860418796539,0.602339327335358,0.07325679063797,2012-01-18 15:29:50
1.09899997711182,42,-8.31300354003906,0.016110897064209,0.0195534117519855,0.0459977798163891,0.000140016447403468,0.00683000963181257,0.0330063290894032,0.0437509268522263,4.16315650939941,0.0362022630870342,0.0465040504932404,0.103203140199184,0.122021518647671,0.119300924241543,0.192006900906563,0.0803850516676903,2.48878765106201,0.0601074136793613,0.077647477388382,0.168814450502396,0.31963524222374,0.514710187911987,0.173102959990501,0.0435662493109703,2012-01-18 15:29:51
1.05799984931946,40,-8.29618072509766,0.037056814879179,0.0465421341359615,0.117924764752388,0.0726307779550552,0.201713368296623,0.147269085049629,0.0515449494123459,4.14600658416748,0.0421440452337265,0.0532405897974968,0.125280171632767,0.0474596992135048,0.1165402084589,0.405622094869614,0.202364295721054,2.47201132774353,0.0766266956925392,0.101117618381977,0.255708366632462,0.618390440940857,0.981405794620514,0.311472594738007,0.206140741705894,2012-01-18 15:29:52
1.10400009155273,41,-8.24667549133301,0.0296124145388603,0.0383429676294327,0.0875421389937401,0.0188035424798727,0.0276776999235153,0.116950467228889,0.0171287227421999,4.17260980606079,0.0230668801814318,0.0298647657036781,0.0930434167385101,0.0170256532728672,0.0358300544321537,0.0241558365523815,0.0136308446526527,2.63416171073914,0.046017125248909,0.0618286654353142,0.172692641615868,2.2659711248707e-05,0.0302070323377848,0.148865699768066,0.0284883864223957,2012-01-18 15:29:53
1.37100005149841,37,-8.21479225158691,0.0257307719439268,0.034955695271492,0.111053489148617,0.0529855638742447,0.0676454305648804,0.0168752893805504,0.00296457321383059,4.15377902984619,0.0304872468113899,0.0429306291043758,0.172278925776482,0.0211232267320156,0.0208551045507193,0.0137462401762605,0.0613492615520954,2.7477171421051,0.0520347058773041,0.0594480410218239,0.115824624896049,0.08992800116539,0.128572687506676,0.0378681756556034,0.126913323998451,2012-01-18 15:29:54
1.10999989509583,40,-8.18879795074463,0.0091446852311492,0.0119075905531645,0.0291747339069843,0.00178160541690886,0.00180845975410193,0.00246444554068148,0.00442644860595465,4.13203191757202,0.0448163114488125,0.0531076937913895,0.124053910374641,0.161477252840996,0.236621126532555,0.0503278039395809,0.0543097667396069,2.78337240219116,0.0474886745214462,0.0600487105548382,0.135576918721199,0.0477295406162739,0.154006823897362,0.262965112924576,0.0579512901604176,2012-01-18 15:29:56
1.09899997711182,42,-8.21750545501709,0.0328221991658211,0.0383977778255939,0.0779860839247704,0.0664464980363846,0.0871998220682144,0.0141233922913671,0.0126601718366146,4.1393404006958,0.0309542696923018,0.0354107022285461,0.0677124634385109,0.0157551318407059,0.0860236659646034,0.113857254385948,0.0191311147063971,2.80423474311829,0.0266402512788773,0.0319533720612526,0.0887269079685211,0.000181648894795217,0.0413018874824047,0.0720803886651993,0.021738713607192,2012-01-18 15:29:57
1.10199999809265,41,-8.20888328552246,0.0275589134544134,0.0326609574258327,0.0595573559403419,5.2116211008979e-06,0.0143852485343814,0.100385174155235,0.0192643236368895,4.08626365661621,0.0352129936218262,0.0426330268383026,0.0815625861287117,0.0683940351009369,0.0984089821577072,0.0272000692784786,0.0523546673357487,2.82646775245667,0.0331944115459919,0.0380434431135654,0.0763005837798119,0.0399960391223431,0.0406108237802982,0.074224665760994,0.0433719083666801,2012-01-18 15:29:58
1.1340000629425,42,-8.23338317871094,0.0213477723300457,0.0260465759783983,0.0630426406860352,0.00494279246777296,0.0155613580718637,0.0239648036658764,0.012320164591074,4.08703804016113,0.0242831148207188,0.0276389345526695,0.051368098706007,0.0507779493927956,0.0664441958069801,0.0402467288076878,0.00958272814750671,2.89576363563538,0.0193464234471321,0.0243324432522058,0.0658445432782173,0.00211887457408011,0.010107733309269,0.032093483954668,0.0294765271246433,2012-01-18 15:29:59
