"diffSecs","latitude","longitude","altitude","time"
0.697999954223633,42.88178158,-71.55285245,65.3000030517578,2012-02-21 12:00:00
0.789999961853027,42.88178157,-71.55285245,65.3000030517578,2012-02-21 12:00:01
0.96399998664856,42.88178155,-71.55285245,65.3000030517578,2012-02-21 12:00:02
0.870000123977661,42.88178153,-71.55285245,65.1999969482422,2012-02-21 12:00:03
1.12899994850159,42.88178153,-71.55285246,65.1999969482422,2012-02-21 12:00:04
1.23699998855591,42.88178154,-71.55285248,65.1999969482422,2012-02-21 12:00:05
0.640000104904175,42.88178154,-71.55285249,65.1999969482422,2012-02-21 12:00:06
1.3899998664856,42.88178154,-71.55285249,65.1999969482422,2012-02-21 12:00:07
0.585000038146973,42.88178157,-71.55285251,65.1999969482422,2012-02-21 12:00:08
1.43199992179871,42.88178157,-71.55285249,65.1999969482422,2012-02-21 12:00:09
0.698000192642212,42.88178157,-71.55285251,65.1999969482422,2012-02-21 12:00:10
0.891999959945679,42.88178157,-71.55285253,65.1999969482422,2012-02-21 12:00:11
1.16100001335144,42.88178155,-71.55285251,65.1999969482422,2012-02-21 12:00:12
1.25999999046326,42.88178153,-71.5528525,65.1999969482422,2012-02-21 12:00:13
0.618000030517578,42.88178151,-71.5528525,65.1999969482422,2012-02-21 12:00:14
1.16499996185303,42.88178148,-71.55285249,65.1999969482422,2012-02-21 12:00:15
0.919999837875366,42.88178148,-71.55285249,65.1999969482422,2012-02-21 12:00:16
1.19900012016296,42.88178147,-71.5528525,65.1999969482422,2012-02-21 12:00:17
1.05099987983704,42.88178148,-71.55285252,65.1999969482422,2012-02-21 12:00:18
0.528000116348267,42.88178146,-71.55285252,65.1999969482422,2012-02-21 12:00:19
1.21499991416931,42.88178146,-71.55285252,65.1999969482422,2012-02-21 12:00:20
0.970000028610229,42.88178147,-71.55285253,65.1999969482422,2012-02-21 12:00:21
1.28900003433228,42.88178149,-71.55285255,65.1999969482422,2012-02-21 12:00:22
0.5,42.88178149,-71.55285255,65.1999969482422,2012-02-21 12:00:23
1.28600001335144,42.8817815,-71.55285256,65.1999969482422,2012-02-21 12:00:24
0.818000078201294,42.88178149,-71.55285255,65.1999969482422,2012-02-21 12:00:25
1.34299993515015,42.88178148,-71.55285255,65.1999969482422,2012-02-21 12:00:26
0.996000051498413,42.88178148,-71.55285257,65.1999969482422,2012-02-21 12:00:27
1.00099992752075,42.88178146,-71.55285257,65.1999969482422,2012-02-21 12:00:28
0.571000099182129,42.88178146,-71.55285258,65.1999969482422,2012-02-21 12:00:29
1.39999985694885,42.88178146,-71.55285258,65.1999969482422,2012-02-21 12:00:30
0.799000024795532,42.88178144,-71.55285259,65.1999969482422,2012-02-21 12:00:31
1.30900001525879,42.88178147,-71.55285263,65.1999969482422,2012-02-21 12:00:32
0.714999914169312,42.88178147,-71.55285263,65.1999969482422,2012-02-21 12:00:33
1.02300000190735,42.88178147,-71.55285263,65.1999969482422,2012-02-21 12:00:34
1.24300003051758,42.88178148,-71.55285265,65.1999969482422,2012-02-21 12:00:35
0.831000089645386,42.88178152,-71.55285268,65.1999969482422,2012-02-21 12:00:36
1.01799988746643,42.8817815,-71.55285268,65.1999969482422,2012-02-21 12:00:37
1.07400012016296,42.8817815,-71.55285268,65.1999969482422,2012-02-21 12:00:38
0.704999923706055,42.88178146,-71.55285271,65.1999969482422,2012-02-21 12:00:39
1.3840000629425,42.88178146,-71.55285271,65.1999969482422,2012-02-21 12:00:40
0.66700005531311,42.88178149,-71.55285275,65.1999969482422,2012-02-21 12:00:41
1.07599997520447,42.8817815,-71.55285278,65.1999969482422,2012-02-21 12:00:42
1.23000001907349,42.8817815,-71.55285278,65.1999969482422,2012-02-21 12:00:43
1.01900005340576,42.88178155,-71.55285283,65.1999969482422,2012-02-21 12:00:44
0.635999917984009,42.88178154,-71.55285284,65.1999969482422,2012-02-21 12:00:45
1.15100002288818,42.88178154,-71.55285284,65.1999969482422,2012-02-21 12:00:46
0.827999830245972,42.88178157,-71.55285288,65.1999969482422,2012-02-21 12:00:47
1.27100014686584,42.88178157,-71.5528529,65.1999969482422,2012-02-21 12:00:48
1.19400000572205,42.88178156,-71.55285291,65.1999969482422,2012-02-21 12:00:49
0.394000053405762,42.88178161,-71.55285294,65.1999969482422,2012-02-21 12:00:50
1.21299982070923,42.8817816,-71.55285293,65.1999969482422,2012-02-21 12:00:51
1.23600006103516,42.88178159,-71.55285291,65.1999969482422,2012-02-21 12:00:52
0.891999959945679,42.88178165,-71.55285297,65.1999969482422,2012-02-21 12:00:53
1.28299999237061,42.88178165,-71.55285294,65.1999969482422,2012-02-21 12:00:54
0.367000102996826,42.88178171,-71.55285301,65.1999969482422,2012-02-21 12:00:55
1.3199999332428,42.88178174,-71.55285304,65.1999969482422,2012-02-21 12:00:56
1.14100003242493,42.8817818,-71.55285307,65.1999969482422,2012-02-21 12:00:57
0.891999959945679,42.88178181,-71.55285308,65.1999969482422,2012-02-21 12:00:58
1.24000000953674,42.88178184,-71.55285306,65.1999969482422,2012-02-21 12:00:59
0.574000120162964,42.88178178,-71.552853,65.1999969482422,2012-02-21 12:01:00
0.972999811172485,42.88178178,-71.552853,65.1999969482422,2012-02-21 12:01:01
1.08400011062622,42.88178178,-71.55285305,65.1999969482422,2012-02-21 12:01:02
1.29299998283386,42.88178178,-71.55285307,65.1999969482422,2012-02-21 12:01:03
0.796000003814697,42.88178179,-71.55285309,65.1999969482422,2012-02-21 12:01:04
1.05399990081787,42.88178182,-71.55285312,65.1999969482422,2012-02-21 12:01:05
0.634999990463257,42.88178186,-71.55285315,65.1999969482422,2012-02-21 12:01:06
1.39300012588501,42.88178188,-71.55285317,65.1999969482422,2012-02-21 12:01:07
0.825999975204468,42.88178188,-71.55285317,65.1999969482422,2012-02-21 12:01:08
0.979000091552734,42.88178188,-71.55285317,65.1999969482422,2012-02-21 12:01:09
1.09699988365173,42.88178191,-71.55285318,65.1999969482422,2012-02-21 12:01:10
1.0460000038147,42.88178192,-71.55285316,65.1999969482422,2012-02-21 12:01:11
0.883000135421753,42.88178197,-71.55285317,65.1999969482422,2012-02-21 12:01:12
1.125,42.88178197,-71.55285317,65.1999969482422,2012-02-21 12:01:13
1.26399993896484,42.88178198,-71.5528532,65.1999969482422,2012-02-21 12:01:14
0.682999849319458,42.881782,-71.55285323,65.1999969482422,2012-02-21 12:01:15
0.682000160217285,42.88178205,-71.55285327,65.1999969482422,2012-02-21 12:01:16
1.06799983978271,42.88178207,-71.55285329,65.1999969482422,2012-02-21 12:01:17
0.498000144958496,42.88178203,-71.55285329,65.1999969482422,2012-02-21 12:01:17
1.51399993896484,42.88178203,-71.55285329,65.1999969482422,2012-02-21 12:01:19
0.684999942779541,42.88178205,-71.55285332,65.1999969482422,2012-02-21 12:01:19
1.3270001411438,42.88178206,-71.55285335,65.1999969482422,2012-02-21 12:01:21
0.457000017166138,42.88178206,-71.55285335,65.1999969482422,2012-02-21 12:01:21
1.33899998664856,42.88178207,-71.55285336,65.1999969482422,2012-02-21 12:01:23
1.20299983024597,42.88178206,-71.55285336,65.1999969482422,2012-02-21 12:01:24
0.680999994277954,42.88178206,-71.55285338,65.1999969482422,2012-02-21 12:01:24
1.19200015068054,42.88178207,-71.55285339,65.1999969482422,2012-02-21 12:01:26
0.579999923706055,42.8817821,-71.55285342,65.1999969482422,2012-02-21 12:01:26
1.46600008010864,42.88178212,-71.55285346,65.1999969482422,2012-02-21 12:01:28
0.730000019073486,42.88178212,-71.55285347,65.1999969482422,2012-02-21 12:01:28
1.07999992370605,42.88178212,-71.55285348,65.1999969482422,2012-02-21 12:01:29
1.07400012016296,42.88178211,-71.55285349,65.1999969482422,2012-02-21 12:01:31
0.798999786376953,42.88178213,-71.55285351,65.1999969482422,2012-02-21 12:01:31
0.910000085830688,42.88178214,-71.55285353,65.1999969482422,2012-02-21 12:01:32
1.4449999332428,42.88178214,-71.55285355,65.0999984741211,2012-02-21 12:01:34
0.656000137329102,42.88178213,-71.55285356,65.0999984741211,2012-02-21 12:01:34
1.1399998664856,42.88178214,-71.5528536,65.0999984741211,2012-02-21 12:01:35
0.845000028610229,42.88178215,-71.55285362,65.0999984741211,2012-02-21 12:01:36
1.16400003433228,42.88178213,-71.55285364,65.0999984741211,2012-02-21 12:01:38
1.25,42.88178215,-71.55285365,65.0999984741211,2012-02-21 12:01:39
0.519999980926514,42.88178212,-71.55285368,65.0999984741211,2012-02-21 12:01:39
1.37100005149841,42.88178212,-71.55285368,65.0999984741211,2012-02-21 12:01:41
0.875999927520752,42.88178211,-71.55285367,65.0999984741211,2012-02-21 12:01:42
1.2039999961853,42.88178209,-71.55285367,65.0999984741211,2012-02-21 12:01:43
0.503000020980835,42.88178209,-71.55285367,65.0999984741211,2012-02-21 12:01:43
1.30299997329712,42.8817821,-71.55285371,65.0999984741211,2012-02-21 12:01:45
1.14600014686584,42.88178216,-71.55285374,65.0999984741211,2012-02-21 12:01:46
0.899999856948853,42.88178211,-71.55285372,65.0999984741211,2012-02-21 12:01:47
1.18099999427795,42.8817821,-71.55285377,65.0999984741211,2012-02-21 12:01:48
0.5,42.8817821,-71.55285377,65.0999984741211,2012-02-21 12:01:48
1.44500017166138,42.88178213,-71.55285378,65.0999984741211,2012-02-21 12:01:50
0.805999994277954,42.88178213,-71.55285379,65.0999984741211,2012-02-21 12:01:51
1.29999995231628,42.88178213,-71.55285379,65.0999984741211,2012-02-21 12:01:52
0.503000020980835,42.88178213,-71.5528538,65.0999984741211,2012-02-21 12:01:52
0.957000017166138,42.88178215,-71.55285378,65.0999984741211,2012-02-21 12:01:53
1.4449999332428,42.88178214,-71.5528538,65.0999984741211,2012-02-21 12:01:55
0.690000057220459,42.88178209,-71.55285381,65.0999984741211,2012-02-21 12:01:55
1.35800004005432,42.8817821,-71.55285387,65.0999984741211,2012-02-21 12:01:57
0.549999952316284,42.88178206,-71.55285391,65.0999984741211,2012-02-21 12:01:57
1.24699997901917,42.88178203,-71.55285392,65.0999984741211,2012-02-21 12:01:59
1.08699989318848,42.88178203,-71.55285392,65.0999984741211,2012-02-21 12:02:00
0.728000164031982,42.881782,-71.55285392,65.0999984741211,2012-02-21 12:02:00
1.17999982833862,42.881782,-71.55285394,65.0999984741211,2012-02-21 12:02:02
0.825000047683716,42.88178198,-71.55285394,65.0999984741211,2012-02-21 12:02:02
0.989000082015991,42.88178196,-71.55285394,65.0999984741211,2012-02-21 12:02:03
1.35500001907349,42.88178196,-71.55285394,65.0999984741211,2012-02-21 12:02:05
0.707000017166138,42.88178192,-71.55285399,65.0999984741211,2012-02-21 12:02:05
0.961999893188477,42.88178189,-71.55285398,65.0999984741211,2012-02-21 12:02:06
1.22300004959106,42.88178185,-71.55285396,65.0999984741211,2012-02-21 12:02:08
0.948999881744385,42.88178185,-71.55285396,65.0999984741211,2012-02-21 12:02:09
1.14900016784668,42.88178184,-71.55285399,65.0999984741211,2012-02-21 12:02:10
0.510999917984009,42.88178181,-71.55285397,65.0999984741211,2012-02-21 12:02:10
1.12199997901917,42.88178181,-71.55285397,65.0999984741211,2012-02-21 12:02:11
1.37400007247925,42.88178184,-71.55285398,65.0999984741211,2012-02-21 12:02:13
0.746999979019165,42.88178176,-71.55285396,65.0999984741211,2012-02-21 12:02:13
1.0220000743866,42.88178174,-71.55285395,65.0999984741211,2012-02-21 12:02:14
1.00799989700317,42.8817817,-71.55285387,65.0999984741211,2012-02-21 12:02:16
1.21199989318848,42.88178161,-71.55285401,65.0999984741211,2012-02-21 12:02:17
0.805000066757202,42.88178148,-71.55285381,65,2012-02-21 12:02:18
1.3199999332428,42.88178148,-71.55285381,65,2012-02-21 12:02:19
0.503000020980835,42.88178161,-71.55285395,65,2012-02-21 12:02:19
1.08700013160706,42.8817816,-71.55285398,65,2012-02-21 12:02:20
1.21700000762939,42.8817816,-71.55285398,65,2012-02-21 12:02:22
0.756999969482422,42.88178159,-71.55285392,65,2012-02-21 12:02:22
1.30200004577637,42.88178154,-71.5528539,65,2012-02-21 12:02:24
0.690999984741211,42.88178151,-71.55285389,65,2012-02-21 12:02:24
1.34999990463257,42.88178151,-71.55285388,65,2012-02-21 12:02:26
0.608999967575073,42.88178151,-71.55285389,65,2012-02-21 12:02:26
1.38300013542175,42.88178151,-71.55285389,65,2012-02-21 12:02:28
0.547999858856201,42.8817815,-71.55285392,65,2012-02-21 12:02:28
1.22200012207031,42.88178148,-71.55285392,65,2012-02-21 12:02:30
1.06900000572205,42.8817815,-71.55285394,65,2012-02-21 12:02:31
1.14499998092651,42.8817815,-71.55285395,65,2012-02-21 12:02:32
0.526999950408936,42.8817815,-71.55285395,65,2012-02-21 12:02:32
1.50399994850159,42.88178149,-71.55285395,65,2012-02-21 12:02:34
0.598000049591064,42.88178145,-71.55285395,65,2012-02-21 12:02:34
1.41600012779236,42.88178148,-71.55285396,65,2012-02-21 12:02:36
0.444000005722046,42.88178148,-71.55285396,65,2012-02-21 12:02:36
1.2979998588562,42.88178152,-71.55285399,65,2012-02-21 12:02:38
1.26200008392334,42.88178149,-71.55285398,65,2012-02-21 12:02:39
0.674000024795532,42.88178148,-71.55285397,65,2012-02-21 12:02:39
1.22699999809265,42.88178147,-71.552854,65,2012-02-21 12:02:41
0.508999824523926,42.88178139,-71.55285399,65,2012-02-21 12:02:41
1.51500010490417,42.88178144,-71.55285405,65,2012-02-21 12:02:43
0.724999904632568,42.88178147,-71.55285409,65,2012-02-21 12:02:43
1.17200016975403,42.8817815,-71.55285413,65,2012-02-21 12:02:45
1.20099997520447,42.8817815,-71.55285413,65,2012-02-21 12:02:46
0.394999980926514,42.8817815,-71.55285415,65,2012-02-21 12:02:46
1.14800000190735,42.88178152,-71.55285417,65,2012-02-21 12:02:47
1.20599985122681,42.88178151,-71.55285417,65,2012-02-21 12:02:49
1.18600010871887,42.88178151,-71.55285417,65,2012-02-21 12:02:50
0.648000001907349,42.88178153,-71.55285419,65,2012-02-21 12:02:50
1.2739999294281,42.88178155,-71.55285423,65,2012-02-21 12:02:52
0.781000137329102,42.88178152,-71.55285425,64.9000015258789,2012-02-21 12:02:52
1.14199995994568,42.88178155,-71.5528543,64.9000015258789,2012-02-21 12:02:54
1.19300007820129,42.88178158,-71.55285434,64.9000015258789,2012-02-21 12:02:55
0.548999786376953,42.88178156,-71.55285437,64.9000015258789,2012-02-21 12:02:55
1.40900015830994,42.88178154,-71.55285442,64.9000015258789,2012-02-21 12:02:57
0.603999853134155,42.88178154,-71.55285445,64.9000015258789,2012-02-21 12:02:57
1.45000004768372,42.88178155,-71.55285448,64.9000015258789,2012-02-21 12:02:59
0.503000020980835,42.88178158,-71.55285452,64.9000015258789,2012-02-21 12:02:59
1.41400003433228,42.88178158,-71.55285456,64.9000015258789,2012-02-21 12:03:01
0.773999929428101,42.88178157,-71.55285458,64.9000015258789,2012-02-21 12:03:01
1.25100016593933,42.88178157,-71.55285458,64.9000015258789,2012-02-21 12:03:03
0.578999996185303,42.88178158,-71.55285461,64.9000015258789,2012-02-21 12:03:03
1.1969997882843,42.88178155,-71.55285461,64.9000015258789,2012-02-21 12:03:04
0.963000059127808,42.88178154,-71.55285463,64.9000015258789,2012-02-21 12:03:05
1.31900000572205,42.88178153,-71.55285464,64.9000015258789,2012-02-21 12:03:07
0.861999988555908,42.88178151,-71.55285465,64.9000015258789,2012-02-21 12:03:08
0.565999984741211,42.88178151,-71.55285468,64.9000015258789,2012-02-21 12:03:08
1.14300012588501,42.8817815,-71.55285467,64.9000015258789,2012-02-21 12:03:09
1.55900001525879,42.8817815,-71.55285467,64.9000015258789,2012-02-21 12:03:11
0.363999843597412,42.8817815,-71.55285466,64.9000015258789,2012-02-21 12:03:11
1.70300006866455,42.88178149,-71.55285465,64.9000015258789,2012-02-21 12:03:13
0.54200005531311,42.88178149,-71.55285465,64.9000015258789,2012-02-21 12:03:14
1.5,42.88178152,-71.55285467,64.9000015258789,2012-02-21 12:03:15
0.721999883651733,42.8817815,-71.55285466,64.9000015258789,2012-02-21 12:03:16
1.34500002861023,42.88178149,-71.55285465,64.9000015258789,2012-02-21 12:03:17
0.561000108718872,42.88178151,-71.55285468,64.9000015258789,2012-02-21 12:03:18
1.00099992752075,42.88178153,-71.55285469,64.9000015258789,2012-02-21 12:03:19
1.43700003623962,42.88178153,-71.55285468,64.9000015258789,2012-02-21 12:03:20
0.628000020980835,42.88178152,-71.55285468,64.9000015258789,2012-02-21 12:03:21
1.19199991226196,42.88178153,-71.5528547,64.9000015258789,2012-02-21 12:03:22
1.07200002670288,42.88178152,-71.55285471,64.9000015258789,2012-02-21 12:03:23
0.926000118255615,42.88178151,-71.5528547,64.9000015258789,2012-02-21 12:03:24
0.781999826431274,42.88178152,-71.55285471,64.9000015258789,2012-02-21 12:03:25
1.41900014877319,42.8817815,-71.5528547,64.9000015258789,2012-02-21 12:03:26
0.503999948501587,42.8817815,-71.5528547,64.9000015258789,2012-02-21 12:03:27
1.3510000705719,42.88178148,-71.55285471,64.9000015258789,2012-02-21 12:03:28
0.962999820709229,42.88178149,-71.55285473,64.9000015258789,2012-02-21 12:03:29
1.12600016593933,42.88178145,-71.5528547,64.9000015258789,2012-02-21 12:03:30
0.530999898910522,42.88178143,-71.55285468,64.9000015258789,2012-02-21 12:03:31
1.19000005722046,42.88178146,-71.55285475,64.9000015258789,2012-02-21 12:03:32
1.34200000762939,42.88178149,-71.5528548,64.9000015258789,2012-02-21 12:03:33
0.73799991607666,42.88178149,-71.5528548,64.9000015258789,2012-02-21 12:03:34
0.740000009536743,42.88178149,-71.55285482,64.8000030517578,2012-02-21 12:03:35
1.49900007247925,42.88178271,-71.55285779,64.8000030517578,2012-02-21 12:03:36
0.486999988555908,42.88178751,-71.55290442,65.4000015258789,2012-02-21 12:03:37
1.41499996185303,42.88179038,-71.55290961,65.3000030517578,2012-02-21 12:03:38
0.815000057220459,42.88172842,-71.55299414,68.1999969482422,2012-02-21 12:03:39
1.19700002670288,42.88170966,-71.55298388,66.4000015258789,2012-02-21 12:03:40
0.542999982833862,42.88170504,-71.55294827,68,2012-02-21 12:03:41
1.40599989891052,42.88160711,-71.55299816,66.6999969482422,2012-02-21 12:03:42
0.796999931335449,42.88159586,-71.55300311,66.6999969482422,2012-02-21 12:03:43
1.37000012397766,42.88160382,-71.55300887,66.1999969482422,2012-02-21 12:03:44
0.54200005531311,42.88159266,-71.5530066,66,2012-02-21 12:03:45
1.18199992179871,42.88158005,-71.55303091,65.4000015258789,2012-02-21 12:03:46
0.867000102996826,42.88160174,-71.55302106,65.5,2012-02-21 12:03:47
1.37199997901917,42.88163825,-71.55296944,64.8000030517578,2012-02-21 12:03:48
0.567999839782715,42.88163433,-71.55297018,64.9000015258789,2012-02-21 12:03:49
1.22900009155273,42.8816465,-71.55297611,64.6999969482422,2012-02-21 12:03:50
1.03399991989136,42.88165674,-71.55298718,64.1999969482422,2012-02-21 12:03:51
0.782000064849854,42.88166216,-71.55295782,65.1999969482422,2012-02-21 12:03:52
1.15700006484985,42.8816802,-71.55292635,66.1999969482422,2012-02-21 12:03:53
0.740000009536743,42.88168216,-71.55292112,66.3000030517578,2012-02-21 12:03:54
1.17799997329712,42.88168464,-71.55290644,65.3000030517578,2012-02-21 12:03:55
1.17000007629395,42.88167948,-71.55290362,65.1999969482422,2012-02-21 12:03:56
0.974999904632568,42.8816905,-71.55292884,64.6999969482422,2012-02-21 12:03:57
0.917999982833862,42.88169054,-71.55292995,64.6999969482422,2012-02-21 12:03:58
0.872999906539917,42.8817216,-71.55291481,65.1999969482422,2012-02-21 12:03:59
1.25500011444092,42.88171801,-71.55291971,65.1999969482422,2012-02-21 12:04:00
0.950999975204468,42.88176402,-71.5528852,62.5,2012-02-21 12:04:01
0.913000106811523,42.88176336,-71.55289219,62.7000007629395,2012-02-21 12:04:02
1.08999991416931,42.88176505,-71.55290004,63,2012-02-21 12:04:03
1.14499998092651,42.88176505,-71.55290004,63,2012-02-21 12:04:04
0.677000045776367,42.88176196,-71.55290202,63.5,2012-02-21 12:04:05
1.13100004196167,42.88175894,-71.55290088,63.4000015258789,2012-02-21 12:04:06
0.86899995803833,42.88175986,-71.55290912,63.7000007629395,2012-02-21 12:04:07
0.88100004196167,42.88176046,-71.5529109,63.5,2012-02-21 12:04:08
1.53099989891052,42.8817603,-71.55291383,63.5,2012-02-21 12:04:09
0.597000122070312,42.88175952,-71.552914,63.5999984741211,2012-02-21 12:04:10
1.1639997959137,42.88176053,-71.55291346,63.5,2012-02-21 12:04:11
0.761000156402588,42.88176049,-71.5529159,63.7999992370605,2012-02-21 12:04:12
1.1949999332428,42.88176094,-71.55291575,63.9000015258789,2012-02-21 12:04:13
0.849999904632568,42.88176165,-71.55291625,64,2012-02-21 12:04:14
1.18400001525879,42.88176178,-71.55291606,64,2012-02-21 12:04:15
0.742000102996826,42.8817623,-71.55291534,63.9000015258789,2012-02-21 12:04:16
1.34500002861023,42.88176221,-71.55291522,63.9000015258789,2012-02-21 12:04:17
0.648999929428101,42.88176222,-71.55291502,63.7999992370605,2012-02-21 12:04:18
1.45600008964539,42.88176222,-71.55291502,63.7999992370605,2012-02-21 12:04:19
0.507999897003174,42.88176191,-71.55291482,63.7999992370605,2012-02-21 12:04:20
1.20000004768372,42.88176214,-71.55291439,63.7999992370605,2012-02-21 12:04:21
1.28200006484985,42.88176189,-71.55291442,63.7999992370605,2012-02-21 12:04:22
0.57699990272522,42.88176192,-71.55291429,63.7999992370605,2012-02-21 12:04:23
1.38300013542175,42.88176184,-71.55291439,63.7999992370605,2012-02-21 12:04:24
0.550999879837036,42.88176164,-71.55291369,63.7999992370605,2012-02-21 12:04:25
1.47399997711182,42.88176174,-71.55291354,63.7999992370605,2012-02-21 12:04:26
0.772000074386597,42.88176215,-71.55291303,63.7999992370605,2012-02-21 12:04:27
1.15299987792969,42.88176223,-71.55291271,63.7999992370605,2012-02-21 12:04:28
0.616000175476074,42.88176213,-71.55291256,63.9000015258789,2012-02-21 12:04:29
1.06900000572205,42.88176223,-71.55291283,63.7999992370605,2012-02-21 12:04:30
1.39999985694885,42.88176188,-71.55291307,63.9000015258789,2012-02-21 12:04:31
0.700000047683716,42.88176168,-71.55291352,63.7999992370605,2012-02-21 12:04:32
1.29299998283386,42.88176193,-71.55291344,63.7999992370605,2012-02-21 12:04:33
0.464999914169312,42.88176165,-71.55291331,63.7999992370605,2012-02-21 12:04:34
1.52100014686584,42.88176176,-71.55291353,63.7999992370605,2012-02-21 12:04:35
0.703000068664551,42.88176174,-71.5529135,63.7999992370605,2012-02-21 12:04:36
1.2889997959137,42.8817622,-71.55291331,63.7999992370605,2012-02-21 12:04:37
0.881999969482422,42.88176223,-71.55291337,63.7999992370605,2012-02-21 12:04:38
0.959000110626221,42.88176198,-71.5529134,63.7999992370605,2012-02-21 12:04:39
1.03900003433228,42.88176227,-71.55291373,63.9000015258789,2012-02-21 12:04:40
0.787999868392944,42.8817623,-71.55291374,63.9000015258789,2012-02-21 12:04:41
1.15200018882751,42.88176288,-71.55291348,63.9000015258789,2012-02-21 12:04:42
1.12899994850159,42.88176287,-71.55291347,63.9000015258789,2012-02-21 12:04:43
0.960999965667725,42.8817627,-71.55291358,63.9000015258789,2012-02-21 12:04:44
0.720999956130981,42.88176251,-71.55291354,63.9000015258789,2012-02-21 12:04:45
1.14300012588501,42.88176208,-71.55291366,63.9000015258789,2012-02-21 12:04:46
0.790999889373779,42.88176197,-71.55291356,63.9000015258789,2012-02-21 12:04:47
1.28600001335144,42.8817622,-71.55291379,63.7999992370605,2012-02-21 12:04:48
1.21900010108948,42.88176229,-71.55291378,63.7999992370605,2012-02-21 12:04:49
0.542999982833862,42.8817621,-71.55291389,63.9000015258789,2012-02-21 12:04:50
1.37399983406067,42.88176207,-71.55291388,63.9000015258789,2012-02-21 12:04:51
0.561000108718872,42.88176207,-71.55291388,63.9000015258789,2012-02-21 12:04:52
1.54299998283386,42.88176208,-71.55291382,63.9000015258789,2012-02-21 12:04:53
0.601999998092651,42.88176202,-71.55291386,63.9000015258789,2012-02-21 12:04:54
0.878000020980835,42.88176194,-71.55291377,63.9000015258789,2012-02-21 12:04:55
1.30800008773804,42.88176194,-71.55291367,63.9000015258789,2012-02-21 12:04:56
1.04699993133545,42.88176188,-71.55291387,63.9000015258789,2012-02-21 12:04:57
0.818000078201294,42.88176175,-71.55291391,63.9000015258789,2012-02-21 12:04:58
1.32399988174438,42.88176192,-71.55291393,63.7999992370605,2012-02-21 12:04:59
0.561000108718872,42.88176195,-71.55291391,63.7999992370605,2012-02-21 12:05:00
1.0389997959137,42.881762,-71.55291411,63.7999992370605,2012-02-21 12:05:01
1.24200010299683,42.88176202,-71.55291429,63.7999992370605,2012-02-21 12:05:02
0.796999931335449,42.88176203,-71.55291444,63.7999992370605,2012-02-21 12:05:03
0.99399995803833,42.88176179,-71.5529147,63.9000015258789,2012-02-21 12:05:04
1.26000022888184,42.88176181,-71.5529147,63.9000015258789,2012-02-21 12:05:05
0.658999919891357,42.88176179,-71.55291484,63.9000015258789,2012-02-21 12:05:06
1.39299988746643,42.88176199,-71.55291459,63.9000015258789,2012-02-21 12:05:07
0.539999961853027,42.88176186,-71.55291461,63.9000015258789,2012-02-21 12:05:08
1.12600016593933,42.88176201,-71.55291452,63.9000015258789,2012-02-21 12:05:09
1.0090000629425,42.88176197,-71.55291459,63.9000015258789,2012-02-21 12:05:10
1.17799997329712,42.88176205,-71.55291459,63.9000015258789,2012-02-21 12:05:11
0.792999982833862,42.88176205,-71.55291459,63.9000015258789,2012-02-21 12:05:12
1.17199993133545,42.88176222,-71.55291444,63.9000015258789,2012-02-21 12:05:13
0.759999990463257,42.88176218,-71.55291444,63.9000015258789,2012-02-21 12:05:14
1.14100003242493,42.88176205,-71.55291448,63.9000015258789,2012-02-21 12:05:15
1.21700000762939,42.88176207,-71.55291451,63.9000015258789,2012-02-21 12:05:16
0.654999971389771,42.88176208,-71.55291446,63.9000015258789,2012-02-21 12:05:17
1.34999990463257,42.88176219,-71.55291441,63.9000015258789,2012-02-21 12:05:18
0.830000162124634,42.8817621,-71.55291455,63.9000015258789,2012-02-21 12:05:19
1.10800004005432,42.88176212,-71.55291448,63.9000015258789,2012-02-21 12:05:20
1.2519998550415,42.88176197,-71.55291469,63.9000015258789,2012-02-21 12:05:21
0.453999996185303,42.88176206,-71.55291458,63.9000015258789,2012-02-21 12:05:22
1.34700012207031,42.88176225,-71.55291435,63.9000015258789,2012-02-21 12:05:23
1.20599985122681,42.88176237,-71.55291422,63.9000015258789,2012-02-21 12:05:24
0.677999973297119,42.88176248,-71.55291408,63.9000015258789,2012-02-21 12:05:25
1.31400012969971,42.88176227,-71.55291413,63.9000015258789,2012-02-21 12:05:26
0.460000038146973,42.88176226,-71.55291409,63.9000015258789,2012-02-21 12:05:27
1.49799990653992,42.88176233,-71.55291405,63.9000015258789,2012-02-21 12:05:28
0.752000093460083,42.88176231,-71.55291397,63.9000015258789,2012-02-21 12:05:29
1.12999987602234,42.88176239,-71.55291403,63.9000015258789,2012-02-21 12:05:30
1.17400002479553,42.88176228,-71.55291409,63.9000015258789,2012-02-21 12:05:31
0.73799991607666,42.88176245,-71.55291436,63.9000015258789,2012-02-21 12:05:32
0.936000108718872,42.88176245,-71.55291435,63.9000015258789,2012-02-21 12:05:33
1.39000010490417,42.88176237,-71.5529145,63.9000015258789,2012-02-21 12:05:34
0.602999925613403,42.88176242,-71.55291441,63.9000015258789,2012-02-21 12:05:35
1.06500005722046,42.88176251,-71.55291436,63.9000015258789,2012-02-21 12:05:36
1.1489999294281,42.88176258,-71.55291442,63.9000015258789,2012-02-21 12:05:37
0.688999891281128,42.88176263,-71.55291473,63.9000015258789,2012-02-21 12:05:38
1.38600015640259,42.88176268,-71.55291475,63.9000015258789,2012-02-21 12:05:39
0.766999959945679,42.88176276,-71.55291456,63.9000015258789,2012-02-21 12:05:40
1.12999987602234,42.88176281,-71.55291443,63.9000015258789,2012-02-21 12:05:41
1.0770001411438,42.88176293,-71.55291447,63.9000015258789,2012-02-21 12:05:42
0.662999868392944,42.88176302,-71.55291439,63.9000015258789,2012-02-21 12:05:43
1.43900012969971,42.88176316,-71.5529142,63.9000015258789,2012-02-21 12:05:44
0.471999883651733,42.88176308,-71.55291438,63.9000015258789,2012-02-21 12:05:45
1.08400011062622,42.88176318,-71.55291424,63.9000015258789,2012-02-21 12:05:46
1.35199999809265,42.88176309,-71.55291444,63.9000015258789,2012-02-21 12:05:47
0.793999910354614,42.88176301,-71.5529144,63.9000015258789,2012-02-21 12:05:48
0.782000064849854,42.88176303,-71.55291448,63.9000015258789,2012-02-21 12:05:49
1.08800005912781,42.88176326,-71.55291446,63.9000015258789,2012-02-21 12:05:50
0.947000026702881,42.88176342,-71.55291436,63.9000015258789,2012-02-21 12:05:51
1.41599988937378,42.88176348,-71.55291429,63.9000015258789,2012-02-21 12:05:52
0.732000112533569,42.88176337,-71.55291464,63.9000015258789,2012-02-21 12:05:53
0.828999996185303,42.88176334,-71.55291495,63.9000015258789,2012-02-21 12:05:54
1.3899998664856,42.88176328,-71.55291508,63.9000015258789,2012-02-21 12:05:55
0.83299994468689,42.88176331,-71.5529152,63.9000015258789,2012-02-21 12:05:56
1.24400019645691,42.88176327,-71.55291524,63.9000015258789,2012-02-21 12:05:57
0.627999782562256,42.88176345,-71.5529151,63.9000015258789,2012-02-21 12:05:58
1.35700011253357,42.88176352,-71.5529151,63.9000015258789,2012-02-21 12:05:59
0.684999942779541,42.88176351,-71.55291518,63.9000015258789,2012-02-21 12:06:00
1.14600014686584,42.88176362,-71.5529151,63.9000015258789,2012-02-21 12:06:01
1.18400001525879,42.88176345,-71.55291538,63.9000015258789,2012-02-21 12:06:02
0.651999950408936,42.88176336,-71.55291543,64,2012-02-21 12:06:03
1.3769998550415,42.88176331,-71.55291551,64,2012-02-21 12:06:04
0.578000068664551,42.88176324,-71.55291562,64,2012-02-21 12:06:05
1.36500000953674,42.88176319,-71.55291573,64,2012-02-21 12:06:06
0.549999952316284,42.88176314,-71.55291585,64,2012-02-21 12:06:07
1.43799996376038,42.88176306,-71.55291588,64,2012-02-21 12:06:08
0.888000011444092,42.88176304,-71.55291595,64,2012-02-21 12:06:09
1.18200016021729,42.88176294,-71.55291586,64,2012-02-21 12:06:10
0.462999820709229,42.88176291,-71.55291588,64,2012-02-21 12:06:11
1.39800000190735,42.88176289,-71.55291589,64,2012-02-21 12:06:12
0.668000221252441,42.88176292,-71.55291591,64,2012-02-21 12:06:13
1.43999981880188,42.88176287,-71.55291597,64,2012-02-21 12:06:14
0.430999994277954,42.88176288,-71.55291599,64,2012-02-21 12:06:15
1.32500004768372,42.88176287,-71.552916,64,2012-02-21 12:06:16
1.1340000629425,42.88176287,-71.552916,64,2012-02-21 12:06:17
0.882999897003174,42.88176289,-71.55291598,64,2012-02-21 12:06:18
1.27600002288818,42.88176272,-71.55291614,64,2012-02-21 12:06:19
0.54800009727478,42.88176256,-71.55291631,64,2012-02-21 12:06:20
0.973999977111816,42.88176243,-71.55291646,64,2012-02-21 12:06:21
1.09699988365173,42.88176233,-71.55291655,64,2012-02-21 12:06:22
1.30200004577637,42.88176228,-71.55291664,64,2012-02-21 12:06:23
0.702000141143799,42.88176227,-71.55291672,64,2012-02-21 12:06:24
0.996999979019165,42.88176223,-71.55291679,64,2012-02-21 12:06:25
1.2889997959137,42.88176229,-71.55291676,64,2012-02-21 12:06:26
0.665000200271606,42.88176232,-71.5529168,64,2012-02-21 12:06:27
1.38199996948242,42.88176224,-71.55291683,64,2012-02-21 12:06:28
0.593999862670898,42.88176224,-71.55291685,64,2012-02-21 12:06:29
1.15799999237061,42.88176228,-71.5529169,64,2012-02-21 12:06:30
1.05800008773804,42.88176236,-71.55291686,64,2012-02-21 12:06:31
0.799999952316284,42.88176237,-71.55291696,64,2012-02-21 12:06:32
1.08200001716614,42.88176237,-71.55291696,64,2012-02-21 12:06:33
0.930999994277954,42.88176237,-71.55291696,64,2012-02-21 12:06:34
1.10199999809265,42.88176233,-71.55291706,64,2012-02-21 12:06:35
1.21099996566772,42.88176233,-71.55291712,64,2012-02-21 12:06:36
0.67900013923645,42.8817622,-71.55291731,64,2012-02-21 12:06:37
1.15400004386902,42.88176219,-71.5529174,64,2012-02-21 12:06:38
0.854999780654907,42.88176218,-71.55291738,64,2012-02-21 12:06:39
1.24000000953674,42.88176204,-71.55291746,64,2012-02-21 12:06:40
1.19300007820129,42.88176202,-71.55291752,64,2012-02-21 12:06:41
0.526999950408936,42.88176208,-71.55291756,64,2012-02-21 12:06:42
1.16300010681152,42.88176197,-71.55291783,64,2012-02-21 12:06:43
0.750999927520752,42.88176199,-71.55291795,64,2012-02-21 12:06:44
1.48600006103516,42.88176182,-71.55291814,64,2012-02-21 12:06:45
0.746000051498413,42.88176178,-71.55291809,64,2012-02-21 12:06:46
0.776000022888184,42.88176179,-71.55291816,64,2012-02-21 12:06:47
1.31499981880188,42.8817618,-71.55291813,64,2012-02-21 12:06:48
1.21900010108948,42.88176158,-71.55291834,64.0999984741211,2012-02-21 12:06:49
0.618000030517578,42.88176154,-71.55291839,64.0999984741211,2012-02-21 12:06:50
1.32500004768372,42.88176156,-71.55291844,64.0999984741211,2012-02-21 12:06:51
0.852999925613403,42.88176167,-71.55291827,64.0999984741211,2012-02-21 12:06:52
0.628000020980835,42.88176171,-71.55291825,64.0999984741211,2012-02-21 12:06:53
1.19400000572205,42.88176163,-71.55291831,64.0999984741211,2012-02-21 12:06:54
1.15899991989136,42.88176165,-71.5529184,64.0999984741211,2012-02-21 12:06:55
1.19400000572205,42.88176178,-71.55291845,64.0999984741211,2012-02-21 12:06:56
0.585999965667725,42.88176182,-71.55291848,64.0999984741211,2012-02-21 12:06:57
1.1230001449585,42.88176179,-71.55291859,64.0999984741211,2012-02-21 12:06:58
1.24699997901917,42.88176181,-71.55291861,64.0999984741211,2012-02-21 12:06:59
0.549000024795532,42.88176176,-71.55291864,64.0999984741211,2012-02-21 12:07:00
1.30099987983704,42.88176167,-71.55291883,64.0999984741211,2012-02-21 12:07:01
0.824000120162964,42.88176153,-71.55291896,64.0999984741211,2012-02-21 12:07:02
0.962999820709229,42.88176151,-71.55291897,64.0999984741211,2012-02-21 12:07:03
1.1560001373291,42.88176149,-71.55291897,64.0999984741211,2012-02-21 12:07:04
1.22000002861023,42.88176137,-71.55291908,64.0999984741211,2012-02-21 12:07:05
0.582000017166138,42.88176133,-71.55291915,64.0999984741211,2012-02-21 12:07:06
1.15999984741211,42.88176123,-71.55291916,64.1999969482422,2012-02-21 12:07:07
1.33200001716614,42.88176124,-71.55291917,64.0999984741211,2012-02-21 12:07:08
0.394000053405762,42.88176123,-71.55291927,64.1999969482422,2012-02-21 12:07:09
1.31500005722046,42.88176126,-71.55291929,64.1999969482422,2012-02-21 12:07:10
0.819999933242798,42.88176128,-71.55291931,64.1999969482422,2012-02-21 12:07:11
1.31299996376038,42.88176134,-71.55291929,64.1999969482422,2012-02-21 12:07:12
0.829999923706055,42.8817613,-71.5529193,64.1999969482422,2012-02-21 12:07:13
0.186000108718872,42.88176135,-71.55291923,64.1999969482422,2012-02-21 12:07:13
0.891000032424927,42.88176134,-71.55291925,64.1999969482422,2012-02-21 12:07:14
1.2649998664856,42.8817613,-71.55291938,64.1999969482422,2012-02-21 12:07:15
1.18700003623962,42.88176134,-71.55291942,64.1999969482422,2012-02-21 12:07:16
0.825999975204468,42.88176124,-71.55291948,64.1999969482422,2012-02-21 12:07:17
0.848000049591064,42.88176117,-71.55291972,64.1999969482422,2012-02-21 12:07:18
0.932000160217285,42.88176117,-71.55291969,64.1999969482422,2012-02-21 12:07:19
1.16499996185303,42.88176123,-71.55291969,64.1999969482422,2012-02-21 12:07:20
1.20700001716614,42.88176122,-71.55291975,64.1999969482422,2012-02-21 12:07:21
0.589999914169312,42.88176121,-71.5529199,64.1999969482422,2012-02-21 12:07:22
1.15899991989136,42.88176118,-71.55291997,64.1999969482422,2012-02-21 12:07:23
0.921000003814697,42.88176119,-71.55292001,64.1999969482422,2012-02-21 12:07:24
1.37199997901917,42.88176118,-71.55292004,64.1999969482422,2012-02-21 12:07:25
0.623000144958496,42.88176119,-71.55292004,64.1999969482422,2012-02-21 12:07:26
1.18899989128113,42.88176115,-71.55292011,64.1999969482422,2012-02-21 12:07:27
0.725000143051147,42.8817612,-71.55292017,64.1999969482422,2012-02-21 12:07:28
1.12800002098083,42.88176109,-71.55292031,64.1999969482422,2012-02-21 12:07:29
1.28599977493286,42.88176114,-71.55292034,64.1999969482422,2012-02-21 12:07:30
0.540000200271606,42.8817612,-71.55292033,64.1999969482422,2012-02-21 12:07:31
1.5149998664856,42.8817612,-71.55292047,64.1999969482422,2012-02-21 12:07:32
0.58899998664856,42.88176121,-71.55292053,64.1999969482422,2012-02-21 12:07:33
1.1470000743866,42.88176126,-71.55292045,64.1999969482422,2012-02-21 12:07:34
0.842000007629395,42.88176119,-71.5529206,64.1999969482422,2012-02-21 12:07:35
1.14800000190735,42.88176121,-71.55292063,64.1999969482422,2012-02-21 12:07:36
1.10899996757507,42.88176117,-71.5529206,64.1999969482422,2012-02-21 12:07:37
0.949000120162964,42.88176117,-71.55292051,64.1999969482422,2012-02-21 12:07:38
1.04299998283386,42.88176116,-71.55292047,64.1999969482422,2012-02-21 12:07:39
0.607999801635742,42.88176115,-71.55292046,64.1999969482422,2012-02-21 12:07:40
1.31600022315979,42.88176111,-71.55292036,64.1999969482422,2012-02-21 12:07:41
1.20499992370605,42.88176114,-71.55292036,64.1999969482422,2012-02-21 12:07:42
0.780999898910522,42.88176116,-71.55292044,64.1999969482422,2012-02-21 12:07:43
1.20500016212463,42.88176124,-71.55292036,64.1999969482422,2012-02-21 12:07:44
0.454999923706055,42.88176121,-71.5529204,64.1999969482422,2012-02-21 12:07:45
1.30599999427795,42.88176117,-71.55292046,64.1999969482422,2012-02-21 12:07:46
1.22699999809265,42.8817611,-71.55292053,64.1999969482422,2012-02-21 12:07:47
0.71399998664856,42.88176111,-71.55292057,64.1999969482422,2012-02-21 12:07:48
1.3050000667572,42.881761,-71.55292061,64.1999969482422,2012-02-21 12:07:49
0.453999996185303,42.88176101,-71.55292058,64.1999969482422,2012-02-21 12:07:50
1.49000000953674,42.88176084,-71.55292077,64.1999969482422,2012-02-21 12:07:51
0.868000030517578,42.88176078,-71.55292078,64.1999969482422,2012-02-21 12:07:52
1.24199986457825,42.88176076,-71.55292076,64.1999969482422,2012-02-21 12:07:53
0.532999992370605,42.88176072,-71.55292075,64.1999969482422,2012-02-21 12:07:54
1.23399996757507,42.88176072,-71.55292086,64.1999969482422,2012-02-21 12:07:55
1.13600015640259,42.88176072,-71.55292082,64.1999969482422,2012-02-21 12:07:56
0.686999797821045,42.88176072,-71.55292082,64.1999969482422,2012-02-21 12:07:57
1.35600018501282,42.88176074,-71.55292084,64.1999969482422,2012-02-21 12:07:58
0.542999982833862,42.88176066,-71.55292092,64.1999969482422,2012-02-21 12:07:59
1.18299984931946,42.88176057,-71.55292104,64.1999969482422,2012-02-21 12:08:00
1.26300001144409,42.88176049,-71.5529211,64.1999969482422,2012-02-21 12:08:01
0.638000011444092,42.88176049,-71.5529211,64.1999969482422,2012-02-21 12:08:02
1.43900012969971,42.88176045,-71.55292111,64.1999969482422,2012-02-21 12:08:03
0.48199987411499,42.88176034,-71.55292115,64.1999969482422,2012-02-21 12:08:04
1.34400010108948,42.88176028,-71.55292119,64.1999969482422,2012-02-21 12:08:05
0.691999912261963,42.88176023,-71.55292118,64.1999969482422,2012-02-21 12:08:06
1.40300011634827,42.88176019,-71.55292122,64.1999969482422,2012-02-21 12:08:07
0.520999908447266,42.8817602,-71.5529212,64.1999969482422,2012-02-21 12:08:08
1.30100011825562,42.88176008,-71.55292131,64.1999969482422,2012-02-21 12:08:09
1.23299980163574,42.88175997,-71.55292136,64.1999969482422,2012-02-21 12:08:10
0.705000162124634,42.88175994,-71.55292136,64.1999969482422,2012-02-21 12:08:11
0.793999910354614,42.88176006,-71.55292146,64.1999969482422,2012-02-21 12:08:12
1.47699999809265,42.88176006,-71.55292146,64.1999969482422,2012-02-21 12:08:13
0.54800009727478,42.88175996,-71.5529217,64.1999969482422,2012-02-21 12:08:14
1.31399989128113,42.88176008,-71.55292153,64.1999969482422,2012-02-21 12:08:15
0.963000059127808,42.88176015,-71.55292141,64.1999969482422,2012-02-21 12:08:16
0.881999969482422,42.88176015,-71.55292141,64.1999969482422,2012-02-21 12:08:17
0.888000011444092,42.88176013,-71.55292144,64.1999969482422,2012-02-21 12:08:18
1.35199999809265,42.88176011,-71.55292135,64.1999969482422,2012-02-21 12:08:19
0.832000017166138,42.88176011,-71.55292135,64.1999969482422,2012-02-21 12:08:20
1.26399993896484,42.88176001,-71.55292146,64.1999969482422,2012-02-21 12:08:21
0.390000104904175,42.88175995,-71.5529215,64.1999969482422,2012-02-21 12:08:22
1.59699988365173,42.8817599,-71.5529215,64.1999969482422,2012-02-21 12:08:23
0.600000143051147,42.88175982,-71.55292154,64.1999969482422,2012-02-21 12:08:24
1.36399984359741,42.8817598,-71.55292154,64.1999969482422,2012-02-21 12:08:25
0.563000202178955,42.88175974,-71.55292162,64.1999969482422,2012-02-21 12:08:26
1.29099988937378,42.88175971,-71.55292166,64.1999969482422,2012-02-21 12:08:27
1.15000009536743,42.8817597,-71.5529217,64.1999969482422,2012-02-21 12:08:28
0.619999885559082,42.88175963,-71.55292176,64.3000030517578,2012-02-21 12:08:29
1.36299991607666,42.88175958,-71.55292175,64.3000030517578,2012-02-21 12:08:30
0.564000129699707,42.88175942,-71.55292186,64.3000030517578,2012-02-21 12:08:31
1.49499988555908,42.8817594,-71.55292189,64.3000030517578,2012-02-21 12:08:32
0.52400016784668,42.88175938,-71.55292198,64.3000030517578,2012-02-21 12:08:33
1.20599985122681,42.88175933,-71.55292206,64.3000030517578,2012-02-21 12:08:34
1.21600008010864,42.8817593,-71.55292212,64.3000030517578,2012-02-21 12:08:35
0.532000064849854,42.8817593,-71.55292211,64.3000030517578,2012-02-21 12:08:36
1.48699998855591,42.8817591,-71.55292229,64.3000030517578,2012-02-21 12:08:37
0.620999813079834,42.88175909,-71.55292227,64.3000030517578,2012-02-21 12:08:38
1.36100006103516,42.88175909,-71.5529223,64.3000030517578,2012-02-21 12:08:39
0.498000144958496,42.8817591,-71.5529223,64.3000030517578,2012-02-21 12:08:40
1.51199984550476,42.88175904,-71.55292235,64.3000030517578,2012-02-21 12:08:41
0.722000122070312,42.88175908,-71.55292234,64.3000030517578,2012-02-21 12:08:42
1.32299995422363,42.88175906,-71.55292234,64.3000030517578,2012-02-21 12:08:43
0.405999898910522,42.88175906,-71.55292234,64.3000030517578,2012-02-21 12:08:44
1.30900001525879,42.88175906,-71.5529223,64.3000030517578,2012-02-21 12:08:45
1.24300003051758,42.88175908,-71.55292228,64.3000030517578,2012-02-21 12:08:46
0.694999933242798,42.88175905,-71.55292226,64.3000030517578,2012-02-21 12:08:47
1.95500016212463,42.88175899,-71.55292231,64.3000030517578,2012-02-21 12:08:49
0.490000009536743,42.88175901,-71.55292228,64.3000030517578,2012-02-21 12:08:50
1.56799983978271,42.88175895,-71.5529223,64.3000030517578,2012-02-21 12:08:51
0.650000095367432,42.88175891,-71.5529223,64.3000030517578,2012-02-21 12:08:52
1.14199995994568,42.88175888,-71.5529223,64.3000030517578,2012-02-21 12:08:53
1.06400012969971,42.88175886,-71.55292234,64.3000030517578,2012-02-21 12:08:54
0.596999883651733,42.88175879,-71.55292236,64.3000030517578,2012-02-21 12:08:55
1.14199995994568,42.88175875,-71.55292237,64.3000030517578,2012-02-21 12:08:56
1.19099998474121,42.88175875,-71.55292237,64.3000030517578,2012-02-21 12:08:57
1.24000000953674,42.88175875,-71.55292235,64.3000030517578,2012-02-21 12:08:58
0.585999965667725,42.88175871,-71.55292239,64.3000030517578,2012-02-21 12:08:59
1.13499999046326,42.88175869,-71.5529225,64.3000030517578,2012-02-21 12:09:00
1.21900010108948,42.88175862,-71.55292258,64.3000030517578,2012-02-21 12:09:01
0.654999971389771,42.88175846,-71.55292268,64.3000030517578,2012-02-21 12:09:02
1.16400003433228,42.88175841,-71.55292272,64.3000030517578,2012-02-21 12:09:03
0.805000066757202,42.88175835,-71.55292275,64.3000030517578,2012-02-21 12:09:04
1.36399984359741,42.8817583,-71.55292282,64.3000030517578,2012-02-21 12:09:05
0.628000020980835,42.88175825,-71.55292283,64.3000030517578,2012-02-21 12:09:06
1.39900016784668,42.88175825,-71.55292284,64.3000030517578,2012-02-21 12:09:07
0.540999889373779,42.88175817,-71.55292294,64.3000030517578,2012-02-21 12:09:08
1.11100006103516,42.88175817,-71.55292301,64.3000030517578,2012-02-21 12:09:09
1.25600004196167,42.88175812,-71.55292302,64.3000030517578,2012-02-21 12:09:10
0.539999961853027,42.88175812,-71.55292307,64.3000030517578,2012-02-21 12:09:11
1.22199988365173,42.88175815,-71.55292309,64.3000030517578,2012-02-21 12:09:12
0.91700005531311,42.88175818,-71.55292305,64.3000030517578,2012-02-21 12:09:13
1.29200005531311,42.88175815,-71.5529231,64.3000030517578,2012-02-21 12:09:14
1.03299999237061,42.88175817,-71.55292315,64.3000030517578,2012-02-21 12:09:15
1.02300000190735,42.88175812,-71.55292314,64.3000030517578,2012-02-21 12:09:16
0.553999900817871,42.88175805,-71.55292323,64.3000030517578,2012-02-21 12:09:17
1.49000000953674,42.8817581,-71.55292324,64.3000030517578,2012-02-21 12:09:18
0.884999990463257,42.88175802,-71.55292342,64.3000030517578,2012-02-21 12:09:19
1.1710000038147,42.88175796,-71.55292358,64.3000030517578,2012-02-21 12:09:20
0.545000076293945,42.88175787,-71.55292367,64.3000030517578,2012-02-21 12:09:21
1.12199997901917,42.88175777,-71.55292382,64.4000015258789,2012-02-21 12:09:22
1.29699993133545,42.88175761,-71.55292401,64.4000015258789,2012-02-21 12:09:23
0.669000148773193,42.8817576,-71.55292406,64.4000015258789,2012-02-21 12:09:24
1.18599987030029,42.88175755,-71.55292413,64.4000015258789,2012-02-21 12:09:25
0.739000082015991,42.88175759,-71.5529241,64.4000015258789,2012-02-21 12:09:26
1.05200004577637,42.88175752,-71.5529242,64.4000015258789,2012-02-21 12:09:27
1.26699995994568,42.88175749,-71.55292422,64.4000015258789,2012-02-21 12:09:28
0.746000051498413,42.88175744,-71.55292425,64.4000015258789,2012-02-21 12:09:29
1.00799989700317,42.88175747,-71.55292412,64.4000015258789,2012-02-21 12:09:30
1.19799995422363,42.88175738,-71.5529242,64.4000015258789,2012-02-21 12:09:31
1.20300006866455,42.88175736,-71.55292419,64.4000015258789,2012-02-21 12:09:32
0.408999919891357,42.88175737,-71.55292418,64.4000015258789,2012-02-21 12:09:33
1.2260000705719,42.88175739,-71.55292421,64.4000015258789,2012-02-21 12:09:34
0.990000009536743,42.88175733,-71.55292423,64.4000015258789,2012-02-21 12:09:35
1.09899997711182,42.88175733,-71.55292421,64.4000015258789,2012-02-21 12:09:36
1.19199991226196,42.88175738,-71.55292413,64.4000015258789,2012-02-21 12:09:37
0.476000070571899,42.88175735,-71.55292419,64.4000015258789,2012-02-21 12:09:38
1.33500003814697,42.88175728,-71.5529243,64.4000015258789,2012-02-21 12:09:39
0.726999998092651,42.88175728,-71.55292436,64.4000015258789,2012-02-21 12:09:40
1.45199990272522,42.88175731,-71.55292434,64.4000015258789,2012-02-21 12:09:41
1.07500004768372,42.88175732,-71.55292431,64.4000015258789,2012-02-21 12:09:42
0.416000127792358,42.88175734,-71.55292438,64.4000015258789,2012-02-21 12:09:43
1.54399991035461,42.88175737,-71.55292438,64.4000015258789,2012-02-21 12:09:44
0.700999975204468,42.88175741,-71.55292444,64.4000015258789,2012-02-21 12:09:45
1.21399998664856,42.88175736,-71.55292458,64.4000015258789,2012-02-21 12:09:46
0.95799994468689,42.88175738,-71.55292462,64.4000015258789,2012-02-21 12:09:47
1.01600003242493,42.88175736,-71.55292474,64.4000015258789,2012-02-21 12:09:48
0.58899998664856,42.88175737,-71.55292472,64.4000015258789,2012-02-21 12:09:49
1.47100019454956,42.88175745,-71.55292469,64.4000015258789,2012-02-21 12:09:50
1.07599997520447,42.8817574,-71.55292476,64.4000015258789,2012-02-21 12:09:51
0.534999847412109,42.88175743,-71.55292475,64.4000015258789,2012-02-21 12:09:52
1.39199995994568,42.88175745,-71.55292473,64.4000015258789,2012-02-21 12:09:53
0.730000019073486,42.88175748,-71.55292475,64.4000015258789,2012-02-21 12:09:54
1.08800005912781,42.88175746,-71.55292471,64.4000015258789,2012-02-21 12:09:55
1.4210000038147,42.88175749,-71.55292471,64.4000015258789,2012-02-21 12:09:56
0.460000038146973,42.88175754,-71.5529247,64.4000015258789,2012-02-21 12:09:57
0.930000066757202,42.88175752,-71.55292473,64.4000015258789,2012-02-21 12:09:58
1.20199990272522,42.8817575,-71.55292482,64.4000015258789,2012-02-21 12:09:59
0.847000122070312,42.88175749,-71.55292495,64.4000015258789,2012-02-21 12:10:00
1.08399987220764,42.88175748,-71.55292509,64.5,2012-02-21 12:10:01
0.996999979019165,42.88175752,-71.55292509,64.5,2012-02-21 12:10:02
1.24000000953674,42.88175756,-71.55292504,64.5,2012-02-21 12:10:03
0.982000112533569,42.88175755,-71.55292507,64.5,2012-02-21 12:10:04
0.536999940872192,42.88175757,-71.55292502,64.5,2012-02-21 12:10:05
1.42499995231628,42.88175754,-71.552925,64.5,2012-02-21 12:10:06
0.726000070571899,42.88175752,-71.55292501,64.5,2012-02-21 12:10:07
1.29900002479553,42.88175751,-71.55292499,64.5,2012-02-21 12:10:08
0.805999994277954,42.88175754,-71.55292499,64.5,2012-02-21 12:10:09
0.78600001335144,42.88175751,-71.55292497,64.5,2012-02-21 12:10:10
1.32099986076355,42.88175751,-71.552925,64.5,2012-02-21 12:10:11
1.09700012207031,42.88175747,-71.55292501,64.5,2012-02-21 12:10:12
0.776999950408936,42.88175749,-71.55292504,64.5,2012-02-21 12:10:13
1.23099994659424,42.88175741,-71.55292506,64.5,2012-02-21 12:10:14
0.509999990463257,42.88175737,-71.55292506,64.5,2012-02-21 12:10:15
1.38900017738342,42.88175736,-71.55292509,64.5,2012-02-21 12:10:16
0.852999925613403,42.88175737,-71.55292508,64.5,2012-02-21 12:10:17
1.15999984741211,42.88175737,-71.55292506,64.5,2012-02-21 12:10:18
0.998000144958496,42.88175737,-71.55292508,64.5,2012-02-21 12:10:19
1.05599999427795,42.88175731,-71.55292524,64.5,2012-02-21 12:10:20
0.753999948501587,42.88175725,-71.55292528,64.5,2012-02-21 12:10:21
1.14300012588501,42.88175728,-71.55292534,64.5,2012-02-21 12:10:22
1.14299988746643,42.88175729,-71.55292534,64.5,2012-02-21 12:10:23
0.627000093460083,42.88175727,-71.55292545,64.5,2012-02-21 12:10:24
1.40499997138977,42.88175726,-71.55292554,64.5,2012-02-21 12:10:25
0.710000038146973,42.88175726,-71.55292556,64.5,2012-02-21 12:10:26
0.86299991607666,42.88175726,-71.55292557,64.5,2012-02-21 12:10:27
1.24399995803833,42.88175725,-71.55292565,64.5,2012-02-21 12:10:28
0.812000036239624,42.88175722,-71.55292579,64.5,2012-02-21 12:10:29
1.33599996566772,42.88175722,-71.55292586,64.5,2012-02-21 12:10:30
0.5,42.8817572,-71.55292588,64.5,2012-02-21 12:10:31
1.34899997711182,42.88175717,-71.55292589,64.5,2012-02-21 12:10:32
0.799999952316284,42.88175716,-71.55292587,64.5,2012-02-21 12:10:33
1.4539999961853,42.88175715,-71.55292594,64.5,2012-02-21 12:10:34
0.67900013923645,42.88175713,-71.55292598,64.5,2012-02-21 12:10:35
1.12899994850159,42.88175717,-71.552926,64.5,2012-02-21 12:10:36
0.752000093460083,42.88175709,-71.5529261,64.5,2012-02-21 12:10:37
0.950999975204468,42.88175707,-71.55292618,64.5,2012-02-21 12:10:38
1.48699998855591,42.88175716,-71.55292616,64.5,2012-02-21 12:10:39
0.657999992370605,42.88175721,-71.55292615,64.5,2012-02-21 12:10:40
1.11299991607666,42.88175721,-71.55292618,64.5,2012-02-21 12:10:41
0.759000062942505,42.88175724,-71.55292621,64.5,2012-02-21 12:10:42
1.44300007820129,42.88175722,-71.55292619,64.5,2012-02-21 12:10:43
0.648000001907349,42.88175721,-71.55292619,64.5,2012-02-21 12:10:44
1.08699989318848,42.88175721,-71.55292624,64.5,2012-02-21 12:10:45
1.16400003433228,42.88175712,-71.55292633,64.5,2012-02-21 12:10:46
0.664000034332275,42.88175708,-71.55292634,64.5,2012-02-21 12:10:47
1.20199990272522,42.88175704,-71.55292639,64.5,2012-02-21 12:10:48
1.26200008392334,42.88175697,-71.55292643,64.5,2012-02-21 12:10:49
0.488999843597412,42.88175697,-71.55292649,64.5,2012-02-21 12:10:50
1.06500005722046,42.88175697,-71.5529265,64.5,2012-02-21 12:10:51
1.375,42.88175696,-71.55292657,64.5,2012-02-21 12:10:52
0.485000133514404,42.88175692,-71.55292661,64.5,2012-02-21 12:10:53
1.32599997520447,42.88175691,-71.5529266,64.5,2012-02-21 12:10:54
0.740999937057495,42.88175691,-71.5529266,64.5,2012-02-21 12:10:55
1.42799997329712,42.88175695,-71.55292656,64.5,2012-02-21 12:10:56
1.08500003814697,42.88175699,-71.55292657,64.5,2012-02-21 12:10:57
0.408999919891357,42.88175695,-71.55292659,64.5,2012-02-21 12:10:58
1.43700003623962,42.8817569,-71.55292659,64.5,2012-02-21 12:10:59
0.647000074386597,42.88175689,-71.55292659,64.5,2012-02-21 12:11:00
1.43599987030029,42.88175688,-71.5529266,64.5,2012-02-21 12:11:01
0.903000116348267,42.88175688,-71.5529266,64.5,2012-02-21 12:11:02
0.841000080108643,42.88175689,-71.55292662,64.5,2012-02-21 12:11:03
0.911999940872192,42.88175692,-71.55292661,64.5,2012-02-21 12:11:04
1.17899990081787,42.88175687,-71.55292661,64.5,2012-02-21 12:11:05
1.21399998664856,42.88175688,-71.55292661,64.5,2012-02-21 12:11:06
0.634999990463257,42.88175687,-71.55292664,64.5,2012-02-21 12:11:07
1.36300015449524,42.88175683,-71.55292672,64.5,2012-02-21 12:11:08
0.45799994468689,42.88175667,-71.55292694,64.5,2012-02-21 12:11:09
1.56800007820129,42.88175667,-71.55292697,64.5,2012-02-21 12:11:10
0.641999959945679,42.8817566,-71.55292715,64.5,2012-02-21 12:11:11
0.964999914169312,42.88175645,-71.55292745,64.5,2012-02-21 12:11:12
0.963000059127808,42.88175648,-71.55292743,64.5,2012-02-21 12:11:13
1.13899993896484,42.88175646,-71.55292741,64.5,2012-02-21 12:11:14
1.125,42.88175642,-71.55292749,64.5999984741211,2012-02-21 12:11:15
0.953000068664551,42.88175635,-71.55292774,64.5999984741211,2012-02-21 12:11:16
1.14800000190735,42.8817563,-71.55292791,64.5999984741211,2012-02-21 12:11:17
0.764999866485596,42.88175629,-71.55292796,64.5999984741211,2012-02-21 12:11:18
0.907000064849854,42.88175625,-71.55292816,64.5999984741211,2012-02-21 12:11:19
1.33500003814697,42.88175616,-71.55292839,64.5999984741211,2012-02-21 12:11:20
0.516000032424927,42.88175615,-71.55292837,64.5999984741211,2012-02-21 12:11:21
1.09899997711182,42.88175617,-71.55292838,64.5999984741211,2012-02-21 12:11:22
1.34899997711182,42.88175599,-71.55292869,64.6999969482422,2012-02-21 12:11:23
0.802000045776367,42.88175587,-71.55292906,64.6999969482422,2012-02-21 12:11:24
0.829999923706055,42.88175587,-71.55292906,64.6999969482422,2012-02-21 12:11:25
1.01500010490417,42.88175585,-71.55292906,64.6999969482422,2012-02-21 12:11:26
1.4229998588562,42.88175583,-71.55292909,64.6999969482422,2012-02-21 12:11:27
0.712000131607056,42.88175583,-71.55292908,64.6999969482422,2012-02-21 12:11:28
1.25699996948242,42.88175583,-71.55292907,64.6999969482422,2012-02-21 12:11:29
0.476999998092651,42.88175583,-71.55292904,64.6999969482422,2012-02-21 12:11:30
1.15400004386902,42.88175585,-71.55292901,64.6999969482422,2012-02-21 12:11:31
1.38599991798401,42.88175585,-71.55292901,64.6999969482422,2012-02-21 12:11:32
0.680000066757202,42.88175588,-71.55292897,64.6999969482422,2012-02-21 12:11:33
1.01199984550476,42.88175585,-71.55292896,64.6999969482422,2012-02-21 12:11:34
0.989000082015991,42.88175585,-71.55292896,64.6999969482422,2012-02-21 12:11:35
1.48300004005432,42.88175576,-71.55292899,64.6999969482422,2012-02-21 12:11:36
0.467000007629395,42.88175578,-71.55292897,64.6999969482422,2012-02-21 12:11:37
1.00300002098083,42.88175575,-71.55292895,64.6999969482422,2012-02-21 12:11:38
1.02499985694885,42.88175572,-71.55292894,64.6999969482422,2012-02-21 12:11:39
0.963000059127808,42.88175571,-71.55292893,64.6999969482422,2012-02-21 12:11:40
1.2020001411438,42.88175577,-71.55292887,64.6999969482422,2012-02-21 12:11:41
0.82699990272522,42.8817558,-71.55292884,64.6999969482422,2012-02-21 12:11:42
1.17799997329712,42.88175583,-71.55292883,64.6999969482422,2012-02-21 12:11:43
0.736999988555908,42.88175588,-71.55292879,64.6999969482422,2012-02-21 12:11:44
1.39300012588501,42.88175592,-71.55292879,64.6999969482422,2012-02-21 12:11:45
0.648999929428101,42.8817559,-71.55292885,64.6999969482422,2012-02-21 12:11:46
1.36800003051758,42.8817559,-71.55292885,64.6999969482422,2012-02-21 12:11:47
0.552000045776367,42.88175603,-71.55292876,64.6999969482422,2012-02-21 12:11:48
1.57399988174438,42.88175601,-71.55292876,64.6999969482422,2012-02-21 12:11:49
0.490000009536743,42.88175596,-71.55292878,64.6999969482422,2012-02-21 12:11:50
1.25300002098083,42.88175592,-71.55292879,64.6999969482422,2012-02-21 12:11:51
1.14199995994568,42.88175591,-71.5529288,64.6999969482422,2012-02-21 12:11:52
0.535000085830688,42.88175591,-71.55292882,64.6999969482422,2012-02-21 12:11:53
1.46799993515015,42.88175591,-71.55292884,64.6999969482422,2012-02-21 12:11:54
0.859999895095825,42.88175594,-71.55292889,64.6999969482422,2012-02-21 12:11:55
1.17500019073486,42.88175597,-71.55292885,64.6999969482422,2012-02-21 12:11:56
0.447000026702881,42.88175599,-71.55292886,64.6999969482422,2012-02-21 12:11:57
1.51999998092651,42.88175598,-71.55292885,64.6999969482422,2012-02-21 12:11:58
0.677999973297119,42.88175599,-71.55292888,64.6999969482422,2012-02-21 12:11:59
1.06900000572205,42.88175603,-71.55292887,64.6999969482422,2012-02-21 12:12:00
1.29199981689453,42.88175603,-71.55292889,64.6999969482422,2012-02-21 12:12:01
0.422000169754028,42.88175603,-71.55292895,64.6999969482422,2012-02-21 12:12:02
1.52699995040894,42.88175602,-71.55292897,64.6999969482422,2012-02-21 12:12:03
0.716000080108643,42.881756,-71.55292898,64.6999969482422,2012-02-21 12:12:04
1.28999996185303,42.88175598,-71.55292897,64.6999969482422,2012-02-21 12:12:05
0.678999900817871,42.88175599,-71.55292894,64.6999969482422,2012-02-21 12:12:06
1.30800008773804,42.88175601,-71.55292899,64.6999969482422,2012-02-21 12:12:07
0.657000064849854,42.88175602,-71.552929,64.6999969482422,2012-02-21 12:12:08
1.38699984550476,42.88175602,-71.55292902,64.6999969482422,2012-02-21 12:12:09
0.50600004196167,42.88175605,-71.55292898,64.6999969482422,2012-02-21 12:12:10
1.14800000190735,42.88175603,-71.55292898,64.6999969482422,2012-02-21 12:12:11
1.26999998092651,42.88175603,-71.55292899,64.6999969482422,2012-02-21 12:12:12
0.697999954223633,42.88175603,-71.552929,64.6999969482422,2012-02-21 12:12:13
1.40300011634827,42.88175601,-71.552929,64.6999969482422,2012-02-21 12:12:14
0.490999937057495,42.88175605,-71.55292895,64.6999969482422,2012-02-21 12:12:15
1.08200001716614,42.88175602,-71.55292895,64.6999969482422,2012-02-21 12:12:16
1.37199997901917,42.88175604,-71.55292892,64.6999969482422,2012-02-21 12:12:17
0.469000101089478,42.88175604,-71.55292895,64.6999969482422,2012-02-21 12:12:18
1.28900003433228,42.88175605,-71.55292893,64.6999969482422,2012-02-21 12:12:19
0.895999908447266,42.88175603,-71.55292893,64.6999969482422,2012-02-21 12:12:20
0.937000036239624,42.88175602,-71.55292894,64.6999969482422,2012-02-21 12:12:21
1.38299989700317,42.88175598,-71.55292895,64.6999969482422,2012-02-21 12:12:22
0.483999967575073,42.88175599,-71.55292898,64.6999969482422,2012-02-21 12:12:23
1.49500012397766,42.88175599,-71.55292901,64.6999969482422,2012-02-21 12:12:24
0.560999870300293,42.88175597,-71.55292904,64.6999969482422,2012-02-21 12:12:25
1.44700002670288,42.88175594,-71.55292907,64.6999969482422,2012-02-21 12:12:26
0.897000074386597,42.88175595,-71.55292908,64.6999969482422,2012-02-21 12:12:27
1.07500004768372,42.88175598,-71.55292909,64.6999969482422,2012-02-21 12:12:28
0.539999961853027,42.881756,-71.55292908,64.6999969482422,2012-02-21 12:12:29
1.4539999961853,42.88175603,-71.55292908,64.6999969482422,2012-02-21 12:12:30
0.720999956130981,42.88175602,-71.55292911,64.6999969482422,2012-02-21 12:12:31
1.34500002861023,42.88175602,-71.55292906,64.6999969482422,2012-02-21 12:12:32
0.742000102996826,42.88175603,-71.55292905,64.6999969482422,2012-02-21 12:12:33
0.746999979019165,42.881756,-71.55292903,64.6999969482422,2012-02-21 12:12:34
1.47199988365173,42.88175599,-71.55292904,64.6999969482422,2012-02-21 12:12:35
0.723000049591064,42.88175593,-71.55292908,64.6999969482422,2012-02-21 12:12:36
1.15599989891052,42.88175593,-71.55292909,64.6999969482422,2012-02-21 12:12:37
0.756999969482422,42.88175595,-71.5529291,64.6999969482422,2012-02-21 12:12:38
1.14300012588501,42.88175598,-71.55292907,64.6999969482422,2012-02-21 12:12:39
1.2739999294281,42.88175598,-71.55292911,64.6999969482422,2012-02-21 12:12:40
0.66700005531311,42.88175598,-71.5529291,64.6999969482422,2012-02-21 12:12:41
1.08800005912781,42.88175594,-71.55292913,64.6999969482422,2012-02-21 12:12:42
1.15999984741211,42.88175594,-71.55292915,64.6999969482422,2012-02-21 12:12:43
1.07500004768372,42.88175593,-71.55292915,64.6999969482422,2012-02-21 12:12:44
0.633000135421753,42.88175594,-71.55292915,64.6999969482422,2012-02-21 12:12:45
1.16999983787537,42.88175596,-71.55292915,64.6999969482422,2012-02-21 12:12:46
0.217000007629395,42.88175595,-71.5529292,64.6999969482422,2012-02-21 12:12:46
1.4850001335144,42.88175595,-71.55292921,64.6999969482422,2012-02-21 12:12:48
0.704999923706055,42.88175594,-71.55292923,64.6999969482422,2012-02-21 12:12:48
0.816999912261963,42.88175593,-71.55292926,64.6999969482422,2012-02-21 12:12:49
1.3730001449585,42.88175588,-71.55292937,64.6999969482422,2012-02-21 12:12:51
0.659999847412109,42.88175588,-71.55292937,64.6999969482422,2012-02-21 12:12:51
1.44800019264221,42.8817559,-71.55292936,64.6999969482422,2012-02-21 12:12:53
0.908999919891357,42.88175589,-71.55292937,64.6999969482422,2012-02-21 12:12:54
0.533999919891357,42.88175594,-71.55292934,64.6999969482422,2012-02-21 12:12:54
1.28800010681152,42.88175591,-71.5529294,64.6999969482422,2012-02-21 12:12:55
1.25300002098083,42.88175587,-71.55292941,64.6999969482422,2012-02-21 12:12:57
0.684000015258789,42.88175591,-71.55292938,64.6999969482422,2012-02-21 12:12:57
1.30099987983704,42.88175586,-71.55292943,64.6999969482422,2012-02-21 12:12:59
0.779000043869019,42.88175589,-71.55292939,64.6999969482422,2012-02-21 12:12:59
1.07999992370605,42.88175591,-71.5529294,64.6999969482422,2012-02-21 12:13:00
0.917999982833862,42.88175588,-71.55292947,64.6999969482422,2012-02-21 12:13:01
1.26100015640259,42.88175584,-71.55292952,64.6999969482422,2012-02-21 12:13:03
0.682999849319458,42.88175583,-71.55292957,64.6999969482422,2012-02-21 12:13:03
1.007000207901,42.88175576,-71.55292973,64.6999969482422,2012-02-21 12:13:04
1.20099997520447,42.88175572,-71.55292978,64.6999969482422,2012-02-21 12:13:06
0.722999811172485,42.88175568,-71.55292982,64.6999969482422,2012-02-21 12:13:06
1.37800002098083,42.88175568,-71.55292981,64.6999969482422,2012-02-21 12:13:08
0.567000150680542,42.88175568,-71.55292983,64.6999969482422,2012-02-21 12:13:08
1.15400004386902,42.88175564,-71.55292989,64.6999969482422,2012-02-21 12:13:09
1.3199999332428,42.88175562,-71.55292989,64.6999969482422,2012-02-21 12:13:11
0.559999942779541,42.88175563,-71.5529299,64.6999969482422,2012-02-21 12:13:11
1.40000009536743,42.88175563,-71.55292992,64.6999969482422,2012-02-21 12:13:13
0.526000022888184,42.88175564,-71.55292991,64.6999969482422,2012-02-21 12:13:13
1.14999985694885,42.88175563,-71.55292992,64.6999969482422,2012-02-21 12:13:14
1.31900000572205,42.88175559,-71.55292991,64.6999969482422,2012-02-21 12:13:16
0.453999996185303,42.88175558,-71.55292996,64.6999969482422,2012-02-21 12:13:16
1.42600011825562,42.88175558,-71.55292994,64.6999969482422,2012-02-21 12:13:18
0.717999935150146,42.88175556,-71.55292992,64.6999969482422,2012-02-21 12:13:18
1.46300005912781,42.88175557,-71.55292993,64.6999969482422,2012-02-21 12:13:20
0.659999847412109,42.88175555,-71.55292996,64.6999969482422,2012-02-21 12:13:20
0.920000076293945,42.88175556,-71.55292997,64.6999969482422,2012-02-21 12:13:21
1.12999987602234,42.88175558,-71.55292997,64.6999969482422,2012-02-21 12:13:22
1.07200002670288,42.88175557,-71.55293,64.6999969482422,2012-02-21 12:13:23
0.844000101089478,42.88175553,-71.55293002,64.6999969482422,2012-02-21 12:13:24
1.30299997329712,42.8817555,-71.55293003,64.6999969482422,2012-02-21 12:13:26
0.489000082015991,42.88175547,-71.55293006,64.6999969482422,2012-02-21 12:13:26
1.28699994087219,42.88175541,-71.55293016,64.6999969482422,2012-02-21 12:13:27
1.26600003242493,42.88175541,-71.55293018,64.6999969482422,2012-02-21 12:13:29
0.616999864578247,42.88175541,-71.55293019,64.6999969482422,2012-02-21 12:13:29
1.40400004386902,42.88175537,-71.55293026,64.6999969482422,2012-02-21 12:13:31
0.535000085830688,42.88175534,-71.55293027,64.6999969482422,2012-02-21 12:13:31
0.986000061035156,42.88175528,-71.55293041,64.6999969482422,2012-02-21 12:13:32
1.41100001335144,42.88175524,-71.5529305,64.6999969482422,2012-02-21 12:13:34
0.691999912261963,42.88175506,-71.5529308,64.8000030517578,2012-02-21 12:13:34
1.17199993133545,42.88175501,-71.55293092,64.8000030517578,2012-02-21 12:13:35
1.01300001144409,42.88175501,-71.55293095,64.8000030517578,2012-02-21 12:13:36
1.11100006103516,42.88175501,-71.55293094,64.8000030517578,2012-02-21 12:13:38
0.71399998664856,42.88175502,-71.55293099,64.8000030517578,2012-02-21 12:13:38
1.14299988746643,42.88175497,-71.55293108,64.8000030517578,2012-02-21 12:13:39
1.00300002098083,42.88175493,-71.55293115,64.8000030517578,2012-02-21 12:13:40
0.79200005531311,42.88175491,-71.55293115,64.8000030517578,2012-02-21 12:13:41
0.900000095367432,42.8817549,-71.5529312,64.8000030517578,2012-02-21 12:13:42
1.36999988555908,42.88175483,-71.55293137,64.8000030517578,2012-02-21 12:13:44
0.75600004196167,42.88175478,-71.5529315,64.8000030517578,2012-02-21 12:13:44
1.16700005531311,42.88175478,-71.55293145,64.8000030517578,2012-02-21 12:13:45
0.783999919891357,42.88175476,-71.55293153,64.8000030517578,2012-02-21 12:13:46
1.41799998283386,42.88175463,-71.55293178,64.9000015258789,2012-02-21 12:13:48
0.653000116348267,42.88175463,-71.55293181,64.9000015258789,2012-02-21 12:13:48
0.91100001335144,42.88175456,-71.55293183,64.9000015258789,2012-02-21 12:13:49
1.22299981117249,42.88175456,-71.55293186,64.9000015258789,2012-02-21 12:13:50
1.21000003814697,42.8817545,-71.55293194,64.9000015258789,2012-02-21 12:13:52
0.628000020980835,42.88175456,-71.55293195,64.9000015258789,2012-02-21 12:13:52
1.37599992752075,42.88175456,-71.55293195,64.9000015258789,2012-02-21 12:13:54
0.454000234603882,42.8817546,-71.55293193,64.9000015258789,2012-02-21 12:13:54
1.40899991989136,42.88175461,-71.55293196,64.9000015258789,2012-02-21 12:13:56
0.677000045776367,42.88175464,-71.55293203,64.9000015258789,2012-02-21 12:13:56
1.41100001335144,42.88175467,-71.55293201,64.9000015258789,2012-02-21 12:13:58
0.462999820709229,42.8817547,-71.552932,64.9000015258789,2012-02-21 12:13:58
1.38000011444092,42.88175472,-71.55293201,64.9000015258789,2012-02-21 12:13:59
0.770999908447266,42.88175476,-71.55293201,64.9000015258789,2012-02-21 12:14:00
1.46000003814697,42.88175477,-71.55293202,64.9000015258789,2012-02-21 12:14:02
0.684999942779541,42.88175475,-71.55293203,64.9000015258789,2012-02-21 12:14:02
1.09400010108948,42.88175478,-71.55293206,64.9000015258789,2012-02-21 12:14:03
0.66100001335144,42.88175478,-71.55293204,64.9000015258789,2012-02-21 12:14:04
1.35599994659424,42.88175479,-71.55293205,64.9000015258789,2012-02-21 12:14:05
1.08100008964539,42.88175486,-71.552932,64.9000015258789,2012-02-21 12:14:07
0.783999919891357,42.88175486,-71.55293199,64.9000015258789,2012-02-21 12:14:07
1.37800002098083,42.8817548,-71.55293198,64.9000015258789,2012-02-21 12:14:09
0.364000082015991,42.88175479,-71.55293196,64.9000015258789,2012-02-21 12:14:09
1.43299984931946,42.88175478,-71.55293194,64.9000015258789,2012-02-21 12:14:11
0.792999982833862,42.88175477,-71.55293192,64.9000015258789,2012-02-21 12:14:11
1.20700001716614,42.88175476,-71.55293189,64.9000015258789,2012-02-21 12:14:13
0.807000160217285,42.88175479,-71.55293188,64.9000015258789,2012-02-21 12:14:13
0.883999824523926,42.88175479,-71.55293188,64.9000015258789,2012-02-21 12:14:14
1.44099998474121,42.88175481,-71.55293188,64.9000015258789,2012-02-21 12:14:16
0.63700008392334,42.88175483,-71.55293187,64.9000015258789,2012-02-21 12:14:16
1.17499995231628,42.88175483,-71.55293187,64.9000015258789,2012-02-21 12:14:17
0.769000053405762,42.88175483,-71.55293187,64.9000015258789,2012-02-21 12:14:18
1.41799998283386,42.88175479,-71.55293189,64.9000015258789,2012-02-21 12:14:20
0.579999923706055,42.88175479,-71.55293188,64.9000015258789,2012-02-21 12:14:20
1.40000009536743,42.88175477,-71.55293191,64.9000015258789,2012-02-21 12:14:22
0.579999923706055,42.8817548,-71.55293189,64.9000015258789,2012-02-21 12:14:22
1.33300018310547,42.8817548,-71.55293188,64.9000015258789,2012-02-21 12:14:24
0.671000003814697,42.88175477,-71.55293189,64.9000015258789,2012-02-21 12:14:24
1.40699982643127,42.88175477,-71.55293189,64.9000015258789,2012-02-21 12:14:26
0.63100004196167,42.88175476,-71.55293189,64.9000015258789,2012-02-21 12:14:26
1.21000003814697,42.88175477,-71.55293189,64.9000015258789,2012-02-21 12:14:27
1.75799989700317,42.88175479,-71.55293189,64.9000015258789,2012-02-21 12:14:29
0.736999988555908,42.88175477,-71.55293189,64.9000015258789,2012-02-21 12:14:30
1.00300002098083,42.8817548,-71.55293186,64.9000015258789,2012-02-21 12:14:31
1.07400012016296,42.88175482,-71.55293184,64.9000015258789,2012-02-21 12:14:32
0.784999847412109,42.8817548,-71.55293184,64.9000015258789,2012-02-21 12:14:33
1.16500020027161,42.88175478,-71.55293184,64.9000015258789,2012-02-21 12:14:34
1.25300002098083,42.88175478,-71.55293185,64.9000015258789,2012-02-21 12:14:35
0.928999900817871,42.88175478,-71.55293189,64.9000015258789,2012-02-21 12:14:36
0.522000074386597,42.88175479,-71.55293189,64.9000015258789,2012-02-21 12:14:37
1.30099987983704,42.88175486,-71.55293188,64.9000015258789,2012-02-21 12:14:38
1.2279999256134,42.8817549,-71.55293184,64.9000015258789,2012-02-21 12:14:39
0.812000036239624,42.88175489,-71.55293182,64.9000015258789,2012-02-21 12:14:40
1.19400000572205,42.88175489,-71.55293182,64.9000015258789,2012-02-21 12:14:41
0.455000162124634,42.88175487,-71.55293185,64.9000015258789,2012-02-21 12:14:42
1.61099982261658,42.88175483,-71.55293189,64.9000015258789,2012-02-21 12:14:43
0.593000173568726,42.88175479,-71.55293187,64.9000015258789,2012-02-21 12:14:44
1.36399984359741,42.88175476,-71.55293189,64.9000015258789,2012-02-21 12:14:45
0.559000015258789,42.88175469,-71.55293197,64.9000015258789,2012-02-21 12:14:46
0.933000087738037,42.88175464,-71.55293204,64.9000015258789,2012-02-21 12:14:47
1.56799983978271,42.88175461,-71.55293208,64.9000015258789,2012-02-21 12:14:48
0.645000219345093,42.88175454,-71.55293209,64.9000015258789,2012-02-21 12:14:49
1.10799980163574,42.88175454,-71.55293209,64.9000015258789,2012-02-21 12:14:50
1.01500010490417,42.8817545,-71.55293212,64.9000015258789,2012-02-21 12:14:51
1.22000002861023,42.8817545,-71.55293213,64.9000015258789,2012-02-21 12:14:52
0.569000005722046,42.88175447,-71.55293214,64.9000015258789,2012-02-21 12:14:53
1.19899988174438,42.88175447,-71.55293216,64.9000015258789,2012-02-21 12:14:54
0.933000087738037,42.88175446,-71.55293219,64.9000015258789,2012-02-21 12:14:55
1.09299993515015,42.88175446,-71.55293219,64.9000015258789,2012-02-21 12:14:56
0.717999935150146,42.88175442,-71.55293219,64.9000015258789,2012-02-21 12:14:57
1.21600008010864,42.88175439,-71.55293221,64.9000015258789,2012-02-21 12:14:58
0.881999969482422,42.8817544,-71.55293221,64.9000015258789,2012-02-21 12:14:59
0.960999965667725,42.88175439,-71.55293224,64.9000015258789,2012-02-21 12:15:00
1.23000001907349,42.88175434,-71.55293226,64.9000015258789,2012-02-21 12:15:01
1.09800004959106,42.8817543,-71.55293232,64.9000015258789,2012-02-21 12:15:02
0.48799991607666,42.88175421,-71.55293234,64.9000015258789,2012-02-21 12:15:03
1.59200000762939,42.88175421,-71.55293234,64.9000015258789,2012-02-21 12:15:04
0.461000204086304,42.88175421,-71.55293236,64.9000015258789,2012-02-21 12:15:05
1.08899998664856,42.8817542,-71.55293236,64.9000015258789,2012-02-21 12:15:06
1.32799983024597,42.8817542,-71.55293236,64.9000015258789,2012-02-21 12:15:07
0.888000011444092,42.88175423,-71.55293233,64.9000015258789,2012-02-21 12:15:08
0.858000040054321,42.88175421,-71.55293234,64.9000015258789,2012-02-21 12:15:09
0.939000129699707,42.88175418,-71.55293236,64.9000015258789,2012-02-21 12:15:10
1.40299987792969,42.88175418,-71.55293236,64.9000015258789,2012-02-21 12:15:11
0.789000034332275,42.88175416,-71.5529324,64.9000015258789,2012-02-21 12:15:12
0.971999883651733,42.88175417,-71.55293237,64.9000015258789,2012-02-21 12:15:13
0.831000089645386,42.88175417,-71.55293238,64.9000015258789,2012-02-21 12:15:14
0.941999912261963,42.88175416,-71.55293247,64.9000015258789,2012-02-21 12:15:15
1.38499999046326,42.88175416,-71.5529325,64.9000015258789,2012-02-21 12:15:16
0.761000156402588,42.88175412,-71.55293255,64.9000015258789,2012-02-21 12:15:17
1.125,42.88175408,-71.55293252,64.9000015258789,2012-02-21 12:15:18
0.658999919891357,42.88175406,-71.55293256,64.9000015258789,2012-02-21 12:15:19
1.41100001335144,42.88175403,-71.55293259,64.9000015258789,2012-02-21 12:15:20
0.776999950408936,42.88175403,-71.55293259,64.9000015258789,2012-02-21 12:15:21
1.15300011634827,42.88175402,-71.55293256,64.9000015258789,2012-02-21 12:15:22
0.750999927520752,42.88175401,-71.55293255,64.9000015258789,2012-02-21 12:15:23
1.5,42.88175402,-71.55293256,64.9000015258789,2012-02-21 12:15:24
0.493000030517578,42.88175398,-71.55293262,64.9000015258789,2012-02-21 12:15:25
1.4300000667572,42.88175399,-71.55293261,64.9000015258789,2012-02-21 12:15:26
0.547999858856201,42.88175394,-71.55293265,64.9000015258789,2012-02-21 12:15:27
1.14300012588501,42.88175392,-71.55293266,64.9000015258789,2012-02-21 12:15:28
1.36800003051758,42.88175387,-71.55293272,64.9000015258789,2012-02-21 12:15:29
0.562999963760376,42.88175386,-71.55293274,64.9000015258789,2012-02-21 12:15:30
1.35599994659424,42.88175386,-71.55293274,64.9000015258789,2012-02-21 12:15:31
0.552999973297119,42.88175386,-71.55293275,64.9000015258789,2012-02-21 12:15:32
1.50600004196167,42.88175385,-71.55293277,64.9000015258789,2012-02-21 12:15:33
0.697999954223633,42.88175386,-71.55293275,64.9000015258789,2012-02-21 12:15:34
0.900000095367432,42.8817538,-71.5529328,64.9000015258789,2012-02-21 12:15:35
0.930999994277954,42.88175377,-71.55293281,64.9000015258789,2012-02-21 12:15:36
1.24199986457825,42.88175371,-71.55293284,64.9000015258789,2012-02-21 12:15:37
1.19700002670288,42.88175371,-71.55293285,64.9000015258789,2012-02-21 12:15:38
0.76800012588501,42.88175369,-71.55293279,64.9000015258789,2012-02-21 12:15:39
1.23399996757507,42.88175365,-71.55293281,64.9000015258789,2012-02-21 12:15:40
0.474999904632568,42.88175364,-71.55293289,64.9000015258789,2012-02-21 12:15:41
1.51999998092651,42.88175365,-71.55293302,64.9000015258789,2012-02-21 12:15:42
0.703000068664551,42.88175359,-71.55293303,64.9000015258789,2012-02-21 12:15:43
1.15700006484985,42.88175353,-71.5529331,64.9000015258789,2012-02-21 12:15:44
1.20799994468689,42.88175339,-71.55293329,64.9000015258789,2012-02-21 12:15:45
0.424999952316284,42.8817533,-71.55293348,64.9000015258789,2012-02-21 12:15:46
1.47800016403198,42.88175316,-71.55293362,64.9000015258789,2012-02-21 12:15:47
0.821999788284302,42.88175313,-71.55293366,64.9000015258789,2012-02-21 12:15:48
1.27400016784668,42.88175307,-71.55293373,64.9000015258789,2012-02-21 12:15:49
0.523000001907349,42.88175293,-71.55293391,64.9000015258789,2012-02-21 12:15:50
1.15699982643127,42.88175284,-71.55293395,64.9000015258789,2012-02-21 12:15:51
1.31000018119812,42.88175272,-71.55293399,64.9000015258789,2012-02-21 12:15:52
0.472999811172485,42.88175263,-71.552934,64.9000015258789,2012-02-21 12:15:53
1.29400014877319,42.88175261,-71.55293408,64.9000015258789,2012-02-21 12:15:54
0.833999872207642,42.88175251,-71.55293416,64.9000015258789,2012-02-21 12:15:55
1.00400018692017,42.88175244,-71.55293419,64.9000015258789,2012-02-21 12:15:56
1.3439998626709,42.88175241,-71.55293428,64.9000015258789,2012-02-21 12:15:57
0.654000043869019,42.88175237,-71.55293427,64.9000015258789,2012-02-21 12:15:58
1.44099998474121,42.88175235,-71.55293428,64.9000015258789,2012-02-21 12:15:59
0.463000059127808,42.88175233,-71.55293427,64.9000015258789,2012-02-21 12:16:00
1.47699999809265,42.88175231,-71.55293428,64.9000015258789,2012-02-21 12:16:01
0.552999973297119,42.88175228,-71.55293432,64.9000015258789,2012-02-21 12:16:02
1.41599988937378,42.88175224,-71.55293431,64.9000015258789,2012-02-21 12:16:03
0.525000095367432,42.88175228,-71.55293414,64.9000015258789,2012-02-21 12:16:04
1.49499988555908,42.88175226,-71.55293417,64.9000015258789,2012-02-21 12:16:05
0.69100022315979,42.88175226,-71.55293419,64.9000015258789,2012-02-21 12:16:06
1.02799987792969,42.88175225,-71.5529342,64.9000015258789,2012-02-21 12:16:07
1.25600004196167,42.88175225,-71.55293431,64.9000015258789,2012-02-21 12:16:08
0.522000074386597,42.88175231,-71.55293424,64.9000015258789,2012-02-21 12:16:09
1.22399997711182,42.88175234,-71.55293422,64.9000015258789,2012-02-21 12:16:10
1.21299982070923,42.8817523,-71.55293424,64.9000015258789,2012-02-21 12:16:11
0.854000091552734,42.88175231,-71.55293426,64.9000015258789,2012-02-21 12:16:12
0.861000061035156,42.88175228,-71.55293431,64.9000015258789,2012-02-21 12:16:13
1.30499982833862,42.88175229,-71.55293434,64.9000015258789,2012-02-21 12:16:14
0.803000211715698,42.8817523,-71.55293434,64.9000015258789,2012-02-21 12:16:15
1.24799990653992,42.88175229,-71.55293434,64.9000015258789,2012-02-21 12:16:16
0.806999921798706,42.8817523,-71.55293439,64.9000015258789,2012-02-21 12:16:17
0.907000064849854,42.88175216,-71.55293467,64.9000015258789,2012-02-21 12:16:18
1.31399989128113,42.88175212,-71.55293475,64.9000015258789,2012-02-21 12:16:19
0.613000154495239,42.88175211,-71.55293475,64.9000015258789,2012-02-21 12:16:20
1.34699988365173,42.88175208,-71.55293479,64.9000015258789,2012-02-21 12:16:21
-0.136999845504761,42.88175206,-71.55293485,64.9000015258789,2012-02-21 12:16:21
1.19799995422363,42.88175202,-71.55293492,64.9000015258789,2012-02-21 12:16:22
1.22899985313416,42.88175203,-71.55293497,64.9000015258789,2012-02-21 12:16:24
0.502000093460083,42.881752,-71.55293496,64.9000015258789,2012-02-21 12:16:24
1.47900009155273,42.881752,-71.55293503,64.9000015258789,2012-02-21 12:16:26
0.595999956130981,42.88175199,-71.55293503,64.9000015258789,2012-02-21 12:16:26
1.21099996566772,42.88175201,-71.55293498,64.9000015258789,2012-02-21 12:16:27
1.21600008010864,42.88175203,-71.55293501,64.9000015258789,2012-02-21 12:16:29
0.501999855041504,42.88175203,-71.55293503,64.9000015258789,2012-02-21 12:16:29
1.31000018119812,42.88175204,-71.55293511,64.9000015258789,2012-02-21 12:16:30
1.06799983978271,42.88175211,-71.55293504,64.9000015258789,2012-02-21 12:16:31
0.959000110626221,42.88175216,-71.55293502,64.9000015258789,2012-02-21 12:16:32
1.16700005531311,42.88175213,-71.55293509,64.9000015258789,2012-02-21 12:16:34
0.467000007629395,42.88175214,-71.55293515,64.9000015258789,2012-02-21 12:16:34
1.28499984741211,42.88175207,-71.55293528,64.9000015258789,2012-02-21 12:16:35
0.76800012588501,42.88175209,-71.55293531,64.9000015258789,2012-02-21 12:16:36
1.45599985122681,42.88175207,-71.55293535,64.9000015258789,2012-02-21 12:16:38
0.453999996185303,42.88175212,-71.55293528,64.9000015258789,2012-02-21 12:16:38
1.30100011825562,42.8817521,-71.55293527,64.9000015258789,2012-02-21 12:16:39
1.25799989700317,42.88175212,-71.55293523,64.9000015258789,2012-02-21 12:16:41
0.664000034332275,42.88175213,-71.55293526,64.9000015258789,2012-02-21 12:16:41
1.35199999809265,42.88175214,-71.55293526,64.9000015258789,2012-02-21 12:16:43
0.578999996185303,42.88175212,-71.55293524,64.9000015258789,2012-02-21 12:16:43
1.11500000953674,42.88175207,-71.5529354,64.9000015258789,2012-02-21 12:16:44
1.33899998664856,42.88175205,-71.5529354,64.9000015258789,2012-02-21 12:16:46
0.615999937057495,42.88175205,-71.55293538,64.9000015258789,2012-02-21 12:16:46
1.33899998664856,42.88175202,-71.55293549,64.9000015258789,2012-02-21 12:16:48
0.634000062942505,42.88175197,-71.55293562,64.9000015258789,2012-02-21 12:16:48
0.983000040054321,42.88175197,-71.55293565,64.9000015258789,2012-02-21 12:16:49
1.14199995994568,42.88175195,-71.55293569,64.9000015258789,2012-02-21 12:16:50
1.2279999256134,42.88175188,-71.55293578,65,2012-02-21 12:16:52
0.680999994277954,42.88175185,-71.55293581,65,2012-02-21 12:16:52
1.31500005722046,42.88175189,-71.55293581,65,2012-02-21 12:16:54
0.603000164031982,42.88175193,-71.55293584,65,2012-02-21 12:16:54
1.38099980354309,42.88175194,-71.55293585,65,2012-02-21 12:16:55
0.671000003814697,42.88175198,-71.55293584,65,2012-02-21 12:16:56
0.976999998092651,42.88175203,-71.55293586,65,2012-02-21 12:16:57
1.2810001373291,42.88175204,-71.55293588,65,2012-02-21 12:16:58
0.82699990272522,42.88175208,-71.55293589,65,2012-02-21 12:16:59
0.890000104904175,42.88175206,-71.55293593,65,2012-02-21 12:17:00
1.20599985122681,42.88175201,-71.55293585,65,2012-02-21 12:17:01
0.708000183105469,42.88175198,-71.55293586,65,2012-02-21 12:17:02
1.44799995422363,42.88175198,-71.55293583,65,2012-02-21 12:17:04
0.736999988555908,42.88175199,-71.55293578,65,2012-02-21 12:17:04
0.809000015258789,42.88175198,-71.55293576,65,2012-02-21 12:17:05
1.0699999332428,42.88175196,-71.55293577,65,2012-02-21 12:17:06
1.74500012397766,42.88175193,-71.55293579,65,2012-02-21 12:17:08
0.329999923706055,42.8817519,-71.55293583,65,2012-02-21 12:17:08
1.23799991607666,42.88175187,-71.55293588,65,2012-02-21 12:17:09
0.590000152587891,42.88175188,-71.55293587,65,2012-02-21 12:17:10
1.25999999046326,42.88175186,-71.55293587,65,2012-02-21 12:17:11
1.27899980545044,42.88175187,-71.5529359,65,2012-02-21 12:17:13
0.672000169754028,42.88175184,-71.55293592,65,2012-02-21 12:17:13
1.28199982643127,42.88175181,-71.552936,65,2012-02-21 12:17:15
0.687000036239624,42.88175181,-71.55293605,65,2012-02-21 12:17:15
1.3510000705719,42.8817518,-71.55293607,65,2012-02-21 12:17:17
0.551000118255615,42.88175177,-71.55293612,65,2012-02-21 12:17:17
1.41799998283386,42.88175176,-71.55293614,65,2012-02-21 12:17:19
0.557999849319458,42.88175175,-71.55293616,65,2012-02-21 12:17:19
1.22300004959106,42.88175175,-71.55293615,65,2012-02-21 12:17:20
1.2039999961853,42.88175174,-71.55293619,65,2012-02-21 12:17:22
0.628000020980835,42.88175172,-71.55293619,65,2012-02-21 12:17:22
1.4300000667572,42.88175169,-71.55293615,65,2012-02-21 12:17:24
0.491999864578247,42.88175166,-71.55293613,65,2012-02-21 12:17:24
1.40499997138977,42.88175167,-71.55293614,65,2012-02-21 12:17:25
0.640000104904175,42.88175164,-71.55293621,65,2012-02-21 12:17:26
1.29699993133545,42.88175162,-71.55293621,65,2012-02-21 12:17:27
1,42.8817516,-71.5529363,65,2012-02-21 12:17:28
0.924000024795532,42.88175153,-71.55293646,65,2012-02-21 12:17:29
1.13899993896484,42.88175152,-71.55293645,65,2012-02-21 12:17:30
1.05299997329712,42.88175151,-71.55293647,65,2012-02-21 12:17:32
0.612000226974487,42.88175144,-71.55293667,65,2012-02-21 12:17:32
1.28999996185303,42.88175144,-71.55293668,65,2012-02-21 12:17:33
0.641999959945679,42.88175141,-71.5529367,65,2012-02-21 12:17:34
1.42700004577637,42.88175137,-71.55293674,65.0999984741211,2012-02-21 12:17:35
0.744999885559082,42.88175134,-71.55293678,65.0999984741211,2012-02-21 12:17:36
0.963000059127808,42.88175132,-71.55293681,65.0999984741211,2012-02-21 12:17:37
1.17499995231628,42.88175134,-71.5529368,65.0999984741211,2012-02-21 12:17:38
0.710000038146973,42.8817513,-71.55293684,65.0999984741211,2012-02-21 12:17:39
1.46099996566772,42.88175124,-71.55293697,65.0999984741211,2012-02-21 12:17:41
0.696000099182129,42.88175127,-71.55293696,65.0999984741211,2012-02-21 12:17:41
0.82099986076355,42.88175129,-71.55293694,65.0999984741211,2012-02-21 12:17:42
1.32599997520447,42.88175133,-71.55293694,65.0999984741211,2012-02-21 12:17:43
0.776000022888184,42.88175131,-71.55293701,65.0999984741211,2012-02-21 12:17:44
1.375,42.8817513,-71.55293704,65.0999984741211,2012-02-21 12:17:46
0.567000150680542,42.88175126,-71.55293708,65.0999984741211,2012-02-21 12:17:46
1.36399984359741,42.88175125,-71.55293715,65.0999984741211,2012-02-21 12:17:47
0.509999990463257,42.88175123,-71.55293727,65.0999984741211,2012-02-21 12:17:48
1.52400016784668,42.88175126,-71.5529372,65.0999984741211,2012-02-21 12:17:50
0.688999891281128,42.88175141,-71.55293706,65.0999984741211,2012-02-21 12:17:50
1.31100010871887,42.8817514,-71.55293705,65.0999984741211,2012-02-21 12:17:52
0.684999942779541,42.88175144,-71.55293701,65.0999984741211,2012-02-21 12:17:52
1.06599998474121,42.88175143,-71.55293708,65.0999984741211,2012-02-21 12:17:53
1.45300006866455,42.88175144,-71.5529371,65.0999984741211,2012-02-21 12:17:55
0.407999992370605,42.88175144,-71.55293712,65.0999984741211,2012-02-21 12:17:55
1.05399990081787,42.88175146,-71.55293711,65.0999984741211,2012-02-21 12:17:56
1.1340000629425,42.88175141,-71.55293715,65.0999984741211,2012-02-21 12:17:57
0.950000047683716,42.88175139,-71.55293719,65.0999984741211,2012-02-21 12:17:58
1.2279999256134,42.88175134,-71.55293724,65.0999984741211,2012-02-21 12:17:59
0.552000045776367,42.88175135,-71.55293726,65.0999984741211,2012-02-21 12:18:00
1.2960000038147,42.88175132,-71.55293732,65.0999984741211,2012-02-21 12:18:01
0.796000003814697,42.88175132,-71.55293739,65.0999984741211,2012-02-21 12:18:02
1.28199982643127,42.88175138,-71.55293742,65.0999984741211,2012-02-21 12:18:03
0.731000185012817,42.88175137,-71.55293742,65.0999984741211,2012-02-21 12:18:04
1.14199995994568,42.88175139,-71.55293738,65.0999984741211,2012-02-21 12:18:05
1.21199989318848,42.8817514,-71.5529374,65.0999984741211,2012-02-21 12:18:06
0.718000173568726,42.8817514,-71.55293744,65.0999984741211,2012-02-21 12:18:07
1.32799983024597,42.88175137,-71.5529375,65.0999984741211,2012-02-21 12:18:09
0.555999994277954,42.88175131,-71.55293756,65.0999984741211,2012-02-21 12:18:09
1.2039999961853,42.88175129,-71.55293761,65.0999984741211,2012-02-21 12:18:10
1.08700013160706,42.88175132,-71.55293757,65.0999984741211,2012-02-21 12:18:11
1.16400003433228,42.8817513,-71.5529375,65.0999984741211,2012-02-21 12:18:13
0.707000017166138,42.88175124,-71.55293772,65.0999984741211,2012-02-21 12:18:13
1.17899990081787,42.88175123,-71.55293773,65.0999984741211,2012-02-21 12:18:14
1.05399990081787,42.88175125,-71.55293778,65.0999984741211,2012-02-21 12:18:15
1.25400018692017,42.88175131,-71.55293775,65.0999984741211,2012-02-21 12:18:17
0.908999919891357,42.88175131,-71.55293779,65.0999984741211,2012-02-21 12:18:18
1.28500008583069,42.88175131,-71.55293781,65.0999984741211,2012-02-21 12:18:19
0.561999797821045,42.88175131,-71.55293789,65.0999984741211,2012-02-21 12:18:19
1.06500005722046,42.88175128,-71.55293796,65.0999984741211,2012-02-21 12:18:21
1.35000014305115,42.88175127,-71.55293797,65.0999984741211,2012-02-21 12:18:22
0.659999847412109,42.8817513,-71.55293795,65.0999984741211,2012-02-21 12:18:23
1.3510000705719,42.88175129,-71.55293795,65.0999984741211,2012-02-21 12:18:24
0.556999921798706,42.88175132,-71.55293792,65.0999984741211,2012-02-21 12:18:24
1.18300008773804,42.88175132,-71.55293794,65.0999984741211,2012-02-21 12:18:26
0.889999866485596,42.88175131,-71.55293796,65.0999984741211,2012-02-21 12:18:27
1.35500001907349,42.88175129,-71.55293797,65.0999984741211,2012-02-21 12:18:28
0.591000080108643,42.8817513,-71.55293804,65.0999984741211,2012-02-21 12:18:29
1.14499998092651,42.88175131,-71.55293806,65.0999984741211,2012-02-21 12:18:30
1.02300000190735,42.88175131,-71.55293808,65.0999984741211,2012-02-21 12:18:31
0.854000091552734,42.8817513,-71.55293811,65.0999984741211,2012-02-21 12:18:32
1.17699980735779,42.88175129,-71.55293815,65.0999984741211,2012-02-21 12:18:33
0.724000215530396,42.88175132,-71.5529382,65.0999984741211,2012-02-21 12:18:33
1.39299988746643,42.88175134,-71.5529382,65.0999984741211,2012-02-21 12:18:35
0.956000089645386,42.88175135,-71.55293822,65.0999984741211,2012-02-21 12:18:36
0.684000015258789,42.88175134,-71.55293825,65.0999984741211,2012-02-21 12:18:36
1.0460000038147,42.88175135,-71.55293828,65.0999984741211,2012-02-21 12:18:38
1.4139997959137,42.88175132,-71.55293835,65.1999969482422,2012-02-21 12:18:39
0.598000049591064,42.88175124,-71.55293848,65.1999969482422,2012-02-21 12:18:40
1.35400009155273,42.88175121,-71.5529385,65.1999969482422,2012-02-21 12:18:41
0.473000049591064,42.88175116,-71.55293851,65.1999969482422,2012-02-21 12:18:41
1.3289999961853,42.8817511,-71.55293857,65.1999969482422,2012-02-21 12:18:43
1.21000003814697,42.88175111,-71.55293855,65.1999969482422,2012-02-21 12:18:44
0.855999946594238,42.88175113,-71.55293854,65.1999969482422,2012-02-21 12:18:45
1.1710000038147,42.88175112,-71.55293856,65.1999969482422,2012-02-21 12:18:46
0.440999984741211,42.88175117,-71.55293864,65.1999969482422,2012-02-21 12:18:46
1.5460000038147,42.88175121,-71.55293872,65.1999969482422,2012-02-21 12:18:48
0.642999887466431,42.88175121,-71.55293874,65.1999969482422,2012-02-21 12:18:49
1.19799995422363,42.88175114,-71.55293894,65.1999969482422,2012-02-21 12:18:50
1.19000005722046,42.88175108,-71.552939,65.1999969482422,2012-02-21 12:18:51
0.66700005531311,42.88175103,-71.55293896,65.1999969482422,2012-02-21 12:18:52
1.27999997138977,42.88175101,-71.55293891,65.1999969482422,2012-02-21 12:18:53
0.709000110626221,42.88175103,-71.5529389,65.1999969482422,2012-02-21 12:18:54
1.11500000953674,42.88175103,-71.55293891,65.1999969482422,2012-02-21 12:18:55
1.01799988746643,42.88175103,-71.55293892,65.1999969482422,2012-02-21 12:18:56
1.20900011062622,42.88175104,-71.55293891,65.1999969482422,2012-02-21 12:18:57
0.552999973297119,42.88175105,-71.55293886,65.1999969482422,2012-02-21 12:18:57
1.39699983596802,42.88175108,-71.55293882,65.1999969482422,2012-02-21 12:18:59
0.606000185012817,42.88175108,-71.55293885,65.1999969482422,2012-02-21 12:18:59
1.07599997520447,42.8817511,-71.55293871,65.1999969482422,2012-02-21 12:19:01
1.32599997520447,42.88175102,-71.55293876,65.1999969482422,2012-02-21 12:19:02
0.619999885559082,42.88175103,-71.55293875,65.1999969482422,2012-02-21 12:19:03
1.41900014877319,42.88175099,-71.5529388,65.1999969482422,2012-02-21 12:19:04
0.467999935150146,42.881751,-71.55293873,65.1999969482422,2012-02-21 12:19:04
1.46000003814697,42.88175099,-71.55293882,65.1999969482422,2012-02-21 12:19:06
1.10099983215332,42.88175098,-71.55293883,65.1999969482422,2012-02-21 12:19:07
0.552000045776367,42.88175096,-71.55293886,65.1999969482422,2012-02-21 12:19:08
1.06800007820129,42.88175095,-71.55293894,65.1999969482422,2012-02-21 12:19:09
1.06699991226196,42.88175093,-71.55293897,65.1999969482422,2012-02-21 12:19:10
1.35600018501282,42.88175087,-71.5529391,65.1999969482422,2012-02-21 12:19:11
0.639999866485596,42.88175087,-71.55293898,65.1999969482422,2012-02-21 12:19:12
1.09200000762939,42.88175078,-71.55293911,65.3000030517578,2012-02-21 12:19:13
0.809000015258789,42.88175076,-71.55293906,65.1999969482422,2012-02-21 12:19:14
1.3510000705719,42.88175075,-71.55293905,65.1999969482422,2012-02-21 12:19:15
0.687999963760376,42.88175074,-71.55293904,65.1999969482422,2012-02-21 12:19:16
1.06900000572205,42.88175074,-71.55293902,65.1999969482422,2012-02-21 12:19:17
1.2189998626709,42.88175071,-71.55293903,65.1999969482422,2012-02-21 12:19:18
0.619000196456909,42.88175072,-71.55293904,65.3000030517578,2012-02-21 12:19:18
1.42699980735779,42.88175066,-71.55293908,65.3000030517578,2012-02-21 12:19:20
0.646000146865845,42.88175068,-71.55293906,65.3000030517578,2012-02-21 12:19:21
1.16599988937378,42.88175071,-71.55293902,65.3000030517578,2012-02-21 12:19:22
0.815000057220459,42.8817507,-71.55293903,65.3000030517578,2012-02-21 12:19:23
1.35700011253357,42.8817507,-71.55293903,65.3000030517578,2012-02-21 12:19:24
0.619999885559082,42.88175073,-71.55293897,65.1999969482422,2012-02-21 12:19:25
1.375,42.88175071,-71.55293897,65.3000030517578,2012-02-21 12:19:26
0.54200005531311,42.88175071,-71.55293897,65.1999969482422,2012-02-21 12:19:26
1.50300002098083,42.88175069,-71.55293901,65.3000030517578,2012-02-21 12:19:28
0.694000005722046,42.88175069,-71.552939,65.3000030517578,2012-02-21 12:19:29
0.845000028610229,42.8817507,-71.55293902,65.3000030517578,2012-02-21 12:19:29
1.26699995994568,42.88175068,-71.55293905,65.3000030517578,2012-02-21 12:19:31
0.983000040054321,42.88175067,-71.55293907,65.3000030517578,2012-02-21 12:19:32
1.16899991035461,42.88175064,-71.55293915,65.3000030517578,2012-02-21 12:19:33
0.947999954223633,42.88175045,-71.5529393,65.3000030517578,2012-02-21 12:19:34
0.509999990463257,42.88175035,-71.55293936,65.3000030517578,2012-02-21 12:19:34
1.48800015449524,42.88175032,-71.55293941,65.3000030517578,2012-02-21 12:19:36
0.58299994468689,42.88175031,-71.55293944,65.3000030517578,2012-02-21 12:19:36
1.42499995231628,42.88175025,-71.5529395,65.3000030517578,2012-02-21 12:19:38
0.769999980926514,42.88175024,-71.55293952,65.3000030517578,2012-02-21 12:19:39
1.13100004196167,42.88175022,-71.55293955,65.3000030517578,2012-02-21 12:19:40
0.61299991607666,42.88175019,-71.55293961,65.3000030517578,2012-02-21 12:19:40
1.13600015640259,42.88175015,-71.55293962,65.3000030517578,2012-02-21 12:19:41
1.44199991226196,42.88175011,-71.55293964,65.3000030517578,2012-02-21 12:19:43
0.657999992370605,42.88175009,-71.5529397,65.3000030517578,2012-02-21 12:19:44
1.30800008773804,42.88175009,-71.55293975,65.3000030517578,2012-02-21 12:19:45
0.449999809265137,42.88175006,-71.55293979,65.3000030517578,2012-02-21 12:19:45
1.55100011825562,42.88175009,-71.55293977,65.3000030517578,2012-02-21 12:19:47
0.662999868392944,42.8817501,-71.55293976,65.3000030517578,2012-02-21 12:19:48
1.13300013542175,42.88175008,-71.55293981,65.3000030517578,2012-02-21 12:19:49
1.16299986839294,42.88175008,-71.55293983,65.3000030517578,2012-02-21 12:19:50
0.516000032424927,42.88175009,-71.55293983,65.3000030517578,2012-02-21 12:19:50
1.48399996757507,42.88175012,-71.5529398,65.3000030517578,2012-02-21 12:19:52
0.795000076293945,42.88175015,-71.55293981,65.3000030517578,2012-02-21 12:19:53
1.2960000038147,42.88175013,-71.55293983,65.3000030517578,2012-02-21 12:19:54
0.509000062942505,42.88175014,-71.55293981,65.3000030517578,2012-02-21 12:19:54
1.42199993133545,42.88175009,-71.55293989,65.3000030517578,2012-02-21 12:19:56
0.614000082015991,42.88175011,-71.55293988,65.3000030517578,2012-02-21 12:19:56
1.39699983596802,42.88175014,-71.5529399,65.3000030517578,2012-02-21 12:19:58
0.567000150680542,42.88175012,-71.5529399,65.3000030517578,2012-02-21 12:19:58
1.40999984741211,42.88175009,-71.55293992,65.3000030517578,2012-02-21 12:20:00
0.92300009727478,42.88175007,-71.55293993,65.3000030517578,2012-02-21 12:20:01
0.24399995803833,42.88175008,-71.55293996,65.3000030517578,2012-02-21 12:20:01
1.40199995040894,42.88175007,-71.55293995,65.3000030517578,2012-02-21 12:20:02
0.526000022888184,42.88175009,-71.55293992,65.3000030517578,2012-02-21 12:20:03
1.21200013160706,42.88175009,-71.55293982,65.3000030517578,2012-02-21 12:20:04
1.22300004959106,42.88175004,-71.5529399,65.3000030517578,2012-02-21 12:20:05
0.46999979019165,42.88175004,-71.55293991,65.3000030517578,2012-02-21 12:20:06
1.33400011062622,42.88175005,-71.55293989,65.3000030517578,2012-02-21 12:20:07
1.22499990463257,42.88175003,-71.55293988,65.3000030517578,2012-02-21 12:20:08
0.710000038146973,42.88175001,-71.5529399,65.3000030517578,2012-02-21 12:20:09
1.31700015068054,42.88174999,-71.55293994,65.3000030517578,2012-02-21 12:20:10
0.703999996185303,42.88174999,-71.55293994,65.3000030517578,2012-02-21 12:20:11
0.803999900817871,42.88175001,-71.55293996,65.3000030517578,2012-02-21 12:20:12
1.06500005722046,42.88175001,-71.55293991,65.3000030517578,2012-02-21 12:20:13
1.12599992752075,42.88175001,-71.55293998,65.3000030517578,2012-02-21 12:20:14
1.30400013923645,42.88174151,-71.55294177,66.8000030517578,2012-02-21 12:20:15
0.56499981880188,42.88170849,-71.55295981,70.6999969482422,2012-02-21 12:20:16
0.950000047683716,42.88169979,-71.55296612,73.0999984741211,2012-02-21 12:20:17
1.37899994850159,42.88169757,-71.55295155,73.6999969482422,2012-02-21 12:20:18
0.730000019073486,42.88168635,-71.55295427,74,2012-02-21 12:20:19
0.970999956130981,42.88167348,-71.55295279,74.3000030517578,2012-02-21 12:20:20
1.01500010490417,42.88166295,-71.55295177,74.8000030517578,2012-02-21 12:20:21
0.812000036239624,42.88165911,-71.55296291,75.3000030517578,2012-02-21 12:20:22
1.18199992179871,42.88165336,-71.55296627,75.5,2012-02-21 12:20:23
1.00200009346008,42.88164463,-71.55298219,75.5999984741211,2012-02-21 12:20:24
1.3439998626709,42.88165379,-71.5529997,76.3000030517578,2012-02-21 12:20:25
0.648000001907349,42.88167522,-71.55300048,77.1999969482422,2012-02-21 12:20:26
1.20900011062622,42.8816863,-71.55301545,77.8000030517578,2012-02-21 12:20:27
0.796000003814697,42.88171149,-71.55304942,78.3000030517578,2012-02-21 12:20:28
0.897000074386597,42.88171149,-71.55304942,78.3000030517578,2012-02-21 12:20:29
1.10399985313416,42.88168216,-71.55308317,84.4000015258789,2012-02-21 12:20:30
1.35500001907349,42.88165833,-71.55311256,90.1999969482422,2012-02-21 12:20:31
0.671999931335449,42.88165274,-71.55312742,89.6999969482422,2012-02-21 12:20:32
1.31700015068054,42.88165543,-71.55312265,90,2012-02-21 12:20:33
0.510999917984009,42.88165025,-71.55312059,90.1999969482422,2012-02-21 12:20:34
1.31200003623962,42.88164358,-71.55312524,90,2012-02-21 12:20:35
1.19000005722046,42.88163772,-71.5531283,89.8000030517578,2012-02-21 12:20:36
0.878000020980835,42.88163652,-71.55313034,89.6999969482422,2012-02-21 12:20:37
1.13599991798401,42.8816322,-71.55312881,90.0999984741211,2012-02-21 12:20:38
0.483000040054321,42.88163036,-71.5531278,90.1999969482422,2012-02-21 12:20:39
