"diffSecs","level","azimuth.mean","azimuth.absolute.deviation","azimuth.standard.deviation","azimuth.max.deviation","pitch.mean","pitch.absolute.deviation","pitch.standard.deviation","pitch.max.deviation","roll.mean","roll.absolute.deviation","roll.standard.deviation","roll.max.deviation","time"
2.74600005149841,40,40.3974990844727,0.247374907135963,0.294522523880005,0.602499306201935,16.0025005340576,0.113125085830688,0.144026950001717,0.397499263286591,-30.4200000762939,0.147999957203865,0.177763819694519,0.380000740289688,2012-01-10 17:00:02
0.738999843597412,99,40.8696975708008,0.174839630723,0.224487990140915,0.630302488803864,16.2818183898926,0.152433350682259,0.191940367221832,0.618180990219116,-30.8181819915771,0.198346868157387,0.24385941028595,0.618181467056274,2012-01-10 17:00:03
1.00300002098083,39,40.5358963012695,0.455489784479141,0.529386341571808,1.0641040802002,16.3256416320801,0.169887855648994,0.210880756378174,0.425640851259232,-30.6102561950684,0.139776706695557,0.167630463838577,0.31025567650795,2012-01-10 17:00:04
1.02300000190735,43,40.3488388061523,0.380097389221191,0.482422202825546,1.25116431713104,16.0906982421875,0.135965526103973,0.170926317572594,0.409301966428757,-30.5232563018799,0.0850191861391068,0.105295389890671,0.223254844546318,2012-01-10 17:00:05
1.00399994850159,37,40.1351356506348,0.17662513256073,0.213359594345093,0.435135185718536,16.3945941925049,0.141562804579735,0.173899427056313,0.394594967365265,-30.6108112335205,0.122133210301399,0.150286063551903,0.389188915491104,2012-01-10 17:00:06
1.09300017356873,51,40.1078453063965,0.159169405698776,0.219485491514206,0.592156589031219,16.2254905700684,0.187850877642632,0.223907560110092,0.474510192871094,-30.4882354736328,0.175086319446564,0.20546168088913,0.411763727664948,2012-01-10 17:00:07
1.06099987030029,31,40.5806465148926,0.477003186941147,0.573849022388458,1.21935331821442,15.7741937637329,0.158793047070503,0.186595633625984,0.325806617736816,-30.541934967041,0.0911553353071213,0.110056556761265,0.258065432310104,2012-01-10 17:00:08
1.01400017738342,45,40.2822227478027,0.391703397035599,0.562648117542267,1.71777677536011,16.135555267334,0.153185397386551,0.176579371094704,0.364443957805634,-30.4688892364502,0.120394982397556,0.144256204366684,0.368888854980469,2012-01-10 17:00:09
1.02899980545044,32,40.203125,0.166210308670998,0.203844577074051,0.496875047683716,16.1781253814697,0.107226744294167,0.131658628582954,0.278124898672104,-30.4343757629395,0.128320276737213,0.157339870929718,0.365625739097595,2012-01-10 17:00:10
1.01100015640259,28,40.4928588867188,0.29948964715004,0.334800988435745,0.607144236564636,15.8464288711548,0.114540949463844,0.14511613547802,0.353571861982346,-30.4892864227295,0.132142946124077,0.167629078030586,0.410713672637939,2012-01-10 17:00:11
1.06399989128113,42,40.3809509277344,0.301587253808975,0.348628580570221,0.680952072143555,15.7595243453979,0.110090844333172,0.132843598723412,0.259524017572403,-30.4500007629395,0.173809453845024,0.204996958374977,0.449999123811722,2012-01-10 17:00:12
1.04200005531311,45,40.2066688537598,0.173629194498062,0.242578521370888,0.793332397937775,15.9022226333618,0.118419736623764,0.148307427763939,0.3022221326828,-30.5377788543701,0.110321216285229,0.13709519803524,0.362221568822861,2012-01-10 17:00:13
1.01399993896484,32,40.3500022888184,0.39687505364418,0.484122931957245,1.05000066757202,15.8562498092651,0.0812501609325409,0.0966227725148201,0.243750125169754,-30.625,0.159375250339508,0.187082976102829,0.424999713897705,2012-01-10 17:00:14
1.0090000629425,40,40.5900001525879,0.308499962091446,0.380657196044922,0.790001571178436,15.8050003051758,0.0720001608133316,0.094736635684967,0.204999774694443,-30.5400009155273,0.107000179588795,0.139283925294876,0.3599993288517,2012-01-10 17:00:15
1.09299993515015,38,40.0263175964355,0.147368878126144,0.175745472311974,0.326315730810165,15.7763156890869,0.123684354126453,0.147673636674881,0.323684453964233,-30.521053314209,0.119113773107529,0.150713965296745,0.421052634716034,2012-01-10 17:00:16
1.01600003242493,48,40.2041664123535,0.204687371850014,0.24745237827301,0.495833545923233,16.060417175293,0.135330006480217,0.160389766097069,0.36041733622551,-30.5979175567627,0.152257218956947,0.183132126927376,0.402083039283752,2012-01-10 17:00:17
1.00300002098083,33,40.1939392089844,0.206978261470795,0.263931959867477,0.593937933444977,15.8060607910156,0.0629937723278999,0.0814246609807014,0.193939208984375,-30.4939403533936,0.116804338991642,0.143420070409775,0.30606135725975,2012-01-10 17:00:18
1.01300001144409,49,40.4571418762207,0.34635591506958,0.410077273845673,0.94285786151886,15.9448986053467,0.151103794574738,0.183014929294586,0.355102777481079,-30.5510215759277,0.141857832670212,0.1655203551054,0.251019716262817,2012-01-10 17:00:19
1.01699995994568,45,40.1888885498047,0.196542829275131,0.279063582420349,0.811110258102417,16.0977783203125,0.0785187035799026,0.106435097754002,0.302221447229385,-30.5244445800781,0.206024810671806,0.23678919672966,0.424444526433945,2012-01-10 17:00:20
1.01200008392334,44,40.2659111022949,0.290082216262817,0.347682654857635,0.734090209007263,16.009090423584,0.146694451570511,0.170318379998207,0.309091508388519,-30.60227394104,0.089359812438488,0.119637370109558,0.302272021770477,2012-01-10 17:00:22
1.01300001144409,49,40.1938781738281,0.182257100939751,0.230711579322815,0.506122350692749,15.8632650375366,0.116118401288986,0.138053447008133,0.336735248565674,-30.4551029205322,0.0802998915314674,0.0948923900723457,0.244898617267609,2012-01-10 17:00:23
1.00899982452393,31,40.3387107849121,0.288657814264297,0.347040474414825,0.861290216445923,15.9774198532104,0.118002079427242,0.138446986675262,0.277419835329056,-30.5290336608887,0.154422670602798,0.185252413153648,0.32903203368187,2012-01-10 17:00:24
1.007000207901,40,40.2724990844727,0.219374850392342,0.269246816635132,0.572499871253967,16.1400012969971,0.137000158429146,0.160934805870056,0.340000212192535,-30.4750003814697,0.097500242292881,0.115650556981564,0.225000709295273,2012-01-10 17:00:25
1.01899981498718,40,40.2050018310547,0.245749711990356,0.325537919998169,0.794999122619629,16.1424999237061,0.147500202059746,0.186932608485222,0.442500621080399,-30.4524993896484,0.122750125825405,0.148302912712097,0.352499812841415,2012-01-10 17:00:26
1.01100015640259,50,40.3580017089844,0.203039959073067,0.235023245215416,0.457999259233475,15.8420000076294,0.0916801765561104,0.111516937613487,0.258000135421753,-30.2639999389648,0.112319961190224,0.13676244020462,0.33599990606308,2012-01-10 17:00:27
1.00399994850159,37,40.3702697753906,0.178670704364777,0.245901182293892,0.729731559753418,16.035135269165,0.163915395736694,0.206928923726082,0.435135066509247,-30.4891891479492,0.113805919885635,0.139077842235565,0.310811787843704,2012-01-10 17:00:28
1.00699996948242,40,40.3074989318848,0.147875294089317,0.182191506028175,0.407499134540558,16.3274993896484,0.211124747991562,0.255917489528656,0.527500152587891,-30.5249996185303,0.105000324547291,0.127965152263641,0.275000959634781,2012-01-10 17:00:29
1.01600003242493,40,40.432502746582,0.215749859809875,0.261139154434204,0.567498862743378,15.6850004196167,0.109999872744083,0.140623599290848,0.415000230073929,-30.4775009155273,0.133625015616417,0.165056765079498,0.4224993288517,2012-01-10 17:00:30
1.01399993896484,44,40.3318176269531,0.2708680331707,0.337620675563812,0.768183171749115,15.8795461654663,0.175000131130219,0.216983079910278,0.520453870296478,-30.4227275848389,0.151033014059067,0.181988507509232,0.37727352976799,2012-01-10 17:00:31
1.00600004196167,43,40.2697677612305,0.31325027346611,0.375118553638458,0.830234289169312,16.2116279602051,0.0988643243908882,0.131554782390594,0.311627954244614,-30.3674411773682,0.146349027752876,0.170799493789673,0.367442101240158,2012-01-10 17:00:32
1.00600004196167,45,40.424446105957,0.23387636244297,0.265961766242981,0.524443745613098,15.9244451522827,0.105975247919559,0.131918489933014,0.324444383382797,-30.2644443511963,0.112197458744049,0.133592188358307,0.26444485783577,2012-01-10 17:00:33
1.01900005340576,36,40.3472213745117,0.119444847106934,0.142373025417328,0.347222745418549,15.9222221374512,0.1067900583148,0.129338398575783,0.277778327465057,-30.2638893127441,0.110339425504208,0.133651092648506,0.336111009120941,2012-01-10 17:00:34
1.00099992752075,37,40.3567581176758,0.166399151086807,0.193880125880241,0.356757700443268,16.1891899108887,0.0686634555459023,0.0923677235841751,0.21080981194973,-30.1837844848633,0.0904311612248421,0.115111075341702,0.216215342283249,2012-01-10 17:00:35
1.11999988555908,43,40.5116271972656,0.28956201672554,0.366764038801193,0.888372659683228,16.0046520233154,0.121903918683529,0.149345248937607,0.295349597930908,-30.1837215423584,0.136722847819328,0.168344005942345,0.383720308542252,2012-01-10 17:00:36
1.09600019454956,52,40.4942321777344,0.157766491174698,0.199435412883759,0.594230234622955,15.8096160888672,0.123003095388412,0.166709885001183,0.409615039825439,-30.1615390777588,0.119230933487415,0.145646914839745,0.361537724733353,2012-01-10 17:00:37
1.00899982452393,43,40.4093017578125,0.225635275244713,0.284330040216446,0.690699100494385,16.2186050415039,0.135316386818886,0.161757454276085,0.318604528903961,-30.3069763183594,0.0878307074308395,0.116928152740002,0.393023550510406,2012-01-10 17:00:38
1.01200008392334,42,40.3047637939453,0.295918554067612,0.334487915039062,0.595238745212555,16.0690479278564,0.241950154304504,0.264114052057266,0.430952131748199,-30.2476196289062,0.131292462348938,0.162184521555901,0.447618305683136,2012-01-10 17:00:39
1.01099991798401,41,40.5829277038574,0.200476169586182,0.243853643536568,0.682925820350647,15.790244102478,0.0948246940970421,0.122583851218224,0.29024401307106,-30.2121963500977,0.125877469778061,0.153329148888588,0.312195897102356,2012-01-10 17:00:40
1.00100016593933,45,40.493335723877,0.310221970081329,0.374402940273285,0.70666640996933,15.9511117935181,0.112197481095791,0.139239698648453,0.348889768123627,-30.3377780914307,0.122468657791615,0.152444913983345,0.437778383493423,2012-01-10 17:00:41
1,48,40.5270843505859,0.185416698455811,0.22149059176445,0.572917938232422,16.1187496185303,0.17786468565464,0.203772991895676,0.418750584125519,-30.3187503814697,0.094270296394825,0.120166696608067,0.28124988079071,2012-01-10 17:00:42
1.0019998550415,35,40.6228561401367,0.233958899974823,0.316305220127106,0.877142250537872,15.8542861938477,0.101551160216331,0.120339751243591,0.254285544157028,-30.1971435546875,0.112000249326229,0.136247232556343,0.302856594324112,2012-01-10 17:00:43
1.01999998092651,36,40.591667175293,0.306481540203094,0.361612945795059,0.808334469795227,15.7583332061768,0.116666793823242,0.162232741713524,0.458333343267441,-30.1750011444092,0.105555914342403,0.125554665923119,0.324999392032623,2012-01-10 17:00:44
1.00699996948242,47,40.3765983581543,0.195111081004143,0.239869341254234,0.623403370380402,16.0765953063965,0.125034064054489,0.153280109167099,0.323403537273407,-30.3127670288086,0.126934871077538,0.16582091152668,0.487234681844711,2012-01-10 17:00:45
1.03600001335144,49,40.5897979736328,0.244315057992935,0.282297343015671,0.689795017242432,15.8469390869141,0.158100873231888,0.189631313085556,0.446938425302505,-30.2285709381104,0.134693816304207,0.164130344986916,0.328572183847427,2012-01-10 17:00:46
1.00800013542175,38,40.5789489746094,0.284210592508316,0.332579970359802,0.721051275730133,15.6868419647217,0.118420951068401,0.141739279031754,0.313157677650452,-30.1973686218262,0.119113802909851,0.15301688015461,0.302631139755249,2012-01-10 17:00:47
1.01699995994568,38,40.6210517883301,0.240997239947319,0.279245316982269,0.621053218841553,15.7815790176392,0.165789633989334,0.210081860423088,0.618420481681824,-30.1947383880615,0.0554018244147301,0.0856780931353569,0.205262139439583,2012-01-10 17:00:48
1.0239999294281,49,40.3551025390625,0.198084279894829,0.309087306261063,1.04489874839783,16.2122459411621,0.178258985280991,0.215361669659615,0.487755477428436,-30.2571430206299,0.131778493523598,0.164130359888077,0.442857354879379,2012-01-10 17:00:49
1.15100002288818,39,40.4230766296387,0.172386676073074,0.209347814321518,0.423077523708344,15.6307697296143,0.193688362836838,0.226629555225372,0.530769050121307,-30.1512832641602,0.104010693728924,0.133727297186852,0.348717570304871,2012-01-10 17:00:50
1.00800013542175,45,40.8199996948242,0.270222365856171,0.319444060325623,0.679999470710754,15.6266670227051,0.17392586171627,0.21333335340023,0.626666963100433,-30.1377773284912,0.105876766145229,0.130450442433357,0.337777078151703,2012-01-10 17:00:51
1.1489999294281,45,40.2999992370605,0.151111230254173,0.201107800006866,0.499998807907104,15.9377784729004,0.105283856391907,0.128735587000847,0.337777674198151,-30.0311107635498,0.105679340660572,0.127927750349045,0.331110537052155,2012-01-10 17:00:52
1.01699995994568,41,40.7560997009277,0.202617436647415,0.238949984312057,0.456098973751068,15.4195127487183,0.154550820589066,0.200267568230629,0.580487549304962,-30.2000007629395,0.156097710132599,0.183462649583817,0.400000035762787,2012-01-10 17:00:53
1.00600004196167,49,40.6938781738281,0.278967261314392,0.322875291109085,0.706123173236847,15.2469387054443,0.127863451838493,0.15132349729538,0.253061056137085,-30.155101776123,0.140108540654182,0.172687441110611,0.444897949695587,2012-01-10 17:00:54
1.01099991798401,38,40.5447387695312,0.12839375436306,0.153378516435623,0.355263948440552,15.5289478302002,0.221468195319176,0.272327154874802,0.528947591781616,-30.2342109680176,0.130747899413109,0.162668943405151,0.434209883213043,2012-01-10 17:00:55
1.00300002098083,41,40.7853660583496,0.229030147194862,0.285042583942413,0.58536559343338,15.6780490875244,0.221415758132935,0.254244148731232,0.521951675415039,-30.1878051757812,0.134443983435631,0.165566563606262,0.412195116281509,2012-01-10 17:00:56
1.00099992752075,40,40.557502746582,0.158250421285629,0.204801991581917,0.542501449584961,15.3900003433228,0.0740001052618027,0.101980410516262,0.289999932050705,-30.0925006866455,0.0762502923607826,0.105800926685333,0.207500785589218,2012-01-10 17:00:57
1.00600004196167,42,40.6976203918457,0.202720820903778,0.248316273093224,0.502381026744843,15.4833335876465,0.181745961308479,0.221377357840538,0.516666412353516,-30.2261905670166,0.133446678519249,0.155929610133171,0.32619121670723,2012-01-10 17:00:58
1.00100016593933,35,40.4400024414062,0.211428582668304,0.253207981586456,0.559999287128448,15.6599998474121,0.126857042312622,0.158924967050552,0.359999924898148,-30.2114295959473,0.121632650494576,0.165220856666565,0.41142800450325,2012-01-10 17:00:59
1.00299978256226,40,40.6949996948242,0.250499814748764,0.2932148873806,0.504999935626984,15.4350004196167,0.0902498215436935,0.113026484847069,0.264999568462372,-30.2924995422363,0.0889998078346252,0.105800151824951,0.207499548792839,2012-01-10 17:01:00
1.01600003242493,41,40.8195114135742,0.21701392531395,0.266155511140823,0.519513547420502,15.3609762191772,0.119928739964962,0.141210928559303,0.339024037122726,-30.0682926177979,0.121832512319088,0.14888060092926,0.368292272090912,2012-01-10 17:01:01
1.01200008392334,40,40.6399993896484,0.19999971985817,0.240624219179153,0.559999942779541,15.5050001144409,0.140249937772751,0.161167532205582,0.305000334978104,-30.1175003051758,0.146625220775604,0.178728222846985,0.417499840259552,2012-01-10 17:01:02
1.00999999046326,48,40.5520858764648,0.162413358688354,0.196839094161987,0.552084147930145,15.6374998092651,0.179687455296516,0.216626599431038,0.537499845027924,-30.185417175293,0.134288370609283,0.164556980133057,0.3854159116745,2012-01-10 17:01:03
1.01200008392334,37,40.5864868164062,0.159825176000595,0.221983924508095,0.713511884212494,15.4162168502808,0.117457903921604,0.14798378944397,0.383783787488937,-30.1486492156982,0.185098901391029,0.206151038408279,0.351351082324982,2012-01-10 17:01:04
1.01199984550476,40,40.7325019836426,0.192499548196793,0.222920551896095,0.567498385906219,15.5300006866455,0.136999994516373,0.17492850124836,0.46999979019165,-30.1450004577637,0.149500116705894,0.180208191275597,0.444999545812607,2012-01-10 17:01:05
1.00399994850159,43,40.6860466003418,0.327203840017319,0.376385152339935,0.686046838760376,15.9906978607178,0.116927959024906,0.159671112895012,0.509302020072937,-30.2976741790771,0.142130836844444,0.179778054356575,0.502326250076294,2012-01-10 17:01:06
1.00300002098083,47,40.5340423583984,0.280308097600937,0.321086525917053,0.565959215164185,15.6531915664673,0.124400116503239,0.145647615194321,0.346808403730392,-30.1829795837402,0.106835879385471,0.138869598507881,0.382978111505508,2012-01-10 17:01:07
1.01800012588501,33,40.4363632202148,0.157025173306465,0.196666777133942,0.563635408878326,15.8787879943848,0.29807186126709,0.324511557817459,0.521211385726929,-30.0696964263916,0.140312507748604,0.169643074274063,0.369696587324142,2012-01-10 17:01:08
1.00399994850159,39,40.6333351135254,0.237606763839722,0.281327843666077,0.566666841506958,15.8769235610962,0.114793062210083,0.138604074716568,0.323077470064163,-30.2205123901367,0.180013090372086,0.215048477053642,0.520512342453003,2012-01-10 17:01:09
1.01200008392334,44,40.4704551696777,0.220454469323158,0.276815891265869,0.629546940326691,16.009090423584,0.136777073144913,0.162114351987839,0.309091448783875,-30.1545467376709,0.122314348816872,0.148407742381096,0.354544818401337,2012-01-10 17:01:10
1.01199984550476,44,40.8727264404297,0.262397140264511,0.322182923555374,0.727274298667908,15.6750001907349,0.10568168759346,0.136723011732101,0.324999898672104,-30.1272735595703,0.119835026562214,0.148268520832062,0.427272409200668,2012-01-10 17:01:11
1.01400017738342,48,40.5562515258789,0.185416862368584,0.237088412046432,0.556250870227814,15.5729169845581,0.133159786462784,0.164240181446075,0.327083706855774,-29.9895839691162,0.10095489025116,0.131084591150284,0.31041756272316,2012-01-10 17:01:12
1.00599980354309,35,40.331428527832,0.173061475157738,0.21080981194973,0.468569934368134,16.0171432495117,0.29387766122818,0.329055607318878,0.582857310771942,-30.1457138061523,0.0943675637245178,0.12499812990427,0.354285269975662,2012-01-10 17:01:13
1.00300002098083,38,40.6763153076172,0.316897630691528,0.370230734348297,0.676316618919373,15.8184213638306,0.0959835350513458,0.123235575854778,0.318421274423599,-30.2105274200439,0.133794978260994,0.161879539489746,0.389473706483841,2012-01-10 17:01:14
1.01900005340576,41,40.6219520568848,0.204520732164383,0.289247840642929,0.878047585487366,15.7195119857788,0.13016065955162,0.162630066275597,0.380487978458405,-30.2414646148682,0.132659092545509,0.171045005321503,0.458536833524704,2012-01-10 17:01:16
1.00500011444092,50,40.4700012207031,0.289999842643738,0.343074232339859,0.67000138759613,15.8780002593994,0.144640147686005,0.17004719376564,0.378000169992447,-30.3199996948242,0.111199498176575,0.129614487290382,0.279999971389771,2012-01-10 17:01:17
1.01300001144409,37,40.5810813903809,0.159971073269844,0.192898198962212,0.518920481204987,15.5594596862793,0.144338861107826,0.166780978441238,0.35945987701416,-30.318920135498,0.103578731417656,0.126997977495193,0.318919360637665,2012-01-10 17:01:18
1,43,40.639533996582,0.334343045949936,0.367353707551956,0.660463631153107,15.679069519043,0.130340576171875,0.17193578183651,0.420930474996567,-30.1488380432129,0.112926080822945,0.143659979104996,0.348836541175842,2012-01-10 17:01:19
1,32,40.4562492370605,0.129296958446503,0.159956097602844,0.356248497962952,15.8625001907349,0.118750065565109,0.140867859125137,0.262499839067459,-30.203125,0.091992199420929,0.123704217374325,0.296874463558197,2012-01-10 17:01:20
1.0019998550415,46,40.4130439758301,0.145746797323227,0.180107265710831,0.413044393062592,15.6152172088623,0.177410155534744,0.211585521697998,0.484782844781876,-30.0826091766357,0.128355622291565,0.163260862231255,0.417391002178192,2012-01-10 17:01:21
1.00999999046326,33,40.6212120056152,0.202754333615303,0.274973720312119,0.778788506984711,15.5969696044922,0.112947694957256,0.152722477912903,0.303030639886856,-30.0939388275146,0.103581495583057,0.134703829884529,0.306059926748276,2012-01-10 17:01:22
1.00200009346008,43,40.4883728027344,0.309031814336777,0.374916464090347,0.711627781391144,15.7255811691284,0.13661453127861,0.164377704262733,0.325580984354019,-29.9813957214355,0.126879543066025,0.160313531756401,0.381395220756531,2012-01-10 17:01:23
1.01399993896484,31,40.5129051208496,0.229552865028381,0.283687680959702,0.58709841966629,16.0709686279297,0.124870128929615,0.152809366583824,0.329031586647034,-30.2161293029785,0.110093541443348,0.129755914211273,0.216129422187805,2012-01-10 17:01:24
1.0090000629425,43,40.6976737976074,0.225743293762207,0.268924087285995,0.502325475215912,15.7488374710083,0.161709055304527,0.195736020803452,0.351162940263748,-30.1139545440674,0.1365065574646,0.16647033393383,0.41395315527916,2012-01-10 17:01:25
1.00499987602234,48,40.4645843505859,0.182986065745354,0.225914314389229,0.564582586288452,15.6958332061768,0.129687398672104,0.155400440096855,0.304166406393051,-30.0687503814697,0.127083659172058,0.148823752999306,0.331249356269836,2012-01-10 17:01:26
1.00500011444092,37,40.4810829162598,0.189042896032333,0.27883717417717,0.718918681144714,16.0297298431396,0.171658396720886,0.1984603703022,0.370269507169724,-30.2270278930664,0.0807889625430107,0.0976719558238983,0.22702768445015,2012-01-10 17:01:27
1.01900005340576,41,40.5878067016602,0.238786473870277,0.280413597822189,0.612195253372192,15.8658542633057,0.238191694021225,0.288486272096634,0.63414603471756,-30.0463409423828,0.091017559170723,0.108420357108116,0.253659456968307,2012-01-10 17:01:28
1.01399993896484,43,41.0534896850586,0.366359949111938,0.4076868891716,0.74651026725769,15.6674423217773,0.117036186158657,0.139302209019661,0.332558006048203,-30.2139549255371,0.127204030752182,0.15338271856308,0.386046379804611,2012-01-10 17:01:29
1.2039999961853,47,41.2297897338867,0.649162352085114,0.736268579959869,1.17021369934082,15.7787237167358,0.159981966018677,0.199932083487511,0.478723555803299,-30.4723415374756,0.291353702545166,0.318040877580643,0.57234138250351,2012-01-10 17:01:30
1,49,41.3612251281738,0.193086430430412,0.283430874347687,1.26122272014618,15.8673467636108,0.147605299949646,0.177726969122887,0.467346578836441,-30.1795921325684,0.107372120022774,0.127742797136307,0.279592663049698,2012-01-10 17:01:31
1.05099987983704,32,42.0843772888184,0.564648509025574,0.6200350522995,1.21562337875366,15.6062498092651,0.12656244635582,0.155999809503555,0.306249976158142,-30.421875,0.277343571186066,0.306934654712677,0.578124463558197,2012-01-10 17:01:32
