"diffSecs","latitude","longitude","altitude","time"
0.335999965667725,42.43838945,-71.66911595,50.2999992370605,2012-01-08 13:00:00
0.799999952316284,42.43838946,-71.66911595,50.2999992370605,2012-01-08 13:00:01
1.02799987792969,42.43838945,-71.66911594,50.2999992370605,2012-01-08 13:00:02
0.938000202178955,42.43838944,-71.66911594,50.2999992370605,2012-01-08 13:00:03
0.926999807357788,42.43838944,-71.66911592,50.2999992370605,2012-01-08 13:00:04
0.965000152587891,42.43838945,-71.66911594,50.2999992370605,2012-01-08 13:00:04
1.25999999046326,42.43838945,-71.66911594,50.2999992370605,2012-01-08 13:00:06
0.734999895095825,42.43838945,-71.66911594,50.2999992370605,2012-01-08 13:00:06
1.01600003242493,42.43838939,-71.66911594,50.2999992370605,2012-01-08 13:00:08
0.989000082015991,42.43838939,-71.66911594,50.2999992370605,2012-01-08 13:00:08
0.994999885559082,42.43838931,-71.66911587,50.2999992370605,2012-01-08 13:00:09
1.00399994850159,42.43838931,-71.66911586,50.2999992370605,2012-01-08 13:00:10
1.16400003433228,42.43838929,-71.66911586,50.2999992370605,2012-01-08 13:00:12
1.00300002098083,42.43838928,-71.66911586,50.2999992370605,2012-01-08 13:00:13
1.02500009536743,42.43838927,-71.66911586,50.2999992370605,2012-01-08 13:00:14
0.980999946594238,42.43838927,-71.66911586,50.2999992370605,2012-01-08 13:00:15
0.980999946594238,42.43838927,-71.66911587,50.2999992370605,2012-01-08 13:00:16
1,42.43838927,-71.66911587,50.2999992370605,2012-01-08 13:00:17
0.999000072479248,42.43838927,-71.66911588,50.2999992370605,2012-01-08 13:00:18
1.30200004577637,42.43838925,-71.66911588,50.2999992370605,2012-01-08 13:00:19
0.717000007629395,42.43838925,-71.66911589,50.2999992370605,2012-01-08 13:00:20
0.918999910354614,42.43838925,-71.66911589,50.2999992370605,2012-01-08 13:00:21
0.982000112533569,42.43838925,-71.66911589,50.2999992370605,2012-01-08 13:00:22
0.976999998092651,42.43838925,-71.66911589,50.2999992370605,2012-01-08 13:00:23
1.09299993515015,42.43838925,-71.66911589,50.2999992370605,2012-01-08 13:00:24
0.934999942779541,42.43838925,-71.66911589,50.2999992370605,2012-01-08 13:00:25
1.06700015068054,42.43838925,-71.66911589,50.2999992370605,2012-01-08 13:00:26
0.97599983215332,42.43838925,-71.66911588,50.2999992370605,2012-01-08 13:00:27
1.03600001335144,42.43838925,-71.66911588,50.2999992370605,2012-01-08 13:00:28
0.986999988555908,42.43838925,-71.66911589,50.2999992370605,2012-01-08 13:00:29
0.897000074386597,42.43838924,-71.66911589,50.2999992370605,2012-01-08 13:00:30
1.01399993896484,42.43838925,-71.66911588,50.2999992370605,2012-01-08 13:00:31
0.985000133514404,42.43838925,-71.66911588,50.2999992370605,2012-01-08 13:00:32
1.00099992752075,42.43838926,-71.66911587,50.2999992370605,2012-01-08 13:00:33
1.00300002098083,42.43838926,-71.66911587,50.2999992370605,2012-01-08 13:00:34
0.999000072479248,42.43838926,-71.66911587,50.2999992370605,2012-01-08 13:00:35
0.991999864578247,42.43838926,-71.66911587,50.2999992370605,2012-01-08 13:00:36
1.01099991798401,42.43838926,-71.66911587,50.2999992370605,2012-01-08 13:00:37
0.996000051498413,42.43838926,-71.66911586,50.2999992370605,2012-01-08 13:00:38
1.09400010108948,42.43838926,-71.66911586,50.2999992370605,2012-01-08 13:00:39
0.98799991607666,42.43838926,-71.66911586,50.2999992370605,2012-01-08 13:00:40
0.942000150680542,42.43838926,-71.66911586,50.2999992370605,2012-01-08 13:00:41
0.744999885559082,42.43838925,-71.66911587,50.2999992370605,2012-01-08 13:00:41
1.00200009346008,42.43838925,-71.66911586,50.2999992370605,2012-01-08 13:00:42
0.997999906539917,42.43838925,-71.66911587,50.2999992370605,2012-01-08 13:00:43
0.994999885559082,42.43838924,-71.66911587,50.2999992370605,2012-01-08 13:00:44
1.00600004196167,42.43838924,-71.66911587,50.2999992370605,2012-01-08 13:00:45
0.993000030517578,42.43838925,-71.66911586,50.2999992370605,2012-01-08 13:00:46
1.0239999294281,42.43838925,-71.66911586,50.2999992370605,2012-01-08 13:00:47
0.989000082015991,42.43838925,-71.66911586,50.2999992370605,2012-01-08 13:00:48
0.996999979019165,42.43838925,-71.66911586,50.2999992370605,2012-01-08 13:00:49
1,42.43838924,-71.66911587,50.2999992370605,2012-01-08 13:00:50
0.992000102996826,42.43838924,-71.66911586,50.2999992370605,2012-01-08 13:00:51
1,42.43838923,-71.66911587,50.2999992370605,2012-01-08 13:00:52
1.05099987983704,42.43838923,-71.66911587,50.2999992370605,2012-01-08 13:00:53
0.950000047683716,42.43838922,-71.66911587,50.2999992370605,2012-01-08 13:00:54
1,42.43838922,-71.66911587,50.2999992370605,2012-01-08 13:00:55
1.00300002098083,42.43838922,-71.66911587,50.2999992370605,2012-01-08 13:00:56
0.996999979019165,42.43838922,-71.66911587,50.2999992370605,2012-01-08 13:00:57
0.996000051498413,42.43838922,-71.66911587,50.2999992370605,2012-01-08 13:00:58
1.00399994850159,42.43838922,-71.66911587,50.2999992370605,2012-01-08 13:00:59
1.13199996948242,42.43838922,-71.66911587,50.2999992370605,2012-01-08 13:01:00
0.934000015258789,42.43838922,-71.66911587,50.2999992370605,2012-01-08 13:01:01
0.934999942779541,42.43838922,-71.66911587,50.2999992370605,2012-01-08 13:01:02
0.999000072479248,42.43838922,-71.66911586,50.2999992370605,2012-01-08 13:01:03
1.00500011444092,42.43838921,-71.66911586,50.2999992370605,2012-01-08 13:01:04
1.0019998550415,42.43838921,-71.66911586,50.2999992370605,2012-01-08 13:01:05
0.995000123977661,42.43838921,-71.66911586,50.2999992370605,2012-01-08 13:01:06
1.07399988174438,42.4383892,-71.66911586,50.2999992370605,2012-01-08 13:01:07
0.965000152587891,42.4383892,-71.66911586,50.2999992370605,2012-01-08 13:01:08
0.961999893188477,42.4383892,-71.66911586,50.2999992370605,2012-01-08 13:01:09
1.03399991989136,42.4383892,-71.66911585,50.2999992370605,2012-01-08 13:01:10
0.959000110626221,42.4383892,-71.66911586,50.2999992370605,2012-01-08 13:01:11
1.00699996948242,42.43838919,-71.66911586,50.2999992370605,2012-01-08 13:01:12
1.10400009155273,42.43838919,-71.66911586,50.2999992370605,2012-01-08 13:01:13
0.919999837875366,42.43838919,-71.66911586,50.2999992370605,2012-01-08 13:01:14
0.970000028610229,42.43838919,-71.66911586,50.2999992370605,2012-01-08 13:01:15
1.0239999294281,42.43838919,-71.66911586,50.2999992370605,2012-01-08 13:01:16
0.994000196456909,42.43838919,-71.66911586,50.2999992370605,2012-01-08 13:01:17
0.982999801635742,42.43838918,-71.66911586,50.2999992370605,2012-01-08 13:01:18
1.00600004196167,42.43838917,-71.66911586,50.2999992370605,2012-01-08 13:01:19
1.11400008201599,42.43838917,-71.66911587,50.2999992370605,2012-01-08 13:01:20
0.963000059127808,42.43838916,-71.66911587,50.2999992370605,2012-01-08 13:01:21
0.96399998664856,42.43838916,-71.66911587,50.2999992370605,2012-01-08 13:01:22
0.95799994468689,42.43838916,-71.66911588,50.2999992370605,2012-01-08 13:01:23
1.01500010490417,42.43838915,-71.66911588,50.2999992370605,2012-01-08 13:01:24
0.988999843597412,42.43838915,-71.66911588,50.2999992370605,2012-01-08 13:01:25
0.990000009536743,42.43838915,-71.66911588,50.2999992370605,2012-01-08 13:01:26
1.00300002098083,42.43838915,-71.66911588,50.2999992370605,2012-01-08 13:01:27
1.10400009155273,42.43838915,-71.66911588,50.2999992370605,2012-01-08 13:01:28
0.947999954223633,42.43838915,-71.66911588,50.2999992370605,2012-01-08 13:01:29
0.94599986076355,42.43838915,-71.66911588,50.2999992370605,2012-01-08 13:01:30
1.03700017929077,42.43838915,-71.66911588,50.2999992370605,2012-01-08 13:01:31
0.976999998092651,42.43838915,-71.66911588,50.2999992370605,2012-01-08 13:01:32
0.99399995803833,42.43838915,-71.66911588,50.2999992370605,2012-01-08 13:01:33
1.00499987602234,42.43838914,-71.66911589,50.2999992370605,2012-01-08 13:01:34
0.992000102996826,42.43838914,-71.66911589,50.2999992370605,2012-01-08 13:01:35
1.00799989700317,42.43838914,-71.66911589,50.2999992370605,2012-01-08 13:01:36
0.999000072479248,42.43838914,-71.66911588,50.2999992370605,2012-01-08 13:01:37
1.09800004959106,42.43838913,-71.6691159,50.2999992370605,2012-01-08 13:01:38
0.924000024795532,42.43838913,-71.66911591,50.2999992370605,2012-01-08 13:01:39
0.978999853134155,42.43838915,-71.66911592,50.2999992370605,2012-01-08 13:01:40
0.991000175476074,42.43838915,-71.66911593,50.2999992370605,2012-01-08 13:01:41
1.00300002098083,42.43838915,-71.66911592,50.2999992370605,2012-01-08 13:01:42
1,42.43838915,-71.66911593,50.2999992370605,2012-01-08 13:01:43
0.998999834060669,42.43838916,-71.66911593,50.2999992370605,2012-01-08 13:01:44
1.11300015449524,42.43838917,-71.66911593,50.2999992370605,2012-01-08 13:01:45
0.947999954223633,42.43838918,-71.66911594,50.4000015258789,2012-01-08 13:01:46
0.964999914169312,42.43838919,-71.66911595,50.4000015258789,2012-01-08 13:01:47
0.983000040054321,42.4383892,-71.66911596,50.4000015258789,2012-01-08 13:01:48
0.986999988555908,42.4383892,-71.66911596,50.4000015258789,2012-01-08 13:01:49
1.00300002098083,42.43838921,-71.66911597,50.4000015258789,2012-01-08 13:01:50
1.00099992752075,42.4383892,-71.66911598,50.4000015258789,2012-01-08 13:01:51
0.998000144958496,42.4383892,-71.66911598,50.4000015258789,2012-01-08 13:01:52
1.08200001716614,42.4383892,-71.66911599,50.4000015258789,2012-01-08 13:01:53
0.94599986076355,42.43838919,-71.669116,50.4000015258789,2012-01-08 13:01:54
0.983999967575073,42.43838919,-71.66911601,50.4000015258789,2012-01-08 13:01:55
0.993000030517578,42.43838918,-71.66911601,50.4000015258789,2012-01-08 13:01:56
0.996000051498413,42.43838917,-71.66911601,50.4000015258789,2012-01-08 13:01:57
0.996999979019165,42.43838915,-71.66911602,50.4000015258789,2012-01-08 13:01:58
1.00399994850159,42.43838914,-71.66911602,50.4000015258789,2012-01-08 13:01:59
0.996999979019165,42.43838915,-71.66911602,50.4000015258789,2012-01-08 13:02:00
0.996999979019165,42.43838915,-71.66911602,50.4000015258789,2012-01-08 13:02:01
1.0860002040863,42.43838915,-71.66911602,50.4000015258789,2012-01-08 13:02:02
0.960999965667725,42.43838915,-71.66911602,50.4000015258789,2012-01-08 13:02:03
0.948999881744385,42.43838917,-71.66911602,50.4000015258789,2012-01-08 13:02:04
1.04800009727478,42.43838917,-71.66911602,50.4000015258789,2012-01-08 13:02:05
0.960999965667725,42.43838917,-71.66911604,50.4000015258789,2012-01-08 13:02:06
1.00099992752075,42.43838916,-71.66911603,50.4000015258789,2012-01-08 13:02:07
0.998000144958496,42.43838915,-71.66911602,50.4000015258789,2012-01-08 13:02:08
0.998999834060669,42.43838915,-71.66911602,50.4000015258789,2012-01-08 13:02:09
1.04900002479553,42.43838915,-71.66911601,50.4000015258789,2012-01-08 13:02:10
0.96399998664856,42.43838914,-71.66911602,50.4000015258789,2012-01-08 13:02:11
0.988000154495239,42.43838915,-71.669116,50.4000015258789,2012-01-08 13:02:12
1.01600003242493,42.43838913,-71.66911598,50.4000015258789,2012-01-08 13:02:13
0.97599983215332,42.43838914,-71.66911597,50.4000015258789,2012-01-08 13:02:14
1.03999996185303,42.43838914,-71.66911597,50.4000015258789,2012-01-08 13:02:15
0.960000038146973,42.43838914,-71.66911599,50.4000015258789,2012-01-08 13:02:16
0.999000072479248,42.43838912,-71.66911599,50.4000015258789,2012-01-08 13:02:17
1.00099992752075,42.43838911,-71.66911601,50.4000015258789,2012-01-08 13:02:18
1.09300017356873,42.43838911,-71.66911601,50.4000015258789,2012-01-08 13:02:19
1,42.43838911,-71.66911601,50.4000015258789,2012-01-08 13:02:20
0.949999809265137,42.43838911,-71.66911601,50.4000015258789,2012-01-08 13:02:21
0.981000185012817,42.43838911,-71.66911601,50.4000015258789,2012-01-08 13:02:22
0.984999895095825,42.43838911,-71.66911601,50.4000015258789,2012-01-08 13:02:23
0.99399995803833,42.43838911,-71.66911602,50.4000015258789,2012-01-08 13:02:24
1,42.43838911,-71.66911602,50.4000015258789,2012-01-08 13:02:25
1.00500011444092,42.43838911,-71.66911602,50.4000015258789,2012-01-08 13:02:26
1.09699988365173,42.43838911,-71.66911602,50.4000015258789,2012-01-08 13:02:27
0.914000034332275,42.43838911,-71.66911602,50.4000015258789,2012-01-08 13:02:28
0.984999895095825,42.43838911,-71.66911602,50.4000015258789,2012-01-08 13:02:29
1.00200009346008,42.43838911,-71.66911602,50.4000015258789,2012-01-08 13:02:30
0.999000072479248,42.4383891,-71.66911603,50.4000015258789,2012-01-08 13:02:31
1.0019998550415,42.4383891,-71.66911603,50.4000015258789,2012-01-08 13:02:32
0.995000123977661,42.43838912,-71.66911604,50.4000015258789,2012-01-08 13:02:33
1.01099991798401,42.4383891,-71.66911608,50.4000015258789,2012-01-08 13:02:34
1.02800011634827,42.43838908,-71.66911608,50.4000015258789,2012-01-08 13:02:35
0.997999906539917,42.43838905,-71.66911612,50.4000015258789,2012-01-08 13:02:36
0.98799991607666,42.43838905,-71.66911612,50.4000015258789,2012-01-08 13:02:37
1.22100019454956,42.43838903,-71.66911613,50.4000015258789,2012-01-08 13:02:39
0.993000030517578,42.43838903,-71.66911613,50.4000015258789,2012-01-08 13:02:40
0.997999906539917,42.43838904,-71.66911614,50.4000015258789,2012-01-08 13:02:41
1,42.43838905,-71.66911616,50.4000015258789,2012-01-08 13:02:42
1,42.43838905,-71.66911616,50.4000015258789,2012-01-08 13:02:43
1.14400005340576,42.43838904,-71.66911615,50.4000015258789,2012-01-08 13:02:44
1.0479998588562,42.43838904,-71.66911615,50.4000015258789,2012-01-08 13:02:45
0.815999984741211,42.43838904,-71.66911615,50.4000015258789,2012-01-08 13:02:46
1.04900002479553,42.43838904,-71.66911616,50.4000015258789,2012-01-08 13:02:47
0.937000036239624,42.43838904,-71.66911617,50.4000015258789,2012-01-08 13:02:48
1.00999999046326,42.43838904,-71.66911617,50.4000015258789,2012-01-08 13:02:49
1,42.43838904,-71.66911617,50.4000015258789,2012-01-08 13:02:50
1.00300002098083,42.43838904,-71.66911617,50.4000015258789,2012-01-08 13:02:51
1.00099992752075,42.43838904,-71.66911617,50.4000015258789,2012-01-08 13:02:52
1,42.43838904,-71.66911617,50.4000015258789,2012-01-08 13:02:53
1.03500008583069,42.43838904,-71.66911617,50.4000015258789,2012-01-08 13:02:54
0.971999883651733,42.43838904,-71.66911617,50.4000015258789,2012-01-08 13:02:55
0.992000102996826,42.43838904,-71.66911617,50.4000015258789,2012-01-08 13:02:56
1.00200009346008,42.43838904,-71.66911618,50.4000015258789,2012-01-08 13:02:57
0.99399995803833,42.43838904,-71.66911618,50.4000015258789,2012-01-08 13:02:58
1.0019998550415,42.43838905,-71.6691162,50.4000015258789,2012-01-08 13:02:59
1.00800013542175,42.43838905,-71.66911619,50.4000015258789,2012-01-08 13:03:00
1.14100003242493,42.43838905,-71.66911619,50.4000015258789,2012-01-08 13:03:01
0.916999816894531,42.43838908,-71.66911619,50.4000015258789,2012-01-08 13:03:02
0.938000202178955,42.4383891,-71.66911619,50.4000015258789,2012-01-08 13:03:03
1.00599980354309,42.4383891,-71.6691162,50.4000015258789,2012-01-08 13:03:04
0.989000082015991,42.43838909,-71.66911621,50.4000015258789,2012-01-08 13:03:05
0.999000072479248,42.43838909,-71.66911621,50.4000015258789,2012-01-08 13:03:06
0.996999979019165,42.43838912,-71.66911622,50.4000015258789,2012-01-08 13:03:07
1.10500001907349,42.43838912,-71.66911622,50.4000015258789,2012-01-08 13:03:08
0.928999900817871,42.4383891,-71.66911624,50.4000015258789,2012-01-08 13:03:09
1.01100015640259,42.43838909,-71.66911622,50.4000015258789,2012-01-08 13:03:10
0.991999864578247,42.43838908,-71.66911622,50.4000015258789,2012-01-08 13:03:11
0.966000080108643,42.43838907,-71.66911622,50.4000015258789,2012-01-08 13:03:12
1,42.43838907,-71.66911622,50.4000015258789,2012-01-08 13:03:13
1,42.43838907,-71.66911623,50.4000015258789,2012-01-08 13:03:14
1.00600004196167,42.43838908,-71.66911622,50.4000015258789,2012-01-08 13:03:15
0.143999814987183,42.43838908,-71.66911623,50.4000015258789,2012-01-08 13:03:15
0.995000123977661,42.43838908,-71.66911623,50.4000015258789,2012-01-08 13:03:16
0.983999967575073,42.43838907,-71.66911623,50.4000015258789,2012-01-08 13:03:17
0.986000061035156,42.43838906,-71.66911624,50.4000015258789,2012-01-08 13:03:18
1.0019998550415,42.43838906,-71.66911624,50.4000015258789,2012-01-08 13:03:19
1.01300001144409,42.43838906,-71.66911624,50.4000015258789,2012-01-08 13:03:20
1.08599996566772,42.43838906,-71.66911624,50.4000015258789,2012-01-08 13:03:21
0.896000146865845,42.43838906,-71.66911624,50.4000015258789,2012-01-08 13:03:22
1.00300002098083,42.43838906,-71.66911624,50.4000015258789,2012-01-08 13:03:23
1.04999995231628,42.43838906,-71.66911624,50.4000015258789,2012-01-08 13:03:24
0.956000089645386,42.43838906,-71.66911624,50.4000015258789,2012-01-08 13:03:25
0.990000009536743,42.43838906,-71.66911624,50.4000015258789,2012-01-08 13:03:26
1.00899982452393,42.43838905,-71.66911624,50.4000015258789,2012-01-08 13:03:27
0.992000102996826,42.43838906,-71.66911624,50.4000015258789,2012-01-08 13:03:28
1,42.43838906,-71.66911623,50.4000015258789,2012-01-08 13:03:29
