"diffSecs","level","azimuth.mean","azimuth.absolute.deviation","azimuth.standard.deviation","azimuth.max.deviation","pitch.mean","pitch.absolute.deviation","pitch.standard.deviation","pitch.max.deviation","roll.mean","roll.absolute.deviation","roll.standard.deviation","roll.max.deviation","time"
1.01900005340576,14,-66.1714324951172,2.60408210754395,2.98315048217773,4.87143039703369,23.3428573608398,3.66530609130859,4.05704212188721,6.64285707473755,17.4785709381104,0.824489653110504,1.0255161523819,2.57857131958008,2012-01-11 15:45:22
1.01399993896484,49,-67.7959213256836,2.71895027160645,2.9675772190094,5.29591989517212,13.5142860412598,2.60000014305115,3.06494331359863,8.7142858505249,11.4897956848145,4.14310693740845,4.64798593521118,7.18979597091675,2012-01-11 15:45:23
