"diffSecs","N.samples","x.mean","x.absolute.deviation","x.standard.deviation","x.max.deviation","x.PSD.1","x.PSD.3","x.PSD.6","x.PSD.10","y.mean","y.absolute.deviation","y.standard.deviation","y.max.deviation","y.PSD.1","y.PSD.3","y.PSD.6","y.PSD.10","z.mean","z.absolute.deviation","z.standard.deviation","z.max.deviation","z.PSD.1","z.PSD.3","z.PSD.6","z.PSD.10","time"
6.51000022888184,35,-7.79040241241455,0.0184925086796284,0.0235825721174479,0.0549171455204487,0.00190119468607008,0.00710338912904263,0.0183010045439005,0.0279638897627592,4.92125701904297,0.0331904478371143,0.0399542786180973,0.0997474640607834,0.00386184616945684,0.0453935973346233,0.0700298920273781,0.0662053823471069,2.65115761756897,0.0430691726505756,0.0508727990090847,0.10451091080904,0.00996488891541958,0.0614451393485069,0.123711943626404,0.0930921658873558,2012-01-18 15:18:06
0.878999948501587,99,-7.75735712051392,0.0189588908106089,0.0251456275582314,0.0787502378225327,0.0311375465244055,0.191718921065331,0.16734454035759,0.100543811917305,4.92799043655396,0.0237076561897993,0.0294484738260508,0.0736987739801407,0.0414282344281673,0.257424294948578,0.198307409882545,0.0803020521998405,2.69672966003418,0.0359687358140945,0.043601106852293,0.107773989439011,0.375044405460358,0.252961933612823,0.29063469171524,0.146230295300484,2012-01-18 15:18:07
0.664000034332275,99,-7.75606966018677,0.0284183230251074,0.033727090805769,0.079443633556366,0.0351682156324387,0.389508634805679,0.308130919933319,0.0354895070195198,4.92680168151855,0.0398809798061848,0.0505994856357574,0.190189644694328,0.000116911382065155,0.604416787624359,0.629116714000702,0.185323387384415,2.67810678482056,0.0369933173060417,0.0459569282829762,0.116788268089294,0.0788988173007965,0.280428171157837,0.617656111717224,0.176294550299644,2012-01-18 15:18:08
1.01199984550476,72,-7.74752569198608,0.0210358332842588,0.0266554988920689,0.0683740228414536,0.00304814707487822,0.0474641732871532,0.11300877481699,0.0465666465461254,4.92729663848877,0.0354431979358196,0.0431161448359489,0.093707911670208,0.216126158833504,0.479816973209381,0.52372419834137,0.0599236935377121,2.74409127235413,0.049218662083149,0.0625443980097771,0.148870453238487,0.555680096149445,1.83653283119202,0.263729453086853,0.187629908323288,2012-01-18 15:18:09
1,55,-7.76544046401978,0.0181609112769365,0.0236853808164597,0.0700728520750999,0.0413058884441853,0.0623680651187897,0.0455688461661339,0.0696992725133896,4.92614793777466,0.0356022194027901,0.042358111590147,0.0850503370165825,0.00754178641363978,0.240779727697372,0.247466415166855,0.171162873506546,2.75245904922485,0.044037539511919,0.0520955286920071,0.114470310509205,0.0915671586990356,0.414785921573639,0.205907240509987,0.132448345422745,2012-01-18 15:18:10
1.01500010490417,55,-7.74386548995972,0.0205793511122465,0.0273704640567303,0.0848724171519279,0.00288625434041023,0.121204555034637,0.0347327142953873,0.0398992672562599,4.89494466781616,0.0279903747141361,0.0340442694723606,0.0896864682435989,0.025290222838521,0.195617735385895,0.0563703291118145,0.0173997934907675,2.75834321975708,0.0251892898231745,0.0304683707654476,0.0811278149485588,0.00177339313086122,0.109055936336517,0.104076579213142,0.0909128338098526,2012-01-18 15:18:11
1.00999999046326,49,-7.73684644699097,0.0157984402030706,0.0179854780435562,0.039826937019825,0.0139891039580107,0.0097823953256011,0.0493119619786739,0.0195206254720688,4.91113042831421,0.0247759893536568,0.0289817191660404,0.0608411990106106,0.00814575050026178,0.0584091246128082,0.0327062718570232,0.0572812892496586,2.77167940139771,0.0268916673958302,0.0329561792314053,0.0722488760948181,0.000898138503544033,0.0162306055426598,0.217830032110214,0.130370661616325,2012-01-18 15:18:12
1.0019998550415,41,-7.7448616027832,0.0201383084058762,0.0233056209981441,0.0564479380846024,0.0156571418046951,0.0222561899572611,0.0227117519825697,0.0385943986475468,4.91863298416138,0.0240236967802048,0.0303268115967512,0.0741481184959412,0.00577084580436349,0.00421327073127031,0.027647627517581,0.0628311932086945,2.78197908401489,0.0288190543651581,0.0384681597352028,0.0949571207165718,0.000313015945721418,0.0262605063617229,0.0302743036299944,0.0752823054790497,2012-01-18 15:18:13
1.01400017738342,37,-7.70537614822388,0.0235388819128275,0.0265548583120108,0.0463831089437008,0.00220436346717179,0.0036226415541023,0.0136796552687883,0.0371478758752346,4.92532348632812,0.0271062050014734,0.0371441543102264,0.110258772969246,0.00468927063047886,0.0103326216340065,0.0108593748882413,0.0383150167763233,2.7434766292572,0.0225932747125626,0.0273985099047422,0.0760678499937057,0.00402994314208627,0.0223693028092384,0.0535539723932743,0.0283278990536928,2012-01-18 15:18:14
1.00699996948242,30,-7.74921464920044,0.0196132659912109,0.0244707763195038,0.0509944930672646,0.00919107440859079,0.0151037545874715,0.00888394564390182,0.000429051171522588,4.90953588485718,0.0255190972238779,0.0324740596115589,0.0722422748804092,0.00272027356550097,0.00734908832237124,0.0210139416158199,0.00545825948938727,2.79424142837524,0.0534789338707924,0.0630953907966614,0.118333570659161,0.0116623463109136,0.034049391746521,0.100501671433449,0.0273238979279995,2012-01-18 15:18:15
1.01699995994568,53,-7.72930526733398,0.0221687965095043,0.0266521666198969,0.0605055429041386,0.0534934848546982,0.0542182959616184,0.0227543376386166,0.108823642134666,4.91313171386719,0.0225738156586885,0.0263278260827065,0.0490332171320915,8.21262631234276e-07,0.0190824083983898,0.0551182776689529,0.0741997137665749,2.74808239936829,0.0365593582391739,0.0470365025103092,0.105652667582035,0.050918135792017,0.750351428985596,0.540991842746735,0.0960494950413704,2012-01-18 15:18:16
1.00600004196167,44,-7.72741746902466,0.025661401450634,0.0320162512362003,0.0782306268811226,0.00573639804497361,0.0386489816009998,0.11163341999054,0.0130226025357842,4.90555381774902,0.0157635789364576,0.0205773878842592,0.0566110499203205,0.00743371667340398,0.0195826999843121,0.012278376147151,0.0635119751095772,2.77706480026245,0.0365520268678665,0.0450985878705978,0.0962835624814034,0.15848334133625,0.263006836175919,0.11759714782238,0.0316244475543499,2012-01-18 15:18:17
1.01900005340576,33,-7.73061180114746,0.0129314279183745,0.0164601448923349,0.0421982407569885,5.57751773158088e-05,0.00367108127102256,0.00992369744926691,0.0014440284576267,4.92293834686279,0.0196133218705654,0.0258897729218006,0.049033597111702,0.000667445885483176,0.00167373917065561,0.0102958157658577,0.00404834980145097,2.80826783180237,0.0290146730840206,0.0330862030386925,0.0552739799022675,0.00415138620883226,0.00871821772307158,0.0178136266767979,0.0159634742885828,2012-01-18 15:18:18
1.01599979400635,41,-7.75227642059326,0.0214100796729326,0.026537811383605,0.0636235177516937,0.00110964733175933,0.019787160679698,0.101719960570335,0.0561850257217884,4.91002225875854,0.0218651574105024,0.0305110979825258,0.0851507037878036,0.00512898620218039,0.0666933283209801,0.0599108561873436,0.0506797581911087,2.74801468849182,0.0408950634300709,0.0513700172305107,0.125333860516548,0.019789258018136,0.0985903441905975,0.210290670394897,0.111004054546356,2012-01-18 15:18:19
1,39,-7.74549341201782,0.0217409376055002,0.0264515206217766,0.0507933311164379,0.0183377470821142,0.0350099354982376,0.0183189623057842,0.00266208359971642,4.9186635017395,0.0248486492782831,0.0310744754970074,0.0631145089864731,0.00462879985570908,0.00673977332189679,0.0101497443392873,0.012018802575767,2.80118155479431,0.024913115426898,0.0322957299649715,0.0945462360978127,0.0161972474306822,0.0316575355827808,0.013055675663054,0.00224391650408506,2012-01-18 15:18:20
1.00100016593933,37,-7.7361216545105,0.0247565694153309,0.0309410225600004,0.0699716657400131,0.00680897803977132,0.013953497633338,0.0259716156870127,0.0390397943556309,4.92399835586548,0.0198711659759283,0.0263716168701649,0.0697070583701134,0.00346758449450135,0.0200974866747856,0.0260872654616833,0.00788942724466324,2.79807567596436,0.0435675755143166,0.0529359765350819,0.120860360562801,0.00711763650178909,0.0540215224027634,0.100529283285141,0.052336934953928,2012-01-18 15:18:21
1,36,-7.70884418487549,0.0165260508656502,0.021482253447175,0.049850806593895,0.0124358339235187,0.0121696833521128,0.0058880764991045,0.00550352223217487,4.9068660736084,0.0207180585712194,0.0277521330863237,0.0651051998138428,0.0199313927441835,0.050153624266386,0.0725043788552284,0.0219470821321011,2.79217100143433,0.0429494716227055,0.0537436157464981,0.124762400984764,0.0123640215024352,0.128456637263298,0.309562504291534,0.13642044365406,2012-01-18 15:18:22
1.01799988746643,39,-7.73493242263794,0.0105094090104103,0.0132722901180387,0.036712009459734,3.91306057281327e-05,0.000395092210965231,0.00209103291854262,0.00917642749845982,4.92218399047852,0.0415864363312721,0.0499246492981911,0.0875057056546211,0.0587014779448509,0.105153486132622,0.121104881167412,0.0937709212303162,2.76673245429993,0.0248744264245033,0.032652024179697,0.0771958157420158,0.0023930633906275,0.015052180737257,0.0106459194794297,0.0155270099639893,2012-01-18 15:18:23
1.01999998092651,37,-7.74566316604614,0.022048806771636,0.0262460615485907,0.0604300610721111,0.00361586851067841,0.00907421857118607,0.0433647558093071,0.0109165851026773,4.93168497085571,0.0245273429900408,0.0327069461345673,0.0893198847770691,0.0147068137302995,0.0297067370265722,0.0649903491139412,0.0594691373407841,2.75937914848328,0.0338970348238945,0.0415655449032784,0.0845491215586662,0.0311165954917669,0.0530329346656799,0.041233628988266,0.00434262584894896,2012-01-18 15:18:24
1.00100016593933,36,-7.7382640838623,0.0335514359176159,0.042832039296627,0.0972491502761841,0.014196933247149,0.043088972568512,0.0572291873395443,0.0339504927396774,4.9019627571106,0.0283606853336096,0.0340618789196014,0.0672847554087639,0.0143490023910999,0.0215319376438856,0.0137131726369262,0.0372363738715649,2.75784778594971,0.024879802018404,0.0295206364244223,0.0664671957492828,0.0262442845851183,0.0468145310878754,0.0257499236613512,0.0130706094205379,2012-01-18 15:18:25
1.00799989700317,29,-7.73068380355835,0.0252103935927153,0.0297119095921516,0.0557963587343693,0.00665511470288038,0.0106039503589272,0.00521595869213343,0.00216017058119178,4.92226219177246,0.0191935487091541,0.0261282864958048,0.0679705366492271,0.00884843524545431,0.0123674618080258,0.00324857095256448,0.00144249992445111,2.78914642333984,0.0298513770103455,0.0386746525764465,0.0923178270459175,0.00989450514316559,0.0191237553954124,0.0182726960629225,0.00882099289447069,2012-01-18 15:18:26
1.07400012016296,40,-7.74014377593994,0.0309154111891985,0.0368882939219475,0.0855628699064255,0.0998853072524071,0.180610358715057,0.10235595703125,0.0166415926069021,4.90749263763428,0.0199197493493557,0.0239096991717815,0.0546720139682293,0.0280329007655382,0.038852121680975,0.00626585027202964,0.0112573625519872,2.78484344482422,0.0331464409828186,0.0401046983897686,0.0880147516727448,0.00770089263096452,0.0438574403524399,0.130754709243774,0.0727830827236176,2012-01-18 15:18:27
1.10699987411499,39,-7.72562837600708,0.0176532287150621,0.0218922253698111,0.0470215491950512,0.00674427393823862,0.0227401535958052,0.0315329469740391,0.0136129437014461,4.90835428237915,0.0197551436722279,0.0254054367542267,0.0734240561723709,0.0015303217805922,0.00633269734680653,0.0385858900845051,0.0402788333594799,2.77704215049744,0.0296455658972263,0.0354538708925247,0.0704068318009377,0.0134952962398529,0.0102844703942537,0.00529547873884439,0.0702688321471214,2012-01-18 15:18:28
1.05900001525879,42,-7.73581218719482,0.0173561833798885,0.0198357664048672,0.0375920943915844,0.0336867421865463,0.0539917647838593,0.048610083758831,0.00569102913141251,4.92293834686279,0.0420284792780876,0.056780219078064,0.176519468426704,0.000734998320695013,0.0405911654233932,0.0804363861680031,0.0438777804374695,2.7939612865448,0.0399159267544746,0.0487902499735355,0.116745866835117,0.000106417886854615,0.112140536308289,0.0625108182430267,0.0636254251003265,2012-01-18 15:18:29
1.1029999256134,39,-7.729651927948,0.0169568993151188,0.0196358188986778,0.0372149161994457,0.00491934455931187,0.00568189192563295,0.00293164933100343,0.00782046653330326,4.88698053359985,0.0192781668156385,0.0234325025230646,0.052302323281765,0.00861373730003834,0.0137873683124781,0.0041223019361496,0.00949022546410561,2.8074676990509,0.027337359264493,0.0316370353102684,0.0616057701408863,0.000584223540499806,0.0243277698755264,0.0673729330301285,0.0276611987501383,2012-01-18 15:18:30
1.18700003623962,42,-7.72904109954834,0.0208141170442104,0.0266057942062616,0.0700478181242943,0.0193295422941446,0.0288603045046329,0.0385939255356789,0.0183017048984766,4.93181085586548,0.0332002677023411,0.0392154715955257,0.0793870612978935,0.00354313803836703,0.0214849468320608,0.0678511410951614,0.135285243391991,2.82641649246216,0.0352572314441204,0.0459243021905422,0.105771727859974,0.0563070699572563,0.110692746937275,0.107589721679688,0.0750701874494553,2012-01-18 15:18:31
1.07500004768372,39,-7.76535797119141,0.0286268573254347,0.0350105874240398,0.070155143737793,0.0208981782197952,0.0505649633705616,0.0236390382051468,0.0154005596414208,4.91388607025146,0.0249905362725258,0.0310419984161854,0.0595945566892624,0.0336782038211823,0.0581780150532722,0.0652590394020081,0.0272884294390678,2.74133586883545,0.0389171354472637,0.0501444824039936,0.13201268017292,0.113224782049656,0.230180665850639,0.297983705997467,0.0426005385816097,2012-01-18 15:18:32
1.0550000667572,38,-7.74209213256836,0.0314844772219658,0.0372908413410187,0.0830987617373466,0.0120765753090382,0.0506553053855896,0.0939115732908249,0.0365749560296535,4.88371181488037,0.0263233035802841,0.0305179227143526,0.0686466470360756,0.00947791244834661,0.035129152238369,0.0960694998502731,0.0294716712087393,2.79076600074768,0.0309683326631784,0.0380230285227299,0.0923890396952629,0.0517834052443504,0.109542332589626,0.0856985375285149,0.0304707232862711,2012-01-18 15:18:33
1.05399990081787,40,-7.71636247634888,0.0279489513486624,0.0334398336708546,0.0799241065979004,0.0152474045753479,0.0327291376888752,0.039707213640213,0.0118600390851498,4.92808675765991,0.0394227802753448,0.0468768700957298,0.0934085622429848,0.0588775090873241,0.0591067858040333,0.0313372164964676,0.0449529439210892,2.80102443695068,0.0338329188525677,0.042672298848629,0.111550658941269,0.0320960655808449,0.0663420185446739,0.0435474775731564,0.0179953444749117,2012-01-18 15:18:34
1.07599997520447,40,-7.69969129562378,0.0239528007805347,0.0288881380110979,0.0701178088784218,0.000152035339851864,0.0174407921731472,0.0714523792266846,0.0184644907712936,4.91043472290039,0.0178113523870707,0.0218170937150717,0.0463367700576782,0.000784332572948188,0.00262384326197207,0.0202239248901606,0.012129046022892,2.82431507110596,0.0235359240323305,0.0291737113147974,0.0686464384198189,0.00229793787002563,0.0312526077032089,0.0238870363682508,0.0347295925021172,2012-01-18 15:18:36
1.08000016212463,40,-7.71758842468262,0.0203610472381115,0.0239699501544237,0.0585950836539268,0.0167685989290476,0.0393112860620022,0.015203021466732,0.043915182352066,4.88076972961426,0.0257916804403067,0.0332705527544022,0.0813952684402466,0.0307655446231365,0.072987787425518,0.0737262964248657,0.065656878054142,2.84417366981506,0.0361007712781429,0.0444819889962673,0.0786983147263527,0.00817030761390924,0.0648072734475136,0.15515361726284,0.119753308594227,2012-01-18 15:18:37
1.05099987983704,35,-7.72371768951416,0.015354385599494,0.0197806656360626,0.0529558174312115,0.00369667867198586,0.00513407494872808,0.00287131499499083,0.00403650151565671,4.87642669677734,0.0226395409554243,0.0284556392580271,0.0613616928458214,0.0322506092488766,0.0528112165629864,0.0212071109563112,0.00559555646032095,2.87054657936096,0.0188928637653589,0.0244264397770166,0.0714484006166458,0.00258852285332978,0.00573109462857246,0.00714285066351295,0.00589377619326115,2012-01-18 15:18:38
1.00799989700317,37,-7.69291925430298,0.0229372084140778,0.0304698515683413,0.0739474520087242,0.0113675082102418,0.0527866668999195,0.0571283474564552,0.0613296031951904,4.89537382125854,0.0212895963340998,0.026179226115346,0.0508888214826584,5.12238293595146e-05,0.0170779898762703,0.0199115704745054,0.00864455569535494,2.87891435623169,0.0354014001786709,0.0397231355309486,0.082693874835968,0.00774094741791487,0.0142403058707714,0.0365394055843353,0.0550907626748085,2012-01-18 15:18:39
1.00300002098083,35,-7.73212337493896,0.0174998361617327,0.019938787445426,0.0437095649540424,6.20771606918424e-05,0.00155541813001037,0.00715091498568654,0.011448809877038,4.93078374862671,0.0180442053824663,0.0217142347246408,0.0470718368887901,0.0115403272211552,0.0251120217144489,0.0275518074631691,0.016495319083333,2.84869170188904,0.035704243928194,0.0431219823658466,0.083496630191803,0.0211341436952353,0.0498697534203529,0.0554727502167225,0.0757923871278763,2012-01-18 15:18:40
1.00999999046326,39,-7.72059965133667,0.0282013230025768,0.0324831008911133,0.0658804550766945,0.0251388698816299,0.0615539513528347,0.115975454449654,0.0264671668410301,4.90810251235962,0.0149453151971102,0.0202165693044662,0.0638688802719116,0.00322932982817292,0.00546112889423966,0.00217754184268415,0.00491391401737928,2.83311605453491,0.0347778238356113,0.0422410443425179,0.0892656743526459,0.00750464852899313,0.021656384691596,0.10779570043087,0.0853195562958717,2012-01-18 15:18:41
1.00800013542175,36,-7.72682285308838,0.0216563306748867,0.0269930213689804,0.0580230429768562,0.00205553113482893,0.00445337546989322,0.0125028695911169,0.00964829698204994,4.92402791976929,0.0231243036687374,0.0287566799670458,0.0599298737943172,0.0126292025670409,0.031057296320796,0.0813934355974197,0.0289546046406031,2.84556293487549,0.0276039522141218,0.0321532972157001,0.0670121535658836,0.0114752156659961,0.00905116833746433,0.0136069618165493,0.0246662311255932,2012-01-18 15:18:42
1.01600003242493,36,-7.71211290359497,0.025651678442955,0.0298146214336157,0.054753765463829,0.0180264916270971,0.0166428163647652,0.0274239294230938,0.0257346760481596,4.90169048309326,0.030782101675868,0.0376632697880268,0.0800876468420029,0.0502458699047565,0.0714903995394707,0.0250795148313046,0.0182686168700457,2.87280368804932,0.0365328267216682,0.0501080676913261,0.118224494159222,0.108794748783112,0.169713795185089,0.108246862888336,0.0644110292196274,2012-01-18 15:18:43
1.00399994850159,34,-7.71639156341553,0.0176112595945597,0.0234411433339119,0.0672047287225723,0.00856649875640869,0.0141492914408445,0.0209372546523809,0.00505812559276819,4.88428831100464,0.0156432799994946,0.019748717546463,0.0582631342113018,1.53691817104118e-05,0.000173731881659478,0.00247664237394929,0.00857787113636732,2.86440706253052,0.0373603217303753,0.0458967946469784,0.107007801532745,0.0034383344464004,0.03271159902215,0.0713421627879143,0.0410937815904617,2012-01-18 15:18:44
1.09200000762939,39,-7.70878124237061,0.016866659745574,0.0206405874341726,0.0595946051180363,0.00646758964285254,0.0122239608317614,0.0046991971321404,0.0148987881839275,4.89980459213257,0.0421538837254047,0.0529498159885406,0.121200121939182,0.174014493823051,0.190943777561188,0.0440526641905308,0.0378232859075069,2.87586283683777,0.0302388016134501,0.0390197560191154,0.0809677466750145,0.0125137642025948,0.0589922927320004,0.0264954101294279,0.0741235315799713,2012-01-18 15:18:45
1.05800008773804,40,-7.73229837417603,0.0141828432679176,0.0172646176069975,0.0443750135600567,0.00480715790763497,0.0144655350595713,0.0237181950360537,0.0128911258652806,4.90479612350464,0.027336061000824,0.036068681627512,0.0799244418740273,0.0293188933283091,0.0516337938606739,0.0199007950723171,0.0849355533719063,2.88952922821045,0.0460912473499775,0.0548449419438839,0.114247441291809,0.131030648946762,0.249261647462845,0.188547283411026,0.0438158437609673,2012-01-18 15:18:46
1.08799982070923,41,-7.70659160614014,0.0234753079712391,0.0281205028295517,0.057405099272728,0.000309424707666039,0.000266040296992287,0.0227844044566154,0.08421940356493,4.93346261978149,0.0179564747959375,0.0222353469580412,0.069364458322525,4.6508721425198e-06,0.0215897895395756,0.0215335469692945,0.00775843253359199,2.87286996841431,0.0321560464799404,0.0388632453978062,0.0877814888954163,0.0799349397420883,0.0988210365176201,0.0400302670896053,0.0370597392320633,2012-01-18 15:18:47
1.00200009346008,41,-7.71376752853394,0.0159262977540493,0.0199659578502178,0.0432926975190639,0.0180147159844637,0.0375373847782612,0.0412191152572632,0.00650229165330529,4.88084125518799,0.0175716672092676,0.0230490919202566,0.0617102421820164,0.0024303300306201,0.00279676099307835,0.0020776407327503,0.0140418503433466,2.87167406082153,0.029624180868268,0.0351856760680676,0.0767789110541344,0.019041620194912,0.0572915598750114,0.0906051248311996,0.0199360605329275,2012-01-18 15:18:48
1.00399994850159,37,-7.72286939620972,0.0168338846415281,0.0208493899554014,0.0439973250031471,0.000468501355499029,0.00471851928159595,0.0086406571790576,0.0154873356223106,4.90597534179688,0.0256162453442812,0.0337139219045639,0.0909105390310287,0.0718919783830643,0.106879986822605,0.0430054478347301,0.045737449079752,2.87202310562134,0.0290976352989674,0.0378206856548786,0.109198302030563,0.0599649734795094,0.122893132269382,0.145106002688408,0.042836245149374,2012-01-18 15:18:49
1.00699996948242,38,-7.73202753067017,0.0149408532306552,0.0189166720956564,0.0534203425049782,3.12111696985085e-05,0.0020331081468612,0.00690508401021361,0.00421137688681483,4.89687347412109,0.0265676695853472,0.0338426791131496,0.0916149765253067,0.00010831394320121,0.0496218539774418,0.0730721205472946,0.0182596445083618,2.91747832298279,0.0557430386543274,0.0658522844314575,0.161809682846069,0.0166037622839212,0.111556597054005,0.120896130800247,0.0606959797441959,2012-01-18 15:18:50
1.01200008392334,36,-7.71184062957764,0.0302674379199743,0.0399204231798649,0.0942527055740356,0.0249722450971603,0.0450143627822399,0.0260977577418089,0.006936130579561,4.88343906402588,0.0362302996218204,0.0420206151902676,0.088532343506813,0.000207598801353015,0.00967362895607948,0.0589767768979073,0.090058833360672,2.91393709182739,0.0333546884357929,0.0395083799958229,0.089621938765049,0.00544973835349083,0.00550050754100084,0.0405554175376892,0.0565386638045311,2012-01-18 15:18:51
1.00999999046326,39,-7.71456480026245,0.0251452382653952,0.0276780594140291,0.055571373552084,0.0210121236741543,0.0234855804592371,0.018049718812108,0.0190797727555037,4.9015645980835,0.0281369592994452,0.0353146269917488,0.0963065475225449,0.0111086005344987,0.020825769752264,0.0133117195218801,0.0301081221550703,2.90553426742554,0.0276210606098175,0.0352499932050705,0.0910258963704109,0.0067741209641099,0.0315856747329235,0.0321130901575089,0.0842192247509956,2012-01-18 15:18:52
1.01900005340576,35,-7.73212337493896,0.0178521052002907,0.0240605100989342,0.073129914700985,0.00609871884807944,0.00786065775901079,0.00236805598251522,0.00913711916655302,4.90108346939087,0.0196294132620096,0.0240312125533819,0.0467920154333115,0.012305605225265,0.0207532439380884,0.00971865095198154,0.00781949609518051,2.91285514831543,0.0255372729152441,0.0303381979465485,0.0585596077144146,4.36299524153583e-05,0.0106036532670259,0.0238723941147327,0.0226806253194809,2012-01-18 15:18:53
1.00799989700317,36,-7.68977546691895,0.0327343642711639,0.037066500633955,0.0798154175281525,0.0191514827311039,0.0415341556072235,0.0556144528090954,0.0220675282180309,4.9008731842041,0.0196133255958557,0.0240629948675632,0.0612915232777596,0.0046277055516839,0.00497120805084705,0.00393470469862223,0.0189423691481352,2.89323401451111,0.028587594628334,0.0329725109040737,0.0689190328121185,0.00544642563909292,0.0335173457860947,0.0284023638814688,0.00234852288849652,2012-01-18 15:18:54
1.00600004196167,36,-7.71865081787109,0.0335514359176159,0.0365746170282364,0.0678292512893677,0.0666918307542801,0.102317430078983,0.0269821360707283,0.0177068691700697,4.88779783248901,0.0168893244117498,0.0216063056141138,0.0547538846731186,0.00872833095490932,0.0172892939299345,0.0116678196936846,0.0088172685354948,2.91121292114258,0.0374710522592068,0.0467548780143261,0.135931044816971,0.0167365167289972,0.0393415428698063,0.0501969270408154,0.131446823477745,2012-01-18 15:18:55
1.00799989700317,41,-7.71855115890503,0.0160079840570688,0.0198971033096313,0.0595578216016293,0.0110063645988703,0.0180510878562927,0.0384295396506786,0.0171667840331793,4.90260744094849,0.0175131447613239,0.0262953266501427,0.0889772996306419,1.44279101732536e-05,0.0096779465675354,0.00542437843978405,0.00272480584681034,2.90492105484009,0.0282473303377628,0.038350485265255,0.105720542371273,0.018758749589324,0.0207103490829468,0.00584077881649137,0.0212029777467251,2012-01-18 15:18:56
1.01500010490417,33,-7.6991114616394,0.0281503275036812,0.0315114930272102,0.0597316436469555,0.00243341596797109,0.00612282194197178,0.0151034770533442,0.0332153886556625,4.92501831054688,0.0229812003672123,0.0283358134329319,0.0763728693127632,0.0100829675793648,0.0217779166996479,0.0139411119744182,0.0077097867615521,2.89207029342651,0.0239898059517145,0.0315113440155983,0.0891512408852577,0.0100587159395218,0.0177150126546621,0.0168475061655045,0.0528246983885765,2012-01-18 15:18:57
1.02300000190735,38,-7.74338245391846,0.0146012883633375,0.0177918132394552,0.0451621264219284,0.000946715008467436,0.0111836045980453,0.0255942512303591,0.0150480689480901,4.89867973327637,0.0255082715302706,0.030578937381506,0.0634851828217506,0.00101749144960195,0.0206419881433249,0.0161411371082067,0.0502287000417709,2.87360644340515,0.0266355369240046,0.0324070565402508,0.0781950801610947,0.000208943383768201,0.0147718321532011,0.0749772265553474,0.0156877469271421,2012-01-18 15:18:58
1.00799989700317,37,-7.71624326705933,0.0189399588853121,0.0249255038797855,0.0604301020503044,0.00356357078999281,0.0135891232639551,0.034226056188345,0.0087506640702486,4.8720498085022,0.0163182877004147,0.0198555141687393,0.0471780374646187,0.0043250871822238,0.00379235553555191,0.00485036568716168,0.0184889417141676,2.86248159408569,0.0318913757801056,0.0379319824278355,0.0795133486390114,2.02697577833533e-07,0.00183785241097212,0.0341469757258892,0.0519457682967186,2012-01-18 15:18:59
1.09100008010864,40,-7.72788524627686,0.0281940940767527,0.0316625274717808,0.0688920468091965,0.00323267676867545,0.0304659176617861,0.103306047618389,0.0345149114727974,4.89253759384155,0.0310871545225382,0.0430712625384331,0.116699300706387,0.0752710103988647,0.145825698971748,0.108333215117455,0.0686377659440041,2.88413572311401,0.042266670614481,0.0575926899909973,0.146119117736816,0.166668683290482,0.22018538415432,0.102676101028919,0.041743278503418,2012-01-18 15:19:00
1.01799988746643,40,-7.7389178276062,0.0124053908511996,0.0173427741974592,0.0603107921779156,0.00550716975703835,0.0104675339534879,0.0169094391167164,0.0150640876963735,4.89449882507324,0.0263799875974655,0.0326578840613365,0.0598208084702492,0.0157783776521683,0.0283048469573259,0.0396070294082165,0.0417412854731083,2.8912456035614,0.039962075650692,0.048236720263958,0.125770255923271,0.151728942990303,0.257795035839081,0.0637989640235901,0.00532908830791712,2012-01-18 15:19:01
1.12000012397766,42,-7.72693967819214,0.020080279558897,0.0248084310442209,0.0581397786736488,0.0064130718819797,0.0141192972660065,0.0277256444096565,0.0319662727415562,4.88371181488037,0.0224153976887465,0.0279021523892879,0.0588400587439537,0.0412720739841461,0.049383420497179,0.0195919815450907,0.0134769063442945,2.88689088821411,0.0224152058362961,0.0273175500333309,0.0551039837300777,0.00246010068804026,0.00446215458214283,0.0181386563926935,0.0547514297068119,2012-01-18 15:19:02
1.09699988365173,42,-7.7201681137085,0.0332670211791992,0.0441589988768101,0.0957314968109131,0.0238176938146353,0.0827659070491791,0.103624686598778,0.0355735421180725,4.89935541152954,0.0228377766907215,0.0283950306475163,0.0744840875267982,0.000148369275848381,0.00501891598105431,0.0158032923936844,0.0444196090102196,2.87568330764771,0.053814273327589,0.062493808567524,0.129821270704269,0.102886512875557,0.279279321432114,0.252258062362671,0.176851838827133,2012-01-18 15:19:03
1.10500001907349,41,-7.70443916320801,0.0262522622942924,0.0336770229041576,0.0748656541109085,0.0494225025177002,0.0836179926991463,0.0193656235933304,0.0061543146148324,4.88084125518799,0.0351547300815582,0.0448742136359215,0.095196433365345,0.00300256884656847,0.0473829694092274,0.0399883538484573,0.041482537984848,2.89009141921997,0.0352712497115135,0.0468683503568172,0.144229471683502,0.0173103343695402,0.0618482232093811,0.0340996570885181,0.0697194933891296,2012-01-18 15:19:04
1.05800008773804,40,-7.69625902175903,0.0189268551766872,0.0243395138531923,0.0509945526719093,0.0108908526599407,0.0345076210796833,0.0574784725904465,0.0572447925806046,4.88910531997681,0.0389570631086826,0.044990636408329,0.0828662514686584,0.0457394458353519,0.0794530063867569,0.175527215003967,0.0262353289872408,2.9030134677887,0.0212926715612411,0.0258984193205833,0.0786984488368034,0.0188837163150311,0.0354744307696819,0.0163593981415033,0.00496718939393759,2012-01-18 15:19:06
1.06500005722046,37,-7.70140075683594,0.0250002089887857,0.0294689517468214,0.0620207004249096,0.00154248776379973,0.0225825943052769,0.0554106272757053,0.0186370220035315,4.90518045425415,0.0327509790658951,0.0410298034548759,0.109728619456291,0.00603440217673779,0.0318756997585297,0.032621867954731,0.0357731208205223,2.92450189590454,0.0374643728137016,0.044744648039341,0.10018689930439,0.00626650080084801,0.0386537499725819,0.133757770061493,0.0403235368430614,2012-01-18 15:19:07
1.00699996948242,34,-7.6881251335144,0.0244488660246134,0.0288849994540215,0.0689350590109825,0.00527432886883616,0.0174327827990055,0.0297800730913877,0.0104703949764371,4.9278416633606,0.0219207387417555,0.027965908870101,0.0637435615062714,0.0011402479140088,0.00616629235446453,0.019521702080965,0.00771642522886395,2.86902189254761,0.0392605625092983,0.0467409491539001,0.102392889559269,0.088033027946949,0.143037334084511,0.0876412093639374,0.0168771483004093,2012-01-18 15:19:08
1.00499987602234,35,-7.71363067626953,0.0302604995667934,0.0352638810873032,0.0630426779389381,0.00363628705963492,0.0017469396116212,0.04530955478549,0.0220475811511278,4.91060972213745,0.0391465723514557,0.0526459515094757,0.0955449938774109,0.0692011490464211,0.130733773112297,0.10957332700491,0.0875149220228195,2.87502956390381,0.0309650376439095,0.040771272033453,0.106191925704479,0.0344467423856258,0.0587520822882652,0.0516694933176041,0.0502425171434879,2012-01-18 15:19:09
1.00500011444092,37,-7.69450950622559,0.0217623617500067,0.0272983741015196,0.0625505223870277,0.0180952306836843,0.0249732509255409,0.00541777117177844,0.00386363314464688,4.87947082519531,0.0178369916975498,0.0238629840314388,0.063080720603466,0.00020738790044561,0.00295532774180174,0.00625767419114709,0.00139328266959637,2.8903112411499,0.0211749151349068,0.0263582896441221,0.0614902712404728,0.000121165074233431,0.00217185635119677,0.00890083238482475,0.0115573583170772,2012-01-18 15:19:10
1.01900005340576,37,-7.70034074783325,0.0161892045289278,0.0188200492411852,0.0413473360240459,0.00489879865199327,0.00868085492402315,0.0166590549051762,0.00957618094980717,4.8638334274292,0.0299716778099537,0.0339320600032806,0.0781882405281067,0.000332648516632617,0.00437359791249037,0.0245155096054077,0.0408463478088379,2.9067440032959,0.0482810623943806,0.0621256604790688,0.141268730163574,0.0312939696013927,0.0946607664227486,0.15348944067955,0.256693452596664,2012-01-18 15:19:11
1.02300000190735,38,-7.70570421218872,0.0197491403669119,0.0235353913158178,0.0565176010131836,0.00027754541952163,0.00750255957245827,0.058155432343483,0.0213171150535345,4.91106700897217,0.0253995303064585,0.0321460478007793,0.0903243273496628,9.14673146326095e-05,0.000285007175989449,0.039508081972599,0.100731812417507,2.89657473564148,0.0378683246672153,0.0471074394881725,0.101679481565952,0.00118225801270455,0.0461085923016071,0.116639114916325,0.0141061218455434,2012-01-18 15:19:12
1.13599991798401,40,-7.70091676712036,0.0220037046819925,0.0310104414820671,0.0953695997595787,0.0156777650117874,0.0234662313014269,0.028232017531991,0.00785662140697241,4.90062808990479,0.0270786676555872,0.0340411327779293,0.0713433623313904,0.00909907650202513,0.0130974715575576,0.0276402980089188,0.0620991177856922,2.90963292121887,0.0263308435678482,0.0373554788529873,0.114737823605537,0.0282318815588951,0.108815312385559,0.143051102757454,0.117971919476986,2012-01-18 15:19:13
1.09599995613098,40,-7.69699430465698,0.0163036212325096,0.022808438166976,0.0796789675951004,0.00946618244051933,0.0460535548627377,0.0566346310079098,0.00773507915437222,4.86851119995117,0.0235360860824585,0.0308521240949631,0.0926728472113609,0.0214687418192625,0.0277118422091007,0.00920992717146873,0.0419295355677605,2.91159439086914,0.0275566577911377,0.034239087253809,0.0696271136403084,0.00118533114437014,0.0131558338180184,0.0132930586114526,0.0806514248251915,2012-01-18 15:19:14
1.11899995803833,42,-7.69214916229248,0.0204361379146576,0.0270649790763855,0.0747173056006432,0.00241271918639541,0.0014384223613888,0.00898434221744537,0.0102886268869042,4.88301134109497,0.0215481016784906,0.0304445996880531,0.107172831892967,0.00936711020767689,0.0218733511865139,0.012378079816699,0.00989584997296333,2.89412927627563,0.0274852905422449,0.0356294810771942,0.0698140859603882,0.0142986904829741,0.0328209586441517,0.0782448574900627,0.106576904654503,2012-01-18 15:19:15
1.02900004386902,41,-7.70850515365601,0.0287607200443745,0.0348540283739567,0.0789318680763245,0.0311172977089882,0.0481911264359951,0.0225681718438864,0.0598529800772667,4.88706016540527,0.0294259376823902,0.0352994054555893,0.0751046761870384,0.00853899959474802,0.0533332414925098,0.0941310152411461,0.0250685382634401,2.89822387695312,0.0206633694469929,0.0274908468127251,0.0837153792381287,0.000932902912609279,0.00178981816861778,0.00994005892425776,0.0115181738510728,2012-01-18 15:19:16
1.04500007629395,40,-7.73474979400635,0.0297999177128077,0.0336860232055187,0.0659500733017921,0.0212481487542391,0.0605116933584213,0.0571195222437382,0.0360819138586521,4.90455055236816,0.0318104140460491,0.0384333916008472,0.0870339870452881,0.0297934450209141,0.0734203308820724,0.0264314673841,0.0321703031659126,2.89222621917725,0.0174067914485931,0.0234528053551912,0.069381944835186,0.000442782969912514,0.0014996143290773,0.00153320981189609,0.00481157377362251,2012-01-18 15:19:17
1.0090000629425,40,-7.71513652801514,0.022175271064043,0.0274750292301178,0.0615366473793983,0.00718390941619873,0.0343011580407619,0.0791356414556503,0.0172682516276836,4.89768600463867,0.0314181745052338,0.0392810665071011,0.0924278274178505,0.138208299875259,0.205966144800186,0.0773524716496468,0.0333633795380592,2.89345192909241,0.0294444430619478,0.0400724820792675,0.108363501727581,0.0535577796399593,0.161078110337257,0.0783140510320663,0.0812834650278091,2012-01-18 15:19:18
1.21599984169006,23,-7.67690134048462,0.0116050411015749,0.0140641210600734,0.0277147088199854,0.000482454604934901,0.000896771671250463,0.00123395037371665,0.000504502560943365,4.89820861816406,0.0227648504078388,0.0278682708740234,0.0541498139500618,0.000857358158100396,0.00170482159592211,0.00180348940193653,0.000709065876435488,2.94071578979492,0.0158315021544695,0.0178976096212864,0.0379474051296711,0.000570887757930905,0.0010501662036404,0.00155852537136525,0.00319966999813914,2012-01-18 15:19:19
1.04200005531311,39,-7.70475816726685,0.0233012996613979,0.0294060371816158,0.0751845985651016,0.00850301142781973,0.0204390790313482,0.0763414353132248,0.0665449053049088,4.88094568252563,0.0287689361721277,0.0346148461103439,0.065880723297596,0.0087727103382349,0.0157964881509542,0.0139741813763976,0.0667033866047859,2.91609525680542,0.0341459363698959,0.0444424040615559,0.121200144290924,0.0112997516989708,0.0235364194959402,0.0138740697875619,0.0320448130369186,2012-01-18 15:19:20
1.09200000762939,40,-7.68571662902832,0.0253380406647921,0.0320025272667408,0.0811500698328018,0.0166941788047552,0.0706469938158989,0.11671094596386,0.0519981123507023,4.91190576553345,0.0191229917109013,0.0262397155165672,0.0772276669740677,2.62546308249512e-07,0.00611874228343368,0.0490863025188446,0.0194887891411781,2.92262673377991,0.0234133638441563,0.0324870608747005,0.0880147516727448,0.00168399792164564,0.0335965752601624,0.080653227865696,0.0297539979219437,2012-01-18 15:19:21
1.06800007820129,41,-7.71304988861084,0.0123093370348215,0.0148680713027716,0.0344428084790707,0.00285030272789299,0.00739158550277352,0.00371577707119286,0.0130713256075978,4.88036298751831,0.0256106480956078,0.0293490439653397,0.0554914809763432,0.0151512492448092,0.0258130263537169,0.0796535462141037,0.0261448193341494,2.8805239200592,0.0304408930242062,0.0359846912324429,0.0712775513529778,0.0368738584220409,0.0567489378154278,0.0636226087808609,0.0593120940029621,2012-01-18 15:19:23
1.03799986839294,39,-7.72009658813477,0.0161703061312437,0.0205299537628889,0.0467700958251953,0.000977617339231074,0.00876739528030157,0.0431232675909996,0.0236217882484198,4.88522052764893,0.0312963090837002,0.0383711606264114,0.0867511928081512,0.00454521458595991,0.0102175800129771,0.055019810795784,0.0437501072883606,2.86303877830505,0.0267700925469398,0.0355287715792656,0.0975635722279549,0.00039606960490346,0.00368614145554602,0.00874224491417408,0.0278514716774225,2012-01-18 15:19:24
1.00399994850159,36,-7.77612829208374,0.0457642860710621,0.0552307069301605,0.118224412202835,0.147609815001488,0.228224545717239,0.153558149933815,0.0237615555524826,4.90005588531494,0.051575779914856,0.0677061975002289,0.209208369255066,0.204369321465492,0.414012968540192,0.264706045389175,0.088784284889698,2.618647813797,0.178895682096481,0.200117155909538,0.372925102710724,2.77105593681335,4.36217641830444,1.68318367004395,0.159890726208687,2012-01-18 15:19:25
1.01100015640259,39,-7.77390718460083,0.0330756269395351,0.0396609455347061,0.0953003540635109,0.0609652809798717,0.109851434826851,0.106212332844734,0.0401753708720207,4.94657468795776,0.0315798446536064,0.0402025431394577,0.0922833681106567,0.0660785585641861,0.124767802655697,0.0366062335669994,0.043985016644001,2.47177863121033,0.0577953942120075,0.0760900601744652,0.18682935833931,0.085851289331913,0.0452566631138325,0.127702102065086,0.237554013729095,2012-01-18 15:19:26
1.0019998550415,37,-7.8066234588623,0.0261605717241764,0.0321589298546314,0.0779229775071144,0.0125308753922582,0.0278938151896,0.0259291362017393,0.00268348795361817,4.96375513076782,0.0461606979370117,0.0594338215887547,0.145509272813797,0.0222087223082781,0.07455063611269,0.0598991326987743,0.036444153636694,2.44053053855896,0.0998859778046608,0.111350886523724,0.217071503400803,0.897173166275024,1.34125947952271,0.397911369800568,0.0166542306542397,2012-01-18 15:19:27
1.03000020980835,36,-7.76686668395996,0.0212477054446936,0.0254259016364813,0.0588397979736328,0.0114956926554441,0.0229433886706829,0.0425465032458305,0.0185752660036087,5.03435277938843,0.0427224151790142,0.0512783043086529,0.140834152698517,0.000286783935735002,0.0306922141462564,0.152622804045677,0.0591729655861855,2.39772582054138,0.033233642578125,0.0410567037761211,0.102969840168953,0.0415408127009869,0.0504040457308292,0.0209466852247715,0.0186237022280693,2012-01-18 15:19:28
1.01799988746643,38,-7.78002834320068,0.0164349395781755,0.0210179965943098,0.0456782653927803,0.0100870383903384,0.0106834759935737,0.00262025860138237,0.00422728061676025,4.99545574188232,0.0298817064613104,0.0386113412678242,0.0941952913999557,0.0456021875143051,0.136865049600601,0.155294075608253,0.029111485928297,2.4699854850769,0.0694886520504951,0.0895739868283272,0.175229489803314,0.443860828876495,0.673030853271484,0.500311672687531,0.254303067922592,2012-01-18 15:19:29
1.13299989700317,42,-7.76289749145508,0.0337672829627991,0.0448916926980019,0.10203567892313,0.101080626249313,0.146445780992508,0.0423803105950356,0.0113522224128246,5.01353311538696,0.0211031623184681,0.0273892320692539,0.0663115158677101,0.0173177979886532,0.0549676232039928,0.0369489043951035,0.0475479513406754,2.46660590171814,0.0707813203334808,0.0821107402443886,0.16204309463501,0.772982239723206,0.911016345024109,0.229259938001633,0.0850095301866531,2012-01-18 15:19:30
1.08800005912781,39,-7.77441024780273,0.0185687728226185,0.0237592328339815,0.0611028671264648,0.00021360236860346,0.0033153526019305,0.0122901750728488,0.043545339256525,5.0386061668396,0.0372664965689182,0.0419706664979458,0.0960547104477882,0.0293548610061407,0.0961424484848976,0.119414411485195,0.0398032404482365,2.40765833854675,0.0438946038484573,0.0584139078855515,0.191104024648666,0.217184409499168,0.283338993787766,0.0610969476401806,0.183630540966988,2012-01-18 15:19:31
1.10500001907349,43,-7.72946453094482,0.0250125098973513,0.0313881225883961,0.0704713612794876,0.0122048193588853,0.0252847205847502,0.0638398453593254,0.0214788541197777,4.99911069869995,0.0378051288425922,0.0526549890637398,0.149380102753639,0.0609248355031013,0.0957341492176056,0.017418447881937,0.126242473721504,2.56478095054626,0.0331909507513046,0.0402591973543167,0.113118454813957,0.0788265243172646,0.0819574370980263,0.0833940804004669,0.0711331740021706,2012-01-18 15:19:32
1.05299997329712,39,-7.75102519989014,0.024023350328207,0.0277031324803829,0.0626115798950195,0.00984807591885328,0.0336713902652264,0.0452817529439926,0.0163997113704681,5.01471853256226,0.0331401005387306,0.0417531691491604,0.114159263670444,0.0431493856012821,0.109051264822483,0.233799651265144,0.104479275643826,2.54067659378052,0.0431337840855122,0.0504160821437836,0.0875055193901062,0.176942154765129,0.328985303640366,0.162972554564476,0.00877041090279818,2012-01-18 15:19:33
1.13800001144409,42,-7.75122261047363,0.0341453179717064,0.0411667004227638,0.0940969809889793,0.129986017942429,0.190673649311066,0.0324828028678894,0.0276445746421814,4.96239852905273,0.03155467659235,0.037280447781086,0.0688799247145653,0.0255423057824373,0.0296406801789999,0.0570946671068668,0.0527597479522228,2.60086369514465,0.0267848484218121,0.031995203346014,0.0665450915694237,0.0301424786448479,0.0313467457890511,0.0135437091812491,0.0970804393291473,2012-01-18 15:19:34
1.01200008392334,39,-7.72713708877563,0.0131915658712387,0.0153776900842786,0.029922803863883,0.00362266693264246,0.0173159074038267,0.0174332112073898,0.00263832416385412,4.96845102310181,0.0178724434226751,0.0247779246419668,0.0651260986924171,0.00355004984885454,0.00538024678826332,0.0168285369873047,0.0389577485620975,2.65483617782593,0.0354483388364315,0.0434015989303589,0.0953005626797676,0.00225970172323287,0.00194901775103062,0.0391349792480469,0.00844364054501057,2012-01-18 15:19:35
1.00999999046326,36,-7.72300910949707,0.0282849334180355,0.0330534465610981,0.0640159472823143,0.00010872622806346,0.0100751835852861,0.0462112054228783,0.0180259123444557,4.95399284362793,0.0286027099937201,0.0357715003192425,0.0964319184422493,0.00165794556960464,0.00182945840060711,0.0319604985415936,0.0362053066492081,2.70091485977173,0.0349135063588619,0.0413080863654613,0.0825392380356789,0.00438944296911359,0.038857214152813,0.0662758201360703,0.117811895906925,2012-01-18 15:19:36
1.00399994850159,35,-7.74921464920044,0.0174838248640299,0.0223379768431187,0.06080112606287,0.000109264459752012,0.00228608422912657,0.0022381937596947,0.00775100570172071,4.94591379165649,0.0382338762283325,0.0532994195818901,0.153543874621391,0.077168844640255,0.10568068921566,0.0263891853392124,0.00608056504279375,2.69094467163086,0.024208402261138,0.03670809045434,0.0941438898444176,0.00460680574178696,0.00378715340048075,0.0153648043051362,0.00786908809095621,2012-01-18 15:19:37
1.00300002098083,39,-7.73392629623413,0.0193811561912298,0.0228088013827801,0.0455128364264965,0.00451662531122565,0.0249495934695005,0.0484203100204468,0.0285908747464418,4.94179725646973,0.0264218151569366,0.0294102262705564,0.0580854415893555,0.0139817288145423,0.0484720841050148,0.0520760864019394,0.00781069975346327,2.65835642814636,0.0450680069625378,0.0556693375110626,0.128240823745728,0.000951051944866776,0.139286562800407,0.146035090088844,0.0314278230071068,2012-01-18 15:19:38
1.01999998092651,36,-7.72164726257324,0.0172221418470144,0.0200547408312559,0.0354128405451775,0.000513615959789604,0.000426658778451383,0.00434280466288328,0.0154086584225297,4.93519639968872,0.0231545604765415,0.029904006049037,0.0661947876214981,0.00165313784964383,0.00683491677045822,0.0237907860428095,0.0158661939203739,2.68239116668701,0.0419355183839798,0.0471153669059277,0.083628848195076,0.000567867944482714,0.062274593859911,0.129833355545998,0.0370966903865337,2012-01-18 15:19:39
1.03800010681152,35,-7.71026849746704,0.0230877138674259,0.0300288274884224,0.0610817074775696,0.00790955871343613,0.0165855437517166,0.0295885596424341,0.0360244810581207,4.97337245941162,0.0439497418701649,0.0505041368305683,0.0994677394628525,0.000583311426453292,0.0467531718313694,0.0657174661755562,0.0810143426060677,2.71476078033447,0.03544807061553,0.0459067299962044,0.125805199146271,0.0863669961690903,0.119448594748974,0.0277925562113523,0.0442774742841721,2012-01-18 15:19:40
1.06299996376038,40,-7.73573064804077,0.0152125395834446,0.0177994444966316,0.0409426912665367,0.00332515616901219,0.0120182717218995,0.0177593193948269,0.00706307496875525,4.96657800674438,0.0283902026712894,0.03542285785079,0.0936533436179161,0.00171271804720163,0.00380573305301368,0.0420518219470978,0.0121304541826248,2.72232604026794,0.043737705796957,0.0572577454149723,0.152983814477921,0.2298843562603,0.393306374549866,0.227609664201736,0.146736592054367,2012-01-18 15:19:41
1.13699984550476,41,-7.71687650680542,0.0326927490532398,0.0398086309432983,0.0873033627867699,0.0470602139830589,0.129281118512154,0.207208007574081,0.0452433414757252,4.98799705505371,0.0195899307727814,0.0266818571835756,0.1016541197896,0.000208688143175095,0.00183590187225491,0.00758046703413129,0.0212123710662127,2.73605537414551,0.0349212624132633,0.0467559322714806,0.107873030006886,0.0101421633735299,0.0646126642823219,0.121207073330879,0.173987805843353,2012-01-18 15:19:42
1.04900002479553,39,-7.74473905563354,0.0171761140227318,0.0206803139299154,0.0465186424553394,8.34029876273235e-08,0.00258697848767042,0.00762098142877221,0.00903428066521883,4.96845102310181,0.0210317131131887,0.0264156423509121,0.0819733962416649,0.000538632506504655,0.00578951509669423,0.0230157189071178,0.0413104481995106,2.78232264518738,0.0226693768054247,0.0292895864695311,0.0714124068617821,0.033572293817997,0.0453825518488884,0.0289375986903906,0.0239309351891279,2012-01-18 15:19:43
1.02600002288818,41,-7.72716188430786,0.0206516832113266,0.0245955027639866,0.0495115369558334,0.00183241465128958,0.00468528876081109,0.00478611281141639,0.0389504991471767,4.93537616729736,0.0250153876841068,0.0301697347313166,0.0660153925418854,0.0412695966660976,0.0567815862596035,0.021629998460412,0.010174285620451,2.77241158485413,0.0321209691464901,0.0404189638793468,0.105002947151661,3.33869888891059e-06,0.0021924190223217,0.0705352872610092,0.0871596410870552,2012-01-18 15:19:44
1.0090000629425,42,-7.71082878112793,0.0198801551014185,0.0252560339868069,0.061642125248909,0.0261514168232679,0.0504072792828083,0.0346272327005863,0.0214451663196087,4.95445966720581,0.0156772695481777,0.019204568117857,0.0469317436218262,0.000811319856438786,0.00371141172945499,0.00530227646231651,0.0136407809332013,2.75566864013672,0.0345567502081394,0.0432785376906395,0.107873164117336,0.030536163598299,0.0199328623712063,0.008544797077775,0.0909891128540039,2012-01-18 15:19:46
1.01500010490417,37,-7.69371461868286,0.0186964441090822,0.0248295478522778,0.0535390041768551,0.0349214784801006,0.0486677289009094,0.0273204557597637,0.0111194187775254,4.95553874969482,0.0270774811506271,0.0361258164048195,0.0948858037590981,0.00537263322621584,0.0253121163696051,0.0398342944681644,0.0105960611253977,2.75460839271545,0.0161605440080166,0.0211172476410866,0.057779848575592,0.000933436676859856,0.00237916200421751,0.0089832553640008,0.0270132217556238,2012-01-18 15:19:47
1.01299977302551,37,-7.71836376190186,0.0142980562523007,0.0172054264694452,0.0397566184401512,0.0041688634082675,0.0114391352981329,0.0198460798710585,0.00633825315162539,4.93645572662354,0.0198424942791462,0.0228399783372879,0.0551291815936565,0.00854557659476995,0.0194488409906626,0.0302092712372541,0.0115463379770517,2.74162125587463,0.0308597926050425,0.0391297824680805,0.103632435202599,0.00329798809252679,0.0169686060398817,0.014204372651875,0.0331584997475147,2012-01-18 15:19:48
1.0090000629425,36,-7.74153280258179,0.0195678640156984,0.0264935418963432,0.0645603314042091,0.00263514718972147,0.00401632534340024,0.00506375636905432,0.00853019207715988,4.93955516815186,0.0280578657984734,0.0326740182936192,0.0618362687528133,0.0147512732073665,0.0251210406422615,0.00960951019078493,0.0125304218381643,2.75512385368347,0.0348681025207043,0.0423660762608051,0.0986112132668495,0.00399879738688469,0.0181745868176222,0.0550847947597504,0.0209407769143581,2012-01-18 15:19:49
1.02100014686584,35,-7.71615219116211,0.0291878264397383,0.0355124026536942,0.080134280025959,0.0303469486534595,0.0713499411940575,0.0818816795945168,0.0070306989364326,4.92517995834351,0.0297641977667809,0.03501370921731,0.0610817223787308,0.0136169781908393,0.0530133359134197,0.100544132292271,0.027708450332284,2.76015162467957,0.0199975315481424,0.0232473015785217,0.0445501394569874,0.00819347333163023,0.0166869182139635,0.023837199434638,0.0144215514883399,2012-01-18 15:19:50
1.00799989700317,39,-7.75177955627441,0.0186461415141821,0.0230624228715897,0.0543136596679688,0.00330379395745695,0.00725602777674794,0.005057901609689,0.00600200844928622,4.92444705963135,0.023017592728138,0.0298393275588751,0.0897688344120979,0.0137290423735976,0.0418775044381618,0.0707570016384125,0.0155760580673814,2.71820211410522,0.0424504093825817,0.057219710201025,0.155146315693855,0.0276749581098557,0.122212201356888,0.143430486321449,0.184147790074348,2012-01-18 15:19:51
1.13499999046326,37,-7.7403621673584,0.025472903624177,0.029452146962285,0.0715623795986176,0.00193844805471599,0.00661551021039486,0.0214720796793699,0.00287342234514654,4.92611885070801,0.0311893001198769,0.0381554141640663,0.0914406552910805,0.0260335728526115,0.0507740192115307,0.0364655144512653,0.0707725808024406,2.77899241447449,0.0311176180839539,0.0372799597680569,0.0821639150381088,0.0159525871276855,0.0126034850254655,0.0175529792904854,0.0439215190708637,2012-01-18 15:19:52
1.06699991226196,36,-7.72001266479492,0.0184025708585978,0.0226605515927076,0.0414057821035385,0.00366702699102461,0.0217683184891939,0.0302176736295223,0.00595961883664131,4.9316554069519,0.0174340140074492,0.0243282001465559,0.0893493220210075,0.0112899001687765,0.0199970677495003,0.0056108720600605,0.00934770423918962,2.76247882843018,0.0319926850497723,0.0386654809117317,0.0852634161710739,0.0104469442740083,0.0156693104654551,0.0143156107515097,0.0283975582569838,2012-01-18 15:19:53
1.04200005531311,40,-7.75117588043213,0.0242223832756281,0.0298901274800301,0.0627624541521072,0.0213881004601717,0.0558381304144859,0.026536863297224,0.0115393055602908,4.94377756118774,0.0367136038839817,0.0439764000475407,0.106647156178951,0.0671736896038055,0.13114221394062,0.105067141354084,0.00553804961964488,2.74242949485779,0.0554075762629509,0.0636507421731949,0.0946341454982758,0.277446448802948,0.55950653553009,0.221903949975967,0.0314374715089798,2012-01-18 15:19:54
1.04700016975403,38,-7.78364133834839,0.0261329114437103,0.0294119752943516,0.0560010373592377,0.0435490235686302,0.0866201743483543,0.0872059315443039,0.0135102421045303,4.94100332260132,0.0206455439329147,0.0232204999774694,0.0407749488949776,0.0115494560450315,0.0153541890904307,0.0202341303229332,0.0224235523492098,2.6243109703064,0.0488702245056629,0.0619221925735474,0.16284191608429,0.221955731511116,0.364985197782516,0.411503553390503,0.218503415584564,2012-01-18 15:19:55
1.06599998474121,38,-7.78802824020386,0.0277084913104773,0.0312167853116989,0.0603882148861885,0.00389716774225235,0.0113013805821538,0.0179796945303679,0.0429491549730301,4.98074579238892,0.0292297583073378,0.0414103083312511,0.116647779941559,0.0402817539870739,0.0629706084728241,0.105324685573578,0.0766817256808281,2.48443722724915,0.0341602452099323,0.0411950498819351,0.084904819726944,0.0594233609735966,0.153801515698433,0.0903312414884567,0.023909630253911,2012-01-18 15:19:56
1.08499979972839,40,-7.78378295898438,0.0127731394022703,0.0165536869317293,0.0419233553111553,0.00272064935415983,0.00920350663363934,0.0251453444361687,0.00642504496499896,4.94966125488281,0.0203487630933523,0.0244170892983675,0.0561429746448994,0.00312523171305656,0.0125689618289471,0.0116711976006627,0.045772697776556,2.57498097419739,0.0519384816288948,0.0662906020879745,0.152738645672798,0.136630401015282,0.34433588385582,0.117116034030914,0.296213299036026,2012-01-18 15:19:57
1.1100001335144,42,-7.77784061431885,0.0419617258012295,0.0558122470974922,0.155738681554794,0.0198989380151033,0.075176864862442,0.163631111383438,0.185203403234482,4.97780895233154,0.0523465164005756,0.0648403987288475,0.160875484347343,0.109109602868557,0.153189763426781,0.157626673579216,0.394395291805267,2.52754735946655,0.0379368141293526,0.046297911554575,0.100634932518005,0.00023954531934578,0.0490133911371231,0.183030173182487,0.15896363556385,2012-01-18 15:19:58
1.05799984931946,39,-7.75253391265869,0.0225533209741116,0.0291120316833258,0.0731725692749023,0.01177878677845,0.0113674234598875,0.0204764902591705,0.00656038662418723,4.94657468795776,0.0486786141991615,0.0568238236010075,0.143076315522194,0.000208150391699746,0.00671463506296277,0.164440765976906,0.0681222304701805,2.64402365684509,0.0488978289067745,0.0634617507457733,0.172747820615768,0.0853766798973083,0.0614205971360207,0.0318954735994339,0.00823624059557915,2012-01-18 15:19:59
