"diffSecs","level","azimuth.mean","azimuth.absolute.deviation","azimuth.standard.deviation","azimuth.max.deviation","pitch.mean","pitch.absolute.deviation","pitch.standard.deviation","pitch.max.deviation","roll.mean","roll.absolute.deviation","roll.standard.deviation","roll.max.deviation","time"
5.23499965667725,26,-4.93076944351196,0.107692204415798,0.123316958546638,0.230769008398056,-41.0769233703613,0.0763319209218025,0.0973008647561073,0.223074838519096,54.5384635925293,0.0704149305820465,0.0835601836442947,0.161538347601891,2012-01-18 15:44:05
0.802000045776367,99,-4.45454549789429,0.41303950548172,0.468669474124908,0.854545414447784,-40.8111114501953,0.168799504637718,0.21314825117588,0.611111223697662,54.4676780700684,0.101336553692818,0.12376956641674,0.367675393819809,2012-01-18 15:44:06
1.03699994087219,87,-4.06206893920898,0.291161328554153,0.393989741802216,1.03793084621429,-40.8034477233887,0.142211928963661,0.177756249904633,0.496550142765045,54.5068969726562,0.0875154212117195,0.121099710464478,0.306896567344666,2012-01-18 15:44:07
1.0090000629425,80,-3.68250012397766,0.249562472105026,0.303634226322174,0.782499969005585,-40.75,0.142499640583992,0.182345807552338,0.450001239776611,54.6525001525879,0.126186981797218,0.154898881912231,0.352501541376114,2012-01-18 15:44:08
1.03299999237061,11,-3.60909104347229,0.137190073728561,0.167628094553947,0.309091001749039,-40.1272735595703,0.0942140072584152,0.113544851541519,0.172725677490234,54.7272720336914,0.102478533983231,0.11354473978281,0.172727763652802,2012-01-18 15:44:09
1.00499987602234,46,-4.12391328811646,0.305293083190918,0.391865581274033,0.923913061618805,-40.6326103210449,0.274669021368027,0.327078253030777,0.632609307765961,54.6847839355469,0.0776932016015053,0.102080814540386,0.284781754016876,2012-01-18 15:44:10
1.03400015830994,42,-3.76904773712158,0.243083864450455,0.315842092037201,0.769047617912292,-40.8738098144531,0.115646958351135,0.149697735905647,0.373810082674026,54.6285705566406,0.0979586094617844,0.123992301523685,0.328573226928711,2012-01-18 15:44:11
1.02499985694885,44,-3.86818194389343,0.35785123705864,0.434727042913437,1.031818151474,-40.8181838989258,0.0979342609643936,0.115350566804409,0.218180134892464,54.6772727966309,0.0824373587965965,0.0996890440583229,0.222728028893471,2012-01-18 15:44:12
1.00600004196167,46,-5.53913068771362,0.433837413787842,0.534252107143402,1.23913037776947,-41.1000022888184,0.200000301003456,0.250217407941818,0.500001430511475,54.6739120483398,0.0839312747120857,0.0987629890441895,0.173913702368736,2012-01-18 15:44:13
1.01800012588501,31,-5.77419376373291,0.238085240125656,0.29289174079895,0.574193358421326,-41.2741928100586,0.0992709696292877,0.119048841297626,0.225805833935738,54.6548385620117,0.114047430455685,0.134016364812851,0.254837900400162,2012-01-18 15:44:14
1.06299996376038,37,-5.12702703475952,0.534404695034027,0.632305383682251,1.12702715396881,-41.1594581604004,0.182322725653648,0.219901204109192,0.459459155797958,54.5162162780762,0.0750918984413147,0.0915735438466072,0.183783456683159,2012-01-18 15:44:15
1.01799988746643,43,-4.88837242126465,0.199567317962646,0.254457294940948,0.688371896743774,-41.069766998291,0.128610357642174,0.151787579059601,0.330233365297318,54.5209312438965,0.123743012547493,0.148728251457214,0.320930570363998,2012-01-18 15:44:16
1.02100014686584,44,-4.92272758483887,0.189462795853615,0.225493043661118,0.477272689342499,-41.1090927124023,0.0801647752523422,0.10404996573925,0.209090486168861,54.4022750854492,0.120867878198624,0.146921187639236,0.302271246910095,2012-01-18 15:44:17
1.00899982452393,36,-5.11388921737671,0.218672901391983,0.254026234149933,0.513889074325562,-41.0666656494141,0.190740764141083,0.240369811654091,0.566667258739471,54.413890838623,0.101080417633057,0.127263963222504,0.213889122009277,2012-01-18 15:44:18
1.1230001449585,37,-4.42432451248169,0.520964205265045,0.579097807407379,0.975675702095032,-41.6108131408691,0.428487837314606,0.493078380823135,0.889188289642334,55.4594612121582,0.680496871471405,0.754610955715179,1.24054026603699,2012-01-18 15:44:19
1.06299996376038,38,-3.6131579875946,0.385457068681717,0.453159123659134,0.813157975673676,-43.9184226989746,1.03227162361145,1.10211658477783,1.61842250823975,58.3763160705566,1.04473698139191,1.10701942443848,1.77631437778473,2012-01-18 15:44:20
1.0019998550415,43,-4.61860466003418,0.249540343880653,0.311228483915329,0.718604624271393,-43.7813949584961,0.448134303092957,0.515461623668671,1.01860320568085,57.4069786071777,0.687830924987793,0.807636260986328,1.69302463531494,2012-01-18 15:44:21
1.01100015640259,31,-3.66129040718079,0.245369404554367,0.301263391971588,0.73870974779129,-44.2451629638672,0.258896559476852,0.321125656366348,0.654839694499969,60.5387115478516,0.961498200893402,1.10122406482697,2.43870806694031,2012-01-18 15:44:22
1.01999998092651,42,-5.34523820877075,0.256916046142578,0.355368584394455,1.44523811340332,-44.8333358764648,0.414286106824875,0.475428223609924,0.766668200492859,60.695240020752,0.581405758857727,0.655363202095032,1.49523818492889,2012-01-18 15:44:23
1.03600001335144,35,-5.58285713195801,0.190040841698647,0.21578523516655,0.382856994867325,-44.2657165527344,0.107754670083523,0.132972165942192,0.265714704990387,58.9428596496582,0.155918270349503,0.187137320637703,0.357141107320786,2012-01-18 15:44:24
1.05399990081787,40,-5.58249998092651,0.165999993681908,0.220099419355392,0.51749986410141,-44.2150001525879,0.0894994512200356,0.119477622210979,0.31499919295311,58.7625007629395,0.259375274181366,0.280791670084,0.462501615285873,2012-01-18 15:44:25
1.12100005149841,42,-5.72142887115479,0.328911572694778,0.388854056596756,0.921428501605988,-44.3380966186523,0.185034438967705,0.222488716244698,0.461903244256973,58.6738090515137,0.403401464223862,0.451484233140945,0.726191580295563,2012-01-18 15:44:26
1.00500011444092,42,-5.29523801803589,0.360771030187607,0.424798250198364,0.904762089252472,-44.3785705566406,0.225510537624359,0.27127206325531,0.578572869300842,59.6904754638672,0.495238065719604,0.561803877353668,0.909525275230408,2012-01-18 15:44:27
1.01199984550476,38,-6.16315793991089,0.186149641871452,0.221740767359734,0.436841905117035,-44.1763153076172,0.252770096063614,0.279505670070648,0.423685669898987,58.4894752502441,0.308033347129822,0.375422418117523,0.689475417137146,2012-01-18 15:44:28
1.01900005340576,40,-5.52750015258789,0.156124994158745,0.189720198512077,0.527500092983246,-44.2950019836426,0.106999546289444,0.139552757143974,0.305001646280289,59.2425003051758,0.118874557316303,0.141221955418587,0.342499434947968,2012-01-18 15:44:29
1.12100005149841,47,-5.71914911270142,0.384698957204819,0.429566025733948,0.719149053096771,-44.1489372253418,0.143594205379486,0.166148349642754,0.348937749862671,58.7021293640137,0.385422974824905,0.47332626581192,0.80212676525116,2012-01-18 15:44:30
1.01399993896484,39,-5.46153831481934,0.185798764228821,0.252794981002808,0.76153826713562,-44.235897064209,0.149243459105492,0.179010078310966,0.33589643239975,59.0564117431641,0.159106269478798,0.190538942813873,0.356410205364227,2012-01-18 15:44:31
1.10400009155273,37,-5.65405416488647,0.171512126922607,0.193955436348915,0.45405387878418,-44.2243270874023,0.197954282164574,0.223492100834846,0.475675523281097,59.0621643066406,0.16055554151535,0.193616285920143,0.462160766124725,2012-01-18 15:44:33
1.06399989128113,43,-5.78139543533325,0.100378595292568,0.133391916751862,0.381395369768143,-44.290699005127,0.0869655832648277,0.109574101865292,0.290698289871216,58.7302322387695,0.0877225399017334,0.108979851007462,0.26976677775383,2012-01-18 15:44:34
1.1010000705719,41,-5.81951236724854,0.149672776460648,0.196579918265343,0.519512116909027,-44.2975616455078,0.0957759991288185,0.123935095965862,0.302440732717514,58.7121963500977,0.093515083193779,0.121363967657089,0.287804305553436,2012-01-18 15:44:35
1.09599995613098,41,-5.9463415145874,0.113503783941269,0.138101264834404,0.346341609954834,-44.2731704711914,0.0801898688077927,0.101270742714405,0.273171037435532,58.6073188781738,0.120761215686798,0.150430679321289,0.3926822245121,2012-01-18 15:44:36
1.08699989318848,40,-6.0774998664856,0.10699999332428,0.135069459676743,0.322500050067902,-44.2224998474121,0.102499388158321,0.125473782420158,0.322498887777328,58.560001373291,0.0940006226301193,0.117898471653461,0.340000808238983,2012-01-18 15:44:37
1.08899998664856,41,-5.95365858078003,0.152171269059181,0.186230316758156,0.553658545017242,-44.1536598205566,0.109815202653408,0.146666020154953,0.453658401966095,58.424388885498,0.126115590333939,0.151062414050102,0.375608593225479,2012-01-18 15:44:38
1.10000014305115,42,-6.04047632217407,0.127097487449646,0.160445109009743,0.440476328134537,-44.2071418762207,0.0986387580633163,0.133439049124718,0.307141900062561,58.4285736083984,0.107482954859734,0.135023474693298,0.371427088975906,2012-01-18 15:44:39
1.04699993133545,41,-6.16829299926758,0.183462291955948,0.220242708921432,0.568292856216431,-44.134147644043,0.0773344188928604,0.0952779874205589,0.265853971242905,58.3121948242188,0.101487644016743,0.125319182872772,0.287806361913681,2012-01-18 15:44:40
1.07999992370605,41,-6.16585397720337,0.156930491328239,0.204354718327522,0.434146165847778,-44.175609588623,0.0761441960930824,0.0877361372113228,0.175610706210136,58.2853660583496,0.103509441018105,0.124078832566738,0.314635664224625,2012-01-18 15:44:41
1.00100016593933,41,-6.33170747756958,0.181915476918221,0.229993641376495,0.531707227230072,-44.131706237793,0.236049726605415,0.279755115509033,0.531705737113953,58.2804870605469,0.104818128049374,0.125366553664207,0.280488461256027,2012-01-18 15:44:42
1.00799989700317,34,-5.93235301971436,0.185294076800346,0.234797269105911,0.567646980285645,-44.1088256835938,0.133909642696381,0.16155056655407,0.308824986219406,58.2382354736328,0.0839094519615173,0.105759419500828,0.261764287948608,2012-01-18 15:44:43
1.02100014686584,39,-6.23076915740967,0.121893510222435,0.143498182296753,0.269230663776398,-44.2410278320312,0.0861268118023872,0.100556761026382,0.241026163101196,58.2384605407715,0.0998024046421051,0.121138371527195,0.338460862636566,2012-01-18 15:44:44
1.00300002098083,33,-6.22121238708496,0.174655646085739,0.202645495533943,0.421212017536163,-44.2878799438477,0.0866846889257431,0.103740751743317,0.21212063729763,58.3060607910156,0.105050981044769,0.139130249619484,0.306061148643494,2012-01-18 15:44:45
1.00799989700317,39,-6.36153841018677,0.12978295981884,0.157895371317863,0.36153855919838,-44.3025665283203,0.110848359763622,0.132987499237061,0.297437429428101,58.235897064209,0.078237384557724,0.091950349509716,0.164103388786316,2012-01-18 15:44:46
1.0090000629425,39,-6.18461561203003,0.157396525144577,0.19287097454071,0.484615206718445,-44.0846176147461,0.236686795949936,0.2860327064991,0.58461582660675,58.3307685852051,0.0978309586644173,0.122273109853268,0.269232541322708,2012-01-18 15:44:47
1.01600003242493,35,-6.06285715103149,0.1524897813797,0.191364586353302,0.437142789363861,-44.1485710144043,0.130448788404465,0.176264882087708,0.548569798469543,58.3171424865723,0.0873474776744843,0.12067849189043,0.382857620716095,2012-01-18 15:44:48
1.11699986457825,43,-5.83953475952148,0.244240075349808,0.297383546829224,0.73953503370285,-44.2627906799316,0.13747926056385,0.168472111225128,0.36278960108757,58.3046531677246,0.0760416761040688,0.105551697313786,0.304651468992233,2012-01-18 15:44:49
1.01800012588501,39,-6.05128192901611,0.191190004348755,0.229684054851532,0.451282232999802,-44.3358993530273,0.0862596333026886,0.0999672412872314,0.235895797610283,58.302562713623,0.0702175199985504,0.0919509306550026,0.202562183141708,2012-01-18 15:44:50
1.01799988746643,41,-6.0804877281189,0.114574670791626,0.140068858861923,0.319512218236923,-44.3414649963379,0.109934970736504,0.136105313897133,0.358536869287491,58.2707328796387,0.086495652794838,0.106482140719891,0.270732134580612,2012-01-18 15:44:51
1.00300002098083,37,-6.15135145187378,0.184952571988106,0.218868851661682,0.448648422956467,-44.1297302246094,0.164060950279236,0.190113201737404,0.470271974802017,58.4513511657715,0.112344831228256,0.134810775518417,0.251351445913315,2012-01-18 15:44:52
1.02600002288818,38,-5.80000019073486,0.19473685324192,0.239517062902451,0.599999785423279,-44.5894737243652,0.154847905039787,0.186080828309059,0.389473855495453,58.9289474487305,0.382410168647766,0.459351897239685,1.07105207443237,2012-01-18 15:44:53
1.01099991798401,36,-4.58888912200928,0.400617301464081,0.442077040672302,0.911110997200012,-44.7555541992188,0.154937952756882,0.20742392539978,0.55555534362793,60.9333343505859,0.93888908624649,1.03467667102814,2.23333334922791,2012-01-18 15:44:54
1.00399994850159,37,-4.71351337432861,0.480934977531433,0.574767708778381,1.08648657798767,-43.5702705383301,0.234916150569916,0.272986382246017,0.629729807376862,59.3891906738281,0.498758435249329,0.556428790092468,0.889190137386322,2012-01-18 15:44:55
1.05800008773804,37,-3.53783798217773,0.176040917634964,0.207105353474617,0.462162107229233,-43.0351371765137,0.0993432104587555,0.121291153132915,0.264863312244415,60.6135139465332,0.182176575064659,0.209454983472824,0.413513600826263,2012-01-18 15:44:57
1.01699995994568,41,-4.33414649963379,0.54883998632431,0.581255912780762,0.8341463804245,-43.1902465820312,0.179297715425491,0.210463806986809,0.40975746512413,60.0780487060547,0.44901829957962,0.474476456642151,0.778050482273102,2012-01-18 15:44:58
1.00500011444092,39,-4.97179508209229,0.116765208542347,0.141328290104866,0.371794998645782,-43.4000015258789,0.0923080891370773,0.130088701844215,0.399998605251312,59.1794891357422,0.205653697252274,0.226658284664154,0.379488527774811,2012-01-18 15:44:59
1.00499987602234,38,-4.97105264663696,0.117728486657143,0.148515269160271,0.371052801609039,-43.5105285644531,0.180055573582649,0.213725626468658,0.410524874925613,59.086841583252,0.105402037501335,0.134107202291489,0.313158243894577,2012-01-18 15:45:00
1.00999999046326,37,-4.94324350357056,0.141709238290787,0.171701401472092,0.443243324756622,-43.6378402709961,0.0990496799349785,0.119347646832466,0.262162685394287,59.1864852905273,0.135719180107117,0.171104729175568,0.386487811803818,2012-01-18 15:45:01
1.01200008392334,34,-4.9970588684082,0.27387547492981,0.317606240510941,0.597058832645416,-43.6176490783691,0.130449339747429,0.174002453684807,0.417647182941437,59.0529403686523,0.0972323566675186,0.114366136491299,0.252942800521851,2012-01-18 15:45:02
1.01900005340576,36,-5.24722242355347,0.180864199995995,0.204784587025642,0.447222113609314,-43.3833351135254,0.128704354166985,0.160727828741074,0.383333832025528,59.2666664123535,0.185185074806213,0.21081854403019,0.433332860469818,2012-01-18 15:45:03
1.08399987220764,40,-4.8125,0.121249958872795,0.159980461001396,0.487500041723251,-43.7900009155273,0.0829995945096016,0.109087027609348,0.290000349283218,59.6875,0.118124812841415,0.164601817727089,0.487500011920929,2012-01-18 15:45:04
1.05599999427795,39,-4.53076934814453,0.338067084550858,0.401378333568573,0.830769240856171,-43.5128211975098,0.227218821644783,0.253366231918335,0.512821197509766,59.4769248962402,0.213412284851074,0.240151107311249,0.523075997829437,2012-01-18 15:45:05
1.13600015640259,40,-4.95499992370605,0.229500010609627,0.279240071773529,0.555000007152557,-43.5175018310547,0.0868754610419273,0.102194726467133,0.182499602437019,59.1000022888184,0.0900004878640175,0.122474484145641,0.300001800060272,2012-01-18 15:45:06
1.11500000953674,41,-5.00731706619263,0.148245081305504,0.196791648864746,0.60731703042984,-43.5,0.0585370399057865,0.0910642072558403,0.299998492002487,59.1829261779785,0.0834020227193832,0.103363506495953,0.217073678970337,2012-01-18 15:45:07
1.06199979782104,38,-5.05789470672607,0.210249319672585,0.27011850476265,0.757894694805145,-43.3552627563477,0.17105333507061,0.206088617444038,0.355263471603394,59.0736846923828,0.104155510663986,0.127080857753754,0.273685961961746,2012-01-18 15:45:08
1.09100008010864,43,-5.10232543945312,0.095943883061409,0.126653537154198,0.302325457334518,-43.5348854064941,0.0961607843637466,0.113882698118687,0.234885543584824,58.9767456054688,0.089994490146637,0.107481382787228,0.276744574308395,2012-01-18 15:45:09
1.21900010108948,44,-4.95681810379028,0.196487575769424,0.255305260419846,0.756817996501923,-43.5522727966309,0.0953516885638237,0.113795205950737,0.247725307941437,59.1954574584961,0.199586525559425,0.250412970781326,0.704545974731445,2012-01-18 15:45:10
1.05699992179871,38,-4.6894736289978,0.200554072856903,0.23596328496933,0.510526537895203,-43.5894737243652,0.0975072160363197,0.116504788398743,0.210524514317513,59.7868423461914,0.136287823319435,0.162498638033867,0.313159555196762,2012-01-18 15:45:11
1.04699993133545,39,-4.79230785369873,0.183037459850311,0.220005363225937,0.4923075735569,-43.3230781555176,0.172387138009071,0.220095232129097,0.523078501224518,59.4153861999512,0.108086973428726,0.123077377676964,0.215384259819984,2012-01-18 15:45:12
1.05400013923645,41,-4.5804877281189,0.151576444506645,0.181080117821693,0.380487650632858,-43.4707336425781,0.0873291343450546,0.106482975184917,0.270731657743454,59.5780487060547,0.102677397429943,0.121999949216843,0.278050392866135,2012-01-18 15:45:13
1.07399988174438,41,-4.77317094802856,0.103271842002869,0.12692303955555,0.27317088842392,-43.6121978759766,0.0782863348722458,0.0967649519443512,0.212194681167603,59.4560966491699,0.119333766400814,0.141505792737007,0.256097465753555,2012-01-18 15:45:15
1.125,42,-4.72380971908569,0.104535154998302,0.130583941936493,0.323809564113617,-43.5809516906738,0.0979595556855202,0.115959800779819,0.219045907258987,59.4595260620117,0.112925313413143,0.136381387710571,0.35952240228653,2012-01-18 15:45:16
1.08899998664856,38,-4.71315813064575,0.0871191173791885,0.115099668502808,0.286841988563538,-43.5263175964355,0.0922445133328438,0.111648924648762,0.226317554712296,59.542106628418,0.0855962932109833,0.104205653071404,0.242106795310974,2012-01-18 15:45:17
1.07200002670288,40,-4.75,0.177500009536743,0.212132021784782,0.449999898672104,-43.4425010681152,0.128874748945236,0.170128554105759,0.4425008893013,59.4625015258789,0.111249983310699,0.137272775173187,0.362498670816422,2012-01-18 15:45:18
1.33899998664856,42,-4.56666660308838,0.238095253705978,0.309120655059814,0.766666829586029,-43.5,0.0904768854379654,0.134518712759018,0.399998605251312,59.4809532165527,0.106575906276703,0.133163273334503,0.319045841693878,2012-01-18 15:45:19
1,43,-4.9348840713501,0.186154663562775,0.222964957356453,0.434883832931519,-43.7186050415039,0.178907319903374,0.214861690998077,0.418606251478195,59.3790702819824,0.093131959438324,0.10687579959631,0.220932275056839,2012-01-18 15:45:20
1.00500011444092,40,-4.90250015258789,0.277375042438507,0.304538637399673,0.602499902248383,-44.0800018310547,0.118000529706478,0.158429950475693,0.380000293254852,59.5300025939941,0.158500358462334,0.207605332136154,0.629999756813049,2012-01-18 15:45:21
1.0149998664856,38,-5.42368412017822,0.206925168633461,0.286938667297363,0.823684334754944,-42.8894729614258,0.437396138906479,0.549061059951782,1.11052560806274,57.728946685791,0.338088691234589,0.409047722816467,1.17105329036713,2012-01-18 15:45:22
1.01500010490417,39,-5.28205156326294,0.146088108420372,0.193313583731651,0.482051193714142,-42.8641014099121,0.134254112839699,0.154400765895844,0.264100968837738,57.4641036987305,0.0782379433512688,0.0919513553380966,0.164104074239731,2012-01-18 15:45:23
1.01699995994568,33,-5.29090929031372,0.127823695540428,0.179837703704834,0.490909039974213,-42.5878791809082,0.131313592195511,0.159083887934685,0.287880182266235,57.1363639831543,0.192837342619896,0.215769693255424,0.363636255264282,2012-01-18 15:45:24
1.03399991989136,35,-5.02285718917847,0.274122476577759,0.321679294109344,0.822856962680817,-42.3371429443359,0.16604109108448,0.189865812659264,0.362857043743134,57.1028594970703,0.0955099314451218,0.125324100255966,0.297143459320068,2012-01-18 15:45:25
1.03800010681152,42,-5.25,0.123809568583965,0.156220287084579,0.450000196695328,-42.3809547424316,0.124489843845367,0.149980798363686,0.28095081448555,57.1809539794922,0.113151356577873,0.13842286169529,0.319046914577484,2012-01-18 15:45:26
1.05999994277954,40,-5.19500017166138,0.145250111818314,0.193584635853767,0.505000233650208,-42.0400009155273,0.257000058889389,0.302324235439301,0.54000061750412,57.1425018310547,0.123999483883381,0.148133844137192,0.342501252889633,2012-01-18 15:45:27
1.1010000705719,41,-5.05853652954102,0.151814416050911,0.18343023955822,0.458536773920059,-42.134147644043,0.0886372700333595,0.102670788764954,0.234145656228065,57.1878051757812,0.111242562532425,0.129152715206146,0.287804126739502,2012-01-18 15:45:28
1.06299996376038,39,-5.06666660308838,0.0905982851982117,0.116207920014858,0.333333402872086,-42.197437286377,0.0752129182219505,0.0973677188158035,0.20256482064724,57.3179473876953,0.127942830324173,0.172272816300392,0.417947620153427,2012-01-18 15:45:30
1.15100002288818,40,-4.84750032424927,0.105124935507774,0.134140729904175,0.347500115633011,-42.2175025939941,0.0994997769594193,0.133954107761383,0.317499339580536,57.310001373291,0.0925004929304123,0.117898270487785,0.39000016450882,2012-01-18 15:45:31
1.04399991035461,41,-4.56341457366943,0.294348657131195,0.359373569488525,0.763414800167084,-42.119514465332,0.118500307202339,0.153367698192596,0.419512301683426,57.443904876709,0.127900153398514,0.154681295156479,0.356095939874649,2012-01-18 15:45:32
1.07800006866455,41,-4.94146347045898,0.15871499478817,0.191241890192032,0.358536660671234,-42.1658554077148,0.0805464535951614,0.0978038758039474,0.265853226184845,57.4097557067871,0.0913742482662201,0.118538044393063,0.29024413228035,2012-01-18 15:45:33
1.05999994277954,39,-4.84871816635132,0.116765186190605,0.135630995035172,0.348718076944351,-42.1230773925781,0.108086548745632,0.130995348095894,0.323078453540802,57.4410247802734,0.10848106443882,0.135339930653572,0.341023862361908,2012-01-18 15:45:34
1.09000015258789,41,-5,0.151219546794891,0.193806573748589,0.400000214576721,-42.1292686462402,0.0859007835388184,0.108748652040958,0.270732045173645,57.3585357666016,0.114456333220005,0.132473409175873,0.241465225815773,2012-01-18 15:45:35
1.01399993896484,39,-4.88974380493164,0.128994002938271,0.156557247042656,0.310256600379944,-42.1692314147949,0.0808671414852142,0.0964860543608665,0.23076981306076,57.3410263061523,0.110848613083363,0.137221530079842,0.341025918722153,2012-01-18 15:45:36
1.0090000629425,36,-4.68333339691162,0.206481531262398,0.275378525257111,0.583333551883698,-42.0861129760742,0.132098957896233,0.1566182076931,0.313889712095261,57.3472213745117,0.107716605067253,0.134342476725578,0.352778226137161,2012-01-18 15:45:37
1.0019998550415,36,-4.92500019073486,0.116666600108147,0.146011739969254,0.37500011920929,-42.2083358764648,0.0944439917802811,0.116368316113949,0.208334386348724,57.4249992370605,0.0819442719221115,0.108972631394863,0.324998527765274,2012-01-18 15:45:38
1.00200009346008,33,-5.063636302948,0.0898071974515915,0.106794059276581,0.263636231422424,-42.2242431640625,0.10064198076725,0.123165458440781,0.27575695514679,57.3363647460938,0.10247977077961,0.122643038630486,0.263638228178024,2012-01-18 15:45:39
1.01199984550476,36,-4.96111106872559,0.102160423994064,0.125338986515999,0.361111253499985,-42.2055549621582,0.079320065677166,0.102589078247547,0.294443875551224,57.288890838623,0.103085897862911,0.128620117902756,0.288889467716217,2012-01-18 15:45:40
1.00200009346008,37,-4.97027015686035,0.117019660770893,0.14679428935051,0.429729759693146,-42.1081085205078,0.100657112896442,0.11712384968996,0.20810741186142,57.3027038574219,0.122279167175293,0.153316929936409,0.302703350782394,2012-01-18 15:45:41
1.1010000705719,39,-5.09230756759644,0.147534534335136,0.185893028974533,0.407692193984985,-42.1948738098145,0.0840230509638786,0.110820896923542,0.294870913028717,57.235897064209,0.105719223618507,0.132987216114998,0.364104062318802,2012-01-18 15:45:42
1.02300000190735,38,-4.82631587982178,0.287811577320099,0.330616772174835,0.626315593719482,-42.1368408203125,0.109972096979618,0.13459700345993,0.336843490600586,57.2578964233398,0.14570614695549,0.178637534379959,0.457895874977112,2012-01-18 15:45:43
1.04699993133545,41,-5.1365852355957,0.0862583369016647,0.107649244368076,0.336585283279419,-42.2000007629395,0.126829013228416,0.156173706054688,0.299999237060547,57.1512184143066,0.125519961118698,0.149994745850563,0.351221024990082,2012-01-18 15:45:44
1.01500010490417,43,-5.27209329605103,0.142779886722565,0.168889090418816,0.372093021869659,-42.1558151245117,0.112925320863724,0.138601139187813,0.34418523311615,56.9232559204102,0.117576979100704,0.152250155806541,0.376742869615555,2012-01-18 15:45:45
1.00999999046326,38,-5.57631587982178,0.137950137257576,0.169261902570724,0.376315593719482,-41.978946685791,0.107479348778725,0.12805862724781,0.221052676439285,56.4394760131836,0.121606811881065,0.142422094941139,0.260526359081268,2012-01-18 15:45:46
1.01300001144409,38,-5.43157911300659,0.195013806223869,0.236315190792084,0.531578898429871,-41.7078971862793,0.160525873303413,0.203109249472618,0.5078946352005,55.7447357177734,0.195705980062485,0.245696812868118,0.555261731147766,2012-01-18 15:45:47
1.01300001144409,35,-5.44857168197632,0.115755021572113,0.13388991355896,0.251428782939911,-41.6428565979004,0.0873463898897171,0.102219864726067,0.242856487631798,55.391429901123,0.16881662607193,0.203359588980675,0.408570319414139,2012-01-18 15:45:48
1.00699996948242,38,-5.11052656173706,0.195290923118591,0.229174122214317,0.510526537895203,-41.5315780639648,0.117729283869267,0.137851074337959,0.26841926574707,55.3394737243652,0.124654360115528,0.154816716909409,0.339474320411682,2012-01-18 15:45:49
1.00499987602234,37,-5.07567596435547,0.134404703974724,0.174612209200859,0.57567572593689,-41.5486488342285,0.0799132287502289,0.0975977331399918,0.248650625348091,55.318920135498,0.102557092905045,0.126998394727707,0.31891930103302,2012-01-18 15:45:50
1.18499994277954,42,-5.11666679382324,0.16269850730896,0.214827358722687,0.583333551883698,-41.5309524536133,0.129478856921196,0.145550206303596,0.269045770168304,55.3238105773926,0.0843544229865074,0.104219570755959,0.276192158460617,2012-01-18 15:45:51
1.03000020980835,39,-5.2615385055542,0.248915240168571,0.301802664995193,0.638461530208588,-41.3102569580078,0.235108479857445,0.283562242984772,0.710254967212677,55.297435760498,0.0902035608887672,0.112060442566872,0.30256575345993,2012-01-18 15:45:52
1.01799988746643,37,-5.36756753921509,0.134112432599068,0.164487794041634,0.467567533254623,-41.527027130127,0.110300078988075,0.14074844121933,0.427025675773621,55.375675201416,0.0829810202121735,0.10241824388504,0.224326059222221,2012-01-18 15:45:53
1.02500009536743,40,-4.89499998092651,0.266749978065491,0.313807278871536,0.59499990940094,-41.622501373291,0.0808744952082634,0.0987101867794991,0.222499564290047,55.6775016784668,0.126999735832214,0.155703961849213,0.322499185800552,2012-01-18 15:45:54
1.0479998588562,40,-4.36749982833862,0.3957499563694,0.490605473518372,1.1324999332428,-41.6100006103516,0.197499781847,0.251793712377548,0.590000033378601,56.3875007629395,0.567500054836273,0.69144332408905,1.71250140666962,2012-01-18 15:45:56
1.09300017356873,41,-3.96341466903687,0.280904203653336,0.377899289131165,0.863414525985718,-43.1804885864258,0.529208838939667,0.586523234844208,1.08048629760742,58.8463401794434,0.52552056312561,0.629012942314148,1.15365791320801,2012-01-18 15:45:57
1.10699987411499,40,-5.0774998664856,0.282000064849854,0.324412971735001,0.577500104904175,-42.247501373291,0.479624956846237,0.536650598049164,0.852501392364502,57.0149993896484,0.228500589728355,0.307042598724365,0.715001702308655,2012-01-18 15:45:58
1.01999998092651,37,-5.51351356506348,0.264280498027802,0.347315728664398,0.913513660430908,-43.1297302246094,0.64996337890625,0.751166582107544,1.47027182579041,55.5405426025391,0.282687962055206,0.326702654361725,0.759458184242249,2012-01-18 15:45:59
1.01200008392334,38,-4.88421058654785,0.16398885846138,0.205869525671005,0.484210550785065,-47.0921058654785,0.632272005081177,0.858205914497375,2.29210686683655,55.8315811157227,0.285872936248779,0.374942541122437,0.831579685211182,2012-01-18 15:46:00
