"diffSecs","latitude","longitude","altitude","time"
976.131000041962,42.37224006,-70.99523198,7.80000019073486,2012-02-01 07:47:34
1.04700016975403,42.37223196,-70.99518157,9.19999980926514,2012-02-01 07:47:35
0.882999897003174,42.37220451,-70.99519341,12.6999998092651,2012-02-01 07:47:36
1.01600003242493,42.37221571,-70.99520042,12.3000001907349,2012-02-01 07:47:37
0.984999895095825,42.37221079,-70.99519898,10.8999996185303,2012-02-01 07:47:38
1.03999996185303,42.37219391,-70.99520396,7.80000019073486,2012-02-01 07:47:39
1.01999998092651,42.37217376,-70.99521244,4.69999980926514,2012-02-01 07:47:40
1.0460000038147,42.37217172,-70.99520725,5.59999990463257,2012-02-01 07:47:41
0.869000196456909,42.37218102,-70.99519387,5.5,2012-02-01 07:47:42
1.01899981498718,42.37218405,-70.99519017,4.59999990463257,2012-02-01 07:47:43
1.04500007629395,42.37218351,-70.99518956,4.80000019073486,2012-02-01 07:47:44
1.0090000629425,42.37217993,-70.99518892,4,2012-02-01 07:47:45
1.01600003242493,42.37218037,-70.99519353,4.59999990463257,2012-02-01 07:47:46
0.980000019073486,42.37217927,-70.99519483,4.80000019073486,2012-02-01 07:47:47
1.01799988746643,42.37217872,-70.9951955,4.90000009536743,2012-02-01 07:47:48
0.953000068664551,42.37217866,-70.99519608,5,2012-02-01 07:47:49
0.993000030517578,42.37217859,-70.99519608,5,2012-02-01 07:47:50
1.26699995994568,42.3721786,-70.99519615,5,2012-02-01 07:47:51
0.770999908447266,42.37217865,-70.99519606,5,2012-02-01 07:47:52
0.983999967575073,42.37217868,-70.99519598,5,2012-02-01 07:47:53
0.956000089645386,42.37217869,-70.99519594,5,2012-02-01 07:47:54
1.05599999427795,42.37217886,-70.99519556,5,2012-02-01 07:47:55
1.03699994087219,42.37217888,-70.99519559,5,2012-02-01 07:47:56
0.940999984741211,42.37217889,-70.99519535,5,2012-02-01 07:47:57
1.02500009536743,42.37217886,-70.99519528,5,2012-02-01 07:47:58
0.96399998664856,42.37217889,-70.99519541,5,2012-02-01 07:47:59
1.05099987983704,42.37217889,-70.99519541,5,2012-02-01 07:48:00
1.0090000629425,42.3721789,-70.99519545,5,2012-02-01 07:48:01
0.944999933242798,42.37217887,-70.99519551,5,2012-02-01 07:48:02
0.996000051498413,42.37217886,-70.99519554,5,2012-02-01 07:48:03
1.07500004768372,42.37217884,-70.9951955,5,2012-02-01 07:48:04
0.937999963760376,42.37217886,-70.99519551,5,2012-02-01 07:48:05
0.945000171661377,42.37217888,-70.99519539,4.90000009536743,2012-02-01 07:48:06
1.0239999294281,42.37217889,-70.99519529,4.90000009536743,2012-02-01 07:48:07
1.03799986839294,42.37217889,-70.99519526,4.90000009536743,2012-02-01 07:48:08
1.09000015258789,42.37217888,-70.99519524,4.90000009536743,2012-02-01 07:48:09
0.875999927520752,42.37217888,-70.99519518,4.90000009536743,2012-02-01 07:48:10
0.996999979019165,42.37217883,-70.9951953,4.90000009536743,2012-02-01 07:48:11
1.01300001144409,42.37217879,-70.99519526,4.90000009536743,2012-02-01 07:48:12
1.09599995613098,42.37217882,-70.99519537,4.90000009536743,2012-02-01 07:48:13
0.914999961853027,42.37217875,-70.99519531,4.90000009536743,2012-02-01 07:48:14
1.04200005531311,42.37217874,-70.99519528,4.90000009536743,2012-02-01 07:48:15
1.01200008392334,42.37217867,-70.99519538,4.90000009536743,2012-02-01 07:48:16
0.892999887466431,42.37217872,-70.99519514,4.90000009536743,2012-02-01 07:48:17
1.02300000190735,42.37217869,-70.99519516,4.80000019073486,2012-02-01 07:48:18
1,42.37217869,-70.99519516,4.80000019073486,2012-02-01 07:48:19
1.02699995040894,42.37218966,-70.9951896,4,2012-02-01 07:48:20
1.07100009918213,42.37218766,-70.99516356,3,2012-02-01 07:48:21
0.937000036239624,42.37219105,-70.99516267,3,2012-02-01 07:48:22
0.990999937057495,42.37220006,-70.99516845,2.70000004768372,2012-02-01 07:48:23
0.983999967575073,42.37220363,-70.9951632,3,2012-02-01 07:48:24
1.02700018882751,42.37220474,-70.99515786,2.70000004768372,2012-02-01 07:48:25
1.05499982833862,42.37220296,-70.9951578,2.79999995231628,2012-02-01 07:48:26
2.08000016212463,42.37221193,-70.99515781,2.29999995231628,2012-02-01 07:48:28
0.978999853134155,42.37220379,-70.99516179,2.5,2012-02-01 07:48:29
0.88100004196167,42.37220379,-70.99516179,2.5,2012-02-01 07:48:30
0.996000051498413,42.37220287,-70.9951587,2.59999990463257,2012-02-01 07:48:31
1.01799988746643,42.37221026,-70.99515099,2.40000009536743,2012-02-01 07:48:32
0.937999963760376,42.37221637,-70.99515,2.20000004768372,2012-02-01 07:48:33
0.994000196456909,42.37222909,-70.99513968,1.79999995231628,2012-02-01 07:48:34
1.09999990463257,42.37223041,-70.99513692,1.20000004768372,2012-02-01 07:48:35
0.960000038146973,42.37222847,-70.99514956,0.200000002980232,2012-02-01 07:48:36
1.0149998664856,42.37223349,-70.99514612,-0.600000023841858,2012-02-01 07:48:37
1.01500010490417,42.37223349,-70.99514612,-0.600000023841858,2012-02-01 07:48:38
0.986000061035156,42.37224142,-70.99513489,-0.699999988079071,2012-02-01 07:48:39
1.44299983978271,42.3722415,-70.99512666,-1.39999997615814,2012-02-01 07:48:40
0.689000129699707,42.37226401,-70.9951074,-2.5,2012-02-01 07:48:41
0.865999937057495,42.3722646,-70.99510813,-2.5,2012-02-01 07:48:42
0.967000007629395,42.37226064,-70.99510847,-2.59999990463257,2012-02-01 07:48:43
1.13800001144409,42.37226159,-70.9951106,-3,2012-02-01 07:48:44
0.937000036239624,42.37226112,-70.99511348,-3,2012-02-01 07:48:45
0.925999879837036,42.37226633,-70.99511277,-3.29999995231628,2012-02-01 07:48:46
1.0550000667572,42.37226978,-70.99510991,-3.59999990463257,2012-02-01 07:48:47
1.07599997520447,42.3722804,-70.9951144,-4.09999990463257,2012-02-01 07:48:48
0.857000112533569,42.3722804,-70.9951144,-4.09999990463257,2012-02-01 07:48:49
1.00899982452393,42.37228044,-70.99516028,-4.69999980926514,2012-02-01 07:48:50
1.01500010490417,42.37238261,-70.99515923,-7.5,2012-02-01 07:48:51
1.00300002098083,42.37243216,-70.99518285,-7.40000009536743,2012-02-01 07:48:52
1.07599997520447,42.37246284,-70.99521075,-7.30000019073486,2012-02-01 07:48:53
0.884000062942505,42.3725031,-70.99523272,-7.19999980926514,2012-02-01 07:48:54
1.04699993133545,42.37254827,-70.99523268,-7.59999990463257,2012-02-01 07:48:55
1.0239999294281,42.37262393,-70.99521831,-7.59999990463257,2012-02-01 07:48:56
0.966000080108643,42.37268928,-70.99521704,-7.40000009536743,2012-02-01 07:48:57
1.02800011634827,42.37276917,-70.99519899,-6.5,2012-02-01 07:48:58
1.03099989891052,42.37288094,-70.99515056,-6,2012-02-01 07:48:59
1.26099991798401,42.37297287,-70.99512149,-5.69999980926514,2012-02-01 07:49:00
0.738000154495239,42.37306322,-70.99509739,-5.80000019073486,2012-02-01 07:49:01
1.0239999294281,42.37315556,-70.99505363,-6.40000009536743,2012-02-01 07:49:02
0.859999895095825,42.37324125,-70.99501713,-6.80000019073486,2012-02-01 07:49:03
1.06100010871887,42.37333974,-70.99496095,-7.30000019073486,2012-02-01 07:49:04
1.02999997138977,42.37341966,-70.99494153,-8.30000019073486,2012-02-01 07:49:05
0.95799994468689,42.37350711,-70.9949202,-8.60000038146973,2012-02-01 07:49:06
1.01900005340576,42.37361063,-70.99490504,-8.69999980926514,2012-02-01 07:49:07
0.946000099182129,42.37370266,-70.99489026,-8.39999961853027,2012-02-01 07:49:08
1.01099991798401,42.3738257,-70.99484788,-8.69999980926514,2012-02-01 07:49:09
1.09999990463257,42.3739195,-70.99485278,-8.30000019073486,2012-02-01 07:49:10
0.960000038146973,42.3740307,-70.99484699,-8.69999980926514,2012-02-01 07:49:11
1.00300002098083,42.37410529,-70.99484034,-8.80000019073486,2012-02-01 07:49:12
0.931999921798706,42.37420274,-70.99483139,-8.69999980926514,2012-02-01 07:49:13
1.01900005340576,42.37430092,-70.99480583,-8.10000038146973,2012-02-01 07:49:14
1.0789999961853,42.37441701,-70.99480447,-8.30000019073486,2012-02-01 07:49:15
1.0090000629425,42.37452154,-70.99478241,-8.5,2012-02-01 07:49:16
0.891000032424927,42.37462093,-70.99476818,-8.69999980926514,2012-02-01 07:49:17
1.01200008392334,42.37472536,-70.99476824,-9,2012-02-01 07:49:18
1.00499987602234,42.37481413,-70.99478917,-9.19999980926514,2012-02-01 07:49:19
1.09599995613098,42.37491835,-70.99480691,-9.80000019073486,2012-02-01 07:49:20
0.92900013923645,42.37501631,-70.99484119,-10.1000003814697,2012-02-01 07:49:21
0.982999801635742,42.37510192,-70.9948734,-11,2012-02-01 07:49:22
0.981000185012817,42.37521222,-70.99488101,-11.6000003814697,2012-02-01 07:49:23
1.05900001525879,42.37530038,-70.99491247,-11.8999996185303,2012-02-01 07:49:24
1.05799984931946,42.37537804,-70.99494386,-11.6999998092651,2012-02-01 07:49:25
1.00600004196167,42.37542451,-70.99496811,-12.3000001907349,2012-02-01 07:49:26
0.865000009536743,42.37546711,-70.99496689,-12.8000001907349,2012-02-01 07:49:27
1.02699995040894,42.37547982,-70.99496926,-12.8999996185303,2012-02-01 07:49:28
1.07500004768372,42.37552763,-70.99495218,-13.6999998092651,2012-02-01 07:49:29
0.944999933242798,42.37554747,-70.99494857,-14,2012-02-01 07:49:30
1.05599999427795,42.37559061,-70.99490968,-13.6000003814697,2012-02-01 07:49:31
1.16200017929077,42.37559763,-70.99485686,-14,2012-02-01 07:49:32
0.780999898910522,42.37561529,-70.99479136,-14.3000001907349,2012-02-01 07:49:33
0.992000102996826,42.37563619,-70.99470856,-14.6000003814697,2012-02-01 07:49:34
1.00899982452393,42.37564608,-70.9946196,-14.8000001907349,2012-02-01 07:49:35
1.08500003814697,42.37564398,-70.99454448,-14.5,2012-02-01 07:49:36
0.873000144958496,42.37565504,-70.99445606,-14.6999998092651,2012-02-01 07:49:37
0.994999885559082,42.37567028,-70.9943673,-14.6999998092651,2012-02-01 07:49:38
1.00399994850159,42.37568471,-70.99427604,-14.6999998092651,2012-02-01 07:49:39
1.04800009727478,42.37572405,-70.99415429,-14.5,2012-02-01 07:49:40
0.986999988555908,42.37575594,-70.99405892,-14.6000003814697,2012-02-01 07:49:41
0.970000028610229,42.37580538,-70.99395032,-14.5,2012-02-01 07:49:42
1.07099986076355,42.37583713,-70.99382657,-15.8999996185303,2012-02-01 07:49:43
0.990000009536743,42.37587332,-70.9937106,-16.7000007629395,2012-02-01 07:49:44
0.936000108718872,42.37590505,-70.99360184,-17,2012-02-01 07:49:45
1.02799987792969,42.37592807,-70.99348438,-18.2000007629395,2012-02-01 07:49:46
0.992000102996826,42.37598791,-70.99335433,-19.2000007629395,2012-02-01 07:49:47
0.976999998092651,42.37604601,-70.99323725,-19,2012-02-01 07:49:48
1.12299990653992,42.3760801,-70.99312584,-19.1000003814697,2012-02-01 07:49:49
0.950999975204468,42.37613122,-70.99300857,-19.1000003814697,2012-02-01 07:49:50
0.90500020980835,42.37618023,-70.99288627,-19.2000007629395,2012-02-01 07:49:51
1.03499984741211,42.3762229,-70.99274958,-20.7000007629395,2012-02-01 07:49:52
1.04999995231628,42.37623243,-70.99263344,-21.1000003814697,2012-02-01 07:49:53
0.962000131607056,42.37624239,-70.99252088,-20.7999992370605,2012-02-01 07:49:54
0.961999893188477,42.37624817,-70.9924354,-20.7999992370605,2012-02-01 07:49:55
1.03200006484985,42.3762488,-70.99236902,-20.8999996185303,2012-02-01 07:49:56
1.11899995803833,42.37625585,-70.99231716,-20.8999996185303,2012-02-01 07:49:57
0.943000078201294,42.37626938,-70.99229852,-21,2012-02-01 07:49:58
0.931999921798706,42.37628946,-70.99228106,-21.2000007629395,2012-02-01 07:49:59
1.06400012969971,42.37629937,-70.99226063,-20.8999996185303,2012-02-01 07:50:00
0.952999830245972,42.37631884,-70.99223863,-20.7999992370605,2012-02-01 07:50:01
0.973000049591064,42.37634599,-70.99221683,-20.7000007629395,2012-02-01 07:50:02
1.06100010871887,42.37638239,-70.99220382,-20.6000003814697,2012-02-01 07:50:03
1.02099990844727,42.37645786,-70.99219655,-20,2012-02-01 07:50:04
0.914999961853027,42.37653241,-70.99219379,-19.7999992370605,2012-02-01 07:50:05
1.05400013923645,42.37660363,-70.99218647,-20.6000003814697,2012-02-01 07:50:06
1.00399994850159,42.37668896,-70.9921869,-20.7000007629395,2012-02-01 07:50:07
0.94599986076355,42.3768005,-70.99218218,-21.2000007629395,2012-02-01 07:50:08
1.11900019645691,42.37693417,-70.99218044,-21.7999992370605,2012-02-01 07:50:09
0.971999883651733,42.37705025,-70.99217072,-21.7999992370605,2012-02-01 07:50:10
0.930000066757202,42.37715342,-70.992166,-21.6000003814697,2012-02-01 07:50:11
1.01799988746643,42.37728648,-70.99215233,-21.7999992370605,2012-02-01 07:50:12
0.972000122070312,42.37741035,-70.99214428,-21.6000003814697,2012-02-01 07:50:13
1.03399991989136,42.37752319,-70.99213605,-21.5,2012-02-01 07:50:14
1.05299997329712,42.37763741,-70.99211623,-21.2999992370605,2012-02-01 07:50:15
1.09500002861023,42.3777583,-70.99209716,-21.5,2012-02-01 07:50:16
0.781000137329102,42.37786832,-70.99209549,-21.5,2012-02-01 07:50:17
1.0149998664856,42.37801605,-70.99207284,-20.7999992370605,2012-02-01 07:50:18
1.06800007820129,42.37813331,-70.9920541,-21.2000007629395,2012-02-01 07:50:19
1.01999998092651,42.37823812,-70.9920408,-21.7999992370605,2012-02-01 07:50:20
0.967999935150146,42.3783375,-70.99202616,-21.8999996185303,2012-02-01 07:50:21
1.05299997329712,42.37845041,-70.99201997,-21.7000007629395,2012-02-01 07:50:22
1.00800013542175,42.3785642,-70.99200056,-21.2000007629395,2012-02-01 07:50:23
0.904999971389771,42.37864408,-70.99200528,-21.3999996185303,2012-02-01 07:50:24
1.03299999237061,42.37870645,-70.99202397,-20.8999996185303,2012-02-01 07:50:25
1,42.37877302,-70.99201938,-21.1000003814697,2012-02-01 07:50:26
1.04099988937378,42.3788215,-70.99201782,-20.8999996185303,2012-02-01 07:50:27
0.904000043869019,42.37888505,-70.99199895,-20.7999992370605,2012-02-01 07:50:28
1.08899998664856,42.37893293,-70.99198786,-20.6000003814697,2012-02-01 07:50:29
1.05700016021729,42.37893778,-70.99198633,-20.7999992370605,2012-02-01 07:50:30
0.886999845504761,42.37895632,-70.99197115,-20.7000007629395,2012-02-01 07:50:31
0.996999979019165,42.37897122,-70.99196736,-20.6000003814697,2012-02-01 07:50:32
0.969000101089478,42.37899956,-70.99195798,-20.7000007629395,2012-02-01 07:50:33
1.01300001144409,42.37901369,-70.99195442,-20.6000003814697,2012-02-01 07:50:34
1.07200002670288,42.37903188,-70.99195384,-20.7999992370605,2012-02-01 07:50:35
0.978999853134155,42.37903179,-70.99195226,-20.7000007629395,2012-02-01 07:50:36
1.02800011634827,42.37902366,-70.99196131,-20.8999996185303,2012-02-01 07:50:37
0.931999921798706,42.37902574,-70.99196221,-20.8999996185303,2012-02-01 07:50:38
0.999000072479248,42.37901961,-70.99196667,-21.1000003814697,2012-02-01 07:50:39
1.00999999046326,42.37902011,-70.9919698,-21.1000003814697,2012-02-01 07:50:40
1.02600002288818,42.37901794,-70.99197218,-21,2012-02-01 07:50:41
1.06699991226196,42.3790155,-70.99197205,-21,2012-02-01 07:50:42
1.00300002098083,42.37901155,-70.99197129,-20.8999996185303,2012-02-01 07:50:43
0.88100004196167,42.37901371,-70.99197,-20.8999996185303,2012-02-01 07:50:44
1.00600004196167,42.37901781,-70.9919681,-20.7999992370605,2012-02-01 07:50:45
1.03499984741211,42.37901838,-70.99196779,-20.7999992370605,2012-02-01 07:50:46
0.995000123977661,42.37902025,-70.99196743,-20.7999992370605,2012-02-01 07:50:47
1.01999998092651,42.37902211,-70.99196621,-20.7999992370605,2012-02-01 07:50:48
0.941999912261963,42.37902341,-70.99196535,-20.7999992370605,2012-02-01 07:50:49
1.05700016021729,42.37902635,-70.99196392,-20.7999992370605,2012-02-01 07:50:50
1.05399990081787,42.37902722,-70.99196263,-20.8999996185303,2012-02-01 07:50:51
0.903000116348267,42.37902542,-70.99196666,-20.7999992370605,2012-02-01 07:50:52
1.02799987792969,42.3790302,-70.99196136,-20.8999996185303,2012-02-01 07:50:53
0.984999895095825,42.37903286,-70.9919591,-21,2012-02-01 07:50:54
1.09100008010864,42.37903302,-70.99195913,-21,2012-02-01 07:50:55
0.940999984741211,42.37903367,-70.99195917,-21,2012-02-01 07:50:56
0.986000061035156,42.37903629,-70.99195723,-21.1000003814697,2012-02-01 07:50:57
0.976999998092651,42.37903806,-70.9919565,-21.1000003814697,2012-02-01 07:50:58
1.07299995422363,42.37903807,-70.99195646,-21.1000003814697,2012-02-01 07:50:59
1.06800007820129,42.37903807,-70.99195646,-21.1000003814697,2012-02-01 07:51:00
0.83899998664856,42.37906086,-70.99196257,-21.2999992370605,2012-02-01 07:51:01
1.02300000190735,42.37910887,-70.99196875,-21.2000007629395,2012-02-01 07:51:02
0.991999864578247,42.37915746,-70.99196352,-21.6000003814697,2012-02-01 07:51:03
1.02600002288818,42.37919306,-70.99196462,-22,2012-02-01 07:51:04
1,42.3792187,-70.99195145,-22.2000007629395,2012-02-01 07:51:05
0.969000101089478,42.37925642,-70.99194274,-21.8999996185303,2012-02-01 07:51:06
1.00399994850159,42.37928552,-70.99194278,-22.1000003814697,2012-02-01 07:51:07
1.02800011634827,42.37931644,-70.99194216,-22.5,2012-02-01 07:51:08
1.0699999332428,42.37936042,-70.99193668,-22.1000003814697,2012-02-01 07:51:09
0.874000072479248,42.37939628,-70.99192853,-22.8999996185303,2012-02-01 07:51:10
1.03799986839294,42.37942841,-70.99192033,-23.2999992370605,2012-02-01 07:51:11
0.96399998664856,42.3794439,-70.99192259,-23.3999996185303,2012-02-01 07:51:12
1.03800010681152,42.37946951,-70.9919211,-23.2999992370605,2012-02-01 07:51:13
0.976999998092651,42.37948858,-70.99191689,-23.6000003814697,2012-02-01 07:51:14
1.05999994277954,42.37950446,-70.9919046,-23.7999992370605,2012-02-01 07:51:15
1.02900004386902,42.379503,-70.99190198,-23.6000003814697,2012-02-01 07:51:16
0.978999853134155,42.37950816,-70.99190808,-24.2000007629395,2012-02-01 07:51:17
0.925000190734863,42.37951215,-70.9919104,-25,2012-02-01 07:51:18
1.00799989700317,42.37952515,-70.99191376,-25.2000007629395,2012-02-01 07:51:19
1.01800012588501,42.37954319,-70.99191125,-25.3999996185303,2012-02-01 07:51:20
0.997999906539917,42.37955767,-70.99190513,-25.2999992370605,2012-02-01 07:51:21
1.0699999332428,42.37956146,-70.99190194,-25.2000007629395,2012-02-01 07:51:22
0.999000072479248,42.37958163,-70.99189883,-24.7000007629395,2012-02-01 07:51:23
0.91700005531311,42.37959958,-70.99190061,-25.2000007629395,2012-02-01 07:51:24
0.974999904632568,42.37960441,-70.99190144,-24.3999996185303,2012-02-01 07:51:25
1.06100010871887,42.37961749,-70.99190072,-23.6000003814697,2012-02-01 07:51:26
0.98199987411499,42.37963545,-70.99190368,-23.3999996185303,2012-02-01 07:51:27
1.03600001335144,42.37961817,-70.99190743,-23.2000007629395,2012-02-01 07:51:28
1.07800006866455,42.37962689,-70.99190722,-23,2012-02-01 07:51:29
0.901999950408936,42.37964172,-70.991906,-22.7999992370605,2012-02-01 07:51:30
0.950000047683716,42.37964541,-70.99190591,-22.7999992370605,2012-02-01 07:51:31
1.01099991798401,42.3796532,-70.99189542,-22.6000003814697,2012-02-01 07:51:32
0.986000061035156,42.37964696,-70.99188711,-22.6000003814697,2012-02-01 07:51:33
1.04099988937378,42.37965131,-70.99188451,-22.3999996185303,2012-02-01 07:51:34
1.02900004386902,42.3796698,-70.99187516,-22.1000003814697,2012-02-01 07:51:35
1.0220000743866,42.37967992,-70.99187523,-22.7000007629395,2012-02-01 07:51:36
0.948999881744385,42.37967908,-70.99188267,-23,2012-02-01 07:51:37
0.967000007629395,42.37968085,-70.99188355,-23,2012-02-01 07:51:38
1.0550000667572,42.37968471,-70.99188344,-22.7999992370605,2012-02-01 07:51:39
1.0550000667572,42.37968472,-70.9918873,-23.2000007629395,2012-02-01 07:51:40
1.0460000038147,42.37968352,-70.99188935,-23.1000003814697,2012-02-01 07:51:41
0.898999929428101,42.37967734,-70.99189697,-23.2000007629395,2012-02-01 07:51:42
0.986999988555908,42.37967423,-70.99190221,-23.2000007629395,2012-02-01 07:51:43
0.989000082015991,42.37967392,-70.99190414,-23.3999996185303,2012-02-01 07:51:44
0.968999862670898,42.37967334,-70.99190894,-23.6000003814697,2012-02-01 07:51:45
1.01200008392334,42.37967225,-70.99191117,-23.6000003814697,2012-02-01 07:51:46
1.0090000629425,42.37967132,-70.99191139,-23.6000003814697,2012-02-01 07:51:47
1.08799982070923,42.37967239,-70.99191114,-23.6000003814697,2012-02-01 07:51:48
0.92900013923645,42.3796746,-70.9919102,-23.7000007629395,2012-02-01 07:51:49
1,42.37967515,-70.9919098,-23.6000003814697,2012-02-01 07:51:50
0.967000007629395,42.37967639,-70.99190986,-23.6000003814697,2012-02-01 07:51:51
1.01999998092651,42.37967639,-70.99190986,-23.6000003814697,2012-02-01 07:51:52
1.00499987602234,42.3796943,-70.991915,-23.2000007629395,2012-02-01 07:51:53
1.007000207901,42.37970646,-70.99190641,-22.7999992370605,2012-02-01 07:51:54
1.04499983787537,42.37973636,-70.99189459,-23.2000007629395,2012-02-01 07:51:55
0.986000061035156,42.37976398,-70.99190228,-23.2999992370605,2012-02-01 07:51:56
0.967999935150146,42.37980002,-70.99190125,-22.6000003814697,2012-02-01 07:51:57
1.01900005340576,42.37980992,-70.99192352,-23.2000007629395,2012-02-01 07:51:58
0.992000102996826,42.37981485,-70.99192559,-22.6000003814697,2012-02-01 07:51:59
1.03600001335144,42.37983649,-70.99193735,-22.7999992370605,2012-02-01 07:52:00
0.972999811172485,42.37987618,-70.9919364,-22.2000007629395,2012-02-01 07:52:01
1.01800012588501,42.37990911,-70.991921,-22.1000003814697,2012-02-01 07:52:02
1.10699987411499,42.37993983,-70.9919168,-22.2000007629395,2012-02-01 07:52:03
0.894999980926514,42.3799759,-70.99192095,-21.1000003814697,2012-02-01 07:52:04
0.955000162124634,42.37999735,-70.99191154,-20.8999996185303,2012-02-01 07:52:05
1.03499984741211,42.38001043,-70.99190221,-21.7999992370605,2012-02-01 07:52:06
1.0460000038147,42.38004406,-70.99189548,-22,2012-02-01 07:52:07
0.996999979019165,42.38006688,-70.99189598,-22,2012-02-01 07:52:08
0.897000074386597,42.38009509,-70.99189107,-22.3999996185303,2012-02-01 07:52:09
1.02999997138977,42.38012712,-70.99189421,-22,2012-02-01 07:52:10
0.983000040054321,42.38014152,-70.99189194,-21.8999996185303,2012-02-01 07:52:11
1.02300000190735,42.38016922,-70.9918945,-21.5,2012-02-01 07:52:12
1.08500003814697,42.38021073,-70.99189056,-21.1000003814697,2012-02-01 07:52:13
0.885999917984009,42.3802463,-70.99188409,-21,2012-02-01 07:52:14
0.981000185012817,42.38027675,-70.99188267,-20.3999996185303,2012-02-01 07:52:15
1.00899982452393,42.38032715,-70.99187044,-20,2012-02-01 07:52:16
1.04500007629395,42.38035387,-70.99185816,-21,2012-02-01 07:52:17
1.04399991035461,42.3803589,-70.9918492,-21.2999992370605,2012-02-01 07:52:18
0.890000104904175,42.380381,-70.99184445,-22.1000003814697,2012-02-01 07:52:19
1.03600001335144,42.38039022,-70.99183427,-22,2012-02-01 07:52:20
1.01699995994568,42.38038869,-70.99183262,-22,2012-02-01 07:52:21
0.976000070571899,42.38038803,-70.99183182,-22.2000007629395,2012-02-01 07:52:22
1.00399994850159,42.38041105,-70.99182585,-22.7999992370605,2012-02-01 07:52:23
1.04299998283386,42.38041041,-70.99182532,-22.7000007629395,2012-02-01 07:52:24
1.06599998474121,42.38042874,-70.99181488,-23.2999992370605,2012-02-01 07:52:25
0.874000072479248,42.38044009,-70.99181369,-23.3999996185303,2012-02-01 07:52:26
1.04099988937378,42.38044643,-70.99181509,-23.6000003814697,2012-02-01 07:52:27
0.975000143051147,42.38044772,-70.99181422,-23.7000007629395,2012-02-01 07:52:28
1.0259997844696,42.38045586,-70.9918118,-23.7999992370605,2012-02-01 07:52:29
1.07100009918213,42.38045575,-70.99181103,-24.2000007629395,2012-02-01 07:52:30
0.972000122070312,42.38045874,-70.99181081,-24.2999992370605,2012-02-01 07:52:31
0.918999910354614,42.38045965,-70.99181092,-24.3999996185303,2012-02-01 07:52:32
1.02900004386902,42.38045948,-70.991812,-24,2012-02-01 07:52:33
1.12899994850159,42.38046031,-70.99181384,-23.7000007629395,2012-02-01 07:52:34
0.921000003814697,42.38045811,-70.99181549,-23.7999992370605,2012-02-01 07:52:35
0.980999946594238,42.38045492,-70.99181649,-23.8999996185303,2012-02-01 07:52:36
0.976999998092651,42.38045171,-70.99181785,-23.8999996185303,2012-02-01 07:52:37
0.990000009536743,42.38044929,-70.99181926,-23.8999996185303,2012-02-01 07:52:38
1.09299993515015,42.38044867,-70.99181964,-23.8999996185303,2012-02-01 07:52:39
1.00800013542175,42.38044815,-70.99182036,-24,2012-02-01 07:52:40
0.885999917984009,42.38044667,-70.99182076,-24,2012-02-01 07:52:41
0.982000112533569,42.38044626,-70.99182053,-24,2012-02-01 07:52:42
1.04999995231628,42.3804447,-70.99182152,-24,2012-02-01 07:52:43
1.03699994087219,42.3804439,-70.99182153,-24,2012-02-01 07:52:44
1.03600001335144,42.38044217,-70.99182225,-24,2012-02-01 07:52:45
0.967000007629395,42.38044252,-70.99182183,-24,2012-02-01 07:52:46
0.934000015258789,42.38044323,-70.99182142,-24,2012-02-01 07:52:47
0.989000082015991,42.38044347,-70.99182084,-24,2012-02-01 07:52:48
0.983999967575073,42.38044524,-70.99181975,-24,2012-02-01 07:52:49
0.996000051498413,42.38044676,-70.99181918,-24,2012-02-01 07:52:50
1.01699995994568,42.38044843,-70.99181835,-24,2012-02-01 07:52:51
1.02699995040894,42.38044843,-70.99181835,-24,2012-02-01 07:52:52
1.00600004196167,42.38047034,-70.99184035,-24.1000003814697,2012-02-01 07:52:53
1.04699993133545,42.3804849,-70.99185396,-24.2000007629395,2012-02-01 07:52:54
1.04500007629395,42.38052223,-70.99187807,-25.2999992370605,2012-02-01 07:52:55
0.935999870300293,42.38055371,-70.99189015,-26,2012-02-01 07:52:56
0.916000127792358,42.38059615,-70.9918888,-25.2000007629395,2012-02-01 07:52:57
1.03900003433228,42.3806437,-70.99188178,-25,2012-02-01 07:52:58
1.00999999046326,42.3806817,-70.99187962,-24.1000003814697,2012-02-01 07:52:59
1.0699999332428,42.38070597,-70.99187348,-24.2000007629395,2012-02-01 07:53:00
0.958999872207642,42.38074019,-70.99186967,-23.8999996185303,2012-02-01 07:53:01
1.00500011444092,42.38077997,-70.99187395,-24.5,2012-02-01 07:53:02
0.971999883651733,42.38082021,-70.99186493,-24.2999992370605,2012-02-01 07:53:03
1.03500008583069,42.38086569,-70.99184012,-23.7999992370605,2012-02-01 07:53:04
1.03399991989136,42.3809357,-70.99180781,-23.1000003814697,2012-02-01 07:53:05
0.969000101089478,42.38098236,-70.99179783,-22.3999996185303,2012-02-01 07:53:06
0.937000036239624,42.38101881,-70.99178753,-22.7999992370605,2012-02-01 07:53:07
1.09999990463257,42.38105868,-70.99178978,-22.5,2012-02-01 07:53:08
1.02600002288818,42.38109775,-70.99177882,-22.7000007629395,2012-02-01 07:53:09
0.883000135421753,42.38114342,-70.99177585,-22.7000007629395,2012-02-01 07:53:10
1.01099991798401,42.38116758,-70.99176976,-22.7999992370605,2012-02-01 07:53:11
1.00300002098083,42.38118434,-70.9917772,-22.6000003814697,2012-02-01 07:53:12
0.983999967575073,42.38122088,-70.99176395,-22.5,2012-02-01 07:53:13
1.07599997520447,42.38124545,-70.99176084,-23.1000003814697,2012-02-01 07:53:14
0.906000137329102,42.38126259,-70.9917535,-22.5,2012-02-01 07:53:15
1.0389997959137,42.38126792,-70.99175542,-22.3999996185303,2012-02-01 07:53:16
0.996000051498413,42.38129481,-70.99174654,-22.1000003814697,2012-02-01 07:53:17
0.990999937057495,42.38129822,-70.99173685,-21.8999996185303,2012-02-01 07:53:18
1.05400013923645,42.38129477,-70.9917321,-21.2999992370605,2012-02-01 07:53:19
1.06800007820129,42.38129985,-70.99172356,-20.2999992370605,2012-02-01 07:53:20
0.828999996185303,42.3813124,-70.99171197,-19.5,2012-02-01 07:53:21
1.03399991989136,42.38131767,-70.99170677,-19.3999996185303,2012-02-01 07:53:22
0.997999906539917,42.38131128,-70.99170528,-19.5,2012-02-01 07:53:23
0.970000028610229,42.38130429,-70.99170317,-19.8999996185303,2012-02-01 07:53:24
1.03400015830994,42.38129824,-70.99170895,-19.5,2012-02-01 07:53:25
1.04499983787537,42.38129892,-70.9917088,-19.7000007629395,2012-02-01 07:53:26
0.998000144958496,42.38129496,-70.99171232,-19.6000003814697,2012-02-01 07:53:27
0.955999851226807,42.38129641,-70.99171331,-19.7000007629395,2012-02-01 07:53:28
1.03200006484985,42.38129634,-70.99171218,-19.3999996185303,2012-02-01 07:53:29
0.976000070571899,42.38129609,-70.99171388,-19.6000003814697,2012-02-01 07:53:30
0.967000007629395,42.38129652,-70.9917119,-19.6000003814697,2012-02-01 07:53:31
1.04499983787537,42.38130035,-70.99171745,-19.6000003814697,2012-02-01 07:53:32
1.03200006484985,42.38130183,-70.99171896,-19.3999996185303,2012-02-01 07:53:33
1.03299999237061,42.3813037,-70.99172249,-19.3999996185303,2012-02-01 07:53:34
0.91100001335144,42.38130625,-70.99172151,-19.2999992370605,2012-02-01 07:53:35
1.00799989700317,42.38130653,-70.99172139,-19.2999992370605,2012-02-01 07:53:36
0.998000144958496,42.38130651,-70.99172148,-19.2999992370605,2012-02-01 07:53:37
1.00399994850159,42.38130623,-70.99172143,-19.2999992370605,2012-02-01 07:53:38
1.05800008773804,42.38130635,-70.99172146,-19.2999992370605,2012-02-01 07:53:39
1.00799989700317,42.38130582,-70.99172148,-19.2999992370605,2012-02-01 07:53:40
1.02300000190735,42.38130595,-70.99172143,-19.2999992370605,2012-02-01 07:53:41
0.960000038146973,42.38130584,-70.99172146,-19.2999992370605,2012-02-01 07:53:42
0.960999965667725,42.38130557,-70.99172145,-19.2999992370605,2012-02-01 07:53:43
0.956000089645386,42.38130552,-70.99172135,-19.2999992370605,2012-02-01 07:53:44
1.05299997329712,42.38130532,-70.99172138,-19.2999992370605,2012-02-01 07:53:45
0.993000030517578,42.38130501,-70.9917215,-19.2999992370605,2012-02-01 07:53:46
0.972999811172485,42.38130522,-70.99172145,-19.2999992370605,2012-02-01 07:53:47
1.07200002670288,42.38130535,-70.99172141,-19.2999992370605,2012-02-01 07:53:48
0.921000003814697,42.38130592,-70.99172122,-19.2999992370605,2012-02-01 07:53:49
1.04100012779236,42.3813069,-70.99172104,-19.2000007629395,2012-02-01 07:53:50
1,42.38130838,-70.99172087,-19.2000007629395,2012-02-01 07:53:51
0.983000040054321,42.38130954,-70.9917206,-19.2000007629395,2012-02-01 07:53:52
1.07599997520447,42.38131088,-70.99172009,-19.2000007629395,2012-02-01 07:53:53
0.977999925613403,42.38131088,-70.99172009,-19.2000007629395,2012-02-01 07:53:54
0.901000022888184,42.38136513,-70.9917111,-19.6000003814697,2012-02-01 07:53:55
1.01999998092651,42.3814256,-70.99169583,-19.2999992370605,2012-02-01 07:53:56
1.0090000629425,42.3814756,-70.99168534,-18.7000007629395,2012-02-01 07:53:57
1.07399988174438,42.38151156,-70.99167982,-18.6000003814697,2012-02-01 07:53:58
1.03700017929077,42.38156657,-70.99167814,-19,2012-02-01 07:53:59
0.919999837875366,42.38162036,-70.99167619,-19.7000007629395,2012-02-01 07:54:00
1.01500010490417,42.3816788,-70.99167062,-19.2999992370605,2012-02-01 07:54:01
1.1269998550415,42.38172064,-70.99167572,-20.2000007629395,2012-02-01 07:54:02
0.838000059127808,42.38176725,-70.99166541,-20.5,2012-02-01 07:54:03
1.02800011634827,42.3818037,-70.99165397,-21.6000003814697,2012-02-01 07:54:04
0.958999872207642,42.38184758,-70.99164732,-22.1000003814697,2012-02-01 07:54:05
1.01699995994568,42.38189003,-70.99165245,-22.6000003814697,2012-02-01 07:54:06
1.00699996948242,42.38192152,-70.99164191,-22.2000007629395,2012-02-01 07:54:07
1.05599999427795,42.38194605,-70.99163864,-21.1000003814697,2012-02-01 07:54:08
0.947000026702881,42.38196963,-70.99163002,-21.2999992370605,2012-02-01 07:54:09
0.984000205993652,42.38200256,-70.99162247,-21.7000007629395,2012-02-01 07:54:10
1.02199983596802,42.38202837,-70.99163094,-21.7999992370605,2012-02-01 07:54:11
0.952000141143799,42.38204033,-70.99162449,-22.7999992370605,2012-02-01 07:54:12
1.02600002288818,42.3820615,-70.99162418,-23.2000007629395,2012-02-01 07:54:13
1.07799983024597,42.38207803,-70.99162194,-23.1000003814697,2012-02-01 07:54:14
0.983999967575073,42.38209668,-70.99161994,-22.6000003814697,2012-02-01 07:54:15
1.00800013542175,42.38210112,-70.99163804,-22.7000007629395,2012-02-01 07:54:16
0.922999858856201,42.38208968,-70.991641,-22,2012-02-01 07:54:17
0.999000072479248,42.38209251,-70.99163506,-22,2012-02-01 07:54:18
1.06299996376038,42.38208549,-70.99163581,-22.1000003814697,2012-02-01 07:54:19
0.972000122070312,42.38208656,-70.99163786,-22.2000007629395,2012-02-01 07:54:20
1.06200003623962,42.38208516,-70.99164135,-21.8999996185303,2012-02-01 07:54:21
0.964999914169312,42.38208553,-70.99164549,-21.7999992370605,2012-02-01 07:54:22
0.938999891281128,42.38208317,-70.99164739,-21.7000007629395,2012-02-01 07:54:23
1.05200004577637,42.38208545,-70.99164789,-21.7000007629395,2012-02-01 07:54:24
0.975000143051147,42.38208754,-70.99164475,-21.7000007629395,2012-02-01 07:54:25
0.978999853134155,42.38208692,-70.99164685,-21.7000007629395,2012-02-01 07:54:26
1.02800011634827,42.38209012,-70.9916463,-21.5,2012-02-01 07:54:27
1.02999997138977,42.38209063,-70.99164653,-21.5,2012-02-01 07:54:28
1.01099991798401,42.38208978,-70.99164704,-21.5,2012-02-01 07:54:29
1.0220000743866,42.38209044,-70.99164699,-21.5,2012-02-01 07:54:30
0.940000057220459,42.38209051,-70.99164701,-21.5,2012-02-01 07:54:31
1.00399994850159,42.38209008,-70.99164717,-21.5,2012-02-01 07:54:32
0.986000061035156,42.38209029,-70.99164707,-21.5,2012-02-01 07:54:33
1.03600001335144,42.38209063,-70.99164693,-21.5,2012-02-01 07:54:34
1.01199984550476,42.38209105,-70.99164672,-21.5,2012-02-01 07:54:35
1.02100014686584,42.38209065,-70.99164688,-21.5,2012-02-01 07:54:36
0.965999841690063,42.38209016,-70.99164706,-21.5,2012-02-01 07:54:37
0.957000017166138,42.38208961,-70.99164729,-21.3999996185303,2012-02-01 07:54:38
0.950000047683716,42.38209036,-70.99164698,-21.5,2012-02-01 07:54:39
1.04500007629395,42.38209033,-70.99164698,-21.5,2012-02-01 07:54:40
1.00300002098083,42.38209066,-70.99164683,-21.5,2012-02-01 07:54:41
1.04899978637695,42.38209121,-70.99164657,-21.5,2012-02-01 07:54:42
1.02800011634827,42.38209179,-70.99164625,-21.6000003814697,2012-02-01 07:54:43
0.967000007629395,42.38209198,-70.99164613,-21.6000003814697,2012-02-01 07:54:44
0.956000089645386,42.38209224,-70.991646,-21.6000003814697,2012-02-01 07:54:45
0.978999853134155,42.38209241,-70.99164591,-21.6000003814697,2012-02-01 07:54:46
1.01600003242493,42.38209267,-70.99164576,-21.6000003814697,2012-02-01 07:54:47
0.989000082015991,42.38209242,-70.99164589,-21.6000003814697,2012-02-01 07:54:48
1.03999996185303,42.38209218,-70.991646,-21.6000003814697,2012-02-01 07:54:49
1.05900001525879,42.38209222,-70.99164594,-21.6000003814697,2012-02-01 07:54:50
0.954999923706055,42.38209245,-70.9916458,-21.6000003814697,2012-02-01 07:54:51
0.967000007629395,42.3820919,-70.99164601,-21.6000003814697,2012-02-01 07:54:52
0.969000101089478,42.38209198,-70.99164588,-21.6000003814697,2012-02-01 07:54:53
1.00999999046326,42.38209226,-70.99164569,-21.6000003814697,2012-02-01 07:54:54
1.03699994087219,42.38209213,-70.9916458,-21.6000003814697,2012-02-01 07:54:55
0.971999883651733,42.38209213,-70.9916458,-21.6000003814697,2012-02-01 07:54:56
1.01100015640259,42.38210395,-70.99164823,-21.6000003814697,2012-02-01 07:54:57
1.06399989128113,42.38208817,-70.99167841,-21.7999992370605,2012-02-01 07:54:58
0.996000051498413,42.38213011,-70.99165474,-20.7999992370605,2012-02-01 07:54:59
0.950000047683716,42.3821314,-70.99166616,-20.7999992370605,2012-02-01 07:55:00
1.07399988174438,42.38216263,-70.99166682,-21,2012-02-01 07:55:01
0.946000099182129,42.38218511,-70.9916695,-20.2999992370605,2012-02-01 07:55:02
1.01399993896484,42.38225882,-70.99163172,-20,2012-02-01 07:55:03
0.996999979019165,42.38227087,-70.99163109,-20.2999992370605,2012-02-01 07:55:04
0.950000047683716,42.38231026,-70.99162016,-19,2012-02-01 07:55:05
0.98799991607666,42.38233633,-70.99161071,-19,2012-02-01 07:55:06
1.02400016784668,42.38237773,-70.99159606,-16.6000003814697,2012-02-01 07:55:07
1.05399990081787,42.38241137,-70.99158563,-15.6999998092651,2012-02-01 07:55:08
1.01500010490417,42.38241322,-70.99159755,-15.5,2012-02-01 07:55:09
0.904999971389771,42.38243555,-70.99161115,-14.3000001907349,2012-02-01 07:55:10
0.986999988555908,42.38245163,-70.99162904,-14.6000003814697,2012-02-01 07:55:11
1,42.38246722,-70.99164697,-14.1000003814697,2012-02-01 07:55:12
1.07699990272522,42.38248409,-70.99168336,-13.6999998092651,2012-02-01 07:55:13
0.976000070571899,42.38249584,-70.99171479,-13,2012-02-01 07:55:14
1.03299999237061,42.38250176,-70.99176489,-13.5,2012-02-01 07:55:15
0.943000078201294,42.3825135,-70.99181057,-14.3999996185303,2012-02-01 07:55:16
0.986999988555908,42.38251534,-70.99184507,-14,2012-02-01 07:55:17
0.980000019073486,42.38251872,-70.99189255,-14.3999996185303,2012-02-01 07:55:18
1.00799989700317,42.38253179,-70.99193943,-14,2012-02-01 07:55:19
1.01800012588501,42.38254136,-70.99196752,-15,2012-02-01 07:55:20
1.05099987983704,42.38255519,-70.99199046,-15.3999996185303,2012-02-01 07:55:21
1.00600004196167,42.38255535,-70.99200484,-16.5,2012-02-01 07:55:22
1.04399991035461,42.38255681,-70.99201128,-16.3999996185303,2012-02-01 07:55:23
0.950000047683716,42.38254014,-70.99202694,-17.1000003814697,2012-02-01 07:55:24
0.937000036239624,42.3825379,-70.9920274,-17.3999996185303,2012-02-01 07:55:25
1.00300002098083,42.38253946,-70.99202973,-17.6000003814697,2012-02-01 07:55:26
0.984999895095825,42.38252755,-70.99204572,-17.7999992370605,2012-02-01 07:55:27
1.09299993515015,42.38252099,-70.99206732,-18.2000007629395,2012-02-01 07:55:28
0.973000049591064,42.38251579,-70.9920863,-18.1000003814697,2012-02-01 07:55:29
0.92900013923645,42.38252608,-70.99211069,-17.3999996185303,2012-02-01 07:55:30
1.12299990653992,42.38252262,-70.9921385,-17.1000003814697,2012-02-01 07:55:31
0.930000066757202,42.38252312,-70.9921725,-17.3999996185303,2012-02-01 07:55:32
1.00300002098083,42.38253119,-70.99220949,-18,2012-02-01 07:55:33
1.45499992370605,42.38252795,-70.99224562,-18.1000003814697,2012-02-01 07:55:34
0.529000043869019,42.38253986,-70.99227679,-17.7000007629395,2012-02-01 07:55:35
0.99399995803833,42.3825379,-70.9923141,-18,2012-02-01 07:55:36
1.04800009727478,42.38253424,-70.99234852,-18.7000007629395,2012-02-01 07:55:37
1.03699994087219,42.38253874,-70.99239184,-19.2999992370605,2012-02-01 07:55:38
0.994999885559082,42.38255099,-70.99243767,-20,2012-02-01 07:55:39
0.919000148773193,42.38255819,-70.99248057,-20.2999992370605,2012-02-01 07:55:40
0.984999895095825,42.38257373,-70.99251677,-20.5,2012-02-01 07:55:41
1.05599999427795,42.38257606,-70.99254987,-20.3999996185303,2012-02-01 07:55:42
1.00699996948242,42.3825879,-70.99258935,-21.2000007629395,2012-02-01 07:55:43
1.0310001373291,42.38259401,-70.99264174,-20.7000007629395,2012-02-01 07:55:44
0.928999900817871,42.38257571,-70.99270354,-22,2012-02-01 07:55:45
0.993000030517578,42.38257508,-70.99276506,-22.3999996185303,2012-02-01 07:55:46
1.00699996948242,42.38257556,-70.99282166,-21.8999996185303,2012-02-01 07:55:47
1.00600004196167,42.38257887,-70.99287824,-22.7000007629395,2012-02-01 07:55:48
1.03299999237061,42.38258536,-70.99292885,-23.1000003814697,2012-02-01 07:55:49
1.10599994659424,42.38258482,-70.99296764,-22.2000007629395,2012-02-01 07:55:50
0.858000040054321,42.38258642,-70.99302039,-22,2012-02-01 07:55:51
1.00699996948242,42.3825932,-70.99306902,-22.2000007629395,2012-02-01 07:55:52
1.03900003433228,42.38260764,-70.99312737,-22.5,2012-02-01 07:55:53
0.976000070571899,42.38260557,-70.99318449,-22.1000003814697,2012-02-01 07:55:54
1.03299999237061,42.38262328,-70.99324263,-21.8999996185303,2012-02-01 07:55:55
0.983999967575073,42.38262649,-70.99329896,-21.7000007629395,2012-02-01 07:55:56
1.0090000629425,42.38263195,-70.99336291,-22,2012-02-01 07:55:57
0.940999984741211,42.38261732,-70.99344629,-22.8999996185303,2012-02-01 07:55:58
1.0239999294281,42.38260256,-70.99351384,-22.5,2012-02-01 07:55:59
1.04200005531311,42.38260723,-70.99356764,-23.1000003814697,2012-02-01 07:56:00
1.07599997520447,42.38261142,-70.99362462,-23.7999992370605,2012-02-01 07:56:01
0.828000068664551,42.38261195,-70.9936745,-24,2012-02-01 07:56:02
1.03099989891052,42.38261904,-70.99373582,-24.5,2012-02-01 07:56:03
1.02999997138977,42.38262481,-70.99379436,-24.7000007629395,2012-02-01 07:56:04
0.993000030517578,42.38263488,-70.99385955,-24.3999996185303,2012-02-01 07:56:05
1.1029999256134,42.3826446,-70.9939151,-24,2012-02-01 07:56:06
0.900000095367432,42.38264269,-70.99399911,-24.5,2012-02-01 07:56:07
1.00699996948242,42.38265239,-70.9940546,-25.2999992370605,2012-02-01 07:56:08
1.03699994087219,42.38264831,-70.9941181,-24.7999992370605,2012-02-01 07:56:09
0.962000131607056,42.38265603,-70.99418544,-25.2000007629395,2012-02-01 07:56:10
1.06900000572205,42.38266835,-70.99424424,-25.3999996185303,2012-02-01 07:56:11
0.869999885559082,42.38267099,-70.99431674,-25.2999992370605,2012-02-01 07:56:12
1.02699995040894,42.38268093,-70.99439076,-24.8999996185303,2012-02-01 07:56:13
1.0220000743866,42.3826861,-70.99446937,-23.7999992370605,2012-02-01 07:56:14
2.13899993896484,42.38269414,-70.99462125,-24.3999996185303,2012-02-01 07:56:16
1.17500019073486,42.38270198,-70.99469114,-25.2000007629395,2012-02-01 07:56:17
1.03199982643127,42.38270823,-70.99476871,-25.2999992370605,2012-02-01 07:56:18
0.919000148773193,42.38271843,-70.99484788,-25.3999996185303,2012-02-01 07:56:19
0.953999996185303,42.38272461,-70.99493023,-25.1000003814697,2012-02-01 07:56:20
1.01300001144409,42.38273403,-70.9950261,-24.6000003814697,2012-02-01 07:56:21
1.0939998626709,42.38274743,-70.99511854,-24.8999996185303,2012-02-01 07:56:22
1.01600003242493,42.38276124,-70.99521,-25,2012-02-01 07:56:23
0.907999992370605,42.38277735,-70.99530461,-25.2999992370605,2012-02-01 07:56:24
0.954999923706055,42.3828021,-70.995395,-25.2000007629395,2012-02-01 07:56:25
0.974000215530396,42.38281373,-70.99550078,-25.6000003814697,2012-02-01 07:56:26
1.00799989700317,42.3828401,-70.99561305,-25.7999992370605,2012-02-01 07:56:27
0.539000034332275,42.38285656,-70.9956911,-26,2012-02-01 07:56:27
1.98799991607666,42.38288388,-70.99592902,-25.2999992370605,2012-02-01 07:56:29
1.45900011062622,42.38291885,-70.99607665,-25.1000003814697,2012-02-01 07:56:31
1.03299999237061,42.3829632,-70.99615524,-23.7999992370605,2012-02-01 07:56:32
1.11899995803833,42.38297217,-70.99626031,-24.6000003814697,2012-02-01 07:56:33
1.21199989318848,42.38301715,-70.99637812,-24.2999992370605,2012-02-01 07:56:34
0.160000085830688,42.38301715,-70.99637812,-24.2999992370605,2012-02-01 07:56:34
1.46300005912781,42.38302935,-70.99646366,-24.6000003814697,2012-02-01 07:56:36
0.998999834060669,42.38305687,-70.99653766,-23.7000007629395,2012-02-01 07:56:37
1.1710000038147,42.38307145,-70.99659749,-23.7000007629395,2012-02-01 07:56:38
1.00200009346008,42.38308641,-70.99665755,-23.7999992370605,2012-02-01 07:56:39
0.842999935150146,42.38309289,-70.99672554,-23.6000003814697,2012-02-01 07:56:40
1.16300010681152,42.38310901,-70.99679741,-24.2999992370605,2012-02-01 07:56:41
0.991999864578247,42.38313075,-70.99686384,-24.2999992370605,2012-02-01 07:56:42
0.863000154495239,42.38314647,-70.99693873,-25.2999992370605,2012-02-01 07:56:43
1.06099987030029,42.38317468,-70.9969982,-25.3999996185303,2012-02-01 07:56:44
0.414999961853027,42.3831921,-70.99703908,-26.2000007629395,2012-02-01 07:56:44
1.99500012397766,42.38321577,-70.99713754,-26,2012-02-01 07:56:46
0.986000061035156,42.38322842,-70.99715393,-26.1000003814697,2012-02-01 07:56:47
1.03399991989136,42.3832182,-70.99719992,-24.8999996185303,2012-02-01 07:56:48
0.861000061035156,42.38324779,-70.99721306,-26.6000003814697,2012-02-01 07:56:49
1.14400005340576,42.38325502,-70.9972487,-26.1000003814697,2012-02-01 07:56:50
0.997999906539917,42.38325704,-70.99727371,-25.2000007629395,2012-02-01 07:56:51
0.96399998664856,42.38326647,-70.99732107,-24,2012-02-01 07:56:52
1.0789999961853,42.38328267,-70.99735794,-24,2012-02-01 07:56:53
0.749000072479248,42.38330869,-70.99741352,-24.8999996185303,2012-02-01 07:56:54
1.66899991035461,42.38332086,-70.99747547,-25.2999992370605,2012-02-01 07:56:56
0.464999914169312,42.38334817,-70.99748293,-25,2012-02-01 07:56:56
2.04700016975403,42.38334981,-70.99756381,-24.2999992370605,2012-02-01 07:56:58
1.02199983596802,42.38338987,-70.99758505,-23.7000007629395,2012-02-01 07:56:59
0.942000150680542,42.38340122,-70.99763553,-23.7999992370605,2012-02-01 07:57:00
1.06399989128113,42.38341129,-70.99769534,-23.8999996185303,2012-02-01 07:57:01
1.51699995994568,42.38344385,-70.99775561,-24.2999992370605,2012-02-01 07:57:03
1.15900015830994,42.38346861,-70.99779713,-24.5,2012-02-01 07:57:04
0.888000011444092,42.38349176,-70.99785262,-24.2999992370605,2012-02-01 07:57:05
0.277999877929688,42.38349083,-70.99787519,-24,2012-02-01 07:57:05
2.15700006484985,42.38351822,-70.9979991,-24,2012-02-01 07:57:07
0.973000049591064,42.38352481,-70.99800477,-23.6000003814697,2012-02-01 07:57:08
1.06299996376038,42.38352592,-70.99804279,-22.5,2012-02-01 07:57:09
0.823999881744385,42.38352032,-70.99806454,-22.5,2012-02-01 07:57:10
1.03200006484985,42.38353687,-70.99813822,-22.7000007629395,2012-02-01 07:57:11
1.08599996566772,42.38353439,-70.99819856,-22.7999992370605,2012-02-01 07:57:12
1.50600004196167,42.38355177,-70.99824142,-22.8999996185303,2012-02-01 07:57:14
1.04200005531311,42.38356752,-70.99823376,-22.6000003814697,2012-02-01 07:57:15
0.480999946594238,42.38359054,-70.99824588,-21.2000007629395,2012-02-01 07:57:15
1.94400000572205,42.3836035,-70.99828629,-22.2000007629395,2012-02-01 07:57:17
1.10199999809265,42.38360336,-70.9983056,-22,2012-02-01 07:57:18
0.931999921798706,42.383602,-70.99830578,-21.1000003814697,2012-02-01 07:57:19
1.03500008583069,42.38358654,-70.9983142,-20.8999996185303,2012-02-01 07:57:20
0.868000030517578,42.3835962,-70.99831797,-21.2000007629395,2012-02-01 07:57:21
1.16700005531311,42.38359834,-70.99831887,-19.8999996185303,2012-02-01 07:57:22
0.82099986076355,42.38359821,-70.99832399,-19.8999996185303,2012-02-01 07:57:23
1.05999994277954,42.38359416,-70.99832887,-19.7999992370605,2012-02-01 07:57:24
1.05000019073486,42.38359795,-70.99833427,-19.7000007629395,2012-02-01 07:57:25
0.950999975204468,42.38359814,-70.9983288,-19.7000007629395,2012-02-01 07:57:26
1.01900005340576,42.38359603,-70.9983336,-20,2012-02-01 07:57:27
1.03399991989136,42.38360023,-70.99833418,-20.2000007629395,2012-02-01 07:57:28
1.02799987792969,42.38359841,-70.99832467,-20.3999996185303,2012-02-01 07:57:29
0.921000003814697,42.38360328,-70.99832129,-20.3999996185303,2012-02-01 07:57:30
1.04800009727478,42.38360778,-70.99832256,-21.1000003814697,2012-02-01 07:57:31
0.96399998664856,42.3836062,-70.99831818,-21.1000003814697,2012-02-01 07:57:32
1.00500011444092,42.38360831,-70.99831857,-21.2000007629395,2012-02-01 07:57:33
1.03499984741211,42.38360728,-70.99831881,-21.1000003814697,2012-02-01 07:57:34
1.02699995040894,42.38360746,-70.99831932,-21.1000003814697,2012-02-01 07:57:35
0.968000173568726,42.38360809,-70.99832011,-21.1000003814697,2012-02-01 07:57:36
0.970000028610229,42.3836083,-70.99832293,-21.1000003814697,2012-02-01 07:57:37
0.825999975204468,42.3836086,-70.99832438,-21.2000007629395,2012-02-01 07:57:38
1.11699986457825,42.38360982,-70.9983263,-21.2000007629395,2012-02-01 07:57:39
1.10599994659424,42.38361171,-70.99832765,-21.2000007629395,2012-02-01 07:57:40
0.953000068664551,42.38361211,-70.99832828,-21.2999992370605,2012-02-01 07:57:41
0.972000122070312,42.38361307,-70.99832904,-21.2999992370605,2012-02-01 07:57:42
1.02799987792969,42.38361311,-70.99832924,-21.3999996185303,2012-02-01 07:57:43
0.900000095367432,42.38361316,-70.99832937,-21.3999996185303,2012-02-01 07:57:44
1.15999984741211,42.38361302,-70.99832966,-21.3999996185303,2012-02-01 07:57:45
0.947000026702881,42.38361324,-70.99832978,-21.3999996185303,2012-02-01 07:57:46
1.02800011634827,42.38361372,-70.99833017,-21.3999996185303,2012-02-01 07:57:47
0.977999925613403,42.38361371,-70.99833023,-21.5,2012-02-01 07:57:48
1.04299998283386,42.38361367,-70.99833133,-21.5,2012-02-01 07:57:49
0.970999956130981,42.38361442,-70.99833194,-21.5,2012-02-01 07:57:50
1.007000207901,42.3836146,-70.99833231,-21.5,2012-02-01 07:57:51
1.53999996185303,42.3836146,-70.99833231,-21.5,2012-02-01 07:57:53
1.01399993896484,42.3836625,-70.99847238,-20.5,2012-02-01 07:57:54
1.04999995231628,42.38367534,-70.99858473,-20.1000003814697,2012-02-01 07:57:55
0.883000135421753,42.38370473,-70.99869273,-19.3999996185303,2012-02-01 07:57:56
1.02300000190735,42.38373392,-70.9987707,-19.6000003814697,2012-02-01 07:57:57
1.16100001335144,42.38377972,-70.99883706,-19.3999996185303,2012-02-01 07:57:58
0.978999853134155,42.38381747,-70.99890745,-20.2999992370605,2012-02-01 07:57:59
1.34299993515015,42.38388563,-70.9990504,-22.7000007629395,2012-02-01 07:58:00
0.962000131607056,42.38386576,-70.99912856,-22.3999996185303,2012-02-01 07:58:01
1.02499985694885,42.38391252,-70.99918172,-23.2999992370605,2012-02-01 07:58:02
1.03900003433228,42.38398956,-70.99926577,-19.7000007629395,2012-02-01 07:58:03
0.990000009536743,42.38399562,-70.99934692,-19.7999992370605,2012-02-01 07:58:04
0.930999994277954,42.38401534,-70.99941002,-19.2000007629395,2012-02-01 07:58:05
1.05599999427795,42.38404474,-70.99946543,-18.8999996185303,2012-02-01 07:58:06
1.02400016784668,42.38407601,-70.99952293,-19,2012-02-01 07:58:07
1.01300001144409,42.38411211,-70.99962803,-18.7000007629395,2012-02-01 07:58:08
0.916999816894531,42.38416175,-70.99971243,-20.1000003814697,2012-02-01 07:58:09
1.05599999427795,42.38416062,-70.99974473,-19.7999992370605,2012-02-01 07:58:10
0.858999967575073,42.38418998,-70.99982516,-20.3999996185303,2012-02-01 07:58:11
1.65100002288818,42.38420918,-70.99990549,-20.3999996185303,2012-02-01 07:58:13
1.25999999046326,42.38422815,-70.99998814,-21.1000003814697,2012-02-01 07:58:14
0.228000164031982,42.38424409,-71.00001103,-21,2012-02-01 07:58:14
2.61199998855591,42.38430574,-71.00018406,-21,2012-02-01 07:58:17
1.20099997520447,42.38433954,-71.00026476,-20.7999992370605,2012-02-01 07:58:18
0.672999858856201,42.38438018,-71.00034493,-20.5,2012-02-01 07:58:19
1.15300011634827,42.38441211,-71.0004437,-20.5,2012-02-01 07:58:20
0.834000110626221,42.38445503,-71.00055054,-20.1000003814697,2012-02-01 07:58:21
1.05799984931946,42.38450067,-71.00066351,-19.7000007629395,2012-02-01 07:58:22
0.946000099182129,42.38452118,-71.00077226,-20.2000007629395,2012-02-01 07:58:23
1.0699999332428,42.38455706,-71.00087148,-20.3999996185303,2012-02-01 07:58:24
0.904000043869019,42.38458628,-71.00097439,-20.1000003814697,2012-02-01 07:58:25
1.10800004005432,42.38461398,-71.00109037,-20.1000003814697,2012-02-01 07:58:26
1.01300001144409,42.38463724,-71.0011938,-19.7999992370605,2012-02-01 07:58:27
0.906999826431274,42.38466079,-71.0012779,-20.1000003814697,2012-02-01 07:58:28
1,42.38467987,-71.00135799,-20,2012-02-01 07:58:29
1.25,42.38470274,-71.00143328,-20.2000007629395,2012-02-01 07:58:30
1.13700008392334,42.38472641,-71.00149555,-20.7000007629395,2012-02-01 07:58:31
0.66100001335144,42.38475155,-71.00155664,-20.7999992370605,2012-02-01 07:58:32
0.969000101089478,42.38477901,-71.00158394,-20.6000003814697,2012-02-01 07:58:33
0.983999967575073,42.3848091,-71.00161645,-20.3999996185303,2012-02-01 07:58:34
0.986999988555908,42.38481985,-71.00164671,-20.3999996185303,2012-02-01 07:58:35
1.16299986839294,42.38484383,-71.00169214,-20.2000007629395,2012-02-01 07:58:36
1.22000002861023,42.38487057,-71.00175267,-20.3999996185303,2012-02-01 07:58:37
0.656000137329102,42.38489018,-71.00180889,-20.2999992370605,2012-02-01 07:58:38
0.998999834060669,42.38491421,-71.00187916,-20.2000007629395,2012-02-01 07:58:39
1.00999999046326,42.3849523,-71.00195727,-20.6000003814697,2012-02-01 07:58:40
1.14000010490417,42.38497811,-71.00204075,-20.5,2012-02-01 07:58:41
0.964999914169312,42.38501407,-71.00211956,-20.5,2012-02-01 07:58:42
1.21399998664856,42.38506147,-71.00220113,-20.6000003814697,2012-02-01 07:58:43
0.697000026702881,42.38510277,-71.00229023,-20.7000007629395,2012-02-01 07:58:44
0.954999923706055,42.3851295,-71.00239188,-20,2012-02-01 07:58:45
1.19000005722046,42.38517452,-71.00247981,-20.3999996185303,2012-02-01 07:58:46
0.968000173568726,42.38519584,-71.00258364,-20.2000007629395,2012-02-01 07:58:47
1.00299978256226,42.38526411,-71.00265732,-20.6000003814697,2012-02-01 07:58:48
1.13900017738342,42.3853011,-71.00274167,-20.8999996185303,2012-02-01 07:58:49
0.74399995803833,42.38532419,-71.00283261,-20.7000007629395,2012-02-01 07:58:50
0.98199987411499,42.38534849,-71.00291779,-20.6000003814697,2012-02-01 07:58:51
1.1800000667572,42.38536842,-71.00299896,-20.7999992370605,2012-02-01 07:58:52
0.814000129699707,42.38540152,-71.00305726,-20.6000003814697,2012-02-01 07:58:53
1.00799989700317,42.38541952,-71.00312893,-20,2012-02-01 07:58:54
1.11899995803833,42.3854411,-71.00319764,-20.2000007629395,2012-02-01 07:58:55
0.817000150680542,42.3854713,-71.00325614,-19.8999996185303,2012-02-01 07:58:56
1.33199977874756,42.38547841,-71.00331119,-20.7000007629395,2012-02-01 07:58:57
0.693000078201294,42.38549367,-71.00337207,-20.7000007629395,2012-02-01 07:58:58
1.07200002670288,42.38550578,-71.00345154,-20.3999996185303,2012-02-01 07:58:59
0.989000082015991,42.385517,-71.00351635,-20.5,2012-02-01 07:59:00
1.00300002098083,42.38553213,-71.00355834,-20.7999992370605,2012-02-01 07:59:01
1.10399985313416,42.38554752,-71.0036028,-20.3999996185303,2012-02-01 07:59:02
0.865999937057495,42.38557219,-71.00361915,-20.3999996185303,2012-02-01 07:59:03
1.125,42.38559496,-71.0036664,-20.3999996185303,2012-02-01 07:59:04
0.902000188827515,42.38561552,-71.00370759,-20.8999996185303,2012-02-01 07:59:05
1.07399988174438,42.3856251,-71.00376551,-20.5,2012-02-01 07:59:06
0.970000028610229,42.3856535,-71.00379633,-21.1000003814697,2012-02-01 07:59:07
0.986000061035156,42.38567436,-71.00383822,-21.2999992370605,2012-02-01 07:59:08
0.905999898910522,42.3857177,-71.00388177,-21,2012-02-01 07:59:09
1.00800013542175,42.38573557,-71.00393654,-20.7999992370605,2012-02-01 07:59:10
1.0479998588562,42.38575069,-71.00398587,-21,2012-02-01 07:59:11
1.01500010490417,42.38577154,-71.0040401,-20.7999992370605,2012-02-01 07:59:12
1.32299995422363,42.38581047,-71.00408566,-20.6000003814697,2012-02-01 07:59:13
0.605000019073486,42.38583244,-71.00415157,-20.7000007629395,2012-02-01 07:59:14
1.02600002288818,42.38586017,-71.00421534,-20.7999992370605,2012-02-01 07:59:15
0.997999906539917,42.3858734,-71.00430714,-20.8999996185303,2012-02-01 07:59:16
0.99399995803833,42.38589108,-71.00439738,-21.2999992370605,2012-02-01 07:59:17
1.22200012207031,42.38591864,-71.00448018,-21.1000003814697,2012-02-01 07:59:18
0.94599986076355,42.38594686,-71.0045717,-21.2000007629395,2012-02-01 07:59:19
1.18900012969971,42.38598975,-71.00466293,-21.1000003814697,2012-02-01 07:59:20
0.627000093460083,42.38601025,-71.00477589,-22,2012-02-01 07:59:21
1.0149998664856,42.38605894,-71.00487903,-22.3999996185303,2012-02-01 07:59:22
0.999000072479248,42.38609581,-71.00497642,-22.5,2012-02-01 07:59:23
1.05900001525879,42.38613417,-71.00507299,-22.6000003814697,2012-02-01 07:59:24
1.06599998474121,42.38616445,-71.00518319,-22.5,2012-02-01 07:59:25
0.967000007629395,42.38621135,-71.00528619,-22,2012-02-01 07:59:26
0.86899995803833,42.38624748,-71.00542242,-20.6000003814697,2012-02-01 07:59:27
1.05599999427795,42.38628679,-71.00553408,-20,2012-02-01 07:59:28
1.02600002288818,42.38632252,-71.00562996,-19.7000007629395,2012-02-01 07:59:29
0.950000047683716,42.38635686,-71.00573714,-20.1000003814697,2012-02-01 07:59:30
1.00399994850159,42.38640375,-71.00583254,-20,2012-02-01 07:59:31
1.02600002288818,42.38643638,-71.00591154,-19.2999992370605,2012-02-01 07:59:32
1.51300001144409,42.38650004,-71.00606611,-19.1000003814697,2012-02-01 07:59:33
0.960000038146973,42.38652931,-71.00614726,-19.3999996185303,2012-02-01 07:59:34
1.63299989700317,42.38655846,-71.00621045,-19.7000007629395,2012-02-01 07:59:36
0.884999990463257,42.38657498,-71.0062671,-19.6000003814697,2012-02-01 07:59:37
0.990000009536743,42.38660065,-71.00631692,-19.7999992370605,2012-02-01 07:59:38
1.04299998283386,42.38661961,-71.00634463,-19.8999996185303,2012-02-01 07:59:39
0.933000087738037,42.38665419,-71.00634718,-20.3999996185303,2012-02-01 07:59:40
1.38599991798401,42.38668114,-71.00636137,-20.5,2012-02-01 07:59:41
0.621000051498413,42.38670365,-71.00636347,-20.5,2012-02-01 07:59:42
1.03200006484985,42.3867404,-71.00634596,-20.3999996185303,2012-02-01 07:59:43
0.996999979019165,42.38677824,-71.0063027,-20.7999992370605,2012-02-01 07:59:44
1.12299990653992,42.38680921,-71.00624967,-21.2999992370605,2012-02-01 07:59:45
1.02600002288818,42.38683395,-71.00618248,-21.2999992370605,2012-02-01 07:59:46
1.17499995231628,42.38685862,-71.00610723,-21.5,2012-02-01 07:59:47
0.710000038146973,42.38689007,-71.0060278,-21.7999992370605,2012-02-01 07:59:48
0.933000087738037,42.38691643,-71.00593627,-21.5,2012-02-01 07:59:49
1.14099979400635,42.3869509,-71.0058321,-21.6000003814697,2012-02-01 07:59:50
1.01900005340576,42.38699426,-71.00572613,-22.1000003814697,2012-02-01 07:59:51
0.978000164031982,42.38702298,-71.00560718,-21.7000007629395,2012-02-01 07:59:52
1.25899982452393,42.38704636,-71.00547998,-21.7000007629395,2012-02-01 07:59:53
0.710000038146973,42.38709264,-71.00535599,-21.8999996185303,2012-02-01 07:59:54
0.943000078201294,42.38712989,-71.00523551,-22.6000003814697,2012-02-01 07:59:55
1.09999990463257,42.38717096,-71.00513859,-23,2012-02-01 07:59:56
0.865999937057495,42.38720274,-71.00504105,-22.7999992370605,2012-02-01 07:59:57
1.03500008583069,42.38722661,-71.00495874,-22.6000003814697,2012-02-01 07:59:58
1.00600004196167,42.38724648,-71.00489071,-22.5,2012-02-01 07:59:59
