"diffSecs","N.samples","x.mean","x.absolute.deviation","x.standard.deviation","x.max.deviation","x.PSD.1","x.PSD.3","x.PSD.6","x.PSD.10","y.mean","y.absolute.deviation","y.standard.deviation","y.max.deviation","y.PSD.1","y.PSD.3","y.PSD.6","y.PSD.10","z.mean","z.absolute.deviation","z.standard.deviation","z.max.deviation","z.PSD.1","z.PSD.3","z.PSD.6","z.PSD.10","time"
3.99000000953674,33,-6.88575410842896,0.0758236646652222,0.088544063270092,0.158392339944839,0.350253313779831,0.503771245479584,0.163309991359711,0.0573259741067886,6.50359153747559,0.061271283775568,0.0778736099600792,0.174736753106117,0.239090278744698,0.339858710765839,0.13508240878582,0.0264032781124115,1.10696268081665,0.0582095459103584,0.0655301362276077,0.106684491038322,0.179013594985008,0.300048977136612,0.13540618121624,0.04035759344697,2012-01-18 14:26:03
0.334000110626221,99,-7.01185369491577,0.0264591984450817,0.0341848209500313,0.0883587524294853,0.0326698608696461,0.10552205145359,0.162945777177811,0.234569802880287,6.3190484046936,0.0359487421810627,0.0426542311906815,0.121246032416821,0.332248479127884,0.305319011211395,0.260014027357101,0.314331531524658,1.14341568946838,0.0411337018013,0.0500997714698315,0.143137514591217,0.0766641721129417,0.687740862369537,0.303576827049255,0.147413328289986,2012-01-18 14:26:04
0.848999977111816,99,-7.03136777877808,0.0285283997654915,0.0356183834373951,0.0882601663470268,0.0643497481942177,0.575384259223938,0.324101477861404,0.0969599038362503,6.30379390716553,0.0419582948088646,0.0506160333752632,0.119561865925789,0.303539723157883,1.19175899028778,0.565507769584656,0.150236293673515,1.17481684684753,0.0304115172475576,0.0370089188218117,0.0862786546349525,0.00990637019276619,0.2962985932827,0.18623074889183,0.0788818076252937,2012-01-18 14:26:05
1.0090000629425,48,-6.9907112121582,0.0274023879319429,0.0339115299284458,0.0896898284554482,0.154272302985191,0.177024409174919,0.0402985066175461,0.00710773561149836,6.30179405212402,0.0362472496926785,0.0449282005429268,0.101948298513889,0.241054058074951,0.262765675783157,0.0770193785429001,0.0618472844362259,1.25177800655365,0.0265256259590387,0.034584354609251,0.101539649069309,0.00970823224633932,0.0239360444247723,0.0202277489006519,0.0729914829134941,2012-01-18 14:26:06
1.00299978256226,40,-7.00856733322144,0.0183874368667603,0.0230390671640635,0.0620269551873207,0.00133393483702093,0.00993498601019382,0.0209341291338205,0.00734968110918999,6.32014083862305,0.0384666249155998,0.0445090532302856,0.0934083014726639,0.0857348442077637,0.109275594353676,0.0553193241357803,0.028691491112113,1.20597279071808,0.0213294662535191,0.0264495685696602,0.0590850487351418,0.000571837415918708,0.0150493029505014,0.0121132871136069,0.00959567446261644,2012-01-18 14:26:07
1.0220000743866,46,-7.05759000778198,0.0263611190021038,0.032075360417366,0.0752552524209023,0.023475369438529,0.103801995515823,0.0747827440500259,0.0415856242179871,6.29011297225952,0.0269730519503355,0.0333236791193485,0.0842092856764793,7.53523454477545e-06,0.0289020594209433,0.10095576941967,0.0151040945202112,1.18170130252838,0.0296331327408552,0.0356967486441135,0.0735498741269112,0.00829357746988535,0.0183773953467607,0.0392824597656727,0.112013839185238,2012-01-18 14:26:08
1.01999998092651,31,-7.03389835357666,0.0255523510277271,0.0314057059586048,0.071177177131176,0.00632298365235329,0.00733673525974154,0.00717850774526596,0.0268443841487169,6.29080772399902,0.0232258532196283,0.0281671453267336,0.0540948361158371,0.0103994971141219,0.0232760887593031,0.0231826417148113,0.00211254949681461,1.19198250770569,0.026429982855916,0.0311947446316481,0.0642177611589432,0.000185342039912939,0.000647148699499667,0.00879024155437946,0.0170536637306213,2012-01-18 14:26:09
1.00300002098083,53,-7.03913927078247,0.0275451596826315,0.0346250161528587,0.0804888680577278,0.132412254810333,0.292761653661728,0.126968860626221,0.0434889793395996,6.28162145614624,0.0431158989667892,0.051207959651947,0.112313993275166,0.137383386492729,0.20435543358326,0.100092127919197,0.126063406467438,1.26764822006226,0.0422150269150734,0.0549539364874363,0.134702652692795,0.136374622583389,0.43320032954216,0.130603045225143,0.141893669962883,2012-01-18 14:26:10
1.02900004386902,40,-7.05269718170166,0.0225675143301487,0.028072290122509,0.057123638689518,0.00470706541091204,0.0327083915472031,0.0169189535081387,0.0188237838447094,6.25590705871582,0.0390182659029961,0.0481120496988297,0.108608804643154,0.0494558773934841,0.147572174668312,0.192322090268135,0.0763787254691124,1.30207788944244,0.0426344163715839,0.0529235526919365,0.135086566209793,0.0890558585524559,0.0730728432536125,0.113230362534523,0.0735572129487991,2012-01-18 14:26:11
1.01399993896484,33,-7.07208013534546,0.0271776895970106,0.0320394784212112,0.0671609789133072,0.000207926204893738,0.00122948200441897,0.0152587592601776,0.0262216441333294,6.21295833587646,0.0239897798746824,0.0288791209459305,0.0641888678073883,0.000810697500128299,0.00230585737153888,0.00855936016887426,0.0316604673862457,1.33727037906647,0.0280421506613493,0.0373869240283966,0.0846937522292137,0.015516554005444,0.0318779498338699,0.0231495406478643,0.00943604297935963,2012-01-18 14:26:12
1.00600004196167,44,-6.90321254730225,0.11873334646225,0.134403392672539,0.195464342832565,1.59914720058441,2.38271403312683,0.613631367683411,0.013141293078661,6.40039920806885,0.136036917567253,0.145980313420296,0.238702967762947,3.23696827888489,4.51757907867432,0.787497222423553,0.215108677744865,1.25279951095581,0.100852482020855,0.116073869168758,0.257424592971802,1.90267968177795,2.49829077720642,0.464084953069687,0.085342101752758,2012-01-18 14:26:13
1.01900005340576,41,-6.9806604385376,0.0448503233492374,0.0520228557288647,0.0963920280337334,0.0411110781133175,0.0727923512458801,0.100629925727844,0.0209455247968435,6.36355924606323,0.0268588569015265,0.0347767136991024,0.108829706907272,0.0575299672782421,0.0987630784511566,0.0514440536499023,0.0170455519109964,1.13972401618958,0.0591899380087852,0.0727607160806656,0.149252444505692,0.0110742775723338,0.0506489612162113,0.193375274538994,0.0361258424818516,2012-01-18 14:26:14
1.00799989700317,49,-6.95071315765381,0.0326261483132839,0.0387364067137241,0.0860582068562508,0.29050812125206,0.466099232435226,0.103616580367088,0.0911956280469894,6.40134048461914,0.0317684262990952,0.0391529425978661,0.0956647023558617,0.0041048894636333,0.00444478821009398,0.0679082646965981,0.043075505644083,1.04510867595673,0.06375752389431,0.076348565518856,0.162510216236115,0.92302143573761,1.16121757030487,0.560488045215607,0.058955330401659,2012-01-18 14:26:15
1.00300002098083,27,-6.85775375366211,0.0529210269451141,0.0624129250645638,0.104967467486858,0.0517143346369267,0.0860441774129868,0.0561688393354416,0.0143926134333014,6.50870943069458,0.0312628597021103,0.037061545997858,0.0755474120378494,0.0164751596748829,0.025931142270565,0.012092630378902,0.00662346370518208,0.878966391086578,0.040625624358654,0.0473817549645901,0.084627740085125,0.0234846472740173,0.0432219095528126,0.0489833205938339,0.0187472645193338,2012-01-18 14:26:16
1.00500011444092,52,-6.81939315795898,0.0705325454473495,0.0842317789793015,0.162941232323647,1.44048821926117,2.47552824020386,0.139854490756989,0.328879922628403,6.54235553741455,0.0818841457366943,0.0924363806843758,0.148419857025146,1.94683647155762,3.42780637741089,0.333011597394943,0.085689477622509,0.850915431976318,0.0611029714345932,0.0662225484848022,0.119942881166935,0.723702132701874,1.51290929317474,0.18910126388073,0.105073072016239,2012-01-18 14:26:17
1.1949999332428,42,-7.01992654800415,0.0579058974981308,0.0683093667030334,0.158540993928909,0.484159141778946,0.948148846626282,0.449708312749863,0.0199860595166683,6.31688356399536,0.0619754269719124,0.0767289772629738,0.15550534427166,0.725497901439667,0.960361361503601,0.392144203186035,0.0510753132402897,0.964554071426392,0.0658112913370132,0.0758962854743004,0.140795454382896,0.617862939834595,0.972115516662598,0.426893711090088,0.0221318937838078,2012-01-18 14:26:18
1.01600003242493,48,-7.1788763999939,0.0160038806498051,0.0199131742119789,0.0494417734444141,9.59606768446974e-05,0.0378045998513699,0.0523241981863976,0.0179047416895628,6.127112865448,0.0246187355369329,0.0339096821844578,0.115636549890041,0.0340494364500046,0.0580772869288921,0.0525088272988796,0.0386941097676754,1.12408721446991,0.0326888263225555,0.0416361801326275,0.114002354443073,0.0051524955779314,0.107641406357288,0.134154215455055,0.0391702614724636,2012-01-18 14:26:19
1.01799988746643,35,-7.15885448455811,0.0162510070949793,0.0200291741639376,0.0490336269140244,0.0115039525553584,0.0182809643447399,0.00483039626851678,0.00530928745865822,6.16193819046021,0.0326140597462654,0.0390117987990379,0.0947040542960167,0.0420553088188171,0.0988198965787888,0.0873837694525719,0.0181900542229414,1.08993911743164,0.0185726005584002,0.0232236832380295,0.0476322695612907,0.0202593486756086,0.0380851551890373,0.0338657423853874,0.0115288626402617,2012-01-18 14:26:20
1.00400018692017,51,-7.19923448562622,0.0312636233866215,0.0414538644254208,0.109027124941349,0.13711504638195,0.147072434425354,0.236246675252914,0.0433376729488373,6.07550811767578,0.0359010994434357,0.0406130738556385,0.0928745865821838,0.134972631931305,0.0992485359311104,0.294082313776016,0.0632042586803436,1.07238602638245,0.0242960676550865,0.030011598020792,0.0721077620983124,0.0302067995071411,0.133095726370811,0.069390282034874,0.0175466109067202,2012-01-18 14:26:21
1.10999989509583,40,-7.2554497718811,0.0191229339689016,0.023774765431881,0.0603107921779156,0.000198784080566838,0.00821222271770239,0.0136852106079459,0.0113220596686006,6.05658721923828,0.0246146600693464,0.0316102579236031,0.0823757275938988,0.00601230608299375,0.0160224661231041,0.0939586907625198,0.0311956536024809,0.988510310649872,0.0341271348297596,0.0441952534019947,0.105911828577518,0.085037849843502,0.155773013830185,0.106830269098282,0.0279920790344477,2012-01-18 14:26:22
1.02999997138977,49,-7.23330497741699,0.0266465954482555,0.0320641584694386,0.074450358748436,0.0142935533076525,0.0555346272885799,0.0349943786859512,0.127767220139503,6.09533309936523,0.0243266578763723,0.0292567517608404,0.0730494111776352,0.00518247531726956,0.0123718557879329,0.0798429399728775,0.0379411280155182,0.956448554992676,0.0415955558419228,0.0550878793001175,0.132089629769325,0.428555846214294,0.620638012886047,0.308557569980621,0.144931942224503,2012-01-18 14:26:23
1.01600003242493,47,-7.20058488845825,0.0314575843513012,0.0374365709722042,0.0857558771967888,0.0232847575098276,0.0421347096562386,0.269427478313446,0.046250194311142,6.11037731170654,0.0431065671145916,0.0514494813978672,0.15607151389122,0.466429114341736,0.587578237056732,0.100465081632137,0.0906425938010216,0.975448668003082,0.0401854962110519,0.0459461212158203,0.113089509308338,0.146210491657257,0.267280220985413,0.154146209359169,0.0285868104547262,2012-01-18 14:26:24
1.00200009346008,42,-7.19177675247192,0.0224818736314774,0.0257529318332672,0.0525355339050293,0.000653661787509918,0.00129971012938768,0.0414174124598503,0.0229841247200966,6.13942956924438,0.0375142768025398,0.0500478371977806,0.146632984280586,0.000782427203375846,0.0559304468333721,0.0309918131679296,0.0144600421190262,0.928596317768097,0.0458199568092823,0.053563304245472,0.104837730526924,0.241748958826065,0.4805066883564,0.225806415081024,0.0896675288677216,2012-01-18 14:26:25
1.00899982452393,46,-7.10150671005249,0.0617412403225899,0.0708930417895317,0.128978759050369,0.892553865909576,1.11648964881897,0.262120366096497,0.0439056009054184,6.27263164520264,0.0594795905053616,0.0674285441637039,0.123862266540527,0.771012961864471,0.900607526302338,0.0691656395792961,0.0656722858548164,0.904983222484589,0.0264631193131208,0.0342570059001446,0.075681746006012,0.0178234316408634,0.0688455179333687,0.138911187648773,0.0829879716038704,2012-01-18 14:26:26
1.00300002098083,34,-6.95608758926392,0.0202919263392687,0.0256962180137634,0.0522058978676796,0.00235510407947004,0.00532044610008597,0.00336827570572495,0.0198167450726032,6.38585948944092,0.0264337956905365,0.0305027905851603,0.0605703815817833,0.00635129353031516,0.0272904876619577,0.0336690433323383,0.00415755202993751,0.914325892925262,0.0438075624406338,0.0546559430658817,0.115372374653816,4.38249953731429e-05,0.0249482411891222,0.177371487021446,0.0907560139894485,2012-01-18 14:26:27
1.01500010490417,47,-6.89929103851318,0.0685355365276337,0.0823433324694633,0.211155965924263,0.892971873283386,0.867779493331909,0.522135317325592,0.534196496009827,6.43545722961426,0.0728683695197105,0.0914862528443336,0.252677708864212,0.735546231269836,0.521540999412537,0.777705550193787,1.10674464702606,0.994853317737579,0.132640600204468,0.161314949393272,0.387884318828583,3.33471441268921,7.02168083190918,4.50310564041138,1.26620328426361,2012-01-18 14:26:28
1.00799989700317,37,-6.17527389526367,0.31861224770546,0.363893002271652,0.595290184020996,10.562858581543,14.9215068817139,4.25145387649536,1.15911221504211,7.20073127746582,0.337394624948502,0.391753166913986,0.762268424034119,11.3420495986938,17.474006652832,5.80066251754761,2.71242260932922,0.809181094169617,0.135602533817291,0.154865890741348,0.2597436606884,1.68223595619202,2.18121480941772,0.655200898647308,0.204673811793327,2012-01-18 14:26:29
1.01500010490417,48,-5.43717432022095,0.163342043757439,0.198760181665421,0.416169673204422,6.31063556671143,6.60876703262329,0.849443435668945,0.480904787778854,7.78647994995117,0.109916210174561,0.131524339318275,0.343233227729797,2.48418855667114,4.74440813064575,0.587674200534821,0.150008574128151,0.187756478786469,0.0980409607291222,0.115653164684772,0.331995964050293,2.59640598297119,3.25286412239075,0.576696395874023,0.132067754864693,2012-01-18 14:26:30
1.00499987602234,36,-5.70665311813354,0.0423139594495296,0.0563527643680573,0.118497118353844,0.0209854878485203,0.0195081532001495,0.0563370920717716,0.0534843802452087,7.61704254150391,0.0551170036196709,0.065647266805172,0.14982396364212,0.215181842446327,0.344023734331131,0.105087533593178,0.054187074303627,0.0228821821510792,0.0584766902029514,0.0750064477324486,0.169981926679611,0.000314541801344603,0.104854106903076,0.244869068264961,0.0267299730330706,2012-01-18 14:26:31
1.00800013542175,45,-5.8528265953064,0.18406480550766,0.232695773243904,0.60975569486618,7.3818941116333,14.9619960784912,7.6497745513916,2.24038004875183,7.4255952835083,0.145835772156715,0.190400585532188,0.50210040807724,4.93472671508789,9.29196166992188,5.28159761428833,1.98054158687592,0.10460426658392,0.101553305983543,0.148911893367767,0.483794718980789,1.79430031776428,2.6771411895752,3.09759306907654,2.59059596061707,2012-01-18 14:26:32
1.01799988746643,48,-6.39046239852905,0.0723835825920105,0.0875873565673828,0.18979974091053,0.642461478710175,0.906298577785492,0.172515273094177,0.607562303543091,6.96394729614258,0.0448449365794659,0.0607043839991093,0.165487408638,0.126784354448318,0.317735075950623,0.174510285258293,0.130700945854187,0.443955212831497,0.0509060472249985,0.0618201345205307,0.154250413179398,0.0128515735268593,0.0225005485117435,0.297956973314285,0.380013108253479,2012-01-18 14:26:33
1.01699995994568,43,-6.47809028625488,0.0321407243609428,0.0412406362593174,0.133187755942345,0.0506182536482811,0.0432175397872925,0.0250316672027111,0.0586986541748047,6.93079280853271,0.0390462055802345,0.0498740263283253,0.139801532030106,0.0640162900090218,0.0511325895786285,0.195399403572083,0.0806726962327957,0.46615794301033,0.031514935195446,0.0419459827244282,0.122925207018852,0.0619454234838486,0.076507993042469,0.0314522422850132,0.0680460184812546,2012-01-18 14:26:34
1.6470000743866,69,-6.36209964752197,0.0435974150896072,0.0571431666612625,0.178935542702675,0.384187549352646,0.243230447173119,0.276133418083191,0.148902088403702,7.00621175765991,0.037830013781786,0.0501844882965088,0.123222939670086,0.0382599532604218,0.186606243252754,0.227346837520599,0.111292205750942,0.395677000284195,0.0439105592668056,0.055870994925499,0.121090799570084,0.687733173370361,0.843998432159424,0.408848762512207,0.148092538118362,2012-01-18 14:26:36
1.00500011444092,54,-6.30168056488037,0.0206222645938396,0.0257751494646072,0.0548448823392391,0.000258834537817165,0.00140850816387683,0.0208607874810696,0.137557283043861,7.05461311340332,0.0295948181301355,0.0399596132338047,0.0918918177485466,0.00953365489840508,0.0917727872729301,0.149156838655472,0.19066596031189,0.340871870517731,0.0385808907449245,0.0487394444644451,0.105512291193008,0.0186546966433525,0.0184382256120443,0.196548193693161,0.262677311897278,2012-01-18 14:26:37
1.01099991798401,36,-6.28088665008545,0.0243049375712872,0.0282609816640615,0.0634709969162941,0.00881817098706961,0.0133937578648329,0.0293187033385038,0.0461714640259743,7.04471588134766,0.0220649242401123,0.0261666234582663,0.0454918816685677,0.00183858314994723,0.00943226087838411,0.0091487905010581,0.0190135724842548,0.292292654514313,0.0290416050702333,0.0376148484647274,0.0901666954159737,0.0112034818157554,0.0142405740916729,0.0126743828877807,0.0154490955173969,2012-01-18 14:26:38
1.0239999294281,48,-6.2654275894165,0.0167615655809641,0.0226687453687191,0.0794749930500984,0.00508169876411557,0.00278348498977721,0.0109088011085987,0.0366681627929211,7.10144472122192,0.0367495268583298,0.0461274050176144,0.0994966328144073,0.304865479469299,0.409771680831909,0.23483744263649,0.0379995033144951,0.293790876865387,0.0350894182920456,0.0415076576173306,0.0886684581637383,0.153108239173889,0.152968168258667,0.0209476128220558,0.0457104109227657,2012-01-18 14:26:39
1.0090000629425,42,-6.26341390609741,0.0385262183845043,0.0441942326724529,0.0754178389906883,0.0193612314760685,0.183275386691093,0.132004961371422,0.0282293315976858,7.08740568161011,0.0325555093586445,0.0377565287053585,0.0714486539363861,9.49199456954375e-05,0.0742386057972908,0.0885685607790947,0.108888402581215,0.305173605680466,0.0359465964138508,0.0441274531185627,0.0894272997975349,0.0943393558263779,0.15580715239048,0.111900568008423,0.119749307632446,2012-01-18 14:26:40
1.01200008392334,45,-6.26950025558472,0.0337641127407551,0.0376603081822395,0.0716976076364517,0.144127234816551,0.225436598062515,0.115407608449459,0.0434056892991066,7.09413051605225,0.0313813798129559,0.0376930423080921,0.0745307505130768,0.0258101522922516,0.0257846210151911,0.00532507849857211,0.0380804836750031,0.297468364238739,0.0249887965619564,0.0320283845067024,0.0751843079924583,0.000401603465434164,0.0148530472069979,0.137575507164001,0.0243487320840359,2012-01-18 14:26:41
1.01999998092651,44,-6.243492603302,0.0242937374860048,0.0274158716201782,0.0621834136545658,0.0355669967830181,0.0267527438700199,0.047833863645792,0.0581591688096523,7.11205005645752,0.021153386682272,0.0278839934617281,0.0708754286170006,0.00356239615939558,0.00226626778021455,0.011780358850956,0.0396267920732498,0.278152257204056,0.0299872737377882,0.0352401696145535,0.065080501139164,0.0154743446037173,0.0339358784258366,0.0258345641195774,0.0472871623933315,2012-01-18 14:26:42
1.01099991798401,35,-6.27289342880249,0.0236321687698364,0.0310948994010687,0.0848976150155067,0.021844420582056,0.0540330223739147,0.0425888635218143,0.0226020235568285,7.12355041503906,0.0267863143235445,0.0358753763139248,0.0941438674926758,0.00731122214347124,0.0161362197250128,0.0433147363364697,0.0286360122263432,0.255533277988434,0.0213104486465454,0.0292741563171148,0.0790135860443115,0.0064337789081037,0.0100952992215753,0.00705374544486403,0.00108547497075051,2012-01-18 14:26:43
1.02300000190735,48,-6.24499702453613,0.0168551504611969,0.0201827958226204,0.0570010542869568,0.0122557012364268,0.0565800555050373,0.0193602368235588,0.00604700436815619,7.10655212402344,0.0473989136517048,0.0565952211618423,0.140562027692795,0.22055184841156,0.242444932460785,0.259560495615005,0.308785110712051,0.285005748271942,0.028423959389329,0.0320537872612476,0.0594528131186962,0.0528717674314976,0.250446677207947,0.0967151075601578,0.00914879888296127,2012-01-18 14:26:44
1.0090000629425,37,-6.26088333129883,0.0317624174058437,0.0399840511381626,0.10230715572834,0.00334275490604341,0.00843452103435993,0.0109934862703085,0.0945050120353699,7.09974908828735,0.0214615575969219,0.0251305047422647,0.0492985434830189,0.0224399324506521,0.0462143570184708,0.0157042238861322,0.00979065429419279,0.285718083381653,0.02747867628932,0.03077257797122,0.0601651221513748,0.0493318773806095,0.066522903740406,0.0133956596255302,0.00832242146134377,2012-01-18 14:26:45
1.00399994850159,46,-6.21528387069702,0.0266762655228376,0.0321312807500362,0.0665145516395569,0.0202676355838776,0.0990353971719742,0.129328519105911,0.054775208234787,7.16908740997314,0.0314406268298626,0.0386335961520672,0.0984931215643883,0.0351082384586334,0.114781230688095,0.0591892711818218,0.0308149326592684,0.237491473555565,0.0409321039915085,0.0476893596351147,0.119811676442623,0.0291874185204506,0.0751450061798096,0.110393524169922,0.24841932952404,2012-01-18 14:26:46
1.01300001144409,37,-6.2121148109436,0.0180803071707487,0.0237595476210117,0.0641406774520874,6.86119528836571e-05,0.00133163761347532,0.0037020246963948,0.00575727131217718,7.13844585418701,0.0221492014825344,0.0251192804425955,0.0482384189963341,0.0232000220566988,0.0327948853373528,0.00880968756973743,0.00261021126061678,0.218926832079887,0.026576092466712,0.031514685600996,0.0620204359292984,0.00411272048950195,0.0129576586186886,0.0260941870510578,0.00743974791839719,2012-01-18 14:26:47
1,46,-6.21123313903809,0.0264445412904024,0.0320299863815308,0.0722706243395805,0.0195644237101078,0.0886465013027191,0.0586584657430649,0.0361122116446495,7.13988065719604,0.0181210357695818,0.0212900899350643,0.0483936853706837,0.0328307077288628,0.0632307380437851,0.017434224486351,0.0104687921702862,0.23045626282692,0.0441299267113209,0.048808891326189,0.0931631848216057,0.247518122196198,0.348242193460464,0.109429113566875,0.0339064933359623,2012-01-18 14:26:48
1.07699990272522,41,-6.19445371627808,0.0305341556668282,0.0350324064493179,0.0652978271245956,0.00306602939963341,0.0043179988861084,0.0753609985113144,0.0192952230572701,7.1425895690918,0.0311876684427261,0.0364114977419376,0.0849112421274185,0.000424421537900344,0.0375799611210823,0.0488533712923527,0.0107770813629031,0.183695286512375,0.0295191239565611,0.0377035737037659,0.0954354479908943,0.117775477468967,0.220831900835037,0.150343745946884,0.0538202226161957,2012-01-18 14:26:49
1.01200008392334,52,-6.18875026702881,0.024139404296875,0.0285810492932796,0.0595941543579102,0.0854724273085594,0.180730760097504,0.0569038689136505,0.0332099050283432,7.16262626647949,0.0297970958054066,0.0338705480098724,0.0746812969446182,0.235082477331161,0.335508674383163,0.0412519127130508,0.0251222718507051,0.198961839079857,0.0300364941358566,0.0388636067509651,0.0854309946298599,0.0677452012896538,0.0816964656114578,0.104343645274639,0.141650557518005,2012-01-18 14:26:50
1.29099988937378,46,-6.1839451789856,0.0274734031409025,0.035155288875103,0.0825036317110062,0.0504525639116764,0.233283385634422,0.315745949745178,0.065735287964344,7.17292499542236,0.027473421767354,0.0348012521862984,0.0741893276572227,0.00518497917801142,0.0762413367629051,0.108068004250526,0.0308018121868372,0.197625309228897,0.0281871687620878,0.0359428972005844,0.0867675244808197,0.00192867452278733,0.0153281148523092,0.0257124248892069,0.0670506730675697,2012-01-18 14:26:51
1.00300002098083,49,-6.1819920539856,0.0223824866116047,0.0282155387103558,0.0626423731446266,0.0624950975179672,0.078647755086422,0.102099403738976,0.0415376611053944,7.16926145553589,0.0245554056018591,0.0296795126050711,0.0594406612217426,0.0291700158268213,0.0835551172494888,0.0786335989832878,0.027335224673152,0.192530557513237,0.0326016992330551,0.0374708361923695,0.0820556506514549,0.0117365941405296,0.113805890083313,0.136404424905777,0.110668562352657,2012-01-18 14:26:52
1.00200009346008,35,-6.21013069152832,0.0213744565844536,0.025067176669836,0.0515548698604107,0.00271794083528221,0.00297929183579981,0.00698715168982744,0.0246769823133945,7.13139581680298,0.0340711958706379,0.0429578982293606,0.115718431770802,0.0176385436207056,0.020414100959897,0.0115657355636358,0.0316334366798401,0.206219837069511,0.0294439680874348,0.0333579108119011,0.0591200850903988,0.00141345534939319,0.0146423988044262,0.0498473644256592,0.00663752993568778,2012-01-18 14:26:53
1.01799988746643,48,-6.25827693939209,0.0593848377466202,0.0679228901863098,0.109507612884045,1.02746450901031,1.29064977169037,0.197707802057266,0.0416830256581306,7.12943458557129,0.0355492196977139,0.0425113067030907,0.0980666056275368,0.171663537621498,0.37225666642189,0.133159518241882,0.0378944985568523,0.189390927553177,0.0236483290791512,0.0305659975856543,0.0815177708864212,0.0768131017684937,0.0834871456027031,0.00852177944034338,0.0474340207874775,2012-01-18 14:26:54
1.09200000762939,45,-6.34947872161865,0.026993665844202,0.031258400529623,0.0542633682489395,0.0048674987629056,0.0191521272063255,0.107071816921234,0.035009928047657,7.02875280380249,0.033037468791008,0.0412138178944588,0.0908752679824829,0.214574441313744,0.22940231859684,0.010938573628664,0.048900444060564,0.241897359490395,0.0498323105275631,0.0596336051821709,0.1340242177248,0.254433363676071,0.334326684474945,0.255747348070145,0.142002582550049,2012-01-18 14:26:56
1.00999999046326,45,-6.33705711364746,0.0214438382536173,0.025202177464962,0.0666851028800011,0.000127323684864677,0.0236544907093048,0.0727372467517853,0.0173040423542261,7.04509687423706,0.0348680578172207,0.0433863289654255,0.092182382941246,0.00144419411662966,0.0522519685328007,0.049356646835804,0.0180505532771349,0.227078422904015,0.03562356159091,0.0404050648212433,0.0671210736036301,0.194452732801437,0.237172573804855,0.102215394377708,0.0355672389268875,2012-01-18 14:26:57
1.00300002098083,47,-6.29023551940918,0.0258463844656944,0.0295758098363876,0.0630131289362907,0.103367373347282,0.17155584692955,0.0474882833659649,0.0660420581698418,7.05056381225586,0.022578801959753,0.0300024077296257,0.0886774584650993,0.00871348287910223,0.0404527746140957,0.139151453971863,0.0157431419938803,0.207817509770393,0.0274532940238714,0.0318343266844749,0.0607177652418613,2.31610442824604e-06,0.0297238044440746,0.0782724991440773,0.0725467950105667,2012-01-18 14:26:58
1.01800012588501,18,-6.27026271820068,0.0194923430681229,0.0251384284347296,0.0550264529883862,1.4101468603922e-10,4.7337348973997e-07,4.71425482828636e-05,0.000486705685034394,7.06187725067139,0.0303885024040937,0.0406826846301556,0.108962640166283,0.000312199001200497,0.000670986657496542,0.00157855765428394,0.0018527660286054,0.177609324455261,0.0237296689301729,0.0286636278033257,0.0501228682696819,0.000375871255528182,0.000760369468480349,0.000780570146162063,0.00041190828778781,2012-01-18 14:26:59
1,48,-6.24213695526123,0.0316502712666988,0.0377157665789127,0.0737541019916534,0.131527096033096,0.286784648895264,0.159866139292717,0.0775585919618607,7.11778926849365,0.0399673543870449,0.0534011833369732,0.155067697167397,0.245814830064774,0.264602363109589,0.0187640301883221,0.0283892173320055,0.138723239302635,0.0351149551570415,0.0423217602074146,0.0896899849176407,0.100731484591961,0.128167673945427,0.063852496445179,0.0239183958619833,2012-01-18 14:27:00
1.0149998664856,37,-6.20893430709839,0.0368483699858189,0.0505812093615532,0.165387958288193,0.00187625316902995,0.00654139090329409,0.0596293956041336,0.125608935952187,7.17793750762939,0.0386821292340755,0.0460506267845631,0.0887897983193398,0.00842097029089928,0.0728900954127312,0.244211360812187,0.0645684748888016,0.111848816275597,0.0380088277161121,0.0459101274609566,0.0940908342599869,0.00362984021194279,0.00372073007747531,0.0549493581056595,0.081541396677494,2012-01-18 14:27:01
1.0220000743866,46,-6.48219537734985,0.139851331710815,0.181356728076935,0.411879122257233,5.158860206604,5.05105495452881,1.61352515220642,0.767601370811462,6.89258241653442,0.112350091338158,0.145355015993118,0.322126984596252,3.68125438690186,4.73335123062134,1.97366213798523,0.629064559936523,0.61845850944519,0.157722070813179,0.195955991744995,0.43213215470314,4.02505731582642,3.69540333747864,0.0952426418662071,0.41237211227417,2012-01-18 14:27:02
1.01200008392334,42,-6.77709531784058,0.0742169991135597,0.0917051807045937,0.224852457642555,0.556039094924927,1.48261821269989,1.05735552310944,0.326127916574478,6.58119583129883,0.0784088000655174,0.0910138860344887,0.21668016910553,1.11153757572174,1.67837142944336,0.476038575172424,0.214143857359886,0.882364988327026,0.164611622691154,0.175628736615181,0.293965995311737,3.96245765686035,5.88917589187622,1.14591026306152,0.238377884030342,2012-01-18 14:27:03
1.01300001144409,47,-7.3800253868103,0.23427639901638,0.281509667634964,0.476144015789032,14.0033960342407,13.9325580596924,2.16061449050903,1.38955700397491,6.01168489456177,0.228922471404076,0.260478764772415,0.519960999488831,13.9244689941406,15.8819675445557,2.4392421245575,1.26432752609253,0.635971665382385,0.211546614766121,0.250944405794144,0.46237313747406,9.61677646636963,9.67576885223389,0.293239802122116,0.293467342853546,2012-01-18 14:27:04
1.00899982452393,46,-7.2786660194397,0.15672105550766,0.175187185406685,0.33129408955574,4.71011304855347,8.86675357818604,2.08855485916138,0.198713839054108,6.04515981674194,0.208256945014,0.235285460948944,0.494596213102341,10.1495943069458,14.5467367172241,3.15584206581116,0.235369235277176,0.504829287528992,0.176260158419609,0.203403741121292,0.37776917219162,2.92326235771179,9.91928672790527,2.96744608879089,0.176892027258873,2012-01-18 14:27:05
1.00200009346008,44,-7.07950925827026,0.0235035624355078,0.0300680045038462,0.0793449953198433,0.00524339824914932,0.00898076500743628,0.0199375655502081,0.0414294116199017,6.309241771698,0.0399560630321503,0.0503133498132229,0.131052643060684,0.198234856128693,0.401816874742508,0.364061295986176,0.0645056366920471,0.234468087553978,0.0392671227455139,0.0488464869558811,0.0971749797463417,0.0318816527724266,0.0349787585437298,0.0409149341285229,0.0704433098435402,2012-01-18 14:27:06
1.00999999046326,45,-7.08672094345093,0.0276911240071058,0.0344185158610344,0.0651597306132317,0.0331693664193153,0.183567225933075,0.0970460698008537,0.0927944332361221,6.31940507888794,0.02772013284266,0.0348653830587864,0.0823761373758316,0.00017475668573752,0.0843519270420074,0.167739376425743,0.0770300850272179,0.175212144851685,0.0354782789945602,0.047891091555357,0.135985538363457,0.159497603774071,0.182679042220116,0.013583050109446,0.0390433557331562,2012-01-18 14:27:07
1.00099992752075,33,-7.05216979980469,0.0327247977256775,0.039798691868782,0.0796417444944382,0.0359450690448284,0.0667612254619598,0.0601786077022552,0.0106934877112508,6.3576807975769,0.021666444838047,0.0267189349979162,0.0656747221946716,0.000146706952364184,0.000364531268132851,0.00901731383055449,0.00754287140443921,0.2065339833498,0.0444135889410973,0.0556813515722752,0.128080785274506,0.130465447902679,0.242422208189964,0.179712504148483,0.0741746723651886,2012-01-18 14:27:08
1.00699996948242,48,-7.04260444641113,0.0198175702244043,0.0267061684280634,0.0896898284554482,0.00944140180945396,0.0668816417455673,0.0503026135265827,0.0616629868745804,6.36369848251343,0.0347999483346939,0.0443487837910652,0.0988835692405701,0.140088990330696,0.17134290933609,0.0297491811215878,0.0567022077739239,0.192251190543175,0.0210434384644032,0.0258484445512295,0.0627217069268227,0.000779137946665287,0.0312126334756613,0.0422284603118896,0.0268375650048256,2012-01-18 14:27:09
1.01100015640259,35,-7.03809213638306,0.0377375259995461,0.0408577434718609,0.0717285126447678,0.0250180512666702,0.0804295912384987,0.0876725688576698,0.00608673226088285,6.35947227478027,0.0332064740359783,0.0397395603358746,0.093023382127285,0.0118525018915534,0.0278444290161133,0.0482509657740593,0.0275946725159883,0.17848102748394,0.031045051291585,0.041921891272068,0.115718469023705,0.0466120429337025,0.0663964822888374,0.0268167331814766,0.00921903550624847,2012-01-18 14:27:10
1.01600003242493,47,-7.02260446548462,0.0315108969807625,0.0398596674203873,0.116636782884598,0.0706344544887543,0.0672276392579079,0.318712204694748,0.107071772217751,6.3474063873291,0.0359502732753754,0.0426007807254791,0.0857558995485306,0.0736722946166992,0.224063530564308,0.0624524503946304,0.0272860042750835,0.17798025906086,0.049250777810812,0.0556581243872643,0.116219237446785,0.349187552928925,0.314570754766464,0.284367293119431,0.0284239612519741,2012-01-18 14:27:11
1.0149998664856,43,-7.05075311660767,0.0221484676003456,0.0292666088789701,0.0884882211685181,0.0192494634538889,0.0403282269835472,0.0348232500255108,0.0630220919847488,6.33714818954468,0.0279083549976349,0.03280283883214,0.0903127044439316,0.00396847212687135,0.00280525092966855,0.0452170893549919,0.057509008795023,0.186098277568817,0.0317164771258831,0.0410371534526348,0.11745173484087,0.00775925535708666,0.025079233571887,0.0767946392297745,0.0980899408459663,2012-01-18 14:27:12
1.00399994850159,47,-6.9931845664978,0.0177575964480639,0.0212394781410694,0.0402697920799255,0.0276057533919811,0.057220995426178,0.0377218313515186,0.0120855383574963,6.36263799667358,0.0289626400917768,0.0367843061685562,0.0901375636458397,0.00132614525500685,0.0577106066048145,0.150000244379044,0.0250789020210505,0.193837821483612,0.0255887433886528,0.032757718116045,0.0957713276147842,0.00135405478067696,0.0193998776376247,0.0838237926363945,0.0615635812282562,2012-01-18 14:27:13
1.13600015640259,41,-7.02873659133911,0.0206516832113266,0.0247924290597439,0.0660153850913048,0.00885535217821598,0.0140749234706163,0.0178399067372084,0.021963132545352,6.36810350418091,0.026508828625083,0.0304584596306086,0.0650586411356926,0.0421925783157349,0.080152727663517,0.0316735245287418,0.0254184193909168,0.20259103178978,0.0384915396571159,0.0472851954400539,0.111221760511398,0.0467347837984562,0.0931327417492867,0.0904937088489532,0.0571127496659756,2012-01-18 14:27:14
1.00799989700317,49,-7.00915288925171,0.0138052562251687,0.0178064256906509,0.0464314036071301,0.00670448131859303,0.00781342014670372,0.00972332525998354,0.00885995104908943,6.38893222808838,0.0229216255247593,0.0285134967416525,0.0832563117146492,0.0469482317566872,0.0858014896512032,0.100080750882626,0.0118801100179553,0.187727302312851,0.0335656180977821,0.0434971861541271,0.109274096786976,0.0167829934507608,0.0555774755775928,0.405890971422195,0.11464823782444,2012-01-18 14:27:15
1,45,-6.99911499023438,0.0120488405227661,0.0148541228845716,0.0420595593750477,0.00124380900524557,0.000857296166941524,0.008078976534307,0.00734997633844614,6.36909198760986,0.0251921508461237,0.0310526173561811,0.0738766342401505,0.00645651528611779,0.0222857166081667,0.13762041926384,0.0814999863505363,0.197004690766335,0.0270034000277519,0.0318156406283379,0.0793249011039734,0.0164442174136639,0.0285306926816702,0.0280879121273756,0.0479575283825397,2012-01-18 14:27:16
1.00699996948242,29,-6.98301076889038,0.0197765156626701,0.0279672630131245,0.059516116976738,0.00651288079097867,0.0117528745904565,0.0126304551959038,0.0156489331275225,6.36688280105591,0.0262831766158342,0.0298845991492271,0.0564726814627647,8.81907471921295e-05,0.00584928831085563,0.0189850479364395,0.00818931218236685,0.201543554663658,0.0548985823988914,0.0631138011813164,0.103477068245411,0.0522851198911667,0.100708365440369,0.111097380518913,0.00927271880209446,2012-01-18 14:27:17
1.21600008010864,48,-6.99724864959717,0.0204219724982977,0.0245973207056522,0.0537321753799915,0.0109093226492405,0.0240813568234444,0.0395183525979519,0.0379194654524326,6.42539882659912,0.0301860421895981,0.0402330160140991,0.105829916894436,0.0186409056186676,0.0491364486515522,0.0239227581769228,0.0123267583549023,0.203487977385521,0.0510763004422188,0.0623609647154808,0.174068033695221,0.237389028072357,0.795454502105713,0.753807783126831,0.2165657132864,2012-01-18 14:27:18
1.08500003814697,49,-7.00034666061401,0.0168440453708172,0.0252440441399813,0.0898607820272446,0.0194855090230703,0.0116309970617294,0.0125366486608982,0.0104094631969929,6.38052654266357,0.0293994769454002,0.0343557298183441,0.0722488686442375,0.0254720635712147,0.0176739692687988,0.0941632837057114,0.117394968867302,0.190729334950447,0.0289502441883087,0.0353895165026188,0.0730495303869247,0.0147978086024523,0.0218199472874403,0.0380819998681545,0.0767224058508873,2012-01-18 14:27:19
1.01399993896484,51,-7.01963806152344,0.0230291858315468,0.0278065763413906,0.0607626661658287,0.0147494059056044,0.01496278680861,0.0471805967390537,0.144593328237534,6.39508962631226,0.030788529664278,0.0380873754620552,0.0894134193658829,0.0402833484113216,0.0731848254799843,0.0658405795693398,0.12046729773283,0.175750538706779,0.0382086075842381,0.04549615457654,0.0792223587632179,0.121762834489346,0.20314559340477,0.111567050218582,0.175227433443069,2012-01-18 14:27:20
1.01099991798401,30,-7.0274453163147,0.0300736743956804,0.0355030819773674,0.0745304077863693,0.0276593398302794,0.0486861392855644,0.0367299392819405,0.00860750395804644,6.39981985092163,0.0207900628447533,0.0251427479088306,0.0627624541521072,0.0106843486428261,0.0184079520404339,0.0131104905158281,0.00443117553368211,0.199401870369911,0.0159085690975189,0.0204664506018162,0.0555710271000862,0.00228270515799522,0.00557094719260931,0.0114026376977563,0.00625591492280364,2012-01-18 14:27:21
1.07600021362305,44,-6.99682188034058,0.0265224855393171,0.0298980716615915,0.0639659911394119,0.00790275726467371,0.0144183179363608,0.0797690749168396,0.0326477102935314,6.39727878570557,0.0320133902132511,0.0376307629048824,0.0817962363362312,0.0229008626192808,0.0484292358160019,0.0551772825419903,0.0508802197873592,0.174959540367126,0.0313549377024174,0.0371632613241673,0.0800133571028709,0.0511509068310261,0.0586257092654705,0.0690754354000092,0.038324698805809,2012-01-18 14:27:22
1.11999988555908,36,-6.9951376914978,0.0275584552437067,0.0325100906193256,0.0618362687528133,0.00265408400446177,0.0161935556679964,0.085335910320282,0.0252809226512909,6.36805725097656,0.034353531897068,0.0493131764233112,0.13375161588192,0.0318926349282265,0.109446473419666,0.0804591402411461,0.113146163523197,0.161264911293983,0.0244560874998569,0.0281621869653463,0.054481390863657,0.00243641203269362,0.00447107618674636,0.0204150564968586,0.0167603120207787,2012-01-18 14:27:23
1,46,-6.9993896484375,0.0297350455075502,0.0341819040477276,0.0712046846747398,0.072681725025177,0.084624707698822,0.0390642322599888,0.0994124040007591,6.40374231338501,0.0162022635340691,0.0209532137960196,0.0490331649780273,1.84167129191337e-05,0.0262138042598963,0.0150224277749658,0.0203947629779577,0.182915329933167,0.0463452264666557,0.0575544536113739,0.133882090449333,0.139217272400856,0.502660632133484,0.563185393810272,0.0548656396567822,2012-01-18 14:27:24
1.00999999046326,32,-6.98846387863159,0.0164720788598061,0.0194207858294249,0.0453556776046753,1.51945812376653e-06,0.0027805557474494,0.0108773112297058,0.00346645968966186,6.41600036621094,0.0185406655073166,0.0235154796391726,0.0514848232269287,0.0105958022177219,0.0180692039430141,0.00670712674036622,0.00853957328945398,0.214826926589012,0.0267767515033484,0.0328339189291,0.0579205267131329,0.000570042757317424,0.000297614460578188,0.01802240870893,0.012616696767509,2012-01-18 14:27:25
1.01300001144409,47,-7.00486898422241,0.0159995947033167,0.0200175251811743,0.055918674916029,0.00507891876623034,0.0139762833714485,0.0326803289353848,0.044527180492878,6.40269899368286,0.0236442405730486,0.0286256223917007,0.0872164368629456,0.00345981889404356,0.0136963780969381,0.0332570895552635,0.146443411707878,0.183405220508575,0.0368293188512325,0.0486736670136452,0.100987620651722,0.015135146677494,0.1668830960989,0.65199738740921,0.271227180957794,2012-01-18 14:27:26
1.07500004768372,47,-6.99464511871338,0.0151916239410639,0.0198690835386515,0.0465293452143669,7.84037922585412e-07,0.00788623187690973,0.0118192033842206,0.000556702027097344,6.41250562667847,0.02164651080966,0.0270829666405916,0.050076425075531,0.0141774751245975,0.0252676177769899,0.0282944515347481,0.0114596942439675,0.208234816789627,0.0370779260993004,0.046756699681282,0.095771312713623,0.0177474655210972,0.12807922065258,0.0697412565350533,0.0496744401752949,2012-01-18 14:27:28
1.00300002098083,45,-7.00521659851074,0.0159811805933714,0.0187212824821472,0.0424954108893871,0.00280966307036579,0.00696683628484607,0.0184748414903879,0.0239807199686766,6.39981985092163,0.017521183937788,0.0234267041087151,0.0745304077863693,0.00332981161773205,0.0292232744395733,0.0462629199028015,0.0323722250759602,0.173032879829407,0.0228385962545872,0.0267294365912676,0.0623267069458961,0.0174730438739061,0.0123344399034977,0.0471004731953144,0.0439418405294418,2012-01-18 14:27:29
1.01699995994568,48,-6.98110866546631,0.0243122782558203,0.0283535104244947,0.0600656270980835,0.0803794786334038,0.190355807542801,0.113860391080379,0.00865571107715368,6.40047359466553,0.0478073358535767,0.0516725704073906,0.0947974547743797,0.0586181432008743,0.211569726467133,0.430226236581802,0.162196204066277,0.212273105978966,0.0284239631146193,0.0366652458906174,0.094593308866024,0.00459085777401924,0.0142888883128762,0.0869992896914482,0.0845818966627121,2012-01-18 14:27:30
1.01300001144409,32,-7.00899648666382,0.0268341656774282,0.0319877415895462,0.0658883154392242,0.000782936811447144,0.00500310817733407,0.00843543466180563,0.0109725091606379,6.3994517326355,0.0376559384167194,0.0408727154135704,0.0643560290336609,1.62940274606171e-08,0.0138576524332166,0.0254870019853115,0.0193047244101763,0.221568986773491,0.0427317097783089,0.0556834749877453,0.143115788698196,0.033212099224329,0.0769033804535866,0.158283218741417,0.172628834843636,2012-01-18 14:27:31
1.00099992752075,47,-6.98880290985107,0.0221969969570637,0.0275357104837894,0.065308004617691,0.0360102169215679,0.0367273651063442,0.00602131383493543,0.0183553267270327,6.44025659561157,0.0273200627416372,0.0326631665229797,0.0757405906915665,0.082781620323658,0.116888627409935,0.0298153515905142,0.0300648473203182,0.167964965105057,0.027675261721015,0.0358820967376232,0.0993184074759483,0.0390319786965847,0.228313744068146,0.131384760141373,0.0422392822802067,2012-01-18 14:27:32
1.00500011444092,35,-6.97280836105347,0.0367448516190052,0.0443850606679916,0.107592776417732,0.000148539242218249,0.0191835761070251,0.12244526296854,0.0396835394203663,6.42279529571533,0.0192290060222149,0.0249132439494133,0.0680860504508018,0.00301852892152965,0.00851848348975182,0.0111192632466555,0.00536007201299071,0.214905723929405,0.0261297188699245,0.0335947684943676,0.0874192714691162,0.00325212208554149,0.00975468009710312,0.0173959992825985,0.0169577561318874,2012-01-18 14:27:33
1.01300001144409,48,-6.95373201370239,0.024652786552906,0.0299486108124256,0.0694636479020119,0.0217296946793795,0.0964334011077881,0.166547790169716,0.0347785130143166,6.43643093109131,0.0392265319824219,0.0491691790521145,0.120948471128941,0.106671407818794,0.102302014827728,0.29453781247139,0.0696498826146126,0.201853543519974,0.0328590907156467,0.0383919887244701,0.0743670910596848,0.0295365396887064,0.0960853472352028,0.144004195928574,0.075163371860981,2012-01-18 14:27:34
1.0019998550415,34,-6.94945335388184,0.0192400030791759,0.0247041918337345,0.0749918967485428,0.000190661419765092,0.0010583313414827,0.000840362277813256,0.00318015436641872,6.45450592041016,0.0316255427896976,0.0398326441645622,0.0997969135642052,0.0390966273844242,0.0717072188854218,0.0937343165278435,0.0787581950426102,0.212861984968185,0.0276215001940727,0.0332584716379642,0.0813375115394592,0.0148467971011996,0.0291528627276421,0.0180392563343048,0.00609265873208642,2012-01-18 14:27:35
1.01100015640259,49,-6.92109298706055,0.0221700966358185,0.0260990634560585,0.0514347888529301,0.0280988905578852,0.0722748190164566,0.0352039560675621,0.00708364136517048,6.45457649230957,0.0248739663511515,0.0316796004772186,0.0900609120726585,0.00992203503847122,0.0697197318077087,0.221964761614799,0.109917849302292,0.213144525885582,0.0221619680523872,0.0277215056121349,0.0712483003735542,0.00215055281296372,0.0277382005006075,0.125433310866356,0.0701410248875618,2012-01-18 14:27:36
1.00099992752075,43,-6.93466997146606,0.0173008311539888,0.0214207656681538,0.0504015311598778,0.00118055706843734,0.00343745644204319,0.000941315374802798,0.00624902360141277,6.46782732009888,0.0301783345639706,0.035475067794323,0.0738918408751488,0.00126029527746141,0.0390866883099079,0.0383688360452652,0.150520712137222,0.218026906251907,0.0471079871058464,0.059589147567749,0.144819140434265,0.0731225833296776,0.100588500499725,0.128682792186737,0.0445530414581299,2012-01-18 14:27:37
1.00300002098083,38,-6.92426919937134,0.0142345586791635,0.0183301884680986,0.0400007404386997,0.00345484493300319,0.00309603800997138,0.00432220567017794,0.0246035661548376,6.47135639190674,0.0228187590837479,0.0277181304991245,0.0598720759153366,0.00145461817737669,0.0164548680186272,0.0436249822378159,0.0427423641085625,0.180390745401382,0.0200751088559628,0.0240780580788851,0.0549688525497913,0.000102007055829745,0.00398470228537917,0.0295991320163012,0.00995260570198298,2012-01-18 14:27:38
1.01199984550476,47,-6.93810033798218,0.0111606493592262,0.0133992778137326,0.0344275422394276,0.00259304442442954,0.0136291291564703,0.0198600366711617,0.00652056932449341,6.45319271087646,0.0288916099816561,0.0353847816586494,0.097649022936821,0.0634443685412407,0.153317421674728,0.122996747493744,0.126015201210976,0.178814873099327,0.028385566547513,0.0386068448424339,0.085964672267437,0.0642663463950157,0.198859885334969,0.342674762010574,0.084202952682972,2012-01-18 14:27:39
1,32,-6.94218873977661,0.0176404472440481,0.0240661669522524,0.0499525368213654,0.00437539117410779,0.00884256977587938,0.0122788427397609,0.0268740132451057,6.46350145339966,0.0341316796839237,0.0393305420875549,0.0873403251171112,0.00165622739586979,0.00101521809119731,0.0373487994074821,0.0442025698721409,0.231375649571419,0.0510443784296513,0.0671352446079254,0.160890325903893,0.0978957638144493,0.156236320734024,0.192919552326202,0.21578049659729,2012-01-18 14:27:40
1.01000022888184,47,-6.92558145523071,0.0301523990929127,0.036070816218853,0.0903462171554565,0.00432795565575361,0.0823066681623459,0.226620301604271,0.0388431623578072,6.45465326309204,0.0255265682935715,0.0364490784704685,0.105995550751686,0.121636264026165,0.207128912210464,0.151008456945419,0.104253850877285,0.229308679699898,0.0323721542954445,0.0424605794250965,0.133537366986275,0.0562395416200161,0.0344140827655792,0.0945882573723793,0.0162616111338139,2012-01-18 14:27:41
1.01299977302551,34,-6.94512701034546,0.0155243407934904,0.0188453439623117,0.0412455461919308,0.00169218413066119,0.00325213931500912,0.00513627985492349,0.00515024969354272,6.49056005477905,0.0349849499762058,0.0407913066446781,0.077010951936245,0.00359094818122685,0.0291522890329361,0.0437317788600922,0.006316720508039,0.212573558092117,0.0458605103194714,0.0501015298068523,0.0816259384155273,0.00229691970162094,0.0532988458871841,0.112684570252895,0.0525629334151745,2012-01-18 14:27:42
1,47,-6.92558145523071,0.0234400276094675,0.0286043230444193,0.0861731767654419,0.030495710670948,0.0924894437193871,0.107225880026817,0.00694471970200539,6.47384929656982,0.0327272601425648,0.0436217151582241,0.128946796059608,0.020018307492137,0.198964089155197,0.149389147758484,0.0768186077475548,0.201140642166138,0.0437192805111408,0.0498761497437954,0.102865479886532,0.0622621886432171,0.509069204330444,0.295882016420364,0.0539595931768417,2012-01-18 14:27:43
1.0090000629425,39,-6.92978096008301,0.0192393120378256,0.0231308620423079,0.055319469422102,0.00167987123131752,0.00472842250019312,0.00329244253225625,0.0196375027298927,6.46358776092529,0.026679715141654,0.0336645469069481,0.0774472579360008,0.00093824410578236,0.041230570524931,0.121135294437408,0.0833903327584267,0.193869918584824,0.0356288924813271,0.0493321493268013,0.129749536514282,0.00283377664163709,0.0258279498666525,0.101076766848564,0.0605638436973095,2012-01-18 14:27:44
1,48,-6.92594623565674,0.0203283336013556,0.0257521383464336,0.0710980892181396,0.00104979262687266,0.0307744778692722,0.0159862395375967,0.0670673623681068,6.47851800918579,0.0202261805534363,0.0244039557874203,0.0527106523513794,0.00525861047208309,0.0335686691105366,0.0500463508069515,0.0843641385436058,0.197767436504364,0.0263553746044636,0.0327908247709274,0.0898942872881889,0.0042134546674788,0.00346453068777919,0.116859242320061,0.108663700520992,2012-01-18 14:27:45
1.00800013542175,46,-6.92989063262939,0.0211519245058298,0.0248946249485016,0.0622508004307747,0.0398437790572643,0.0694051384925842,0.00973440334200859,0.0138901071622968,6.46194267272949,0.0181209519505501,0.0218712259083986,0.0496727265417576,1.89345500984928e-05,0.00444572744891047,0.0141354622319341,0.0289886575192213,0.168631732463837,0.0325343459844589,0.0402586869895458,0.0901785418391228,0.0525698959827423,0.15278422832489,0.108465582132339,0.125501453876495,2012-01-18 14:27:46
1.00300002098083,30,-6.9218602180481,0.0197222288697958,0.0245601292699575,0.0473987273871899,0.000210754355066456,0.00056841887999326,0.000763502903282642,0.00510581815615296,6.50082778930664,0.0317735187709332,0.0371575765311718,0.0696275383234024,0.000136067188577726,0.000608591246418655,0.0144689036533237,0.0356420278549194,0.195479214191437,0.0381805561482906,0.0466156974434853,0.0974127277731895,0.0533773005008698,0.0970190614461899,0.0882709547877312,0.0345744378864765,2012-01-18 14:27:47
1.00099992752075,49,-6.92669677734375,0.0234280917793512,0.0286689978092909,0.0718485936522484,0.0156036000698805,0.0304755326360464,0.128322705626488,0.0491961687803268,6.48920011520386,0.0231013484299183,0.0280889365822077,0.0756511762738228,0.00844266451895237,0.00752256065607071,0.102458387613297,0.0542931035161018,0.157706946134567,0.035403598099947,0.0439834371209145,0.107072599232197,0.0162568353116512,0.0564608201384544,0.0368861630558968,0.151144668459892,2012-01-18 14:27:48
1.01799988746643,35,-6.95795822143555,0.0242564063519239,0.0291262362152338,0.0734096542000771,0.0164372101426125,0.0335293933749199,0.0156376492232084,0.00540568679571152,6.49424362182617,0.0311891082674265,0.0395117104053497,0.0905012264847755,0.0207771379500628,0.0343763381242752,0.0175713691860437,0.00452297320589423,0.21882838010788,0.0261777509003878,0.0325478985905647,0.0815352872014046,0.0288246795535088,0.0303275771439075,0.0193851962685585,0.0149513073265553,2012-01-18 14:27:49
1.00600004196167,48,-6.89080619812012,0.0194770619273186,0.0228529386222363,0.0457642860710621,0.053710225969553,0.0938601344823837,0.0203995369374752,0.0166037790477276,6.48301267623901,0.0240058209747076,0.0310005266219378,0.0792702808976173,0.000316763354931027,0.039722952991724,0.0909126996994019,0.040233813226223,0.236585423350334,0.0334039032459259,0.0399164520204067,0.106647320091724,0.147985875606537,0.248473078012466,0.113631054759026,0.136561319231987,2012-01-18 14:27:50
1.02100014686584,35,-6.90416193008423,0.0377855896949768,0.0444469712674618,0.0787337049841881,0.0161290895193815,0.0522055923938751,0.117373824119568,0.0160544868558645,6.48695850372314,0.0312051232904196,0.0377539396286011,0.073690302670002,0.000362505030352622,0.005305256228894,0.084056094288826,0.0594413429498672,0.19249053299427,0.0396108590066433,0.0438620410859585,0.074810728430748,0.00149648112710565,0.0112032191827893,0.0777895674109459,0.0379609130322933,2012-01-18 14:27:51
1.0019998550415,42,-6.89991235733032,0.0232045836746693,0.0293466094881296,0.0646770820021629,0.000305299181491137,0.00915554538369179,0.0734875351190567,0.1053511723876,6.49363660812378,0.0275519955903292,0.0335586853325367,0.0866257101297379,0.00169348437339067,0.0309264175593853,0.140342712402344,0.0292144231498241,0.177687153220177,0.03940449655056,0.0453052036464214,0.0992339551448822,0.0460037142038345,0.0408116467297077,0.18406867980957,0.0245039965957403,2012-01-18 14:27:52
1.00099992752075,47,-6.90534210205078,0.02164651080966,0.0248567219823599,0.0504937283694744,0.0118589801713824,0.00962232612073421,0.0448111891746521,0.0124983079731464,6.51829242706299,0.0259971767663956,0.0318001545965672,0.0949366167187691,0.0335678085684776,0.0413744896650314,0.165195167064667,0.0700227543711662,0.211155951023102,0.0385784469544888,0.0503651835024357,0.152316048741341,0.196384653449059,0.248527631163597,0.0964036211371422,0.0604935921728611,2012-01-18 14:27:53
1.00100016593933,36,-6.90034008026123,0.0140894679352641,0.0174744036048651,0.0427678152918816,0.00400537438690662,0.0097289802506566,0.0111049553379416,0.00242701102979481,6.51951503753662,0.0356701612472534,0.0466786623001099,0.125579446554184,0.0361748300492764,0.0401529595255852,0.0680298358201981,0.0454830639064312,0.205394834280014,0.022428173571825,0.0265509448945522,0.0593847073614597,0.00440942449495196,0.0219590254127979,0.0458680093288422,0.0109429666772485,2012-01-18 14:27:54
1.0149998664856,48,-6.90429019927979,0.0285516362637281,0.0364167988300323,0.0886687561869621,0.0119456145912409,0.0812642872333527,0.0691872388124466,0.0145912449806929,6.51815319061279,0.0260148905217648,0.0362168736755848,0.101335614919662,0.0114626223221421,0.028791181743145,0.137493923306465,0.158618316054344,0.172433584928513,0.0354469530284405,0.0444841422140598,0.121765904128551,0.121465638279915,0.151774451136589,0.12216966599226,0.0405433364212513,2012-01-18 14:27:55
1.0220000743866,36,-6.88671970367432,0.0272406581789255,0.0328823179006577,0.0760014206171036,0.0114987716078758,0.0166672803461552,0.0360782034695148,0.023469015955925,6.48328495025635,0.0398319363594055,0.0494011379778385,0.0969771295785904,0.0740567594766617,0.136693045496941,0.0870232060551643,0.0258291773498058,0.20403279364109,0.0256516560912132,0.0346578285098076,0.0705534070730209,0.000346949644153938,0.00769904116168618,0.0120705794543028,0.00733664911240339,2012-01-18 14:27:56
1.0239999294281,44,-6.90789318084717,0.015844602137804,0.0205193087458611,0.0530449710786343,0.00374907464720309,0.0373925380408764,0.0209796652197838,0.00613116752356291,6.50515174865723,0.0190966166555882,0.0256019402295351,0.0751103460788727,0.000312780204694718,0.0198792982846498,0.0515217110514641,0.0163600947707891,0.222878411412239,0.022490456700325,0.0280791409313679,0.0811277255415916,0.00662985118106008,0.0204828139394522,0.00781601574271917,0.0117451138794422,2012-01-18 14:27:57
1.01900005340576,36,-6.91014671325684,0.0208693630993366,0.0258585345000029,0.0552985146641731,9.35965945245698e-05,0.020846338942647,0.0423691272735596,0.0082713644951582,6.50017404556274,0.0221557263284922,0.0277854595333338,0.0670119896531105,0.00174908759072423,0.0231084264814854,0.0373660214245319,0.00874659605324268,0.227459788322449,0.0183572005480528,0.0223888028413057,0.0411334522068501,0.000314435688778758,0.00352705805562437,0.0113169541582465,0.00264256168156862,2012-01-18 14:27:58
1.00600004196167,49,-6.87406158447266,0.0188862662762403,0.0240179505199194,0.0494334548711777,0.00292727421037853,0.017073430120945,0.0950096622109413,0.0363320410251617,6.49700546264648,0.0270958933979273,0.0342658795416355,0.0736498311161995,0.133575409650803,0.135660216212273,0.0401243939995766,0.0222593881189823,0.228955253958702,0.0425921455025673,0.0524767898023129,0.124084129929543,0.224780321121216,0.542824804782867,0.2597895860672,0.0331416167318821,2012-01-18 14:27:59
1.02300000190735,42,-6.88333415985107,0.020502757281065,0.0242875814437866,0.0499671287834644,2.53919479291653e-05,0.00603856006637216,0.0234785247594118,0.0447341054677963,6.53169584274292,0.030509676784277,0.0415484830737114,0.107406340539455,0.00279478472657502,0.0234802067279816,0.080916054546833,0.0508980117738247,0.215512797236443,0.0310988686978817,0.0363475382328033,0.0880263522267342,0.0751657262444496,0.116438761353493,0.0513605214655399,0.0137535333633423,2012-01-18 14:28:00
