"diffSecs","level","azimuth.mean","azimuth.absolute.deviation","azimuth.standard.deviation","azimuth.max.deviation","pitch.mean","pitch.absolute.deviation","pitch.standard.deviation","pitch.max.deviation","roll.mean","roll.absolute.deviation","roll.standard.deviation","roll.max.deviation","time"
3.91699981689453,29,14.1931037902832,0.295838207006454,0.343341588973999,0.606896579265594,-30.937931060791,0.176218926906586,0.226539045572281,0.537931621074677,-33.341381072998,0.104875586926937,0.124615915119648,0.258622407913208,2012-01-17 17:30:03
0.457000017166138,99,14.7363634109497,0.133884429931641,0.160463109612465,0.363636553287506,-30.3989906311035,0.395327001810074,0.489587604999542,1.19898962974548,-33.6353530883789,0.253912806510925,0.304283618927002,0.664645075798035,2012-01-17 17:30:04
1.01100015640259,91,14.5527477264404,0.489723473787308,0.594727873802185,1.35274767875671,-29.4296703338623,0.130201533436775,0.155127957463264,0.370330423116684,-34.2175827026367,0.135804399847984,0.163474068045616,0.482417613267899,2012-01-17 17:30:05
1.15899991989136,36,13.9444446563721,0.402469158172607,0.446246385574341,0.755555272102356,-29.2583332061768,0.125,0.149768248200417,0.341666549444199,-33.9861106872559,0.109105132520199,0.127263858914375,0.313887059688568,2012-01-17 17:30:06
1.01600003242493,49,14.0061225891113,0.183256909251213,0.229825258255005,0.593877673149109,-29.6326541900635,0.0781344100832939,0.0934332013130188,0.232653945684433,-34.1836738586426,0.130195140838623,0.168240204453468,0.383675009012222,2012-01-17 17:30:07
1,42,13.8071432113647,0.109183818101883,0.140395537018776,0.392856806516647,-29.6047630310059,0.10090734064579,0.130844399333,0.30476126074791,-34.2642860412598,0.0867342129349709,0.104246355593204,0.2642862200737,2012-01-17 17:30:08
1.02499985694885,39,14.0538463592529,0.319526702165604,0.360089927911758,0.84615421295166,-29.5615386962891,0.122288264334202,0.138888478279114,0.261537700891495,-34.1512832641602,0.101511403918266,0.119553819298744,0.251281529664993,2012-01-17 17:30:09
1.01200008392334,42,14.0190477371216,0.365759670734406,0.41532438993454,0.719047665596008,-29.3976192474365,0.140702545642853,0.17249983549118,0.402381628751755,-34.0476188659668,0.118821285665035,0.141821786761284,0.352381646633148,2012-01-17 17:30:10
1.00999999046326,48,13.8666667938232,0.197222366929054,0.242670387029648,0.633333146572113,-30.0375003814697,0.123958624899387,0.158935472369194,0.537500321865082,-33.8604164123535,0.0787334144115448,0.0951746925711632,0.260414749383926,2012-01-17 17:30:11
1.1710000038147,43,13.6837215423584,0.218929126858711,0.245830565690994,0.483721375465393,-30.1674423217773,0.0642511546611786,0.076920323073864,0.232557162642479,-33.8139533996582,0.113899804651737,0.140731260180473,0.313954204320908,2012-01-17 17:30:12
1,46,14.7782611846924,0.249716505408287,0.301383078098297,0.578261256217957,-30.0782604217529,0.11096429079771,0.145830705761909,0.378260582685471,-33.6021728515625,0.159262552857399,0.198350995779037,0.497827768325806,2012-01-17 17:30:13
1,43,15.5720930099487,0.331963241100311,0.391969203948975,0.872093498706818,-27.0162792205811,1.57869112491608,1.78793501853943,3.11627984046936,-34.5511627197266,0.654624223709106,0.74157977104187,1.34883832931519,2012-01-17 17:30:14
1.00500011444092,42,15.4214286804199,0.229931890964508,0.264156937599182,0.421428710222244,-23.1261901855469,0.413152009248734,0.497163146734238,1.27380871772766,-36.2928581237793,0.312925457954407,0.343229353427887,0.507141292095184,2012-01-17 17:30:15
1.00099992752075,20,15.335000038147,0.234999984502792,0.281558066606522,0.464999914169312,-26.9349994659424,1.25850009918213,1.46672260761261,2.5649995803833,-34.5699996948242,0.702999949455261,0.81920713186264,1.57000064849854,2012-01-17 17:30:16
1.00399994850159,55,15.4872732162476,0.275702446699142,0.337398916482925,0.787273108959198,-29.0327281951904,1.85520684719086,2.10532283782959,4.03272771835327,-33.3836364746094,1.07424831390381,1.23225831985474,2.31636381149292,2012-01-17 17:30:17
1.0090000629425,49,15.4061222076416,0.125114426016808,0.157023534178734,0.306122273206711,-24.6775512695312,0.638733983039856,0.780963718891144,1.92244911193848,-36.1816329956055,0.35643482208252,0.418780386447906,1.08163106441498,2012-01-17 17:30:18
1.01099991798401,35,15.0714282989502,0.320816367864609,0.417866319417953,0.971428334712982,-29.9400005340576,1.56800019741058,1.76136314868927,3.23999977111816,-33.1142845153809,0.826122760772705,0.950231194496155,1.68571281433105,2012-01-17 17:30:19
1.00200009346008,39,14.894871711731,0.216305047273636,0.262090891599655,0.505128562450409,-27.797435760498,2.3310980796814,2.6626079082489,4.10256338119507,-34.1615409851074,1.32583796977997,1.50939178466797,2.33846092224121,2012-01-17 17:30:20
1.01699995994568,49,15.0122451782227,0.170095756649971,0.220048800110817,0.512245118618011,-26.7795925140381,1.83548521995544,2.07767343521118,3.72040772438049,-35.1020431518555,0.989670991897583,1.12258636951447,2.00203967094421,2012-01-17 17:30:21
1.00799989700317,39,14.8538465499878,0.358185440301895,0.38420495390892,0.55384624004364,-30.5692310333252,0.697830498218536,0.840071439743042,2.06923127174377,-32.8666687011719,0.413675338029861,0.504509627819061,1.23333466053009,2012-01-17 17:30:22
1.00100016593933,47,15.2063827514648,0.31797194480896,0.371543198823929,0.793616831302643,-24.9723415374756,0.941059350967407,1.22573518753052,3.32766032218933,-36.1489372253418,0.579991042613983,0.728119790554047,2.04893469810486,2012-01-17 17:30:23
1.01099991798401,48,14.5458335876465,0.198090195655823,0.228179648518562,0.554166913032532,-30.4624996185303,1.65625,1.8711211681366,3.76249980926514,-32.8666687011719,1.05694472789764,1.20456337928772,2.33333325386047,2012-01-17 17:30:24
1.01300001144409,49,14.8081636428833,0.237900853157043,0.282002061605453,0.708163022994995,-26.8122444152832,2.13594317436218,2.43550539016724,4.58775424957275,-34.8612251281738,1.38967084884644,1.56620109081268,2.86122536659241,2012-01-17 17:30:25
1.01999998092651,44,15.0931816101074,0.380165308713913,0.439730197191238,0.806818664073944,-26.3386363983154,1.91663229465485,2.16985726356506,4.16136312484741,-35.4090919494629,1.08140480518341,1.21726560592651,2.20909118652344,2012-01-17 17:30:26
1.01600003242493,43,14.695348739624,0.144294053316116,0.204545348882675,0.604651272296906,-30.6232566833496,1.48923742771149,1.76052820682526,3.52325582504272,-32.8279075622559,1.04045426845551,1.20083820819855,2.37209296226501,2012-01-17 17:30:27
1.00399994850159,49,14.9408168792725,0.255560129880905,0.31031146645546,0.7591832280159,-25.0816326141357,0.672886192798615,0.783157587051392,1.81836664676666,-36.2224502563477,0.334443837404251,0.402677416801453,0.922450482845306,2012-01-17 17:30:28
1.01500010490417,33,14.1363639831543,0.266115635633469,0.300321161746979,0.563635885715485,-31.424243927002,2.02387523651123,2.39165616035461,4.82424306869507,-32.1575775146484,1.26299357414246,1.51438164710999,3.24242544174194,2012-01-17 17:30:29
1.00099992752075,45,14.3111114501953,0.390123456716537,0.442328274250031,0.711110949516296,-28.0111122131348,1.97629630565643,2.2421441078186,3.88888812065125,-34.1266670227051,1.23822212219238,1.43950605392456,2.52666711807251,2012-01-17 17:30:30
1,45,14.6866664886475,0.290962964296341,0.335062175989151,0.78666627407074,-27.0511112213135,1.47239518165588,1.72093284130096,3.54888892173767,-35.2666664123535,0.906666576862335,1.05872023105621,2.16666507720947,2012-01-17 17:30:31
1.0090000629425,34,14.3323535919189,0.17352956533432,0.202514588832855,0.332353204488754,-30.955883026123,1.18460214138031,1.56959927082062,4.35588264465332,-32.7147064208984,0.876989781856537,1.05052733421326,2.68529486656189,2012-01-17 17:30:32
1.07099986076355,49,14.9081630706787,0.312369734048843,0.391145139932632,0.791836321353912,-25.3020420074463,0.537192642688751,0.64221853017807,1.69795870780945,-36.173469543457,0.304039895534515,0.369652628898621,0.873470902442932,2012-01-17 17:30:33
1.00100016593933,48,14.3000001907349,0.312499940395355,0.363432615995407,0.899999618530273,-31.1187515258789,1.57057321071625,1.83299148082733,4.01875019073486,-32.6187515258789,1.05364584922791,1.19959306716919,2.38124942779541,2012-01-17 17:30:34
1.01399993896484,39,14.3102569580078,0.531492412090302,0.628304481506348,1.21025633811951,-28.9846153259277,1.73372793197632,1.92999792098999,3.11538648605347,-33.8435897827148,1.0623277425766,1.21693086624146,2.14358949661255,2012-01-17 17:30:36
1.00600004196167,39,14.720513343811,0.247731745243073,0.303128480911255,0.779486954212189,-28.2769241333008,1.04181480407715,1.0932103395462,1.52307772636414,-34.5717964172363,0.672846734523773,0.707088112831116,1.07179534435272,2012-01-17 17:30:37
1.00399994850159,46,14.6717395782471,0.282325118780136,0.347452312707901,0.728261291980743,-29.1934795379639,0.124480284750462,0.149495050311089,0.306521385908127,-33.9108695983887,0.137901782989502,0.165802851319313,0.389128893613815,2012-01-17 17:30:38
1.01399993896484,42,14.7880954742432,0.133786991238594,0.174850210547447,0.488095313310623,-29.0095233917236,0.0888891667127609,0.11298893392086,0.290477216243744,-34.1190490722656,0.0873008593916893,0.111777551472187,0.21904718875885,2012-01-17 17:30:39
1.02100014686584,50,14.8000001907349,0.448000013828278,0.51185929775238,0.899999618530273,-28.9820003509521,0.10344010591507,0.129135698080063,0.318000942468643,-34.0359992980957,0.124320402741432,0.148000136017799,0.364000707864761,2012-01-17 17:30:40
1.01199984550476,44,14.4340915679932,0.172107309103012,0.223549008369446,0.665909230709076,-28.8431816101074,0.184813797473907,0.224010646343231,0.556817293167114,-33.9636383056641,0.0805783867835999,0.0955630764365196,0.236363589763641,2012-01-17 17:30:41
1.02700018882751,45,14.6555557250977,0.216790050268173,0.24454540014267,0.455556005239487,-29.1511116027832,0.114370718598366,0.137634679675102,0.351110547780991,-33.9733352661133,0.0808887034654617,0.101980648934841,0.226666763424873,2012-01-17 17:30:42
1.0019998550415,30,14.7466669082642,0.256444483995438,0.312765449285507,0.653333723545074,-29.2333335876465,0.12222221493721,0.144529834389687,0.266666233539581,-33.9833335876465,0.111111260950565,0.129314839839935,0.283333718776703,2012-01-17 17:30:43
1.02100014686584,50,14.5180006027222,0.352479875087738,0.425530165433884,0.882000386714935,-29.2180004119873,0.123440057039261,0.145175784826279,0.281999558210373,-34.0720024108887,0.111360438168049,0.135705515742302,0.272001564502716,2012-01-17 17:30:44
1.01599979400635,49,14.4061222076416,0.168762937188148,0.216095343232155,0.606122493743896,-28.8510208129883,0.215076938271523,0.253242284059525,0.548979103565216,-34.1265296936035,0.120116055011749,0.149523451924324,0.426530808210373,2012-01-17 17:30:45
1.00500011444092,38,14.4315795898438,0.187811598181725,0.223730638623238,0.568420886993408,-28.7078952789307,0.177562266588211,0.209487557411194,0.40789383649826,-34.021053314209,0.108587801456451,0.137951165437698,0.321052759885788,2012-01-17 17:30:46
1.10699987411499,48,14.6791667938232,0.239930495619774,0.27910441160202,0.52083295583725,-29.0500011444092,0.127083629369736,0.148604825139046,0.349999308586121,-34.0791664123535,0.104340791702271,0.139878466725349,0.420832067728043,2012-01-17 17:30:47
1.00500011444092,51,14.7764711380005,0.183391079306602,0.242202475667,0.476470559835434,-29.0607852935791,0.10888148099184,0.129975274205208,0.260783523321152,-34.1490211486816,0.1068045347929,0.128905460238457,0.250980913639069,2012-01-17 17:30:48
1.00300002098083,32,14.859375,0.431835889816284,0.484677314758301,1.14062476158142,-29.2718753814697,0.178125083446503,0.228082358837128,0.528125703334808,-33.8156242370605,0.158398523926735,0.183897569775581,0.415624380111694,2012-01-17 17:30:49
1.00399994850159,49,15.2816324234009,0.401999235153198,0.46496593952179,0.918367922306061,-29.2081642150879,0.441649198532104,0.475023716688156,0.708163738250732,-33.2959175109863,0.633069455623627,0.670046925544739,0.99591988325119,2012-01-17 17:30:50
1.0090000629425,47,15.180850982666,0.83675879240036,0.887894630432129,1.41914892196655,-28.8893623352051,0.253417730331421,0.296959191560745,0.610637903213501,-33.5787239074707,0.735989272594452,0.795716404914856,1.17872285842896,2012-01-17 17:30:51
1.06799983978271,40,14.0250005722046,0.182499915361404,0.215348482131958,0.424999833106995,-27.3924999237061,0.938249945640564,1.1062068939209,1.99250066280365,-35.7950019836426,0.584999680519104,0.683355450630188,1.20499920845032,2012-01-17 17:30:52
1.02300000190735,48,13.4833335876465,0.197916626930237,0.223917126655579,0.383333057165146,-25.533332824707,0.109722606837749,0.123040586709976,0.233332350850105,-36.8624992370605,0.145833730697632,0.176334246993065,0.437498480081558,2012-01-17 17:30:53
1.03600001335144,44,13.3249998092651,0.19431833922863,0.213333994150162,0.374999642372131,-25.5954551696777,0.260537266731262,0.326102674007416,0.795453786849976,-37.0068206787109,0.149897053837776,0.189973577857018,0.393182754516602,2012-01-17 17:30:54
1.01999998092651,36,13.7555561065674,0.235802546143532,0.299485176801682,0.755555689334869,-24.5861110687256,0.502932190895081,0.672950804233551,1.71388971805573,-37.4638900756836,0.223456531763077,0.295477718114853,0.663890421390533,2012-01-17 17:30:55
1.01800012588501,49,13.2367353439331,0.365514427423477,0.412901133298874,0.863265454769135,-27.3530616760254,0.574177443981171,0.640822887420654,1.15306091308594,-36.2061233520508,0.305705636739731,0.359936505556107,0.693878412246704,2012-01-17 17:30:56
1.02099990844727,42,13.1142854690552,0.136054322123528,0.168426066637039,0.385714113712311,-26.1428565979004,0.152381211519241,0.186627939343452,0.457142919301987,-36.8214302062988,0.0836741030216217,0.103592157363892,0.278573274612427,2012-01-17 17:30:57
1.01400017738342,45,13.1733331680298,0.265481472015381,0.318608105182648,0.573333144187927,-26.0355567932129,0.141432330012321,0.164864480495453,0.335555225610733,-36.8266677856445,0.143111437559128,0.175625830888748,0.473331779241562,2012-01-17 17:30:58
1,44,12.7363634109497,0.212810009717941,0.251442134380341,0.563636362552643,-26.2590923309326,0.131818249821663,0.164203554391861,0.359091848134995,-37.0500030517578,0.0954550728201866,0.113818168640137,0.350000470876694,2012-01-17 17:30:59
1.02099990844727,43,12.3930234909058,0.2676040828228,0.309083610773087,0.593023300170898,-26.2930240631104,0.167225420475006,0.203909754753113,0.493022292852402,-37.0604667663574,0.102758847177029,0.12415236979723,0.339535385370255,2012-01-17 17:31:00
1.13299989700317,53,12.6867923736572,0.203132763504982,0.236354187130928,0.486792862415314,-25.8660373687744,0.117621421813965,0.135901153087616,0.266037791967392,-37.4132080078125,0.178711444139481,0.229057163000107,0.613209068775177,2012-01-17 17:31:01
1.01600003242493,49,12.9387760162354,0.220991238951683,0.271666347980499,0.63877546787262,-24.6979598999023,0.540857970714569,0.595387041568756,1.1020416021347,-37.8530616760254,0.238983869552612,0.285787284374237,0.553062975406647,2012-01-17 17:31:02
1.00200009346008,46,12.3913049697876,0.146124795079231,0.189766496419907,0.491303980350494,-27.7804355621338,1.18034029006958,1.33116805553436,2.48043394088745,-36.3347816467285,0.558034300804138,0.637323796749115,1.06521809101105,2012-01-17 17:31:03
1.00699996948242,48,12.3958339691162,0.122395984828472,0.160673558712006,0.39583358168602,-25.8541679382324,1.50069427490234,1.67952847480774,3.04583263397217,-37.4270858764648,0.760069251060486,0.866684019565582,1.52708256244659,2012-01-17 17:31:04
1.00099992752075,18,12.1833333969116,0.237036928534508,0.289155781269073,0.616666674613953,-25.3222236633301,1.35802483558655,1.38746607303619,1.97777843475342,-37.466667175293,0.781481623649597,0.819213807582855,1.26666665077209,2012-01-17 17:31:05
1.01900005340576,58,12.179310798645,0.294292449951172,0.380452781915665,1.0206892490387,-26.9172420501709,1.55636131763458,1.71395254135132,2.58275818824768,-36.8965530395508,0.948513686656952,1.0275456905365,1.49655067920685,2012-01-17 17:31:06
1.03600001335144,36,12.1833333969116,0.192592591047287,0.230337977409363,0.483333736658096,-25.7388896942139,0.231172740459442,0.262760609388351,0.461111545562744,-37.6555557250977,0.122839257121086,0.140325978398323,0.244445160031319,2012-01-17 17:31:07
1.01500010490417,51,12.5196084976196,0.363398730754852,0.435673773288727,0.980391979217529,-25.9196090698242,0.120261445641518,0.150840163230896,0.38039293885231,-37.5196075439453,0.103883765637875,0.125275939702988,0.319608122110367,2012-01-17 17:31:08
1.00999999046326,49,12.2571430206299,0.253061205148697,0.291372448205948,0.657142639160156,-25.9938774108887,0.0898792445659637,0.113223925232887,0.293877005577087,-37.3938789367676,0.154185980558395,0.187799423933029,0.406120926141739,2012-01-17 17:31:09
1.01899981498718,44,12.1977272033691,0.212293416261673,0.268403291702271,0.697727501392365,-25.8159084320068,0.146280601620674,0.174438163638115,0.415909647941589,-37.509090423584,0.0929758623242378,0.114452056586742,0.209092661738396,2012-01-17 17:31:10
1.01900005340576,32,12.34375,0.13398452103138,0.165713503956795,0.356249630451202,-25.7531261444092,0.106054648756981,0.129866123199463,0.253125488758087,-37.609375,0.148632660508156,0.175640672445297,0.30937647819519,2012-01-17 17:31:11
1.0310001373291,51,12.5098037719727,0.200538232922554,0.241120681166649,0.590196192264557,-25.6823539733887,0.0966553911566734,0.121600441634655,0.28235387802124,-37.6705894470215,0.178085088729858,0.206078305840492,0.370589673519135,2012-01-17 17:31:12
1.00499987602234,48,12.7291669845581,0.154861196875572,0.194677427411079,0.470833003520966,-25.7937507629395,0.210416868329048,0.254465520381927,0.506250619888306,-37.3479156494141,0.127257436513901,0.154096499085426,0.347917467355728,2012-01-17 17:31:13
1.01399993896484,40,12.710000038147,0.222999945282936,0.279105633497238,0.590000033378601,-25.2875003814697,0.14624996483326,0.187333136796951,0.487499237060547,-37.6399993896484,0.102999493479729,0.119999803602695,0.260000705718994,2012-01-17 17:31:14
1.01600003242493,45,12.4333333969116,0.235555499792099,0.261618852615356,0.433333456516266,-25.1200008392334,0.397333413362503,0.435940951108932,0.720000743865967,-37.6088905334473,0.117728129029274,0.14425627887249,0.308890461921692,2012-01-17 17:31:15
1.01100015640259,48,12.404167175293,0.167187422513962,0.211106553673744,0.495833665132523,-24.8770847320557,0.24826368689537,0.29877495765686,0.622916162014008,-38.0062522888184,0.222916767001152,0.263317167758942,0.606249153614044,2012-01-17 17:31:16
1,45,12.5755558013916,0.144888862967491,0.177833274006844,0.475555270910263,-23.9777774810791,0.384197473526001,0.470408320426941,1.22222256660461,-38.3111114501953,0.181234642863274,0.208936080336571,0.388888627290726,2012-01-17 17:31:17
1.00399994850159,40,12.4625005722046,0.422499895095825,0.477853208780289,1.03749990463257,-27.2075004577637,0.576374888420105,0.757425665855408,1.90749907493591,-36.810001373291,0.302500396966934,0.385875791311264,1.09000074863434,2012-01-17 17:31:18
1.00499987602234,46,12.465217590332,0.149527236819267,0.193612441420555,0.565217018127441,-24.7869567871094,0.449905395507812,0.538358449935913,1.31304359436035,-38.010871887207,0.254347771406174,0.300165206193924,0.710870981216431,2012-01-17 17:31:19
1.01800012588501,47,11.9404258728027,0.127297282218933,0.160662919282913,0.359574407339096,-27.4957447052002,0.788592040538788,0.948449313640594,1.89574468135834,-36.5212783813477,0.34449976682663,0.425233721733093,0.97872257232666,2012-01-17 17:31:20
1.01300001144409,29,12.2896556854248,0.218311578035355,0.261751085519791,0.489655137062073,-26.1103458404541,0.460404187440872,0.588595449924469,1.18965590000153,-37.5517234802246,0.384542316198349,0.439922034740448,0.851724028587341,2012-01-17 17:31:21
1.00399994850159,47,11.934042930603,0.280217260122299,0.326344400644302,0.865957498550415,-28.5936164855957,0.619827926158905,0.716196835041046,1.49361705780029,-36.2574462890625,0.395473062992096,0.46206983923912,0.942553162574768,2012-01-17 17:31:22
1.01399993896484,46,12.1021738052368,0.16370502114296,0.216181382536888,0.502173781394958,-25.5847835540771,0.505576610565186,0.627267241477966,1.71521818637848,-37.8586959838867,0.247731909155846,0.337880909442902,0.958695113658905,2012-01-17 17:31:23
1.04700016975403,40,11.8600006103516,0.350000083446503,0.428835690021515,0.860000193119049,-25.5125007629395,0.141250282526016,0.189983725547791,0.512500166893005,-37.9150009155273,0.138499930500984,0.168151795864105,0.415000826120377,2012-01-17 17:31:24
1,63,11.9492063522339,0.237389743328094,0.280517101287842,0.649206340312958,-25.146032333374,0.169614538550377,0.21218828856945,0.446031451225281,-37.9809532165527,0.108692497014999,0.133163601160049,0.280952334403992,2012-01-17 17:31:25
1.00899982452393,47,11.9553194046021,0.201176971197128,0.235930502414703,0.555318713188171,-25.1489372253418,0.0839296579360962,0.0986557900905609,0.25106292963028,-38.1765975952148,0.0832044184207916,0.10150471329689,0.22340489923954,2012-01-17 17:31:26
1.01900005340576,35,12.0914287567139,0.169306099414825,0.219572812318802,0.60857105255127,-25.1828575134277,0.083428718149662,0.108194813132286,0.217142000794411,-38.1542854309082,0.102039977908134,0.122690342366695,0.254285335540771,2012-01-17 17:31:27
1.01500010490417,47,11.8127660751343,0.340244501829147,0.417498648166656,0.887233674526215,-25.202127456665,0.108827702701092,0.139130279421806,0.302128612995148,-38.2510643005371,0.105477146804333,0.126948058605194,0.251064538955688,2012-01-17 17:31:28
1.0149998664856,50,11.746000289917,0.265360027551651,0.352255523204803,0.953999638557434,-24.738000869751,0.339520275592804,0.383609443902969,0.738000392913818,-38.2200012207031,0.107199415564537,0.132664576172829,0.319999307394028,2012-01-17 17:31:30
1.02100014686584,31,11.5322580337524,0.164412036538124,0.190732181072235,0.367742210626602,-24.9677429199219,0.119458965957165,0.13769319653511,0.232258513569832,-38.2451629638672,0.114047430455685,0.138747036457062,0.354840189218521,2012-01-17 17:31:31
1.01299977302551,51,11.8549022674561,0.178162321448326,0.227788776159286,0.554901957511902,-25.05686378479,0.111803464591503,0.136130094528198,0.356862246990204,-38.3901977539062,0.100961856544018,0.133218169212341,0.409802824258804,2012-01-17 17:31:32
1.05600023269653,42,11.4023809432983,0.155328780412674,0.19819201529026,0.497619420289993,-25.1285724639893,0.145578399300575,0.174963608384132,0.371428251266479,-38.5023803710938,0.122109368443489,0.151952937245369,0.397619873285294,2012-01-17 17:31:33
1.02899980545044,49,11.344898223877,0.20091637969017,0.246660336852074,0.555102407932281,-25.1102046966553,0.0904626026749611,0.112929597496986,0.289795160293579,-38.5612258911133,0.126197621226311,0.149579271674156,0.361224502325058,2012-01-17 17:31:34
1.01800012588501,47,11.4106388092041,0.278496980667114,0.343470364809036,0.789361238479614,-24.942554473877,0.29760068655014,0.335010141134262,0.642552435398102,-38.5255317687988,0.106926880776882,0.126269429922104,0.274466246366501,2012-01-17 17:31:35
1.02199983596802,47,11.7170219421387,0.564870953559875,0.606812059879303,0.982978284358978,-25.3234043121338,0.174829959869385,0.211592525243759,0.476596504449844,-38.0595741271973,0.286373972892761,0.327894300222397,0.640425562858582,2012-01-17 17:31:36
1.29000020027161,44,11.6000003814697,0.190909191966057,0.261116564273834,0.600000202655792,-25.5159091949463,0.147520944476128,0.18083555996418,0.315908789634705,-38.0409088134766,0.128099679946899,0.148198843002319,0.340909272432327,2012-01-17 17:31:37
1.00899982452393,50,11.9180002212524,0.466719955205917,0.516019344329834,0.817999839782715,-25.064001083374,0.140000268816948,0.165843456983566,0.363999605178833,-38.2960014343262,0.0854396298527718,0.121589668095112,0.304001778364182,2012-01-17 17:31:38
1.00800013542175,34,11.5794124603271,0.198269903659821,0.231083661317825,0.479411602020264,-25.1147060394287,0.0837373435497284,0.106086812913418,0.2147067040205,-38.279411315918,0.0901379436254501,0.113187365233898,0.27941220998764,2012-01-17 17:31:39
1.02300000190735,45,11.7266664505005,0.2829629778862,0.334265351295471,0.62666642665863,-24.728889465332,0.293728232383728,0.346808940172195,0.771110653877258,-38.4444465637207,0.134320959448814,0.164053663611412,0.355554282665253,2012-01-17 17:31:40
1.00399994850159,46,11.5804347991943,0.242155030369759,0.275538712739944,0.480434626340866,-24.9369564056396,0.155954629182816,0.186918586492538,0.363044232130051,-38.4195671081543,0.105576492846012,0.134519517421722,0.380433470010757,2012-01-17 17:31:41
1.01099991798401,45,11.5111112594604,0.15061728656292,0.187642961740494,0.411110937595367,-24.9755554199219,0.104888878762722,0.128505140542984,0.275555044412613,-38.5400009155273,0.13066703081131,0.152607053518295,0.340000241994858,2012-01-17 17:31:42
1.00500011444092,45,11.4244451522827,0.160493761301041,0.206726431846619,0.475555896759033,-25.013334274292,0.0832595154643059,0.102415487170219,0.213332325220108,-38.5088882446289,0.0748647227883339,0.10503388941288,0.291109561920166,2012-01-17 17:31:43
1.01399993896484,31,11.2419357299805,0.109469406306744,0.149783059954643,0.458064258098602,-25.0967750549316,0.10135305672884,0.13316011428833,0.396773874759674,-38.4516143798828,0.101560801267624,0.124099537730217,0.2516128718853,2012-01-17 17:31:44
1.01200008392334,48,11.3000001907349,0.225000023841858,0.282105147838593,0.600000381469727,-24.7354164123535,0.166579887270927,0.205638900399208,0.464583665132523,-38.46875,0.153385370969772,0.187256798148155,0.431250661611557,2012-01-17 17:31:45
1.00799989700317,47,11.4468088150024,0.146491497755051,0.196621462702751,0.546808183193207,-25.1085109710693,0.0754189714789391,0.104840122163296,0.391488999128342,-38.4468078613281,0.0841103121638298,0.100744485855103,0.253191590309143,2012-01-17 17:31:46
1.00100016593933,30,11.2333335876465,0.140000179409981,0.161932915449142,0.266666501760483,-25.2066669464111,0.134222224354744,0.159024834632874,0.306667387485504,-38.560001373291,0.081334076821804,0.098658062517643,0.260002017021179,2012-01-17 17:31:47
1.00099992752075,51,11.3411769866943,0.316493690013885,0.37634801864624,0.758823692798615,-24.9980392456055,0.15947712957859,0.195528700947762,0.398039281368256,-38.5411758422852,0.110265851020813,0.133102685213089,0.258821964263916,2012-01-17 17:31:48
1.01099991798401,47,11.2574472427368,0.161340102553368,0.21903532743454,0.657446682453156,-24.985107421875,0.156451031565666,0.211357250809669,0.585107028484344,-38.5702133178711,0.118877783417702,0.147193551063538,0.370212972164154,2012-01-17 17:31:49
1.01399993896484,35,11.0085716247559,0.143183693289757,0.191790714859962,0.40857121348381,-24.6371440887451,0.163102269172668,0.213923662900925,0.562857627868652,-38.6628570556641,0.129632547497749,0.149448096752167,0.262856394052505,2012-01-17 17:31:50
1,48,11.3041667938232,0.375694513320923,0.425224661827087,0.79583352804184,-25.1708335876465,0.0989586189389229,0.122403830289841,0.270834237337112,-38.5666694641113,0.165278032422066,0.206491768360138,0.466665357351303,2012-01-17 17:31:51
1.01200008392334,44,11.1431818008423,0.141838744282722,0.183894440531731,0.443182170391083,-25.1818180084229,0.114049807190895,0.143452227115631,0.381817549467087,-38.6204566955566,0.0878093540668488,0.111964762210846,0.320456326007843,2012-01-17 17:31:52
1.2279999256134,42,11.0761909484863,0.111791342496872,0.13940255343914,0.423809289932251,-25.2333335876465,0.106349185109138,0.124721840023994,0.233333811163902,-38.5642852783203,0.113946072757244,0.146094366908073,0.364286065101624,2012-01-17 17:31:53
1.0090000629425,50,11.0620002746582,0.257999926805496,0.311698526144028,0.637999653816223,-24.9780006408691,0.20552009344101,0.251626819372177,0.578000783920288,-38.5639991760254,0.14576056599617,0.176363557577133,0.363999933004379,2012-01-17 17:31:54
1.01300001144409,45,11.1222229003906,0.227654278278351,0.280387759208679,0.677777707576752,-25.195556640625,0.169382899999619,0.199950665235519,0.404444515705109,-38.5533332824707,0.146074622869492,0.184511691331863,0.453331768512726,2012-01-17 17:31:55
1.01200008392334,34,11.0617647171021,0.156747370958328,0.192529127001762,0.461764484643936,-24.8058834075928,0.120068870484829,0.164390385150909,0.494118183851242,-38.7411766052246,0.111763894557953,0.133101880550385,0.258822947740555,2012-01-17 17:31:56
1.0149998664856,48,11.9499998092651,0.516666650772095,0.585946500301361,1.14999985694885,-24.5,0.150000154972076,0.182574182748795,0.399999231100082,-39.4208335876465,0.304861187934875,0.351756572723389,0.720833539962769,2012-01-17 17:31:57
1.04999995231628,45,11.4866666793823,0.17985175549984,0.223706141114235,0.486666887998581,-24.4688892364502,0.0923457518219948,0.115127444267273,0.331112116575241,-39.0800018310547,0.200000390410423,0.248193576931953,0.520001471042633,2012-01-17 17:31:58
1.05200004577637,43,11.6418609619141,0.167658105492592,0.220182344317436,0.641860604286194,-24.0651168823242,0.192428469657898,0.217687353491783,0.465116381645203,-39.4093017578125,0.387560963630676,0.425803780555725,0.790697693824768,2012-01-17 17:31:59
