"diffSecs","latitude","longitude","altitude","time"
0.595999956130981,42.5327685642959,-70.9469745289827,-16.9653148651123,2012-02-29 13:00:00
1.00699996948242,42.532815149114,-70.9471254165219,-16.2673721313477,2012-02-29 13:00:01
1.00600004196167,42.5328598704729,-70.9472751994399,-15.6261186599731,2012-02-29 13:00:02
1.06100010871887,42.5329037849629,-70.947421782703,-15.3055734634399,2012-02-29 13:00:03
1.00699996948242,42.532948570012,-70.9475706217755,-14.5109119415283,2012-02-29 13:00:04
1.03900003433228,42.53298700445,-70.9477246282468,-13.8437805175781,2012-02-29 13:00:05
0.972999811172485,42.5330248357073,-70.947880058113,-12.8339824676514,2012-02-29 13:00:06
1.007000207901,42.5330637683431,-70.9480329918898,-12.5799827575684,2012-02-29 13:00:07
1.00499987602234,42.5331109009865,-70.9481816718876,-12.1498680114746,2012-02-29 13:00:08
1.00799989700317,42.5331584524351,-70.948332309934,-11.5566864013672,2012-02-29 13:00:09
1.007000207901,42.5332077281521,-70.9484905717336,-10.478461265564,2012-02-29 13:00:10
1.00300002098083,42.5332576597679,-70.9486506942054,-9.2503490447998,2012-02-29 13:00:11
1.00699996948242,42.5333079186905,-70.948812351337,-8.49240684509277,2012-02-29 13:00:12
1.00499987602234,42.5333576143421,-70.9489780279495,-7.74540948867798,2012-02-29 13:00:13
1.00500011444092,42.5334054914087,-70.949139507891,-6.77951717376709,2012-02-29 13:00:14
1.00699996948242,42.5334546265865,-70.9492972961912,-6.12369298934937,2012-02-29 13:00:15
1.04099988937378,42.5335005115031,-70.9494334884021,-6.99072504043579,2012-02-29 13:00:16
0.970000028610229,42.5335430705557,-70.9495710657537,-6.62464666366577,2012-02-29 13:00:17
1.05599999427795,42.5336010804406,-70.9496880920809,-6.93757772445679,2012-02-29 13:00:18
1.00399994850159,42.5336686035785,-70.9497917633763,-7.01239347457886,2012-02-29 13:00:19
1.00800013542175,42.5337566158666,-70.9498654780933,-9.98200607299805,2012-02-29 13:00:20
1.00399994850159,42.5338561539562,-70.9499335200389,-11.1952896118164,2012-02-29 13:00:21
1.00799989700317,42.5339641943047,-70.9499792597342,-11.4958009719849,2012-02-29 13:00:22
1.00400018692017,42.5340733425903,-70.9499953912733,-12.3154764175415,2012-02-29 13:00:23
1.00600004196167,42.5341924160997,-70.9499831734986,-12.7903261184692,2012-02-29 13:00:24
1.00599980354309,42.5343123899711,-70.9499382804108,-13.1414499282837,2012-02-29 13:00:25
1.00500011444092,42.5344318628005,-70.9498471087058,-14.2378377914429,2012-02-29 13:00:26
1.00799989700317,42.5345481337076,-70.9497285776042,-14.9962873458862,2012-02-29 13:00:27
1.00300002098083,42.5346679331914,-70.9495843447082,-16.2456455230713,2012-02-29 13:00:28
1.0090000629425,42.5347855385615,-70.9494205572013,-17.5501708984375,2012-02-29 13:00:29
1.00499987602234,42.5349095573393,-70.9492310006601,-18.7550315856934,2012-02-29 13:00:30
1.00400018692017,42.5350301556797,-70.9490171055049,-19.4737129211426,2012-02-29 13:00:31
1.05699992179871,42.5351380771107,-70.9487810766267,-20.028413772583,2012-02-29 13:00:32
1.00399994850159,42.5352422493318,-70.9485393955687,-20.6402683258057,2012-02-29 13:00:33
1.02999997138977,42.5353443236607,-70.9482851022968,-21.4187564849854,2012-02-29 13:00:34
0.981000185012817,42.53544420932,-70.9480223895707,-22.5578384399414,2012-02-29 13:00:35
1.00899982452393,42.5355503420852,-70.9477552400719,-23.3899345397949,2012-02-29 13:00:36
1.00800013542175,42.5356580214766,-70.9474808001279,-23.4597663879395,2012-02-29 13:00:37
1.00499987602234,42.5357688059882,-70.9471985504624,-23.2664985656738,2012-02-29 13:00:38
1.00600004196167,42.535881418741,-70.9469123885498,-22.6314868927002,2012-02-29 13:00:39
1.00399994850159,42.5359937158549,-70.9466263423589,-21.7411956787109,2012-02-29 13:00:40
1.01200008392334,42.5361049914151,-70.94633733217,-21.7879219055176,2012-02-29 13:00:42
1,42.5362184511508,-70.9460478999478,-21.2457523345947,2012-02-29 13:00:43
1.00600004196167,42.5363287981226,-70.9457532266677,-21.2891902923584,2012-02-29 13:00:44
1.00699996948242,42.536445353686,-70.945456782878,-20.4779186248779,2012-02-29 13:00:45
1.00499987602234,42.5365647205671,-70.9451605213949,-19.6704330444336,2012-02-29 13:00:46
1.00600004196167,42.5366812909155,-70.9448600439014,-19.4601802825928,2012-02-29 13:00:47
1.05800008773804,42.5367997374616,-70.9445588326113,-17.8922901153564,2012-02-29 13:00:48
1.00399994850159,42.5369125993383,-70.9442543486905,-17.6408939361572,2012-02-29 13:00:49
1.00699996948242,42.5370256125153,-70.9439487920935,-17.1541976928711,2012-02-29 13:00:50
1.00500011444092,42.537141043453,-70.943644221255,-15.6242084503174,2012-02-29 13:00:51
1.00600004196167,42.5372559206824,-70.9433367470527,-15.6070547103882,2012-02-29 13:00:52
1.00699996948242,42.5373702894698,-70.943033321907,-14.7686910629272,2012-02-29 13:00:53
1.00399994850159,42.5374855465015,-70.9427308292313,-13.7790355682373,2012-02-29 13:00:54
1.00799989700317,42.5375983980733,-70.9424298985962,-13.0895843505859,2012-02-29 13:00:55
1.00500011444092,42.5377097102883,-70.9421296564982,-12.3679752349854,2012-02-29 13:00:56
1.00600004196167,42.5378255622635,-70.9418338103233,-10.1843338012695,2012-02-29 13:00:57
1.00399994850159,42.5379425474378,-70.941539472306,-7.8589653968811,2012-02-29 13:00:58
1.00600004196167,42.5380620721672,-70.9412472988407,-5.40045547485352,2012-02-29 13:00:59
1.00899982452393,42.5381839589037,-70.9409586450019,-2.97221279144287,2012-02-29 13:01:00
1.00300002098083,42.5383109712829,-70.9406730357,-1.77177786827087,2012-02-29 13:01:01
1.00699996948242,42.5384436950801,-70.9403931564241,-1.09013986587524,2012-02-29 13:01:02
1.00500011444092,42.5385901633043,-70.9401159076035,-0.746753931045532,2012-02-29 13:01:03
1.00600004196167,42.5387373101753,-70.9398402504561,-1.04806363582611,2012-02-29 13:01:04
1.00600004196167,42.5388955123955,-70.9395709894878,-1.56459188461304,2012-02-29 13:01:05
1.00599980354309,42.5390711486808,-70.9393077427723,-1.95535528659821,2012-02-29 13:01:06
1.05700016021729,42.5392620601857,-70.9390486837155,-2.62395143508911,2012-02-29 13:01:07
1.00300002098083,42.5394547550673,-70.9387904087385,-3.48733496665955,2012-02-29 13:01:08
1.00799989700317,42.5396508360147,-70.9385320207199,-4.12114763259888,2012-02-29 13:01:09
1.00600004196167,42.5398431468611,-70.9382754939499,-4.38275051116943,2012-02-29 13:01:10
1.01600003242493,42.5400340926024,-70.9380145454778,-4.68497276306152,2012-02-29 13:01:11
0.996999979019165,42.5402136300363,-70.9377515689586,-5.88793468475342,2012-02-29 13:01:12
1.00300002098083,42.5403895557589,-70.93749523973,-7.24138593673706,2012-02-29 13:01:13
1.00799989700317,42.540563439,-70.9372502475659,-8.71161460876465,2012-02-29 13:01:14
1.00399994850159,42.5407388754083,-70.9370112718397,-10.0454397201538,2012-02-29 13:01:15
1.007000207901,42.5409163971063,-70.9367774899901,-10.5575504302979,2012-02-29 13:01:16
1.00499987602234,42.5411020157542,-70.9365550148587,-11.01051902771,2012-02-29 13:01:17
1.00500011444092,42.5412975612881,-70.9363561206266,-11.8115682601929,2012-02-29 13:01:18
1.05799984931946,42.541516198196,-70.9361911584926,-11.9321804046631,2012-02-29 13:01:19
1.00300002098083,42.5417381474135,-70.9360538274584,-12.4703178405762,2012-02-29 13:01:20
1.00800013542175,42.5419712075078,-70.9359376884168,-12.6173257827759,2012-02-29 13:01:21
1.00599980354309,42.5422076791278,-70.9358473311815,-13.2767753601074,2012-02-29 13:01:22
1.00500011444092,42.5424524282315,-70.9357869771115,-14.1491804122925,2012-02-29 13:01:23
1.01500010490417,42.5427002945444,-70.935756806598,-14.6800193786621,2012-02-29 13:01:24
0.995999813079834,42.5429521905821,-70.9357710456655,-15.1826868057251,2012-02-29 13:01:25
1.00800013542175,42.5431966571912,-70.9358091327287,-16.4237117767334,2012-02-29 13:01:26
1.00399994850159,42.543444265939,-70.9358580104684,-17.0400333404541,2012-02-29 13:01:27
1.00699996948242,42.5436918391888,-70.9359077883985,-17.7016582489014,2012-02-29 13:01:28
1.04299998283386,42.5439406355457,-70.9359528188698,-18.1526489257812,2012-02-29 13:01:29
0.967999935150146,42.5441869353339,-70.9360017918064,-18.5350017547607,2012-02-29 13:01:30
1.007000207901,42.5444360197979,-70.9360430966375,-19.9196071624756,2012-02-29 13:01:31
1.00499987602234,42.5446845374421,-70.9360873929149,-20.4536056518555,2012-02-29 13:01:32
1.00600004196167,42.5449288655368,-70.9361296228215,-20.9802436828613,2012-02-29 13:01:33
1.05599999427795,42.5451724648288,-70.9361700121447,-22.0387363433838,2012-02-29 13:01:34
1.00399994850159,42.5454175187079,-70.9362127231802,-22.5329990386963,2012-02-29 13:01:35
1.01300001144409,42.5456641416296,-70.9362539950832,-23.4549217224121,2012-02-29 13:01:36
1.00800013542175,42.5461643161096,-70.9363407872464,-24.7517910003662,2012-02-29 13:01:37
1.01099991798401,42.5464187295011,-70.9363834827206,-25.5996170043945,2012-02-29 13:01:38
1.00799989700317,42.5466763145412,-70.936423345511,-26.2059860229492,2012-02-29 13:01:39
1.00500011444092,42.5469318247156,-70.936466700228,-26.6255226135254,2012-02-29 13:01:40
2.00600004196167,42.5474404060922,-70.9365454891853,-26.6141834259033,2012-02-29 13:01:42
1.00799989700317,42.547694477118,-70.9365710290571,-26.2298812866211,2012-02-29 13:01:43
1.01300001144409,42.5479457768538,-70.9365803119289,-25.8449420928955,2012-02-29 13:01:44
1,42.548197214748,-70.9365776486708,-25.4834594726562,2012-02-29 13:01:45
1.00399994850159,42.5484520671745,-70.9365669616465,-25.1774406433105,2012-02-29 13:01:46
2.00999999046326,42.5489623031464,-70.9365374220178,-25.0155010223389,2012-02-29 13:01:48
1.05599999427795,42.5492211992214,-70.9365105609633,-24.6238460540771,2012-02-29 13:01:49
1.00699996948242,42.5494818205561,-70.9364812958463,-24.2646732330322,2012-02-29 13:01:50
1.00500011444092,42.5497459677253,-70.9364565316519,-23.9057178497314,2012-02-29 13:01:51
1.00600004196167,42.5500053365495,-70.9364292359561,-23.6199150085449,2012-02-29 13:01:52
1.01199984550476,42.5502597525404,-70.9363980935533,-23.170503616333,2012-02-29 13:01:53
1,42.5505076904055,-70.9363539097872,-22.6690006256104,2012-02-29 13:01:54
1.07200002670288,42.5507537012278,-70.936295775927,-21.9955406188965,2012-02-29 13:01:55
0.940000057220459,42.550996869052,-70.936220623209,-21.5032138824463,2012-02-29 13:01:56
1.00600004196167,42.5512344199756,-70.9361263113294,-21.1617832183838,2012-02-29 13:01:57
1.0090000629425,42.5514629396622,-70.9360246795683,-20.6709079742432,2012-02-29 13:01:58
1.00300002098083,42.5516840989355,-70.9359120662088,-20.2589588165283,2012-02-29 13:01:59
1.00799989700317,42.5518940307541,-70.9357899392048,-20.409740447998,2012-02-29 13:02:00
1.01200008392334,42.5520905711735,-70.9356579560899,-21.4823417663574,2012-02-29 13:02:01
1.06799983978271,42.552279211305,-70.9355214374824,-22.0830707550049,2012-02-29 13:02:02
0.936000108718872,42.5524590140424,-70.9353782990683,-22.4007663726807,2012-02-29 13:02:03
1.05599999427795,42.5526314373184,-70.9352278003482,-23.2233982086182,2012-02-29 13:02:04
1.00699996948242,42.5527977734057,-70.9350720312447,-23.8472423553467,2012-02-29 13:02:05
1.00600004196167,42.5529592249498,-70.9349109915227,-24.4298324584961,2012-02-29 13:02:06
1.00499987602234,42.5531172412238,-70.9347445316541,-24.4281196594238,2012-02-29 13:02:07
1.00600004196167,42.5532724331808,-70.9345678711869,-24.8112659454346,2012-02-29 13:02:08
1.01300001144409,42.5534282021861,-70.9343883009177,-24.918119430542,2012-02-29 13:02:09
0.999000072479248,42.5535822463178,-70.9342029756679,-24.5538711547852,2012-02-29 13:02:10
1.00600004196167,42.5537406130673,-70.9340139360356,-24.2091255187988,2012-02-29 13:02:11
1.00599980354309,42.5539010418659,-70.9338224363447,-24.638988494873,2012-02-29 13:02:12
1.00600004196167,42.554063968734,-70.9336267000911,-24.8109436035156,2012-02-29 13:02:13
1.00400018692017,42.5542300636122,-70.9334314013389,-24.8892440795898,2012-02-29 13:02:14
1.00599980354309,42.5543981196142,-70.9332357539974,-25.1571292877197,2012-02-29 13:02:15
1.00800013542175,42.5545651186376,-70.9330386243454,-25.8278579711914,2012-02-29 13:02:16
1.05499982833862,42.5547330232587,-70.9328392088148,-26.1983661651611,2012-02-29 13:02:17
1.007000207901,42.5549005451825,-70.9326392651148,-26.3390922546387,2012-02-29 13:02:18
1.00599980354309,42.5550708086923,-70.9324408697641,-26.6478900909424,2012-02-29 13:02:19
1.007000207901,42.5552410835973,-70.9322449774049,-26.8369846343994,2012-02-29 13:02:20
1.00499987602234,42.5554107938142,-70.9320499396664,-26.8862438201904,2012-02-29 13:02:21
1.00600004196167,42.5555797590606,-70.9318563007866,-27.0277233123779,2012-02-29 13:02:22
1.00600004196167,42.5557483039151,-70.9316628797689,-27.0678119659424,2012-02-29 13:02:23
1.05399990081787,42.5559187632613,-70.9314716490971,-26.7821483612061,2012-02-29 13:02:25
0.962000131607056,42.5560881306212,-70.9312793343423,-26.386287689209,2012-02-29 13:02:25
1,42.5562559993924,-70.9310870211441,-25.8912296295166,2012-02-29 13:02:26
1.00699996948242,42.5564163325812,-70.9309023246985,-24.2193641662598,2012-02-29 13:02:27
1.00300002098083,42.5565815957897,-70.9307118242241,-23.1247978210449,2012-02-29 13:02:28
1.00799989700317,42.5567455200645,-70.9305214585574,-21.9175491333008,2012-02-29 13:02:29
1.00600004196167,42.556909295056,-70.9303311280981,-20.8513259887695,2012-02-29 13:02:30
1.00399994850159,42.5570727712931,-70.9301423698639,-20.0170879364014,2012-02-29 13:02:31
1.00800013542175,42.5572346035961,-70.9299533463646,-18.8306007385254,2012-02-29 13:02:33
1.05399990081787,42.5573901211434,-70.9297629502513,-18.0477142333984,2012-02-29 13:02:34
1.00799989700317,42.5575478254008,-70.9295760001776,-18.4288959503174,2012-02-29 13:02:35
1.00400018692017,42.5577036000552,-70.929388889705,-18.1946849822998,2012-02-29 13:02:36
1.00599980354309,42.5578601426725,-70.9292032220542,-18.2493839263916,2012-02-29 13:02:37
1.00600004196167,42.5580127627384,-70.9290199614237,-18.7250595092773,2012-02-29 13:02:38
1.00399994850159,42.5581662791659,-70.9288376129383,-19.2558403015137,2012-02-29 13:02:39
1.0090000629425,42.5583230229196,-70.928653447754,-19.9302387237549,2012-02-29 13:02:40
1.00300002098083,42.5584846427473,-70.9284667864575,-20.6788673400879,2012-02-29 13:02:41
1.00699996948242,42.5586515886084,-70.9282772376397,-21.4682865142822,2012-02-29 13:02:42
1.00500011444092,42.5588175186465,-70.9280798992604,-22.6015968322754,2012-02-29 13:02:43
1.00600004196167,42.5589871666734,-70.9278799316142,-23.5292587280273,2012-02-29 13:02:44
1.00599980354309,42.559158947807,-70.9276768887134,-24.3895225524902,2012-02-29 13:02:45
1.00400018692017,42.5593313387166,-70.9274723121953,-25.2520656585693,2012-02-29 13:02:46
1.05499982833862,42.5595062267742,-70.927270862405,-25.7903614044189,2012-02-29 13:02:47
1.00600004196167,42.5596824553132,-70.9270722118764,-26.2760562896729,2012-02-29 13:02:48
1.00500011444092,42.5598620221189,-70.9268765950361,-26.098876953125,2012-02-29 13:02:49
1.00999999046326,42.5600416362333,-70.9266887534115,-26.2598915100098,2012-02-29 13:02:50
1.00399994850159,42.5602229492417,-70.9265077907292,-26.930492401123,2012-02-29 13:02:51
1.00600004196167,42.5604069687688,-70.9263355579323,-27.6005935668945,2012-02-29 13:02:52
1.00600004196167,42.5605964503181,-70.926172113076,-27.6974658966064,2012-02-29 13:02:53
1.02699995040894,42.5607918387844,-70.9260140612885,-28.000171661377,2012-02-29 13:02:54
0.984999895095825,42.5609907924428,-70.9258597387533,-28.1253128051758,2012-02-29 13:02:55
1.00600004196167,42.5611952859051,-70.9257120226911,-27.9590377807617,2012-02-29 13:02:56
1.00399994850159,42.5614050684494,-70.9255695793021,-27.5871753692627,2012-02-29 13:02:57
1.00600004196167,42.5616156621186,-70.9254258422848,-27.4214611053467,2012-02-29 13:02:58
1.00600004196167,42.5618268344405,-70.9252823726633,-27.7660961151123,2012-02-29 13:02:59
1.00499987602234,42.5620373754806,-70.9251353258092,-28.4855632781982,2012-02-29 13:03:00
1.05800008773804,42.5622531470923,-70.9249973190699,-27.7659473419189,2012-02-29 13:03:01
1.00500011444092,42.562466945814,-70.9248579908176,-27.1920146942139,2012-02-29 13:03:02
1.00599980354309,42.5626764844747,-70.9247127465899,-27.319278717041,2012-02-29 13:03:03
1.00600004196167,42.5628898909084,-70.9245745281833,-26.3143329620361,2012-02-29 13:03:04
1.00500011444092,42.5631015858246,-70.924432912354,-25.9177398681641,2012-02-29 13:03:05
1.00799989700317,42.5633134782025,-70.9242882920267,-26.2171249389648,2012-02-29 13:03:06
1.00500011444092,42.5635257401335,-70.9241471637,-26.5213165283203,2012-02-29 13:03:07
1.00600004196167,42.5637389338109,-70.9240049517424,-26.6082744598389,2012-02-29 13:03:08
1.00599980354309,42.5639505238035,-70.923867901236,-25.4467258453369,2012-02-29 13:03:09
1.00500011444092,42.5641577365969,-70.9237314679148,-24.183629989624,2012-02-29 13:03:10
1.00799989700317,42.5643616258376,-70.9235923757113,-23.4276962280273,2012-02-29 13:03:11
1.00300002098083,42.5645600848654,-70.923456566613,-22.5120258331299,2012-02-29 13:03:12
1.00699996948242,42.5647592392093,-70.9233215384396,-21.8915462493896,2012-02-29 13:03:13
1.0550000667572,42.5649548190189,-70.9231835329071,-20.9295997619629,2012-02-29 13:03:14
1.00600004196167,42.5651433643145,-70.9230374308465,-20.3606071472168,2012-02-29 13:03:15
1.01600003242493,42.5653282848462,-70.9228873179301,-19.7057571411133,2012-02-29 13:03:16
0.996000051498413,42.5655125050869,-70.9227341283716,-18.33251953125,2012-02-29 13:03:17
1.00699996948242,42.565693624417,-70.9225697054317,-17.637580871582,2012-02-29 13:03:18
1.00499987602234,42.565876815418,-70.922398369492,-17.3282070159912,2012-02-29 13:03:19
1.00600004196167,42.5660558702218,-70.9222203334497,-16.8484401702881,2012-02-29 13:03:20
1.00600004196167,42.5662318483791,-70.9220303444462,-16.5818500518799,2012-02-29 13:03:21
1.00600004196167,42.5664076774895,-70.9218322388585,-16.7407760620117,2012-02-29 13:03:22
1.02199983596802,42.5665772876303,-70.9216231887599,-17.490816116333,2012-02-29 13:03:23
0.988000154495239,42.5667482961318,-70.9214109961712,-17.3062705993652,2012-02-29 13:03:24
1.00699996948242,42.5669201414055,-70.9211954758374,-16.9072952270508,2012-02-29 13:03:25
1.00499987602234,42.5670830139433,-70.9209695582972,-16.9458446502686,2012-02-29 13:03:26
1.06000018119812,42.5673886525942,-70.9204984428439,-15.9417715072632,2012-02-29 13:03:27
0.959999799728394,42.5675323770366,-70.9202520221065,-15.4787139892578,2012-02-29 13:03:28
2.0220000743866,42.5677917419125,-70.919743425659,-13.7968301773071,2012-02-29 13:03:30
1,42.5679188491129,-70.9194799012165,-13.3270835876465,2012-02-29 13:03:31
1.04400014877319,42.5680406467631,-70.9192113295632,-12.801323890686,2012-02-29 13:03:32
1.00599980354309,42.5681564566673,-70.9189344261032,-11.9885425567627,2012-02-29 13:03:33
1.00500011444092,42.5682689634464,-70.918657637078,-10.808895111084,2012-02-29 13:03:34
2.01099991798401,42.5684783003774,-70.9180801729462,-9.30247974395752,2012-02-29 13:03:36
1.00800013542175,42.5685758588484,-70.9177835068973,-8.67296409606934,2012-02-29 13:03:37
1.07299995422363,42.5686708499591,-70.9174850096469,-7.9791841506958,2012-02-29 13:03:38
0.937000036239624,42.5687627430095,-70.9171853335872,-7.26072549819946,2012-02-29 13:03:39
1.00599980354309,42.5688573085377,-70.9168823005149,-6.71320772171021,2012-02-29 13:03:40
2.01500010490417,42.5690370373371,-70.9162609287659,-6.49728631973267,2012-02-29 13:03:42
1.00500011444092,42.569124769491,-70.9159526159936,-6.16343545913696,2012-02-29 13:03:43
1.00599980354309,42.5692098760264,-70.9156447294853,-5.82800817489624,2012-02-29 13:03:44
1.007000207901,42.5692958383123,-70.9153359528465,-5.20502328872681,2012-02-29 13:03:45
1.11499977111816,42.5693794384574,-70.9150294566446,-5.22459650039673,2012-02-29 13:03:46
0.945000171661377,42.5694635564513,-70.9147247586526,-5.23498725891113,2012-02-29 13:03:47
1.00499987602234,42.5695437393525,-70.9144180243762,-5.18935537338257,2012-02-29 13:03:48
1.00699996948242,42.5696302381961,-70.914118020652,-4.9897346496582,2012-02-29 13:03:49
1.00400018692017,42.5697134110795,-70.9138211180798,-5.28658437728882,2012-02-29 13:03:50
1.00599980354309,42.569798304152,-70.9135224498647,-5.02315521240234,2012-02-29 13:03:51
1.00800013542175,42.5698805937557,-70.9132182687419,-4.85808801651001,2012-02-29 13:03:52
1.00399994850159,42.5699602653753,-70.9129151905664,-4.49041175842285,2012-02-29 13:03:53
1.00699996948242,42.5700418933448,-70.9126154783282,-3.61067938804626,2012-02-29 13:03:54
1.00399994850159,42.5701287001802,-70.912315987042,-2.27114367485046,2012-02-29 13:03:55
1.00600004196167,42.5702160686531,-70.9120104358504,-1.71221733093262,2012-02-29 13:03:56
1.00600004196167,42.5702987042387,-70.9116990540852,-1.45182430744171,2012-02-29 13:03:57
1.00500011444092,42.5703806722521,-70.9113873197247,-1.03358924388885,2012-02-29 13:03:58
1.05799984931946,42.5704641982274,-70.911079736512,-0.347968608140945,2012-02-29 13:03:59
1.00300002098083,42.570544604982,-70.9107734999359,-0.191377937793732,2012-02-29 13:04:00
1.01200008392334,42.5706291601694,-70.9104754560443,0.108699537813663,2012-02-29 13:04:01
1.0019998550415,42.5707129258763,-70.9101836640434,0.500226080417633,2012-02-29 13:04:02
1.00600004196167,42.5707987035097,-70.9098918423485,1.25927710533142,2012-02-29 13:04:03
1.00800013542175,42.5708901535595,-70.909606196751,2.10658526420593,2012-02-29 13:04:04
1.00399994850159,42.5709945794933,-70.9093333144493,3.27641844749451,2012-02-29 13:04:05
1.00600004196167,42.5711091560253,-70.9090626929082,4.08583450317383,2012-02-29 13:04:06
1.00600004196167,42.5712328672228,-70.9087977803781,4.93490886688232,2012-02-29 13:04:07
1.05599999427795,42.5713613261387,-70.9085352818851,5.85036134719849,2012-02-29 13:04:08
0.956999778747559,42.5715000832196,-70.9082769531169,7.19796514511108,2012-02-29 13:04:09
1.00500011444092,42.5716447650819,-70.9080161576578,7.65994834899902,2012-02-29 13:04:10
1.00799989700317,42.5717917620532,-70.9077576594446,7.99896574020386,2012-02-29 13:04:11
1.05400013923645,42.5719283881648,-70.9074888658213,7.58546686172485,2012-02-29 13:04:12
1.0090000629425,42.5720588777872,-70.9072147413006,7.07005023956299,2012-02-29 13:04:13
1.00899982452393,42.5721800608286,-70.9069307528556,6.67510747909546,2012-02-29 13:04:14
1.00600004196167,42.5722920933875,-70.9066406271105,6.90150213241577,2012-02-29 13:04:16
1.00600004196167,42.572394635389,-70.9063425356785,6.90764951705933,2012-02-29 13:04:17
1.00499987602234,42.5724886034752,-70.9060370661322,6.41487741470337,2012-02-29 13:04:18
1.00600004196167,42.5725778524217,-70.9057294074936,5.49545001983643,2012-02-29 13:04:19
1.00500011444092,42.5726623885454,-70.9054230834068,4.68259906768799,2012-02-29 13:04:20
1.00799989700317,42.5727425906634,-70.9051130650809,3.96270942687988,2012-02-29 13:04:21
1.00399994850159,42.5728166949666,-70.904793669574,2.78982210159302,2012-02-29 13:04:22
1.00600004196167,42.572885551498,-70.9044708952528,1.36416399478912,2012-02-29 13:04:23
1.00500011444092,42.5729526771537,-70.9041420544498,0.514539957046509,2012-02-29 13:04:24
1.00600004196167,42.5730081608208,-70.903802367423,-1.22439014911652,2012-02-29 13:04:25
1.00799989700317,42.5730626080468,-70.903460171882,-2.58871054649353,2012-02-29 13:04:26
1.08200001716614,42.5731139895826,-70.9031163532538,-3.48573303222656,2012-02-29 13:04:27
0.979000091552734,42.5731615195349,-70.9027665162655,-3.99055647850037,2012-02-29 13:04:28
1.00599980354309,42.5732113801528,-70.9024167767871,-4.84741640090942,2012-02-29 13:04:29
1.00500011444092,42.5732632386866,-70.9020660433508,-5.37482404708862,2012-02-29 13:04:30
1.00799989700317,42.5733156484769,-70.9017140443886,-6.36898136138916,2012-02-29 13:04:31
1.00500011444092,42.5733627619513,-70.9013552228849,-7.1574878692627,2012-02-29 13:04:32
1.00600004196167,42.5734100086901,-70.9009982730539,-7.53966331481934,2012-02-29 13:04:33
1.00399994850159,42.5734561695357,-70.9006440602392,-7.91946935653687,2012-02-29 13:04:34
1.00600004196167,42.5735083949791,-70.9002966074001,-8.5084981918335,2012-02-29 13:04:35
1.00600004196167,42.5735594409642,-70.8999475401274,-8.99809837341309,2012-02-29 13:04:36
1.00799989700317,42.5736094276832,-70.8996004556464,-9.36782550811768,2012-02-29 13:04:37
1.00500011444092,42.573656580977,-70.8992520830687,-9.69606399536133,2012-02-29 13:04:38
1.00499987602234,42.5737023427624,-70.8989085274082,-10.0723276138306,2012-02-29 13:04:39
1.00600004196167,42.5737499748682,-70.8985668510248,-10.4582805633545,2012-02-29 13:04:40
1.00399994850159,42.5737987121446,-70.898228997687,-10.4669876098633,2012-02-29 13:04:41
1.05699992179871,42.5738480472424,-70.8978962591698,-10.5783176422119,2012-02-29 13:04:42
1.00500011444092,42.5738942893597,-70.8975669962807,-11.0237627029419,2012-02-29 13:04:43
1.00600004196167,42.5739397672491,-70.8972479325281,-11.2134695053101,2012-02-29 13:04:44
1.0699999332428,42.5739824885657,-70.896939900748,-11.1962938308716,2012-02-29 13:04:45
0.941999912261963,42.5740219484403,-70.8966410618633,-11.073748588562,2012-02-29 13:04:46
1.007000207901,42.5740606873615,-70.8963508568556,-11.0912017822266,2012-02-29 13:04:47
1.00499987602234,42.574099782154,-70.8960661338513,-11.0351600646973,2012-02-29 13:04:48
1.00800013542175,42.5741393716151,-70.8957880371282,-10.9252834320068,2012-02-29 13:04:49
1.00599980354309,42.5741794498733,-70.8955156745958,-10.9501676559448,2012-02-29 13:04:50
1.00400018692017,42.5742189932136,-70.8952511506161,-11.0571165084839,2012-02-29 13:04:51
1.01699995994568,42.5742569240306,-70.8949918271613,-11.1983222961426,2012-02-29 13:04:52
0.998999834060669,42.5742933140703,-70.8947364097282,-11.9028081893921,2012-02-29 13:04:53
1.00600004196167,42.5743316994933,-70.8944815065107,-12.6167640686035,2012-02-29 13:04:54
1.00500011444092,42.574368587451,-70.8942262165203,-12.9129571914673,2012-02-29 13:04:55
1.00799989700317,42.5744037364152,-70.893965473831,-13.1146640777588,2012-02-29 13:04:56
1.0550000667572,42.5744391574528,-70.8937011496073,-13.6730031967163,2012-02-29 13:04:57
1.00600004196167,42.5744756294384,-70.8934338585989,-13.8184976577759,2012-02-29 13:04:58
1.00600004196167,42.574512423757,-70.8931645268395,-14.0384521484375,2012-02-29 13:04:59
1.00499987602234,42.57455055075,-70.8928913756519,-14.3254528045654,2012-02-29 13:05:00
1.00800013542175,42.5745879867542,-70.8926121122727,-14.6872787475586,2012-02-29 13:05:01
1.00499987602234,42.5746276678845,-70.892333530516,-14.6936683654785,2012-02-29 13:05:02
1.06900000572205,42.5746663987621,-70.8920502259352,-15.0292625427246,2012-02-29 13:05:03
0.946000099182129,42.5747068094924,-70.8917688154943,-15.1908273696899,2012-02-29 13:05:04
1.00300002098083,42.5747478040499,-70.8914854081498,-15.3504219055176,2012-02-29 13:05:05
1.00699996948242,42.5747882175409,-70.8911995511275,-15.6834926605225,2012-02-29 13:05:06
1.00499987602234,42.574827602664,-70.8909101690827,-15.9349098205566,2012-02-29 13:05:07
1.00600004196167,42.5748662890389,-70.8906177371211,-16.5188255310059,2012-02-29 13:05:08
1.00699996948242,42.5749060724906,-70.8903202250385,-16.5877380371094,2012-02-29 13:05:09
1.00500011444092,42.574945325067,-70.8900131314487,-17.5808391571045,2012-02-29 13:05:10
1.05699992179871,42.5749834006783,-70.8897019590428,-18.4325160980225,2012-02-29 13:05:11
1.00999999046326,42.5750520879315,-70.8890672972273,-19.7237510681152,2012-02-29 13:05:12
1.00699996948242,42.575086845577,-70.8887511812835,-19.9755992889404,2012-02-29 13:05:13
1.00399994850159,42.5751202704095,-70.8884345127588,-20.2206897735596,2012-02-29 13:05:14
1.00600004196167,42.5751526708478,-70.8881185733141,-19.6448593139648,2012-02-29 13:05:15
1.00399994850159,42.5751783887675,-70.8878010522011,-19.4098320007324,2012-02-29 13:05:16
2.01200008392334,42.5752167653323,-70.8871778125227,-17.2160663604736,2012-02-29 13:05:18
1.00600004196167,42.5752317478328,-70.8868693103528,-16.2039775848389,2012-02-29 13:05:19
1.00399994850159,42.5752457477288,-70.8865645409615,-13.9459390640259,2012-02-29 13:05:20
1.06400012969971,42.5752535138871,-70.8862565131904,-13.2074775695801,2012-02-29 13:05:21
0.95799994468689,42.5752581371411,-70.8859538016998,-11.902720451355,2012-02-29 13:05:22
2,42.5752608206102,-70.8853528102817,-9.48696231842041,2012-02-29 13:05:24
1.00799989700317,42.5752679424051,-70.8850581714923,-8.33405113220215,2012-02-29 13:05:25
1.05400013923645,42.575277642893,-70.8847651631912,-7.17977714538574,2012-02-29 13:05:26
1.00599980354309,42.5752865805602,-70.8844743299874,-6.45319032669067,2012-02-29 13:05:27
1.007000207901,42.5752947160038,-70.8841867990674,-5.8060564994812,2012-02-29 13:05:28
1.05499982833862,42.5753006293453,-70.8838994299653,-6.08077764511108,2012-02-29 13:05:29
0.956000089645386,42.5753021268456,-70.8836221243003,-5.96648931503296,2012-02-29 13:05:30
1.00399994850159,42.5753009008071,-70.8833552910324,-5.82175445556641,2012-02-29 13:05:31
1.00600004196167,42.5753010821524,-70.883096908374,-5.75153398513794,2012-02-29 13:05:32
1.00600004196167,42.5753029095546,-70.8828457288106,-5.59712553024292,2012-02-29 13:05:33
1.00600004196167,42.5753051662438,-70.8826022387598,-5.44994020462036,2012-02-29 13:05:34
1.00699996948242,42.5753058561271,-70.8823681672001,-5.01524543762207,2012-02-29 13:05:35
1.0149998664856,42.5753046968301,-70.8821406874402,-4.44586753845215,2012-02-29 13:05:36
0.996000051498413,42.5752996681652,-70.8819179210908,-4.47773218154907,2012-02-29 13:05:37
1.00399994850159,42.5752899606786,-70.881699871276,-4.81206846237183,2012-02-29 13:05:38
1.00600004196167,42.5752722881001,-70.8814869124919,-4.93723201751709,2012-02-29 13:05:39
1.05599999427795,42.5752339224959,-70.8812920198464,-4.68622732162476,2012-02-29 13:05:40
1.00399994850159,42.5751744976515,-70.8811127534989,-4.42015314102173,2012-02-29 13:05:41
1.00500011444092,42.5750953975,-70.8809544041473,-3.48581552505493,2012-02-29 13:05:42
1.00699996948242,42.5750004374283,-70.8808198048138,-3.56951570510864,2012-02-29 13:05:43
1.00999999046326,42.5748890508644,-70.8807257192852,-3.649334192276,2012-02-29 13:05:44
1.00399994850159,42.574774424238,-70.8806638172731,-3.65789937973022,2012-02-29 13:05:45
1.00600004196167,42.5746589767248,-70.8806186192337,-3.48131918907166,2012-02-29 13:05:46
1.00699996948242,42.5745496464461,-70.8805817741493,-4.09574270248413,2012-02-29 13:05:47
1.00500011444092,42.5744511532541,-70.8805506109989,-3.94170951843262,2012-02-29 13:05:48
1.00600004196167,42.5743652249422,-70.8805277045728,-4.15588092803955,2012-02-29 13:05:49
1.01899981498718,42.5743029680275,-70.8805106886551,-3.95722365379333,2012-02-29 13:05:50
0.992000102996826,42.57425576609,-70.8804962815917,-4.58735132217407,2012-02-29 13:05:51
1.00799989700317,42.5742277903374,-70.880489732258,-4.90251111984253,2012-02-29 13:05:52
1.05299997329712,42.5742111022862,-70.8804852638461,-4.98060989379883,2012-02-29 13:05:53
1.00800013542175,42.5742023873022,-70.8804824206169,-5.12125015258789,2012-02-29 13:05:54
1.00399994850159,42.5742008453332,-70.880481669366,-5.11906719207764,2012-02-29 13:05:55
1.00600004196167,42.5741964367671,-70.880479251777,-4.93827724456787,2012-02-29 13:05:56
1.00600004196167,42.574181147585,-70.8804641429765,-4.8935694694519,2012-02-29 13:05:57
1.00399994850159,42.5741617400822,-70.8804306870391,-4.74999570846558,2012-02-29 13:05:58
1.00799989700317,42.5741434934733,-70.8803725124591,-4.77860498428345,2012-02-29 13:05:59
1.00400018692017,42.5741313190695,-70.8802936704261,-4.8896427154541,2012-02-29 13:06:00
1.00799989700317,42.5741356120124,-70.8801887021518,-4.82133197784424,2012-02-29 13:06:01
1.00600004196167,42.5741417433806,-70.8800717878369,-4.74724626541138,2012-02-29 13:06:02
1.00399994850159,42.5741489588327,-70.8799446327323,-4.79634046554565,2012-02-29 13:06:03
1.00699996948242,42.5741562136517,-70.8798089038714,-4.50538873672485,2012-02-29 13:06:04
1.00500011444092,42.5741634068438,-70.879661955118,-4.19807624816895,2012-02-29 13:06:05
1.00499987602234,42.5741700459182,-70.8795107672778,-3.7255687713623,2012-02-29 13:06:07
1.00600004196167,42.5741767731198,-70.8793600412194,-3.19598746299744,2012-02-29 13:06:08
1.05699992179871,42.5741809250069,-70.8792104674788,-2.72405648231506,2012-02-29 13:06:09
1.00600004196167,42.5741856490806,-70.8790664589007,-2.37341380119324,2012-02-29 13:06:10
1.00600004196167,42.5741921721113,-70.8789298322059,-1.67004942893982,2012-02-29 13:06:11
1.00699996948242,42.5741969655758,-70.8788040144214,-0.85427862405777,2012-02-29 13:06:12
1.0310001373291,42.5741967835199,-70.8786943881184,0.126480534672737,2012-02-29 13:06:13
0.980000019073486,42.5741941150822,-70.8785975934454,0.431027948856354,2012-02-29 13:06:14
1.00599980354309,42.5741868345171,-70.8785222099342,0.956455528736115,2012-02-29 13:06:15
1.00400018692017,42.5741804421414,-70.878460038396,1.3247834444046,2012-02-29 13:06:16
1.00599980354309,42.5741748480364,-70.8784147309981,1.61248433589935,2012-02-29 13:06:17
1.00500011444092,42.574171492799,-70.878379982043,1.67263627052307,2012-02-29 13:06:18
1.00799989700317,42.5741674822044,-70.8783598104264,1.57942771911621,2012-02-29 13:06:19
1.00500011444092,42.5741674822044,-70.8783598104264,1.57942771911621,2012-02-29 13:06:20
1.00600004196167,42.5741674822044,-70.8783598104264,1.57942771911621,2012-02-29 13:06:21
1.00599980354309,42.5741674822044,-70.8783598104264,1.57942771911621,2012-02-29 13:06:22
1.00500011444092,42.574165903284,-70.8783420389181,2.04080677032471,2012-02-29 13:06:23
1.00699996948242,42.5741574346594,-70.8782989799083,2.03331971168518,2012-02-29 13:06:24
1.05599999427795,42.5741308704049,-70.8782419701681,2.07427716255188,2012-02-29 13:06:25
1.00600004196167,42.5740870609073,-70.8781857640176,2.42310047149658,2012-02-29 13:06:26
1.00399994850159,42.5740225820082,-70.8781236300078,2.48832607269287,2012-02-29 13:06:27
1.00600004196167,42.573945991716,-70.8780524734968,2.87445688247681,2012-02-29 13:06:28
1.00600004196167,42.57386145509,-70.877974649665,3.15207481384277,2012-02-29 13:06:29
1.00499987602234,42.5737702998358,-70.8778907342403,3.15125131607056,2012-02-29 13:06:30
1.00800013542175,42.5736680434145,-70.8777999484418,3.21909594535828,2012-02-29 13:06:31
1.00399994850159,42.573561234457,-70.8777012575626,3.34289693832397,2012-02-29 13:06:32
1.00699996948242,42.5734506260648,-70.8775983647867,3.22943615913391,2012-02-29 13:06:33
1.00600004196167,42.5733341427263,-70.877489946058,3.15019989013672,2012-02-29 13:06:34
1.00499987602234,42.5732124054446,-70.8773741724986,2.96513700485229,2012-02-29 13:06:35
1.00500011444092,42.5730819176323,-70.8772495644874,2.71325325965881,2012-02-29 13:06:36
1.00799989700317,42.5729457833164,-70.8771169656249,2.47593426704407,2012-02-29 13:06:37
1.00500011444092,42.5728114734302,-70.8769838434391,2.6187846660614,2012-02-29 13:06:38
1.05299997329712,42.5726794049456,-70.8768508840623,2.75995421409607,2012-02-29 13:06:39
1.00699996948242,42.572551296962,-70.8767163641637,2.80293297767639,2012-02-29 13:06:40
1.00699996948242,42.5724215658717,-70.8765809067433,2.30776906013489,2012-02-29 13:06:41
1.00400018692017,42.5722981117662,-70.8764497027544,2.37201929092407,2012-02-29 13:06:42
1.00899982452393,42.5721760813095,-70.876321291147,2.47174882888794,2012-02-29 13:06:43
1.00300002098083,42.5720564586709,-70.8761970591246,2.53500294685364,2012-02-29 13:06:44
1.00800013542175,42.5719420185378,-70.876078196845,2.33658695220947,2012-02-29 13:06:45
1.00599980354309,42.5718308012251,-70.8759616604725,2.59364056587219,2012-02-29 13:06:46
1.00400018692017,42.5717200549543,-70.8758483776929,2.76635074615479,2012-02-29 13:06:47
1.00599980354309,42.5716082384335,-70.8757353606855,2.7652952671051,2012-02-29 13:06:48
1.01100015640259,42.571495817438,-70.8756254881735,2.72199892997742,2012-02-29 13:06:49
1.0019998550415,42.5713799978457,-70.875511510441,2.7268168926239,2012-02-29 13:06:50
1.00500011444092,42.5712653190421,-70.8753954504407,2.52334856987,2012-02-29 13:06:51
1.00699996948242,42.5711539912402,-70.8752858913784,2.59493041038513,2012-02-29 13:06:52
1.05599999427795,42.5710492004216,-70.8751825236283,2.66831350326538,2012-02-29 13:06:53
1.00399994850159,42.5709525098787,-70.8750841624573,2.55485439300537,2012-02-29 13:06:54
1.00800013542175,42.5708642948048,-70.8749926002208,2.64775037765503,2012-02-29 13:06:55
1.00499987602234,42.5707866942594,-70.8749146543927,2.69544672966003,2012-02-29 13:06:56
1.00600004196167,42.5707093925183,-70.8748536568059,2.96417546272278,2012-02-29 13:06:57
1.01500010490417,42.5706345246207,-70.8748222986887,3.11555767059326,2012-02-29 13:06:58
0.996999979019165,42.5705352934514,-70.8748247784496,3.76869106292725,2012-02-29 13:06:59
1.01300001144409,42.5703600394502,-70.874902973524,3.15446400642395,2012-02-29 13:07:00
1.00399994850159,42.5702611411009,-70.8749678834964,3.09404492378235,2012-02-29 13:07:01
1.00699996948242,42.570154066186,-70.8750408786349,2.89103627204895,2012-02-29 13:07:02
1.00600004196167,42.5700330390126,-70.8751169384535,3.07314157485962,2012-02-29 13:07:03
1.00600004196167,42.5699047476797,-70.8751957051573,3.27881026268005,2012-02-29 13:07:04
2.01199984550476,42.5696754528226,-70.8753579085563,4.24702882766724,2012-02-29 13:07:06
1.00500011444092,42.5695749241338,-70.8754365498656,5.10973978042603,2012-02-29 13:07:07
1.05099987983704,42.5694756825221,-70.8755183725263,6.4641637802124,2012-02-29 13:07:08
1.01400017738342,42.5693697467163,-70.8755899026976,7.49746561050415,2012-02-29 13:07:09
0.998999834060669,42.569255079053,-70.8756478341065,8.09136962890625,2012-02-29 13:07:10
2.06700015068054,42.5690189371143,-70.8757352627999,9.23683738708496,2012-02-29 13:07:12
0.949999809265137,42.5688948415539,-70.8757579178057,10.0078392028809,2012-02-29 13:07:13
1.00800013542175,42.5687669558572,-70.8757781119163,10.8950080871582,2012-02-29 13:07:14
1.00499987602234,42.5686475818693,-70.8757955788108,11.6082410812378,2012-02-29 13:07:15
1.00300002098083,42.5685247173645,-70.8758157643362,11.7321720123291,2012-02-29 13:07:16
1.01300001144409,42.5684047405492,-70.8758357332213,11.7581567764282,2012-02-29 13:07:17
1.00100016593933,42.5682887090688,-70.8758579027857,11.8245620727539,2012-02-29 13:07:18
1.02600002288818,42.5681727229639,-70.8758967131927,12.1132192611694,2012-02-29 13:07:19
0.986999988555908,42.5680536530271,-70.8759570471928,12.4741659164429,2012-02-29 13:07:20
1.00299978256226,42.5679369225482,-70.8760315430868,13.1165714263916,2012-02-29 13:07:21
1.007000207901,42.5678212779836,-70.8761108641737,13.9220294952393,2012-02-29 13:07:22
1.00999999046326,42.5677053852471,-70.8761913244825,14.9639234542847,2012-02-29 13:07:23
1.05099987983704,42.5675882542337,-70.8762718468062,15.6848201751709,2012-02-29 13:07:24
1.00600004196167,42.567474087619,-70.87634977616,15.9740419387817,2012-02-29 13:07:25
1.00499987602234,42.5673648950652,-70.8764318573937,16.7720432281494,2012-02-29 13:07:26
1.08100008964539,42.567255614866,-70.8765093687312,16.9837684631348,2012-02-29 13:07:27
0.930000066757202,42.5671473604714,-70.876583907286,17.0938854217529,2012-02-29 13:07:28
1.00699996948242,42.5670395679624,-70.8766571571452,17.3622665405273,2012-02-29 13:07:29
1.00499987602234,42.5669275401781,-70.8767251574569,16.8077487945557,2012-02-29 13:07:30
1.00600004196167,42.566825697428,-70.8768000182472,17.0959339141846,2012-02-29 13:07:31
1.00600004196167,42.5667131839219,-70.8768735949585,16.3794536590576,2012-02-29 13:07:32
1.00600004196167,42.5665902345789,-70.8769378743551,12.8957777023315,2012-02-29 13:07:33
1.00799989700317,42.5664554936706,-70.8770010421715,11.1383285522461,2012-02-29 13:07:34
1.00400018692017,42.5663294020313,-70.8770533425456,10.2888784408569,2012-02-29 13:07:35
1.00599980354309,42.5662000703669,-70.8770904103719,9.27102375030518,2012-02-29 13:07:36
1.05900001525879,42.5660746545697,-70.8771244853008,8.3704719543457,2012-02-29 13:07:37
1.02100014686584,42.5659569163373,-70.8771574222736,6.91914510726929,2012-02-29 13:07:38
0.988999843597412,42.5658421131267,-70.8771842221497,5.63919878005981,2012-02-29 13:07:39
1.00500011444092,42.5657286373059,-70.8772112126863,4.69346380233765,2012-02-29 13:07:40
1.00600004196167,42.5656252251602,-70.8772358915612,3.91409969329834,2012-02-29 13:07:41
1.00600004196167,42.5655357774358,-70.8772573393009,3.59013056755066,2012-02-29 13:07:42
1.00799989700317,42.5654659631537,-70.877271976461,2.61720609664917,2012-02-29 13:07:43
1.00399994850159,42.5653924911557,-70.8772637827527,2.35744595527649,2012-02-29 13:07:44
1.00399994850159,42.5653440759949,-70.8772349235454,2.3591001033783,2012-02-29 13:07:45
1.00600004196167,42.5653136963111,-70.8771928685347,2.12841057777405,2012-02-29 13:07:46
1.0090000629425,42.5652898169873,-70.8771280476467,1.76325225830078,2012-02-29 13:07:47
1.00600004196167,42.5652713891958,-70.8770518964697,1.7716748714447,2012-02-29 13:07:48
1.0090000629425,42.5652691251963,-70.8769677424019,1.48807811737061,2012-02-29 13:07:49
1.00799989700317,42.5652752714718,-70.8768783581617,1.34384572505951,2012-02-29 13:07:50
1.00399994850159,42.5652987530682,-70.8767836198109,1.28750658035278,2012-02-29 13:07:51
1.00600004196167,42.5653328556001,-70.8766919961146,1.24789702892303,2012-02-29 13:07:52
1.05599999427795,42.5653740975248,-70.8766049241806,1.20135843753815,2012-02-29 13:07:54
1.00500011444092,42.5654178362317,-70.87651812786,2.07681250572205,2012-02-29 13:07:55
1.00799989700317,42.5654504802813,-70.8764271279877,2.19099640846252,2012-02-29 13:07:56
1.00300002098083,42.5654802271889,-70.876339455497,2.22273993492126,2012-02-29 13:07:57
1.00799989700317,42.5655059800546,-70.8762572592146,2.19340682029724,2012-02-29 13:07:58
1.00400018692017,42.5655316612355,-70.8761860488605,2.15566372871399,2012-02-29 13:07:59
1.00599980354309,42.5655534985738,-70.876113795511,2.07000136375427,2012-02-29 13:08:00
1.00600004196167,42.565579909927,-70.8760407484964,1.83392572402954,2012-02-29 13:08:01
1.00600004196167,42.5656137437207,-70.875966938974,1.37112259864807,2012-02-29 13:08:02
1.00699996948242,42.5656613017761,-70.8759060806088,1.25644242763519,2012-02-29 13:08:03
1.00500011444092,42.56571039224,-70.8758492026589,1.14320600032806,2012-02-29 13:08:04
1.00600004196167,42.5657882785038,-70.8758277199406,0.567623198032379,2012-02-29 13:08:05
1.00599980354309,42.5658634326673,-70.8758189553584,0.710281014442444,2012-02-29 13:08:06
1.05400013923645,42.5659322239461,-70.8758071811404,0.719836831092834,2012-02-29 13:08:07
1.00899982452393,42.5659833642605,-70.8757896057551,0.982645153999329,2012-02-29 13:08:08
1.00300002098083,42.5660290637513,-70.8757528554136,1.22237813472748,2012-02-29 13:08:09
1.007000207901,42.566057627926,-70.8756980700561,1.36090004444122,2012-02-29 13:08:10
1.00499987602234,42.5660503116419,-70.8756219843556,1.36595344543457,2012-02-29 13:08:11
1.00600004196167,42.5660301329685,-70.8755396470877,1.12947356700897,2012-02-29 13:08:12
1.00600004196167,42.5659844705896,-70.8754636478975,1.19449388980865,2012-02-29 13:08:13
1.00499987602234,42.5659266629145,-70.8753980987949,1.26599776744843,2012-02-29 13:08:14
1.00800013542175,42.5658700487422,-70.8753274739981,1.33410263061523,2012-02-29 13:08:15
1.00499987602234,42.5658268176137,-70.875248310534,1.67449307441711,2012-02-29 13:08:16
1.00600004196167,42.565795815772,-70.8751563982009,1.80327033996582,2012-02-29 13:08:17
1.00399994850159,42.5657697514632,-70.875058113942,1.68909108638763,2012-02-29 13:08:18
1.00600004196167,42.5657421216631,-70.8749519360132,1.33986628055573,2012-02-29 13:08:19
1.00600004196167,42.5657157429193,-70.8748449573333,0.76131796836853,2012-02-29 13:08:20
1.00600004196167,42.5656920006778,-70.874737221644,0.417569130659103,2012-02-29 13:08:21
1.00699996948242,42.5656649210452,-70.8746279175836,-0.070541076362133,2012-02-29 13:08:22
1.00499987602234,42.5656433594436,-70.8745154063917,-0.51254540681839,2012-02-29 13:08:23
1.05599999427795,42.5656177223594,-70.8744049245065,-1.11742210388184,2012-02-29 13:08:24
1.00600004196167,42.5655841194191,-70.8743105877385,-1.60739314556122,2012-02-29 13:08:25
1.00399994850159,42.565532039083,-70.8742373010466,-2.01588106155396,2012-02-29 13:08:26
1.0090000629425,42.5654646033187,-70.8741742631272,-2.28512024879456,2012-02-29 13:08:27
1.00500011444092,42.5653921490513,-70.8741221190255,-2.56872963905334,2012-02-29 13:08:28
1.00599980354309,42.5653074424239,-70.8740788631638,-2.65957808494568,2012-02-29 13:08:29
1.00600004196167,42.5652254288129,-70.8740383183056,-2.95357275009155,2012-02-29 13:08:30
1.00800013542175,42.5651366074644,-70.8740044445409,-3.23656249046326,2012-02-29 13:08:31
1.00499987602234,42.565052445192,-70.8739724906011,-3.76833581924438,2012-02-29 13:08:32
1.00300002098083,42.564969758595,-70.8739385807296,-4.11138916015625,2012-02-29 13:08:33
1.00699996948242,42.5648918886359,-70.8738966195225,-4.50474262237549,2012-02-29 13:08:34
1.00500011444092,42.5648194148387,-70.8738541801839,-4.96438026428223,2012-02-29 13:08:35
1.05599999427795,42.564757732617,-70.8738029300541,-5.30611610412598,2012-02-29 13:08:36
1.0220000743866,42.5647021344447,-70.8737689270543,-5.68983888626099,2012-02-29 13:08:37
0.988999843597412,42.5646515804481,-70.8737534852378,-5.96420955657959,2012-02-29 13:08:38
1.00800013542175,42.5646032671831,-70.8737555665782,-6.17456102371216,2012-02-29 13:08:39
1.00499987602234,42.5645676672962,-70.8737747821058,-6.24443387985229,2012-02-29 13:08:40
1.01600003242493,42.5645390442308,-70.8738032747927,-6.36892414093018,2012-02-29 13:08:41
0.996000051498413,42.5645145515325,-70.8738268204645,-6.50154733657837,2012-02-29 13:08:42
1.00499987602234,42.5644901728676,-70.8738421106863,-6.86919260025024,2012-02-29 13:08:43
1.00800013542175,42.5644656897802,-70.8738528411797,-7.18666934967041,2012-02-29 13:08:44
1.00300002098083,42.5644425348281,-70.8738498862797,-7.53783512115479,2012-02-29 13:08:45
1.00799989700317,42.56440281486,-70.8738306997691,-7.80916833877563,2012-02-29 13:08:46
1.00399994850159,42.5643675868278,-70.8738114568828,-8.06863212585449,2012-02-29 13:08:47
1.00600004196167,42.5643320796619,-70.87380235368,-8.41157913208008,2012-02-29 13:08:48
1.0090000629425,42.564294883891,-70.8737904097383,-8.55177974700928,2012-02-29 13:08:49
1.00300002098083,42.5642607664236,-70.8737726192697,-8.71138668060303,2012-02-29 13:08:50
1.00799989700317,42.5642197134664,-70.8737590672936,-8.81874084472656,2012-02-29 13:08:51
1.05400013923645,42.5641726119209,-70.8737692924489,-9.0009183883667,2012-02-29 13:08:52
2.01699995994568,42.5641481529396,-70.8738085111796,-9.37672138214111,2012-02-29 13:08:54
1.00099992752075,42.5641447965574,-70.8738296819817,-9.45065784454346,2012-02-29 13:08:55
1.00699996948242,42.5641439836413,-70.8738729854441,-9.68831729888916,2012-02-29 13:08:56
1.00500011444092,42.5641290569265,-70.8739194098278,-9.93277740478516,2012-02-29 13:08:57
1.00600004196167,42.5641252054464,-70.8739683004812,-10.1788806915283,2012-02-29 13:08:58
1.01099991798401,42.5641263746994,-70.8740200799918,-10.4157915115356,2012-02-29 13:08:59
1,42.5641154883517,-70.8740658050935,-10.6841382980347,2012-02-29 13:09:00
1.00799989700317,42.5641271665272,-70.8740928116193,-10.9608592987061,2012-02-29 13:09:01
1.00300002098083,42.5641445021925,-70.8741078035649,-11.2227582931519,2012-02-29 13:09:02
1.00800013542175,42.5641365308407,-70.8740915840574,-11.4883337020874,2012-02-29 13:09:03
1.00399994850159,42.5641647165806,-70.8741038348228,-11.7604331970215,2012-02-29 13:09:04
1.01099991798401,42.5641660377694,-70.874093685523,-11.9042367935181,2012-02-29 13:09:05
1.05100011825562,42.5642022712167,-70.8741092785819,-12.1089906692505,2012-02-29 13:09:06
1.00499987602234,42.5642296641313,-70.8741195928227,-12.3529624938965,2012-02-29 13:09:07
1.00800013542175,42.5642598463267,-70.8741369846947,-12.5855369567871,2012-02-29 13:09:08
1.00300002098083,42.5642828481026,-70.8741456992234,-12.8198337554932,2012-02-29 13:09:09
1.00899982452393,42.5643092940025,-70.8741625433485,-13.0501480102539,2012-02-29 13:09:10
1.00500011444092,42.5643320290317,-70.8741731171113,-13.2339706420898,2012-02-29 13:09:11
1.00399994850159,42.5643551549698,-70.8741783864022,-13.3735628128052,2012-02-29 13:09:12
1.00600004196167,42.5643693581712,-70.874174815121,-13.5628213882446,2012-02-29 13:09:13
1.00600004196167,42.5643901227601,-70.8741731809155,-13.793420791626,2012-02-29 13:09:14
1.00699996948242,42.5644058294517,-70.8741657265284,-13.9845199584961,2012-02-29 13:09:15
1.00499987602234,42.5644213587299,-70.8741550943351,-14.1094436645508,2012-02-29 13:09:16
1.00699996948242,42.5644420070907,-70.8741405931491,-14.0295782089233,2012-02-29 13:09:17
1.00500011444092,42.5644544730752,-70.8741186098222,-14.0211696624756,2012-02-29 13:09:18
1.00500011444092,42.5644574674367,-70.87408082588,-14.174955368042,2012-02-29 13:09:19
1.00799989700317,42.5644614466322,-70.8740483656184,-14.2877292633057,2012-02-29 13:09:20
1.00300002098083,42.5644839940407,-70.8740174198938,-14.4337949752808,2012-02-29 13:09:21
1.00699996948242,42.5645036988907,-70.8740005276304,-14.5540294647217,2012-02-29 13:09:22
1.0550000667572,42.5645157964466,-70.8739882462184,-14.7051105499268,2012-02-29 13:09:23
1.00600004196167,42.5645276529409,-70.873964287947,-14.7813444137573,2012-02-29 13:09:24
1.04899978637695,42.5645375071241,-70.8739475898916,-14.6031227111816,2012-02-29 13:09:25
0.961000204086304,42.5645437291567,-70.8739369391987,-14.5520887374878,2012-02-29 13:09:26
1.00599980354309,42.5645431324934,-70.8739356221863,-14.4421873092651,2012-02-29 13:09:27
1.00600004196167,42.5645415016036,-70.8739341206532,-14.1073741912842,2012-02-29 13:09:28
1.00699996948242,42.564541014081,-70.8739334078311,-13.9330730438232,2012-02-29 13:09:29
1.00500011444092,42.5645405103149,-70.8739331138441,-13.8814296722412,2012-02-29 13:09:30
1.00699996948242,42.56453947657,-70.8739315306618,-13.7371644973755,2012-02-29 13:09:31
1.00799989700317,42.5645370857664,-70.873928525303,-13.3377180099487,2012-02-29 13:09:32
1.00300002098083,42.5645354746388,-70.8739280381597,-13.1925821304321,2012-02-29 13:09:33
1.00800013542175,42.5645335772814,-70.8739277080139,-12.9769983291626,2012-02-29 13:09:34
1.00600004196167,42.5645325415472,-70.873926993179,-12.8310375213623,2012-02-29 13:09:35
1.00399994850159,42.5645350804101,-70.8739218251029,-12.7663946151733,2012-02-29 13:09:36
1.00600004196167,42.5645350804101,-70.8739218251029,-12.7663946151733,2012-02-29 13:09:37
1.05599999427795,42.5645350804101,-70.8739218251029,-12.7663946151733,2012-02-29 13:09:38
1.00799989700317,42.5645350784604,-70.8739218234619,-12.7640266418457,2012-02-29 13:09:39
1.00600004196167,42.5645327834394,-70.8739191038278,-12.3909463882446,2012-02-29 13:09:41
1.00600004196167,42.564529030654,-70.8739169524487,-11.9462261199951,2012-02-29 13:09:42
1.00600004196167,42.5644965197816,-70.8739124770743,-12.1203422546387,2012-02-29 13:09:43
1.00399994850159,42.5644761774054,-70.8739140123523,-12.2991752624512,2012-02-29 13:09:44
1.00699996948242,42.5644525062203,-70.8739166075128,-12.2651748657227,2012-02-29 13:09:45
1.00499987602234,42.564428170848,-70.8739193701136,-12.2397966384888,2012-02-29 13:09:46
1.00600004196167,42.5644007890953,-70.8739220322881,-12.0986099243164,2012-02-29 13:09:47
1.00600004196167,42.5643861534554,-70.8739217040702,-12.0154151916504,2012-02-29 13:09:48
1.00600004196167,42.5643861534554,-70.8739217040702,-12.0154151916504,2012-02-29 13:09:49
1.00399994850159,42.5643859979086,-70.8739217331099,-12.0143413543701,2012-02-29 13:09:50
1.00699996948242,42.5643858328254,-70.8739217665207,-12.0150012969971,2012-02-29 13:09:51
1.0090000629425,42.5643736038869,-70.8739231697636,-11.9350385665894,2012-02-29 13:09:52
1.00699996948242,42.5643586114803,-70.87392408687,-11.855583190918,2012-02-29 13:09:53
1.00500011444092,42.5643447046648,-70.8739242891674,-11.7671585083008,2012-02-29 13:09:54
1.00599980354309,42.5643332889502,-70.8739252469379,-11.8051948547363,2012-02-29 13:09:55
1.0090000629425,42.5643339858386,-70.8739268645714,-11.9653844833374,2012-02-29 13:09:56
1.00300002098083,42.5643345598921,-70.8739275930581,-12.0710411071777,2012-02-29 13:09:57
1.00800013542175,42.5643350734883,-70.8739271507852,-12.1036567687988,2012-02-29 13:09:58
1.10199999809265,42.5643330342895,-70.8739267630635,-12.063440322876,2012-02-29 13:09:59
0.95799994468689,42.5643246616858,-70.8739254832719,-11.9171180725098,2012-02-29 13:10:00
1.0090000629425,42.56431722706,-70.8739220890434,-11.6302614212036,2012-02-29 13:10:01
1.00299978256226,42.5643149772779,-70.873917638376,-11.35142993927,2012-02-29 13:10:02
1.007000207901,42.5643148151316,-70.8739137636565,-11.1862983703613,2012-02-29 13:10:03
1.00299978256226,42.5643146834527,-70.8739137889823,-11.1852521896362,2012-02-29 13:10:04
1.00800013542175,42.5643146973569,-70.8739134584138,-11.1738090515137,2012-02-29 13:10:05
1.00499987602234,42.5643149056308,-70.8739146863018,-11.3059482574463,2012-02-29 13:10:06
1.00500011444092,42.5643062757073,-70.8739166045513,-11.3196620941162,2012-02-29 13:10:07
1.00600004196167,42.5642935092851,-70.8739180677722,-11.2421941757202,2012-02-29 13:10:08
1.00600004196167,42.5642935092851,-70.8739180677722,-11.2421941757202,2012-02-29 13:10:09
1.00699996948242,42.5642934785626,-70.8739180738308,-11.2421360015869,2012-02-29 13:10:10
1.00499987602234,42.5642933202564,-70.8739181042505,-11.2403011322021,2012-02-29 13:10:11
1.00600004196167,42.5642887571624,-70.873916657563,-10.9035425186157,2012-02-29 13:10:12
1.05599999427795,42.5642888781474,-70.8739160723355,-10.580491065979,2012-02-29 13:10:13
1.00500011444092,42.564289469608,-70.8739148080101,-10.0777196884155,2012-02-29 13:10:14
1.00799989700317,42.5642868602724,-70.8739141697605,-9.62499904632568,2012-02-29 13:10:15
1.00500011444092,42.5642820571189,-70.8739133638429,-9.15979290008545,2012-02-29 13:10:16
1.00499987602234,42.5642820571189,-70.8739133638429,-9.15979290008545,2012-02-29 13:10:17
1.00500011444092,42.5642820310217,-70.873913366414,-9.15361595153809,2012-02-29 13:10:18
1.00599980354309,42.5642775264107,-70.8739133201293,-8.85220432281494,2012-02-29 13:10:19
1.00600004196167,42.5642726426551,-70.8739135328248,-8.55681133270264,2012-02-29 13:10:20
1.00399994850159,42.5642730810889,-70.8739121226373,-8.22571754455566,2012-02-29 13:10:21
1.00600004196167,42.5642730810889,-70.8739121226373,-8.22571754455566,2012-02-29 13:10:22
1.00600004196167,42.5642730828441,-70.8739121198906,-8.2203893661499,2012-02-29 13:10:23
1.00699996948242,42.5642730832594,-70.873912118052,-8.21735000610352,2012-02-29 13:10:24
1.00500011444092,42.5642730840533,-70.8739121168375,-8.21532917022705,2012-02-29 13:10:25
1.00600004196167,42.5642730849244,-70.8739121151889,-8.21291828155518,2012-02-29 13:10:26
1.05599999427795,42.5642730856071,-70.873912112238,-8.20792293548584,2012-02-29 13:10:27
1.05599999427795,42.5642730856438,-70.8739121114997,-8.20616626739502,2012-02-29 13:10:28
0.957000017166138,42.5642730856438,-70.8739121114997,-8.20616626739502,2012-02-29 13:10:29
1.00299978256226,42.5642730864188,-70.8739121093712,-8.20171737670898,2012-02-29 13:10:30
1.00800013542175,42.5642730868887,-70.8739121073763,-8.19802856445312,2012-02-29 13:10:31
1.00399994850159,42.5642730873479,-70.8739121057327,-8.1946325302124,2012-02-29 13:10:32
1.00600004196167,42.5642730875537,-70.8739121030077,-8.19021034240723,2012-02-29 13:10:33
1.00399994850159,42.5642730881387,-70.8739121005112,-8.18566799163818,2012-02-29 13:10:34
1.00600004196167,42.5642730881387,-70.8739121005112,-8.18566799163818,2012-02-29 13:10:35
1.00600004196167,42.5642730892201,-70.8739120918124,-8.17119979858398,2012-02-29 13:10:36
1.00799989700317,42.5642730901301,-70.8739120871296,-8.16310501098633,2012-02-29 13:10:37
1.00500011444092,42.5642730901301,-70.8739120871296,-8.16310501098633,2012-02-29 13:10:38
1.00499987602234,42.564273091866,-70.8739120806788,-8.15038394927979,2012-02-29 13:10:39
1.06700015068054,42.564273091866,-70.8739120806788,-8.15038394927979,2012-02-29 13:10:40
2.00899982452393,42.5642730947997,-70.8739120733851,-8.13647651672363,2012-02-29 13:10:42
0.999000072479248,42.5642732522865,-70.8739087818052,-7.67985439300537,2012-02-29 13:10:43
1.00300002098083,42.5642732522865,-70.8739087818052,-7.67985439300537,2012-02-29 13:10:44
1.00799989700317,42.5642732522865,-70.8739087818052,-7.67985439300537,2012-02-29 13:10:45
1.02700018882751,42.5642731390668,-70.8739087999987,-7.67215633392334,2012-02-29 13:10:46
1.98699998855591,42.5642639034557,-70.8739088398582,-7.50059080123901,2012-02-29 13:10:48
1.00699996948242,42.564260036016,-70.873908952618,-7.49880838394165,2012-02-29 13:10:49
1.00799989700317,42.5642601353057,-70.8739087945804,-7.53469467163086,2012-02-29 13:10:50
1.00399994850159,42.5642601354054,-70.8739087953247,-7.53639984130859,2012-02-29 13:10:51
1.00500011444092,42.5642600194812,-70.8739088193508,-7.53758478164673,2012-02-29 13:10:52
1.0090000629425,42.5642600194586,-70.8739088205368,-7.53984355926514,2012-02-29 13:10:53
1.00499987602234,42.5642598734425,-70.8739088506433,-7.54126453399658,2012-02-29 13:10:54
1.00699996948242,42.5642595873959,-70.8739089092551,-7.5436372756958,2012-02-29 13:10:55
1.00500011444092,42.5642595873959,-70.8739089092551,-7.5436372756958,2012-02-29 13:10:56
1.05699992179871,42.5642593342051,-70.873908962026,-7.54751014709473,2012-02-29 13:10:57
1.00500011444092,42.5642593342051,-70.873908962026,-7.54751014709473,2012-02-29 13:10:58
1.00600004196167,42.5642524511886,-70.8739096706329,-7.58197450637817,2012-02-29 13:10:59
1.00799989700317,42.5642524511886,-70.8739096706329,-7.58197450637817,2012-02-29 13:11:00
1.00600004196167,42.5642524511886,-70.8739096706329,-7.58197450637817,2012-02-29 13:11:01
1.00600004196167,42.564252476752,-70.8739096611343,-7.57628726959229,2012-02-29 13:11:02
1.00399994850159,42.564252476752,-70.8739096611343,-7.57628726959229,2012-02-29 13:11:03
1.00600004196167,42.5642524780353,-70.8739096549507,-7.56458139419556,2012-02-29 13:11:04
1.00699996948242,42.5642524786699,-70.8739096524144,-7.5593957901001,2012-02-29 13:11:05
1.00399994850159,42.5642524786699,-70.8739096524144,-7.5593957901001,2012-02-29 13:11:06
1.00699996948242,42.5642524794339,-70.8739096494317,-7.55427837371826,2012-02-29 13:11:07
1.0090000629425,42.5642524794339,-70.8739096494317,-7.55427837371826,2012-02-29 13:11:08
1.00300002098083,42.5642524808473,-70.8739096476881,-7.55110120773315,2012-02-29 13:11:09
1.00799989700317,42.5642524808473,-70.8739096476881,-7.55110120773315,2012-02-29 13:11:10
1.00399994850159,42.5642524808473,-70.8739096476881,-7.55110120773315,2012-02-29 13:11:11
1.00600004196167,42.5642524808473,-70.8739096476881,-7.55110120773315,2012-02-29 13:11:12
1.05599999427795,42.5642524808473,-70.8739096476881,-7.55110120773315,2012-02-29 13:11:13
1.00600004196167,42.5642524822251,-70.8739096391264,-7.53953456878662,2012-02-29 13:11:14
1.00699996948242,42.5642523547456,-70.8739096646211,-7.54078197479248,2012-02-29 13:11:15
1.00399994850159,42.5642523547456,-70.8739096646211,-7.54078197479248,2012-02-29 13:11:16
1.007000207901,42.564252355857,-70.8739096629951,-7.53974151611328,2012-02-29 13:11:17
1.00599980354309,42.564252355857,-70.8739096629951,-7.53974151611328,2012-02-29 13:11:18
1.00500011444092,42.5642523155627,-70.8739096656587,-7.53410673141479,2012-02-29 13:11:19
1.00799989700317,42.5642523155627,-70.8739096656587,-7.53410673141479,2012-02-29 13:11:20
1.00400018692017,42.5642518664456,-70.8739097552513,-7.532874584198,2012-02-29 13:11:21
1.00699996948242,42.5642354215306,-70.8739109222464,-7.29183101654053,2012-02-29 13:11:22
1.00600004196167,42.5642221797376,-70.8739112032329,-7.06831979751587,2012-02-29 13:11:23
1.00399994850159,42.5642221797376,-70.8739112032329,-7.06831979751587,2012-02-29 13:11:24
1.00600004196167,42.5642221797376,-70.8739112032329,-7.06831979751587,2012-02-29 13:11:25
1.00599980354309,42.5642221797376,-70.8739112032329,-7.06831979751587,2012-02-29 13:11:26
1.007000207901,42.5642219183094,-70.8739111617629,-7.05703544616699,2012-02-29 13:11:27
1.00499987602234,42.5642219189407,-70.8739111582898,-7.05201196670532,2012-02-29 13:11:28
1.05599999427795,42.5642219189407,-70.8739111582898,-7.05201196670532,2012-02-29 13:11:29
1.00600004196167,42.5642219189407,-70.8739111582898,-7.05201196670532,2012-02-29 13:11:30
1.00499987602234,42.5642217686527,-70.8739111307031,-7.04045104980469,2012-02-29 13:11:31
1.00800013542175,42.5642217686527,-70.8739111307031,-7.04045104980469,2012-02-29 13:11:33
1.00300002098083,42.5642213899659,-70.8739110823135,-7.03938865661621,2012-02-29 13:11:34
1.00699996948242,42.5642212328984,-70.8739110613387,-7.03709125518799,2012-02-29 13:11:35
1.00699996948242,42.5642212328984,-70.8739110613387,-7.03709125518799,2012-02-29 13:11:36
1.00600004196167,42.5642210796136,-70.8739110400964,-7.03445959091187,2012-02-29 13:11:37
1.00399994850159,42.5642210796136,-70.8739110400964,-7.03445959091187,2012-02-29 13:11:38
1.00600004196167,42.564221080834,-70.8739110396537,-7.03437471389771,2012-02-29 13:11:39
1.00799989700317,42.5642210235567,-70.8739110357183,-7.04016828536987,2012-02-29 13:11:40
1.00400018692017,42.5642209278256,-70.8739110284666,-7.04832315444946,2012-02-29 13:11:41
1.00599980354309,42.5642221148363,-70.8739141833828,-7.53727245330811,2012-02-29 13:11:42
1.00600004196167,42.5642221148363,-70.8739141833828,-7.53727245330811,2012-02-29 13:11:43
1.00600004196167,42.5642054506329,-70.873914851021,-7.91499710083008,2012-02-29 13:11:44
1.05699992179871,42.5642052230675,-70.8739148252298,-7.91910934448242,2012-02-29 13:11:45
1.00500011444092,42.5642050136635,-70.8739147990519,-7.91899442672729,2012-02-29 13:11:46
1.00600004196167,42.5641948531355,-70.8739136794017,-8.10195922851562,2012-02-29 13:11:47
1.00599980354309,42.5641878523835,-70.8739148991652,-8.49940967559814,2012-02-29 13:11:48
1.00600004196167,42.5641880117093,-70.8739164295428,-8.78367710113525,2012-02-29 13:11:49
1.00400018692017,42.5641882319313,-70.8739190761901,-9.27399063110352,2012-02-29 13:11:50
1.00599980354309,42.5641882319313,-70.8739190761901,-9.27399063110352,2012-02-29 13:11:51
1.02800011634827,42.5641879181269,-70.8739190385313,-9.27531433105469,2012-02-29 13:11:52
0.983999967575073,42.5641879190223,-70.8739190389417,-9.27547740936279,2012-02-29 13:11:53
1.00600004196167,42.5641899176083,-70.8739201007782,-9.38351726531982,2012-02-29 13:11:54
1.00600004196167,42.5641899176083,-70.8739201007782,-9.38351726531982,2012-02-29 13:11:55
1.00799989700317,42.5641770470863,-70.8739184980342,-9.2907772064209,2012-02-29 13:11:56
1.00600004196167,42.5641608359659,-70.873917509919,-9.13009834289551,2012-02-29 13:11:57
1.00399994850159,42.5641577446045,-70.8739178290607,-9.18085479736328,2012-02-29 13:11:58
1.00600004196167,42.5641603936925,-70.8739217618829,-9.38331985473633,2012-02-29 13:11:59
1.00600004196167,42.5641631238151,-70.8739246218526,-9.47100830078125,2012-02-29 13:12:00
1.00799989700317,42.5641867427043,-70.87392997469,-9.48368263244629,2012-02-29 13:12:01
1.00500011444092,42.5642001381116,-70.8739338630895,-9.4341926574707,2012-02-29 13:12:02
1.05499982833862,42.5642180359704,-70.8739347426235,-9.22414588928223,2012-02-29 13:12:03
1.00600004196167,42.5642306384371,-70.8739331446077,-9.23182773590088,2012-02-29 13:12:04
1.00399994850159,42.5642446583092,-70.8739338002634,-9.18189144134521,2012-02-29 13:12:05
1.00600004196167,42.5642483110909,-70.8739356398228,-9.26448631286621,2012-02-29 13:12:06
1.00600004196167,42.5642484726039,-70.8739357679539,-9.26489639282227,2012-02-29 13:12:07
1.00600004196167,42.5642484330101,-70.8739357351637,-9.26160335540771,2012-02-29 13:12:08
1.00699996948242,42.5642555804963,-70.8739403489436,-8.83142757415771,2012-02-29 13:12:09
1.00500011444092,42.5642591626493,-70.8739441661678,-8.62280654907227,2012-02-29 13:12:10
1.00599980354309,42.5642591626493,-70.8739441661678,-8.62280654907227,2012-02-29 13:12:11
1.00600004196167,42.5642555735832,-70.8739441334533,-8.59045791625977,2012-02-29 13:12:12
1.00399994850159,42.5642074963243,-70.8739383985627,-8.53087043762207,2012-02-29 13:12:13
1.00600004196167,42.5641853096089,-70.8739319093653,-8.53965377807617,2012-02-29 13:12:14
1.00500011444092,42.5641712883902,-70.8739242987468,-8.53896427154541,2012-02-29 13:12:15
1.00799989700317,42.5641620308534,-70.8739147867174,-8.48861122131348,2012-02-29 13:12:16
1.00399994850159,42.5641501765462,-70.8739077913002,-8.79308032989502,2012-02-29 13:12:17
1.007000207901,42.5641374525376,-70.873905741741,-8.8121919631958,2012-02-29 13:12:18
1.05599999427795,42.5641291740029,-70.8739043604459,-8.99502658843994,2012-02-29 13:12:19
1.00399994850159,42.5641169112368,-70.873902938831,-9.25829887390137,2012-02-29 13:12:20
1.00600004196167,42.5641169119787,-70.8739029373201,-9.25704002380371,2012-02-29 13:12:21
1.00599980354309,42.5641169132814,-70.8739029330574,-9.25268173217773,2012-02-29 13:12:22
1.007000207901,42.5641183343527,-70.8738982950988,-8.87899684906006,2012-02-29 13:12:23
1.00599980354309,42.5641183361626,-70.873898289216,-8.87575054168701,2012-02-29 13:12:24
1.04900002479553,42.5641183379738,-70.8738982857283,-8.87347793579102,2012-02-29 13:12:25
0.966000080108643,42.5641183386377,-70.873898284899,-8.87312412261963,2012-02-29 13:12:26
1.00600004196167,42.5641183386377,-70.873898284899,-8.87312412261963,2012-02-29 13:12:27
1.00499987602234,42.5641184552948,-70.8738982470319,-8.86971473693848,2012-02-29 13:12:28
1.01300001144409,42.564121939058,-70.8738946624691,-8.68830013275146,2012-02-29 13:12:29
0.998000144958496,42.5641275056605,-70.8738887341548,-8.24488162994385,2012-02-29 13:12:30
1.00699996948242,42.5641373093381,-70.8738797015147,-8.42151260375977,2012-02-29 13:12:31
1.00499987602234,42.5641440071316,-70.8738745514642,-8.61970043182373,2012-02-29 13:12:32
1.07500004768372,42.5641440071316,-70.8738745514642,-8.61970043182373,2012-02-29 13:12:33
0.941999912261963,42.5641422120446,-70.8738780214335,-9.05930423736572,2012-02-29 13:12:34
2.05800008773804,42.5641405620078,-70.8738821918352,-9.49424362182617,2012-02-29 13:12:36
1.00500011444092,42.5641405620078,-70.8738821918352,-9.49424362182617,2012-02-29 13:12:37
1.00599980354309,42.5641532161994,-70.8738743855522,-9.57610416412354,2012-02-29 13:12:38
1.02900004386902,42.5641797341551,-70.8738538290521,-9.63773250579834,2012-02-29 13:12:39
1.06299996376038,42.5642063426652,-70.8738343162479,-9.80363178253174,2012-02-29 13:12:40
0.933000087738037,42.5642230116134,-70.8738302882367,-9.9714937210083,2012-02-29 13:12:41
1.00200009346008,42.564231038976,-70.8738319636441,-9.74284172058105,2012-02-29 13:12:42
1.06699991226196,42.5642365285029,-70.8738318918287,-9.4899206161499,2012-02-29 13:12:43
0.944000005722046,42.5642436367173,-70.8738331247946,-9.28716087341309,2012-02-29 13:12:44
1.01200008392334,42.5642436367173,-70.8738331247946,-9.28716087341309,2012-02-29 13:12:45
0.998999834060669,42.5642424518106,-70.8738296104274,-8.93506336212158,2012-02-29 13:12:46
2.00999999046326,42.5642425357432,-70.8738246336313,-8.35754203796387,2012-02-29 13:12:48
1.05599999427795,42.5642469189488,-70.8738232318369,-8.00915241241455,2012-02-29 13:12:49
1.00800013542175,42.5642763656399,-70.8738267425373,-8.18371677398682,2012-02-29 13:12:50
1.00699996948242,42.5642865337166,-70.8738316638824,-8.04958629608154,2012-02-29 13:12:51
1.00699996948242,42.564294002156,-70.8738327512848,-7.87157106399536,2012-02-29 13:12:52
1.00500011444092,42.5642978099482,-70.8738310770587,-7.54850482940674,2012-02-29 13:12:53
1.00599980354309,42.5642978099482,-70.8738310770587,-7.54850482940674,2012-02-29 13:12:54
1.00500011444092,42.5642978099482,-70.8738310770587,-7.54850482940674,2012-02-29 13:12:55
1.00699996948242,42.5642980860045,-70.8738311956207,-7.54178857803345,2012-02-29 13:12:56
1.01999998092651,42.5642982193282,-70.8738312530837,-7.53907299041748,2012-02-29 13:12:57
0.992000102996826,42.5642982193282,-70.8738312530837,-7.53907299041748,2012-02-29 13:12:58
1.00600004196167,42.5642984409548,-70.8738313477675,-7.53344392776489,2012-02-29 13:12:59
1.00699996948242,42.5642984785433,-70.8738313627199,-7.53028774261475,2012-02-29 13:13:00
1.00499987602234,42.5642984785433,-70.8738313627199,-7.53028774261475,2012-02-29 13:13:01
1.00800013542175,42.5642986490171,-70.8738314377961,-7.52686262130737,2012-02-29 13:13:02
1.00399994850159,42.5642971251542,-70.873822463091,-7.09790706634521,2012-02-29 13:13:03
1.05699992179871,42.5642846377621,-70.8738011685737,-6.99699926376343,2012-02-29 13:13:04
1.00500011444092,42.564278102765,-70.8737954236196,-7.09716272354126,2012-02-29 13:13:05
1.00600004196167,42.5642706090218,-70.8737910131831,-6.73063659667969,2012-02-29 13:13:06
1.00399994850159,42.5642724091454,-70.8737876211667,-6.28808164596558,2012-02-29 13:13:07
1.00699996948242,42.5642724093411,-70.873787621317,-6.28890132904053,2012-02-29 13:13:08
1.00499987602234,42.5642724091695,-70.8737876223778,-6.29098320007324,2012-02-29 13:13:09
1.007000207901,42.564271931293,-70.8737872497079,-6.29066705703735,2012-02-29 13:13:10
1.00499987602234,42.5642717240525,-70.8737870882615,-6.29319906234741,2012-02-29 13:13:11
1.00600004196167,42.5642716770846,-70.8737870538152,-6.29561614990234,2012-02-29 13:13:12
1.00600004196167,42.5642715099715,-70.8737869268107,-6.29821109771729,2012-02-29 13:13:13
1.00799989700317,42.5642715092175,-70.8737869309193,-6.30251693725586,2012-02-29 13:13:14
1.00300002098083,42.5642713084872,-70.8737906776721,-6.58064365386963,2012-02-29 13:13:15
1.00699996948242,42.5642714156936,-70.8737915606732,-6.69062042236328,2012-02-29 13:13:16
1.00500011444092,42.5642712477825,-70.8737957320183,-6.9573335647583,2012-02-29 13:13:17
1.05599999427795,42.5642725681284,-70.8738030749688,-7.38770532608032,2012-02-29 13:13:18
1.00799989700317,42.564272673658,-70.8738031596793,-7.38925790786743,2012-02-29 13:13:19
1.00300002098083,42.5642617839491,-70.8737993389595,-7.52301597595215,2012-02-29 13:13:20
1.00800013542175,42.5642625354709,-70.8738041395934,-7.71493291854858,2012-02-29 13:13:21
1.00399994850159,42.5642635331892,-70.8738116454462,-8.14262104034424,2012-02-29 13:13:22
1.00600004196167,42.5642643543326,-70.8738193906286,-8.64428329467773,2012-02-29 13:13:24
1.00499987602234,42.5642655420477,-70.8738233372856,-8.92183589935303,2012-02-29 13:13:25
1.00600004196167,42.5642672410275,-70.8738265581929,-9.2468090057373,2012-02-29 13:13:26
1.00600004196167,42.5642816850114,-70.8738351161082,-9.45957946777344,2012-02-29 13:13:27
1.00499987602234,42.564298914719,-70.8738466794881,-10.0178117752075,2012-02-29 13:13:28
1.00699996948242,42.5643310419979,-70.8738687920192,-10.8266944885254,2012-02-29 13:13:29
1.00500011444092,42.5643373801174,-70.873898179204,-11.0909795761108,2012-02-29 13:13:30
1.00600004196167,42.5643357352661,-70.8739313183339,-11.2513084411621,2012-02-29 13:13:31
1.00600004196167,42.5643014589697,-70.8739634505983,-11.1664867401123,2012-02-29 13:13:32
1.00599980354309,42.5642810171475,-70.8739848409746,-10.9589490890503,2012-02-29 13:13:33
1.09800004959106,42.564264374357,-70.8740030947642,-10.8173494338989,2012-02-29 13:13:34
0.96399998664856,42.5642488322635,-70.8740180988942,-10.6288146972656,2012-02-29 13:13:35
1.00600004196167,42.5642154071353,-70.8740267896527,-10.3634548187256,2012-02-29 13:13:36
1.00600004196167,42.5642111269363,-70.8740295286597,-10.2289867401123,2012-02-29 13:13:37
1.00600004196167,42.5642110452474,-70.8740268973801,-10.1935758590698,2012-02-29 13:13:38
1.00799989700317,42.5642092375693,-70.8740277709587,-10.0730037689209,2012-02-29 13:13:39
1.00500011444092,42.5642100106278,-70.8740262441282,-10.0394248962402,2012-02-29 13:13:40
1.00599980354309,42.5642107490046,-70.8740230257131,-9.91061115264893,2012-02-29 13:13:41
1.00600004196167,42.5642107490046,-70.8740230257131,-9.91061115264893,2012-02-29 13:13:42
1.00500011444092,42.5642107490046,-70.8740230257131,-9.91061115264893,2012-02-29 13:13:43
1.00699996948242,42.564210380567,-70.87402355083,-9.91494274139404,2012-02-29 13:13:44
1.00499987602234,42.5642096217143,-70.8740246321926,-9.91726684570312,2012-02-29 13:13:45
1.00600004196167,42.5642096217143,-70.8740246321926,-9.91726684570312,2012-02-29 13:13:46
1.00399994850159,42.5642084529781,-70.8740262963524,-9.9197359085083,2012-02-29 13:13:47
1.007000207901,42.5642076121972,-70.8740274950933,-9.9221773147583,2012-02-29 13:13:48
1.00499987602234,42.5642038002408,-70.8740332170002,-9.92359161376953,2012-02-29 13:13:49
1.00500011444092,42.5641971979792,-70.874042493526,-9.95221710205078,2012-02-29 13:13:50
1.00799989700317,42.564195126741,-70.8740461688378,-9.8950138092041,2012-02-29 13:13:51
1.00500011444092,42.5641945780074,-70.8740454179518,-9.66624927520752,2012-02-29 13:13:52
1.00699996948242,42.564195895167,-70.8740406574265,-9.0996618270874,2012-02-29 13:13:53
1.05799984931946,42.5641970482678,-70.8740364616296,-8.65389251708984,2012-02-29 13:13:54
1.00400018692017,42.5641978382362,-70.8740334551383,-8.39875888824463,2012-02-29 13:13:55
1.00699996948242,42.5641986781639,-70.8740293193272,-8.0046854019165,2012-02-29 13:13:56
1.00399994850159,42.5642044074437,-70.8740187622422,-7.92531442642212,2012-02-29 13:13:57
1.00699996948242,42.5642046630162,-70.8740167485186,-7.99244213104248,2012-02-29 13:13:58
1.00799989700317,42.5642006892842,-70.8740209212372,-8.17586708068848,2012-02-29 13:13:59
1.00400018692017,42.5641890256139,-70.8740351857071,-8.40319156646729,2012-02-29 13:14:00
1.00699996948242,42.5641744151766,-70.8740535935857,-8.74983978271484,2012-02-29 13:14:01
1.00300002098083,42.5641069239062,-70.8740477608937,-9.45981884002686,2012-02-29 13:14:02
1.00699996948242,42.56404707588,-70.8740381248263,-10.3859052658081,2012-02-29 13:14:03
1.0090000629425,42.5640277202741,-70.8740432559822,-11.4978618621826,2012-02-29 13:14:04
1.00799989700317,42.5640161682663,-70.8740475099856,-12.6982336044312,2012-02-29 13:14:05
1.0550000667572,42.5640326345406,-70.8740620017186,0,2012-02-29 13:14:06
1.00699996948242,42.5640331762982,-70.8740630481444,0,2012-02-29 13:14:07
1.00499987602234,42.5640335331777,-70.8740633399273,0,2012-02-29 13:14:08
1.02100014686584,42.5640340045095,-70.8740636345689,0,2012-02-29 13:14:09
0.990000009536743,42.5640329962165,-70.8740678090476,0,2012-02-29 13:14:10
1.00600004196167,42.564031844776,-70.8740722096648,0,2012-02-29 13:14:11
13.1329998970032,42.5640472461173,-70.8744288000768,0,2012-02-29 13:14:24
1.01999998092651,42.5640551971977,-70.8744274519065,-11.9651479721069,2012-02-29 13:14:25
0.986999988555908,42.5640552050022,-70.8744274521539,-11.9577312469482,2012-02-29 13:14:26
1.0090000629425,42.564056103295,-70.8744204666848,-11.643892288208,2012-02-29 13:14:27
1.0019998550415,42.5640574383206,-70.8744184540461,-11.5407047271729,2012-02-29 13:14:28
2.01000022888184,42.5640866757414,-70.8744810180677,-10.8439073562622,2012-02-29 13:14:30
1.00399994850159,42.5641423506296,-70.8746005792735,-9.16620254516602,2012-02-29 13:14:31
1.00699996948242,42.5641429177305,-70.8746037102605,-9.16932201385498,2012-02-29 13:14:32
1.05699992179871,42.5641429177305,-70.8746037102605,-9.16932201385498,2012-02-29 13:14:33
1.00500011444092,42.5641429194566,-70.8746037096976,-9.16945743560791,2012-02-29 13:14:34
1.01099991798401,42.5641427132029,-70.8746037216161,-9.17106533050537,2012-02-29 13:14:35
1.00799989700317,42.5641427132029,-70.8746037216161,-9.17106533050537,2012-02-29 13:14:36
0.999000072479248,42.5641427132029,-70.8746037216161,-9.17106533050537,2012-02-29 13:14:37
1.00699996948242,42.5641427132029,-70.8746037216161,-9.17106533050537,2012-02-29 13:14:38
1.00600004196167,42.5641427132029,-70.8746037216161,-9.17106533050537,2012-02-29 13:14:39
1.00600004196167,42.5641427132029,-70.8746037216161,-9.17106533050537,2012-02-29 13:14:40
1.00699996948242,42.5641427132029,-70.8746037216161,-9.17106533050537,2012-02-29 13:14:41
1.00399994850159,42.5641427132029,-70.8746037216161,-9.17106533050537,2012-02-29 13:14:42
1.00699996948242,42.5641423409372,-70.8746037450244,-9.16387557983398,2012-02-29 13:14:43
1.00500011444092,42.5641423420305,-70.8746037420862,-9.15904712677002,2012-02-29 13:14:44
1.00600004196167,42.5641432976608,-70.8745960814338,-8.66332626342773,2012-02-29 13:14:45
1.05599999427795,42.5641452418684,-70.8745868022338,-8.09755802154541,2012-02-29 13:14:46
1.00799989700317,42.5641563570737,-70.8745313386553,-7.90971279144287,2012-02-29 13:14:47
1.00399994850159,42.5641704609167,-70.8744731303315,-7.69575166702271,2012-02-29 13:14:48
1.00500011444092,42.5642001070744,-70.8744191502064,-7.46065616607666,2012-02-29 13:14:49
1.00699996948242,42.5642463618979,-70.8743779484076,-7.21333789825439,2012-02-29 13:14:50
1.00500011444092,42.5643048004681,-70.8743435109841,-6.93649816513062,2012-02-29 13:14:51
1.00499987602234,42.5643582350678,-70.8743138256983,-6.72382020950317,2012-02-29 13:14:52
1.00600004196167,42.5644020208109,-70.8742839022065,0,2012-02-29 13:14:53
1.00499987602234,42.5644449455859,-70.8742576815667,0,2012-02-29 13:14:54
1.00800013542175,42.5644887418465,-70.8742303260335,-6.25373888015747,2012-02-29 13:14:55
1.00499987602234,42.5645309074912,-70.8742027933101,-6.11667823791504,2012-02-29 13:14:56
1.00600004196167,42.5645705195523,-70.8741824845914,0,2012-02-29 13:14:57
1.00600004196167,42.5646003830221,-70.8741585806009,0,2012-02-29 13:14:58
1.0550000667572,42.5646288429207,-70.874141230403,0,2012-02-29 13:14:59
1.00699996948242,42.5646577034664,-70.874121064085,0,2012-02-29 13:15:00
1.00399994850159,42.5646868299163,-70.8740994833373,0,2012-02-29 13:15:01
124.088000059128,42.5650502044335,-70.8759036874457,-8.83118724822998,2012-02-29 13:17:06
1.00300002098083,42.565028723271,-70.8759136580757,-8.82063293457031,2012-02-29 13:17:07
1.00600004196167,42.5650158022806,-70.8759217433478,-8.86551952362061,2012-02-29 13:17:08
1.00599980354309,42.5650078026113,-70.8758997856529,0,2012-02-29 13:17:09
1.00500011444092,42.5650078026113,-70.8758997856529,0,2012-02-29 13:17:10
1.00799989700317,42.5650151492546,-70.8758445501361,0,2012-02-29 13:17:11
1.00400018692017,42.5650344878635,-70.8758594348993,0,2012-02-29 13:17:12
1.05699992179871,42.5650486701157,-70.8758649291755,0,2012-02-29 13:17:13
1.00600004196167,42.565055192932,-70.8758758358743,-9.03869915008545,2012-02-29 13:17:14
1.00600004196167,42.5650642829877,-70.8758918238205,-9.25285720825195,2012-02-29 13:17:15
1.00699996948242,42.5650642829877,-70.8758918238205,-9.25285720825195,2012-02-29 13:17:16
1.00499987602234,42.5650642829877,-70.8758918238205,-9.25285720825195,2012-02-29 13:17:17
1.00600004196167,42.5650642829877,-70.8758918238205,-9.25285720825195,2012-02-29 13:17:18
1.00600004196167,42.5650468280128,-70.8759427987113,-9.60244655609131,2012-02-29 13:17:19
1.00499987602234,42.5650451873878,-70.8759434168739,-9.82643604278564,2012-02-29 13:17:20
1.00800013542175,42.5650429505587,-70.8759458967352,-10.2748041152954,2012-02-29 13:17:21
1.00300002098083,42.5650406198738,-70.875948402809,-10.7280511856079,2012-02-29 13:17:22
1.00799989700317,42.5650388849306,-70.8759518358366,0,2012-02-29 13:17:23
1.00399994850159,42.5650209502577,-70.8759759207712,0,2012-02-29 13:17:24
1.007000207901,42.5650059172113,-70.8759957987099,0,2012-02-29 13:17:25
1.00599980354309,42.5649993513677,-70.8760021034172,0,2012-02-29 13:17:26
