"diffSecs","level","azimuth.mean","azimuth.absolute.deviation","azimuth.standard.deviation","azimuth.max.deviation","pitch.mean","pitch.absolute.deviation","pitch.standard.deviation","pitch.max.deviation","roll.mean","roll.absolute.deviation","roll.standard.deviation","roll.max.deviation","time"
1.00099992752075,13,19.3538475036621,0.426035583019257,0.46511447429657,0.753846228122711,46.9538459777832,0.181065529584885,0.227411940693855,0.453846573829651,10.2153844833374,0.565680503845215,0.687074244022369,1.4153847694397,2012-01-11 07:48:24
1.00999999046326,41,18.0439033508301,4.85318279266357,5.17178297042847,8.84390258789062,46.6682929992676,0.417846292257309,0.484107792377472,0.768291831016541,10.5780487060547,4.30815029144287,4.51282787322998,6.17804908752441,2012-01-11 07:48:25
1.01600003242493,44,16.9159088134766,1.09390509128571,1.24095702171326,2.51590895652771,45.6318206787109,0.243388265371323,0.321765780448914,0.968183279037476,14.36363697052,0.348760366439819,0.400619387626648,0.763636291027069,2012-01-11 07:48:26
1.01300001144409,44,12.1363639831543,1.0276859998703,1.24755966663361,2.76363682746887,47.847728729248,0.727582931518555,0.813379406929016,1.3477281332016,13.6522731781006,0.863533079624176,0.945200502872467,1.44772744178772,2012-01-11 07:48:27
1.09200000762939,38,20.8605270385742,6.25941848754883,6.57793521881104,8.83947372436523,47.2105255126953,0.746260225772858,0.800259530544281,1.61052477359772,6.07631587982178,5.34598350524902,5.91694450378418,10.5763158798218,2012-01-11 07:48:28
1.02099990844727,45,29.2533340454102,1.43170368671417,1.643519282341,4.35333395004272,44.6577796936035,0.925728142261505,1.14338445663452,2.84222149848938,-2.39111113548279,3.41758036613464,3.54969954490662,4.5911111831665,2012-01-11 07:48:29
1.01500010490417,31,25.9516124725342,2.09864711761475,2.41685891151428,4.5483865737915,47.5935478210449,0.956295847892761,1.13732469081879,2.29354977607727,-2.10000014305115,2.11612915992737,2.29684209823608,3.70000004768372,2012-01-11 07:48:30
1.05499982833862,38,28.5973682403564,2.95027709007263,3.13993692398071,4.49736833572388,44.9631576538086,0.745429337024689,0.874919831752777,1.43684315681458,-0.344736903905869,6.24819946289062,6.71838426589966,10.6447372436523,2012-01-11 07:48:31
1.10800004005432,44,26.7068176269531,1.62654960155487,2.04721522331238,4.00681781768799,46.3795471191406,1.76043379306793,1.8871066570282,2.92045307159424,4.88636350631714,1.78388428688049,2.23602652549744,5.313636302948,2012-01-11 07:48:32
1.17799997329712,41,17.4365863800049,0.850446224212646,1.32310736179352,5.26341533660889,41.5268287658691,3.42260551452637,3.93942070007324,6.77316904067993,22.0121955871582,3.80154633522034,4.43265008926392,8.61219501495361,2012-01-11 07:48:33
1,41,14.1317071914673,14.0768594741821,15.9465179443359,28.9317073822021,51.0317077636719,2.20475912094116,2.56252908706665,4.93170595169067,-9.40487861633301,6.77846527099609,8.65557670593262,22.7048778533936,2012-01-11 07:48:34
1.01500010490417,36,-1.3027777671814,4.25385808944702,5.06131792068481,11.9972219467163,53.0111122131348,0.398148566484451,0.511413097381592,1.21111285686493,-18.9611110687256,2.26574087142944,2.77160978317261,5.96111154556274,2012-01-11 07:48:35
1.01699995994568,37,-3.25135135650635,3.17983937263489,3.67788290977478,5.95135164260864,52.5783805847168,1.30094981193542,1.45493304729462,2.2783796787262,-14.5027027130127,3.18670558929443,3.83472657203674,6.70270299911499,2012-01-11 07:48:36
1.0090000629425,38,10.0947370529175,5.34764575958252,6.13398456573486,10.8947372436523,49.5473709106445,0.429362922906876,0.518975079059601,1.04736912250519,-21.0473690032959,1.33988928794861,1.50712990760803,3.44736862182617,2012-01-11 07:48:37
1.01999998092651,40,24.5050010681152,1.69374990463257,1.93816256523132,4.20499897003174,46.4550018310547,0.955499529838562,1.10971808433533,2.04499912261963,-18.3150005340576,1.29149997234344,1.39311695098877,2.18499970436096,2012-01-11 07:48:38
1.10500001907349,38,25.3736839294434,0.254016548395157,0.295300304889679,0.673683881759644,44.6000022888184,0.231579005718231,0.288370907306671,0.699998438358307,-20.913158416748,0.390720129013062,0.460646569728851,1.01315867900848,2012-01-11 07:48:39
1.00300002098083,38,23.2421054840088,0.809141397476196,0.922990441322327,1.9421044588089,45.1710548400879,0.249999493360519,0.305137813091278,0.628946125507355,-22.5921058654785,0.602631747722626,0.677216410636902,1.19210600852966,2012-01-11 07:48:40
1.01199984550476,37,19.5162162780762,1.29598248004913,1.62139642238617,3.71621632575989,45.9648666381836,0.359824955463409,0.401494860649109,0.735135078430176,-24.318920135498,0.504893839359283,0.615053296089172,1.58108019828796,2012-01-11 07:48:41
1,38,10.6263160705566,3.83102488517761,5.26531267166138,14.0263156890869,49.6947364807129,1.82077586650848,1.98546671867371,2.90526461601257,-20.3894748687744,4.35955667495728,4.82928514480591,8.3894739151001,2012-01-11 07:48:42
1.00400018692017,40,-3.31500005722046,3.33350014686584,3.53054881095886,4.91499996185303,50.4375,1.09249997138977,1.51173555850983,4.13750171661377,-16.6625003814697,3.46312499046326,4.23702049255371,9.33749961853027,2012-01-11 07:48:43
1.00099992752075,35,-4.06571435928345,3.81240820884705,4.33688116073608,8.53428649902344,50.1371421813965,1.14546942710876,1.62394344806671,3.83714413642883,-25.41428565979,0.867755115032196,1.22010362148285,2.98571348190308,2012-01-11 07:48:44
1.08800005912781,40,-12.9324998855591,2.99100017547607,3.35114812850952,5.63250017166138,52.4724998474121,0.53662520647049,0.629677772521973,1.27250015735626,-25.9549999237061,3.15350008010864,3.63778424263,6.95500040054321,2012-01-11 07:48:45
1.09500002861023,39,-11.648717880249,4.68323469161987,5.13604021072388,8.05128288269043,55.8230781555176,3.1854043006897,3.35868263244629,4.22307538986206,-10.2230768203735,2.77712035179138,3.90361189842224,10.9769239425659,2012-01-11 07:48:46
1.01199984550476,36,-10.9527778625488,3.05509257316589,3.64870500564575,6.95277786254883,53.1194458007812,2.83935189247131,3.16103172302246,5.58055543899536,-2.09166669845581,3.32361125946045,3.92494702339172,9.90833377838135,2012-01-11 07:48:47
1.05200004577637,39,-9.4538459777832,2.87850093841553,3.09762907028198,5.05384635925293,51.9974365234375,0.249178290367126,0.289550602436066,0.597434878349304,-4.58717966079712,2.47140049934387,2.8865008354187,6.31282091140747,2012-01-11 07:48:48
1.23200011253357,41,-8.56097602844238,1.40856635570526,1.58527958393097,2.86097550392151,52.7268295288086,0.628792405128479,0.702616930007935,1.27316987514496,-12.2463417053223,1.09137415885925,1.19696712493896,1.94634139537811,2012-01-11 07:48:50
1.00599980354309,43,-9.14651203155518,3.54591679573059,3.87564539909363,5.85348796844482,53.2046508789062,0.915305614471436,1.05520951747894,1.90465259552002,-2.62790703773499,4.54407787322998,5.30792856216431,10.1279067993164,2012-01-11 07:48:51
1.01500010490417,39,-5.60512828826904,1.8222222328186,2.2377815246582,4.79487228393555,53.533332824707,0.605128347873688,0.847117006778717,2.03333401679993,5.33846187591553,1.03155815601349,1.43627285957336,3.13846158981323,2012-01-11 07:48:52
1.00200009346008,34,-5.86470603942871,2.87854671478271,3.26089882850647,5.26470613479614,53.1205902099609,0.239619135856628,0.352119028568268,1.17941009998322,6.80000019073486,1.31764709949493,1.48224794864655,3.19999980926514,2012-01-11 07:48:53
1.01399993896484,40,1.875,0.702499985694885,0.876570045948029,1.77499997615814,53.1500015258789,0.129999622702599,0.158113822340965,0.350001513957977,9.44000053405762,0.210999950766563,0.270924359560013,0.740000426769257,2012-01-11 07:48:54
1.02600002288818,37,2.52972984313965,0.293791115283966,0.366771787405014,0.870270311832428,52.8216209411621,0.127246618270874,0.167872533202171,0.521623015403748,10.1891889572144,0.345069289207458,0.482551604509354,1.31081068515778,2012-01-11 07:48:55
1.01600003242493,34,4.49411773681641,1.01003456115723,1.20145523548126,2.60588216781616,51.7000007629395,0.229411482810974,0.293056726455688,0.599998950958252,12.5088233947754,0.415744036436081,0.521518051624298,0.991176247596741,2012-01-11 07:48:56
1.00099992752075,35,5.38000011444092,1.16571426391602,1.29367697238922,2.1800000667572,51.6285743713379,0.422040611505508,0.452024817466736,0.728570997714996,12.2285718917847,0.652244985103607,0.810139954090118,2.22857165336609,2012-01-11 07:48:57
1.0149998664856,38,2.45789480209351,0.393074810504913,0.488085210323334,1.05789482593536,53.4000015258789,0.400000035762787,0.42612087726593,0.699999570846558,8.41578960418701,0.895567953586578,0.985026478767395,1.58421039581299,2012-01-11 07:48:58
1.01800012588501,37,2.93783783912659,0.407012403011322,0.572501063346863,1.73783779144287,53.6378402709961,0.195617109537125,0.231740161776543,0.462163776159286,8.18918895721436,0.361869990825653,0.405891627073288,0.88918924331665,2012-01-11 07:48:59
1.00999999046326,39,1.73076927661896,1.01341223716736,1.37731695175171,3.6307692527771,53.5025634765625,0.136226579546928,0.176122322678566,0.402562946081161,8.81282043457031,0.347008645534515,0.509992301464081,1.41282069683075,2012-01-11 07:49:00
1.01500010490417,38,-4.39473676681519,2.07091426849365,3.00323939323425,8.60526275634766,53.7236862182617,0.221467837691307,0.310715794563293,0.923685491085052,5.41315793991089,1.26481997966766,1.90817785263062,5.51315784454346,2012-01-11 07:49:01
1.01099991798401,38,-8.87894725799561,2.60083103179932,2.87009620666504,5.02105331420898,53.9736862182617,0.802769958972931,0.855534195899963,1.47368490695953,-1.88421058654785,3.09501385688782,3.8800790309906,12.3157892227173,2012-01-11 07:49:02
1.00099992752075,41,-7.73170757293701,3.48590135574341,4.02973318099976,8.76829242706299,53.2780494689941,0.478762626647949,0.664981842041016,1.87804806232452,-13.2780494689941,3.35359907150269,3.94983887672424,9.17804908752441,2012-01-11 07:49:03
