"diffSecs","N.samples","x.mean","x.absolute.deviation","x.standard.deviation","x.max.deviation","x.PSD.1","x.PSD.3","x.PSD.6","x.PSD.10","y.mean","y.absolute.deviation","y.standard.deviation","y.max.deviation","y.PSD.1","y.PSD.3","y.PSD.6","y.PSD.10","z.mean","z.absolute.deviation","z.standard.deviation","z.max.deviation","z.PSD.1","z.PSD.3","z.PSD.6","z.PSD.10","time"
7.82499980926514,18,-7.28307199478149,0.00944342464208603,0.0113237239420414,0.0261510219424963,3.83371698262636e-05,8.36824547150172e-05,0.000193646221305244,7.5026458944194e-05,4.5873327255249,0.0191291179507971,0.0239223632961512,0.0512127876281738,0.000572606979403645,0.00113009463530034,0.00129634863696992,0.000182468807906844,4.34325647354126,0.0292989704757929,0.0344226770102978,0.0795428454875946,0.000461032817838714,0.000956536619924009,0.00241807638667524,0.00314761186018586,2012-01-17 13:56:07
0.486000061035156,99,-7.27623701095581,0.0257007628679276,0.0305204577744007,0.0585426278412342,0.00501204282045364,0.232023477554321,0.193322509527206,0.150867626070976,4.56771945953369,0.0281982757151127,0.0337289646267891,0.0762738958001137,0.00824044458568096,0.266389042139053,0.114804334938526,0.154169514775276,4.42676115036011,0.0467949025332928,0.0563420951366425,0.13333061337471,0.429364889860153,1.65168416500092,0.230589374899864,0.256463885307312,2012-01-17 13:56:08
0.319999933242798,99,-7.27346324920654,0.0229251682758331,0.0297856703400612,0.104802198708057,0.000569137337151915,0.460860371589661,0.180413588881493,0.03831647336483,4.59486103057861,0.0280422866344452,0.0359516926109791,0.0838023349642754,0.250346153974533,0.208000838756561,0.100555695593357,0.0568109974265099,4.41378498077393,0.0353583469986916,0.046074852347374,0.128279134631157,0.0147376600652933,0.89635169506073,0.317687064409256,0.189686998724937,2012-01-17 13:56:08
0.506999969482422,99,-7.24027919769287,0.0230112168937922,0.0309942048043013,0.095094621181488,0.026515768840909,0.141903921961784,0.590270519256592,0.167871430516243,4.63379049301147,0.0282703265547752,0.0365702323615551,0.093311995267868,0.0680377706885338,0.369763493537903,0.4499192237854,0.101371981203556,4.4083366394043,0.0247121956199408,0.0301647372543812,0.0737973898649216,0.0316950939595699,0.183238446712494,0.0321813486516476,0.171839475631714,2012-01-17 13:56:09
1.00200009346008,79,-7.25344514846802,0.0240286868065596,0.0336484909057617,0.114203825592995,0.141429722309113,0.184376940131187,0.0559447593986988,0.019885940477252,4.62414598464966,0.0207730252295732,0.0251520369201899,0.0640538111329079,0.00276974844746292,0.0534771531820297,0.0625869482755661,0.07136270403862,4.41013717651367,0.0367281325161457,0.043498519808054,0.105018340051174,0.179441079497337,0.609257578849792,0.280694991350174,0.0611775703728199,2012-01-17 13:56:10
1.00999999046326,42,-7.26065683364868,0.0249279718846083,0.0280617251992226,0.0551039390265942,0.0158320609480143,0.0268504004925489,0.0326971709728241,0.0211354792118073,4.62453603744507,0.036224652081728,0.0477147176861763,0.131689235568047,0.0477233491837978,0.116538837552071,0.218001484870911,0.218277603387833,4.39828252792358,0.0298869051039219,0.0403346233069897,0.122583366930485,0.0534323751926422,0.0621801018714905,0.0199282616376877,0.0345632173120975,2012-01-17 13:56:11
1.04699993133545,49,-7.23990917205811,0.0564545579254627,0.0657335072755814,0.139895066618919,0.204858556389809,0.281006008386612,0.831988513469696,0.307966858148575,4.57510232925415,0.060923021286726,0.0753680914640427,0.190929427742958,0.35966169834137,0.936231315135956,0.76969039440155,0.345349967479706,4.43941020965576,0.0576880313456059,0.0760962665081024,0.208941772580147,0.354169636964798,1.28999507427216,1.07096457481384,0.430856734514236,2012-01-17 13:56:12
1.08699989318848,36,-7.17192983627319,0.0207028910517693,0.0246794857084751,0.0555709190666676,0.0105639714747667,0.0169418267905712,0.00980595033615828,0.00222311518155038,4.62792158126831,0.0248344875872135,0.0310437195003033,0.0694637447595596,0.00390074332244694,0.0205355547368526,0.0257791988551617,0.0595341697335243,4.54293060302734,0.0483522489666939,0.0598025247454643,0.154454872012138,0.205722942948341,0.382143527269363,0.250669896602631,0.0935213193297386,2012-01-17 13:56:13
1.01500010490417,51,-7.14616346359253,0.0277346633374691,0.035718958824873,0.104989051818848,0.0261798184365034,0.0196009799838066,0.00393763277679682,0.0742343291640282,4.57778263092041,0.0308715663850307,0.0382048115134239,0.0705696567893028,7.50948456698097e-05,0.032969918102026,0.0858850404620171,0.0456638857722282,4.56182241439819,0.0409911312162876,0.0479918047785759,0.0963361412286758,0.125225350260735,0.432957708835602,0.31690588593483,0.0401966907083988,2012-01-17 13:56:14
1.20799994468689,41,-7.14378547668457,0.0321443863213062,0.0383863523602486,0.0829979702830315,0.0877406150102615,0.0991642847657204,0.0417671911418438,0.0341500788927078,4.60864686965942,0.024000521749258,0.0312339048832655,0.0887382701039314,5.39987668162212e-05,0.00231812195852399,0.0655581802129745,0.0600459687411785,4.56415843963623,0.0575448498129845,0.0678380280733109,0.151165828108788,0.123571060597897,0.129437521100044,0.125443756580353,0.0334917455911636,2012-01-17 13:56:15
1.05999994277954,43,-7.13034677505493,0.0193057600408792,0.0241896994411945,0.0677343159914017,0.00165878015104681,0.0128434197977185,0.0807308405637741,0.0635017827153206,4.62851047515869,0.0217030718922615,0.026541605591774,0.0688746050000191,0.00633752951398492,0.0096265459433198,0.0244146101176739,0.0745701938867569,4.59772205352783,0.0330319441854954,0.0400689356029034,0.0898564159870148,0.111673727631569,0.188709005713463,0.0579830296337605,0.00954305753111839,2012-01-17 13:56:16
1.01500010490417,49,-7.14124250411987,0.0216555390506983,0.0259822774678469,0.0568385235965252,0.00684926472604275,0.0195603538304567,0.102843940258026,0.0140726054087281,4.6379451751709,0.0267038531601429,0.0350186564028263,0.0888601690530777,0.0138631295412779,0.0599362328648567,0.111475706100464,0.0419360548257828,4.57490205764771,0.0397249981760979,0.0499699264764786,0.132489785552025,0.0441662520170212,0.281149923801422,0.272254943847656,0.085143506526947,2012-01-17 13:56:17
1.01300001144409,45,-7.14425325393677,0.0234294608235359,0.0279387887567282,0.0638524666428566,0.00689477846026421,0.00970683712512255,0.0119233978912234,0.0318720191717148,4.62982845306396,0.023148575797677,0.0299043487757444,0.0871701762080193,0.00622770003974438,0.0191223379224539,0.00640140706673265,0.0322736836969852,4.57098817825317,0.035352423787117,0.0422293022274971,0.0893494635820389,0.000499500485602766,0.0714612528681755,0.158805280923843,0.0407526418566704,2012-01-17 13:56:18
1.02600002288818,28,-7.09616184234619,0.0189879704266787,0.0216667782515287,0.0430794954299927,4.37431081081741e-05,0.00195293652359396,0.00630584172904491,0.0042503266595304,4.65430641174316,0.0192630290985107,0.0224452391266823,0.0451805591583252,5.52978235646151e-05,0.000332554394844919,0.0044178725220263,0.00284115434624255,4.60177040100098,0.0292450170964003,0.0357089042663574,0.0956149250268936,0.00198960653506219,0.00650253938511014,0.0131738819181919,0.0034081400372088,2012-01-17 13:56:19
1.01900005340576,54,-7.11417961120605,0.021147046238184,0.0259918253868818,0.0631985738873482,0.00387244252488017,0.0706706047058105,0.0555426590144634,0.0498997047543526,4.65815877914429,0.0286935325711966,0.0352575369179249,0.0980667620897293,0.0196207221597433,0.239962756633759,0.125570312142372,0.0602040886878967,4.5824294090271,0.0398118533194065,0.0497335717082024,0.124762505292892,9.992783452617e-05,0.322017520666122,0.876679420471191,0.0980754345655441,2012-01-17 13:56:20
1.24799990653992,45,-7.09391260147095,0.0174050461500883,0.0207041781395674,0.0355221852660179,0.0073815630748868,0.0153558440506458,0.0239494033157825,0.0130724422633648,4.64312171936035,0.0317299738526344,0.0417394749820232,0.112449802458286,0.012188907712698,0.152783364057541,0.181524023413658,0.0497662350535393,4.60585641860962,0.0406796038150787,0.0465515963733196,0.0915287882089615,0.0204228013753891,0.164603173732758,0.0770569741725922,0.164268612861633,2012-01-17 13:56:21
1.01600003242493,52,-7.11925077438354,0.0279694460332394,0.0333650186657906,0.0780761614441872,0.0152810430154204,0.0400120355188847,0.210767224431038,0.0203022081404924,4.65891313552856,0.0238202791661024,0.0334138758480549,0.0988211333751678,0.000267775525571778,0.0424389690160751,0.139011308550835,0.161191493272781,4.59441518783569,0.0290428698062897,0.0374663285911083,0.0931633561849594,0.00477096904069185,0.18962524831295,0.236346811056137,0.0941750034689903,2012-01-17 13:56:22
1.17799997329712,40,-7.11153697967529,0.0254239328205585,0.0313114300370216,0.0703628063201904,0.0120665114372969,0.0233289655297995,0.0410787090659142,0.0370242223143578,4.64271306991577,0.0343600660562515,0.0467690005898476,0.13165445625782,0.0148992175236344,0.0316744409501553,0.0683232843875885,0.0331188812851906,4.59417009353638,0.0287090893834829,0.0358304753899574,0.0836018323898315,0.0636311396956444,0.11789308488369,0.082988865673542,0.0133382361382246,2012-01-17 13:56:24
1.00300002098083,51,-7.11443614959717,0.0214232634752989,0.0267937015742064,0.064031794667244,0.0145713044330478,0.0243198666721582,0.10439120978117,0.0449269451200962,4.62354707717896,0.0333675891160965,0.0411208122968674,0.0836449638009071,0.00803648959845304,0.119360968470573,0.167872250080109,0.111288323998451,4.59489583969116,0.0340613536536694,0.0450995564460754,0.122102528810501,0.0410883165895939,0.40264904499054,0.541095018386841,0.155081316828728,2012-01-17 13:56:25
1.01500010490417,48,-7.12432670593262,0.0222523584961891,0.0283087454736233,0.073754221200943,0.0538732558488846,0.0518081150949001,0.00558570399880409,0.0246710404753685,4.64120149612427,0.0226353108882904,0.031123548746109,0.0856037810444832,0.0520263835787773,0.203165382146835,0.109128296375275,0.0896124094724655,4.61770629882812,0.0370304845273495,0.0436105541884899,0.0870341584086418,0.0152591979131103,0.111656323075294,0.140053823590279,0.0110830878838897,2012-01-17 13:56:26
1.00699996948242,26,-7.12943458557129,0.0173503160476685,0.0208918694406748,0.0392268970608711,0.000187696976354346,0.000594827579334378,0.00116349407471716,0.00022499896294903,4.66306209564209,0.0177273750305176,0.0203990302979946,0.0441298484802246,0.00174653832800686,0.00339440419338644,0.0047881999053061,0.00267353840172291,4.58498573303223,0.0264026205986738,0.0299472771584988,0.0445071719586849,0.00264849164523184,0.00470953760668635,0.00915449392050505,0.00859692320227623,2012-01-17 13:56:27
1.0149998664856,43,-7.10092639923096,0.022710794582963,0.0309258028864861,0.0873478278517723,0.0170645378530025,0.0387532413005829,0.0555092580616474,0.0201843958348036,4.66454458236694,0.0223818365484476,0.028365932404995,0.075032614171505,0.00178112916182727,0.0571990013122559,0.0973882377147675,0.0147902499884367,4.57446002960205,0.0241003166884184,0.0277655739337206,0.0535944774746895,0.0127579979598522,0.0205145198851824,0.0862253606319427,0.0560695976018906,2012-01-17 13:56:28
1.00999999046326,45,-7.10415506362915,0.0167367812246084,0.0228812601417303,0.0743128582835197,0.0128499465063214,0.0210045147687197,0.0258780363947153,0.0140653373673558,4.66273498535156,0.02376838773489,0.0320016741752625,0.0738766565918922,0.0318195447325706,0.0381337776780128,0.0184102021157742,0.0273927431553602,4.60629224777222,0.0329698957502842,0.0386018827557564,0.100899592041969,0.000353625742718577,0.0124822035431862,0.0863049700856209,0.0539937056601048,2012-01-17 13:56:29
1.27100014686584,43,-7.10503196716309,0.0272508598864079,0.0327902883291245,0.0638573467731476,4.27330669481307e-05,0.0432609245181084,0.093955360352993,0.0698183625936508,4.67252683639526,0.0379642732441425,0.0452298521995544,0.112434633076191,0.00950982421636581,0.0924391895532608,0.0706882104277611,0.0232340730726719,4.57924938201904,0.0388023667037487,0.0479939244687557,0.0985227823257446,0.144625082612038,0.258513689041138,0.0945110246539116,0.0538444519042969,2012-01-17 13:56:30
1.01199984550476,52,-7.12471961975098,0.0229862928390503,0.0286874305456877,0.0835452824831009,0.00137174432165921,0.0704360082745552,0.165777996182442,0.0739088803529739,4.68569278717041,0.0413590408861637,0.0516789183020592,0.158792018890381,0.0905198156833649,0.4096799492836,0.529921352863312,0.0436791554093361,4.56820154190063,0.0348382815718651,0.0433358252048492,0.109570652246475,0.0427690632641315,0.0512973256409168,0.100453533232212,0.221311122179031,2012-01-17 13:56:31
1.01699995994568,47,-7.10710859298706,0.026627741754055,0.0299851465970278,0.0517459101974964,0.0149956149980426,0.0188810713589191,0.0976079702377319,0.0608816482126713,4.65711545944214,0.029770640656352,0.0383953750133514,0.108916252851486,0.0876265019178391,0.167613431811333,0.0570462197065353,0.0891344919800758,4.58408689498901,0.0377705916762352,0.0447257086634636,0.11329822987318,0.0686242133378983,0.133280888199806,0.0863615721464157,0.0277073141187429,2012-01-17 13:56:32
1.02500009536743,36,-7.09102487564087,0.0187507085502148,0.023272916674614,0.0596570819616318,0.0138857224956155,0.0202297195792198,0.00371052790433168,0.00139284832403064,4.69901990890503,0.0252429991960526,0.0286376811563969,0.0506676025688648,0.000100957186077721,0.000493679253850132,0.00185304426122457,0.00529586244374514,4.56227111816406,0.0231243129819632,0.0267680548131466,0.0512124449014664,0.00987702142447233,0.00861434824764729,0.0293405093252659,0.0264990366995335,2012-01-17 13:56:33
1.00600004196167,48,-7.11554145812988,0.0285348147153854,0.0330647863447666,0.06456059217453,0.0141431447118521,0.0533701069653034,0.0759192705154419,0.109309330582619,4.6702127456665,0.0206347908824682,0.0239577386528254,0.0467858128249645,0.00114499591290951,0.00238048937171698,0.0552907809615135,0.0498805604875088,4.59645843505859,0.0256233997642994,0.0331328585743904,0.100926913321018,0.00935788452625275,0.060369748622179,0.0475995764136314,0.0132126500830054,2012-01-17 13:56:34
1.0090000629425,33,-7.13508081436157,0.0219367481768131,0.0277406927198172,0.0644863992929459,0.000817398715298623,0.00212607905268669,0.0125220101326704,0.011670439504087,4.62963008880615,0.0232874993234873,0.0306678395718336,0.0891515836119652,0.0128000853583217,0.0187436230480671,0.00657400069758296,0.00574284000322223,4.6138801574707,0.0292670074850321,0.0346610508859158,0.0832080692052841,0.00185684813186526,0.0100005632266402,0.0338384285569191,0.0508793890476227,2012-01-17 13:56:35
1.00099992752075,48,-7.09674549102783,0.0287390388548374,0.0353773795068264,0.0915289223194122,0.161628514528275,0.218685984611511,0.0217671766877174,0.0118551542982459,4.60258769989014,0.0277856942266226,0.0346911326050758,0.114410988986492,0.105252154171467,0.080860435962677,0.0528454631567001,0.103121407330036,4.65775012969971,0.0266618076711893,0.0321506448090076,0.0780449137091637,0.0675934478640556,0.113708317279816,0.0317636765539646,0.0257974229753017,2012-01-17 13:56:36
1.21700000762939,37,-7.09338808059692,0.022192157804966,0.0278360676020384,0.0816336944699287,0.0151137001812458,0.0333948098123074,0.0373745448887348,0.00920889154076576,4.61893224716187,0.0233240462839603,0.0316748656332493,0.117679759860039,0.0222217980772257,0.0271327011287212,0.00500600039958954,0.0105066010728478,4.6613392829895,0.0385961681604385,0.0439781844615936,0.0752725452184677,0.0551576279103756,0.0914425104856491,0.0734095126390457,0.117765888571739,2012-01-17 13:56:37
1.01300001144409,43,-7.12966251373291,0.0193906389176846,0.0233115628361702,0.0492615699768066,0.00305804261006415,0.0137246875092387,0.0135416416451335,0.0194542426615953,4.60821294784546,0.030995350331068,0.0377634465694427,0.0793655514717102,0.000382917263777927,0.0246896799653769,0.0741593763232231,0.0224732030183077,4.61916017532349,0.0453896522521973,0.0582089871168137,0.127714604139328,0.213165193796158,0.248760998249054,0.229626193642616,0.0425469130277634,2012-01-17 13:56:38
1.06500005722046,45,-7.12420415878296,0.023187417536974,0.0273964293301105,0.0444569252431393,0.00353048951365054,0.0441418439149857,0.163639575242996,0.0242601353675127,4.59190940856934,0.0478856414556503,0.0545093864202499,0.0956694260239601,0.0841940864920616,0.435595154762268,0.286944597959518,0.0347968451678753,4.63593053817749,0.0264416933059692,0.0335535332560539,0.0810682624578476,0.00125693948939443,0.0497241094708443,0.0285292509943247,0.0256737042218447,2012-01-17 13:56:39
1.03600001335144,52,-7.12471961975098,0.0297754798084497,0.0364144891500473,0.0835452973842621,0.0110630402341485,0.0510231405496597,0.29169374704361,0.106094799935818,4.56801271438599,0.0287381559610367,0.0346738584339619,0.0803393498063087,0.0422559790313244,0.0429548844695091,0.0717398300766945,0.151617527008057,4.65306663513184,0.0396110676229,0.0453694351017475,0.0835450738668442,0.0105235790833831,0.216040208935738,0.13944374024868,0.0283630099147558,2012-01-17 13:56:40
1.0149998664856,37,-7.13022947311401,0.0204729754477739,0.0275851394981146,0.0596352927386761,0.0224178377538919,0.0374096222221851,0.018817774951458,0.0077692992053926,4.54445457458496,0.0303869992494583,0.0408151559531689,0.103897735476494,1.20521117423777e-05,0.0104986261576414,0.0969048961997032,0.0941745415329933,4.63403940200806,0.0454444698989391,0.0548431910574436,0.0927655920386314,0.00632286258041859,0.0800934508442879,0.236325606703758,0.0442690290510654,2012-01-17 13:56:41
1.0090000629425,48,-7.12882137298584,0.0231121107935905,0.0281964503228664,0.0582272410392761,0.0521427690982819,0.145690679550171,0.0833491161465645,0.00786550343036652,4.55498456954956,0.0404099300503731,0.0510743297636509,0.122787587344646,0.323458880186081,0.669237911701202,0.157086715102196,0.0268487725406885,4.69534206390381,0.037030253559351,0.0457770563662052,0.109916009008884,0.00152945495210588,0.0908484682440758,0.205007880926132,0.118722394108772,2012-01-17 13:56:42
1.07599997520447,35,-7.13083553314209,0.0183325242251158,0.0228661019355059,0.0504344515502453,0.00104483298491687,0.00513190310448408,0.023310849443078,0.0105040920898318,4.53515529632568,0.0236159730702639,0.0274728648364544,0.064163401722908,0.00367408059537411,0.00771568296477199,0.0139219155535102,0.0062588257715106,4.71279573440552,0.0351437702775002,0.045774769037962,0.121882438659668,0.0652552172541618,0.103278458118439,0.0770554095506668,0.034090917557478,2012-01-17 13:56:43
1.00999999046326,51,-7.12520408630371,0.0222752802073956,0.0293401498347521,0.0728769227862358,0.0211379006505013,0.0121327536180615,0.0490407757461071,0.0179954878985882,4.5522084236145,0.0371152050793171,0.0440291799604893,0.080375999212265,0.210756361484528,0.194708570837975,0.0205724854022264,0.0168106593191624,4.69296264648438,0.0215285941958427,0.0251947231590748,0.0642238333821297,0.0385559983551502,0.0445022471249104,0.0210544671863317,0.0426423810422421,2012-01-17 13:56:44
1.00300002098083,34,-7.12712717056274,0.0236175842583179,0.0284482669085264,0.0565326511859894,0.000482986535644159,0.00280626234598458,0.0035773292183876,0.0232869256287813,4.56412982940674,0.0327453911304474,0.0380641557276249,0.0922977924346924,0.000254636048339307,0.0209937039762735,0.0717163980007172,0.0253588669002056,4.71382570266724,0.0425520054996014,0.0534873753786087,0.124313943088055,0.0598652027547359,0.0729470998048782,0.0192317645996809,0.0233392100781202,2012-01-17 13:56:45
1.01300001144409,49,-7.10781955718994,0.0228564571589231,0.0287096723914146,0.0706480741500854,0.00419672532007098,0.0606796257197857,0.21093538403511,0.108660936355591,4.5879111289978,0.041391383856535,0.0518672876060009,0.109474383294582,0.147921487689018,0.497616231441498,0.293605983257294,0.18393637239933,4.69778537750244,0.0460066609084606,0.056767288595438,0.137693583965302,0.177618727087975,0.560083329677582,0.245848074555397,0.208111524581909,2012-01-17 13:56:46
1,48,-7.11288547515869,0.0393033847212791,0.0480908825993538,0.110937781631947,0.0216965451836586,0.202455967664719,0.300256788730621,0.0665061175823212,4.55559730529785,0.0269001796841621,0.0361960716545582,0.113184936344624,0.00353976059705019,0.0339497551321983,0.0474860519170761,0.0108417822048068,4.6806321144104,0.0454748757183552,0.0520059503614902,0.095206081867218,0.156154409050941,0.269546896219254,0.0568284280598164,0.0777416750788689,2012-01-17 13:56:47
1.03799986839294,24,-7.09797143936157,0.0226439163088799,0.0272976122796535,0.0510765500366688,0.00148897769395262,0.00275311479344964,0.0034338696859777,0.0060495575889945,4.54865074157715,0.0268320366740227,0.031225910410285,0.0572053603827953,0.00374827836640179,0.00718290777876973,0.00955553073436022,0.0035801709163934,4.69901990890503,0.0472625233232975,0.0643479228019714,0.174884960055351,0.0126367388293147,0.0267378836870193,0.0524611882865429,0.0114041399210691,2012-01-17 13:56:48
1.01600003242493,50,-7.10864400863647,0.016083050519228,0.0199672244489193,0.0478565394878387,0.00462076254189014,0.0114479744806886,0.00639969017356634,0.0236475244164467,4.59500360488892,0.019958607852459,0.0276096183806658,0.0839449390769005,7.29586099623702e-05,0.0387226529419422,0.0303137451410294,0.0119526153430343,4.71386051177979,0.0270035453140736,0.0373394563794136,0.104734838008881,0.0300223808735609,0.244851991534233,0.318998754024506,0.228279501199722,2012-01-17 13:56:49
1.00300002098083,40,-7.11276292800903,0.0303517617285252,0.0376760475337505,0.0951246172189713,0.021410608664155,0.0694590061903,0.125932738184929,0.0248991437256336,4.57406663894653,0.0231437254697084,0.0297360103577375,0.0840922966599464,0.0143138067796826,0.0478737056255341,0.0807565674185753,0.0306324511766434,4.70449495315552,0.046115692704916,0.0526730082929134,0.0953695029020309,0.0588071681559086,0.0878930166363716,0.0547838062047958,0.0635284781455994,2012-01-17 13:56:50
1.01200008392334,41,-7.12345457077026,0.0196017418056726,0.0244931187480688,0.0626670941710472,3.43857645930257e-05,0.00739861419424415,0.0556428879499435,0.00933031551539898,4.55195951461792,0.0131144030019641,0.0164812989532948,0.0409008339047432,0.00407147454097867,0.00585733028128743,0.0109281726181507,0.00823185592889786,4.7523980140686,0.0290640369057655,0.0364286117255688,0.074626088142395,0.0204401183873415,0.0234530288726091,0.0183913614600897,0.0186818242073059,2012-01-17 13:56:51
1.01300001144409,49,-7.10521793365479,0.0341294258832932,0.0401711128652096,0.0836567953228951,0.315597265958786,0.411038368940353,0.141512930393219,0.0400967262685299,4.53607559204102,0.0286887921392918,0.0344337522983551,0.0936633497476578,0.0019087337423116,0.0346604883670807,0.121037520468235,0.0666733011603355,4.74261569976807,0.0377479791641235,0.0469606444239616,0.101868905127048,0.15859267115593,0.469260275363922,0.326999306678772,0.0334561057388783,2012-01-17 13:56:53
1.0019998550415,41,-7.09953594207764,0.0220869164913893,0.0286486390978098,0.0681682005524635,0.00392942642793059,0.00859289336949587,0.0238999538123608,0.0110961105674505,4.54932880401611,0.0249453894793987,0.0303078722208738,0.0696036294102669,0.000525632814969867,0.00276242592372,0.0280329305678606,0.0783183574676514,4.71604204177856,0.0353178791701794,0.0469463430345058,0.0971095860004425,0.0390813238918781,0.178528904914856,0.0886202603578568,0.070528581738472,2012-01-17 13:56:54
1.00500011444092,24,-7.12207937240601,0.0175704024732113,0.0217910036444664,0.0612917728722095,0.00146734225563705,0.00275816675275564,0.00301159312948585,0.0041898200288415,4.55110263824463,0.0213158279657364,0.026392562314868,0.0580230355262756,0.000171148552908562,0.000394276255974546,0.00256560696288943,0.00195511570200324,4.70841789245605,0.0361619591712952,0.0430555194616318,0.0992921590805054,3.0022210921743e-05,0.000297293998301029,0.00618491182103753,0.0103325648233294,2012-01-17 13:56:55
1.03099989891052,51,-7.11232089996338,0.0261965021491051,0.0315446332097054,0.0711464136838913,0.000829111144412309,0.0037012449465692,0.115692757070065,0.019360763952136,4.56393766403198,0.0305397398769855,0.0386492908000946,0.0942210108041763,0.00282765901647508,0.0354189500212669,0.170591831207275,0.0508345291018486,4.74334192276001,0.0277496427297592,0.0332695282995701,0.0717230215668678,0.122804366052151,0.132958069443703,0.0920215249061584,0.117670938372612,2012-01-17 13:56:56
1,38,-7.09665966033936,0.0183230582624674,0.0207759570330381,0.0358717702329159,0.000265556329395622,0.00088077737018466,0.0117833092808723,0.012207355350256,4.54976940155029,0.0283333603292704,0.0361335054039955,0.0789696201682091,0.00350536522455513,0.0216272473335266,0.0226916410028934,0.00788678042590618,4.70151424407959,0.0301533583551645,0.0349719598889351,0.0743239521980286,0.00144209165591747,0.04690907523036,0.0651243403553963,0.0148021196946502,2012-01-17 13:56:57
1.00200009346008,49,-7.09541130065918,0.0208468213677406,0.0267359893769026,0.064043402671814,0.00208357535302639,0.0534986220300198,0.110176883637905,0.0487912185490131,4.58410835266113,0.0213451683521271,0.0285094119608402,0.0730495378375053,0.0233320165425539,0.0754469931125641,0.0511819683015347,0.036904189735651,4.76242923736572,0.0422489941120148,0.0521820336580276,0.121282503008842,0.103161245584488,0.251583933830261,0.334055602550507,0.203443989157677,2012-01-17 13:56:58
1.04999995231628,44,-7.11494731903076,0.0392166376113892,0.0475620739161968,0.11299940943718,0.0384353809058666,0.131269842386246,0.0889182463288307,0.034781888127327,4.53245496749878,0.0200590211898088,0.024674117565155,0.0606228224933147,0.0109349647536874,0.0625110939145088,0.137737974524498,0.0329389162361622,4.70407152175903,0.0415971763432026,0.0529663152992725,0.124366380274296,0.0588329173624516,0.0946977585554123,0.100546807050705,0.0395026281476021,2012-01-17 13:56:59
1.0090000629425,32,-7.10461139678955,0.0148058198392391,0.0206558965146542,0.0732434391975403,0.00339966989122331,0.00509069813415408,0.00528899300843477,0.0186122749000788,4.55672121047974,0.0476925298571587,0.0575284846127033,0.121050998568535,0.01330082770437,0.0283589381724596,0.0524359680712223,0.0289662424474955,4.69554662704468,0.0308755710721016,0.0335651189088821,0.0471944212913513,0.0133334947749972,0.0232478883117437,0.0264457855373621,0.0131764840334654,2012-01-17 13:57:00
1.00999999046326,42,-7.08950710296631,0.0139761446043849,0.018826175481081,0.0483327247202396,0.000108168285805732,0.00739431753754616,0.028657203540206,0.0117910830304027,4.55705690383911,0.0375921949744225,0.042449988424778,0.0814888253808022,0.0575803481042385,0.108871459960938,0.192754566669464,0.0167988054454327,4.70205497741699,0.0399381257593632,0.0480538420379162,0.0933965072035789,0.0354597568511963,0.0272653140127659,0.0749325528740883,0.132027506828308,2012-01-17 13:57:01
1.03999996185303,48,-7.11676740646362,0.0355492830276489,0.0403327010571957,0.100926838815212,0.127644866704941,0.248820543289185,0.0927056521177292,0.0383880510926247,4.55048990249634,0.0378049612045288,0.0435582399368286,0.0884640514850616,0.0271059516817331,0.210932910442352,0.2089002430439,0.115714117884636,4.6681694984436,0.0329526998102665,0.0447381623089314,0.107668697834015,0.000886639463715255,0.068279393017292,0.467318624258041,0.161618426442146,2012-01-17 13:57:02
1.01699995994568,35,-7.12691259384155,0.0292039271444082,0.0361912958323956,0.0907815918326378,2.90110820060363e-05,0.014454236254096,0.0866623148322105,0.0419353805482388,4.56849765777588,0.0445903055369854,0.0565609894692898,0.135892063379288,0.0164430718868971,0.0289234314113855,0.0324356704950333,0.106853455305099,4.73128843307495,0.0256493482738733,0.0378971211612225,0.102549359202385,0.0232841242104769,0.0356876440346241,0.0164481289684772,0.0236261133104563,2012-01-17 13:57:03
1.2810001373291,43,-7.12350463867188,0.0340714827179909,0.041018258780241,0.0921370163559914,0.0342008210718632,0.0292082671076059,0.0416863784193993,0.0308965276926756,4.57172298431396,0.0330212935805321,0.0427335165441036,0.115855470299721,0.010215044952929,0.0476755425333977,0.13976739346981,0.196847632527351,4.70878839492798,0.0388870909810066,0.047051414847374,0.099662758409977,0.00466077495366335,0.00486747128888965,0.194309949874878,0.278837293386459,2012-01-17 13:57:04
1.01199984550476,49,-7.14584541320801,0.0549107752740383,0.0640585124492645,0.130688577890396,0.220431283116341,0.759807765483856,0.637016236782074,0.0774942263960838,4.52466821670532,0.0441523604094982,0.054070733487606,0.153103977441788,0.000118849835416768,0.170371785759926,0.603249251842499,0.0804888755083084,4.67416954040527,0.0318419449031353,0.0373658686876297,0.065043993294239,0.00527240382507443,0.16877070069313,0.116430573165417,0.0599132962524891,2012-01-17 13:57:05
1.00100016593933,38,-7.10156297683716,0.0161905512213707,0.0204381681978703,0.0603883378207684,0.000157408765517175,0.0013128014979884,0.0193606279790401,0.0130782704800367,4.58099555969238,0.0258206333965063,0.0328480191528797,0.0771630927920341,3.42414496117271e-05,0.0131503427401185,0.0419903919100761,0.0453326776623726,4.68293333053589,0.0557430423796177,0.0678953900933266,0.141938179731369,0.000135186215629801,0.0560749582946301,0.320488840341568,0.134091913700104,2012-01-17 13:57:06
1.00899982452393,47,-7.11336803436279,0.0225523859262466,0.0276951305568218,0.0650996044278145,0.0319237820804119,0.0387531369924545,0.0161423832178116,0.0383252277970314,4.54736423492432,0.0211759340018034,0.0258997268974781,0.0755319371819496,0.000920592981856316,0.000534895400051028,0.0051614185795188,0.0641477331519127,4.75601625442505,0.03069400601089,0.0397699251770973,0.0884683504700661,0.0996932461857796,0.114106461405754,0.0255152732133865,0.0602341257035732,2012-01-17 13:57:07
1,35,-7.10197591781616,0.0286915805190802,0.0337929464876652,0.0706079453229904,0.00617361394688487,0.0334056578576565,0.0501209758222103,0.0236635617911816,4.58783102035522,0.0229276474565268,0.0271857734769583,0.0703279078006744,0.00108047178946435,0.00208043004386127,0.0148217426612973,0.0206701029092073,4.70467042922974,0.0276667140424252,0.0323421731591225,0.0759313553571701,0.0218838769942522,0.0319324620068073,0.0205852650105953,0.0140568539500237,2012-01-17 13:57:08
1.20700001716614,38,-7.11343383789062,0.0468330197036266,0.0546207390725613,0.133680149912834,9.26684776914044e-07,0.0925644040107727,0.109926737844944,0.0119339013472199,4.54899501800537,0.0292297787964344,0.0375231988728046,0.0967760235071182,0.00221273163333535,0.00980890262871981,0.0247786156833172,0.0750289335846901,4.71674060821533,0.0250327214598656,0.0308055188506842,0.0590978674590588,0.00118247407954186,0.00244350708089769,0.026856929063797,0.0413527861237526,2012-01-17 13:57:09
1.01100015640259,45,-7.11723041534424,0.0309843365103006,0.0409932918846607,0.115282729268074,0.031875628978014,0.035997848957777,0.0297067519277334,0.0278019439429045,4.56510448455811,0.0295507814735174,0.0353658683598042,0.0734411552548409,0.00200873310677707,0.00650148838758469,0.0868717133998871,0.0611958652734756,4.70849943161011,0.0323400981724262,0.0405446253716946,0.0895672515034676,0.0747349262237549,0.106319531798363,0.0727116614580154,0.180708944797516,2012-01-17 13:57:10
1.19199991226196,41,-7.20693063735962,0.065852090716362,0.0806005001068115,0.197089910507202,0.339264929294586,0.685860514640808,0.650696039199829,0.0808477774262428,4.5629620552063,0.0192865859717131,0.0227415859699249,0.0461633950471878,0.009571248665452,0.0283995885401964,0.0430557988584042,0.00726157007738948,4.56870269775391,0.144853740930557,0.158441573381424,0.312617033720016,2.39345169067383,3.88946771621704,1.37370073795319,0.11652983725071,2012-01-17 13:57:11
1.01200008392334,51,-7.29114770889282,0.0572034940123558,0.065436378121376,0.142292782664299,0.5460045337677,1.18814206123352,0.341107547283173,0.0503889918327332,4.72603607177734,0.18945948779583,0.211302787065506,0.412648260593414,9.3964376449585,16.4013805389404,3.30020904541016,0.433581411838531,4.19051599502563,0.304160714149475,0.325860768556595,0.522829115390778,26.0426254272461,44.5417938232422,7.485267162323,0.216243267059326,2012-01-17 13:57:12
1.25799989700317,40,-8.12922191619873,0.84768682718277,0.934586942195892,1.52052080631256,96.7303771972656,163.972274780273,65.027473449707,5.00471448898315,3.7669792175293,1.21351158618927,1.3741180896759,3.20800018310547,203.569458007812,366.161865234375,164.677734375,28.2035121917725,4.12075424194336,0.174754500389099,0.220673590898514,0.439337760210037,3.59828853607178,5.58933782577515,1.8718626499176,0.695052027702332,2012-01-17 13:57:14
1.01099991798401,42,-8.67001247406006,0.242497891187668,0.285436153411865,0.656111896038055,3.03123712539673,3.5574266910553,3.6591534614563,2.03428292274475,-3.70154333114624,1.37546598911285,1.71158945560455,3.86825633049011,296.153381347656,305.941070556641,33.2947654724121,14.9918718338013,2.33981990814209,0.566006004810333,0.777333855628967,2.03394603729248,46.6787605285645,44.6359672546387,7.45301485061646,1.50000774860382,2012-01-17 13:57:15
1.01999998092651,50,-8.22601413726807,0.0998316928744316,0.131770014762878,0.423451513051987,2.26448202133179,2.25074410438538,0.865831792354584,0.299469798803329,-5.60312747955322,0.149641618132591,0.178003653883934,0.454636543989182,4.85900592803955,3.67538642883301,0.585383057594299,0.434940040111542,1.74793720245361,0.0913822799921036,0.109370484948158,0.28203934431076,0.0361603833734989,0.387852251529694,1.37807512283325,0.238468408584595,2012-01-17 13:57:16
1.01200008392334,34,-7.92261934280396,0.125823765993118,0.170865103602409,0.459758698940277,0.22186204791069,0.443092286586761,0.197207108139992,0.242516219615936,-5.96417379379272,0.0756707638502121,0.0958042368292809,0.188056811690331,0.04505929723382,0.122259892523289,0.161898881196976,0.161751627922058,1.94979274272919,0.0841539576649666,0.108147360384464,0.331695526838303,0.225678697228432,0.265107572078705,0.10292549431324,0.116185121238232,2012-01-17 13:57:17
1,47,-8.0397834777832,0.0668043047189713,0.0843436121940613,0.214077040553093,0.868757009506226,1.42744827270508,0.514548480510712,0.680795311927795,-5.88127756118774,0.0551640018820763,0.0681439563632011,0.159619048237801,0.0282499473541975,0.133997574448586,0.450875788927078,0.531330943107605,2.10279607772827,0.0640606060624123,0.081666961312294,0.229725956916809,0.386202722787857,0.273348957300186,0.206034377217293,0.243944630026817,2012-01-17 13:57:18
1.08899998664856,36,-8.01067066192627,0.0645604133605957,0.0769804567098618,0.168075457215309,0.00635173311457038,0.0546822175383568,0.0463538579642773,0.128159090876579,-5.9853253364563,0.0564791597425938,0.0695359110832214,0.160175278782845,0.0432008616626263,0.0448141694068909,0.0053705470636487,0.0740832313895226,1.97821915149689,0.103363290429115,0.117193251848221,0.208663791418076,0.548202276229858,0.839504420757294,0.748454868793488,0.145562142133713,2012-01-17 13:57:19
1.01500010490417,50,-8.01085567474365,0.0463813468813896,0.0528336316347122,0.116503037512302,0.15191438794136,0.30395895242691,0.092147558927536,0.123671263456345,-5.94636011123657,0.0606286413967609,0.0742399320006371,0.153376087546349,0.266359835863113,0.968834221363068,0.656499087810516,0.193510562181473,1.7816721200943,0.0506023205816746,0.0602431707084179,0.143961668014526,0.403519749641418,1.02279937267303,0.358079075813293,0.14741162955761,2012-01-17 13:57:20
1.00600004196167,41,-8.01227188110352,0.0509174130856991,0.057201974093914,0.108112253248692,0.159490048885345,0.456919997930527,0.199854552745819,0.0329057760536671,-5.99018859863281,0.0515477396547794,0.0629575178027153,0.129160791635513,0.241969272494316,0.593754529953003,0.24763759970665,0.0704663917422295,1.76424014568329,0.0737861469388008,0.0908606871962547,0.195176303386688,0.496781408786774,0.776360273361206,0.146208927035332,0.469220191240311,2012-01-17 13:57:21
1.04299998283386,45,-8.09484481811523,0.0277979578822851,0.0339435823261738,0.0740949437022209,0.00355505500920117,0.01017109118402,0.0529664792120457,0.0824676305055618,-5.87200403213501,0.0227126460522413,0.0269470456987619,0.0566605478525162,0.0181788876652718,0.0287328287959099,0.0162758100777864,0.0335832200944424,1.70003724098206,0.0539680607616901,0.0633912533521652,0.130973309278488,0.0857314020395279,0.134064763784409,0.129877731204033,0.229873538017273,2012-01-17 13:57:22
1.03199982643127,27,-8.14968967437744,0.0200168304145336,0.0248207319527864,0.0592030063271523,0.00358036905527115,0.00680623948574066,0.00804401934146881,0.0018963246839121,-5.785560131073,0.0315857157111168,0.0367398038506508,0.0682836845517159,0.0160102304071188,0.0263577066361904,0.0176210217177868,0.0131515245884657,1.67730033397675,0.0265277214348316,0.031859066337347,0.0592031292617321,0.00948123633861542,0.0153560135513544,0.0122355949133635,0.0094448933377862,2012-01-17 13:57:23
1.01300001144409,50,-8.15815162658691,0.056878712028265,0.0714811831712723,0.165732368826866,0.195523530244827,1.49216103553772,1.20928049087524,0.310189932584763,-5.74473524093628,0.057427853345871,0.067857563495636,0.139254420995712,0.52759462594986,0.711198329925537,0.187902837991714,0.129132375121117,1.54905843734741,0.0580710433423519,0.0708243697881699,0.185934036970139,0.472336769104004,0.979967892169952,1.01394939422607,0.0474372059106827,2012-01-17 13:57:24
1.01800012588501,34,-8.16980457305908,0.0943169891834259,0.110601589083672,0.263914048671722,0.247470736503601,0.454190671443939,0.283684760332108,0.0229711607098579,-5.96417379379272,0.0591454096138477,0.0648964047431946,0.125755935907364,0.17884087562561,0.291723728179932,0.130303755402565,0.0382667295634747,1.13785982131958,0.0885313153266907,0.108591452240944,0.284681290388107,0.586075484752655,0.888527154922485,0.425045758485794,0.216637775301933,2012-01-17 13:57:25
1.00300002098083,50,-8.12284851074219,0.0367947444319725,0.0428026728332043,0.0755113437771797,0.13968101143837,0.105609975755215,0.238489046692848,0.029657268896699,-5.98735189437866,0.0403878390789032,0.0493933111429214,0.132782027125359,0.343353897333145,0.360900193452835,0.157993137836456,0.107293158769608,0.925159335136414,0.0395639427006245,0.0495642386376858,0.124152183532715,0.0506731681525707,0.0848189294338226,0.0473464094102383,0.159961432218552,2012-01-17 13:57:26
1.01699995994568,46,-8.12779426574707,0.0310792587697506,0.036327987909317,0.0765351429581642,0.0391583777964115,0.0409613698720932,0.242207050323486,0.0965486615896225,-5.94048452377319,0.0392173118889332,0.0471723899245262,0.115334585309029,0.0590522289276123,0.125826150178909,0.260101735591888,0.0716506615281105,0.934829533100128,0.0371596030890942,0.0460451617836952,0.104675337672234,0.00278733274899423,0.106976799666882,0.154658555984497,0.138569533824921,2012-01-17 13:57:27
1.00099992752075,34,-8.14413452148438,0.0250425431877375,0.0315748937427998,0.0640315413475037,0.0163953006267548,0.0257289428263903,0.0136319296434522,0.0112546645104885,-5.9165825843811,0.0469972528517246,0.0557657107710838,0.114507280290127,0.0799552425742149,0.156498610973358,0.154836177825928,0.0259935464709997,0.927882134914398,0.0449273511767387,0.0542901679873466,0.111622765660286,0.0324618592858315,0.0364623107016087,0.0621020421385765,0.0215872433036566,2012-01-17 13:57:28
1.01100015640259,42,-8.14955997467041,0.0693693086504936,0.0913072675466537,0.205705985426903,0.0526702776551247,0.21563620865345,0.141766101121902,0.570487260818481,-5.96711301803589,0.0822113752365112,0.0964238941669464,0.181189462542534,0.153395503759384,0.758186876773834,0.898946225643158,0.482819974422455,0.872324824333191,0.0869478434324265,0.130011036992073,0.450638920068741,0.354522824287415,0.931486010551453,2.18325972557068,1.84389746189117,2012-01-17 13:57:29
1,44,-8.20616054534912,0.0720910057425499,0.0964388847351074,0.272580713033676,0.00257802940905094,0.0176807250827551,0.611452519893646,0.561153292655945,-5.9214334487915,0.0787773653864861,0.109187692403793,0.243383347988129,0.0201921034604311,0.118320479989052,0.436812669038773,0.061597403138876,0.75288325548172,0.0957971885800362,0.114418923854828,0.26255077123642,0.685719609260559,0.819915652275085,0.255154490470886,0.233921721577644,2012-01-17 13:57:30
1.01899981498718,47,-8.10884761810303,0.116037391126156,0.147351622581482,0.36159411072731,0.977634012699127,2.97804808616638,1.71022820472717,1.70875346660614,-5.93364906311035,0.0764288380742073,0.0967939123511314,0.235985770821571,0.520197927951813,1.03420686721802,0.369723379611969,0.23936839401722,1.15551543235779,0.228647217154503,0.270330369472504,0.488663285970688,13.4035615921021,18.6504020690918,3.3202793598175,2.12447571754456,2012-01-17 13:57:31
1.01200008392334,37,-8.18775749206543,0.115229845046997,0.163245022296906,0.442093759775162,0.274712890386581,0.405308693647385,0.504197418689728,0.224648952484131,-5.82833051681519,0.13988621532917,0.180697038769722,0.389085322618484,2.20821952819824,3.59022116661072,2.15737342834473,0.475300937891006,1.27512955665588,0.193296298384666,0.220954045653343,0.490067422389984,1.76566028594971,2.35626292228699,0.461704969406128,0.0230300333350897,2012-01-17 13:57:32
1.01600003242493,43,-8.7306547164917,0.210283473134041,0.252534300088882,0.428755462169647,9.13531589508057,11.6028079986572,4.01648139953613,1.889195561409,-4.28003263473511,0.816184818744659,0.946518778800964,1.94604980945587,139.870498657227,202.853012084961,56.5282402038574,13.9417314529419,1.53964400291443,0.170590087771416,0.192321538925171,0.431492567062378,4.38195085525513,7.1017050743103,2.10539746284485,0.29782173037529,2012-01-17 13:57:33
1.00399994850159,35,-8.86184883117676,0.518223404884338,0.607862949371338,1.49397361278534,11.3196172714233,15.5368747711182,2.92145228385925,0.740868508815765,2.62453961372375,0.986076653003693,1.39155161380768,4.86045598983765,53.0657272338867,61.0476684570312,12.1132345199585,2.71149253845215,3.16502618789673,0.406499654054642,0.529529750347137,1.47828245162964,1.57040882110596,3.50791001319885,3.20971179008484,0.0611457824707031,2012-01-17 13:57:34
1.00500011444092,48,-8.33544826507568,0.128116250038147,0.152535736560822,0.363050729036331,0.669770658016205,0.381284862756729,3.79307317733765,4.95991277694702,3.74940896034241,0.12176588922739,0.145474478602409,0.317081570625305,0.439244598150253,3.24453783035278,3.86159753799438,0.758440613746643,3.08807325363159,0.225672110915184,0.243454217910767,0.354061007499695,10.5194959640503,20.9089908599854,3.67530131340027,0.565286099910736,2012-01-17 13:57:35
1.0149998664856,28,-8.36262035369873,0.145873785018921,0.181576699018478,0.414331167936325,0.00347561808302999,0.0733001157641411,0.312025129795074,0.156672582030296,3.49291849136353,0.416882693767548,0.451342284679413,0.658796787261963,0.0173532888293266,0.824509501457214,3.65436673164368,0.946061611175537,3.6599817276001,0.284542918205261,0.308818876743317,0.404174119234085,0.257245242595673,1.05139553546906,2.97118735313416,0.998620808124542,2012-01-17 13:57:36
1.01500010490417,55,-8.01096248626709,0.0886131823062897,0.106784485280514,0.207009837031364,0.762546479701996,1.86896502971649,0.299599647521973,0.343776673078537,4.08758974075317,0.110644973814487,0.129548907279968,0.302223116159439,0.0790219083428383,4.00923824310303,0.487199991941452,0.0933121368288994,3.33176469802856,0.129402413964272,0.146763205528259,0.257469177246094,5.84074878692627,9.60765361785889,1.20486426353455,0.366219282150269,2012-01-17 13:57:37
1.0019998550415,43,-8.1046257019043,0.039608757942915,0.0476362444460392,0.0937334969639778,0.182779788970947,0.246256276965141,0.0703062862157822,0.157490566372871,3.78559494018555,0.127926632761955,0.153978228569031,0.372880846261978,3.27492904663086,5.11610221862793,1.8167644739151,0.743055999279022,3.5728132724762,0.099212110042572,0.117484286427498,0.241973280906677,1.24013519287109,1.98451495170593,0.375271499156952,0.18733249604702,2012-01-17 13:57:38
1.01999998092651,34,-8.23729801177979,0.0481848418712616,0.057156540453434,0.127774655818939,0.000704218109603971,0.0304147824645042,0.111817225813866,0.0290041547268629,3.46520853042603,0.0294199269264936,0.0392180979251862,0.0917210727930069,0.0141784083098173,0.0209294874221087,0.0055479658767581,0.0198856368660927,3.78190565109253,0.0447576679289341,0.0541789457201958,0.121140949428082,0.0283664688467979,0.082484282553196,0.106422170996666,0.082249753177166,2012-01-17 13:57:39
1.01500010490417,45,-8.21557521820068,0.0322044976055622,0.0416140109300613,0.110270142555237,0.00827066320925951,0.0509213991463184,0.194288089871407,0.0853571221232414,3.44256997108459,0.0553821623325348,0.066414050757885,0.136857330799103,0.0103430589661002,0.235825970768929,0.351413667201996,0.116043746471405,3.74657607078552,0.0510817244648933,0.0645868927240372,0.146663889288902,0.00767896231263876,0.219872713088989,0.680725693702698,0.129415050148964,2012-01-17 13:57:40
1.01799988746643,35,-8.20620441436768,0.0206219479441643,0.0289776101708412,0.080414392054081,0.0141014670953155,0.0196107495576143,0.00833433587104082,0.00627391785383224,3.51946640014648,0.0472960658371449,0.0627175271511078,0.136172369122505,0.108226254582405,0.172797337174416,0.0642058774828911,0.115885548293591,3.69542574882507,0.0297482404857874,0.0366546250879765,0.0703276842832565,0.00170818413607776,0.0264361873269081,0.0411376878619194,0.0324793420732021,2012-01-17 13:57:41
1.00100016593933,41,-8.21175384521484,0.0248520262539387,0.0290392115712166,0.0552520044147968,0.00316114188171923,0.0192938353866339,0.0591602511703968,0.0347448028624058,3.48734045028687,0.0253887604922056,0.0384339280426502,0.131313428282738,0.0684866234660149,0.0624713748693466,0.00670299353078008,0.0100369686260819,3.69686770439148,0.0204067714512348,0.0262147225439548,0.0684074014425278,0.0061389789916575,0.00418024184182286,0.0175653789192438,0.015082735568285,2012-01-17 13:57:42
1.01300001144409,40,-8.19983005523682,0.0274585727602243,0.0320445895195007,0.0603107921779156,0.00396073050796986,0.00683983229100704,0.0421546772122383,0.0642416253685951,3.48650908470154,0.0333302989602089,0.0382953509688377,0.0733048170804977,0.0693591758608818,0.109330713748932,0.160133332014084,0.0124992113560438,3.73412704467773,0.031736746430397,0.0377579741179943,0.0860534161329269,0.0116388779133558,0.0093629714101553,0.127972483634949,0.0573576465249062,2012-01-17 13:57:43
1.02699995040894,48,-8.22246742248535,0.019204655662179,0.021924490109086,0.0437212400138378,0.0180530045181513,0.0286053065210581,0.0399494506418705,0.0272165257483721,3.45418810844421,0.0449301078915596,0.0527055934071541,0.105625905096531,0.180186316370964,0.387823134660721,0.13560077548027,0.119160622358322,3.73980665206909,0.0300328377634287,0.03487279266119,0.0651732757687569,0.163025692105293,0.318018049001694,0.0757153183221817,0.0307697635143995,2012-01-17 13:57:44
1.00999999046326,36,-8.22941398620605,0.0323255695402622,0.0401353761553764,0.0800875052809715,0.0323095321655273,0.0650053471326828,0.0363644100725651,0.0469861552119255,3.45575451850891,0.0312662422657013,0.0397191271185875,0.101880222558975,0.00329994293861091,0.031533595174551,0.0621991232037544,0.0166571158915758,3.76275706291199,0.0164957251399755,0.0229776110500097,0.0716429054737091,0.00934570096433163,0.018516980111599,0.00704400660470128,0.00741349859163165,2012-01-17 13:57:45
1.03799986839294,48,-8.22491931915283,0.0247379131615162,0.0301569458097219,0.0715067014098167,0.0240193177014589,0.0751158371567726,0.149950787425041,0.0293374322354794,3.45684409141541,0.0277854856103659,0.0337344780564308,0.0833565965294838,0.0576525218784809,0.0979263037443161,0.183301761746407,0.0484711900353432,3.70037579536438,0.0314630344510078,0.0413323268294334,0.0947975516319275,0.0491387955844402,0.063968800008297,0.0267336182296276,0.0544297024607658,2012-01-17 13:57:46
1.00800013542175,29,-8.19835948944092,0.01623166911304,0.02154690772295,0.0588397979736328,0.00240732100792229,0.00425195693969727,0.00283412216231227,0.00231489888392389,3.46715807914734,0.0208492986857891,0.0236856713891029,0.0436226092278957,0.000473100139060989,0.00130244332831353,0.00648908596485853,0.00569827342405915,3.74918365478516,0.0329531133174896,0.0389809384942055,0.0913033485412598,6.29670757916756e-05,0.00334486295469105,0.0128033431246877,0.00865405518561602,2012-01-17 13:57:47
1.01399993896484,52,-8.21042919158936,0.0198743902146816,0.0243740007281303,0.0761899948120117,0.000197419780306518,0.00215254258364439,0.0861455574631691,0.0725012272596359,3.46457624435425,0.0275050196796656,0.0332746654748917,0.0714754834771156,0.0628500208258629,0.0342009887099266,0.14258973300457,0.106783486902714,3.7376537322998,0.0285059865564108,0.0379823744297028,0.0771329700946808,0.243368715047836,0.403610736131668,0.231940031051636,0.0611934661865234,2012-01-17 13:57:48
1.25699996948242,39,-8.22727680206299,0.0161316208541393,0.019856758415699,0.0495360679924488,0.00650768121704459,0.0204077567905188,0.0377356708049774,0.00839518290013075,3.4587299823761,0.0321085564792156,0.0382174849510193,0.0716639086604118,0.0468149781227112,0.104351840913296,0.0714711248874664,0.0402943231165409,3.76826810836792,0.0340169668197632,0.0402637720108032,0.0857454091310501,0.00287449569441378,0.0542825385928154,0.110847137868404,0.01623191870749,2012-01-17 13:57:49
1.00100016593933,44,-8.21641254425049,0.0222776718437672,0.0273359697312117,0.0505933128297329,0.015727648511529,0.0457096137106419,0.0582058355212212,0.0387671515345573,3.44191122055054,0.0221561472862959,0.031395822763443,0.0978436544537544,0.0271653309464455,0.0280199982225895,0.00323792663402855,0.00416584126651287,3.76129603385925,0.022044662386179,0.0264014042913914,0.0641888678073883,0.0219535268843174,0.0469283871352673,0.0296879429370165,0.0358916744589806,2012-01-17 13:57:50
1.01799988746643,47,-8.22464942932129,0.017100565135479,0.0214190967381001,0.0459033884108067,0.00648997072130442,0.0245279502123594,0.0344885550439358,0.0670962631702423,3.46905016899109,0.0175889059901237,0.0223870929330587,0.0563362091779709,0.000573937315493822,0.00456499960273504,0.053881574422121,0.0336590148508549,3.77368235588074,0.0238750949501991,0.0320903547108173,0.0803311616182327,0.0194147825241089,0.00947485025972128,0.045378103852272,0.0460931658744812,2012-01-17 13:57:51
1.00699996948242,35,-8.21741199493408,0.018508518114686,0.0224781148135662,0.0495935454964638,3.54224612237886e-05,0.000771773629821837,0.00791766587644815,0.0133830606937408,3.44745779037476,0.0268181804567575,0.037016898393631,0.102549411356449,0.00195463164709508,0.00887310691177845,0.0201301649212837,0.0340504236519337,3.77303838729858,0.0367768965661526,0.0430563353002071,0.0955448523163795,0.0272455606609583,0.0500080287456512,0.0648461803793907,0.0205356124788523,2012-01-17 13:57:52
1.02100014686584,32,-8.22073078155518,0.0271023157984018,0.0311306901276112,0.0560816824436188,0.00993735529482365,0.0141040123999119,0.00515438802540302,0.025929993018508,3.45316648483276,0.0114921480417252,0.0150632401928306,0.0380007028579712,4.92201834276784e-05,0.000676401017699391,0.00151046155951917,0.000937993638217449,3.78322172164917,0.0469646342098713,0.0535301864147186,0.110018357634544,0.0506148971617222,0.100576438009739,0.119974076747894,0.0380571149289608,2012-01-17 13:57:54
1.01399993896484,52,-8.22193336486816,0.0222897808998823,0.0258930828422308,0.0628001689910889,0.000115744180220645,0.0345665328204632,0.107264004647732,0.0226773321628571,3.41007375717163,0.0361076593399048,0.0421850830316544,0.0810934528708458,0.242672428488731,0.209454745054245,0.141445949673653,0.174237355589867,3.74482011795044,0.0223695915192366,0.0324697010219097,0.106553062796593,0.121172465384007,0.244917318224907,0.131289675831795,0.0800406858325005,2012-01-17 13:57:55
1.02199983596802,32,-8.24034404754639,0.0228119138628244,0.0297484640032053,0.0658883154392242,0.0248878486454487,0.0361029990017414,0.0119116576388478,0.0164800807833672,3.40750432014465,0.0296881422400475,0.0352719873189926,0.0634367391467094,0.000435089255915955,0.00470825331285596,0.0412092357873917,0.0244237165898085,3.79057669639587,0.0398203283548355,0.0521797575056553,0.122276656329632,4.30868967669085e-05,0.0297915618866682,0.0924333781003952,0.0550762005150318,2012-01-17 13:57:56
1.01600003242493,49,-8.25639915466309,0.0209284406155348,0.0282169580459595,0.0678458884358406,0.0017906401772052,0.0482971221208572,0.0271719712764025,0.0241479016840458,3.4127140045166,0.0188128408044577,0.0241841971874237,0.068646565079689,0.0456963554024696,0.0639570727944374,0.0263107065111399,0.00364339374937117,3.73953580856323,0.0238202195614576,0.0294791124761105,0.0718488097190857,0.000917297205887735,0.0192555114626884,0.0639421194791794,0.019423583522439,2012-01-17 13:57:57
1.01100015640259,47,-8.23320388793945,0.0202880539000034,0.0255732517689466,0.0642647445201874,0.000661353173200041,0.0073139276355505,0.0890936627984047,0.121495358645916,3.44317722320557,0.0335264131426811,0.0394468605518341,0.0696898624300957,0.0347758121788502,0.264270037412643,0.106099307537079,0.045594684779644,3.73591637611389,0.0276042185723782,0.0387520305812359,0.108290523290634,0.00345829385332763,0.0106721837073565,0.137339934706688,0.0367344133555889,2012-01-17 13:57:58
1.00399994850159,14,-8.27190971374512,0.0252170562744141,0.0313965454697609,0.0539364814758301,0.000352056144038215,0.000751934305299073,0.00179691379889846,0.00112489319872111,3.37348747253418,0.0518351085484028,0.0553507953882217,0.0784531310200691,0.00101608328986913,0.00211643986403942,0.0055604875087738,0.00524840177968144,3.76365208625793,0.0259175300598145,0.0299242530018091,0.0567383766174316,4.75648193969391e-05,9.21492610359564e-05,0.000383233418688178,0.00099273887462914,2012-01-17 13:57:59
