"diffSecs","level","azimuth.mean","azimuth.absolute.deviation","azimuth.standard.deviation","azimuth.max.deviation","pitch.mean","pitch.absolute.deviation","pitch.standard.deviation","pitch.max.deviation","roll.mean","roll.absolute.deviation","roll.standard.deviation","roll.max.deviation","time"
0.994000196456909,34,26.2705879211426,0.337716460227966,0.369840711355209,0.729411542415619,4.90882349014282,0.0942905768752098,0.12688022851944,0.308823704719543,-38.7588233947754,0.149480670690536,0.178420424461365,0.358822554349899,2012-01-17 11:02:00
6.20899963378906,6,26.2666664123535,0.0999997481703758,0.110553815960884,0.16666667163372,4.90000009536743,0.0666666030883789,0.0816495791077614,0.0999999046325684,-38.7333335876465,0.0666656494140625,0.0745344609022141,0.133331298828125,2012-01-17 11:02:07
0.417999982833862,99,26.7474746704102,0.217304185032845,0.281533658504486,0.74747508764267,4.94444465637207,0.137822613120079,0.167707145214081,0.444444537162781,-39.0393943786621,0.172084674239159,0.211687624454498,0.43939271569252,2012-01-17 11:02:07
0.170000076293945,99,26.6676769256592,0.161228656768799,0.214536592364311,0.632323861122131,5.28686857223511,0.274665832519531,0.343671917915344,0.713131189346313,-39,0.103030897676945,0.137804001569748,0.399998903274536,2012-01-17 11:02:07
1.00699996948242,75,26.6399993896484,0.241066873073578,0.293938905000687,0.660000801086426,4.98133325576782,0.144568845629692,0.183079823851585,0.481333434581757,-39.0880012512207,0.108053795993328,0.141383618116379,0.388000220060349,2012-01-17 11:02:08
1.01099991798401,49,26.7918376922607,0.464806139469147,0.508634090423584,1.10816252231598,5.44285726547241,0.187755018472672,0.213808923959732,0.557142734527588,-38.8204078674316,0.135943800210953,0.171404376626015,0.420407205820084,2012-01-17 11:02:09
1.01300001144409,29,25.6965522766113,0.217836067080498,0.280986875295639,0.703447461128235,4.78275871276855,0.190249726176262,0.22904446721077,0.517241477966309,-39.0482749938965,0.174078494310379,0.197607427835464,0.351725071668625,2012-01-17 11:02:10
1,49,26.1979598999023,0.324781268835068,0.374977320432663,0.802040338516235,4.6673469543457,0.132778108119965,0.156997069716454,0.332653015851974,-39.0428581237793,0.11895090341568,0.147080540657043,0.457141786813736,2012-01-17 11:02:11
1.00999999046326,43,26.0651168823242,0.344294220209122,0.380870282649994,0.634884119033813,4.63488388061523,0.0884804129600525,0.105397954583168,0.234883725643158,-39.0348854064941,0.131531238555908,0.161221966147423,0.33488392829895,2012-01-17 11:02:12
1.0090000629425,49,25.7877559661865,0.240566402673721,0.284018307924271,0.687754988670349,4.51632642745972,0.158100783824921,0.188816860318184,0.383673459291458,-39.0979614257812,0.108621619641781,0.133232340216637,0.302041411399841,2012-01-17 11:02:13
1.26200008392334,41,25.6268291473389,0.168947234749794,0.220890015363693,0.526829302310944,4.80000019073486,0.180487796664238,0.202424347400665,0.400000214576721,-39.117073059082,0.106126993894577,0.124748237431049,0.282927542924881,2012-01-17 11:02:15
1.00600004196167,52,26.3038463592529,0.427958488464355,0.501137733459473,0.996154606342316,4.67500019073486,0.11730781942606,0.141251340508461,0.324999928474426,-39.0096168518066,0.110725626349449,0.143124371767044,0.30961549282074,2012-01-17 11:02:16
1.00999999046326,46,25.8956527709961,0.265217155218124,0.332288861274719,0.604347467422485,4.4391303062439,0.0947069302201271,0.115114741027355,0.260869771242142,-39.1608695983887,0.11474422365427,0.142154291272163,0.339129418134689,2012-01-17 11:02:17
1.00799989700317,36,25.8055553436279,0.151851519942284,0.218510672450066,0.694443941116333,4.36666679382324,0.0962962359189987,0.117851078510284,0.266666859388351,-39.1472244262695,0.149536520242691,0.184821099042892,0.552777826786041,2012-01-17 11:02:18
1.00200009346008,39,25.9435901641846,0.311374068260193,0.352132648229599,0.756410479545593,4.71025657653809,0.188560172915459,0.230712279677391,0.589743733406067,-39.0512809753418,0.173175856471062,0.212279200553894,0.448717266321182,2012-01-17 11:02:19
1.01300001144409,45,26.4177780151367,0.388148128986359,0.480873703956604,1.08222186565399,4.99777793884277,0.188938230276108,0.219584330916405,0.402222186326981,-38.5888900756836,0.279506206512451,0.332146018743515,0.788890600204468,2012-01-17 11:02:20
1.00999999046326,46,28.6891307830811,0.489603072404861,0.555693209171295,1.08913040161133,6.35869550704956,0.523913025856018,0.572020053863525,0.958695650100708,-36.7021751403809,0.60671079158783,0.727260887622833,1.39782762527466,2012-01-17 11:02:21
1.01199984550476,29,29.5241374969482,0.262782394886017,0.310344696044922,0.524138271808624,7.37241363525391,0.207847759127617,0.231779545545578,0.427586317062378,-35.8896560668945,0.194768503308296,0.232445582747459,0.510345876216888,2012-01-17 11:02:22
1.00800013542175,49,29.0061225891113,0.330695539712906,0.421081274747849,1.09387743473053,7.36122465133667,0.122115716338158,0.148208752274513,0.338775664567947,-36.228572845459,0.14577229321003,0.18182735145092,0.428572982549667,2012-01-17 11:02:23
1.01999998092651,28,29.1750011444092,0.228571563959122,0.259979456663132,0.525000512599945,6.76428604125977,0.316836684942245,0.365683555603027,0.564285576343536,-36.6500015258789,0.117856651544571,0.134960070252419,0.250000804662704,2012-01-17 11:02:24
1.00300002098083,47,28.0808506011963,0.223178118467331,0.262263804674149,0.619149506092072,7.30212783813477,0.122046127915382,0.161758109927177,0.397872477769852,-36.8510665893555,0.218107953667641,0.250847339630127,0.451063275337219,2012-01-17 11:02:25
1.09800004959106,38,27.6526317596436,0.215235561132431,0.247871771454811,0.552631616592407,7.35789489746094,0.14958444237709,0.183003544807434,0.442105382680893,-37.2236862182617,0.119390323758125,0.145880460739136,0.323683679103851,2012-01-17 11:02:26
1.0149998664856,47,27.3276596069336,0.222815573215485,0.263125360012054,0.572339773178101,7.22340440750122,0.121502950787544,0.150478363037109,0.323404282331467,-37.7638320922852,0.169578835368156,0.213806167244911,0.4638312458992,2012-01-17 11:02:27
1.02300000190735,47,26.7319145202637,0.191398948431015,0.228879317641258,0.468085467815399,6.99361705780029,0.105749152600765,0.138999834656715,0.406383007764816,-37.8787231445312,0.128384098410606,0.155653908848763,0.321276485919952,2012-01-17 11:02:28
1.0090000629425,35,26.9828567504883,0.203428626060486,0.257998615503311,0.5828577876091,7.46857166290283,0.26840814948082,0.322287738323212,0.568571388721466,-37.9085731506348,0.091755285859108,0.120408020913601,0.208571627736092,2012-01-17 11:02:29
1.36500000953674,33,26.9181823730469,0.398346990346909,0.447521328926086,0.718181490898132,7.46666669845581,0.171717122197151,0.19796946644783,0.433333277702332,-37.8454551696777,0.116804644465446,0.132781103253365,0.254547119140625,2012-01-17 11:02:30
1.01999998092651,53,26.9320755004883,0.379992812871933,0.441598057746887,0.767924845218658,7.10377359390259,0.121395632624626,0.146612450480461,0.303773492574692,-38.0792465209961,0.107298411428928,0.133682906627655,0.320755302906036,2012-01-17 11:02:31
1.01699995994568,32,26.6781253814697,0.141992568969727,0.165330246090889,0.42187488079071,7.09999990463257,0.118750110268593,0.156124979257584,0.300000011920929,-38.0906257629395,0.0623054578900337,0.0842593014240265,0.209373116493225,2012-01-17 11:02:32
1.00799989700317,53,26.8886795043945,0.291633874177933,0.359066098928452,0.788679182529449,6.95094347000122,0.219651103019714,0.245428130030632,0.450943470001221,-37.9867935180664,0.11178357899189,0.145417973399162,0.313206136226654,2012-01-17 11:02:33
1.01000022888184,48,26.3354167938232,0.166058704257011,0.198420375585556,0.435417413711548,6.77708339691162,0.0934027582406998,0.112248942255974,0.277083486318588,-38.2333335876465,0.111110433936119,0.132811114192009,0.333332151174545,2012-01-17 11:02:34
1.00699996948242,33,26.4272727966309,0.20330585539341,0.254978090524673,0.627271890640259,6.67272758483887,0.0831957310438156,0.10523496568203,0.272727310657501,-38.2303047180176,0.0833784714341164,0.102940507233143,0.269696444272995,2012-01-17 11:02:35
1.00699996948242,48,26.4541664123535,0.317361116409302,0.378571033477783,0.745833694934845,6.75,0.116666682064533,0.135400667786598,0.250000089406967,-38.2708358764648,0.12430502474308,0.156734928488731,0.529165208339691,2012-01-17 11:02:36
1.00799989700317,33,26.254545211792,0.0953168869018555,0.120832711458206,0.34545424580574,6.60303020477295,0.100826568901539,0.135925263166428,0.30303019285202,-38.3060607910156,0.0932970196008682,0.125382855534554,0.306060910224915,2012-01-17 11:02:37
1.0220000743866,48,26.4604167938232,0.327951371669769,0.381193101406097,0.739583730697632,6.70416688919067,0.0722222253680229,0.103999927639961,0.304166734218597,-38.3624992370605,0.153646156191826,0.179843738675117,0.437498718500137,2012-01-17 11:02:38
1.01900005340576,32,26.1156253814697,0.158007860183716,0.212292984127998,0.415624618530273,6.95937538146973,0.206640630960464,0.246042907238007,0.540624856948853,-38.2218742370605,0.104491323232651,0.126821994781494,0.321874141693115,2012-01-17 11:02:39
1.01799988746643,47,26.2936172485352,0.295065551996231,0.366933315992355,0.806382894515991,6.54680871963501,0.128655508160591,0.1513781696558,0.353191494941711,-38.3382987976074,0.105568587779999,0.1313646286726,0.438296943902969,2012-01-17 11:02:40
1.00800013542175,35,26.1628570556641,0.0995921269059181,0.126684799790382,0.33714234828949,6.59428596496582,0.143673464655876,0.188138023018837,0.405714213848114,-38.4028587341309,0.0778773128986359,0.0999593138694763,0.202856883406639,2012-01-17 11:02:41
1.01199984550476,47,26.2531909942627,0.280669927597046,0.362527161836624,0.84680849313736,6.72978734970093,0.0737890303134918,0.0920566618442535,0.229787424206734,-38.2489356994629,0.133091270923615,0.16094408929348,0.348935157060623,2012-01-17 11:02:42
1.13700008392334,37,26.0513515472412,0.11760438978672,0.140696600079536,0.35135093331337,6.64864873886108,0.0715852677822113,0.0825985446572304,0.151351451873779,-38.4324340820312,0.083710566163063,0.101486675441265,0.232432395219803,2012-01-17 11:02:43
1.0149998664856,48,26.1000003814697,0.20000022649765,0.244949042797089,0.600000321865082,6.6875,0.169270902872086,0.211763441562653,0.512500166893005,-38.3624992370605,0.109896287322044,0.130104184150696,0.26249822974205,2012-01-17 11:02:45
1.06900000572205,50,26.1180000305176,0.142720237374306,0.18405444920063,0.51800012588501,6.63400030136108,0.0874401479959488,0.105090536177158,0.233999982476234,-38.3040008544922,0.116800479590893,0.154867842793465,0.504001319408417,2012-01-17 11:02:46
1.01800012588501,40,26.1849994659424,0.171500265598297,0.212779372930527,0.415000021457672,6.74500036239624,0.0804999992251396,0.0973396524786949,0.245000168681145,-38.3624992370605,0.104375772178173,0.129783987998962,0.362500578165054,2012-01-17 11:02:47
1.0019998550415,45,26.1933326721191,0.296296328306198,0.344738215208054,0.706665992736816,6.60444450378418,0.11239517480135,0.14135155081749,0.304444313049316,-38.4000015258789,0.102222695946693,0.147573009133339,0.399998486042023,2012-01-17 11:02:48
1.007000207901,35,26.0685710906982,0.192653208971024,0.244682222604752,0.631429016590118,6.87428569793701,0.29224494099617,0.323677897453308,0.52571427822113,-38.3600006103516,0.140571907162666,0.169368803501129,0.360000729560852,2012-01-17 11:02:49
1.0239999294281,45,26.2177772521973,0.263703912496567,0.318530827760696,0.882222354412079,6.72666692733765,0.148740753531456,0.173076763749123,0.373333185911179,-38.39111328125,0.126617699861526,0.154664322733879,0.391111850738525,2012-01-17 11:02:50
1.01699995994568,38,26.8868427276611,0.385041385889053,0.452577918767929,0.886842310428619,6.88684225082397,0.163296326994896,0.193541809916496,0.413158029317856,-38.4578971862793,0.0894737243652344,0.104205727577209,0.242105185985565,2012-01-17 11:02:51
1.00099992752075,45,26.3266677856445,0.536592483520508,0.64408415555954,1.37333393096924,6.67111110687256,0.139950722455978,0.184538170695305,0.528889119625092,-38.4777793884277,0.126419752836227,0.154760047793388,0.422222912311554,2012-01-17 11:02:52
1.01900005340576,35,26.308572769165,0.187918156385422,0.230987221002579,0.508570790290833,6.79714298248291,0.0897959098219872,0.120678350329399,0.29714298248291,-38.4571418762207,0.124082244932652,0.137915343046188,0.257142871618271,2012-01-17 11:02:53
1.01600003242493,47,25.8659572601318,0.292801976203918,0.362776845693588,0.734042525291443,6.61489391326904,0.166681826114655,0.204188823699951,0.414893418550491,-38.5340423583984,0.139611259102821,0.161478355526924,0.334042727947235,2012-01-17 11:02:54
1.09400010108948,38,25.6263160705566,0.116066806018353,0.138951689004898,0.273683458566666,6.39736843109131,0.171329587697983,0.201946884393692,0.402631670236588,-38.6500015258789,0.0947363674640656,0.116415545344353,0.349999070167542,2012-01-17 11:02:55
1.0149998664856,50,26.0460014343262,0.299519896507263,0.335981965065002,0.654000222682953,6.64200019836426,0.146000102162361,0.172151133418083,0.341999918222427,-38.6700019836426,0.139999568462372,0.161554619669914,0.469999551773071,2012-01-17 11:02:56
1.00699996948242,43,25.681396484375,0.123959168791771,0.161757677793503,0.418604463338852,6.45116281509399,0.0897781997919083,0.114875204861164,0.348837345838547,-38.7139549255371,0.145808219909668,0.179898366332054,0.38604798913002,2012-01-17 11:02:57
1.01200008392334,38,25.7947368621826,0.226869747042656,0.274290800094604,0.594736516475677,6.43421077728271,0.128947302699089,0.152654215693474,0.334210723638535,-38.9315795898438,0.131579354405403,0.150622501969337,0.368419647216797,2012-01-17 11:02:58
1.0789999961853,46,25.4347820281982,0.204347774386406,0.244253352284431,0.465216666460037,6.55869579315186,0.226181462407112,0.254161924123764,0.541304171085358,-38.8108711242676,0.117108047008514,0.149241715669632,0.410868614912033,2012-01-17 11:02:59
1.00799989700317,46,25.8391304016113,0.31379958987236,0.35963648557663,0.660869121551514,6.50869560241699,0.13780714571476,0.183949485421181,0.491304278373718,-38.7239151000977,0.136767208576202,0.159052520990372,0.276086151599884,2012-01-17 11:03:00
1,42,25.66428565979,0.197959363460541,0.240853101015091,0.564285814762115,6.40952396392822,0.101813964545727,0.119142703711987,0.209523603320122,-38.8428573608398,0.151020511984825,0.190416365861893,0.4571413397789,2012-01-17 11:03:01
1.01400017738342,49,25.9367351531982,0.368096649646759,0.42411670088768,0.736734092235565,6.4285717010498,0.0991252884268761,0.122890293598175,0.32857158780098,-38.8693885803223,0.143273755908012,0.17980033159256,0.369388490915298,2012-01-17 11:03:02
1.23199987411499,46,25.7000007629395,0.143478497862816,0.174455791711807,0.300000727176666,6.47391319274902,0.0992437899112701,0.129270121455193,0.326087087392807,-38.6760864257812,0.117296427488327,0.144740805029869,0.423914462327957,2012-01-17 11:03:03
1.00200009346008,46,25.8934783935547,0.267391234636307,0.31096088886261,0.606521248817444,7.16086959838867,0.322495251893997,0.357818394899368,0.760869562625885,-38.552173614502,0.141399085521698,0.163838610053062,0.352173686027527,2012-01-17 11:03:04
1.00999999046326,48,25.716667175293,0.164583310484886,0.201384052634239,0.4166659116745,6.55625009536743,0.0937500223517418,0.109746441245079,0.256249874830246,-38.6708335876465,0.111978404223919,0.133787781000137,0.370834738016129,2012-01-17 11:03:05
1.00499987602234,25,25.6599998474121,0.142400145530701,0.16248083114624,0.260000616312027,6.5,0.0319999679923058,0.0565684884786606,0.0999999046325684,-38.6959991455078,0.0774393305182457,0.099919356405735,0.204000860452652,2012-01-17 11:03:06
1.01600003242493,51,25.8941173553467,0.260668724775314,0.328043282032013,0.805882751941681,6.49803924560547,0.159092620015144,0.190448582172394,0.401960760354996,-38.5529403686523,0.0950410515069962,0.116068109869957,0.252942860126495,2012-01-17 11:03:07
1.01100015640259,34,25.5647068023682,0.213840961456299,0.320736616849899,1.03529417514801,6.52941179275513,0.165743917226791,0.234557658433914,0.670588493347168,-38.7382354736328,0.163148835301399,0.241338223218918,0.738235831260681,2012-01-17 11:03:08
1.01099991798401,48,29.1312503814697,1.24843752384186,1.35817837715149,2.53125,8.27708339691162,0.315538346767426,0.416453152894974,1.07708323001862,-35.9187507629395,0.921875,1.05211222171783,2.08124947547913,2012-01-17 11:03:09
1.01999998092651,47,29.0787239074707,0.412313252687454,0.47532120347023,0.978723466396332,8.9957447052002,0.196559458971024,0.247504517436028,0.59574431180954,-35.7489356994629,0.390402972698212,0.438019067049026,0.751062989234924,2012-01-17 11:03:10
1.00699996948242,35,29.2314281463623,0.373387813568115,0.495564162731171,1.23142910003662,7.74285745620728,0.216326579451561,0.318286269903183,1.05714297294617,-36.8400001525879,0.157714560627937,0.185472384095192,0.36000007390976,2012-01-17 11:03:11
1.01500010490417,41,27.7195129394531,0.483402699232101,0.55533754825592,1.08048844337463,7.93658542633057,0.21748960018158,0.238650798797607,0.436585515737534,-37.1634140014648,0.20868493616581,0.241697177290916,0.463414549827576,2012-01-17 11:03:12
1.00999999046326,48,26.9854164123535,0.196788474917412,0.263778567314148,0.685415804386139,8.30208396911621,0.0778647065162659,0.107023403048515,0.202083170413971,-37.4145851135254,0.112239770591259,0.133837357163429,0.314581632614136,2012-01-17 11:03:13
1.00699996948242,32,26.4937496185303,0.140234395861626,0.186978533864021,0.393749952316284,8.37187480926514,0.125390723347664,0.148396402597427,0.328124642372131,-37.6843757629395,0.107030838727951,0.125272870063782,0.215626120567322,2012-01-17 11:03:14
1.01900005340576,46,26.7608699798584,0.368620038032532,0.410978883504868,0.760870039463043,8.28260898590088,0.1247638463974,0.155065789818764,0.38260880112648,-37.8173904418945,0.109641216695309,0.1372150182724,0.282610446214676,2012-01-17 11:03:15
1.00300002098083,48,26.439582824707,0.14036463201046,0.169237956404686,0.360417485237122,8.3125,0.0609376095235348,0.0880933701992035,0.287500232458115,-37.84375,0.118229687213898,0.139801040291786,0.256251573562622,2012-01-17 11:03:16
1.01899981498718,32,26.2000007629395,0.187500178813934,0.235849663615227,0.60000079870224,8.40000057220459,0.0687501206994057,0.0968246161937714,0.200000017881393,-37.8500022888184,0.171875193715096,0.203100800514221,0.449998617172241,2012-01-17 11:03:17
1.00100016593933,48,26.1145839691162,0.328298628330231,0.397381752729416,0.785415709018707,8.14375019073486,0.136197850108147,0.168209031224251,0.356249868869781,-38.1875,0.114582791924477,0.143795073032379,0.41250142455101,2012-01-17 11:03:18
1.00499987602234,33,25.8909091949463,0.163085132837296,0.209420084953308,0.49090975522995,8.04242420196533,0.123416021466255,0.145706817507744,0.257575809955597,-38.1545448303223,0.0947651937603951,0.118297897279263,0.354546993970871,2012-01-17 11:03:19
1.00600004196167,50,26.1879997253418,0.295040130615234,0.384520530700684,1.01200044155121,8.1540002822876,0.113999880850315,0.14171801507473,0.345999926328659,-38.0820007324219,0.0848806276917458,0.107126198709011,0.318000495433807,2012-01-17 11:03:20
1.00099992752075,39,26.0666675567627,0.230769395828247,0.32998314499855,1.03333330154419,8.01282024383545,0.099145382642746,0.132393151521683,0.312820345163345,-38.197437286377,0.11084745824337,0.142301395535469,0.302563488483429,2012-01-17 11:03:21
1.00600004196167,48,26.1937503814697,0.264062583446503,0.339979350566864,1.00625050067902,7.95416688919067,0.112847186625004,0.135336473584175,0.345833420753479,-38.216667175293,0.132638365030289,0.16624915599823,0.383334785699844,2012-01-17 11:03:22
1.01300001144409,35,26.0257148742676,0.136653333902359,0.190252423286438,0.674286305904388,7.94285726547241,0.111836738884449,0.135827019810677,0.357142895460129,-38.3171424865723,0.101551249623299,0.123022839426994,0.217140957713127,2012-01-17 11:03:23
1.01999998092651,49,25.9673480987549,0.346355676651001,0.429231733083725,1.03265273571014,7.95510196685791,0.1247813180089,0.166673600673676,0.455102115869522,-38.2244911193848,0.0993746593594551,0.120424911379814,0.324489295482635,2012-01-17 11:03:24
1.29800009727478,45,25.6599998474121,0.126222342252731,0.148174092173576,0.260000646114349,7.79777812957764,0.0784197077155113,0.0977272093296051,0.202222049236298,-38.3711128234863,0.0791118741035461,0.0980304181575775,0.22889056801796,2012-01-17 11:03:26
1.00600004196167,49,26.036735534668,0.170679062604904,0.210629686713219,0.463264942169189,7.89591836929321,0.115368537604809,0.147023737430573,0.304081350564957,-38.2612266540527,0.123698227107525,0.14820884168148,0.33877694606781,2012-01-17 11:03:27
1.00099992752075,45,26.148889541626,0.263012558221817,0.305957496166229,0.651112020015717,7.97111129760742,0.106962904334068,0.140826433897018,0.328889012336731,-38.2866668701172,0.191999942064285,0.225684434175491,0.486668318510056,2012-01-17 11:03:28
1.00399994850159,32,25.8562507629395,0.305468410253525,0.371598958969116,0.656249701976776,7.99687528610229,0.259765684604645,0.290994435548782,0.596875071525574,-38.4343757629395,0.140820652246475,0.16697596013546,0.334373593330383,2012-01-17 11:03:29
1.03099989891052,47,25.6702136993408,0.198098972439766,0.240491613745689,0.72978663444519,7.74680852890015,0.12213671952486,0.155537605285645,0.453191161155701,-38.3489379882812,0.0861030668020248,0.106935098767281,0.351064145565033,2012-01-17 11:03:30
1.01800012588501,37,25.9810810089111,0.248794719576836,0.289302706718445,0.518918573856354,7.86486482620239,0.131482779979706,0.164754018187523,0.435135155916214,-38.4000015258789,0.135135680437088,0.166035160422325,0.400000482797623,2012-01-17 11:03:31
1.01099991798401,47,26.457447052002,0.202716127038002,0.247321516275406,0.642553210258484,8.09574508666992,0.0909009426832199,0.123697400093079,0.304255723953247,-38.2680854797363,0.138614386320114,0.163871169090271,0.368084371089935,2012-01-17 11:03:32
1.00800013542175,36,26.2833347320557,0.269444465637207,0.332081019878387,0.783333837985992,7.98611116409302,0.130555555224419,0.158382058143616,0.413889318704605,-38.533332824707,0.103704288601875,0.12247484177351,0.233334958553314,2012-01-17 11:03:33
1.01199984550476,48,25.5874996185303,0.163541927933693,0.211763590574265,0.612500309944153,7.87708330154419,0.23767364025116,0.277818650007248,0.622916460037231,-38.3833351135254,0.147222593426704,0.175989329814911,0.316666603088379,2012-01-17 11:03:34
1.00600004196167,39,25.8153839111328,0.326627194881439,0.385997623205185,0.884615957736969,7.90769243240356,0.236291900277138,0.308332651853561,0.792307376861572,-38.4128227233887,0.0933598056435585,0.115868508815765,0.212820500135422,2012-01-17 11:03:35
1.03600001335144,48,25.5770835876465,0.178993329405785,0.215290248394012,0.522916674613953,7.66041660308838,0.110416799783707,0.12867859005928,0.239583343267441,-38.3708343505859,0.12152823805809,0.149942338466644,0.329166501760483,2012-01-17 11:03:36
1.01900005340576,33,25.6363639831543,0.166942253708839,0.191988244652748,0.336362838745117,7.63939380645752,0.113315097987652,0.139130249619484,0.339393854141235,-38.4212112426758,0.092378206551075,0.117441609501839,0.278787910938263,2012-01-17 11:03:37
1.0239999294281,45,25.9622230529785,0.221333235502243,0.268567144870758,0.637777745723724,7.82666683197021,0.109629586338997,0.133998334407806,0.326666802167892,-38.4533348083496,0.11703684926033,0.152898013591766,0.446667551994324,2012-01-17 11:03:38
1.28699994087219,46,25.5630435943604,0.198960393667221,0.256530851125717,0.836955904960632,7.80652189254761,0.121833585202694,0.152375608682632,0.393477946519852,-38.3956527709961,0.0964089706540108,0.126760065555573,0.404346704483032,2012-01-17 11:03:39
1.01800012588501,53,25.858491897583,0.256461203098297,0.301839560270309,0.558489918708801,7.70754718780518,0.0810965001583099,0.10433816164732,0.307547211647034,-38.5433959960938,0.134282976388931,0.16311751306057,0.443394631147385,2012-01-17 11:03:40
1.10699987411499,41,25.6731719970703,0.201784804463387,0.236874371767044,0.426829308271408,7.71951246261597,0.122308172285557,0.151769325137138,0.380488067865372,-38.3487815856934,0.10124970972538,0.119188211858273,0.251221269369125,2012-01-17 11:03:41
1.02900004386902,48,26.7437496185303,0.5135418176651,0.563067018985748,0.956250548362732,7.66041660308838,0.127083450555801,0.149637937545776,0.339583247900009,-37.90625,0.368489623069763,0.422002226114273,0.906250715255737,2012-01-17 11:03:42
1.00200009346008,33,26.5545463562012,0.361983627080917,0.419300317764282,0.945454061031342,7.34848499298096,0.450137794017792,0.525772929191589,0.848484992980957,-37.9212112426758,0.426630139350891,0.474666059017181,0.92121285200119,2012-01-17 11:03:43
1.00099992752075,48,24.3645839691162,1.15772557258606,1.25689589977264,2.03541612625122,7.22291660308838,0.257812529802322,0.333691239356995,0.877083659172058,-39.3062515258789,0.517968893051147,0.582883059978485,1.00625169277191,2012-01-17 11:03:44
1.00699996948242,34,22.5500011444092,0.455882459878922,0.595695376396179,1.65000021457672,6.80882358551025,0.397231817245483,0.634483397006989,1.80882358551025,-40.1735305786133,0.129584327340126,0.155882179737091,0.373530775308609,2012-01-17 11:03:45
1.01600003242493,49,22.6469383239746,0.539608478546143,0.623715579509735,1.14693915843964,4.23877573013306,0.184006676077843,0.242281958460808,0.661224484443665,-40.8346939086914,0.333194732666016,0.415294855833054,0.934693157672882,2012-01-17 11:03:46
1.00500011444092,46,22.0130443572998,0.336861968040466,0.365708738565445,0.713042795658112,4.89347839355469,0.155198439955711,0.192695036530495,0.406521856784821,-40.8717384338379,0.139319837093353,0.182570099830627,0.371740013360977,2012-01-17 11:03:47
1.01799988746643,19,22.8947372436523,0.99501371383667,1.3180820941925,3.19473648071289,6.52631568908691,0.788365721702576,1.12289202213287,2.97368407249451,-40.2999992370605,0.536842048168182,0.650505721569061,1.19999933242798,2012-01-17 11:03:48
1.0090000629425,53,13.4867925643921,2.02805280685425,2.56530094146729,6.11320781707764,11.1698112487793,0.536845803260803,0.667743325233459,1.56981110572815,-43.4962272644043,0.567675232887268,0.717164754867554,1.89622485637665,2012-01-17 11:03:49
1.0019998550415,36,11.0027780532837,0.241975277662277,0.309557110071182,0.702777862548828,11.9833335876465,0.0953701585531235,0.119023665785789,0.316666573286057,-44.0833358764648,0.110185533761978,0.132287591695786,0.28333505988121,2012-01-17 11:03:50
1.01300001144409,49,11.1836738586426,0.552769660949707,0.721774160861969,1.51632618904114,11.5408163070679,0.213077872991562,0.246542111039162,0.459183484315872,-43.9653053283691,0.170262441039085,0.216230303049088,0.565305650234222,2012-01-17 11:03:51
1.01300001144409,37,11.3621625900269,0.780131578445435,0.887557089328766,1.63783764839172,11.8081083297729,0.175894871354103,0.211018592119217,0.491891860961914,-44.1972961425781,0.122570864856243,0.158517450094223,0.397298663854599,2012-01-17 11:03:52
1.01700019836426,49,13.2265310287476,0.46214085817337,0.620327651500702,1.67346978187561,12.191837310791,0.782507240772247,0.904374122619629,1.60816323757172,-43.3285713195801,0.53411078453064,0.580288529396057,1.12857139110565,2012-01-17 11:03:53
1.00099992752075,34,14.5852937698364,0.308823496103287,0.374269753694534,0.714706003665924,14.3176469802856,0.210726723074913,0.256068229675293,0.51764714717865,-42.0882377624512,0.133564248681068,0.164074331521988,0.388235330581665,2012-01-17 11:03:54
1.0090000629425,49,13.3795919418335,1.11145353317261,1.19641971588135,1.67959213256836,13.0387754440308,0.285797566175461,0.373519569635391,0.961224257946014,-42.9551010131836,0.292960911989212,0.351707756519318,0.755102038383484,2012-01-17 11:03:55
1.01099991798401,48,20.0833339691162,3.73749995231628,4.42682790756226,7.88333415985107,7.44375038146973,2.42994809150696,2.82274293899536,5.34375,-41.875,1.13541662693024,1.3056765794754,2.27499842643738,2012-01-17 11:03:56
1.00200009346008,29,30.0655174255371,0.495838165283203,0.735913932323456,2.16551804542542,-1.05862069129944,1.00760996341705,1.27536809444427,2.8586208820343,-38.4689674377441,0.249465256929398,0.383364200592041,1.2310346364975,2012-01-17 11:03:57
1.01399993896484,46,29.465217590332,0.395463168621063,0.44731929898262,0.734783053398132,-0.608695685863495,1.32060492038727,1.50373828411102,3.10869574546814,-38.6065216064453,0.287712454795837,0.342244476079941,1.00652003288269,2012-01-17 11:03:58
1.0149998664856,36,31.4972229003906,0.581173002719879,0.702173829078674,1.3972225189209,2.76944446563721,0.572376549243927,0.632815301418304,0.969444394111633,-36.6805572509766,0.389506012201309,0.445856988430023,0.819443702697754,2012-01-17 11:03:59
1.0220000743866,38,26.602632522583,2.31883645057678,2.54046058654785,4.69736909866333,4.21315813064575,1.60789477825165,1.77069282531738,2.41315793991089,-39.6763153076172,0.713850498199463,0.868584632873535,2.07631421089172,2012-01-17 11:04:00
