"diffSecs","N.samples","x.mean","x.absolute.deviation","x.standard.deviation","x.max.deviation","x.PSD.1","x.PSD.3","x.PSD.6","x.PSD.10","y.mean","y.absolute.deviation","y.standard.deviation","y.max.deviation","y.PSD.1","y.PSD.3","y.PSD.6","y.PSD.10","z.mean","z.absolute.deviation","z.standard.deviation","z.max.deviation","z.PSD.1","z.PSD.3","z.PSD.6","z.PSD.10","time"
1.11199998855591,43,2.36112189292908,0.776555120944977,0.903845965862274,1.6942697763443,74.4201354980469,82.1424713134766,4.81811475753784,1.69852924346924,1.39984226226807,0.90887326002121,1.05395543575287,2.24823141098022,47.1537017822266,70.3940277099609,15.6574697494507,4.32464075088501,-9.26317882537842,0.575383543968201,0.672363996505737,1.30017912387848,28.6133899688721,38.7778434753418,11.0838279724121,2.96429681777954,2012-01-15 15:20:20
1.00800013542175,50,0.934573709964752,0.313891232013702,0.421860367059708,1.38960230350494,1.56788122653961,17.0000495910645,10.6163492202759,2.84038877487183,2.97239565849304,0.450164467096329,0.571623384952545,1.38371825218201,8.25319862365723,29.4706630706787,5.46545648574829,9.82432556152344,-8.86913394927979,0.273409366607666,0.349133253097534,0.760995745658875,4.8521409034729,2.6225061416626,6.97807455062866,6.76239013671875,2012-01-15 15:20:21
