"diffSecs","N.samples","x.mean","x.absolute.deviation","x.standard.deviation","x.max.deviation","x.PSD.1","x.PSD.3","x.PSD.6","x.PSD.10","y.mean","y.absolute.deviation","y.standard.deviation","y.max.deviation","y.PSD.1","y.PSD.3","y.PSD.6","y.PSD.10","z.mean","z.absolute.deviation","z.standard.deviation","z.max.deviation","z.PSD.1","z.PSD.3","z.PSD.6","z.PSD.10","time"
0,42,5.55009651184082,0.146343633532524,0.196097373962402,0.578125238418579,0.646504759788513,1.35542511940002,0.33901658654213,0.0571701638400555,8.32818031311035,0.203004211187363,0.231096774339676,0.414214432239532,2.83179759979248,3.87102293968201,0.904803931713104,0.807054877281189,0.603809416294098,0.151836290955544,0.186401829123497,0.445502102375031,0.0496778339147568,1.4459570646286,1.63762509822845,1.00175619125366,2011-12-19 14:00:01
1.00463163852692,36,5.49798917770386,0.145586356520653,0.177698478102684,0.388724833726883,0.976745426654816,1.53469252586365,1.13348948955536,0.388532787561417,8.34927272796631,0.136475786566734,0.176871538162231,0.494146198034286,1.06117808818817,2.10727739334106,2.18758893013,1.57774364948273,0.608829498291016,0.211069971323013,0.261861562728882,0.530376315116882,1.41231036186218,2.47114038467407,1.66237282752991,1.3646993637085,2011-12-19 14:00:02
1.01051664352417,48,5.4704761505127,0.186326369643211,0.255423009395599,0.776359558105469,8.04610633850098,10.9684839248657,3.27336287498474,4.80554056167603,8.23901557922363,0.16130742430687,0.2303257137537,0.638862609863281,4.64603614807129,5.38106822967529,0.569319546222687,1.76250159740448,0.580839693546295,0.335264831781387,0.441568106412888,1.29223048686981,29.826358795166,40.322566986084,11.9162902832031,1.80803859233856,2011-12-19 14:00:03
1.00940835475922,32,5.60909748077393,0.152232855558395,0.174179896712303,0.363152265548706,0.124578431248665,0.186368227005005,0.53727000951767,0.275017023086548,8.39755725860596,0.194715604186058,0.237310826778412,0.503203928470612,0.37098440527916,0.694151878356934,0.663386106491089,0.0413125939667225,-0.281941175460815,0.103429511189461,0.1246737241745,0.296651184558868,0.151001259684563,0.25906041264534,0.191863223910332,0.260226130485535,2011-12-19 14:00:04
1.01286661624908,40,5.45470380783081,0.166418865323067,0.202103689312935,0.384665876626968,4.17842674255371,6.29300403594971,2.16877698898315,0.545435011386871,8.40331840515137,0.257767736911774,0.338704466819763,0.932612657546997,3.37214803695679,7.20295476913452,5.8568959236145,0.948372483253479,-0.0789435282349586,0.195642665028572,0.244045227766037,0.520242750644684,4.03913688659668,6.34572982788086,7.17758703231812,1.64962446689606,2011-12-19 14:00:05
