"diffSecs","N.samples","x.mean","x.absolute.deviation","x.standard.deviation","x.max.deviation","x.PSD.1","x.PSD.3","x.PSD.6","x.PSD.10","y.mean","y.absolute.deviation","y.standard.deviation","y.max.deviation","y.PSD.1","y.PSD.3","y.PSD.6","y.PSD.10","z.mean","z.absolute.deviation","z.standard.deviation","z.max.deviation","z.PSD.1","z.PSD.3","z.PSD.6","z.PSD.10","time"
1.01400017738342,44,-2.01704955101013,0.459717124700546,0.539312124252319,1.26193749904633,2.06640791893005,34.2548828125,38.4061393737793,2.85147333145142,9.9691276550293,0.766529440879822,1.25841522216797,5.42731237411499,39.4131278991699,40.2173728942871,7.01508045196533,3.3954541683197,1.8371866941452,0.361843079328537,0.669841051101685,2.47461891174316,3.9467339515686,2.89832711219788,2.7094554901123,0.646074056625366,2012-01-27 16:56:55
1.03999996185303,40,-1.87993478775024,0.540395438671112,0.600020349025726,1.02283358573914,28.4519824981689,59.118236541748,26.3738536834717,1.53824651241302,9.53378009796143,0.328216284513474,0.416002482175827,1.19469487667084,2.31702208518982,10.2624216079712,15.8797979354858,2.77230930328369,1.58377397060394,0.651651859283447,0.686945140361786,1.03460156917572,50.3507766723633,84.8336029052734,26.1912670135498,3.02067255973816,2012-01-27 16:56:56
1.00799989700317,45,-2.48892760276794,0.231175422668457,0.29016637802124,0.639393448829651,2.60516571998596,6.52745866775513,5.31928205490112,2.82205963134766,9.38387393951416,0.120052747428417,0.183840617537498,0.716974854469299,0.374358743429184,0.687011480331421,0.842013120651245,0.948509335517883,1.26941633224487,0.674697518348694,0.75866425037384,1.42741227149963,75.135383605957,74.1497955322266,4.42443180084229,2.18871688842773,2012-01-27 16:56:57
1.00800013542175,50,-2.3155460357666,0.254486501216888,0.290108770132065,0.73432195186615,4.26202821731567,10.5524568557739,15.2444429397583,5.51950979232788,9.49950504302979,0.0981918945908546,0.120720349252224,0.340094983577728,0.00240856967866421,0.204295963048935,2.36139869689941,0.678051292896271,1.1919002532959,0.301605463027954,0.338789343833923,0.525048017501831,27.6675586700439,31.5027046203613,2.95828986167908,0.627829730510712,2012-01-27 16:56:58
1.0019998550415,38,-2.82612156867981,0.430908560752869,0.503658056259155,1.05731177330017,0.973668396472931,11.2712965011597,24.6376247406006,9.51711177825928,9.03579521179199,0.283102542161942,0.33808845281601,0.702207386493683,0.373223960399628,4.84278583526611,10.7506542205811,5.24180603027344,2.32624053955078,0.289119571447372,0.384038627147675,1.20828247070312,4.46605396270752,13.6302833557129,10.0259485244751,5.4640908241272,2012-01-27 16:56:59
1.00800013542175,43,-2.78394818305969,0.407466560602188,0.510385096073151,1.50155758857727,1.28681063652039,10.2157545089722,21.6224765777588,3.26552057266235,9.35143852233887,0.434017181396484,0.574588298797607,1.91640162467957,6.3205828666687,19.5468425750732,29.2193756103516,1.82017064094543,1.15148317813873,0.760071039199829,0.845327317714691,1.28877627849579,94.419921875,154.533569335938,34.9222183227539,4.06308126449585,2012-01-27 16:57:00
1.00399994850159,43,-2.44117164611816,0.776205062866211,0.934361815452576,2.30387854576111,2.36026096343994,4.26135730743408,78.4323959350586,56.4364204406738,9.53981781005859,1.04823482036591,1.42562901973724,5.13092994689941,23.6096324920654,79.3023529052734,187.478057861328,52.1535491943359,0.750550806522369,1.05365526676178,1.29848563671112,3.44737935066223,0.044344387948513,86.6334991455078,127.889205932617,22.7577171325684,2012-01-27 16:57:01
1.00099992752075,49,-2.81490874290466,1.0827260017395,1.28013098239899,2.85333466529846,6.84659051895142,13.0885791778564,97.0346603393555,158.789764404297,9.4692211151123,1.1405121088028,1.39732086658478,3.98550248146057,15.6282768249512,21.8236179351807,304.024230957031,82.6937789916992,1.11015272140503,0.769672930240631,0.945181369781494,2.67521405220032,0.476601839065552,64.1394119262695,75.6660919189453,24.6003036499023,2012-01-27 16:57:02
1.01400017738342,38,-2.87257409095764,0.998987913131714,1.11310398578644,2.32340168952942,79.5487670898438,116.992942810059,45.5369644165039,13.2336578369141,9.23141193389893,1.15609800815582,1.54247403144836,4.89996957778931,38.5836219787598,80.8826522827148,140.515808105469,112.880104064941,0.925696134567261,0.973995923995972,1.26147484779358,3.45787644386292,20.4076023101807,56.3183364868164,141.028564453125,87.3252716064453,2012-01-27 16:57:03
1.01899981498718,41,-2.83555698394775,1.08443701267242,1.27859508991241,2.76691031455994,10.6558485031128,17.356782913208,15.0641469955444,72.9685974121094,9.20150756835938,1.17948150634766,1.3442941904068,2.93912506103516,0.336576253175735,69.6329803466797,161.912338256836,13.1153373718262,0.730714976787567,1.00062835216522,1.24257028102875,3.24097800254822,67.2721557617188,199.67839050293,156.805923461914,11.0475816726685,2012-01-27 16:57:04
1.01699995994568,50,-3.24403977394104,1.15977358818054,1.37761330604553,3.01848673820496,9.43205833435059,14.4565629959106,141.648727416992,282.143402099609,9.59659099578857,1.13419795036316,1.3437659740448,3.34818625450134,26.1578807830811,42.2486839294434,234.497283935547,25.2079200744629,1.17915153503418,0.503073275089264,0.637542545795441,1.78245663642883,21.4686794281006,24.7477569580078,41.8451728820801,32.7559814453125,2012-01-27 16:57:05
