"diffSecs","latitude","longitude","altitude","time"
0.521000146865845,42.85489211,-71.49116662,18.1000003814697,2012-01-18 14:46:00
0.912999868392944,42.8548922,-71.49116689,18.1000003814697,2012-01-18 14:46:01
0.926000118255615,42.8548923,-71.49116704,18,2012-01-18 14:46:02
1.03900003433228,42.85489221,-71.49116708,18,2012-01-18 14:46:03
1.17399978637695,42.85489219,-71.49116718,18,2012-01-18 14:46:04
0.919000148773193,42.8548921,-71.49116698,18,2012-01-18 14:46:05
1.0550000667572,42.8548921,-71.49116694,18,2012-01-18 14:46:06
1.58599996566772,42.85489211,-71.49116705,18,2012-01-18 14:46:08
0.142999887466431,42.85489206,-71.4911669,18,2012-01-18 14:46:08
1,42.85489209,-71.49116687,18,2012-01-18 14:46:09
1.08299994468689,42.85489209,-71.4911669,18,2012-01-18 14:46:10
0.88700008392334,42.85489224,-71.49116717,18,2012-01-18 14:46:11
1.05100011825562,42.85489231,-71.49116725,18,2012-01-18 14:46:12
0.953999996185303,42.85489231,-71.49116725,18,2012-01-18 14:46:13
1.11999988555908,42.8548925,-71.49116778,17.8999996185303,2012-01-18 14:46:14
0.874000072479248,42.85489254,-71.49116792,17.8999996185303,2012-01-18 14:46:15
1.12199997901917,42.85489247,-71.49116758,17.8999996185303,2012-01-18 14:46:16
0.876999855041504,42.8548926,-71.49116798,17.8999996185303,2012-01-18 14:46:17
1.18700003623962,42.85489252,-71.49116771,17.8999996185303,2012-01-18 14:46:18
0.819000005722046,42.85489262,-71.4911681,17.8999996185303,2012-01-18 14:46:19
1.00399994850159,42.85489263,-71.49116794,17.8999996185303,2012-01-18 14:46:20
1.16500020027161,42.85489261,-71.49116792,17.8999996185303,2012-01-18 14:46:21
0.832000017166138,42.85489265,-71.4911682,17.7999992370605,2012-01-18 14:46:22
1.10599994659424,42.85489257,-71.4911679,17.8999996185303,2012-01-18 14:46:23
0.50600004196167,42.8548926,-71.49116801,17.7999992370605,2012-01-18 14:46:23
1.10899996757507,42.85489251,-71.4911678,17.8999996185303,2012-01-18 14:46:24
0.884000062942505,42.85489252,-71.49116767,17.8999996185303,2012-01-18 14:46:25
1.27899980545044,42.85489244,-71.49116744,17.8999996185303,2012-01-18 14:46:27
0.766000032424927,42.8548925,-71.49116756,17.8999996185303,2012-01-18 14:46:27
1.0460000038147,42.85489243,-71.49116745,17.8999996185303,2012-01-18 14:46:28
0.919000148773193,42.85489236,-71.49116741,17.8999996185303,2012-01-18 14:46:29
1.75,42.85489236,-71.49116754,17.8999996185303,2012-01-18 14:46:31
0.305999994277954,42.85489232,-71.49116749,17.8999996185303,2012-01-18 14:46:31
0.977999925613403,42.85489225,-71.49116732,17.8999996185303,2012-01-18 14:46:32
1.02099990844727,42.85489225,-71.49116729,17.8999996185303,2012-01-18 14:46:33
1.06299996376038,42.85489222,-71.49116734,17.8999996185303,2012-01-18 14:46:34
0.872000217437744,42.85489212,-71.49116713,17.8999996185303,2012-01-18 14:46:35
1.01899981498718,42.85489215,-71.49116724,17.8999996185303,2012-01-18 14:46:36
1.0789999961853,42.85489228,-71.49116758,17.8999996185303,2012-01-18 14:46:37
0.906000137329102,42.85489228,-71.49116758,17.8999996185303,2012-01-18 14:46:38
1.51300001144409,42.85489236,-71.49116776,17.7999992370605,2012-01-18 14:46:40
0.679999828338623,42.85489236,-71.49116776,17.7999992370605,2012-01-18 14:46:41
0.972000122070312,42.85489243,-71.49116786,17.7999992370605,2012-01-18 14:46:42
0.978999853134155,42.85489243,-71.49116789,17.7999992370605,2012-01-18 14:46:43
1.08300018310547,42.8548924,-71.49116781,17.7999992370605,2012-01-18 14:46:44
0.930999994277954,42.85489244,-71.49116792,17.7999992370605,2012-01-18 14:46:45
1.05299997329712,42.85489244,-71.4911679,17.7999992370605,2012-01-18 14:46:46
0.924999952316284,42.85489249,-71.49116805,17.7999992370605,2012-01-18 14:46:46
0.897000074386597,42.85489249,-71.49116807,17.7999992370605,2012-01-18 14:46:47
1.00399994850159,42.85489259,-71.49116809,17.7000007629395,2012-01-18 14:46:48
1.02900004386902,42.85489255,-71.49116808,17.7999992370605,2012-01-18 14:46:49
0.980999946594238,42.85489254,-71.49116801,17.7999992370605,2012-01-18 14:46:50
0.986999988555908,42.85489257,-71.49116816,17.7000007629395,2012-01-18 14:46:51
0.999000072479248,42.85489257,-71.49116816,17.7000007629395,2012-01-18 14:46:52
1,42.85489252,-71.49116825,17.7000007629395,2012-01-18 14:46:53
1.0019998550415,42.85489252,-71.49116825,17.7000007629395,2012-01-18 14:46:54
1.0090000629425,42.8548925,-71.49116819,17.7000007629395,2012-01-18 14:46:55
1.02500009536743,42.8548925,-71.49116819,17.7000007629395,2012-01-18 14:46:56
1.06200003623962,42.85489248,-71.49116813,17.7000007629395,2012-01-18 14:46:57
0.903999805450439,42.85489248,-71.49116814,17.7000007629395,2012-01-18 14:46:58
0.995000123977661,42.85489248,-71.49116814,17.7000007629395,2012-01-18 14:46:59
1.04699993133545,42.85489245,-71.49116815,17.7000007629395,2012-01-18 14:47:00
0.986000061035156,42.85489252,-71.49116824,17.7000007629395,2012-01-18 14:47:01
1.06200003623962,42.85489262,-71.4911685,17.7000007629395,2012-01-18 14:47:02
0.905999898910522,42.85489262,-71.4911685,17.7000007629395,2012-01-18 14:47:03
0.995000123977661,42.85489261,-71.49116848,17.7000007629395,2012-01-18 14:47:04
1.0019998550415,42.85489262,-71.49116849,17.7000007629395,2012-01-18 14:47:05
1.01500010490417,42.85489262,-71.49116849,17.7000007629395,2012-01-18 14:47:06
1.04299998283386,42.85489262,-71.49116849,17.7000007629395,2012-01-18 14:47:07
1.05299997329712,42.85489262,-71.4911685,17.7000007629395,2012-01-18 14:47:08
0.895999908447266,42.85489262,-71.49116851,17.7000007629395,2012-01-18 14:47:09
0.998000144958496,42.85489262,-71.49116852,17.7000007629395,2012-01-18 14:47:10
1,42.85489263,-71.49116852,17.7000007629395,2012-01-18 14:47:11
1.00499987602234,42.85489263,-71.49116853,17.7000007629395,2012-01-18 14:47:12
1.00100016593933,42.85489263,-71.49116853,17.7000007629395,2012-01-18 14:47:13
0.99399995803833,42.85489264,-71.49116854,17.7000007629395,2012-01-18 14:47:14
1.00099992752075,42.85489264,-71.49116854,17.7000007629395,2012-01-18 14:47:15
1.01200008392334,42.85489264,-71.49116854,17.7000007629395,2012-01-18 14:47:16
0.984999895095825,42.85489265,-71.49116855,17.7000007629395,2012-01-18 14:47:17
1.04500007629395,42.85489265,-71.49116855,17.7000007629395,2012-01-18 14:47:18
0.984999895095825,42.85489265,-71.49116855,17.7000007629395,2012-01-18 14:47:19
0.973000049591064,42.85489266,-71.49116856,17.7000007629395,2012-01-18 14:47:20
1.03099989891052,42.85489266,-71.49116856,17.7000007629395,2012-01-18 14:47:21
0.957000017166138,42.85489268,-71.49116858,17.7000007629395,2012-01-18 14:47:22
1.02300000190735,42.8548927,-71.4911686,17.7000007629395,2012-01-18 14:47:23
1.0530002117157,42.8548927,-71.49116859,17.7000007629395,2012-01-18 14:47:24
0.931999921798706,42.8548927,-71.49116859,17.7000007629395,2012-01-18 14:47:25
1.00300002098083,42.85489274,-71.49116868,17.7000007629395,2012-01-18 14:47:26
0.998999834060669,42.85489275,-71.4911687,17.7000007629395,2012-01-18 14:47:27
1.01300001144409,42.85489275,-71.49116869,17.7000007629395,2012-01-18 14:47:28
0.996999979019165,42.85489276,-71.4911687,17.7000007629395,2012-01-18 14:47:29
1.00300002098083,42.85489276,-71.49116871,17.7000007629395,2012-01-18 14:47:30
0.983000040054321,42.85489276,-71.4911687,17.7000007629395,2012-01-18 14:47:31
1.00800013542175,42.85489276,-71.49116868,17.7000007629395,2012-01-18 14:47:32
1.00599980354309,42.85489276,-71.49116867,17.7000007629395,2012-01-18 14:47:33
1.00500011444092,42.85489275,-71.49116865,17.7000007629395,2012-01-18 14:47:34
0.989000082015991,42.85489275,-71.49116866,17.7000007629395,2012-01-18 14:47:35
1.02699995040894,42.85489275,-71.49116866,17.7000007629395,2012-01-18 14:47:36
0.971999883651733,42.85489275,-71.49116866,17.7000007629395,2012-01-18 14:47:37
0.999000072479248,42.85489276,-71.49116867,17.7000007629395,2012-01-18 14:47:38
1.00399994850159,42.85489276,-71.49116866,17.7000007629395,2012-01-18 14:47:39
1.02900004386902,42.85489277,-71.49116865,17.7000007629395,2012-01-18 14:47:40
0.999000072479248,42.85489277,-71.49116866,17.7000007629395,2012-01-18 14:47:41
0.965999841690063,42.85489277,-71.49116866,17.7000007629395,2012-01-18 14:47:42
0.996000051498413,42.85489277,-71.49116866,17.7000007629395,2012-01-18 14:47:43
1.00399994850159,42.85489277,-71.49116866,17.7000007629395,2012-01-18 14:47:44
1.00500011444092,42.85489277,-71.49116866,17.7000007629395,2012-01-18 14:47:45
1.07500004768372,42.85489277,-71.49116866,17.7000007629395,2012-01-18 14:47:46
0.924999952316284,42.85489277,-71.49116867,17.7000007629395,2012-01-18 14:47:47
1.00099992752075,42.85489277,-71.49116867,17.7000007629395,2012-01-18 14:47:48
1.00300002098083,42.85489277,-71.49116866,17.7000007629395,2012-01-18 14:47:49
0.996000051498413,42.85489276,-71.49116866,17.7000007629395,2012-01-18 14:47:50
0.997999906539917,42.85489277,-71.49116866,17.7000007629395,2012-01-18 14:47:51
1.03400015830994,42.85489278,-71.49116867,17.7000007629395,2012-01-18 14:47:52
1.04499983787537,42.85489279,-71.49116867,17.7000007629395,2012-01-18 14:47:53
1.02300000190735,42.85489279,-71.49116867,17.7000007629395,2012-01-18 14:47:54
0.904000043869019,42.85489279,-71.49116867,17.7000007629395,2012-01-18 14:47:55
0.99399995803833,42.8548928,-71.49116869,17.7000007629395,2012-01-18 14:47:56
1.00600004196167,42.85489281,-71.49116869,17.7000007629395,2012-01-18 14:47:57
1.00200009346008,42.85489281,-71.49116869,17.7000007629395,2012-01-18 14:47:58
1.01799988746643,42.85489281,-71.49116869,17.7000007629395,2012-01-18 14:47:59
