"diffSecs","N.samples","x.mean","x.absolute.deviation","x.standard.deviation","x.max.deviation","x.PSD.1","x.PSD.3","x.PSD.6","x.PSD.10","y.mean","y.absolute.deviation","y.standard.deviation","y.max.deviation","y.PSD.1","y.PSD.3","y.PSD.6","y.PSD.10","z.mean","z.absolute.deviation","z.standard.deviation","z.max.deviation","z.PSD.1","z.PSD.3","z.PSD.6","z.PSD.10","time"
1.92499995231628,26,-7.04532337188721,0.023646192625165,0.0290623549371958,0.0743045657873154,3.42808634741232e-05,6.89706503180787e-05,0.000509787118062377,0.00150316720828414,3.26184248924255,0.0178144853562117,0.0200012009590864,0.0354548133909702,0.00301893660798669,0.00507535319775343,0.0037808062043041,0.00509074563160539,5.86701679229736,0.029448913410306,0.0331509374082088,0.0660061836242676,0.0117302993312478,0.0191896036267281,0.0107309920713305,0.00286379572935402,2012-01-25 19:32:01
1.00300002098083,76,-7.04414224624634,0.0192804932594299,0.0237574465572834,0.0618075951933861,4.16995862906333e-06,0.0387139096856117,0.0330010950565338,0.042011920362711,3.24225902557373,0.0302620679140091,0.0385421440005302,0.104131244122982,0.224715024232864,0.185036987066269,0.125624746084213,0.0757355466485023,5.85534429550171,0.0314504951238632,0.0433564074337482,0.136518657207489,9.80004188022576e-05,0.108687043190002,0.142663598060608,0.19704969227314,2012-01-25 19:32:02
1.03500008583069,26,-7.03400802612305,0.0164217576384544,0.0193393491208553,0.0418667793273926,0.0012740099336952,0.00206935661844909,0.00134874763898551,0.000650538539048284,3.22337031364441,0.0329595990478992,0.0400449372828007,0.0852425172924995,0.013655548915267,0.0212360229343176,0.0104572661221027,0.0190939158201218,5.86890268325806,0.0302322823554277,0.0390593484044075,0.0829792022705078,0.00148450012784451,0.00799029693007469,0.0328574627637863,0.0179942231625319,2012-01-25 19:32:03
1.00899982452393,37,-7.03958415985107,0.0135530680418015,0.0180268976837397,0.047442901879549,0.00121199304703623,0.00113738072104752,0.000609614769928157,0.00121071888133883,3.2733006477356,0.0309600997716188,0.0422960333526134,0.135172843933105,0.00893133692443371,0.0165045578032732,0.0313501432538033,0.0309096481651068,5.85297966003418,0.0368769504129887,0.0482322089374065,0.125895962119102,0.109282679855824,0.171901121735573,0.132632076740265,0.088387556374073,2012-01-25 19:32:04
1.14800000190735,38,-7.04865837097168,0.0255488604307175,0.0309650879353285,0.0565171726047993,0.000732763321138918,0.0157554317265749,0.0189753193408251,0.0096623757854104,3.23567819595337,0.016597930341959,0.0229377001523972,0.0681302919983864,0.0177742633968592,0.0346648208796978,0.0199080966413021,0.00623962888494134,5.87573146820068,0.0266762152314186,0.0331817306578159,0.0769046470522881,0.0270628612488508,0.0727750211954117,0.114917702972889,0.0362102463841438,2012-01-25 19:32:06
1.01600003242493,45,-7.04618692398071,0.0284271296113729,0.0354260802268982,0.0834653452038765,0.0162921510636806,0.035169817507267,0.0909308195114136,0.010834033600986,3.25973033905029,0.027197141200304,0.0335534885525703,0.0823757871985435,0.000129024469060823,0.0170872136950493,0.0756980702280998,0.0179343074560165,5.87483692169189,0.0260057374835014,0.0316524617373943,0.0679926574230194,0.0001408968528267,0.0299792010337114,0.150070950388908,0.0615374371409416,2012-01-25 19:32:07
1.00100016593933,19,-7.06646537780762,0.00994245894253254,0.0116102499887347,0.0252907909452915,1.11869530883268e-05,1.69565100804903e-05,1.79480302904267e-05,0.000419522839365527,3.2785177230835,0.0128764156252146,0.0171495657414198,0.042323462665081,0.00016035494627431,0.000293387158308178,0.000160009367391467,0.000351659080479294,5.87728023529053,0.0197762567549944,0.0244499370455742,0.0557429678738117,0.000493751256726682,0.000933336210437119,0.0016930770361796,0.000709039508365095,2012-01-25 19:32:08
1.01899981498718,55,-7.04331398010254,0.0278540886938572,0.0338004380464554,0.0763139054179192,0.0283102504909039,0.188564524054527,0.102720871567726,0.0312467906624079,3.25652098655701,0.0214611701667309,0.0268308725208044,0.0595530457794666,0.0980752408504486,0.110434390604496,0.0624328814446926,0.0704996362328529,5.88559436798096,0.0386040955781937,0.0461779162287712,0.0996710509061813,0.119613975286484,0.222024366259575,0.227868765592575,0.311864465475082,2012-01-25 19:32:09
1.25699996948242,47,-7.04033994674683,0.0243634227663279,0.0292335934937,0.0596744045615196,0.0259243473410606,0.0337379835546017,0.0838669165968895,0.0372170805931091,3.24412322044373,0.0266985781490803,0.0339494347572327,0.0765752345323563,0.0253424867987633,0.0280177760869265,0.0505738034844398,0.0152863124385476,5.86166429519653,0.0308005530387163,0.0398322716355324,0.100778803229332,0.0418546572327614,0.0378241427242756,0.0578454844653606,0.037814062088728,2012-01-25 19:32:10
1.00600004196167,41,-7.00146961212158,0.0258671101182699,0.0313835591077805,0.0691248029470444,0.000223612238187343,0.00358357350341976,0.015406028367579,0.00390376569703221,3.23858618736267,0.0220518130809069,0.0267717819660902,0.0612316727638245,0.0178033467382193,0.0324356332421303,0.0496042631566525,0.0538502149283886,5.90790843963623,0.0377447456121445,0.0438056923449039,0.092565044760704,0.00346076069399714,0.0284544490277767,0.0673517435789108,0.0717290714383125,2012-01-25 19:32:11
1.01100015640259,43,-7.01859617233276,0.0191359277814627,0.0237906239926815,0.071611225605011,0.00165833625942469,0.0179412309080362,0.0355680771172047,0.0249742325395346,3.27154397964478,0.0262218303978443,0.0340462028980255,0.0941893979907036,0.05387232452631,0.104615025222301,0.0275119282305241,0.104079484939575,5.91340970993042,0.0282795932143927,0.0348165184259415,0.0686464309692383,0.00474653951823711,0.0520584881305695,0.0624672397971153,0.0560285970568657,2012-01-25 19:32:12
1.00899982452393,36,-6.97116613388062,0.0196435339748859,0.0235895197838545,0.0476711317896843,0.00675659719854593,0.00900821387767792,0.0136693511158228,0.0105557655915618,3.27651071548462,0.0209451448172331,0.0262304488569498,0.0697361528873444,0.0215847101062536,0.0383075103163719,0.0262743849307299,0.00682895816862583,5.94282960891724,0.0294199418276548,0.0394303798675537,0.0980663672089577,0.0220198314636946,0.0454942472279072,0.0309037193655968,0.0277823954820633,2012-01-25 19:32:13
1,39,-7.00069046020508,0.0268731396645308,0.0313418693840504,0.0699036940932274,0.00153770775068551,0.00757574709132314,0.0236362665891647,0.055706150829792,3.25253891944885,0.0231336485594511,0.0280321892350912,0.0653776004910469,0.00524089345708489,0.0192966535687447,0.0268496945500374,0.00254419003613293,5.94433832168579,0.018297977745533,0.0232426654547453,0.0603485107421875,0.00223555648699403,0.00247259810566902,0.00561896013095975,0.0130511587485671,2012-01-25 19:32:14
1.00800013542175,34,-6.98550748825073,0.0204446241259575,0.0293930228799582,0.085086964070797,0.00401169527322054,0.00880705565214157,0.0130181619897485,0.00646678684279323,3.24023246765137,0.0159145705401897,0.0184415094554424,0.0432645566761494,0.00227819452993572,0.00171313097234815,0.00725480820983648,0.0160531904548407,5.92927360534668,0.0362743884325027,0.0463045910000801,0.111623004078865,0.0392695665359497,0.0661791488528252,0.0482663810253143,0.0146930832415819,2012-01-25 19:32:15
1.00399994850159,38,-7.00607681274414,0.00885585136711597,0.0102190226316452,0.0237423740327358,0.00273420033045113,0.00485013006255031,0.00243833288550377,0.000165649631526321,3.22948455810547,0.0361297205090523,0.0396184958517551,0.0717432796955109,0.00354902935214341,0.00967282522469759,0.0260633490979671,0.110683672130108,5.89508676528931,0.0333588495850563,0.0400672815740108,0.0869693532586098,0.000918848381843418,0.0026712492108345,0.0196713805198669,0.0356410518288612,2012-01-25 19:32:16
1.00600004196167,46,-6.99789714813232,0.0175184644758701,0.0237213801592588,0.0744024962186813,5.93109216424637e-05,0.0123896328732371,0.0301548056304455,0.0319667682051659,3.28053760528564,0.0315889678895473,0.0391593687236309,0.0831433311104774,0.0567241869866848,0.0875231996178627,0.0664152130484581,0.235115870833397,5.90275049209595,0.0345364138484001,0.0429815389215946,0.108726181089878,0.0092291422188282,0.104897230863571,0.258394479751587,0.0524175465106964,2012-01-25 19:32:17
1.3659999370575,35,-7.00194787979126,0.043149184435606,0.0505507215857506,0.0980663299560547,0.000164741926710121,0.0448074266314507,0.100164398550987,0.0249561201781034,3.2507643699646,0.0306607931852341,0.0370190404355526,0.0736900344491005,0.0521288439631462,0.0728858113288879,0.0248529072850943,0.0533282272517681,5.95739984512329,0.0533962436020374,0.0674705728888512,0.200896024703979,9.59491007961333e-05,0.0111188227310777,0.10098647326231,0.0134826106950641,2012-01-25 19:32:18
1.12400007247925,45,-7.20636224746704,0.0547040775418282,0.0653761327266693,0.204414278268814,0.591690838336945,0.602089107036591,0.208248153328896,0.068546436727047,3.04986810684204,0.0989382117986679,0.110466979444027,0.196133077144623,1.92694497108459,3.0736403465271,0.776603221893311,0.599936425685883,5.77045059204102,0.0454544462263584,0.0548740290105343,0.112013921141624,0.247546389698982,0.458602994680405,0.182553946971893,0.292279183864594,2012-01-25 19:32:19
1.04299998283386,49,-7.41662931442261,0.0283621307462454,0.0364247784018517,0.120481878519058,0.166514202952385,0.156915858387947,0.141876593232155,0.00598276220262051,2.81650972366333,0.0275043658912182,0.0364774540066719,0.109874591231346,0.00571294687688351,0.0430869087576866,0.102017566561699,0.0407747626304626,5.61840963363647,0.0505484752357006,0.0591338202357292,0.136492326855659,0.212267398834229,0.186423555016518,0.221419304609299,0.399943023920059,2012-01-25 19:32:20
1.61999988555908,27,-7.36515712738037,0.0382850542664528,0.0471809767186642,0.0977034717798233,0.0184884257614613,0.0265931468456984,0.00687295058742166,0.00551836146041751,2.94744300842285,0.0820045694708824,0.089892640709877,0.151458188891411,0.1298698335886,0.224414378404617,0.178769782185555,0.0405815131962299,5.65662050247192,0.0206356309354305,0.0238780323415995,0.0508492067456245,0.00354657508432865,0.00708541367202997,0.00768583407625556,0.00452311662957072,2012-01-25 19:32:22
1.01700019836426,45,-7.14425325393677,0.0251728631556034,0.0286934990435839,0.0636342391371727,0.0156440008431673,0.114245392382145,0.0916031524538994,0.0160547196865082,3.18367433547974,0.0300930775702,0.0390713214874268,0.111360006034374,0.0469456389546394,0.0759394913911819,0.0334677807986736,0.0259615927934647,5.77480936050415,0.036524310708046,0.0502855777740479,0.15821373462677,0.0161836724728346,0.0692047104239464,0.136648237705231,0.0746751800179482,2012-01-25 19:32:23
1.02300000190735,45,-7.17628860473633,0.0176277253776789,0.0240113604813814,0.0610190480947495,0.0236939489841461,0.0342375822365284,0.0335445776581764,0.0315140411257744,3.19217348098755,0.0389166064560413,0.0446113869547844,0.0832474306225777,0.171456515789032,0.151988416910172,0.0217219945043325,0.0680516585707664,5.68262672424316,0.0424519330263138,0.0632037147879601,0.201363265514374,0.128087773919106,0.102566383779049,0.0341678112745285,0.0167540218681097,2012-01-25 19:32:24
1.19199991226196,33,-7.16598653793335,0.0260970219969749,0.0318708457052708,0.0855856090784073,0.00406814506277442,0.00987411383539438,0.0262327175587416,0.0325362347066402,3.18181204795837,0.0322025381028652,0.0403321608901024,0.0927174538373947,0.000251929392106831,0.0224956106394529,0.0704026520252228,0.0332665257155895,5.72500324249268,0.0204059332609177,0.0261984411627054,0.0609203092753887,0.00437905453145504,0.00851876009255648,0.00972671620547771,0.00890338607132435,2012-01-25 19:32:25
1.07800006866455,44,-7.20655059814453,0.0243950132280588,0.0305562429130077,0.0699836984276772,0.027973435819149,0.123486831784248,0.131972908973694,0.0521147139370441,3.1871612071991,0.0361062996089458,0.0443522483110428,0.0882598832249641,0.133581563830376,0.284805208444595,0.0676354989409447,0.0432513281702995,5.72641468048096,0.0430460870265961,0.049273394048214,0.0875913128256798,0.223312526941299,0.390516042709351,0.162177592515945,0.0335785001516342,2012-01-25 19:32:26
1.02099990844727,46,-7.26630115509033,0.026453809812665,0.0327782556414604,0.0878333225846291,0.107590392231941,0.246437638998032,0.0938125401735306,0.0303394366055727,3.1707456111908,0.0277885980904102,0.0364676229655743,0.0948685631155968,0.0541806146502495,0.200580656528473,0.0847951099276543,0.0775512084364891,5.65268087387085,0.033192403614521,0.038828868418932,0.0842095986008644,0.00957995839416981,0.104575410485268,0.168070673942566,0.0235655009746552,2012-01-25 19:32:27
1.22000002861023,28,-7.26112365722656,0.00790534727275372,0.00960441306233406,0.0252170562744141,0.000291060510789976,0.000463572680018842,0.00026305063511245,0.000184428048669361,3.1920645236969,0.0315213687717915,0.0390950478613377,0.0735499411821365,0.0124273374676704,0.0192358046770096,0.00835827086120844,0.00921665597707033,5.63321971893311,0.0395267717540264,0.0496892891824245,0.103670559823513,9.0944224211853e-05,0.000455403845990077,0.00822398252785206,0.0213561952114105,2012-01-25 19:32:29
1,47,-7.26693630218506,0.0198529940098524,0.0272528287023306,0.0786617174744606,6.05928071308881e-05,0.0787549465894699,0.14335723221302,0.0371977798640728,3.17380738258362,0.0239195134490728,0.0307080335915089,0.0749061927199364,0.052010465413332,0.0923328325152397,0.0325940884649754,0.0288113504648209,5.67867612838745,0.0340502560138702,0.0392998158931732,0.0876341611146927,0.0132303507998586,0.0834754556417465,0.169696643948555,0.0521009378135204,2012-01-25 19:32:30
1.01099991798401,47,-7.24189805984497,0.0249139089137316,0.0324210189282894,0.073862724006176,0.00356838805601001,0.013065068051219,0.0442425310611725,0.0441174693405628,3.16546130180359,0.0375129915773869,0.0451865643262863,0.0805396512150764,0.0780959650874138,0.477447032928467,0.374555826187134,0.0250271894037724,5.671790599823,0.0257396791130304,0.0322041772305965,0.0650997906923294,0.0151319885626435,0.0855757221579552,0.0887583792209625,0.0937555134296417,2012-01-25 19:32:31
1.01600003242493,35,-7.21293115615845,0.0390984453260899,0.044439859688282,0.0834964737296104,0.0329515933990479,0.0856431275606155,0.0762024372816086,0.00380662619136274,3.14765429496765,0.0277628973126411,0.0330268256366253,0.0689267292618752,0.00493620103225112,0.0192950684577227,0.0600506737828255,0.0135851120576262,5.65451431274414,0.0336227416992188,0.0394500456750393,0.0745304077863693,0.00161309051327407,0.00163064536172897,0.041631281375885,0.0178260635584593,2012-01-25 19:32:32
1.01200008392334,29,-7.19300842285156,0.0211291536688805,0.0255752522498369,0.0442989282310009,0.00193888903595507,0.00234099081717432,0.00430373195558786,0.0118227116763592,3.20170211791992,0.0373608320951462,0.0426778644323349,0.0737188383936882,0.0380820743739605,0.0621392130851746,0.0400431901216507,0.0190664064139128,5.6618185043335,0.0429580397903919,0.0541605874896049,0.130867913365364,0.03758754581213,0.0557139441370964,0.0404590778052807,0.0381026975810528,2012-01-25 19:32:33
1.00799989700317,47,-7.2204065322876,0.0283411256968975,0.0345506146550179,0.065933957695961,0.0549973919987679,0.0872815772891045,0.05074368044734,0.0465205274522305,3.18069291114807,0.0125812627375126,0.0157058238983154,0.0425651930272579,0.00242537679150701,0.00497359177097678,0.00931716058403254,0.0104703065007925,5.70976543426514,0.0436572507023811,0.0538355782628059,0.110168322920799,0.0342702940106392,0.279827773571014,0.560396552085876,0.129299178719521,2012-01-25 19:32:34
1.0239999294281,30,-7.20494556427002,0.0227513890713453,0.0266949441283941,0.0558978095650673,0.000607229303568602,0.00187632464803755,0.00847293436527252,0.00570530956611037,3.19467949867249,0.0287443492561579,0.0324937291443348,0.0663584396243095,0.00122755474876612,0.000690356537234038,0.0149397356435657,0.0243029072880745,5.73067951202393,0.0265869982540607,0.0386904701590538,0.111469112336636,0.00727901048958302,0.00830171536654234,0.00370865873992443,0.00938352569937706,2012-01-25 19:32:35
1.00500011444092,35,-7.19527912139893,0.0147299626842141,0.0186909716576338,0.0420284271240234,0.000157720176503062,0.0058544771745801,0.0128508703783154,0.00690273893997073,3.20425271987915,0.0338309034705162,0.0436269119381905,0.120201535522938,0.0108861466869712,0.0317481085658073,0.0425385348498821,0.0131691601127386,5.71951818466187,0.0272186435759068,0.0352484248578548,0.0708881542086601,0.00211454485543072,0.0143282059580088,0.0369695723056793,0.0441674143075943,2012-01-25 19:32:36
1.00099992752075,42,-7.18337106704712,0.0296534020453691,0.0343232415616512,0.073550209403038,0.0195506494492292,0.0285146702080965,0.0530957467854023,0.0248925853520632,3.15213751792908,0.0224819667637348,0.0288019720464945,0.0728494301438332,0.000446930906036869,0.0245285909622908,0.0244453027844429,0.0102941626682878,5.73759078979492,0.0291865207254887,0.0394822843372822,0.10857380181551,3.45483431374305e-06,0.0273076836019754,0.195309042930603,0.0392324142158031,2012-01-25 19:32:37
1.11100006103516,37,-7.18880462646484,0.023839645087719,0.0307542569935322,0.0779229775071144,0.000224894552957267,0.0302932448685169,0.0728990733623505,0.00953711848706007,3.1707284450531,0.0274786818772554,0.0327284671366215,0.0718271508812904,0.00648217601701617,0.0228158291429281,0.0691157281398773,0.0565021932125092,5.7061448097229,0.0327080450952053,0.0391711629927158,0.0771280229091644,0.00581264216452837,0.0411818213760853,0.0568297579884529,0.00564016401767731,2012-01-25 19:32:38
1.46900010108948,47,-7.21539926528931,0.0205100253224373,0.0259232502430677,0.0611349679529667,0.0013751070946455,0.00803889241069555,0.0477689355611801,0.0944672226905823,3.15815854072571,0.0242658220231533,0.0305431671440601,0.0690638944506645,0.00820295419543982,0.0426599681377411,0.104276351630688,0.0827997624874115,5.71164321899414,0.039732851088047,0.0490435659885406,0.133120074868202,0.00297834910452366,0.053559061139822,0.120148971676826,0.114336229860783,2012-01-25 19:32:39
1.00399994850159,50,-7.18670511245728,0.0209155865013599,0.027623388916254,0.0800221264362335,0.00841086264699697,0.0382357016205788,0.0309913922101259,0.0212273914366961,3.17088222503662,0.020601799711585,0.0246230941265821,0.0456989370286465,0.000105235805676784,0.0778056457638741,0.0546024478971958,0.00700247287750244,5.75650358200073,0.0353040061891079,0.0432828553020954,0.12748658657074,0.0765290036797523,0.14315827190876,0.276012390851974,0.0859679952263832,2012-01-25 19:32:40
1.01799988746643,39,-7.15432834625244,0.0238299239426851,0.0284263268113136,0.0731725692749023,0.00162350689060986,0.0306930001825094,0.0743261426687241,0.0273298528045416,3.16176438331604,0.0238299909979105,0.0296052992343903,0.0646232590079308,0.00639545917510986,0.0229487475007772,0.093901515007019,0.0349013209342957,5.72683191299438,0.0454421304166317,0.0532748326659203,0.117931351065636,0.0114164352416992,0.12915027141571,0.127294734120369,0.0142806321382523,2012-01-25 19:32:41
1.61899995803833,48,-7.17622041702271,0.0268235616385937,0.0343372672796249,0.0958194211125374,0.0648333877325058,0.124300770461559,0.0723181217908859,0.0939754918217659,3.15896701812744,0.0304414816200733,0.0360110923647881,0.0698724314570427,0.0765122622251511,0.0734194219112396,0.185230895876884,0.156181901693344,5.78081560134888,0.0304755326360464,0.0395313799381256,0.0929591357707977,0.00645283423364162,0.0606763884425163,0.0984252467751503,0.136311948299408,2012-01-25 19:32:43
1,44,-7.16353511810303,0.025864016264677,0.0316039770841599,0.0733273103833199,0.077015295624733,0.0949390828609467,0.0395494997501373,0.0389310047030449,3.15417528152466,0.033350758254528,0.0415057018399239,0.104307070374489,0.0172947607934475,0.098510280251503,0.13453796505928,0.123240932822227,5.77678537368774,0.0334519855678082,0.0442237928509712,0.117010995745659,0.058979295194149,0.20278687775135,0.29758283495903,0.0648744702339172,2012-01-25 19:32:44
1.01200008392334,48,-7.16580104827881,0.0281430054455996,0.0319003723561764,0.0617000758647919,0.000591241987422109,0.0515889748930931,0.167937010526657,0.048445999622345,3.1250524520874,0.0258786957710981,0.0308386217802763,0.0555709935724735,0.0115396352484822,0.00862299092113972,0.0165105070918798,0.0302966181188822,5.75609493255615,0.0359918661415577,0.0461694449186325,0.137701615691185,0.0259330533444881,0.176626890897751,0.15881222486496,0.0472504645586014,2012-01-25 19:32:45
1.33700013160706,21,-7.15792036056519,0.0187237747013569,0.023029388859868,0.040160495787859,0.000334809185005724,0.000723982695490122,0.0016043366631493,0.000708604289684445,3.15447235107422,0.0292643141001463,0.0375972539186478,0.0915286913514137,0.000572352379094809,0.00139998237136751,0.00633686035871506,0.00620721885934472,5.78312158584595,0.02655129134655,0.0311796087771654,0.0616416931152344,0.000406871782615781,0.000930365175008774,0.00380202010273933,0.00313471141271293,2012-01-25 19:32:46
1.0019998550415,50,-7.12923812866211,0.027670580893755,0.0324949361383915,0.0586439706385136,0.0822688043117523,0.0931311696767807,0.0181448068469763,0.0353359766304493,3.17931580543518,0.0379713587462902,0.0462890639901161,0.105911940336227,9.47215521591716e-05,0.299989134073257,0.455038100481033,0.0892012342810631,5.82573843002319,0.0230652000755072,0.0298360269516706,0.0974779352545738,0.000384715443942696,0.081682413816452,0.0465913638472557,0.0499049052596092,2012-01-25 19:32:47
1.0220000743866,49,-7.20828771591187,0.063169352710247,0.078826516866684,0.166312575340271,1.24677765369415,1.42457485198975,0.355006903409958,0.418303191661835,3.11831450462341,0.0682667121291161,0.0782651081681252,0.156706318259239,1.21412634849548,2.1300961971283,0.503317713737488,0.185080394148827,5.73068571090698,0.0624751225113869,0.0707638412714005,0.140895575284958,0.833868741989136,1.64353179931641,0.54265433549881,0.0270404815673828,2012-01-25 19:32:48
1.00699996948242,33,-7.36479377746582,0.0160472467541695,0.0201989151537418,0.0490331947803497,0.000443084514699876,0.00594920245930552,0.017740573734045,0.00379182677716017,2.91762685775757,0.0429367199540138,0.0493071414530277,0.0832080617547035,0.0365917608141899,0.0671733617782593,0.0588371269404888,0.00639354856684804,5.6940975189209,0.0346339754760265,0.0428360141813755,0.104307018220425,0.0182845201343298,0.0558315776288509,0.106889456510544,0.0691520422697067,2012-01-25 19:32:49
1.01699995994568,33,-7.40580368041992,0.0215585008263588,0.0261646863073111,0.0606231689453125,0.00807766988873482,0.0142136747017503,0.00863705016672611,0.00917285773903131,2.80291891098022,0.0467368923127651,0.0575607530772686,0.135510101914406,0.129099532961845,0.192041367292404,0.0646191462874413,0.0225479286164045,5.6652717590332,0.0534007772803307,0.0599432438611984,0.130458310246468,0.00420329673215747,0.0219785738736391,0.101668238639832,0.0212753154337406,2012-01-25 19:32:50
1.03299999237061,45,-7.36522960662842,0.0371346026659012,0.0482182949781418,0.0985023081302643,0.129929378628731,0.177870199084282,0.0828887298703194,0.12269464880228,2.90995979309082,0.0856011435389519,0.101185522973537,0.173904493451118,1.62858271598816,2.06788516044617,0.895957887172699,0.184303343296051,5.66802549362183,0.0233518928289413,0.0286834575235844,0.0782351419329643,0.0183188207447529,0.0806884691119194,0.0532820969820023,0.0539293959736824,2012-01-25 19:32:51
1.00699996948242,28,-7.30455303192139,0.025717394426465,0.0296193584799767,0.0504341125488281,0.0101536177098751,0.0149846812710166,0.00481532188132405,0.00278305890969932,3.17140054702759,0.0314463078975677,0.0425318628549576,0.121532395482063,0.0226223971694708,0.0355731807649136,0.0179014261811972,0.0102133266627789,5.59749555587769,0.0462813042104244,0.0562345646321774,0.135191440582275,0.00658255396410823,0.0158783011138439,0.0275973174721003,0.0152011094614863,2012-01-25 19:32:52
1.00200009346008,36,-7.20979452133179,0.0247738547623158,0.0304742380976677,0.0765462219715118,0.0169389769434929,0.0202717930078506,0.0047775050625205,0.0127012804150581,3.17190647125244,0.0310544166713953,0.0359164476394653,0.0740946382284164,0.00322517706081271,0.0367910452187061,0.0479226112365723,0.0146494060754776,5.66306781768799,0.0474744215607643,0.0579932108521461,0.151730448007584,0.146678119897842,0.170157730579376,0.0558693073689938,0.0369768813252449,2012-01-25 19:32:53
1.01900005340576,43,-7.14996004104614,0.0220848228782415,0.0276415646076202,0.0775408297777176,0.00151271664071828,0.0076034078374505,0.0199759174138308,0.0263038482517004,3.17803883552551,0.0227212943136692,0.0307502932846546,0.0791374444961548,2.37716649280628e-05,0.00204869848676026,0.0374848544597626,0.126174554228783,5.72639942169189,0.0259143486618996,0.0335337184369564,0.0777691677212715,0.0102775152772665,0.0415711924433708,0.131577834486961,0.034059077501297,2012-01-25 19:32:54
1.00799989700317,32,-7.15793514251709,0.0170275326818228,0.0208548624068499,0.0401459038257599,0.00167713186237961,0.00230303802527487,0.00503606628626585,0.0163415689021349,3.19022583961487,0.0272364299744368,0.0318185240030289,0.0619045794010162,0.0281229075044394,0.0544399954378605,0.0496494807302952,0.0103471400216222,5.73474502563477,0.0342276394367218,0.041442234069109,0.100211769342422,0.00651606218889356,0.0208091456443071,0.043317437171936,0.00758410524576902,2012-01-25 19:32:55
1.36100006103516,42,-7.20134973526001,0.0259953606873751,0.030764190480113,0.0621086768805981,0.0118216229602695,0.0266834534704685,0.0669061616063118,0.0238155834376812,3.19603395462036,0.0192352328449488,0.0237151738256216,0.0499671287834644,7.17773673386546e-06,0.00382549152709544,0.00467890221625566,0.0165436696261168,5.70233345031738,0.0413170382380486,0.0472370460629463,0.0933967903256416,0.137194335460663,0.297970533370972,0.184293106198311,0.0438409671187401,2012-01-25 19:32:57
1.01200008392334,49,-7.20108318328857,0.0311149340122938,0.0394363403320312,0.0912621915340424,0.0217745285481215,0.00932671222835779,0.132997989654541,0.162356972694397,3.19656753540039,0.0236895028501749,0.0303692054003477,0.0886602029204369,0.0014342685462907,0.0197808668017387,0.0141721023246646,0.0601472519338131,5.71187305450439,0.0232240203768015,0.0333333611488342,0.103470332920551,0.0208824221044779,0.0863689780235291,0.145804941654205,0.0495380125939846,2012-01-25 19:32:58
1.33799982070923,46,-7.18528985977173,0.0309956334531307,0.0380287617444992,0.0912443250417709,0.0728879868984222,0.0446137227118015,0.116088442504406,0.0272809583693743,3.17266440391541,0.0290120989084244,0.0355787761509418,0.0835697650909424,0.0279151070863008,0.0366870053112507,0.111980341374874,0.110090136528015,5.73944854736328,0.0219862218946218,0.0275434665381908,0.0562816597521305,0.00289922999218106,0.00193666864652187,0.0375988148152828,0.0178789366036654,2012-01-25 19:32:59
1.1710000038147,38,-7.16324138641357,0.032435268163681,0.0407888889312744,0.113292455673218,0.00885406415909529,0.0335759781301022,0.0716275423765182,0.0617826208472252,3.15180563926697,0.0227645393460989,0.0256062485277653,0.052904337644577,0.00322796078398824,0.0229378677904606,0.0412477068603039,0.00934076774865389,5.76476192474365,0.0337935946881771,0.0395176261663437,0.0867116674780846,0.0178744606673717,0.0186084061861038,0.0214648209512234,0.0495295822620392,2012-01-25 19:33:00
1.01200008392334,46,-7.16993999481201,0.0235062688589096,0.0270975101739168,0.0601193904876709,0.0529889576137066,0.0843232423067093,0.0602718815207481,0.00437265587970614,3.18140506744385,0.0225608423352242,0.0267845951020718,0.0547892563045025,0.0145701626315713,0.0575884357094765,0.12942436337471,0.0418026335537434,5.74776268005371,0.0377807021141052,0.0447172671556473,0.0991325974464417,0.0574605762958527,0.114394843578339,0.16039751470089,0.151106670498848,2012-01-25 19:33:01
1.02900004386902,33,-7.16271781921387,0.0214503221213818,0.025770029053092,0.0451699458062649,0.00174522632732987,0.00505944341421127,0.00448580831289291,0.0222064182162285,3.15922713279724,0.0162994228303432,0.0190282911062241,0.0309059321880341,0.00230671023018658,0.00966011546552181,0.0141752799972892,0.00298366881906986,5.73718738555908,0.0324548147618771,0.0389646962285042,0.0879627466201782,8.8363361072652e-09,0.00241228868253529,0.0347052365541458,0.0772023051977158,2012-01-25 19:33:02
1.53199982643127,48,-7.17724180221558,0.028347309678793,0.0331125371158123,0.079678900539875,0.0120402667671442,0.0894161760807037,0.238212987780571,0.0395267643034458,3.17183828353882,0.0176723897457123,0.0235926061868668,0.0741626843810081,0.00217733043245971,0.0243577286601067,0.016979681327939,0.0271033104509115,5.77325630187988,0.0452366061508656,0.0522750429809093,0.100926704704762,0.0636390000581741,0.0710379704833031,0.125889986753464,0.10455460101366,2012-01-25 19:33:04
1.01400017738342,50,-7.17474126815796,0.0322128273546696,0.0379246734082699,0.0821795836091042,0.0620743930339813,0.231869339942932,0.169434100389481,0.118969053030014,3.19343733787537,0.0187189001590014,0.0246347617357969,0.0721768215298653,0.0754024088382721,0.103838004171848,0.0523187592625618,0.0078206118196249,5.74767732620239,0.0411487780511379,0.047569926828146,0.089240662753582,0.0314307846128941,0.0430420450866222,0.505301833152771,0.11172990500927,2012-01-25 19:33:05
1.0019998550415,20,-7.16522884368896,0.0380497723817825,0.0425516963005066,0.0622721686959267,1.44328460010001e-05,0.000148502149386331,0.00250486144796014,0.00483721075579524,3.18372893333435,0.0240262635052204,0.0279575288295746,0.055407702922821,4.16157454310451e-05,0.000106044084532186,0.000555973965674639,0.00244309823028743,5.73836135864258,0.033146571367979,0.0401085913181305,0.0769822597503662,0.00158866960555315,0.00287853926420212,0.00460265157744288,0.0010022004134953,2012-01-25 19:33:06
1.01500010490417,41,-7.16172456741333,0.0304058752954006,0.0370268747210503,0.0813237130641937,0.000392102461773902,0.0266096089035273,0.0380720943212509,0.0270399507135153,3.17424511909485,0.0232302956283092,0.0287701115012169,0.0619492717087269,0.00188068405259401,0.0394789502024651,0.108580879867077,0.0534326210618019,5.75746011734009,0.0377681739628315,0.0478373765945435,0.118636727333069,0.00901070516556501,0.00957830343395472,0.0499749183654785,0.0913833677768707,2012-01-25 19:33:07
1.0090000629425,26,-7.14489889144897,0.0301163457334042,0.0349558480083942,0.0743044689297676,0.00371658219955862,0.00738813169300556,0.0146856224164367,0.00719555420801044,3.17735457420349,0.040735300630331,0.0510293692350388,0.0980665162205696,0.00559631595388055,0.0194127596914768,0.0668825879693031,0.0491862818598747,5.77309942245483,0.0248938165605068,0.033396877348423,0.0716639086604118,0.00557594932615757,0.00968531146645546,0.0113412076607347,0.0153041165322065,2012-01-25 19:33:08
1.2409999370575,47,-7.16594839096069,0.0303566493093967,0.0375585332512856,0.0909722000360489,0.000492985011078417,0.119627043604851,0.0751926079392433,0.0275178384035826,3.18298816680908,0.0321057625114918,0.0371775440871716,0.0728194937109947,0.00929463747888803,0.106278248131275,0.118227958679199,0.0341760329902172,5.75337362289429,0.0446426868438721,0.0666074529290199,0.163583382964134,0.0155290802940726,0.0647944584488869,0.0595123954117298,0.101660683751106,2012-01-25 19:33:09
1.02900004386902,49,-7.16705989837646,0.0283865947276354,0.0367651209235191,0.0800541937351227,2.90152161142032e-06,0.0204740483313799,0.141189619898796,0.111618652939796,3.1749529838562,0.0222600027918816,0.0285416375845671,0.0710480958223343,0.00428788689896464,0.0320451632142067,0.116611540317535,0.0388941243290901,5.74349451065063,0.0316787473857403,0.0374549180269241,0.0948644876480103,0.0560260973870754,0.111551225185394,0.0498715825378895,0.138110116124153,2012-01-25 19:33:10
1.0019998550415,20,-7.16473865509033,0.0149060823023319,0.0192169975489378,0.0529558174312115,0.000150551000842825,0.000319743412546813,0.00118444615509361,0.00129917345475405,3.19353556632996,0.0256443563848734,0.0297894347459078,0.055407702922821,0.000353985553374514,0.000830298755317926,0.00238676182925701,0.00128602120094001,5.72021865844727,0.0166715141385794,0.0221683755517006,0.051975391805172,1.5815909137018e-05,4.30778491136152e-05,0.000118103474960662,4.13465058954898e-05,2012-01-25 19:33:11
1.30800008773804,44,-7.17445611953735,0.0250636581331491,0.0303212646394968,0.0646350905299187,0.046284269541502,0.134345471858978,0.096309058368206,0.00787741132080555,3.19362473487854,0.0294908247888088,0.0347311086952686,0.0653034895658493,0.000661807542201132,0.0853874385356903,0.0909886807203293,0.111591450870037,5.72240304946899,0.0237671080976725,0.030763003975153,0.0933862179517746,0.0135579537600279,0.00849122833460569,0.062594398856163,0.0588984452188015,2012-01-25 19:33:13
1.01799988746643,45,-7.17323732376099,0.0212985537946224,0.0250320062041283,0.044456735253334,0.026765588670969,0.0746213421225548,0.0787363722920418,0.0233809873461723,3.19522452354431,0.0312650166451931,0.0380814857780933,0.099809966981411,0.0155935483053327,0.0350241735577583,0.0682776272296906,0.0735285356640816,5.70943117141724,0.0375704616308212,0.0496010147035122,0.115718610584736,0.172978132963181,0.2995665371418,0.332767009735107,0.166100785136223,2012-01-25 19:33:14
1.00800013542175,25,-7.18552827835083,0.0344566069543362,0.0405307449400425,0.0757076665759087,0.00506277941167355,0.00906599033623934,0.00967101845890284,0.00378453871235251,3.19775247573853,0.017353817820549,0.0211095605045557,0.0400110632181168,0.00245432718656957,0.00510649615898728,0.0085042966529727,0.00406039552763104,5.73649787902832,0.0358375161886215,0.0470294989645481,0.0976744294166565,0.00438946345821023,0.00612422917038202,0.00234020594507456,0.00556282512843609,2012-01-25 19:33:15
1.00399994850159,50,-7.17905616760254,0.0218413323163986,0.027626870200038,0.0582513995468616,0.0316987596452236,0.034075565636158,0.011317765340209,0.0172871965914965,3.16480207443237,0.0191582813858986,0.027670755982399,0.0811989605426788,0.0085085853934288,0.035026915371418,0.058905903249979,0.0673705786466599,5.74453926086426,0.0173225104808807,0.0218660328537226,0.0609973222017288,0.00727975741028786,0.0131083847954869,0.00847648177295923,0.00900815706700087,2012-01-25 19:33:16
1.26900005340576,41,-7.15909385681152,0.0218418054282665,0.0302057955414057,0.078692689538002,0.0159499552100897,0.0336364209651947,0.0525138042867184,0.0258952789008617,3.13980221748352,0.0250738300383091,0.0292121674865484,0.060514222830534,0.0290577132254839,0.0864566564559937,0.0723892375826836,0.00601346744224429,5.75339412689209,0.0390399731695652,0.0502588637173176,0.124377183616161,0.000190075064892881,0.141722306609154,0.164311394095421,0.182467684149742,2012-01-25 19:33:17
1.0460000038147,39,-7.16790676116943,0.027002090588212,0.0303997192531824,0.0497875213623047,0.012190718203783,0.0152760222554207,0.0398116260766983,0.0407197773456573,3.18087482452393,0.0185172110795975,0.0240712463855743,0.0623603463172913,0.0014596056425944,0.00594798754900694,0.00303135020658374,0.00514267897233367,5.77988862991333,0.0296327192336321,0.0365999862551689,0.0822252705693245,0.015252030454576,0.00975934229791164,0.0252290591597557,0.0292923375964165,2012-01-25 19:33:18
1.00300002098083,40,-7.15174436569214,0.0462016500532627,0.0557768829166889,0.114982917904854,0.0125265754759312,0.0359038785099983,0.232194900512695,0.136179894208908,3.17759966850281,0.0243082121014595,0.0294597521424294,0.0688918083906174,0.0288729965686798,0.0433152690529823,0.0105355754494667,0.0267504975199699,5.78911066055298,0.0468390136957169,0.0584869533777237,0.140480428934097,0.0550228953361511,0.112427957355976,0.130578577518463,0.10683823376894,2012-01-25 19:33:19
1.00899982452393,49,-7.15024852752686,0.0371027626097202,0.0449019037187099,0.0992675125598907,0.102284885942936,0.335139513015747,0.106684058904648,0.0710850656032562,3.16674733161926,0.0390387140214443,0.0534141138195992,0.156105786561966,0.263071030378342,0.23551507294178,0.0187423918396235,0.0492961741983891,5.77711725234985,0.0449365638196468,0.0585471391677856,0.128487318754196,0.11314269900322,0.355329960584641,0.228355392813683,0.0708269998431206,2012-01-25 19:33:20
1.02300000190735,20,-7.16032552719116,0.0393245965242386,0.0464419387280941,0.0965953320264816,0.00353294564411044,0.00663937861099839,0.00639892602339387,0.00122795184142888,3.15921211242676,0.0299103148281574,0.0337262228131294,0.0505043156445026,0.00136939086951315,0.00268342066556215,0.00614166725426912,0.00409936439245939,5.83789873123169,0.0399129949510098,0.0456930175423622,0.0755110755562782,0.000129596373881213,0.000576971564441919,0.00463939690962434,0.00725911045446992,2012-01-25 19:33:21
1.00800013542175,30,-7.15198993682861,0.0401419326663017,0.049433771520853,0.085317850112915,0.0168616399168968,0.0313550792634487,0.0413380078971386,0.0938551500439644,3.16950917243958,0.0260202959179878,0.0319682694971561,0.0764917805790901,0.000835551938507706,0.0127490600571036,0.035231176763773,0.0166202746331692,5.76467561721802,0.0317081771790981,0.0389875583350658,0.0866256728768349,0.0105498544871807,0.0274489540606737,0.0498217679560184,0.0243426766246557,2012-01-25 19:33:22
1.0090000629425,50,-7.13610315322876,0.0334525182843208,0.0443122498691082,0.124348469078541,0.00156818353570998,0.301361441612244,0.35835736989975,0.0484594665467739,3.19382977485657,0.0367631465196609,0.0444854460656643,0.130624607205391,0.246543779969215,0.289455682039261,0.102510504424572,0.0257253609597683,5.8180890083313,0.0507748536765575,0.0578854419291019,0.110619269311428,0.185039877891541,0.109670720994473,0.123572304844856,0.0444417968392372,2012-01-25 19:33:23
1,41,-7.14952611923218,0.0268472507596016,0.0321953110396862,0.0593185760080814,0.0383238680660725,0.115309827029705,0.125302627682686,0.0287729762494564,3.15917634963989,0.0393316373229027,0.0438866913318634,0.0868246853351593,0.0284310672432184,0.105072230100632,0.195256888866425,0.0422050394117832,5.8273024559021,0.021176727488637,0.0283655039966106,0.0806057378649712,0.011488514021039,0.0310476031154394,0.026882590726018,0.0913079828023911,2012-01-25 19:33:24
1.00799989700317,29,-7.14634275436401,0.0157186631113291,0.0204245056957006,0.0561349466443062,0.000785031355917454,0.002135437913239,0.00788453500717878,0.00783196091651917,3.12595415115356,0.0313439853489399,0.0422903336584568,0.125119209289551,0.0100290924310684,0.0220166929066181,0.044648714363575,0.0408616773784161,5.77138233184814,0.0333029553294182,0.0401970185339451,0.0831873491406441,0.00612715538591146,0.0156491938978434,0.0239470507949591,0.0169585235416889,2012-01-25 19:33:25
1.01099991798401,48,-7.13352060317993,0.0225417762994766,0.0271412096917629,0.0629262402653694,0.0298959668725729,0.0718456581234932,0.128445938229561,0.0262313708662987,3.12403082847595,0.0334805473685265,0.0382913164794445,0.0839693918824196,0.0222402289509773,0.140163704752922,0.0721106082201004,0.0341639146208763,5.79246139526367,0.0167529974132776,0.0214976873248816,0.0523020438849926,0.0128548052161932,0.0101190824061632,0.0227152388542891,0.0158305466175079,2012-01-25 19:33:26
1.01600003242493,21,-7.15231657028198,0.0242831688374281,0.032218549400568,0.0719157159328461,3.73976472474169e-05,0.000184602118679322,0.00198926357552409,0.00545677728950977,3.17034983634949,0.0432293377816677,0.0500173978507519,0.100868381559849,0.000607214344199747,0.00206093653105199,0.0125821586698294,0.014622294344008,5.77798461914062,0.0533250644803047,0.061026755720377,0.0901279896497726,0.00579971261322498,0.01290881074965,0.0366471037268639,0.0261268150061369,2012-01-25 19:33:27
1.00600004196167,42,-7.14157581329346,0.0246167182922363,0.0297919921576977,0.0663115978240967,0.0219836831092834,0.0669982731342316,0.0651456341147423,0.00477780401706696,3.20233821868896,0.0180233009159565,0.0205485578626394,0.0347901992499828,0.019294086843729,0.0402528904378414,0.0337919369339943,0.00724831083789468,5.82024669647217,0.0385260581970215,0.0490448363125324,0.102969646453857,0.0108587229624391,0.0659071058034897,0.0402282737195492,0.0657915249466896,2012-01-25 19:33:28
1.01399993896484,26,-7.12641668319702,0.0427664406597614,0.0511575788259506,0.120697274804115,0.0124805103987455,0.0226004738360643,0.0245964433997869,0.0125308530405164,3.18904709815979,0.0304063949733973,0.0357763469219208,0.0765672028064728,0.000994954374618828,0.00279313372448087,0.0082983486354351,0.0259085837751627,5.8292989730835,0.0394876562058926,0.0480558164417744,0.0939173698425293,0.00166480953339487,0.00308919232338667,0.00269544660113752,0.0112970173358917,2012-01-25 19:33:29
1.25300002098083,46,-7.11706972122192,0.0186680592596531,0.025981092825532,0.081011526286602,0.0340759418904781,0.0645011812448502,0.0494083389639854,0.0337794274091721,3.18950629234314,0.0247390624135733,0.0326651036739349,0.110218241810799,0.000625893764663488,0.0199825242161751,0.0339635200798512,0.060213565826416,5.77803564071655,0.0392729789018631,0.0478516332805157,0.109792038798332,0.00653051631525159,0.124678358435631,0.289331078529358,0.0402174144983292,2012-01-25 19:33:30
1.01900005340576,47,-7.11482858657837,0.0182728003710508,0.0234936699271202,0.0540410093963146,0.0102500496432185,0.0191769190132618,0.0573121123015881,0.0201562698930502,3.17297291755676,0.0366073548793793,0.0447255969047546,0.113298080861568,0.285616636276245,0.317058682441711,0.0403943061828613,0.0926227644085884,5.80386734008789,0.0316884331405163,0.0380788035690784,0.0801222771406174,0.00936849974095821,0.010975525714457,0.109437085688114,0.167598605155945,2012-01-25 19:33:31
1.00300002098083,19,-7.13820886611938,0.0173857621848583,0.0215546451508999,0.050065491348505,2.71311782853445e-05,0.000150771025801077,0.00128270161803812,0.00202438025735319,3.2031614780426,0.0306423455476761,0.0348842702805996,0.0650336891412735,0.00209911726415157,0.00408165343105793,0.00628320453688502,0.00323108653537929,5.82360172271729,0.0331415310502052,0.0431894212961197,0.0996147468686104,0.00204812712036073,0.00399424834176898,0.00835177861154079,0.00524300104007125,2012-01-25 19:33:32
1.01399993896484,48,-7.10879945755005,0.019987940788269,0.0292999241501093,0.079474925994873,0.0550167858600616,0.126906618475914,0.0773149207234383,0.0737514942884445,3.15569806098938,0.0302372183650732,0.0371251590549946,0.0804962143301964,0.0680796280503273,0.148038819432259,0.196194902062416,0.0351750254631042,5.81289196014404,0.0336081497371197,0.0417262353003025,0.120131254196167,0.106138341128826,0.269781321287155,0.183512091636658,0.0856250897049904,2012-01-25 19:33:33
1,28,-7.13924121856689,0.0119080981239676,0.0159425754100084,0.0392265655100346,0.000367625849321485,0.000594501849263906,0.00024249944544863,0.00179012981243432,3.1948664188385,0.0250669624656439,0.0317075774073601,0.0707478597760201,0.00288476864807308,0.0090897511690855,0.0246615298092365,0.00941035151481628,5.81429290771484,0.030470609664917,0.0370970144867897,0.0893104076385498,0.00108418520539999,0.00151109299622476,0.00676231784746051,0.0259564556181431,2012-01-25 19:33:34
1.14199995994568,32,-7.10798215866089,0.0427893176674843,0.0473773591220379,0.0900987088680267,0.0141398264095187,0.0318127684295177,0.0722861662507057,0.0218558963388205,3.20861315727234,0.025742419064045,0.0305659621953964,0.0704854056239128,0.009891577064991,0.0162920616567135,0.030371492728591,0.0230627376586199,5.82085943222046,0.0217201597988605,0.0291053764522076,0.0741626620292664,0.00900816079229116,0.0251901317387819,0.0602100528776646,0.027032058686018,2012-01-25 19:33:35
1.0090000629425,44,-7.09889984130859,0.0267252344638109,0.0327404886484146,0.0773388370871544,0.00530409812927246,0.0509148947894573,0.0952325165271759,0.0402520187199116,3.19228744506836,0.0229969602078199,0.0276970230042934,0.0635202378034592,0.0263161025941372,0.0310873761773109,0.0250334180891514,0.0185476262122393,5.81556606292725,0.0296832993626595,0.036722157150507,0.0884825736284256,0.00813749339431524,0.135854691267014,0.104894779622555,0.0316125191748142,2012-01-25 19:33:36
1.01900005340576,47,-7.11858463287354,0.0302325468510389,0.0394469574093819,0.099109835922718,0.018644331023097,0.141514867544174,0.133458092808723,0.132566303014755,3.20677447319031,0.0196132734417915,0.0273660272359848,0.0784532949328423,0.000212829050724395,0.00369173102080822,0.0194414146244526,0.0515485070645809,5.82368946075439,0.0266541540622711,0.0342099815607071,0.0995268896222115,0.0015051196096465,0.0120187504217029,0.0470609292387962,0.0644995868206024,2012-01-25 19:33:37
1.00799989700317,31,-7.1250057220459,0.0133069539442658,0.0174076538532972,0.0446047335863113,0.00492028566077352,0.00814337469637394,0.00816435739398003,0.00549495872110128,3.17956900596619,0.0417981594800949,0.046780351549387,0.0860453695058823,0.0445323437452316,0.0825600773096085,0.0739606097340584,0.0118100391700864,5.83337497711182,0.019347945228219,0.022706288844347,0.0506148785352707,0.00254097301512957,0.00562759535387158,0.0145367616787553,0.0142214130610228,2012-01-25 19:33:38
1.00800013542175,34,-7.08616971969604,0.0214796029031277,0.0270264632999897,0.0824915394186974,7.79887996031903e-05,0.00192242860794067,0.0229218453168869,0.0294877495616674,3.195237159729,0.023481635376811,0.0284889936447144,0.0571094453334808,0.0136968027800322,0.0334008485078812,0.0485300570726395,0.0128655228763819,5.75996446609497,0.0388533882796764,0.0461742542684078,0.0847986564040184,0.0475514940917492,0.0755773410201073,0.051041342318058,0.0511632263660431,2012-01-25 19:33:39
1.41799998283386,30,-7.13139581680298,0.0228822715580463,0.0305322483181953,0.0666852295398712,0.0163437388837337,0.0256962440907955,0.0209666062146425,0.00777793675661087,3.19664096832275,0.0224898774176836,0.0276775695383549,0.0689733177423477,0.000950336048845202,0.00347151863388717,0.00396957620978355,0.00503972498700023,5.82515001296997,0.0372652038931847,0.0465513877570629,0.0882596969604492,0.0248742755502462,0.0408969782292843,0.0249758549034595,0.0107178976759315,2012-01-25 19:33:41
1.07299995422363,41,-7.10790729522705,0.0259722694754601,0.0351401939988136,0.10978676378727,0.00309060630388558,0.0125676915049553,0.0920553952455521,0.103603668510914,3.18453001976013,0.0263921786099672,0.0345208272337914,0.081084132194519,0.0070389062166214,0.0323500521481037,0.0291004255414009,0.0204506833106279,5.80338382720947,0.0374414548277855,0.0472803935408592,0.115527339279652,0.0135052381083369,0.048380434513092,0.262234836816788,0.247997105121613,2012-01-25 19:33:42
1.10899996757507,33,-7.10536336898804,0.0158312525600195,0.0187148582190275,0.0445757918059826,0.00318369502201676,0.00604840507730842,0.00435261894017458,0.00481717986986041,3.17200541496277,0.0236656330525875,0.0298712626099586,0.0829108282923698,0.00962517410516739,0.0120558794587851,0.00170173402875662,0.00807287823408842,5.81088590621948,0.020639855414629,0.02634615637362,0.0543822385370731,0.00575712183490396,0.00954751949757338,0.00611772341653705,0.011894604191184,2012-01-25 19:33:43
1.01200008392334,46,-7.10875511169434,0.0181675050407648,0.021758921444416,0.0577740781009197,0.00423104129731655,0.0103424759581685,0.00484470278024673,0.0313902124762535,3.15198516845703,0.0169902164489031,0.0210107080638409,0.0530838966369629,0.0125244781374931,0.0283998288214207,0.0467196442186832,0.0741148218512535,5.83666229248047,0.0303468015044928,0.0364245362579823,0.106167457997799,0.0243863556534052,0.0465157143771648,0.0808036848902702,0.150191530585289,2012-01-25 19:33:44
1.00699996948242,49,-7.08620500564575,0.0197113212198019,0.0246597919613123,0.054837130010128,0.0367744527757168,0.0552030317485332,0.0272481292486191,0.0887687727808952,3.17855525016785,0.0287378299981356,0.0366198979318142,0.0870589166879654,0.0853656455874443,0.157555803656578,0.277431577444077,0.0664672777056694,5.79753112792969,0.0414240434765816,0.0497554279863834,0.0998679399490356,0.00571947637945414,0.381159037351608,0.324702948331833,0.0670063942670822,2012-01-25 19:33:45
1.02600002288818,36,-7.10873126983643,0.0251221302896738,0.0289420317858458,0.0501230545341969,0.00963644403964281,0.027231939136982,0.0549897998571396,0.0182012487202883,3.16509628295898,0.0231546144932508,0.0281556323170662,0.0661949589848518,2.74248432106106e-05,0.000417753879446536,0.0221640542149544,0.0457810647785664,5.8305983543396,0.03377840295434,0.0447874665260315,0.102424830198288,0.0376174077391624,0.0341212004423141,0.0181425921618938,0.0102864820510149,2012-01-25 19:33:46
1.00399994850159,44,-7.12207937240601,0.0212849956005812,0.0291307587176561,0.0661949217319489,0.0312842503190041,0.0390337891876698,0.0360610447824001,0.0261815991252661,3.14771175384521,0.0229666866362095,0.0310458038002253,0.0786760523915291,0.0388405360281467,0.0502414256334305,0.0108246840536594,0.00865648407489061,5.82113838195801,0.0250433851033449,0.0301767289638519,0.0922714993357658,0.0545824281871319,0.0916955098509789,0.0806844383478165,0.0332801267504692,2012-01-25 19:33:47
1.01900005340576,36,-7.11445188522339,0.0220954269170761,0.0270041823387146,0.0536643415689468,0.00787588488310575,0.0373751893639565,0.0607894994318485,0.0355303287506104,3.14221405982971,0.025697123259306,0.0316403172910213,0.0645604804158211,0.00157065503299236,0.0148933902382851,0.0872164145112038,0.036677572876215,5.81697797775269,0.033687599003315,0.0382961258292198,0.0702808722853661,0.0275144521147013,0.0380525812506676,0.0640783086419106,0.0916444435715675,2012-01-25 19:33:48
1.01699995994568,38,-7.12324094772339,0.0190973151475191,0.0227688662707806,0.0454203821718693,0.00058752839686349,0.0109524382278323,0.010497072711587,0.00661731977015734,3.19645166397095,0.0310226734727621,0.0382430888712406,0.0779371410608292,0.000912616436835378,0.0111411167308688,0.0308951996266842,0.0786146149039268,5.8393440246582,0.03674091771245,0.0460355393588543,0.113292418420315,0.0289452783763409,0.0863193273544312,0.0559672974050045,0.0527274683117867,2012-01-25 19:33:49
1.00500011444092,20,-7.10050487518311,0.0173088628798723,0.0226776693016291,0.049523614346981,0.000767141929827631,0.00151249521877617,0.00315478700213134,0.00209181266836822,3.15627026557922,0.0339800752699375,0.0418682135641575,0.0867888554930687,0.00412225024774671,0.00790422130376101,0.0109527977183461,0.00386082124896348,5.80308532714844,0.0311360601335764,0.0360151864588261,0.0612914562225342,0.00229990761727095,0.00428660679608583,0.00476455362513661,0.00186797743663192,2012-01-25 19:33:50
1,42,-7.09067487716675,0.0174786355346441,0.0222346186637878,0.0396936163306236,0.0311559196561575,0.0892371535301208,0.0679880231618881,0.0106940679252148,3.17688751220703,0.0183457639068365,0.0239212140440941,0.058373037725687,0.000707147468347102,0.0203574635088444,0.0244387425482273,0.00761166587471962,5.82211446762085,0.0279300026595592,0.036847997456789,0.101101718842983,0.00852682255208492,0.02672478556633,0.0287834256887436,0.0645715817809105,2012-01-25 19:33:51
1.00699996948242,31,-7.10982131958008,0.0291037950664759,0.035924281924963,0.0784532949328423,0.000682899204548448,0.0010847260709852,0.0197378508746624,0.0407760180532932,3.15236330032349,0.0190622936934233,0.0237405709922314,0.0642177239060402,0.00723166484385729,0.0107477009296417,0.00449478626251221,0.00329428794793785,5.84033441543579,0.0286137349903584,0.0364248044788837,0.102495133876801,0.0163844935595989,0.0342366062104702,0.0502193085849285,0.0201287344098091,2012-01-25 19:33:52
1.03999996185303,34,-7.09568786621094,0.0182391051203012,0.0225881338119507,0.0545134544372559,0.000343426654580981,0.00142804242204875,0.00214865431189537,0.0141984587535262,3.17245125770569,0.0334579981863499,0.0369428247213364,0.0637431889772415,0.00139313843101263,0.0107366861775517,0.0338548421859741,0.0323427133262157,5.81966972351074,0.0213099159300327,0.0248535964637995,0.0545133426785469,0.0125543968752027,0.0188900269567966,0.0142746539786458,0.00719572091475129,2012-01-25 19:33:53
1.0019998550415,25,-7.1047215461731,0.0178560633212328,0.0213272925466299,0.0345196723937988,0.00158092565834522,0.00297148199751973,0.00381000526249409,0.00246186298318207,3.17578554153442,0.0136508448049426,0.0165682975202799,0.0376577004790306,0.000732768967282027,0.00144934805575758,0.00271074008196592,0.000935250078327954,5.83456420898438,0.0529401265084743,0.0586748160421848,0.0788453295826912,0.032085333019495,0.0545095540583134,0.0390146337449551,0.0160769131034613,2012-01-25 19:33:54
1.01100015640259,47,-7.10377025604248,0.0264057274907827,0.0297006629407406,0.0527891181409359,0.0343829616904259,0.0494300983846188,0.0228467732667923,0.066186897456646,3.18966507911682,0.0263522863388062,0.0318875834345818,0.0563359931111336,0.000734178640414029,0.0265081934630871,0.177426069974899,0.066528782248497,5.83850383758545,0.0321501307189465,0.0402270630002022,0.0945192500948906,0.0880370587110519,0.136364802718163,0.0922814160585403,0.12819404900074,2012-01-25 19:33:55
1.01199984550476,33,-7.11843919754028,0.0180826149880886,0.0218296051025391,0.0404154025018215,0.00145126855932176,0.00236763991415501,0.00505396304652095,0.0101317446678877,3.18924140930176,0.0239177439361811,0.0286427047103643,0.0665662437677383,0.0100003052502871,0.0165903549641371,0.00765629345551133,0.0112802665680647,5.84298038482666,0.0356064513325691,0.0436203666031361,0.0962833091616631,0.00280835712328553,0.0014453501207754,0.0324777066707611,0.0190747957676649,2012-01-25 19:33:56
1.20600008964539,26,-7.10227727890015,0.0220505557954311,0.0293328836560249,0.061102993786335,0.00589894922450185,0.0100315753370523,0.00622312165796757,0.00457469467073679,3.09663820266724,0.0222825594246387,0.0299566555768251,0.0807163417339325,0.000939134159125388,0.00144658656790853,0.000942440296057612,0.00218317238613963,5.84325456619263,0.0288976524025202,0.0338284894824028,0.0769443511962891,2.81129905488342e-06,4.84962001792155e-05,0.00343501567840576,0.0104452772065997,2012-01-25 19:33:57
1.01300001144409,49,-7.11762619018555,0.042388092726469,0.0527539923787117,0.109874561429024,0.00705146929249167,0.363034129142761,0.536695122718811,0.0573757700622082,3.1871612071991,0.0312211532145739,0.0376436039805412,0.0980665385723114,0.0359130837023258,0.0260312259197235,0.177911177277565,0.0428267568349838,5.82174777984619,0.0330754332244396,0.038496807217598,0.0818553641438484,0.00151018635369837,0.166012018918991,0.0998220667243004,0.0488753467798233,2012-01-25 19:33:58
1.01600003242493,27,-7.10328340530396,0.0174341555684805,0.0220095217227936,0.0457646064460278,0.000186133300303482,0.00135476852301508,0.00515304924920201,0.000960810808464885,3.19260931015015,0.0347066447138786,0.0444482713937759,0.102425083518028,0.000603545864578336,0.00136121513787657,0.00864051841199398,0.0160618554800749,5.83822536468506,0.0324466377496719,0.0423694960772991,0.0947974547743797,0.0142904408276081,0.0286012534052134,0.0361180379986763,0.00881820544600487,2012-01-25 19:33:59
